<svg xmlns="http://www.w3.org/2000/svg" version="1.1" width="3300" height="2000"><g id="Notes"><style>
    text {
      font-family: monospace;
      text-anchor: middle;
    }
    text.emphasis {
      font-weight:bold;
    }
    text.lanchor {
      text-anchor: start;
    }
  </style><rect height="2200" id="artboard" fill="white" width="3300" x="0" y="0"/><line id="" style="fill:none;stroke:black;stroke-width:0.5;" x1="263" x2="3036" y1="292" y2="292"/><text class="lanchor emphasis" transform="matrix(1 0 0 1 263 322)">Weight/Scale Variations</text><text transform="matrix(1 0 0 1 559.711 322)">Ultralight</text><text transform="matrix(1 0 0 1 856.422 322)">Thin</text><text transform="matrix(1 0 0 1 1153.13 322)">Light</text><text transform="matrix(1 0 0 1 1449.84 322)">Regular</text><text transform="matrix(1 0 0 1 1746.56 322)">Medium</text><text transform="matrix(1 0 0 1 2043.27 322)">Semibold</text><text transform="matrix(1 0 0 1 2339.98 322)">Bold</text><text transform="matrix(1 0 0 1 2636.69 322)">Heavy</text><text transform="matrix(1 0 0 1 2933.4 322)">Black</text><text id="template-version" style="text-anchor: end;" transform="matrix(1 0 0 1 3036 1933)">Template v.1.0</text><text class="lanchor" transform="matrix(1 0 0 1 263 726)">Small</text><text class="lanchor" transform="matrix(1 0 0 1 263 1156)">Medium</text><text class="lanchor" transform="matrix(1 0 0 1 263 1586)">Large</text></g><g id="Guides"><g id="H-reference" style="fill:#27AAE1;stroke:none;" transform="matrix(1 0 0 1 339 696)"><path d="M 54.9316 0 L 57.666 0 L 30.5664 -70.459 L 28.0762 -70.459 L 0.976562 0 L 3.66211 0 L 12.9395 -24.4629 L 45.7031 -24.4629 Z M 29.1992 -67.0898 L 29.4434 -67.0898 L 44.8242 -26.709 L 13.8184 -26.709 Z"/></g><line id="Baseline-S" style="fill:none;stroke:#27AAE1;opacity:1;stroke-width:0.577;" x1="263" x2="3036" y1="696" y2="696"/><line id="Capline-S" style="fill:none;stroke:#27AAE1;opacity:1;stroke-width:0.577;" x1="263" x2="3036" y1="625.541" y2="625.541"/><g id="H-reference" style="fill:#27AAE1;stroke:none;" transform="matrix(1 0 0 1 339 1126)"><path d="M 54.9316 0 L 57.666 0 L 30.5664 -70.459 L 28.0762 -70.459 L 0.976562 0 L 3.66211 0 L 12.9395 -24.4629 L 45.7031 -24.4629 Z M 29.1992 -67.0898 L 29.4434 -67.0898 L 44.8242 -26.709 L 13.8184 -26.709 Z"/></g><line id="Baseline-M" style="fill:none;stroke:#27AAE1;opacity:1;stroke-width:0.577;" x1="263" x2="3036" y1="1126" y2="1126"/><line id="Capline-M" style="fill:none;stroke:#27AAE1;opacity:1;stroke-width:0.577;" x1="263" x2="3036" y1="1055.54" y2="1055.54"/><g id="H-reference" style="fill:#27AAE1;stroke:none;" transform="matrix(1 0 0 1 339 1556)"><path d="M 54.9316 0 L 57.666 0 L 30.5664 -70.459 L 28.0762 -70.459 L 0.976562 0 L 3.66211 0 L 12.9395 -24.4629 L 45.7031 -24.4629 Z M 29.1992 -67.0898 L 29.4434 -67.0898 L 44.8242 -26.709 L 13.8184 -26.709 Z"/></g><line id="Baseline-L" style="fill:none;stroke:#27AAE1;opacity:1;stroke-width:0.577;" x1="263" x2="3036" y1="1556" y2="1556"/><line id="Capline-L" style="fill:none;stroke:#27AAE1;opacity:1;stroke-width:0.577;" x1="263" x2="3036" y1="1485.54" y2="1485.54"/><rect height="119.336" id="left-margin" style="fill:darkred;stroke:none;opacity:0.4;" width="12.4512" x="1394.06" y="1030.79"/><rect height="119.336" id="right-margin" style="fill:darkgreen;stroke:none;opacity:0.4;" width="12.4512" x="1502.5112" y="1030.79"/><rect x="1406.5112" y="1045" width="96" height="96" fill="none" stroke="blue" stroke-dasharray="5"/><rect x="1394.06" y="1030.79" width="120.9024" height="119.336" fill="none" stroke="blue"/></g><g id="Symbols"><g id="Bold-L" transform="matrix(1 0 0 1 2266 1556)"><path d="M94.33125 2.502500000000012 H150.93 V17.17625000000001 H94.33125 V2.502500000000012 Z M77.56125 -73.12375 Q69.49875 -73.12375 64.01625 -67.72187499999998 Q58.53375 -62.31999999999999 58.53375 -54.257499999999986 Q58.53375 -46.19499999999999 64.01625 -40.87374999999999 Q69.49875 -35.552499999999995 77.56125 -35.552499999999995 Q85.62375 -35.552499999999995 90.945 -40.87374999999999 Q96.26625000000001 -46.19499999999999 96.26625000000001 -54.257499999999986 Q96.26625000000001 -62.31999999999999 90.945 -67.72187499999998 Q85.62375 -73.12375 77.56125 -73.12375 Z M67.4025 -57.48249999999999 Q68.53125 -57.48249999999999 69.49875 -56.515 Q70.46625 -55.5475 70.46625 -54.41874999999999 Q70.46625 -53.29 69.49875 -52.241874999999986 Q68.53125 -51.193749999999994 67.4025 -51.193749999999994 Q66.27375 -51.193749999999994 65.30625 -52.241874999999986 Q64.33875 -53.29 64.33875 -54.41874999999999 Q64.33875 -55.5475 65.30625 -56.515 Q66.27375 -57.48249999999999 67.4025 -57.48249999999999 Z M77.4 -57.48249999999999 Q78.52875 -57.48249999999999 79.49625 -56.515 Q80.46375 -55.5475 80.46375 -54.41874999999999 Q80.46375 -53.29 79.49625 -52.241874999999986 Q78.52875 -51.193749999999994 77.4 -51.193749999999994 Q76.27125 -51.193749999999994 75.30375000000001 -52.241874999999986 Q74.33625 -53.29 74.33625 -54.41874999999999 Q74.33625 -55.5475 75.30375000000001 -56.515 Q76.27125 -57.48249999999999 77.4 -57.48249999999999 Z M87.39750000000001 -57.48249999999999 Q88.52625 -57.48249999999999 89.49375 -56.515 Q90.46125 -55.5475 90.46125 -54.41874999999999 Q90.46125 -53.29 89.49375 -52.241874999999986 Q88.52625 -51.193749999999994 87.39750000000001 -51.193749999999994 Q86.1075 -51.193749999999994 85.14 -52.241874999999986 Q84.17250000000001 -53.29 84.17250000000001 -54.41874999999999 Q84.17250000000001 -55.5475 85.14 -56.515 Q86.1075 -57.48249999999999 87.39750000000001 -57.48249999999999 Z M30.47625 26.367500000000007 Q24.509999999999998 26.367500000000007 20.15625 22.013750000000016 Q15.802500000000002 17.659999999999997 15.802500000000002 11.693749999999994 V-82.15375 Q15.802500000000002 -88.28125 20.15625 -92.63499999999999 Q24.509999999999998 -96.98875 30.47625 -96.98875 H124.32374999999999 Q130.45125000000002 -96.98875 134.805 -92.63499999999999 Q139.15875 -88.28125 139.15875 -82.15375 V-27.973749999999995 Q135.93375 -27.973749999999995 132.628125 -27.973749999999995 Q129.32250000000002 -27.973749999999995 125.775 -27.973749999999995 H124.32374999999999 V-82.15375 Q124.32374999999999 -82.15375 124.32374999999999 -82.15375 Q124.32374999999999 -82.15375 124.32374999999999 -82.15375 H30.47625 Q30.47625 -82.15375 30.47625 -82.15375 Q30.47625 -82.15375 30.47625 -82.15375 V11.693749999999994 Q30.47625 11.693749999999994 30.47625 11.693749999999994 Q30.47625 11.693749999999994 30.47625 11.693749999999994 H84.81750000000001 V13.14500000000001 Q84.81750000000001 16.692500000000024 84.81750000000001 19.998125000000016 Q84.81750000000001 23.303750000000008 84.81750000000001 26.367500000000007 H30.47625 Z"/></g><g id="Semibold-L" transform="matrix(1 0 0 1 1970.27 1556)"><path d="M94.97625000000001 3.147500000000008 H150.285 V16.53125 H94.97625000000001 V3.147500000000008 Z M77.56125 -74.09125 Q69.3375 -74.09125 63.69375 -68.52812499999999 Q58.050000000000004 -62.964999999999996 58.050000000000004 -54.57999999999999 Q58.050000000000004 -46.35624999999999 63.613125000000004 -40.87374999999999 Q69.17625 -35.39125 77.56125 -35.39125 Q85.78500000000001 -35.39125 91.2675 -40.87374999999999 Q96.75 -46.35624999999999 96.75 -54.57999999999999 Q96.75 -62.803749999999994 91.2675 -68.44749999999999 Q85.78500000000001 -74.09125 77.56125 -74.09125 Z M66.91875 -58.1275 Q68.20875 -58.1275 69.25687500000001 -57.07937499999999 Q70.305 -56.03124999999999 70.305 -54.741249999999994 Q70.305 -53.45124999999999 69.25687500000001 -52.40312499999999 Q68.20875 -51.355 66.91875 -51.355 Q65.62875000000001 -51.355 64.66125000000001 -52.40312499999999 Q63.69375 -53.45124999999999 63.69375 -54.741249999999994 Q63.69375 -56.03124999999999 64.66125000000001 -57.07937499999999 Q65.62875000000001 -58.1275 66.91875 -58.1275 Z M77.4 -58.1275 Q78.69 -58.1275 79.73812500000001 -57.07937499999999 Q80.78625000000001 -56.03124999999999 80.78625000000001 -54.741249999999994 Q80.78625000000001 -53.45124999999999 79.73812500000001 -52.40312499999999 Q78.69 -51.355 77.4 -51.355 Q76.11000000000001 -51.355 75.061875 -52.40312499999999 Q74.01375 -53.45124999999999 74.01375 -54.741249999999994 Q74.01375 -56.03124999999999 75.061875 -57.07937499999999 Q76.11000000000001 -58.1275 77.4 -58.1275 Z M87.88125000000001 -58.1275 Q89.17125 -58.1275 90.21937500000001 -57.07937499999999 Q91.2675 -56.03124999999999 91.2675 -54.741249999999994 Q91.2675 -53.45124999999999 90.21937500000001 -52.40312499999999 Q89.17125 -51.355 87.88125000000001 -51.355 Q86.59125 -51.355 85.543125 -52.40312499999999 Q84.495 -53.45124999999999 84.495 -54.741249999999994 Q84.495 -56.03124999999999 85.543125 -57.07937499999999 Q86.59125 -58.1275 87.88125000000001 -58.1275 Z M29.83125 25.722499999999997 Q24.509999999999998 25.722499999999997 20.478749999999998 21.691249999999997 Q16.447499999999998 17.659999999999997 16.447499999999998 12.338750000000005 V-82.79875 Q16.447499999999998 -88.28125 20.478749999999998 -92.3125 Q24.509999999999998 -96.34375 29.83125 -96.34375 H124.96875 Q130.45125000000002 -96.34375 134.48250000000002 -92.3125 Q138.51375000000002 -88.28125 138.51375000000002 -82.79875 V-27.32875 Q135.45000000000002 -27.32875 132.305625 -27.32875 Q129.16125 -27.32875 125.775 -27.32875 H124.96875 V-82.79875 Q124.96875 -82.79875 124.96875 -82.79875 Q124.96875 -82.79875 124.96875 -82.79875 H29.83125 Q29.83125 -82.79875 29.83125 -82.79875 Q29.83125 -82.79875 29.83125 -82.79875 V12.338750000000005 Q29.83125 12.338750000000005 29.83125 12.338750000000005 Q29.83125 12.338750000000005 29.83125 12.338750000000005 H85.4625 V13.14500000000001 Q85.4625 16.53125 85.4625 19.675624999999997 Q85.4625 22.82000000000002 85.4625 25.722499999999997 H29.83125 Z"/></g><g id="Medium-L" transform="matrix(1 0 0 1 1674.31 1556)"><path d="M95.46000000000001 3.6312499999999943 H149.80125 V16.047500000000014 H95.46000000000001 V3.6312499999999943 Z M77.56125 -74.73624999999998 Q69.17625 -74.73624999999998 63.451875 -69.011875 Q57.7275 -63.287499999999994 57.7275 -54.902499999999996 Q57.7275 -46.5175 63.371249999999996 -40.87374999999999 Q69.015 -35.22999999999999 77.56125 -35.22999999999999 Q85.94624999999999 -35.22999999999999 91.509375 -40.87374999999999 Q97.0725 -46.5175 97.0725 -54.902499999999996 Q97.0725 -63.287499999999994 91.509375 -69.011875 Q85.94624999999999 -74.73624999999998 77.56125 -74.73624999999998 Z M66.59625 -58.61124999999999 Q68.0475 -58.61124999999999 69.095625 -57.48249999999999 Q70.14375 -56.35375 70.14375 -55.06374999999999 Q70.14375 -53.61249999999999 69.095625 -52.56437499999999 Q68.0475 -51.51625 66.59625 -51.51625 Q65.30625 -51.51625 64.1775 -52.56437499999999 Q63.048750000000005 -53.61249999999999 63.048750000000005 -55.06374999999999 Q63.048750000000005 -56.35375 64.1775 -57.48249999999999 Q65.30625 -58.61124999999999 66.59625 -58.61124999999999 Z M77.4 -58.61124999999999 Q78.85125 -58.61124999999999 79.89937499999999 -57.48249999999999 Q80.9475 -56.35375 80.9475 -55.06374999999999 Q80.9475 -53.61249999999999 79.89937499999999 -52.56437499999999 Q78.85125 -51.51625 77.4 -51.51625 Q75.94875 -51.51625 74.900625 -52.56437499999999 Q73.85249999999999 -53.61249999999999 73.85249999999999 -55.06374999999999 Q73.85249999999999 -56.35375 74.900625 -57.48249999999999 Q75.94875 -58.61124999999999 77.4 -58.61124999999999 Z M88.20375000000001 -58.61124999999999 Q89.655 -58.61124999999999 90.703125 -57.48249999999999 Q91.75125 -56.35375 91.75125 -55.06374999999999 Q91.75125 -53.61249999999999 90.703125 -52.56437499999999 Q89.655 -51.51625 88.20375000000001 -51.51625 Q86.91375 -51.51625 85.78500000000001 -52.56437499999999 Q84.65625 -53.61249999999999 84.65625 -55.06374999999999 Q84.65625 -56.35375 85.78500000000001 -57.48249999999999 Q86.91375 -58.61124999999999 88.20375000000001 -58.61124999999999 Z M29.3475 25.23875000000001 Q24.34875 25.23875000000001 20.64 21.53 Q16.931250000000002 17.82125000000002 16.931250000000002 12.822500000000005 V-83.2825 Q16.931250000000002 -88.28125 20.64 -91.99 Q24.34875 -95.69874999999999 29.3475 -95.69874999999999 H125.4525 Q130.45125000000002 -95.69874999999999 134.16 -91.99 Q137.86875 -88.28125 137.86875 -83.2825 V-26.844999999999985 Q134.96625 -26.844999999999985 131.983125 -26.844999999999985 Q129.0 -26.844999999999985 125.775 -26.844999999999985 H125.4525 V-83.2825 Q125.4525 -83.2825 125.4525 -83.2825 Q125.4525 -83.2825 125.4525 -83.2825 H29.3475 Q29.3475 -83.2825 29.3475 -83.2825 Q29.3475 -83.2825 29.3475 -83.2825 V12.822500000000005 Q29.3475 12.822500000000005 29.3475 12.822500000000005 Q29.3475 12.822500000000005 29.3475 12.822500000000005 H85.94624999999999 V13.14500000000001 Q85.94624999999999 16.370000000000005 85.94624999999999 19.353125000000006 Q85.94624999999999 22.336250000000007 85.94624999999999 25.23875000000001 H29.3475 Z"/></g><g id="Regular-L" transform="matrix(1 0 0 1 1378.56 1556)"><path d="M95.7825 3.9537499999999994 H149.47875000000002 V15.724999999999994 H95.7825 V3.9537499999999994 Z M77.56125 -75.22 Q69.015 -75.22 63.21000000000001 -69.41499999999999 Q57.405 -63.61 57.405 -55.06374999999999 Q57.405 -46.5175 63.21000000000001 -40.87374999999999 Q69.015 -35.22999999999999 77.56125 -35.22999999999999 Q86.1075 -35.22999999999999 91.75125 -40.87374999999999 Q97.395 -46.5175 97.395 -55.06374999999999 Q97.395 -63.61 91.75125 -69.41499999999999 Q86.1075 -75.22 77.56125 -75.22 Z M66.435 -58.933749999999996 Q67.88625 -58.933749999999996 69.015 -57.80499999999999 Q70.14375 -56.67624999999999 70.14375 -55.224999999999994 Q70.14375 -53.77374999999999 69.015 -52.64499999999999 Q67.88625 -51.51625 66.435 -51.51625 Q64.98375 -51.51625 63.855000000000004 -52.64499999999999 Q62.72625 -53.77374999999999 62.72625 -55.224999999999994 Q62.72625 -56.67624999999999 63.855000000000004 -57.80499999999999 Q64.98375 -58.933749999999996 66.435 -58.933749999999996 Z M77.4 -58.933749999999996 Q78.85125 -58.933749999999996 79.98 -57.80499999999999 Q81.10875 -56.67624999999999 81.10875 -55.224999999999994 Q81.10875 -53.77374999999999 79.98 -52.64499999999999 Q78.85125 -51.51625 77.4 -51.51625 Q75.94875 -51.51625 74.82 -52.64499999999999 Q73.69125000000001 -53.77374999999999 73.69125000000001 -55.224999999999994 Q73.69125000000001 -56.67624999999999 74.82 -57.80499999999999 Q75.94875 -58.933749999999996 77.4 -58.933749999999996 Z M88.52625 -58.933749999999996 Q89.97749999999999 -58.933749999999996 91.10625 -57.80499999999999 Q92.23500000000001 -56.67624999999999 92.23500000000001 -55.224999999999994 Q92.23500000000001 -53.77374999999999 91.10625 -52.64499999999999 Q89.97749999999999 -51.51625 88.52625 -51.51625 Q87.075 -51.51625 85.94624999999999 -52.64499999999999 Q84.81750000000001 -53.77374999999999 84.81750000000001 -55.224999999999994 Q84.81750000000001 -56.67624999999999 85.94624999999999 -57.80499999999999 Q87.075 -58.933749999999996 88.52625 -58.933749999999996 Z M29.025000000000002 24.91624999999999 Q24.34875 24.91624999999999 20.80125 21.368750000000006 Q17.25375 17.82125000000002 17.25375 13.14500000000001 V-83.60499999999999 Q17.25375 -88.28125 20.80125 -91.82875 Q24.34875 -95.37625 29.025000000000002 -95.37625 H125.775 Q130.45125000000002 -95.37625 133.99875 -91.82875 Q137.54625 -88.28125 137.54625 -83.60499999999999 V-26.522499999999994 Q134.805 -26.522499999999994 131.9025 -26.522499999999994 Q129.0 -26.522499999999994 125.775 -26.522499999999994 V-83.60499999999999 Q125.775 -83.60499999999999 125.775 -83.60499999999999 Q125.775 -83.60499999999999 125.775 -83.60499999999999 H29.025000000000002 Q29.025000000000002 -83.60499999999999 29.025000000000002 -83.60499999999999 Q29.025000000000002 -83.60499999999999 29.025000000000002 -83.60499999999999 V13.14500000000001 Q29.025000000000002 13.14500000000001 29.025000000000002 13.14500000000001 Q29.025000000000002 13.14500000000001 29.025000000000002 13.14500000000001 H86.26875 Q86.26875 16.370000000000005 86.26875 19.272500000000008 Q86.26875 22.17500000000001 86.26875 24.91624999999999 H29.025000000000002 Z"/></g><g id="Light-L" transform="matrix(1 0 0 1 1082.77 1556)"><path d="M97.395 5.08250000000001 H147.86625 V14.596250000000012 H97.395 V5.08250000000001 Z M77.56125 -73.76874999999998 Q69.49875 -73.76874999999998 64.01625 -68.28625 Q58.53375 -62.803749999999994 58.53375 -54.741249999999994 Q58.53375 -46.84 64.01625 -41.438125 Q69.49875 -36.036249999999995 77.56125 -36.036249999999995 Q85.62375 -36.036249999999995 90.945 -41.438125 Q96.26625000000001 -46.84 96.26625000000001 -54.902499999999996 Q96.26625000000001 -62.803749999999994 90.86437500000001 -68.28625 Q85.4625 -73.76874999999998 77.56125 -73.76874999999998 Z M66.59625 -58.61124999999999 Q68.0475 -58.61124999999999 69.17625 -57.48249999999999 Q70.305 -56.35375 70.305 -54.902499999999996 Q70.305 -53.45124999999999 69.17625 -52.3225 Q68.0475 -51.193749999999994 66.59625 -51.193749999999994 Q65.145 -51.193749999999994 64.01625 -52.3225 Q62.8875 -53.45124999999999 62.8875 -54.902499999999996 Q62.8875 -56.35375 64.01625 -57.48249999999999 Q65.145 -58.61124999999999 66.59625 -58.61124999999999 Z M77.4 -58.61124999999999 Q78.85125 -58.61124999999999 79.98 -57.48249999999999 Q81.10875 -56.35375 81.10875 -54.902499999999996 Q81.10875 -53.45124999999999 79.98 -52.3225 Q78.85125 -51.193749999999994 77.4 -51.193749999999994 Q75.94875 -51.193749999999994 74.82 -52.3225 Q73.69125000000001 -53.45124999999999 73.69125000000001 -54.902499999999996 Q73.69125000000001 -56.35375 74.82 -57.48249999999999 Q75.94875 -58.61124999999999 77.4 -58.61124999999999 Z M88.365 -58.61124999999999 Q89.81625000000001 -58.61124999999999 90.945 -57.48249999999999 Q92.07375 -56.35375 92.07375 -54.902499999999996 Q92.07375 -53.45124999999999 90.945 -52.3225 Q89.81625000000001 -51.193749999999994 88.365 -51.193749999999994 Q86.91375 -51.193749999999994 85.78500000000001 -52.3225 Q84.65625 -53.45124999999999 84.65625 -54.902499999999996 Q84.65625 -56.35375 85.78500000000001 -57.48249999999999 Q86.91375 -58.61124999999999 88.365 -58.61124999999999 Z M31.927500000000002 21.691249999999997 Q27.25125 21.691249999999997 23.865000000000002 18.305000000000007 Q20.478749999999998 14.918750000000003 20.478749999999998 10.242500000000007 V-80.70249999999999 Q20.478749999999998 -85.37875 23.865000000000002 -88.76499999999999 Q27.25125 -92.15125 31.927500000000002 -92.15125 H122.8725 Q127.54875 -92.15125 130.935 -88.76499999999999 Q134.32125 -85.37875 134.32125 -80.70249999999999 V-27.006249999999994 Q132.06375 -27.006249999999994 129.725625 -27.006249999999994 Q127.3875 -27.006249999999994 124.96875 -27.006249999999994 V-80.70249999999999 Q124.96875 -81.50874999999999 124.32374999999999 -82.15375 Q123.67875000000001 -82.79875 122.8725 -82.79875 H31.927500000000002 Q31.121250000000003 -82.79875 30.47625 -82.15375 Q29.83125 -81.50874999999999 29.83125 -80.70249999999999 V10.242500000000007 Q29.83125 11.048750000000013 30.47625 11.693749999999994 Q31.121250000000003 12.338750000000005 31.927500000000002 12.338750000000005 H85.78500000000001 Q85.78500000000001 14.757500000000007 85.78500000000001 17.095625000000013 Q85.78500000000001 19.433750000000003 85.78500000000001 21.691249999999997 H31.927500000000002 Z"/></g><g id="Thin-L" transform="matrix(1 0 0 1 787.282 1556)"><path d="M99.00750000000001 6.372500000000002 H146.25375 V13.306250000000006 H99.00750000000001 V6.372500000000002 Z M77.4 -72.3175 Q69.9825 -72.3175 64.903125 -67.1575 Q59.823750000000004 -61.997499999999995 59.823750000000004 -54.57999999999999 Q59.823750000000004 -47.001249999999985 64.903125 -42.0025 Q69.9825 -37.00375 77.56125 -37.00375 Q84.97875 -37.00375 89.97749999999999 -42.083124999999995 Q94.97625000000001 -47.162499999999994 94.97625000000001 -54.57999999999999 Q94.97625000000001 -61.997499999999995 89.89687500000001 -67.1575 Q84.81750000000001 -72.3175 77.4 -72.3175 Z M66.7575 -58.288749999999986 Q68.20875 -58.288749999999986 69.3375 -57.16 Q70.46625 -56.03124999999999 70.46625 -54.57999999999999 Q70.46625 -53.12875 69.3375 -51.99999999999999 Q68.20875 -50.871249999999996 66.7575 -50.871249999999996 Q65.30625 -50.871249999999996 64.1775 -51.99999999999999 Q63.048750000000005 -53.12875 63.048750000000005 -54.57999999999999 Q63.048750000000005 -56.03124999999999 64.1775 -57.16 Q65.30625 -58.288749999999986 66.7575 -58.288749999999986 Z M77.4 -58.288749999999986 Q78.85125 -58.288749999999986 79.98 -57.16 Q81.10875 -56.03124999999999 81.10875 -54.57999999999999 Q81.10875 -53.12875 79.98 -51.99999999999999 Q78.85125 -50.871249999999996 77.4 -50.871249999999996 Q75.94875 -50.871249999999996 74.82 -51.99999999999999 Q73.69125000000001 -53.12875 73.69125000000001 -54.57999999999999 Q73.69125000000001 -56.03124999999999 74.82 -57.16 Q75.94875 -58.288749999999986 77.4 -58.288749999999986 Z M88.20375000000001 -58.288749999999986 Q89.655 -58.288749999999986 90.78375 -57.16 Q91.91250000000001 -56.03124999999999 91.91250000000001 -54.57999999999999 Q91.91250000000001 -53.12875 90.78375 -51.99999999999999 Q89.655 -50.871249999999996 88.20375000000001 -50.871249999999996 Q86.7525 -50.871249999999996 85.62375 -51.99999999999999 Q84.495 -53.12875 84.495 -54.57999999999999 Q84.495 -56.03124999999999 85.62375 -57.16 Q86.7525 -58.288749999999986 88.20375000000001 -58.288749999999986 Z M34.66875 18.466250000000002 Q30.315 18.466250000000002 27.009375000000002 15.16062500000001 Q23.70375 11.855000000000018 23.70375 7.501250000000013 V-77.96124999999999 Q23.70375 -82.315 27.009375000000002 -85.62062499999999 Q30.315 -88.92625 34.66875 -88.92625 H120.13125000000001 Q124.48500000000001 -88.92625 127.790625 -85.62062499999999 Q131.09625 -82.315 131.09625 -77.96124999999999 V-27.65124999999999 Q129.48375 -27.65124999999999 127.71000000000001 -27.65124999999999 Q125.93625 -27.65124999999999 124.00125000000001 -27.65124999999999 V-77.96124999999999 Q124.00125000000001 -79.4125 122.79187500000002 -80.62187499999999 Q121.58250000000001 -81.83125 120.13125000000001 -81.83125 H34.66875 Q33.2175 -81.83125 32.008125 -80.62187499999999 Q30.798750000000002 -79.4125 30.798750000000002 -77.96124999999999 V7.501250000000013 Q30.798750000000002 8.952500000000015 32.008125 10.161875000000023 Q33.2175 11.371250000000018 34.66875 11.371250000000018 H85.14 Q85.14 13.306250000000006 85.14 15.080000000000013 Q85.14 16.85374999999999 85.14 18.466250000000002 H34.66875 Z"/></g><g id="Ultralight-L" transform="matrix(1 0 0 1 491.205 1556)"><path d="M99.97500000000001 7.0175000000000125 H145.28625 V12.66125000000001 H99.97500000000001 V7.0175000000000125 Z M77.4 -71.51124999999999 Q70.305 -71.51124999999999 65.386875 -66.51249999999999 Q60.46875 -61.513749999999995 60.46875 -54.257499999999986 Q60.46875 -47.162499999999994 65.386875 -42.32499999999999 Q70.305 -37.4875 77.56125 -37.4875 Q84.65625 -37.4875 89.49375 -42.405625 Q94.33125 -47.32374999999999 94.33125 -54.41874999999999 Q94.33125 -61.513749999999995 89.41312500000001 -66.51249999999999 Q84.495 -71.51124999999999 77.4 -71.51124999999999 Z M66.7575 -58.1275 Q68.20875 -58.1275 69.3375 -56.998749999999994 Q70.46625 -55.86999999999999 70.46625 -54.41874999999999 Q70.46625 -52.967499999999994 69.3375 -51.83874999999999 Q68.20875 -50.709999999999994 66.7575 -50.709999999999994 Q65.30625 -50.709999999999994 64.1775 -51.83874999999999 Q63.048750000000005 -52.967499999999994 63.048750000000005 -54.41874999999999 Q63.048750000000005 -55.86999999999999 64.1775 -56.998749999999994 Q65.30625 -58.1275 66.7575 -58.1275 Z M77.4 -58.1275 Q78.85125 -58.1275 79.98 -56.998749999999994 Q81.10875 -55.86999999999999 81.10875 -54.41874999999999 Q81.10875 -52.967499999999994 79.98 -51.83874999999999 Q78.85125 -50.709999999999994 77.4 -50.709999999999994 Q75.94875 -50.709999999999994 74.82 -51.83874999999999 Q73.69125000000001 -52.967499999999994 73.69125000000001 -54.41874999999999 Q73.69125000000001 -55.86999999999999 74.82 -56.998749999999994 Q75.94875 -58.1275 77.4 -58.1275 Z M88.20375000000001 -58.1275 Q89.655 -58.1275 90.78375 -56.998749999999994 Q91.91250000000001 -55.86999999999999 91.91250000000001 -54.41874999999999 Q91.91250000000001 -52.967499999999994 90.78375 -51.83874999999999 Q89.655 -50.709999999999994 88.20375000000001 -50.709999999999994 Q86.7525 -50.709999999999994 85.62375 -51.83874999999999 Q84.495 -52.967499999999994 84.495 -54.41874999999999 Q84.495 -55.86999999999999 85.62375 -56.998749999999994 Q86.7525 -58.1275 88.20375000000001 -58.1275 Z M36.4425 16.53125 Q32.08875 16.53125 28.86375 13.306250000000006 Q25.63875 10.081249999999997 25.63875 5.7275000000000205 V-76.1875 Q25.63875 -80.70249999999999 28.86375 -83.846875 Q32.08875 -86.99125 36.4425 -86.99125 H118.35750000000002 Q122.8725 -86.99125 126.01687500000001 -83.846875 Q129.16125 -80.70249999999999 129.16125 -76.1875 V-27.973749999999995 Q127.87125 -27.973749999999995 126.42000000000002 -27.973749999999995 Q124.96875 -27.973749999999995 123.5175 -27.973749999999995 V-76.1875 Q123.5175 -78.1225 121.905 -79.735 Q120.29249999999999 -81.3475 118.35750000000002 -81.3475 H36.4425 Q34.5075 -81.3475 32.894999999999996 -79.735 Q31.2825 -78.1225 31.2825 -76.1875 V5.7275000000000205 Q31.2825 7.662499999999994 32.894999999999996 9.275000000000006 Q34.5075 10.887500000000003 36.4425 10.887500000000003 H84.81750000000001 Q84.81750000000001 12.338750000000005 84.81750000000001 13.79000000000002 Q84.81750000000001 15.241250000000008 84.81750000000001 16.53125 H36.4425 Z"/></g><g id="Bold-M" transform="matrix(1 0 0 1 2281.8 1126)"><path d="M71.5 -8.72999999999999 H118.5 V8.27000000000001 H71.5 V-8.72999999999999 Z M60.0 -63.97999999999999 Q53.5 -63.97999999999999 48.94 -59.47999999999999 Q44.375 -54.97999999999999 44.375 -48.47999999999999 Q44.375 -41.97999999999999 48.94 -37.419999999999995 Q53.5 -32.85499999999999 60.0 -32.85499999999999 Q66.5 -32.85499999999999 71.065 -37.419999999999995 Q75.625 -41.97999999999999 75.625 -48.47999999999999 Q75.625 -54.97999999999999 71.065 -59.47999999999999 Q66.5 -63.97999999999999 60.0 -63.97999999999999 Z M52.0 -51.22999999999999 Q53.125 -51.22999999999999 53.94 -50.41999999999999 Q54.75 -49.60499999999999 54.75 -48.47999999999999 Q54.75 -47.35499999999999 53.94 -46.47999999999999 Q53.125 -45.60499999999999 52.0 -45.60499999999999 Q50.875 -45.60499999999999 50.065 -46.47999999999999 Q49.25 -47.35499999999999 49.25 -48.47999999999999 Q49.25 -49.60499999999999 50.065 -50.41999999999999 Q50.875 -51.22999999999999 52.0 -51.22999999999999 Z M60.0 -51.22999999999999 Q61.125 -51.22999999999999 61.94 -50.41999999999999 Q62.75 -49.60499999999999 62.75 -48.47999999999999 Q62.75 -47.35499999999999 61.94 -46.47999999999999 Q61.125 -45.60499999999999 60.0 -45.60499999999999 Q58.875 -45.60499999999999 58.065 -46.47999999999999 Q57.25 -47.35499999999999 57.25 -48.47999999999999 Q57.25 -49.60499999999999 58.065 -50.41999999999999 Q58.875 -51.22999999999999 60.0 -51.22999999999999 Z M68.125 -51.22999999999999 Q69.25 -51.22999999999999 70.065 -50.41999999999999 Q70.875 -49.60499999999999 70.875 -48.47999999999999 Q70.875 -47.35499999999999 70.065 -46.47999999999999 Q69.25 -45.60499999999999 68.125 -45.60499999999999 Q66.875 -45.60499999999999 66.065 -46.47999999999999 Q65.25 -47.35499999999999 65.25 -48.47999999999999 Q65.25 -49.60499999999999 66.065 -50.41999999999999 Q66.875 -51.22999999999999 68.125 -51.22999999999999 Z M26.5 15.27000000000001 Q19.375 15.27000000000001 14.44 10.335000000000008 Q9.5 5.39500000000001 9.5 -1.7299999999999898 V-68.72999999999999 Q9.5 -75.85499999999999 14.44 -80.79499999999999 Q19.375 -85.72999999999999 26.5 -85.72999999999999 H93.5 Q100.625 -85.72999999999999 105.565 -80.79499999999999 Q110.5 -75.85499999999999 110.5 -68.72999999999999 V-33.72999999999999 Q107.0 -33.72999999999999 103.125 -33.72999999999999 Q99.25 -33.72999999999999 95.0 -33.72999999999999 H93.5 V-68.72999999999999 Q93.5 -68.72999999999999 93.5 -68.72999999999999 Q93.5 -68.72999999999999 93.5 -68.72999999999999 H26.5 Q26.5 -68.72999999999999 26.5 -68.72999999999999 Q26.5 -68.72999999999999 26.5 -68.72999999999999 V-1.7299999999999898 Q26.5 -1.7299999999999898 26.5 -1.7299999999999898 Q26.5 -1.7299999999999898 26.5 -1.7299999999999898 H61.5 V-0.22999999999998977 Q61.5 4.02000000000001 61.5 7.89500000000001 Q61.5 11.77000000000001 61.5 15.27000000000001 H26.5 Z"/></g><g id="Semibold-M" transform="matrix(1 0 0 1 1985.97 1126)"><path d="M72.375 -7.85499999999999 H117.625 V7.39500000000001 H72.375 V-7.85499999999999 Z M60.0 -64.85499999999999 Q53.375 -64.85499999999999 48.69 -60.22999999999999 Q44.0 -55.60499999999999 44.0 -48.85499999999999 Q44.0 -42.22999999999999 48.69 -37.54499999999999 Q53.375 -32.85499999999999 60.0 -32.85499999999999 Q66.625 -32.85499999999999 71.315 -37.54499999999999 Q76.0 -42.22999999999999 76.0 -48.85499999999999 Q76.0 -55.60499999999999 71.315 -60.22999999999999 Q66.625 -64.85499999999999 60.0 -64.85499999999999 Z M51.625 -51.85499999999999 Q52.875 -51.85499999999999 53.75 -51.04499999999999 Q54.625 -50.22999999999999 54.625 -48.85499999999999 Q54.625 -47.72999999999999 53.75 -46.789999999999985 Q52.875 -45.85499999999999 51.625 -45.85499999999999 Q50.375 -45.85499999999999 49.565 -46.789999999999985 Q48.75 -47.72999999999999 48.75 -48.85499999999999 Q48.75 -50.10499999999999 49.565 -50.97999999999999 Q50.375 -51.85499999999999 51.625 -51.85499999999999 Z M60.0 -51.85499999999999 Q61.25 -51.85499999999999 62.125 -51.04499999999999 Q63.0 -50.22999999999999 63.0 -48.85499999999999 Q63.0 -47.72999999999999 62.125 -46.789999999999985 Q61.25 -45.85499999999999 60.0 -45.85499999999999 Q58.75 -45.85499999999999 57.875 -46.789999999999985 Q57.0 -47.72999999999999 57.0 -48.85499999999999 Q57.0 -50.10499999999999 57.875 -50.97999999999999 Q58.75 -51.85499999999999 60.0 -51.85499999999999 Z M68.5 -51.85499999999999 Q69.75 -51.85499999999999 70.625 -51.04499999999999 Q71.5 -50.22999999999999 71.5 -48.85499999999999 Q71.5 -47.72999999999999 70.625 -46.789999999999985 Q69.75 -45.85499999999999 68.5 -45.85499999999999 Q67.25 -45.85499999999999 66.375 -46.789999999999985 Q65.5 -47.72999999999999 65.5 -48.85499999999999 Q65.5 -50.10499999999999 66.375 -50.97999999999999 Q67.25 -51.85499999999999 68.5 -51.85499999999999 Z M25.875 14.27000000000001 Q19.375 14.27000000000001 14.935 9.830000000000013 Q10.5 5.39500000000001 10.5 -1.1049999999999898 V-69.35499999999999 Q10.5 -75.85499999999999 14.935 -80.29499999999999 Q19.375 -84.72999999999999 25.875 -84.72999999999999 H94.125 Q100.625 -84.72999999999999 105.06500000000001 -80.29499999999999 Q109.5 -75.85499999999999 109.5 -69.35499999999999 V-32.85499999999999 Q106.25 -32.85499999999999 102.625 -32.85499999999999 Q99.0 -32.85499999999999 95.0 -32.85499999999999 H94.125 V-69.35499999999999 Q94.125 -69.35499999999999 94.125 -69.35499999999999 Q94.125 -69.35499999999999 94.125 -69.35499999999999 H25.875 Q25.875 -69.35499999999999 25.875 -69.35499999999999 Q25.875 -69.35499999999999 25.875 -69.35499999999999 V-1.1049999999999898 Q25.875 -1.1049999999999898 25.875 -1.1049999999999898 Q25.875 -1.1049999999999898 25.875 -1.1049999999999898 H62.375 V-0.22999999999998977 Q62.375 3.7700000000000102 62.375 7.39500000000001 Q62.375 11.02000000000001 62.375 14.27000000000001 H25.875 Z"/></g><g id="Medium-M" transform="matrix(1 0 0 1 1689.91 1126)"><path d="M72.875 -7.35499999999999 H117.125 V6.89500000000001 H72.875 V-7.35499999999999 Z M60.0 -65.47999999999999 Q53.25 -65.47999999999999 48.5 -60.72999999999999 Q43.75 -55.97999999999999 43.75 -49.22999999999999 Q43.75 -42.47999999999999 48.5 -37.72999999999999 Q53.25 -32.97999999999999 60.0 -32.97999999999999 Q66.75 -32.97999999999999 71.5 -37.72999999999999 Q76.25 -42.47999999999999 76.25 -49.22999999999999 Q76.25 -55.97999999999999 71.5 -60.72999999999999 Q66.75 -65.47999999999999 60.0 -65.47999999999999 Z M51.375 -52.35499999999999 Q52.75 -52.35499999999999 53.625 -51.47999999999999 Q54.5 -50.60499999999999 54.5 -49.22999999999999 Q54.5 -47.97999999999999 53.625 -47.04499999999999 Q52.75 -46.10499999999999 51.375 -46.10499999999999 Q50.125 -46.10499999999999 49.19 -47.04499999999999 Q48.25 -47.97999999999999 48.25 -49.22999999999999 Q48.25 -50.60499999999999 49.19 -51.47999999999999 Q50.125 -52.35499999999999 51.375 -52.35499999999999 Z M60.0 -52.35499999999999 Q61.375 -52.35499999999999 62.25 -51.47999999999999 Q63.125 -50.60499999999999 63.125 -49.22999999999999 Q63.125 -47.97999999999999 62.25 -47.04499999999999 Q61.375 -46.10499999999999 60.0 -46.10499999999999 Q58.625 -46.10499999999999 57.75 -47.04499999999999 Q56.875 -47.97999999999999 56.875 -49.22999999999999 Q56.875 -50.60499999999999 57.75 -51.47999999999999 Q58.625 -52.35499999999999 60.0 -52.35499999999999 Z M68.75 -52.35499999999999 Q70.125 -52.35499999999999 71.0 -51.47999999999999 Q71.875 -50.60499999999999 71.875 -49.22999999999999 Q71.875 -47.97999999999999 71.0 -47.04499999999999 Q70.125 -46.10499999999999 68.75 -46.10499999999999 Q67.5 -46.10499999999999 66.56 -47.04499999999999 Q65.625 -47.97999999999999 65.625 -49.22999999999999 Q65.625 -50.60499999999999 66.56 -51.47999999999999 Q67.5 -52.35499999999999 68.75 -52.35499999999999 Z M25.375 13.52000000000001 Q19.5 13.52000000000001 15.375 9.39500000000001 Q11.25 5.27000000000001 11.25 -0.6049999999999898 V-69.85499999999999 Q11.25 -75.72999999999999 15.375 -79.85499999999999 Q19.5 -83.97999999999999 25.375 -83.97999999999999 H94.625 Q100.5 -83.97999999999999 104.625 -79.85499999999999 Q108.75 -75.72999999999999 108.75 -69.85499999999999 V-32.35499999999999 Q105.625 -32.35499999999999 102.19 -32.35499999999999 Q98.75 -32.35499999999999 95.0 -32.35499999999999 H94.625 V-69.85499999999999 Q94.625 -69.85499999999999 94.625 -69.85499999999999 Q94.625 -69.85499999999999 94.625 -69.85499999999999 H25.375 Q25.375 -69.85499999999999 25.375 -69.85499999999999 Q25.375 -69.85499999999999 25.375 -69.85499999999999 V-0.6049999999999898 Q25.375 -0.6049999999999898 25.375 -0.6049999999999898 Q25.375 -0.6049999999999898 25.375 -0.6049999999999898 H62.875 V-0.22999999999998977 Q62.875 3.5200000000000102 62.875 6.960000000000008 Q62.875 10.39500000000001 62.875 13.52000000000001 H25.375 Z"/></g><g id="Regular-M" transform="matrix(1 0 0 1 1394.06 1126)"><path d="M73.375 -6.85499999999999 H116.625 V6.39500000000001 H73.375 V-6.85499999999999 Z M60.0 -65.97999999999999 Q53.125 -65.97999999999999 48.315 -61.16999999999999 Q43.5 -56.35499999999999 43.5 -49.47999999999999 Q43.5 -42.60499999999999 48.315 -37.79499999999999 Q53.125 -32.97999999999999 60.0 -32.97999999999999 Q66.875 -32.97999999999999 71.69 -37.79499999999999 Q76.5 -42.60499999999999 76.5 -49.47999999999999 Q76.5 -56.35499999999999 71.69 -61.16999999999999 Q66.875 -65.97999999999999 60.0 -65.97999999999999 Z M51.25 -52.72999999999999 Q52.625 -52.72999999999999 53.565 -51.789999999999985 Q54.5 -50.85499999999999 54.5 -49.47999999999999 Q54.5 -48.10499999999999 53.565 -47.16999999999999 Q52.625 -46.22999999999999 51.25 -46.22999999999999 Q49.875 -46.22999999999999 48.94 -47.16999999999999 Q48.0 -48.10499999999999 48.0 -49.47999999999999 Q48.0 -50.85499999999999 48.94 -51.789999999999985 Q49.875 -52.72999999999999 51.25 -52.72999999999999 Z M60.0 -52.72999999999999 Q61.375 -52.72999999999999 62.315 -51.789999999999985 Q63.25 -50.85499999999999 63.25 -49.47999999999999 Q63.25 -48.10499999999999 62.315 -47.16999999999999 Q61.375 -46.22999999999999 60.0 -46.22999999999999 Q58.625 -46.22999999999999 57.69 -47.16999999999999 Q56.75 -48.10499999999999 56.75 -49.47999999999999 Q56.75 -50.85499999999999 57.69 -51.789999999999985 Q58.625 -52.72999999999999 60.0 -52.72999999999999 Z M69.0 -52.72999999999999 Q70.375 -52.72999999999999 71.315 -51.789999999999985 Q72.25 -50.85499999999999 72.25 -49.47999999999999 Q72.25 -48.10499999999999 71.315 -47.16999999999999 Q70.375 -46.22999999999999 69.0 -46.22999999999999 Q67.625 -46.22999999999999 66.69 -47.16999999999999 Q65.75 -48.10499999999999 65.75 -49.47999999999999 Q65.75 -50.85499999999999 66.69 -51.789999999999985 Q67.625 -52.72999999999999 69.0 -52.72999999999999 Z M25.0 13.02000000000001 Q19.5 13.02000000000001 15.625 9.14500000000001 Q11.75 5.27000000000001 11.75 -0.22999999999998977 V-70.22999999999999 Q11.75 -75.72999999999999 15.625 -79.60499999999999 Q19.5 -83.47999999999999 25.0 -83.47999999999999 H95.0 Q100.5 -83.47999999999999 104.375 -79.60499999999999 Q108.25 -75.72999999999999 108.25 -70.22999999999999 V-31.85499999999999 Q105.25 -31.85499999999999 101.94000000000001 -31.85499999999999 Q98.625 -31.85499999999999 95.0 -31.85499999999999 V-70.22999999999999 Q95.0 -70.22999999999999 95.0 -70.22999999999999 Q95.0 -70.22999999999999 95.0 -70.22999999999999 H25.0 Q25.0 -70.22999999999999 25.0 -70.22999999999999 Q25.0 -70.22999999999999 25.0 -70.22999999999999 V-0.22999999999998977 Q25.0 -0.22999999999998977 25.0 -0.22999999999998977 Q25.0 -0.22999999999998977 25.0 -0.22999999999998977 H63.375 Q63.375 3.3950000000000102 63.375 6.710000000000022 Q63.375 10.02000000000001 63.375 13.02000000000001 H25.0 Z"/></g><g id="Light-M" transform="matrix(1 0 0 1 1098.18 1126)"><path d="M74.625 -5.60499999999999 H115.375 V5.14500000000001 H74.625 V-5.60499999999999 Z M60.0 -64.97999999999999 Q53.5 -64.97999999999999 49.0 -60.47999999999999 Q44.5 -55.97999999999999 44.5 -49.47999999999999 Q44.5 -42.97999999999999 49.0 -38.47999999999999 Q53.5 -33.97999999999999 60.0 -33.97999999999999 Q66.5 -33.97999999999999 71.0 -38.47999999999999 Q75.5 -42.97999999999999 75.5 -49.47999999999999 Q75.5 -55.97999999999999 71.0 -60.47999999999999 Q66.5 -64.97999999999999 60.0 -64.97999999999999 Z M51.25 -52.72999999999999 Q52.625 -52.72999999999999 53.565 -51.789999999999985 Q54.5 -50.85499999999999 54.5 -49.47999999999999 Q54.5 -48.10499999999999 53.565 -47.16999999999999 Q52.625 -46.22999999999999 51.25 -46.22999999999999 Q49.875 -46.22999999999999 48.94 -47.16999999999999 Q48.0 -48.10499999999999 48.0 -49.47999999999999 Q48.0 -50.85499999999999 48.94 -51.789999999999985 Q49.875 -52.72999999999999 51.25 -52.72999999999999 Z M60.0 -52.72999999999999 Q61.375 -52.72999999999999 62.315 -51.789999999999985 Q63.25 -50.85499999999999 63.25 -49.47999999999999 Q63.25 -48.10499999999999 62.315 -47.16999999999999 Q61.375 -46.22999999999999 60.0 -46.22999999999999 Q58.625 -46.22999999999999 57.69 -47.16999999999999 Q56.75 -48.10499999999999 56.75 -49.47999999999999 Q56.75 -50.85499999999999 57.69 -51.789999999999985 Q58.625 -52.72999999999999 60.0 -52.72999999999999 Z M69.0 -52.72999999999999 Q70.375 -52.72999999999999 71.315 -51.789999999999985 Q72.25 -50.85499999999999 72.25 -49.47999999999999 Q72.25 -48.10499999999999 71.315 -47.16999999999999 Q70.375 -46.22999999999999 69.0 -46.22999999999999 Q67.625 -46.22999999999999 66.69 -47.16999999999999 Q65.75 -48.10499999999999 65.75 -49.47999999999999 Q65.75 -50.85499999999999 66.69 -51.789999999999985 Q67.625 -52.72999999999999 69.0 -52.72999999999999 Z M26.5 10.52000000000001 Q21.375 10.52000000000001 17.81 6.960000000000008 Q14.25 3.3950000000000102 14.25 -1.7299999999999898 V-68.72999999999999 Q14.25 -73.85499999999999 17.81 -77.41999999999999 Q21.375 -80.97999999999999 26.5 -80.97999999999999 H93.5 Q98.625 -80.97999999999999 102.19 -77.41999999999999 Q105.75 -73.85499999999999 105.75 -68.72999999999999 V-31.60499999999999 Q103.375 -31.60499999999999 100.69000000000001 -31.60499999999999 Q98.0 -31.60499999999999 95.0 -31.60499999999999 V-68.72999999999999 Q95.0 -69.22999999999999 94.5 -69.72999999999999 Q94.0 -70.22999999999999 93.5 -70.22999999999999 H26.5 Q26.0 -70.22999999999999 25.5 -69.72999999999999 Q25.0 -69.22999999999999 25.0 -68.72999999999999 V-1.7299999999999898 Q25.0 -1.2299999999999898 25.5 -0.7299999999999898 Q26.0 -0.22999999999998977 26.5 -0.22999999999998977 H63.625 Q63.625 2.7700000000000102 63.625 5.460000000000022 Q63.625 8.14500000000001 63.625 10.52000000000001 H26.5 Z"/></g><g id="Thin-M" transform="matrix(1 0 0 1 802.565 1126)"><path d="M75.875 -4.35499999999999 H114.125 V3.8950000000000102 H75.875 V-4.35499999999999 Z M60.0 -64.10499999999999 Q53.875 -64.10499999999999 49.625 -59.79499999999999 Q45.375 -55.47999999999999 45.375 -49.47999999999999 Q45.375 -43.35499999999999 49.690000000000005 -39.10499999999999 Q54.0 -34.85499999999999 60.0 -34.85499999999999 Q66.125 -34.85499999999999 70.375 -39.16999999999999 Q74.625 -43.47999999999999 74.625 -49.47999999999999 Q74.625 -55.60499999999999 70.31 -59.85499999999999 Q66.0 -64.10499999999999 60.0 -64.10499999999999 Z M51.25 -52.72999999999999 Q52.625 -52.72999999999999 53.565 -51.789999999999985 Q54.5 -50.85499999999999 54.5 -49.47999999999999 Q54.5 -48.10499999999999 53.565 -47.16999999999999 Q52.625 -46.22999999999999 51.25 -46.22999999999999 Q49.875 -46.22999999999999 48.94 -47.16999999999999 Q48.0 -48.10499999999999 48.0 -49.47999999999999 Q48.0 -50.85499999999999 48.94 -51.789999999999985 Q49.875 -52.72999999999999 51.25 -52.72999999999999 Z M60.0 -52.72999999999999 Q61.375 -52.72999999999999 62.315 -51.789999999999985 Q63.25 -50.85499999999999 63.25 -49.47999999999999 Q63.25 -48.10499999999999 62.315 -47.16999999999999 Q61.375 -46.22999999999999 60.0 -46.22999999999999 Q58.625 -46.22999999999999 57.69 -47.16999999999999 Q56.75 -48.10499999999999 56.75 -49.47999999999999 Q56.75 -50.85499999999999 57.69 -51.789999999999985 Q58.625 -52.72999999999999 60.0 -52.72999999999999 Z M69.0 -52.72999999999999 Q70.375 -52.72999999999999 71.315 -51.789999999999985 Q72.25 -50.85499999999999 72.25 -49.47999999999999 Q72.25 -48.10499999999999 71.315 -47.16999999999999 Q70.375 -46.22999999999999 69.0 -46.22999999999999 Q67.625 -46.22999999999999 66.69 -47.16999999999999 Q65.75 -48.10499999999999 65.75 -49.47999999999999 Q65.75 -50.85499999999999 66.69 -51.789999999999985 Q67.625 -52.72999999999999 69.0 -52.72999999999999 Z M28.125 8.02000000000001 Q23.25 8.02000000000001 20.0 4.77000000000001 Q16.75 1.5200000000000102 16.75 -3.3549999999999898 V-67.10499999999999 Q16.75 -71.97999999999999 20.0 -75.22999999999999 Q23.25 -78.47999999999999 28.125 -78.47999999999999 H91.875 Q96.75 -78.47999999999999 100.0 -75.22999999999999 Q103.25 -71.97999999999999 103.25 -67.10499999999999 V-31.22999999999999 Q101.5 -31.22999999999999 99.44000000000001 -31.22999999999999 Q97.375 -31.22999999999999 95.0 -31.22999999999999 V-67.10499999999999 Q95.0 -68.35499999999999 94.06 -69.28999999999999 Q93.125 -70.22999999999999 91.875 -70.22999999999999 H28.125 Q26.875 -70.22999999999999 25.939999999999998 -69.28999999999999 Q25.0 -68.35499999999999 25.0 -67.10499999999999 V-3.3549999999999898 Q25.0 -2.1049999999999898 25.939999999999998 -1.1699999999999875 Q26.875 -0.22999999999998977 28.125 -0.22999999999998977 H64.0 Q64.0 2.1450000000000102 64.0 4.210000000000022 Q64.0 6.27000000000001 64.0 8.02000000000001 H28.125 Z"/></g><g id="Ultralight-M" transform="matrix(1 0 0 1 506.415 1126)"><path d="M76.625 -3.6049999999999898 H113.375 V3.1450000000000102 H76.625 V-3.6049999999999898 Z M60.0 -63.47999999999999 Q54.125 -63.47999999999999 50.065 -59.41999999999999 Q46.0 -55.35499999999999 46.0 -49.47999999999999 Q46.0 -43.60499999999999 50.065 -39.54499999999999 Q54.125 -35.47999999999999 60.0 -35.47999999999999 Q65.875 -35.47999999999999 69.94 -39.54499999999999 Q74.0 -43.60499999999999 74.0 -49.47999999999999 Q74.0 -55.35499999999999 69.94 -59.41999999999999 Q65.875 -63.47999999999999 60.0 -63.47999999999999 Z M51.25 -52.72999999999999 Q52.625 -52.72999999999999 53.565 -51.789999999999985 Q54.5 -50.85499999999999 54.5 -49.47999999999999 Q54.5 -48.10499999999999 53.565 -47.16999999999999 Q52.625 -46.22999999999999 51.25 -46.22999999999999 Q49.875 -46.22999999999999 48.94 -47.16999999999999 Q48.0 -48.10499999999999 48.0 -49.47999999999999 Q48.0 -50.85499999999999 48.94 -51.789999999999985 Q49.875 -52.72999999999999 51.25 -52.72999999999999 Z M60.0 -52.72999999999999 Q61.375 -52.72999999999999 62.315 -51.789999999999985 Q63.25 -50.85499999999999 63.25 -49.47999999999999 Q63.25 -48.10499999999999 62.315 -47.16999999999999 Q61.375 -46.22999999999999 60.0 -46.22999999999999 Q58.625 -46.22999999999999 57.69 -47.16999999999999 Q56.75 -48.10499999999999 56.75 -49.47999999999999 Q56.75 -50.85499999999999 57.69 -51.789999999999985 Q58.625 -52.72999999999999 60.0 -52.72999999999999 Z M69.0 -52.72999999999999 Q70.375 -52.72999999999999 71.315 -51.789999999999985 Q72.25 -50.85499999999999 72.25 -49.47999999999999 Q72.25 -48.10499999999999 71.315 -47.16999999999999 Q70.375 -46.22999999999999 69.0 -46.22999999999999 Q67.625 -46.22999999999999 66.69 -47.16999999999999 Q65.75 -48.10499999999999 65.75 -49.47999999999999 Q65.75 -50.85499999999999 66.69 -51.789999999999985 Q67.625 -52.72999999999999 69.0 -52.72999999999999 Z M29.0 6.52000000000001 Q24.375 6.52000000000001 21.314999999999998 3.460000000000008 Q18.25 0.39500000000001023 18.25 -4.22999999999999 V-66.22999999999999 Q18.25 -70.85499999999999 21.314999999999998 -73.91999999999999 Q24.375 -76.97999999999999 29.0 -76.97999999999999 H91.0 Q95.625 -76.97999999999999 98.69 -73.91999999999999 Q101.75 -70.85499999999999 101.75 -66.22999999999999 V-31.10499999999999 Q100.25 -31.10499999999999 98.56 -31.10499999999999 Q96.875 -31.10499999999999 95.0 -31.10499999999999 V-66.22999999999999 Q95.0 -67.72999999999999 93.75 -68.97999999999999 Q92.5 -70.22999999999999 91.0 -70.22999999999999 H29.0 Q27.5 -70.22999999999999 26.25 -68.97999999999999 Q25.0 -67.72999999999999 25.0 -66.22999999999999 V-4.22999999999999 Q25.0 -2.7299999999999898 26.25 -1.4799999999999898 Q27.5 -0.22999999999998977 29.0 -0.22999999999998977 H64.125 Q64.125 1.6450000000000102 64.125 3.3300000000000125 Q64.125 5.02000000000001 64.125 6.52000000000001 H29.0 Z"/></g><g id="Bold-S" transform="matrix(1 0 0 1 2294.23 696)"><path d="M54.048078 -17.87042199999999 H87.97192199999999 V-5.249578 H54.048078 V-17.87042199999999 Z M47.34 -57.91532799999999 Q42.213077999999996 -57.91532799999999 38.610504000000006 -54.36482799999999 Q35.012664 -50.81432799999999 35.012664 -45.682672 Q35.012664 -40.555749999999996 38.610504000000006 -36.95790999999999 Q42.213077999999996 -33.35533599999999 47.34 -33.35533599999999 Q52.466922000000004 -33.35533599999999 56.069495999999994 -36.95790999999999 Q59.667336 -40.555749999999996 59.667336 -45.682672 Q59.667336 -50.81432799999999 56.069495999999994 -54.36482799999999 Q52.466922000000004 -57.91532799999999 47.34 -57.91532799999999 Z M40.437827999999996 -47.656749999999995 Q41.323085999999996 -47.656749999999995 41.867495999999996 -47.11233999999999 Q42.407172 -46.572663999999996 42.407172 -45.682672 Q42.407172 -44.797413999999996 41.867495999999996 -44.205664 Q41.323085999999996 -43.613913999999994 40.437827999999996 -43.613913999999994 Q39.547836 -43.613913999999994 39.008160000000004 -44.205664 Q38.46375 -44.797413999999996 38.46375 -45.682672 Q38.46375 -46.572663999999996 39.008160000000004 -47.11233999999999 Q39.547836 -47.656749999999995 40.437827999999996 -47.656749999999995 Z M47.34 -47.656749999999995 Q48.229992 -47.656749999999995 48.769667999999996 -47.11233999999999 Q49.314078 -46.572663999999996 49.314078 -45.682672 Q49.314078 -44.797413999999996 48.769667999999996 -44.205664 Q48.229992 -43.613913999999994 47.34 -43.613913999999994 Q46.450008 -43.613913999999994 45.910332000000004 -44.205664 Q45.365922 -44.797413999999996 45.365922 -45.682672 Q45.365922 -46.572663999999996 45.910332000000004 -47.11233999999999 Q46.450008 -47.656749999999995 47.34 -47.656749999999995 Z M54.341586 -47.656749999999995 Q55.231578 -47.656749999999995 55.771254000000006 -47.11233999999999 Q56.315664000000005 -46.572663999999996 56.315664000000005 -45.682672 Q56.315664000000005 -44.797413999999996 55.771254000000006 -44.205664 Q55.231578 -43.613913999999994 54.341586 -43.613913999999994 Q53.356914 -43.613913999999994 52.812504000000004 -44.205664 Q52.272828 -44.797413999999996 52.272828 -45.682672 Q52.272828 -46.572663999999996 52.812504000000004 -47.11233999999999 Q53.356914 -47.656749999999995 54.341586 -47.656749999999995 Z M22.4865 2.2490780000000115 Q17.16075 2.2490780000000115 13.510836000000001 -1.400835999999984 Q9.860922 -5.050749999999994 9.860922 -10.376499999999993 V-60.083499999999994 Q9.860922 -65.40924999999999 13.510836000000001 -69.059164 Q17.16075 -72.70907799999999 22.4865 -72.70907799999999 H72.1935 Q77.51925 -72.70907799999999 81.16916400000001 -69.059164 Q84.819078 -65.40924999999999 84.819078 -60.083499999999994 V-35.52350799999999 Q82.25325 -35.52350799999999 79.441254 -35.52350799999999 Q76.63399199999999 -35.52350799999999 73.377 -35.52350799999999 H72.1935 V-60.083499999999994 Q72.1935 -60.083499999999994 72.1935 -60.083499999999994 Q72.1935 -60.083499999999994 72.1935 -60.083499999999994 H22.4865 Q22.4865 -60.083499999999994 22.4865 -60.083499999999994 Q22.4865 -60.083499999999994 22.4865 -60.083499999999994 V-10.376499999999993 Q22.4865 -10.376499999999993 22.4865 -10.376499999999993 Q22.4865 -10.376499999999993 22.4865 -10.376499999999993 H47.046492 V-9.192999999999998 Q47.046492 -5.936008000000001 47.046492 -3.1287459999999925 Q47.046492 -0.316749999999999 47.046492 2.2490780000000115 H22.4865 Z"/></g><g id="Semibold-S" transform="matrix(1 0 0 1 1998.1 696)"><path d="M54.734508 -17.18399199999999 H87.28549199999999 V-5.936008000000001 H54.734508 V-17.18399199999999 Z M47.34 -58.60649199999999 Q42.11366400000001 -58.60649199999999 38.41641 -54.95657799999999 Q34.714422 -51.306664 34.714422 -45.98091399999999 Q34.714422 -40.754577999999995 38.41641 -37.052589999999995 Q42.11366400000001 -33.35533599999999 47.34 -33.35533599999999 Q52.56633599999999 -33.35533599999999 56.26359 -37.052589999999995 Q59.965578 -40.754577999999995 59.965578 -45.98091399999999 Q59.965578 -51.306664 56.26359 -54.95657799999999 Q52.56633599999999 -58.60649199999999 47.34 -58.60649199999999 Z M40.139585999999994 -48.149086 Q41.128992000000004 -48.149086 41.716007999999995 -47.60941 Q42.312492000000006 -47.06499999999999 42.312492000000006 -45.98091399999999 Q42.312492000000006 -45.09092199999999 41.716007999999995 -44.451831999999996 Q41.128992000000004 -43.808007999999994 40.139585999999994 -43.808007999999994 Q39.154914000000005 -43.808007999999994 38.610504000000006 -44.451831999999996 Q38.070828 -45.09092199999999 38.070828 -45.98091399999999 Q38.070828 -46.965585999999995 38.610504000000006 -47.55733599999999 Q39.154914000000005 -48.149086 40.139585999999994 -48.149086 Z M47.34 -48.149086 Q48.324672 -48.149086 48.916422 -47.60941 Q49.508172 -47.06499999999999 49.508172 -45.98091399999999 Q49.508172 -45.09092199999999 48.916422 -44.451831999999996 Q48.324672 -43.808007999999994 47.34 -43.808007999999994 Q46.355328 -43.808007999999994 45.763578 -44.451831999999996 Q45.171828 -45.09092199999999 45.171828 -45.98091399999999 Q45.171828 -46.965585999999995 45.763578 -47.55733599999999 Q46.355328 -48.149086 47.34 -48.149086 Z M54.639828 -48.149086 Q55.6245 -48.149086 56.21625 -47.60941 Q56.808 -47.06499999999999 56.808 -45.98091399999999 Q56.808 -45.09092199999999 56.21625 -44.451831999999996 Q55.6245 -43.808007999999994 54.639828 -43.808007999999994 Q53.650422 -43.808007999999994 53.058672 -44.451831999999996 Q52.466922000000004 -45.09092199999999 52.466922000000004 -45.98091399999999 Q52.466922000000004 -46.965585999999995 53.058672 -47.55733599999999 Q53.650422 -48.149086 54.639828 -48.149086 Z M21.994163999999998 1.4585000000000008 Q17.16075 1.4585000000000008 13.908492 -1.8458320000000015 Q10.6515 -5.150164000000004 10.6515 -9.884163999999998 V-60.575835999999995 Q10.6515 -65.30983599999999 13.955832 -68.61416799999999 Q17.260164 -71.9185 21.994163999999998 -71.9185 H72.685836 Q77.41983599999999 -71.9185 80.72416799999999 -68.61416799999999 Q84.0285 -65.30983599999999 84.0285 -60.575835999999995 V-34.83707799999999 Q81.6615 -34.83707799999999 79.048332 -34.83707799999999 Q76.435164 -34.83707799999999 73.377 -34.83707799999999 H72.685836 V-60.575835999999995 Q72.685836 -60.575835999999995 72.685836 -60.575835999999995 Q72.685836 -60.575835999999995 72.685836 -60.575835999999995 H21.994163999999998 Q21.994163999999998 -60.575835999999995 21.994163999999998 -60.575835999999995 Q21.994163999999998 -60.575835999999995 21.994163999999998 -60.575835999999995 V-9.884163999999998 Q21.994163999999998 -9.884163999999998 21.994163999999998 -9.884163999999998 Q21.994163999999998 -9.884163999999998 21.994163999999998 -9.884163999999998 H47.732922 V-9.192999999999998 Q47.732922 -6.134835999999993 47.732922 -3.521667999999991 Q47.732922 -0.9084999999999894 47.732922 1.4585000000000008 H21.994163999999998 Z"/></g><g id="Medium-S" transform="matrix(1 0 0 1 1701.85 696)"><path d="M55.132164 -16.78633599999999 H86.887836 V-6.333663999999999 H55.132164 V-16.78633599999999 Z M47.34 -59.098828 Q42.01425 -59.098828 38.264922 -55.34949999999999 Q34.520328 -51.60017199999999 34.520328 -46.274421999999994 Q34.520328 -40.948671999999995 38.264922 -37.204077999999996 Q42.01425 -33.45474999999999 47.34 -33.45474999999999 Q52.66575 -33.45474999999999 56.415078 -37.204077999999996 Q60.159672 -40.948671999999995 60.159672 -46.274421999999994 Q60.159672 -51.60017199999999 56.415078 -55.34949999999999 Q52.66575 -59.098828 47.34 -59.098828 Z M39.945492 -48.542007999999996 Q41.029578 -48.542007999999996 41.621328 -47.95499199999999 Q42.213077999999996 -47.35850799999999 42.213077999999996 -46.274421999999994 Q42.213077999999996 -45.28974999999999 41.621328 -44.650659999999995 Q41.029578 -44.00683599999999 39.945492 -44.00683599999999 Q38.956086 -44.00683599999999 38.316995999999996 -44.650659999999995 Q37.673172 -45.28974999999999 37.673172 -46.274421999999994 Q37.673172 -47.35850799999999 38.316995999999996 -47.95499199999999 Q38.956086 -48.542007999999996 39.945492 -48.542007999999996 Z M47.34 -48.542007999999996 Q48.424085999999996 -48.542007999999996 49.01583599999999 -47.95499199999999 Q49.607586 -47.35850799999999 49.607586 -46.274421999999994 Q49.607586 -45.28974999999999 49.01583599999999 -44.650659999999995 Q48.424085999999996 -44.00683599999999 47.34 -44.00683599999999 Q46.255914000000004 -44.00683599999999 45.66416400000001 -44.650659999999995 Q45.072414 -45.28974999999999 45.072414 -46.274421999999994 Q45.072414 -47.35850799999999 45.66416400000001 -47.95499199999999 Q46.255914000000004 -48.542007999999996 47.34 -48.542007999999996 Z M54.833922 -48.542007999999996 Q55.918008 -48.542007999999996 56.514492000000004 -47.95499199999999 Q57.101507999999995 -47.35850799999999 57.101507999999995 -46.274421999999994 Q57.101507999999995 -45.28974999999999 56.514492000000004 -44.650659999999995 Q55.918008 -44.00683599999999 54.833922 -44.00683599999999 Q53.84925 -44.00683599999999 53.21016 -44.650659999999995 Q52.56633599999999 -45.28974999999999 52.56633599999999 -46.274421999999994 Q52.56633599999999 -47.35850799999999 53.21016 -47.95499199999999 Q53.84925 -48.542007999999996 54.833922 -48.542007999999996 Z M21.596508 0.8667500000000103 Q17.260164 0.8667500000000103 14.249339999999998 -2.1393400000000042 Q11.24325 -5.150164000000004 11.24325 -9.486507999999986 V-60.97349199999999 Q11.24325 -65.30983599999999 14.249339999999998 -68.32065999999999 Q17.260164 -71.32674999999999 21.596508 -71.32674999999999 H73.083492 Q77.41983599999999 -71.32674999999999 80.43065999999999 -68.32065999999999 Q83.43675 -65.30983599999999 83.43675 -60.97349199999999 V-34.43942199999999 Q81.268578 -34.43942199999999 78.75009 -34.43942199999999 Q76.236336 -34.43942199999999 73.377 -34.43942199999999 H73.083492 V-60.97349199999999 Q73.083492 -60.97349199999999 73.083492 -60.97349199999999 Q73.083492 -60.97349199999999 73.083492 -60.97349199999999 H21.596508 Q21.596508 -60.97349199999999 21.596508 -60.97349199999999 Q21.596508 -60.97349199999999 21.596508 -60.97349199999999 V-9.486507999999986 Q21.596508 -9.486507999999986 21.596508 -9.486507999999986 Q21.596508 -9.486507999999986 21.596508 -9.486507999999986 H48.130578 V-9.192999999999998 Q48.130578 -6.333663999999999 48.130578 -3.819909999999993 Q48.130578 -1.301421999999988 48.130578 0.8667500000000103 H21.596508 Z"/></g><g id="Regular-S" transform="matrix(1 0 0 1 1405.73 696)"><path d="M55.525085999999995 -16.393413999999993 H86.49491400000001 V-6.726585999999983 H55.525085999999995 V-16.393413999999993 Z M47.34 -59.491749999999996 Q41.914835999999994 -59.491749999999996 38.118168 -55.695082 Q34.3215 -51.89841399999999 34.3215 -46.47324999999999 Q34.3215 -41.04808599999999 38.118168 -37.251417999999994 Q41.914835999999994 -33.45474999999999 47.34 -33.45474999999999 Q52.765164000000006 -33.45474999999999 56.561832 -37.251417999999994 Q60.3585 -41.04808599999999 60.3585 -46.47324999999999 Q60.3585 -51.89841399999999 56.561832 -55.695082 Q52.765164000000006 -59.491749999999996 47.34 -59.491749999999996 Z M39.846078 -48.84024999999999 Q40.930164000000005 -48.84024999999999 41.569254 -48.201159999999994 Q42.213077999999996 -47.55733599999999 42.213077999999996 -46.47324999999999 Q42.213077999999996 -45.389163999999994 41.569254 -44.74533999999999 Q40.930164000000005 -44.106249999999996 39.846078 -44.106249999999996 Q38.761992 -44.106249999999996 38.118168 -44.74533999999999 Q37.479078 -45.389163999999994 37.479078 -46.47324999999999 Q37.479078 -47.55733599999999 38.118168 -48.201159999999994 Q38.761992 -48.84024999999999 39.846078 -48.84024999999999 Z M47.34 -48.84024999999999 Q48.424085999999996 -48.84024999999999 49.06791 -48.201159999999994 Q49.707 -47.55733599999999 49.707 -46.47324999999999 Q49.707 -45.389163999999994 49.06791 -44.74533999999999 Q48.424085999999996 -44.106249999999996 47.34 -44.106249999999996 Q46.255914000000004 -44.106249999999996 45.61209 -44.74533999999999 Q44.973 -45.389163999999994 44.973 -46.47324999999999 Q44.973 -47.55733599999999 45.61209 -48.201159999999994 Q46.255914000000004 -48.84024999999999 47.34 -48.84024999999999 Z M55.03275 -48.84024999999999 Q56.116836 -48.84024999999999 56.76066 -48.201159999999994 Q57.39975 -47.55733599999999 57.39975 -46.47324999999999 Q57.39975 -45.389163999999994 56.76066 -44.74533999999999 Q56.116836 -44.106249999999996 55.03275 -44.106249999999996 Q53.948664 -44.106249999999996 53.30484 -44.74533999999999 Q52.66575 -45.389163999999994 52.66575 -46.47324999999999 Q52.66575 -47.55733599999999 53.30484 -48.201159999999994 Q53.948664 -48.84024999999999 55.03275 -48.84024999999999 Z M21.303 0.4738280000000117 Q17.260164 0.4738280000000117 14.448168 -2.3855080000000015 Q11.636172 -5.249578 11.636172 -9.192999999999998 V-61.266999999999996 Q11.636172 -65.210422 14.495508 -68.069758 Q17.359578 -70.93382799999999 21.303 -70.93382799999999 H73.377 Q77.320422 -70.93382799999999 80.18449199999999 -68.069758 Q83.043828 -65.210422 83.043828 -61.266999999999996 V-34.046499999999995 Q80.870922 -34.046499999999995 78.50392199999999 -34.046499999999995 Q76.136922 -34.046499999999995 73.377 -34.046499999999995 V-61.266999999999996 Q73.377 -61.266999999999996 73.377 -61.266999999999996 Q73.377 -61.266999999999996 73.377 -61.266999999999996 H21.303 Q21.303 -61.266999999999996 21.303 -61.266999999999996 Q21.303 -61.266999999999996 21.303 -61.266999999999996 V-9.192999999999998 Q21.303 -9.192999999999998 21.303 -9.192999999999998 Q21.303 -9.192999999999998 21.303 -9.192999999999998 H48.5235 Q48.5235 -6.433077999999995 48.5235 -4.0660780000000045 Q48.5235 -1.699078 48.5235 0.4738280000000117 H21.303 Z"/></g><g id="Light-S" transform="matrix(1 0 0 1 1109.75 696)"><path d="M56.514492000000004 -15.40400799999999 H85.505508 V-7.715992 H56.514492000000004 V-15.40400799999999 Z M47.34 -58.70117199999999 Q42.213077999999996 -58.70117199999999 38.662577999999996 -55.15067199999999 Q35.112078 -51.60017199999999 35.112078 -46.47324999999999 Q35.112078 -41.34632799999999 38.662577999999996 -37.79582799999999 Q42.213077999999996 -34.24532799999999 47.34 -34.24532799999999 Q52.466922000000004 -34.24532799999999 56.017422 -37.79582799999999 Q59.567922 -41.34632799999999 59.567922 -46.47324999999999 Q59.567922 -51.60017199999999 56.017422 -55.15067199999999 Q52.466922000000004 -58.70117199999999 47.34 -58.70117199999999 Z M39.846078 -48.84024999999999 Q40.930164000000005 -48.84024999999999 41.569254 -48.201159999999994 Q42.213077999999996 -47.55733599999999 42.213077999999996 -46.47324999999999 Q42.213077999999996 -45.389163999999994 41.569254 -44.74533999999999 Q40.930164000000005 -44.106249999999996 39.846078 -44.106249999999996 Q38.761992 -44.106249999999996 38.118168 -44.74533999999999 Q37.479078 -45.389163999999994 37.479078 -46.47324999999999 Q37.479078 -47.55733599999999 38.118168 -48.201159999999994 Q38.761992 -48.84024999999999 39.846078 -48.84024999999999 Z M47.34 -48.84024999999999 Q48.424085999999996 -48.84024999999999 49.06791 -48.201159999999994 Q49.707 -47.55733599999999 49.707 -46.47324999999999 Q49.707 -45.389163999999994 49.06791 -44.74533999999999 Q48.424085999999996 -44.106249999999996 47.34 -44.106249999999996 Q46.255914000000004 -44.106249999999996 45.61209 -44.74533999999999 Q44.973 -45.389163999999994 44.973 -46.47324999999999 Q44.973 -47.55733599999999 45.61209 -48.201159999999994 Q46.255914000000004 -48.84024999999999 47.34 -48.84024999999999 Z M55.03275 -48.84024999999999 Q56.116836 -48.84024999999999 56.76066 -48.201159999999994 Q57.39975 -47.55733599999999 57.39975 -46.47324999999999 Q57.39975 -45.389163999999994 56.76066 -44.74533999999999 Q56.116836 -44.106249999999996 55.03275 -44.106249999999996 Q53.948664 -44.106249999999996 53.30484 -44.74533999999999 Q52.66575 -45.389163999999994 52.66575 -46.47324999999999 Q52.66575 -47.55733599999999 53.30484 -48.201159999999994 Q53.948664 -48.84024999999999 55.03275 -48.84024999999999 Z M22.4865 -1.500249999999994 Q18.737172 -1.500249999999994 16.176078 -4.113417999999996 Q13.61025 -6.726585999999983 13.61025 -10.376499999999993 V-60.083499999999994 Q13.61025 -63.733413999999996 16.223418 -66.346582 Q18.836586 -68.95974999999999 22.4865 -68.95974999999999 H72.1935 Q75.84341400000001 -68.95974999999999 78.456582 -66.346582 Q81.06975 -63.733413999999996 81.06975 -59.98408599999999 V-33.847671999999996 Q79.39391400000001 -33.847671999999996 77.51925 -33.847671999999996 Q75.64458599999999 -33.847671999999996 73.377 -33.847671999999996 V-60.083499999999994 Q73.377 -60.47642199999999 72.984078 -60.874078 Q72.586422 -61.266999999999996 72.1935 -61.266999999999996 H22.4865 Q22.093578 -61.266999999999996 21.695922 -60.874078 Q21.303 -60.47642199999999 21.303 -60.083499999999994 V-10.376499999999993 Q21.303 -9.983577999999994 21.695922 -9.585921999999997 Q22.093578 -9.192999999999998 22.4865 -9.192999999999998 H48.722328 Q48.722328 -6.9254140000000035 48.722328 -5.050749999999994 Q48.722328 -3.1760859999999838 48.722328 -1.500249999999994 H22.4865 Z"/></g><g id="Thin-S" transform="matrix(1 0 0 1 814.015 696)"><path d="M57.499164 -14.419335999999987 H84.520836 V-8.700664000000003 H57.499164 V-14.419335999999987 Z M47.34 -58.010008 Q42.506586 -58.010008 39.154914000000005 -54.61099599999999 Q35.798508 -51.207249999999995 35.798508 -46.47324999999999 Q35.798508 -41.63983599999999 39.202254 -38.288163999999995 Q42.606 -34.936491999999994 47.34 -34.936491999999994 Q52.173414 -34.936491999999994 55.525085999999995 -38.33550399999999 Q58.881492 -41.73924999999999 58.881492 -46.47324999999999 Q58.881492 -51.306664 55.477745999999996 -54.65833599999999 Q52.074 -58.010008 47.34 -58.010008 Z M39.846078 -48.84024999999999 Q40.930164000000005 -48.84024999999999 41.569254 -48.201159999999994 Q42.213077999999996 -47.55733599999999 42.213077999999996 -46.47324999999999 Q42.213077999999996 -45.389163999999994 41.569254 -44.74533999999999 Q40.930164000000005 -44.106249999999996 39.846078 -44.106249999999996 Q38.761992 -44.106249999999996 38.118168 -44.74533999999999 Q37.479078 -45.389163999999994 37.479078 -46.47324999999999 Q37.479078 -47.55733599999999 38.118168 -48.201159999999994 Q38.761992 -48.84024999999999 39.846078 -48.84024999999999 Z M47.34 -48.84024999999999 Q48.424085999999996 -48.84024999999999 49.06791 -48.201159999999994 Q49.707 -47.55733599999999 49.707 -46.47324999999999 Q49.707 -45.389163999999994 49.06791 -44.74533999999999 Q48.424085999999996 -44.106249999999996 47.34 -44.106249999999996 Q46.255914000000004 -44.106249999999996 45.61209 -44.74533999999999 Q44.973 -45.389163999999994 44.973 -46.47324999999999 Q44.973 -47.55733599999999 45.61209 -48.201159999999994 Q46.255914000000004 -48.84024999999999 47.34 -48.84024999999999 Z M55.03275 -48.84024999999999 Q56.116836 -48.84024999999999 56.76066 -48.201159999999994 Q57.39975 -47.55733599999999 57.39975 -46.47324999999999 Q57.39975 -45.389163999999994 56.76066 -44.74533999999999 Q56.116836 -44.106249999999996 55.03275 -44.106249999999996 Q53.948664 -44.106249999999996 53.30484 -44.74533999999999 Q52.66575 -45.389163999999994 52.66575 -46.47324999999999 Q52.66575 -47.55733599999999 53.30484 -48.201159999999994 Q53.948664 -48.84024999999999 55.03275 -48.84024999999999 Z M23.67 -3.474328 Q20.218913999999998 -3.474328 17.899254 -5.841328000000004 Q15.584328 -8.208327999999995 15.584328 -11.659413999999998 V-58.800585999999996 Q15.584328 -62.251672 17.951328 -64.61867199999999 Q20.318327999999998 -66.985672 23.769414 -66.985672 H70.910586 Q74.361672 -66.985672 76.72867199999999 -64.61867199999999 Q79.095672 -62.251672 79.095672 -58.800585999999996 V-33.554164 Q77.912172 -33.554164 76.53457800000001 -33.554164 Q75.15225 -33.554164 73.377 -33.554164 V-58.800585999999996 Q73.377 -59.78999199999999 72.638496 -60.52849599999999 Q71.899992 -61.266999999999996 71.01 -61.266999999999996 H23.769414 Q22.780008000000002 -61.266999999999996 22.041504 -60.52849599999999 Q21.303 -59.78999199999999 21.303 -58.800585999999996 V-11.559999999999988 Q21.303 -10.670007999999996 22.041504 -9.93150399999999 Q22.780008000000002 -9.192999999999998 23.769414 -9.192999999999998 H49.01583599999999 Q49.01583599999999 -7.417749999999998 49.01583599999999 -6.035421999999983 Q49.01583599999999 -4.657827999999995 49.01583599999999 -3.474328 H23.67 Z"/></g><g id="Ultralight-S" transform="matrix(1 0 0 1 517.792 696)"><path d="M58.090914000000005 -13.827585999999997 H83.929086 V-9.292413999999994 H58.090914000000005 V-13.827585999999997 Z M47.34 -57.51767199999999 Q42.705414000000005 -57.51767199999999 39.500496 -54.31275399999999 Q36.295578 -51.10783599999999 36.295578 -46.47324999999999 Q36.295578 -41.838663999999994 39.500496 -38.63374599999999 Q42.705414000000005 -35.428827999999996 47.34 -35.428827999999996 Q51.974585999999995 -35.428827999999996 55.179504 -38.63374599999999 Q58.384422 -41.838663999999994 58.384422 -46.47324999999999 Q58.384422 -51.10783599999999 55.179504 -54.31275399999999 Q51.974585999999995 -57.51767199999999 47.34 -57.51767199999999 Z M39.846078 -48.84024999999999 Q40.930164000000005 -48.84024999999999 41.569254 -48.201159999999994 Q42.213077999999996 -47.55733599999999 42.213077999999996 -46.47324999999999 Q42.213077999999996 -45.389163999999994 41.569254 -44.74533999999999 Q40.930164000000005 -44.106249999999996 39.846078 -44.106249999999996 Q38.761992 -44.106249999999996 38.118168 -44.74533999999999 Q37.479078 -45.389163999999994 37.479078 -46.47324999999999 Q37.479078 -47.55733599999999 38.118168 -48.201159999999994 Q38.761992 -48.84024999999999 39.846078 -48.84024999999999 Z M47.34 -48.84024999999999 Q48.424085999999996 -48.84024999999999 49.06791 -48.201159999999994 Q49.707 -47.55733599999999 49.707 -46.47324999999999 Q49.707 -45.389163999999994 49.06791 -44.74533999999999 Q48.424085999999996 -44.106249999999996 47.34 -44.106249999999996 Q46.255914000000004 -44.106249999999996 45.61209 -44.74533999999999 Q44.973 -45.389163999999994 44.973 -46.47324999999999 Q44.973 -47.55733599999999 45.61209 -48.201159999999994 Q46.255914000000004 -48.84024999999999 47.34 -48.84024999999999 Z M55.03275 -48.84024999999999 Q56.116836 -48.84024999999999 56.76066 -48.201159999999994 Q57.39975 -47.55733599999999 57.39975 -46.47324999999999 Q57.39975 -45.389163999999994 56.76066 -44.74533999999999 Q56.116836 -44.106249999999996 55.03275 -44.106249999999996 Q53.948664 -44.106249999999996 53.30484 -44.74533999999999 Q52.66575 -45.389163999999994 52.66575 -46.47324999999999 Q52.66575 -47.55733599999999 53.30484 -48.201159999999994 Q53.948664 -48.84024999999999 55.03275 -48.84024999999999 Z M24.460577999999998 -4.657827999999995 Q21.104172000000002 -4.657827999999995 18.936 -6.873339999999999 Q16.767827999999998 -9.093585999999988 16.767827999999998 -12.350577999999999 V-58.109421999999995 Q16.767827999999998 -61.36641399999999 18.98334 -63.586659999999995 Q21.203586 -65.802172 24.460577999999998 -65.802172 H70.219422 Q73.476414 -65.802172 75.69666 -63.586659999999995 Q77.912172 -61.36641399999999 77.912172 -58.109421999999995 V-33.45474999999999 Q77.026914 -33.45474999999999 75.890754 -33.45474999999999 Q74.759328 -33.45474999999999 73.377 -33.45474999999999 V-58.109421999999995 Q73.377 -59.29292199999999 72.39232799999999 -60.28232799999999 Q71.402922 -61.266999999999996 70.219422 -61.266999999999996 H24.460577999999998 Q23.277078 -61.266999999999996 22.287672 -60.28232799999999 Q21.303 -59.29292199999999 21.303 -58.109421999999995 V-12.350577999999999 Q21.303 -11.16707799999999 22.287672 -10.177672000000001 Q23.277078 -9.192999999999998 24.460577999999998 -9.192999999999998 H49.11525 Q49.11525 -7.810671999999997 49.11525 -6.679245999999992 Q49.11525 -5.543085999999988 49.11525 -4.657827999999995 H24.460577999999998 Z"/></g></g></svg>