<svg xmlns="http://www.w3.org/2000/svg" version="1.1" width="3300" height="2000"><g id="Notes"><style>
    text {
      font-family: monospace;
      text-anchor: middle;
    }
    text.emphasis {
      font-weight:bold;
    }
    text.lanchor {
      text-anchor: start;
    }
  </style><rect height="2200" id="artboard" fill="white" width="3300" x="0" y="0"/><line id="" style="fill:none;stroke:black;stroke-width:0.5;" x1="263" x2="3036" y1="292" y2="292"/><text class="lanchor emphasis" transform="matrix(1 0 0 1 263 322)">Weight/Scale Variations</text><text transform="matrix(1 0 0 1 559.711 322)">Ultralight</text><text transform="matrix(1 0 0 1 856.422 322)">Thin</text><text transform="matrix(1 0 0 1 1153.13 322)">Light</text><text transform="matrix(1 0 0 1 1449.84 322)">Regular</text><text transform="matrix(1 0 0 1 1746.56 322)">Medium</text><text transform="matrix(1 0 0 1 2043.27 322)">Semibold</text><text transform="matrix(1 0 0 1 2339.98 322)">Bold</text><text transform="matrix(1 0 0 1 2636.69 322)">Heavy</text><text transform="matrix(1 0 0 1 2933.4 322)">Black</text><text id="template-version" style="text-anchor: end;" transform="matrix(1 0 0 1 3036 1933)">Template v.1.0</text><text class="lanchor" transform="matrix(1 0 0 1 263 726)">Small</text><text class="lanchor" transform="matrix(1 0 0 1 263 1156)">Medium</text><text class="lanchor" transform="matrix(1 0 0 1 263 1586)">Large</text></g><g id="Guides"><g id="H-reference" style="fill:#27AAE1;stroke:none;" transform="matrix(1 0 0 1 339 696)"><path d="M 54.9316 0 L 57.666 0 L 30.5664 -70.459 L 28.0762 -70.459 L 0.976562 0 L 3.66211 0 L 12.9395 -24.4629 L 45.7031 -24.4629 Z M 29.1992 -67.0898 L 29.4434 -67.0898 L 44.8242 -26.709 L 13.8184 -26.709 Z"/></g><line id="Baseline-S" style="fill:none;stroke:#27AAE1;opacity:1;stroke-width:0.577;" x1="263" x2="3036" y1="696" y2="696"/><line id="Capline-S" style="fill:none;stroke:#27AAE1;opacity:1;stroke-width:0.577;" x1="263" x2="3036" y1="625.541" y2="625.541"/><g id="H-reference" style="fill:#27AAE1;stroke:none;" transform="matrix(1 0 0 1 339 1126)"><path d="M 54.9316 0 L 57.666 0 L 30.5664 -70.459 L 28.0762 -70.459 L 0.976562 0 L 3.66211 0 L 12.9395 -24.4629 L 45.7031 -24.4629 Z M 29.1992 -67.0898 L 29.4434 -67.0898 L 44.8242 -26.709 L 13.8184 -26.709 Z"/></g><line id="Baseline-M" style="fill:none;stroke:#27AAE1;opacity:1;stroke-width:0.577;" x1="263" x2="3036" y1="1126" y2="1126"/><line id="Capline-M" style="fill:none;stroke:#27AAE1;opacity:1;stroke-width:0.577;" x1="263" x2="3036" y1="1055.54" y2="1055.54"/><g id="H-reference" style="fill:#27AAE1;stroke:none;" transform="matrix(1 0 0 1 339 1556)"><path d="M 54.9316 0 L 57.666 0 L 30.5664 -70.459 L 28.0762 -70.459 L 0.976562 0 L 3.66211 0 L 12.9395 -24.4629 L 45.7031 -24.4629 Z M 29.1992 -67.0898 L 29.4434 -67.0898 L 44.8242 -26.709 L 13.8184 -26.709 Z"/></g><line id="Baseline-L" style="fill:none;stroke:#27AAE1;opacity:1;stroke-width:0.577;" x1="263" x2="3036" y1="1556" y2="1556"/><line id="Capline-L" style="fill:none;stroke:#27AAE1;opacity:1;stroke-width:0.577;" x1="263" x2="3036" y1="1485.54" y2="1485.54"/><rect height="119.336" id="left-margin" style="fill:darkred;stroke:none;opacity:0.4;" width="12.4512" x="1394.06" y="1030.79"/><rect height="119.336" id="right-margin" style="fill:darkgreen;stroke:none;opacity:0.4;" width="12.4512" x="1502.5112" y="1030.79"/><rect x="1406.5112" y="1045" width="96" height="96" fill="none" stroke="blue" stroke-dasharray="5"/><rect x="1394.06" y="1030.79" width="120.9024" height="119.336" fill="none" stroke="blue"/></g><g id="Symbols"><g id="Bold-L" transform="matrix(1 0 0 1 2266 1556)"><path d="M38.86125 -47.32374999999999 H93.605625 V-64.98062499999999 H38.86125 V-47.32374999999999 Z M16.044375 26.125625000000017 V-96.74687499999999 H138.916875 V26.125625000000017 H16.044375 Z M30.798750000000002 11.371250000000014 H124.00125 V-81.83124999999998 H30.798750000000002 V11.371250000000014 Z"/></g><g id="Semibold-L" transform="matrix(1 0 0 1 1970.27 1556)"><path d="M38.23027875 -49.56706 H94.23659625 V-65.61159624999999 H38.23027875 V-49.56706 Z M17.79700125 24.372998750000015 V-94.924105 H137.094105 V24.372998750000015 H17.79700125 Z M30.16777875 12.002221250000016 H124.63222125 V-82.46222124999998 H30.16777875 V12.002221250000016 Z"/></g><g id="Medium-L" transform="matrix(1 0 0 1 1674.31 1556)"><path d="M37.75701 -51.249864999999986 H94.709865 V-66.08486499999998 H37.75701 V-51.249864999999986 Z M19.1116725 23.058327500000015 V-93.55702749999998 H135.7270275 V23.058327500000015 H19.1116725 Z M29.694509999999998 12.475490000000018 H125.10549 V-82.93548999999999 H29.694509999999998 V12.475490000000018 Z"/></g><g id="Regular-L" transform="matrix(1 0 0 1 1378.56 1556)"><path d="M37.410000000000004 -52.483749999999986 H95.056875 V-66.43187499999999 H37.410000000000004 V-52.483749999999986 Z M20.075625000000002 22.094375000000014 V-92.554375 H134.724375 V22.094375000000014 H20.075625000000002 Z M29.3475 12.822500000000016 H125.4525 V-83.28249999999998 H29.3475 V12.822500000000016 Z"/></g><g id="Light-L" transform="matrix(1 0 0 1 1082.77 1556)"><path d="M39.70491 -53.848247499999985 H94.312545 V-66.12179124999999 H39.70491 V-53.848247499999985 Z M23.02182375 19.148176250000017 V-89.60817624999999 H131.77817625 V19.148176250000017 H23.02182375 Z M30.09183 12.078170000000014 H124.70817000000001 V-82.53817 H30.09183 V12.078170000000014 Z"/></g><g id="Thin-L" transform="matrix(1 0 0 1 787.282 1556)"><path d="M41.999336250000006 -55.21258374999999 H93.56837625 V-65.81170749999998 H41.999336250000006 V-55.21258374999999 Z M25.9673775 16.202622500000015 V-86.6626225 H128.8326225 V16.202622500000015 H25.9673775 Z M30.83599875 11.334001250000014 H123.96400125000001 V-81.79400125 H30.83599875 V11.334001250000014 Z"/></g><g id="Ultralight-L" transform="matrix(1 0 0 1 491.205 1556)"><path d="M43.37625 -56.031249999999986 H93.121875 V-65.62562499999999 H43.37625 V-56.031249999999986 Z M27.735 14.435000000000016 V-84.89499999999998 H127.065 V14.435000000000016 H27.735 Z M31.282500000000002 10.887500000000014 H123.5175 V-81.34749999999998 H31.282500000000002 V10.887500000000014 Z"/></g><g id="Bold-M" transform="matrix(1 0 0 1 2281.8 1126)"><path d="M32.0 -40.85499999999999 H73.3125 V-58.79249999999999 H32.0 V-40.85499999999999 Z M11.875 12.89500000000001 V-83.35499999999999 H108.125 V12.89500000000001 H11.875 Z M27.0 -2.2299999999999898 H93.0 V-68.22999999999999 H27.0 V-2.2299999999999898 Z"/></g><g id="Semibold-M" transform="matrix(1 0 0 1 1985.97 1126)"><path d="M31.347875 -43.191749999999985 H73.964625 V-59.44462499999999 H31.347875 V-43.191749999999985 Z M13.72275 11.04725000000001 V-81.50724999999998 H106.27725 V11.04725000000001 H13.72275 Z M26.347875 -1.5778749999999881 H93.652125 V-68.88212499999999 H26.347875 V-1.5778749999999881 Z"/></g><g id="Medium-M" transform="matrix(1 0 0 1 1689.91 1126)"><path d="M30.85875 -44.94462499999999 H74.45375 V-59.93374999999999 H30.85875 V-44.94462499999999 Z M15.108625 9.66137500000001 V-80.12137499999999 H104.891375 V9.66137500000001 H15.108625 Z M25.85875 -1.0887499999999903 H94.14125 V-69.37124999999999 H25.85875 V-1.0887499999999903 Z"/></g><g id="Regular-M" transform="matrix(1 0 0 1 1394.06 1126)"><path d="M30.5 -46.22999999999999 H74.8125 V-60.29249999999999 H30.5 V-46.22999999999999 Z M16.125 8.64500000000001 V-79.10499999999999 H103.875 V8.64500000000001 H16.125 Z M25.5 -0.7299999999999898 H94.5 V-69.72999999999999 H25.5 V-0.7299999999999898 Z"/></g><g id="Light-M" transform="matrix(1 0 0 1 1098.18 1126)"><path d="M31.942375 -48.05699999999999 H73.899 V-59.81174999999999 H31.942375 V-48.05699999999999 Z M18.408875 6.361125000000012 V-76.821125 H101.591125 V6.361125000000012 H18.408875 Z M25.403875 -0.6338749999999891 H94.596125 V-69.82612499999999 H25.403875 V-0.6338749999999891 Z"/></g><g id="Thin-M" transform="matrix(1 0 0 1 802.565 1126)"><path d="M33.384625 -49.88387499999999 H72.985625 V-59.33099999999999 H33.384625 V-49.88387499999999 Z M20.69225 4.077750000000009 V-74.53774999999999 H99.30775 V4.077750000000009 H20.69225 Z M25.30775 -0.5377499999999884 H94.69225 V-69.92224999999999 H25.30775 V-0.5377499999999884 Z"/></g><g id="Ultralight-M" transform="matrix(1 0 0 1 506.415 1126)"><path d="M34.25 -50.97999999999999 H72.4375 V-59.04249999999999 H34.25 V-50.97999999999999 Z M22.0625 2.7075000000000102 V-73.16749999999999 H97.9375 V2.7075000000000102 H22.0625 Z M25.25 -0.47999999999998977 H94.75 V-69.97999999999999 H25.25 V-0.47999999999998977 Z"/></g><g id="Bold-S" transform="matrix(1 0 0 1 2294.23 696)"><path d="M27.615000000000002 -41.24612499999999 H57.843562500000004 V-53.03181249999999 H27.615000000000002 V-41.24612499999999 Z M11.736375 0.373625000000013 V-70.83362499999998 H82.943625 V0.373625000000013 H11.736375 Z M22.881 -10.770999999999987 H71.799 V-59.68899999999999 H22.881 V-10.770999999999987 Z"/></g><g id="Semibold-S" transform="matrix(1 0 0 1 1998.1 696)"><path d="M27.100473375000004 -43.08982074999999 H58.358089125 V-53.54633912499999 H27.100473375000004 V-43.08982074999999 Z M13.19424975 -1.0842497499999872 V-69.37575024999998 H81.48575025 V-1.0842497499999872 H13.19424975 Z M22.366473374999998 -10.256473374999985 H72.31352662500001 V-60.203526624999995 H22.366473374999998 V-10.256473374999985 Z"/></g><g id="Medium-S" transform="matrix(1 0 0 1 1701.85 696)"><path d="M26.71455375 -44.472839124999986 H58.74400875 V-53.93225874999999 H26.71455375 V-44.472839124999986 Z M14.287705125 -2.177705124999987 V-68.28229487499999 H80.392294875 V-2.177705124999987 H14.287705125 Z M21.980553750000002 -9.870553749999988 H72.69944625000001 V-60.589446249999995 H21.980553750000002 V-9.870553749999988 Z"/></g><g id="Regular-S" transform="matrix(1 0 0 1 1405.73 696)"><path d="M26.4315 -45.48699999999999 H59.0270625 V-54.215312499999996 H26.4315 V-45.48699999999999 Z M15.089625 -2.979624999999986 V-67.480375 H79.59037500000001 V-2.979624999999986 H15.089625 Z M21.6975 -9.587499999999988 H72.9825 V-60.87249999999999 H21.6975 V-9.587499999999988 Z"/></g><g id="Light-S" transform="matrix(1 0 0 1 1109.75 696)"><path d="M27.569533875 -46.928502999999985 H58.306311 V-53.83600074999998 H27.569533875 V-46.928502999999985 Z M16.891602374999998 -4.781602374999984 V-65.67839762499999 H77.788397625 V-4.781602374999984 H16.891602374999998 Z M21.621657375 -9.511657374999988 H73.05834262500001 V-60.948342624999995 H21.621657375 V-9.511657374999988 Z"/></g><g id="Thin-S" transform="matrix(1 0 0 1 814.015 696)"><path d="M28.707469125 -48.36990737499999 H57.585658125 V-53.45668899999998 H28.707469125 V-48.36990737499999 Z M18.693185250000003 -6.583185249999989 V-63.876814749999994 H75.98681475000001 V-6.583185249999989 H18.693185250000003 Z M21.545814749999998 -9.435814749999984 H73.13418525 V-61.02418524999999 H21.545814749999998 V-9.435814749999984 Z"/></g><g id="Ultralight-S" transform="matrix(1 0 0 1 517.792 696)"><path d="M29.39025 -49.23474999999999 H57.1531875 V-53.22906249999998 H29.39025 V-49.23474999999999 Z M19.7743125 -7.664312499999987 V-62.795687499999985 H74.9056875 V-7.664312499999987 H19.7743125 Z M21.50025 -9.390249999999988 H73.17975 V-61.069749999999985 H21.50025 V-9.390249999999988 Z"/></g></g></svg>