<svg xmlns="http://www.w3.org/2000/svg" version="1.1" width="3300" height="2000"><g id="Notes"><style>
    text {
      font-family: monospace;
      text-anchor: middle;
    }
    text.emphasis {
      font-weight:bold;
    }
    text.lanchor {
      text-anchor: start;
    }
  </style><rect height="2200" id="artboard" fill="white" width="3300" x="0" y="0"/><line id="" style="fill:none;stroke:black;stroke-width:0.5;" x1="263" x2="3036" y1="292" y2="292"/><text class="lanchor emphasis" transform="matrix(1 0 0 1 263 322)">Weight/Scale Variations</text><text transform="matrix(1 0 0 1 559.711 322)">Ultralight</text><text transform="matrix(1 0 0 1 856.422 322)">Thin</text><text transform="matrix(1 0 0 1 1153.13 322)">Light</text><text transform="matrix(1 0 0 1 1449.84 322)">Regular</text><text transform="matrix(1 0 0 1 1746.56 322)">Medium</text><text transform="matrix(1 0 0 1 2043.27 322)">Semibold</text><text transform="matrix(1 0 0 1 2339.98 322)">Bold</text><text transform="matrix(1 0 0 1 2636.69 322)">Heavy</text><text transform="matrix(1 0 0 1 2933.4 322)">Black</text><text id="template-version" style="text-anchor: end;" transform="matrix(1 0 0 1 3036 1933)">Template v.1.0</text><text class="lanchor" transform="matrix(1 0 0 1 263 726)">Small</text><text class="lanchor" transform="matrix(1 0 0 1 263 1156)">Medium</text><text class="lanchor" transform="matrix(1 0 0 1 263 1586)">Large</text></g><g id="Guides"><g id="H-reference" style="fill:#27AAE1;stroke:none;" transform="matrix(1 0 0 1 339 696)"><path d="M 54.9316 0 L 57.666 0 L 30.5664 -70.459 L 28.0762 -70.459 L 0.976562 0 L 3.66211 0 L 12.9395 -24.4629 L 45.7031 -24.4629 Z M 29.1992 -67.0898 L 29.4434 -67.0898 L 44.8242 -26.709 L 13.8184 -26.709 Z"/></g><line id="Baseline-S" style="fill:none;stroke:#27AAE1;opacity:1;stroke-width:0.577;" x1="263" x2="3036" y1="696" y2="696"/><line id="Capline-S" style="fill:none;stroke:#27AAE1;opacity:1;stroke-width:0.577;" x1="263" x2="3036" y1="625.541" y2="625.541"/><g id="H-reference" style="fill:#27AAE1;stroke:none;" transform="matrix(1 0 0 1 339 1126)"><path d="M 54.9316 0 L 57.666 0 L 30.5664 -70.459 L 28.0762 -70.459 L 0.976562 0 L 3.66211 0 L 12.9395 -24.4629 L 45.7031 -24.4629 Z M 29.1992 -67.0898 L 29.4434 -67.0898 L 44.8242 -26.709 L 13.8184 -26.709 Z"/></g><line id="Baseline-M" style="fill:none;stroke:#27AAE1;opacity:1;stroke-width:0.577;" x1="263" x2="3036" y1="1126" y2="1126"/><line id="Capline-M" style="fill:none;stroke:#27AAE1;opacity:1;stroke-width:0.577;" x1="263" x2="3036" y1="1055.54" y2="1055.54"/><g id="H-reference" style="fill:#27AAE1;stroke:none;" transform="matrix(1 0 0 1 339 1556)"><path d="M 54.9316 0 L 57.666 0 L 30.5664 -70.459 L 28.0762 -70.459 L 0.976562 0 L 3.66211 0 L 12.9395 -24.4629 L 45.7031 -24.4629 Z M 29.1992 -67.0898 L 29.4434 -67.0898 L 44.8242 -26.709 L 13.8184 -26.709 Z"/></g><line id="Baseline-L" style="fill:none;stroke:#27AAE1;opacity:1;stroke-width:0.577;" x1="263" x2="3036" y1="1556" y2="1556"/><line id="Capline-L" style="fill:none;stroke:#27AAE1;opacity:1;stroke-width:0.577;" x1="263" x2="3036" y1="1485.54" y2="1485.54"/><rect height="119.336" id="left-margin" style="fill:darkred;stroke:none;opacity:0.4;" width="12.4512" x="1394.06" y="1030.79"/><rect height="119.336" id="right-margin" style="fill:darkgreen;stroke:none;opacity:0.4;" width="12.4512" x="1502.5112" y="1030.79"/><rect x="1406.5112" y="1045" width="96" height="96" fill="none" stroke="blue" stroke-dasharray="5"/><rect x="1394.06" y="1030.79" width="120.9024" height="119.336" fill="none" stroke="blue"/></g><g id="Symbols"><g id="Bold-L" transform="matrix(1 0 0 1 2266 1556)"><path d="M39.18375 -22.813749999999985 H115.61625000000001 V-32.004999999999995 H39.18375 V-22.813749999999985 Z M39.18375 -43.614999999999995 H115.61625000000001 V-52.80624999999999 H39.18375 V-43.614999999999995 Z M39.18375 -64.41624999999999 H115.61625000000001 V-73.60749999999999 H39.18375 V-64.41624999999999 Z M145.28625 32.01125000000002  119.97000000000001 6.695000000000007 H9.675 V-103.2775 H145.28625 V32.01125000000002 Z M130.45125000000002 -88.28125 H24.509999999999998 V-7.978749999999977 H122.55 L130.45125000000002 -0.2387499999999818 V-88.28125 Z"/></g><g id="Semibold-L" transform="matrix(1 0 0 1 1970.27 1556)"><path d="M39.18375 -22.813749999999985 H115.61625000000001 V-32.004999999999995 H39.18375 V-22.813749999999985 Z M39.18375 -43.614999999999995 H115.61625000000001 V-52.80624999999999 H39.18375 V-43.614999999999995 Z M39.18375 -64.41624999999999 H115.61625000000001 V-73.60749999999999 H39.18375 V-64.41624999999999 Z M143.51250000000002 30.398750000000007  118.19624999999999 5.08250000000001 H11.44875 V-101.3425 H143.51250000000002 V30.398750000000007 Z M130.935 -88.92625 H23.865000000000002 V-7.333749999999995 H121.26 L130.935 2.3412500000000023 V-88.92625 Z"/></g><g id="Medium-L" transform="matrix(1 0 0 1 1674.31 1556)"><path d="M39.18375 -22.813749999999985 H115.61625000000001 V-32.004999999999995 H39.18375 V-22.813749999999985 Z M39.18375 -43.614999999999995 H115.61625000000001 V-52.80624999999999 H39.18375 V-43.614999999999995 Z M39.18375 -64.41624999999999 H115.61625000000001 V-73.60749999999999 H39.18375 V-64.41624999999999 Z M142.06125 28.94749999999999  116.74500000000002 3.6312499999999943 H12.738750000000001 V-100.0525 H142.06125 V28.94749999999999 Z M131.41875000000002 -89.41 H23.38125 V-6.8500000000000085 H120.29249999999999 L131.41875000000002 4.2762500000000045 V-89.41 Z"/></g><g id="Regular-L" transform="matrix(1 0 0 1 1378.56 1556)"><path d="M39.18375 -22.813749999999985 H115.61625000000001 V-32.004999999999995 H39.18375 V-22.813749999999985 Z M39.18375 -43.614999999999995 H115.61625000000001 V-52.80624999999999 H39.18375 V-43.614999999999995 Z M39.18375 -64.41624999999999 H115.61625000000001 V-73.60749999999999 H39.18375 V-64.41624999999999 Z M141.09375 27.980000000000018  115.7775 2.6637500000000074 H13.70625 V-99.085 H141.09375 V27.980000000000018 Z M131.9025 -89.73249999999999 H23.058750000000003 V-6.527500000000003 H119.64750000000001 L131.9025 5.566249999999997 V-89.73249999999999 Z"/></g><g id="Light-L" transform="matrix(1 0 0 1 1082.77 1556)"><path d="M40.635 -24.265 H114.16499999999999 V-31.19874999999999 H40.635 V-24.265 Z M40.635 -44.582499999999996 H114.16499999999999 V-51.677499999999995 H40.635 V-44.582499999999996 Z M40.635 -65.06125 H114.16499999999999 V-72.15625 H40.635 V-65.06125 Z M138.19125 22.336250000000007  115.61625000000001 -0.2387499999999818 H16.60875 V-96.02125 H138.19125 V22.336250000000007 Z M131.09625 -88.92625 H23.70375 V-7.333749999999995 H118.67999999999999 L131.09625 5.243750000000006 V-88.92625 Z"/></g><g id="Thin-L" transform="matrix(1 0 0 1 787.282 1556)"><path d="M42.08625000000001 -25.716250000000002 H112.71375000000002 V-30.553749999999994 H42.08625000000001 V-25.716250000000002 Z M42.08625000000001 -45.71124999999999 H112.71375000000002 V-50.54874999999999 H42.08625000000001 V-45.71124999999999 Z M42.08625000000001 -65.70624999999998 H112.71375000000002 V-70.70499999999998 H42.08625000000001 V-65.70624999999998 Z M135.28875000000002 16.53125  115.455 -3.141249999999985 H19.51125 V-93.11874999999999 H135.28875000000002 V16.53125 Z M130.45125000000002 -88.28125 H24.34875 V-7.978749999999977 H117.7125 L130.45125000000002 4.760000000000005 V-88.28125 Z"/></g><g id="Ultralight-L" transform="matrix(1 0 0 1 491.205 1556)"><path d="M42.892500000000005 -26.522499999999994 H111.90750000000001 V-30.069999999999993 H42.892500000000005 V-26.522499999999994 Z M42.892500000000005 -46.35624999999999 H111.90750000000001 V-49.903749999999995 H42.892500000000005 V-46.35624999999999 Z M42.892500000000005 -66.19 H111.90750000000001 V-69.73749999999998 H42.892500000000005 V-66.19 Z M133.515 13.14500000000001  115.455 -4.914999999999992 H21.285 V-91.345 H133.515 V13.14500000000001 Z M129.9675 -87.7975 H24.8325 V-8.462500000000006 H117.0675 L129.9675 4.4375 V-87.7975 Z"/></g><g id="Bold-M" transform="matrix(1 0 0 1 2281.8 1126)"><path d="M30.75 -25.85499999999999 H89.25 V-35.22999999999999 H30.75 V-25.85499999999999 Z M30.75 -40.60499999999999 H89.25 V-49.97999999999999 H30.75 V-40.60499999999999 Z M30.75 -55.35499999999999 H89.25 V-64.72999999999999 H30.75 V-55.35499999999999 Z M113.0 17.14500000000001  93.75 -2.1049999999999898 H7.0 V-88.35499999999999 H113.0 V17.14500000000001 Z M97.875 -73.22999999999999 H22.125 V-17.22999999999999 H96.375 L97.875 -15.72999999999999 V-73.22999999999999 Z"/></g><g id="Semibold-M" transform="matrix(1 0 0 1 1985.97 1126)"><path d="M30.75 -25.85499999999999 H89.25 V-35.22999999999999 H30.75 V-25.85499999999999 Z M30.75 -40.60499999999999 H89.25 V-49.97999999999999 H30.75 V-40.60499999999999 Z M30.75 -55.35499999999999 H89.25 V-64.72999999999999 H30.75 V-55.35499999999999 Z M111.125 15.27000000000001  91.875 -3.9799999999999898 H8.875 V-86.47999999999999 H111.125 V15.27000000000001 Z M98.5 -73.85499999999999 H21.5 V-16.60499999999999 H95.125 L98.5 -13.10499999999999 V-73.85499999999999 Z"/></g><g id="Medium-M" transform="matrix(1 0 0 1 1689.91 1126)"><path d="M30.75 -25.85499999999999 H89.25 V-35.22999999999999 H30.75 V-25.85499999999999 Z M30.75 -40.60499999999999 H89.25 V-49.97999999999999 H30.75 V-40.60499999999999 Z M30.75 -55.35499999999999 H89.25 V-64.72999999999999 H30.75 V-55.35499999999999 Z M109.75 13.89500000000001  90.5 -5.35499999999999 H10.25 V-85.10499999999999 H109.75 V13.89500000000001 Z M99.0 -74.35499999999999 H21.0 V-16.10499999999999 H94.125 L99.0 -11.10499999999999 V-74.35499999999999 Z"/></g><g id="Regular-M" transform="matrix(1 0 0 1 1394.06 1126)"><path d="M30.75 -25.85499999999999 H89.25 V-35.22999999999999 H30.75 V-25.85499999999999 Z M30.75 -40.60499999999999 H89.25 V-49.97999999999999 H30.75 V-40.60499999999999 Z M30.75 -55.35499999999999 H89.25 V-64.72999999999999 H30.75 V-55.35499999999999 Z M108.75 12.89500000000001  89.5 -6.35499999999999 H11.25 V-84.10499999999999 H108.75 V12.89500000000001 Z M99.375 -74.72999999999999 H20.625 V-15.72999999999999 H93.375 L99.375 -9.72999999999999 V-74.72999999999999 Z"/></g><g id="Light-M" transform="matrix(1 0 0 1 1098.18 1126)"><path d="M31.875 -26.97999999999999 H88.125 V-33.97999999999999 H31.875 V-26.97999999999999 Z M31.875 -41.72999999999999 H88.125 V-48.72999999999999 H31.875 V-41.72999999999999 Z M31.875 -56.60499999999999 H88.125 V-63.60499999999999 H31.875 V-56.60499999999999 Z M106.5 8.39500000000001  89.375 -8.60499999999999 H13.5 V-81.85499999999999 H106.5 V8.39500000000001 Z M99.5 -74.85499999999999 H20.5 V-15.60499999999999 H92.375 L99.5 -8.47999999999999 V-74.85499999999999 Z"/></g><g id="Thin-M" transform="matrix(1 0 0 1 802.565 1126)"><path d="M33.0 -28.10499999999999 H87.0 V-32.72999999999999 H33.0 V-28.10499999999999 Z M33.0 -42.97999999999999 H87.0 V-47.60499999999999 H33.0 V-42.97999999999999 Z M33.0 -57.85499999999999 H87.0 V-62.47999999999999 H33.0 V-57.85499999999999 Z M104.25 4.02000000000001  89.25 -10.97999999999999 H15.75 V-79.47999999999999 H104.25 V4.02000000000001 Z M99.625 -74.97999999999999 H20.375 V-15.47999999999999 H91.25 L99.625 -7.22999999999999 V-74.97999999999999 Z"/></g><g id="Ultralight-M" transform="matrix(1 0 0 1 506.415 1126)"><path d="M33.625 -28.85499999999999 H86.375 V-31.97999999999999 H33.625 V-28.85499999999999 Z M33.625 -43.72999999999999 H86.375 V-46.85499999999999 H33.625 V-43.72999999999999 Z M33.625 -58.60499999999999 H86.375 V-61.72999999999999 H33.625 V-58.60499999999999 Z M102.875 1.2700000000000102  89.25 -12.35499999999999 H17.125 V-78.22999999999999 H102.875 V1.2700000000000102 Z M99.75 -74.97999999999999 H20.375 V-15.47999999999999 H90.625 L99.75 -6.47999999999999 V-74.97999999999999 Z"/></g><g id="Bold-S" transform="matrix(1 0 0 1 2294.23 696)"><path d="M24.26175 -27.930171999999992 H70.41825 V-35.72233599999999 H24.26175 V-27.930171999999992 Z M24.26175 -39.372249999999994 H70.41825 V-47.164413999999994 H24.26175 V-39.372249999999994 Z M24.26175 -50.81432799999999 H70.41825 V-58.60649199999999 H24.26175 V-50.81432799999999 Z M89.15542199999999 6.093086  73.96875 -9.093585999999988 H5.524578 V-77.144836 H89.15542199999999 V6.093086 Z M76.828086 -64.8175 H17.851914 V-21.420921999999997 H76.236336 L76.828086 -20.829171999999993 V-64.8175 Z"/></g><g id="Semibold-S" transform="matrix(1 0 0 1 1998.1 696)"><path d="M24.26175 -27.930171999999992 H70.41825 V-35.72233599999999 H24.26175 V-27.930171999999992 Z M24.26175 -39.372249999999994 H70.41825 V-47.164413999999994 H24.26175 V-39.372249999999994 Z M24.26175 -50.81432799999999 H70.41825 V-58.60649199999999 H24.26175 V-50.81432799999999 Z M87.678414 4.616078000000016  72.487008 -10.575327999999999 H7.0015860000000005 V-75.66782799999999 H87.678414 V4.616078000000016 Z M77.320422 -65.30983599999999 H17.359578 V-20.92858599999999 H75.251664 L77.320422 -18.760413999999997 V-65.30983599999999 Z"/></g><g id="Medium-S" transform="matrix(1 0 0 1 1701.85 696)"><path d="M24.26175 -27.930171999999992 H70.41825 V-35.72233599999999 H24.26175 V-27.930171999999992 Z M24.26175 -39.372249999999994 H70.41825 V-47.164413999999994 H24.26175 V-39.372249999999994 Z M24.26175 -50.81432799999999 H70.41825 V-58.60649199999999 H24.26175 V-50.81432799999999 Z M86.594328 3.5319920000000025  71.402922 -11.659413999999998 H8.085672 V-74.57900799999999 H86.594328 V3.5319920000000025 Z M77.718078 -65.707492 H16.961922 V-20.535663999999997 H74.461086 L77.718078 -17.18399199999999 V-65.707492 Z"/></g><g id="Regular-S" transform="matrix(1 0 0 1 1405.73 696)"><path d="M24.26175 -27.930171999999992 H70.41825 V-35.72233599999999 H24.26175 V-27.930171999999992 Z M24.26175 -39.372249999999994 H70.41825 V-47.164413999999994 H24.26175 V-39.372249999999994 Z M24.26175 -50.81432799999999 H70.41825 V-58.60649199999999 H24.26175 V-50.81432799999999 Z M85.80375 2.741414000000006  70.61707799999999 -12.449991999999995 H8.87625 V-73.79316399999999 H85.80375 V2.741414000000006 Z M78.011586 -66.00099999999999 H16.668414 V-20.237421999999995 H73.86933599999999 L78.011586 -16.09517199999999 V-66.00099999999999 Z"/></g><g id="Light-S" transform="matrix(1 0 0 1 1109.75 696)"><path d="M25.147008 -28.820164 H69.53299200000001 V-34.737663999999995 H25.147008 V-28.820164 Z M25.147008 -40.25750799999999 H69.53299200000001 V-46.17500799999999 H25.147008 V-40.25750799999999 Z M25.147008 -51.79899999999999 H69.53299200000001 V-57.716499999999996 H25.147008 V-51.79899999999999 Z M84.0285 -0.8090859999999935  70.51766400000001 -14.220507999999995 H10.6515 V-72.01791399999999 H84.0285 V-0.8090859999999935 Z M78.111 -66.100414 H16.569 V-20.138007999999992 H73.083492 L78.111 -15.110499999999988 V-66.100414 Z"/></g><g id="Thin-S" transform="matrix(1 0 0 1 814.015 696)"><path d="M26.037 -29.70542199999999 H68.643 V-33.752992 H26.037 V-29.70542199999999 Z M26.037 -41.246914 H68.643 V-45.28974999999999 H26.037 V-41.246914 Z M26.037 -52.783671999999996 H68.643 V-56.82650799999999 H26.037 V-52.783671999999996 Z M82.25325 -4.260171999999983  70.41825 -16.09517199999999 H12.42675 V-70.14325 H82.25325 V-4.260171999999983 Z M78.210414 -66.199828 H16.469586 V-20.043327999999995 H72.1935 L78.210414 -14.125827999999998 V-66.199828 Z"/></g><g id="Ultralight-S" transform="matrix(1 0 0 1 517.792 696)"><path d="M26.529336 -30.297171999999996 H68.150664 V-33.15650799999999 H26.529336 V-30.297171999999996 Z M26.529336 -41.838663999999994 H68.150664 V-44.69799999999999 H26.529336 V-41.838663999999994 Z M26.529336 -53.37542199999999 H68.150664 V-56.23949199999999 H26.529336 V-53.37542199999999 Z M81.16916400000001 -6.433077999999995  70.41825 -17.18399199999999 H13.510836000000001 V-69.15857799999999 H81.16916400000001 V-6.433077999999995 Z M78.30982800000001 -66.199828 H16.469586 V-20.043327999999995 H71.701164 L78.30982800000001 -13.534077999999994 V-66.199828 Z"/></g></g></svg>