<svg xmlns="http://www.w3.org/2000/svg" version="1.1" width="3300" height="2000"><g id="Notes"><style>
    text {
      font-family: monospace;
      text-anchor: middle;
    }
    text.emphasis {
      font-weight:bold;
    }
    text.lanchor {
      text-anchor: start;
    }
  </style><rect height="2200" id="artboard" fill="white" width="3300" x="0" y="0"/><line id="" style="fill:none;stroke:black;stroke-width:0.5;" x1="263" x2="3036" y1="292" y2="292"/><text class="lanchor emphasis" transform="matrix(1 0 0 1 263 322)">Weight/Scale Variations</text><text transform="matrix(1 0 0 1 559.711 322)">Ultralight</text><text transform="matrix(1 0 0 1 856.422 322)">Thin</text><text transform="matrix(1 0 0 1 1153.13 322)">Light</text><text transform="matrix(1 0 0 1 1449.84 322)">Regular</text><text transform="matrix(1 0 0 1 1746.56 322)">Medium</text><text transform="matrix(1 0 0 1 2043.27 322)">Semibold</text><text transform="matrix(1 0 0 1 2339.98 322)">Bold</text><text transform="matrix(1 0 0 1 2636.69 322)">Heavy</text><text transform="matrix(1 0 0 1 2933.4 322)">Black</text><text id="template-version" style="text-anchor: end;" transform="matrix(1 0 0 1 3036 1933)">Template v.1.0</text><text class="lanchor" transform="matrix(1 0 0 1 263 726)">Small</text><text class="lanchor" transform="matrix(1 0 0 1 263 1156)">Medium</text><text class="lanchor" transform="matrix(1 0 0 1 263 1586)">Large</text></g><g id="Guides"><g id="H-reference" style="fill:#27AAE1;stroke:none;" transform="matrix(1 0 0 1 339 696)"><path d="M 54.9316 0 L 57.666 0 L 30.5664 -70.459 L 28.0762 -70.459 L 0.976562 0 L 3.66211 0 L 12.9395 -24.4629 L 45.7031 -24.4629 Z M 29.1992 -67.0898 L 29.4434 -67.0898 L 44.8242 -26.709 L 13.8184 -26.709 Z"/></g><line id="Baseline-S" style="fill:none;stroke:#27AAE1;opacity:1;stroke-width:0.577;" x1="263" x2="3036" y1="696" y2="696"/><line id="Capline-S" style="fill:none;stroke:#27AAE1;opacity:1;stroke-width:0.577;" x1="263" x2="3036" y1="625.541" y2="625.541"/><g id="H-reference" style="fill:#27AAE1;stroke:none;" transform="matrix(1 0 0 1 339 1126)"><path d="M 54.9316 0 L 57.666 0 L 30.5664 -70.459 L 28.0762 -70.459 L 0.976562 0 L 3.66211 0 L 12.9395 -24.4629 L 45.7031 -24.4629 Z M 29.1992 -67.0898 L 29.4434 -67.0898 L 44.8242 -26.709 L 13.8184 -26.709 Z"/></g><line id="Baseline-M" style="fill:none;stroke:#27AAE1;opacity:1;stroke-width:0.577;" x1="263" x2="3036" y1="1126" y2="1126"/><line id="Capline-M" style="fill:none;stroke:#27AAE1;opacity:1;stroke-width:0.577;" x1="263" x2="3036" y1="1055.54" y2="1055.54"/><g id="H-reference" style="fill:#27AAE1;stroke:none;" transform="matrix(1 0 0 1 339 1556)"><path d="M 54.9316 0 L 57.666 0 L 30.5664 -70.459 L 28.0762 -70.459 L 0.976562 0 L 3.66211 0 L 12.9395 -24.4629 L 45.7031 -24.4629 Z M 29.1992 -67.0898 L 29.4434 -67.0898 L 44.8242 -26.709 L 13.8184 -26.709 Z"/></g><line id="Baseline-L" style="fill:none;stroke:#27AAE1;opacity:1;stroke-width:0.577;" x1="263" x2="3036" y1="1556" y2="1556"/><line id="Capline-L" style="fill:none;stroke:#27AAE1;opacity:1;stroke-width:0.577;" x1="263" x2="3036" y1="1485.54" y2="1485.54"/><rect height="119.336" id="left-margin" style="fill:darkred;stroke:none;opacity:0.4;" width="12.4512" x="1394.06" y="1030.79"/><rect height="119.336" id="right-margin" style="fill:darkgreen;stroke:none;opacity:0.4;" width="12.4512" x="1502.5112" y="1030.79"/><rect x="1406.5112" y="1045" width="96" height="96" fill="none" stroke="blue" stroke-dasharray="5"/><rect x="1394.06" y="1030.79" width="120.9024" height="119.336" fill="none" stroke="blue"/></g><g id="Symbols"><g id="Bold-L" transform="matrix(1 0 0 1 2266 1556)"><path d="M25.8 10.726250000000014 Q22.83703125 10.726250000000014 20.690310000000004 8.572272500000011 Q18.54375 6.418295000000015 18.54375 3.4445225000000192 Q18.54375 0.47075000000000955 20.690310000000004 -1.7383749999999907 Q22.83703125 -3.947499999999984 25.8 -3.947499999999984 H90.3 Q93.33149999999999 -3.947499999999984 95.5245 -1.7464374999999919 Q97.7175 0.45478625000001216 97.7175 3.4982187500000137 Q97.7175 6.473281250000014 95.5245 8.599685000000015 Q93.33149999999999 10.726250000000014 90.3 10.726250000000014 H25.8 Z M116.10000000000001 10.726250000000014 Q113.13703125 10.726250000000014 110.99031000000001 8.572272500000011 Q108.84375 6.418295000000015 108.84375 3.4445225000000192 Q108.84375 0.47075000000000955 110.99031000000001 -1.7383749999999907 Q113.13703125 -3.947499999999984 116.10000000000001 -3.947499999999984 H129.0 Q132.0315 -3.947499999999984 134.2245 -1.7464374999999919 Q136.4175 0.45478625000001216 136.4175 3.4982187500000137 Q136.4175 6.473281250000014 134.2245 8.599685000000015 Q132.0315 10.726250000000014 129.0 10.726250000000014 H116.10000000000001 Z M25.8 -15.073749999999983 Q22.83703125 -15.073749999999983 20.690310000000004 -17.227727499999986 Q18.54375 -19.38170499999999 18.54375 -22.355477499999992 Q18.54375 -25.329249999999988 20.690310000000004 -27.538374999999988 Q22.83703125 -29.747499999999988 25.8 -29.747499999999988 H38.7 Q41.731500000000004 -29.747499999999988 43.924499999999995 -27.546437499999996 Q46.1175 -25.345213749999985 46.1175 -22.30178124999999 Q46.1175 -19.326718749999984 43.924499999999995 -17.200314999999982 Q41.731500000000004 -15.073749999999983 38.7 -15.073749999999983 H25.8 Z M64.5 -15.073749999999983 Q61.53703125 -15.073749999999983 59.39031000000001 -17.227727499999986 Q57.24375 -19.38170499999999 57.24375 -22.355477499999992 Q57.24375 -25.329249999999988 59.39031000000001 -27.538374999999988 Q61.53703125 -29.747499999999988 64.5 -29.747499999999988 H129.0 Q132.0315 -29.747499999999988 134.2245 -27.546437499999996 Q136.4175 -25.345213749999985 136.4175 -22.30178124999999 Q136.4175 -19.326718749999984 134.2245 -17.200314999999982 Q132.0315 -15.073749999999983 129.0 -15.073749999999983 H64.5 Z M25.8 -40.87374999999999 Q22.83703125 -40.87374999999999 20.690310000000004 -43.02772749999998 Q18.54375 -45.181704999999994 18.54375 -48.15547749999999 Q18.54375 -51.129249999999985 20.690310000000004 -53.338374999999985 Q22.83703125 -55.547499999999985 25.8 -55.547499999999985 H96.75 Q99.7815 -55.547499999999985 101.9745 -53.34643749999999 Q104.1675 -51.14521374999998 104.1675 -48.10178124999999 Q104.1675 -45.12671874999998 101.9745 -43.000314999999986 Q99.7815 -40.87374999999999 96.75 -40.87374999999999 H25.8 Z M122.55 -40.87374999999999 Q119.58703125000001 -40.87374999999999 117.44031000000001 -43.02772749999998 Q115.29375 -45.181704999999994 115.29375 -48.15547749999999 Q115.29375 -51.129249999999985 117.44031000000001 -53.338374999999985 Q119.58703125000001 -55.547499999999985 122.55 -55.547499999999985 H129.0 Q132.0315 -55.547499999999985 134.2245 -53.34643749999999 Q136.4175 -51.14521374999998 136.4175 -48.10178124999999 Q136.4175 -45.12671874999998 134.2245 -43.000314999999986 Q132.0315 -40.87374999999999 129.0 -40.87374999999999 H122.55 Z M25.8 -66.67374999999998 Q22.83703125 -66.67374999999998 20.690310000000004 -68.82772749999998 Q18.54375 -70.98170499999999 18.54375 -73.95547749999999 Q18.54375 -76.92925 20.690310000000004 -79.13837499999998 Q22.83703125 -81.34749999999998 25.8 -81.34749999999998 H58.050000000000004 Q61.081500000000005 -81.34749999999998 63.274499999999996 -79.14643749999999 Q65.4675 -76.94521374999998 65.4675 -73.90178125 Q65.4675 -70.92671874999999 63.274499999999996 -68.80031499999998 Q61.081500000000005 -66.67374999999998 58.050000000000004 -66.67374999999998 H25.8 Z M83.85000000000001 -66.67374999999998 Q80.88703125 -66.67374999999998 78.74031000000001 -68.82772749999998 Q76.59375 -70.98170499999999 76.59375 -73.95547749999999 Q76.59375 -76.92925 78.74031000000001 -79.13837499999998 Q80.88703125 -81.34749999999998 83.85000000000001 -81.34749999999998 H129.0 Q132.0315 -81.34749999999998 134.2245 -79.14643749999999 Q136.4175 -76.94521374999998 136.4175 -73.90178125 Q136.4175 -70.92671874999999 134.2245 -68.80031499999998 Q132.0315 -66.67374999999998 129.0 -66.67374999999998 H83.85000000000001 Z"/></g><g id="Semibold-L" transform="matrix(1 0 0 1 1970.27 1556)"><path d="M25.8 10.095278750000013 Q23.0893875 10.095278750000013 21.13197375 8.130608750000015 Q19.17472125 6.1659387500000165 19.17472125 3.4445225000000192 Q19.17472125 0.7231062500000078 21.13197375 -1.29671124999998 Q23.0893875 -3.316528749999982 25.8 -3.316528749999982 H90.3 Q93.07914375 -3.316528749999982 95.08283625 -1.3047737499999812 Q97.08652875 0.7071425000000104 97.08652875 3.4982187500000137 Q97.08652875 6.220925000000015 95.08283625 8.158182500000017 Q93.07914375 10.095278750000013 90.3 10.095278750000013 H25.8 Z M116.10000000000001 10.095278750000013 Q113.38938750000001 10.095278750000013 111.43197375000001 8.130608750000015 Q109.47472125 6.1659387500000165 109.47472125 3.4445225000000192 Q109.47472125 0.7231062500000078 111.43197375000001 -1.29671124999998 Q113.38938750000001 -3.316528749999982 116.10000000000001 -3.316528749999982 H129.0 Q131.77914375 -3.316528749999982 133.78283625 -1.3047737499999812 Q135.78652875 0.7071425000000104 135.78652875 3.4982187500000137 Q135.78652875 6.220925000000015 133.78283625 8.158182500000017 Q131.77914375 10.095278750000013 129.0 10.095278750000013 H116.10000000000001 Z M25.8 -15.704721249999984 Q23.0893875 -15.704721249999984 21.13197375 -17.669391249999983 Q19.17472125 -19.634061249999988 19.17472125 -22.355477499999992 Q19.17472125 -25.076893749999996 21.13197375 -27.096711249999984 Q23.0893875 -29.116528749999986 25.8 -29.116528749999986 H38.7 Q41.479143750000006 -29.116528749999986 43.48283625 -27.10477374999998 Q45.48652875 -25.092857499999994 45.48652875 -22.30178124999999 Q45.48652875 -19.57907499999999 43.48283625 -17.64181749999998 Q41.479143750000006 -15.704721249999984 38.7 -15.704721249999984 H25.8 Z M64.5 -15.704721249999984 Q61.789387500000004 -15.704721249999984 59.83197375 -17.669391249999983 Q57.87472125 -19.634061249999988 57.87472125 -22.355477499999992 Q57.87472125 -25.076893749999996 59.83197375 -27.096711249999984 Q61.789387500000004 -29.116528749999986 64.5 -29.116528749999986 H129.0 Q131.77914375 -29.116528749999986 133.78283625 -27.10477374999998 Q135.78652875 -25.092857499999994 135.78652875 -22.30178124999999 Q135.78652875 -19.57907499999999 133.78283625 -17.64181749999998 Q131.77914375 -15.704721249999984 129.0 -15.704721249999984 H64.5 Z M25.8 -41.50472124999999 Q23.0893875 -41.50472124999999 21.13197375 -43.46939124999999 Q19.17472125 -45.434061249999985 19.17472125 -48.15547749999999 Q19.17472125 -50.87689374999998 21.13197375 -52.896711249999996 Q23.0893875 -54.91652874999998 25.8 -54.91652874999998 H96.75 Q99.52914375 -54.91652874999998 101.53283624999999 -52.90477374999999 Q103.53652875 -50.89285749999999 103.53652875 -48.10178124999999 Q103.53652875 -45.379075 101.53283624999999 -43.4418175 Q99.52914375 -41.50472124999999 96.75 -41.50472124999999 H25.8 Z M122.55 -41.50472124999999 Q119.83938750000002 -41.50472124999999 117.88197375000001 -43.46939124999999 Q115.92472125 -45.434061249999985 115.92472125 -48.15547749999999 Q115.92472125 -50.87689374999998 117.88197375000001 -52.896711249999996 Q119.83938750000002 -54.91652874999998 122.55 -54.91652874999998 H129.0 Q131.77914375 -54.91652874999998 133.78283625 -52.90477374999999 Q135.78652875 -50.89285749999999 135.78652875 -48.10178124999999 Q135.78652875 -45.379075 133.78283625 -43.4418175 Q131.77914375 -41.50472124999999 129.0 -41.50472124999999 H122.55 Z M25.8 -67.30472124999999 Q23.0893875 -67.30472124999999 21.13197375 -69.26939124999998 Q19.17472125 -71.23406124999998 19.17472125 -73.95547749999999 Q19.17472125 -76.67689374999998 21.13197375 -78.69671124999999 Q23.0893875 -80.71652874999998 25.8 -80.71652874999998 H58.050000000000004 Q60.82914375000001 -80.71652874999998 62.83283625 -78.70477374999999 Q64.83652875 -76.69285749999999 64.83652875 -73.90178125 Q64.83652875 -71.179075 62.83283625 -69.2418175 Q60.82914375000001 -67.30472124999999 58.050000000000004 -67.30472124999999 H25.8 Z M83.85000000000001 -67.30472124999999 Q81.1393875 -67.30472124999999 79.18197375 -69.26939124999998 Q77.22472125 -71.23406124999998 77.22472125 -73.95547749999999 Q77.22472125 -76.67689374999998 79.18197375 -78.69671124999999 Q81.1393875 -80.71652874999998 83.85000000000001 -80.71652874999998 H129.0 Q131.77914375 -80.71652874999998 133.78283625 -78.70477374999999 Q135.78652875 -76.69285749999999 135.78652875 -73.90178125 Q135.78652875 -71.179075 133.78283625 -69.2418175 Q131.77914375 -67.30472124999999 129.0 -67.30472124999999 H83.85000000000001 Z"/></g><g id="Medium-L" transform="matrix(1 0 0 1 1674.31 1556)"><path d="M25.8 9.62201000000001 Q23.278695000000003 9.62201000000001 21.4633425 7.799401250000017 Q19.64799 5.976631250000011 19.64799 3.4445225000000192 Q19.64799 0.9124137500000131 21.4633425 -0.9655037499999892 Q23.278695000000003 -2.8432599999999866 25.8 -2.8432599999999866 H90.3 Q92.88983625 -2.8432599999999866 94.75162875 -0.9734049999999854 Q96.61326000000001 0.8964500000000157 96.61326000000001 3.4982187500000137 Q96.61326000000001 6.031617500000017 94.75162875 7.826813750000014 Q92.88983625 9.62201000000001 90.3 9.62201000000001 H25.8 Z M116.10000000000001 9.62201000000001 Q113.57869500000001 9.62201000000001 111.76334250000001 7.799401250000017 Q109.94798999999999 5.976631250000011 109.94798999999999 3.4445225000000192 Q109.94798999999999 0.9124137500000131 111.76334250000001 -0.9655037499999892 Q113.57869500000001 -2.8432599999999866 116.10000000000001 -2.8432599999999866 H129.0 Q131.58983625000002 -2.8432599999999866 133.45162875 -0.9734049999999854 Q135.31326 0.8964500000000157 135.31326 3.4982187500000137 Q135.31326 6.031617500000017 133.45162875 7.826813750000014 Q131.58983625000002 9.62201000000001 129.0 9.62201000000001 H116.10000000000001 Z M25.8 -16.177989999999987 Q23.278695000000003 -16.177989999999987 21.4633425 -18.000598749999988 Q19.64799 -19.823368749999986 19.64799 -22.355477499999992 Q19.64799 -24.887586249999984 21.4633425 -26.765503749999993 Q23.278695000000003 -28.643259999999984 25.8 -28.643259999999984 H38.7 Q41.28983625 -28.643259999999984 43.15162875000001 -26.773404999999983 Q45.01326 -24.90354999999998 45.01326 -22.30178124999999 Q45.01326 -19.76838249999998 43.15162875000001 -17.973186249999983 Q41.28983625 -16.177989999999987 38.7 -16.177989999999987 H25.8 Z M64.5 -16.177989999999987 Q61.978694999999995 -16.177989999999987 60.1633425 -18.000598749999988 Q58.34799 -19.823368749999986 58.34799 -22.355477499999992 Q58.34799 -24.887586249999984 60.1633425 -26.765503749999993 Q61.978694999999995 -28.643259999999984 64.5 -28.643259999999984 H129.0 Q131.58983625000002 -28.643259999999984 133.45162875 -26.773404999999983 Q135.31326 -24.90354999999998 135.31326 -22.30178124999999 Q135.31326 -19.76838249999998 133.45162875 -17.973186249999983 Q131.58983625000002 -16.177989999999987 129.0 -16.177989999999987 H64.5 Z M25.8 -41.97798999999998 Q23.278695000000003 -41.97798999999998 21.4633425 -43.80059874999998 Q19.64799 -45.62336875 19.64799 -48.15547749999999 Q19.64799 -50.68758624999998 21.4633425 -52.565503749999976 Q23.278695000000003 -54.443259999999995 25.8 -54.443259999999995 H96.75 Q99.33983625 -54.443259999999995 101.20162875 -52.573404999999994 Q103.06326000000001 -50.70354999999999 103.06326000000001 -48.10178124999999 Q103.06326000000001 -45.5683825 101.20162875 -43.77318624999998 Q99.33983625 -41.97798999999998 96.75 -41.97798999999998 H25.8 Z M122.55 -41.97798999999998 Q120.02869500000001 -41.97798999999998 118.2133425 -43.80059874999998 Q116.39799 -45.62336875 116.39799 -48.15547749999999 Q116.39799 -50.68758624999998 118.2133425 -52.565503749999976 Q120.02869500000001 -54.443259999999995 122.55 -54.443259999999995 H129.0 Q131.58983625000002 -54.443259999999995 133.45162875 -52.573404999999994 Q135.31326 -50.70354999999999 135.31326 -48.10178124999999 Q135.31326 -45.5683825 133.45162875 -43.77318624999998 Q131.58983625000002 -41.97798999999998 129.0 -41.97798999999998 H122.55 Z M25.8 -67.77798999999997 Q23.278695000000003 -67.77798999999997 21.4633425 -69.60059874999997 Q19.64799 -71.42336875 19.64799 -73.95547749999999 Q19.64799 -76.48758624999999 21.4633425 -78.36550374999997 Q23.278695000000003 -80.24325999999999 25.8 -80.24325999999999 H58.050000000000004 Q60.639836249999995 -80.24325999999999 62.50162875000001 -78.37340499999999 Q64.36326 -76.50354999999999 64.36326 -73.90178125 Q64.36326 -71.3683825 62.50162875000001 -69.57318624999999 Q60.639836249999995 -67.77798999999997 58.050000000000004 -67.77798999999997 H25.8 Z M83.85000000000001 -67.77798999999997 Q81.328695 -67.77798999999997 79.51334250000001 -69.60059874999997 Q77.69799 -71.42336875 77.69799 -73.95547749999999 Q77.69799 -76.48758624999999 79.51334250000001 -78.36550374999997 Q81.328695 -80.24325999999999 83.85000000000001 -80.24325999999999 H129.0 Q131.58983625000002 -80.24325999999999 133.45162875 -78.37340499999999 Q135.31326 -76.50354999999999 135.31326 -73.90178125 Q135.31326 -71.3683825 133.45162875 -69.57318624999999 Q131.58983625000002 -67.77798999999997 129.0 -67.77798999999997 H83.85000000000001 Z"/></g><g id="Regular-L" transform="matrix(1 0 0 1 1378.56 1556)"><path d="M25.8 9.275000000000013 Q23.41753125 9.275000000000013 21.70634625 7.556397500000017 Q19.995 5.837795000000014 19.995 3.4445225000000192 Q19.995 1.0512500000000173 21.70634625 -0.7224999999999824 Q23.41753125 -2.496249999999982 25.8 -2.496249999999982 H90.3 Q92.751 -2.496249999999982 94.50862500000001 -0.7305624999999836 Q96.26625 1.03528625000002 96.26625 3.4982187500000137 Q96.26625 5.892781250000013 94.50862500000001 7.583810000000014 Q92.751 9.275000000000013 90.3 9.275000000000013 H25.8 Z M116.10000000000001 9.275000000000013 Q113.71753125000001 9.275000000000013 112.006185 7.556397500000017 Q110.295 5.837795000000014 110.295 3.4445225000000192 Q110.295 1.0512500000000173 112.006185 -0.7224999999999824 Q113.71753125000001 -2.496249999999982 116.10000000000001 -2.496249999999982 H129.0 Q131.45100000000002 -2.496249999999982 133.208625 -0.7305624999999836 Q134.96625 1.03528625000002 134.96625 3.4982187500000137 Q134.96625 5.892781250000013 133.208625 7.583810000000014 Q131.45100000000002 9.275000000000013 129.0 9.275000000000013 H116.10000000000001 Z M25.8 -16.524999999999984 Q23.41753125 -16.524999999999984 21.70634625 -18.243602499999987 Q19.995 -19.962204999999983 19.995 -22.355477499999992 Q19.995 -24.748749999999987 21.70634625 -26.52249999999998 Q23.41753125 -28.296249999999986 25.8 -28.296249999999986 H38.7 Q41.150999999999996 -28.296249999999986 42.90862500000001 -26.530562499999988 Q44.66625 -24.764713749999984 44.66625 -22.30178124999999 Q44.66625 -19.90721874999999 42.90862500000001 -18.216028749999992 Q41.150999999999996 -16.524999999999984 38.7 -16.524999999999984 H25.8 Z M64.5 -16.524999999999984 Q62.117531250000006 -16.524999999999984 60.40618500000001 -18.243602499999987 Q58.695 -19.962204999999983 58.695 -22.355477499999992 Q58.695 -24.748749999999987 60.40618500000001 -26.52249999999998 Q62.117531250000006 -28.296249999999986 64.5 -28.296249999999986 H129.0 Q131.45100000000002 -28.296249999999986 133.208625 -26.530562499999988 Q134.96625 -24.764713749999984 134.96625 -22.30178124999999 Q134.96625 -19.90721874999999 133.208625 -18.216028749999992 Q131.45100000000002 -16.524999999999984 129.0 -16.524999999999984 H64.5 Z M25.8 -42.32499999999999 Q23.41753125 -42.32499999999999 21.70634625 -44.04360249999999 Q19.995 -45.762204999999994 19.995 -48.15547749999999 Q19.995 -50.548749999999984 21.70634625 -52.32249999999999 Q23.41753125 -54.09624999999998 25.8 -54.09624999999998 H96.75 Q99.20100000000001 -54.09624999999998 100.95862500000001 -52.330562499999985 Q102.71625 -50.564713749999996 102.71625 -48.10178124999999 Q102.71625 -45.707218749999996 100.95862500000001 -44.016028749999975 Q99.20100000000001 -42.32499999999999 96.75 -42.32499999999999 H25.8 Z M122.55 -42.32499999999999 Q120.16753125000001 -42.32499999999999 118.45618499999999 -44.04360249999999 Q116.745 -45.762204999999994 116.745 -48.15547749999999 Q116.745 -50.548749999999984 118.45618499999999 -52.32249999999999 Q120.16753125000001 -54.09624999999998 122.55 -54.09624999999998 H129.0 Q131.45100000000002 -54.09624999999998 133.208625 -52.330562499999985 Q134.96625 -50.564713749999996 134.96625 -48.10178124999999 Q134.96625 -45.707218749999996 133.208625 -44.016028749999975 Q131.45100000000002 -42.32499999999999 129.0 -42.32499999999999 H122.55 Z M25.8 -68.12499999999999 Q23.41753125 -68.12499999999999 21.70634625 -69.84360249999999 Q19.995 -71.56220499999999 19.995 -73.95547749999999 Q19.995 -76.34874999999998 21.70634625 -78.12249999999999 Q23.41753125 -79.89624999999998 25.8 -79.89624999999998 H58.050000000000004 Q60.501 -79.89624999999998 62.258625 -78.13056249999998 Q64.01625 -76.36471374999999 64.01625 -73.90178125 Q64.01625 -71.50721874999999 62.258625 -69.81602874999999 Q60.501 -68.12499999999999 58.050000000000004 -68.12499999999999 H25.8 Z M83.85000000000001 -68.12499999999999 Q81.46753125000001 -68.12499999999999 79.756185 -69.84360249999999 Q78.045 -71.56220499999999 78.045 -73.95547749999999 Q78.045 -76.34874999999998 79.756185 -78.12249999999999 Q81.46753125000001 -79.89624999999998 83.85000000000001 -79.89624999999998 H129.0 Q131.45100000000002 -79.89624999999998 133.208625 -78.13056249999998 Q134.96625 -76.36471374999999 134.96625 -73.90178125 Q134.96625 -71.50721874999999 133.208625 -69.81602874999999 Q131.45100000000002 -68.12499999999999 129.0 -68.12499999999999 H83.85000000000001 Z"/></g><g id="Light-L" transform="matrix(1 0 0 1 1082.77 1556)"><path d="M25.8 8.096585000000019 Q23.918373749999997 8.096585000000019 22.545975 6.715801250000013 Q21.173415 5.3351787500000185 21.173415 3.4412975000000188 Q21.173415 1.547416250000012 22.545975 0.11487125000001441 Q23.918373749999997 -1.317834999999988 25.8 -1.317834999999988 H90.3 Q92.25015750000001 -1.317834999999988 93.66899625 0.1100337500000137 Q95.087835 1.5380637500000134 95.087835 3.501605000000012 Q95.087835 5.396615000000018 93.66899625 6.746600000000015 Q92.25015750000001 8.096585000000019 90.3 8.096585000000019 H25.8 Z M116.10000000000001 8.096585000000019 Q114.21837375000001 8.096585000000019 112.84597500000001 6.715801250000013 Q111.473415 5.3351787500000185 111.473415 3.4412975000000188 Q111.473415 1.547416250000012 112.84597500000001 0.11487125000001441 Q114.21837375000001 -1.317834999999988 116.10000000000001 -1.317834999999988 H129.0 Q130.95015750000002 -1.317834999999988 132.36899625 0.1100337500000137 Q133.787835 1.5380637500000134 133.787835 3.501605000000012 Q133.787835 5.396615000000018 132.36899625 6.746600000000015 Q130.95015750000002 8.096585000000019 129.0 8.096585000000019 H116.10000000000001 Z M25.8 -17.703414999999985 Q23.918373749999997 -17.703414999999985 22.545975 -19.084198749999985 Q21.173415 -20.464821249999986 21.173415 -22.35870249999998 Q21.173415 -24.252583749999985 22.545975 -25.68512874999999 Q23.918373749999997 -27.117834999999985 25.8 -27.117834999999985 H38.7 Q40.6501575 -27.117834999999985 42.06899625 -25.689966249999983 Q43.487835000000004 -24.262097499999996 43.487835000000004 -22.298394999999985 Q43.487835000000004 -20.403384999999986 42.06899625 -19.05339999999999 Q40.6501575 -17.703414999999985 38.7 -17.703414999999985 H25.8 Z M64.5 -17.703414999999985 Q62.61837375 -17.703414999999985 61.245975 -19.084198749999985 Q59.873415 -20.464821249999986 59.873415 -22.35870249999998 Q59.873415 -24.252583749999985 61.245975 -25.68512874999999 Q62.61837375 -27.117834999999985 64.5 -27.117834999999985 H129.0 Q130.95015750000002 -27.117834999999985 132.36899625 -25.689966249999983 Q133.787835 -24.262097499999996 133.787835 -22.298394999999985 Q133.787835 -20.403384999999986 132.36899625 -19.05339999999999 Q130.95015750000002 -17.703414999999985 129.0 -17.703414999999985 H64.5 Z M25.8 -43.50341499999999 Q23.918373749999997 -43.50341499999999 22.545975 -44.88419874999998 Q21.173415 -46.26482124999998 21.173415 -48.15870249999999 Q21.173415 -50.05258374999998 22.545975 -51.48512874999999 Q23.918373749999997 -52.91783499999998 25.8 -52.91783499999998 H96.75 Q98.70015750000002 -52.91783499999998 100.11899625000001 -51.48996624999998 Q101.537835 -50.06209749999998 101.537835 -48.09839499999998 Q101.537835 -46.20338499999998 100.11899625000001 -44.85339999999998 Q98.70015750000002 -43.50341499999999 96.75 -43.50341499999999 H25.8 Z M122.55 -43.50341499999999 Q120.66837375 -43.50341499999999 119.29597500000001 -44.88419874999998 Q117.923415 -46.26482124999998 117.923415 -48.15870249999999 Q117.923415 -50.05258374999998 119.29597500000001 -51.48512874999999 Q120.66837375 -52.91783499999998 122.55 -52.91783499999998 H129.0 Q130.95015750000002 -52.91783499999998 132.36899625 -51.48996624999998 Q133.787835 -50.06209749999998 133.787835 -48.09839499999998 Q133.787835 -46.20338499999998 132.36899625 -44.85339999999998 Q130.95015750000002 -43.50341499999999 129.0 -43.50341499999999 H122.55 Z M25.8 -69.30341499999999 Q23.918373749999997 -69.30341499999999 22.545975 -70.68419874999998 Q21.173415 -72.06482124999998 21.173415 -73.95870249999999 Q21.173415 -75.85258375 22.545975 -77.28512874999998 Q23.918373749999997 -78.717835 25.8 -78.717835 H58.050000000000004 Q60.0001575 -78.717835 61.41899625 -77.28996624999999 Q62.837835000000005 -75.86209749999998 62.837835000000005 -73.89839499999998 Q62.837835000000005 -72.003385 61.41899625 -70.65339999999998 Q60.0001575 -69.30341499999999 58.050000000000004 -69.30341499999999 H25.8 Z M83.85000000000001 -69.30341499999999 Q81.96837375000001 -69.30341499999999 80.595975 -70.68419874999998 Q79.223415 -72.06482124999998 79.223415 -73.95870249999999 Q79.223415 -75.85258375 80.595975 -77.28512874999998 Q81.96837375000001 -78.717835 83.85000000000001 -78.717835 H129.0 Q130.95015750000002 -78.717835 132.36899625 -77.28996624999999 Q133.787835 -75.86209749999998 133.787835 -73.89839499999998 Q133.787835 -72.003385 132.36899625 -70.65339999999998 Q130.95015750000002 -69.30341499999999 129.0 -69.30341499999999 H83.85000000000001 Z"/></g><g id="Thin-L" transform="matrix(1 0 0 1 787.282 1556)"><path d="M25.8 6.918331250000016 Q24.41921625 6.918331250000016 23.385442500000003 5.875366250000013 Q22.35166875 4.832401250000018 22.35166875 3.438072500000011 Q22.35166875 2.0435825000000136 23.385442500000003 0.9520812500000133 Q24.41921625 -0.1395812499999849 25.8 -0.1395812499999849 H90.3 Q91.74947625 -0.1395812499999849 92.82952875000001 0.9504687500000131 Q93.90958125 2.040680000000016 93.90958125 3.5048300000000197 Q93.90958125 4.900448750000017 92.82952875000001 5.909390000000016 Q91.74947625 6.918331250000016 90.3 6.918331250000016 H25.8 Z M116.10000000000001 6.918331250000016 Q114.71905500000001 6.918331250000016 113.6854425 5.875366250000013 Q112.65166875 4.832401250000018 112.65166875 3.438072500000011 Q112.65166875 2.0435825000000136 113.6854425 0.9520812500000133 Q114.71905500000001 -0.1395812499999849 116.10000000000001 -0.1395812499999849 H129.0 Q130.44947625 -0.1395812499999849 131.52952875 0.9504687500000131 Q132.60958125 2.040680000000016 132.60958125 3.5048300000000197 Q132.60958125 4.900448750000017 131.52952875 5.909390000000016 Q130.44947625 6.918331250000016 129.0 6.918331250000016 H116.10000000000001 Z M25.8 -18.88166874999999 Q24.41921625 -18.88166874999999 23.385442500000003 -19.92463374999999 Q22.35166875 -20.967598749999986 22.35166875 -22.36192749999998 Q22.35166875 -23.756417499999984 23.385442500000003 -24.84791874999999 Q24.41921625 -25.93958124999999 25.8 -25.93958124999999 H38.7 Q40.149315 -25.93958124999999 41.22952875 -24.849531249999984 Q42.30958125 -23.75931999999999 42.30958125 -22.295169999999985 Q42.30958125 -20.899551249999988 41.22952875 -19.890609999999988 Q40.149315 -18.88166874999999 38.7 -18.88166874999999 H25.8 Z M64.5 -18.88166874999999 Q63.119054999999996 -18.88166874999999 62.085442500000006 -19.92463374999999 Q61.051668750000005 -20.967598749999986 61.051668750000005 -22.36192749999998 Q61.051668750000005 -23.756417499999984 62.085442500000006 -24.84791874999999 Q63.119054999999996 -25.93958124999999 64.5 -25.93958124999999 H129.0 Q130.44947625 -25.93958124999999 131.52952875 -24.849531249999984 Q132.60958125 -23.75931999999999 132.60958125 -22.295169999999985 Q132.60958125 -20.899551249999988 131.52952875 -19.890609999999988 Q130.44947625 -18.88166874999999 129.0 -18.88166874999999 H64.5 Z M25.8 -44.681668749999986 Q24.41921625 -44.681668749999986 23.385442500000003 -45.72463374999998 Q22.35166875 -46.76759874999999 22.35166875 -48.16192749999999 Q22.35166875 -49.55641749999998 23.385442500000003 -50.64791874999999 Q24.41921625 -51.739581249999986 25.8 -51.739581249999986 H96.75 Q98.19947625 -51.739581249999986 99.27952875000001 -50.64953124999998 Q100.35958125 -49.559319999999985 100.35958125 -48.09516999999998 Q100.35958125 -46.699551249999985 99.27952875000001 -45.69060999999998 Q98.19947625 -44.681668749999986 96.75 -44.681668749999986 H25.8 Z M122.55 -44.681668749999986 Q121.16905500000001 -44.681668749999986 120.1354425 -45.72463374999998 Q119.10166875 -46.76759874999999 119.10166875 -48.16192749999999 Q119.10166875 -49.55641749999998 120.1354425 -50.64791874999999 Q121.16905500000001 -51.739581249999986 122.55 -51.739581249999986 H129.0 Q130.44947625 -51.739581249999986 131.52952875 -50.64953124999998 Q132.60958125 -49.559319999999985 132.60958125 -48.09516999999998 Q132.60958125 -46.699551249999985 131.52952875 -45.69060999999998 Q130.44947625 -44.681668749999986 129.0 -44.681668749999986 H122.55 Z M25.8 -70.48166874999998 Q24.41921625 -70.48166874999998 23.385442500000003 -71.52463374999998 Q22.35166875 -72.56759874999999 22.35166875 -73.96192749999999 Q22.35166875 -75.35641749999999 23.385442500000003 -76.44791874999999 Q24.41921625 -77.53958124999998 25.8 -77.53958124999998 H58.050000000000004 Q59.49947625 -77.53958124999998 60.57952875 -76.44953124999999 Q61.65958125 -75.35932 61.65958125 -73.89516999999998 Q61.65958125 -72.49955125 60.57952875 -71.49060999999998 Q59.49947625 -70.48166874999998 58.050000000000004 -70.48166874999998 H25.8 Z M83.85000000000001 -70.48166874999998 Q82.469055 -70.48166874999998 81.43544250000001 -71.52463374999998 Q80.40166875 -72.56759874999999 80.40166875 -73.96192749999999 Q80.40166875 -75.35641749999999 81.43544250000001 -76.44791874999999 Q82.469055 -77.53958124999998 83.85000000000001 -77.53958124999998 H129.0 Q130.44947625 -77.53958124999998 131.52952875 -76.44953124999999 Q132.60958125 -75.35932 132.60958125 -73.89516999999998 Q132.60958125 -72.49955125 131.52952875 -71.49060999999998 Q130.44947625 -70.48166874999998 129.0 -70.48166874999998 H83.85000000000001 Z"/></g><g id="Ultralight-L" transform="matrix(1 0 0 1 491.205 1556)"><path d="M25.8 6.211250000000014 Q24.719625000000004 6.211250000000014 23.889187500000002 5.370976250000012 Q23.05875 4.530863750000016 23.05875 3.43597625000001 Q23.05875 2.3412500000000165 23.889187500000002 1.454375000000013 Q24.719625000000004 0.5675000000000168 25.8 0.5675000000000168 H90.3 Q91.44890625000001 0.5675000000000168 92.32562250000001 1.4548587500000139 Q93.2025 2.342217500000018 93.2025 3.5067650000000157 Q93.2025 4.602781250000014 92.32562250000001 5.4069350000000185 Q91.44890625000001 6.211250000000014 90.3 6.211250000000014 H25.8 Z M116.10000000000001 6.211250000000014 Q115.01962499999999 6.211250000000014 114.1891875 5.370976250000012 Q113.35875 4.530863750000016 113.35875 3.43597625000001 Q113.35875 2.3412500000000165 114.1891875 1.454375000000013 Q115.01962499999999 0.5675000000000168 116.10000000000001 0.5675000000000168 H129.0 Q130.14890625 0.5675000000000168 131.0256225 1.4548587500000139 Q131.9025 2.342217500000018 131.9025 3.5067650000000157 Q131.9025 4.602781250000014 131.0256225 5.4069350000000185 Q130.14890625 6.211250000000014 129.0 6.211250000000014 H116.10000000000001 Z M25.8 -19.588749999999983 Q24.719625000000004 -19.588749999999983 23.889187500000002 -20.429023749999985 Q23.05875 -21.26913624999998 23.05875 -22.364023749999987 Q23.05875 -23.45874999999998 23.889187500000002 -24.345624999999984 Q24.719625000000004 -25.232499999999987 25.8 -25.232499999999987 H38.7 Q39.84890625 -25.232499999999987 40.7256225 -24.345141249999983 Q41.6025 -23.457782499999993 41.6025 -22.29323499999998 Q41.6025 -21.19721874999999 40.7256225 -20.392903749999988 Q39.84890625 -19.588749999999983 38.7 -19.588749999999983 H25.8 Z M64.5 -19.588749999999983 Q63.419625 -19.588749999999983 62.5891875 -20.429023749999985 Q61.75875 -21.26913624999998 61.75875 -22.364023749999987 Q61.75875 -23.45874999999998 62.5891875 -24.345624999999984 Q63.419625 -25.232499999999987 64.5 -25.232499999999987 H129.0 Q130.14890625 -25.232499999999987 131.0256225 -24.345141249999983 Q131.9025 -23.457782499999993 131.9025 -22.29323499999998 Q131.9025 -21.19721874999999 131.0256225 -20.392903749999988 Q130.14890625 -19.588749999999983 129.0 -19.588749999999983 H64.5 Z M25.8 -45.38874999999999 Q24.719625000000004 -45.38874999999999 23.889187500000002 -46.22902374999998 Q23.05875 -47.06913625 23.05875 -48.164023749999984 Q23.05875 -49.25874999999999 23.889187500000002 -50.14562499999998 Q24.719625000000004 -51.032499999999985 25.8 -51.032499999999985 H96.75 Q97.89890625 -51.032499999999985 98.77562250000001 -50.14514124999998 Q99.6525 -49.25778249999999 99.6525 -48.09323499999999 Q99.6525 -46.99721874999999 98.77562250000001 -46.192903749999985 Q97.89890625 -45.38874999999999 96.75 -45.38874999999999 H25.8 Z M122.55 -45.38874999999999 Q121.469625 -45.38874999999999 120.6391875 -46.22902374999998 Q119.80875 -47.06913625 119.80875 -48.164023749999984 Q119.80875 -49.25874999999999 120.6391875 -50.14562499999998 Q121.469625 -51.032499999999985 122.55 -51.032499999999985 H129.0 Q130.14890625 -51.032499999999985 131.0256225 -50.14514124999998 Q131.9025 -49.25778249999999 131.9025 -48.09323499999999 Q131.9025 -46.99721874999999 131.0256225 -46.192903749999985 Q130.14890625 -45.38874999999999 129.0 -45.38874999999999 H122.55 Z M25.8 -71.18874999999998 Q24.719625000000004 -71.18874999999998 23.889187500000002 -72.02902375 Q23.05875 -72.86913625 23.05875 -73.96402375 Q23.05875 -75.05874999999999 23.889187500000002 -75.94562499999999 Q24.719625000000004 -76.83249999999998 25.8 -76.83249999999998 H58.050000000000004 Q59.19890625 -76.83249999999998 60.0756225 -75.94514124999998 Q60.9525 -75.05778249999999 60.9525 -73.89323499999999 Q60.9525 -72.79721874999998 60.0756225 -71.99290374999998 Q59.19890625 -71.18874999999998 58.050000000000004 -71.18874999999998 H25.8 Z M83.85000000000001 -71.18874999999998 Q82.76962499999999 -71.18874999999998 81.9391875 -72.02902375 Q81.10875 -72.86913625 81.10875 -73.96402375 Q81.10875 -75.05874999999999 81.9391875 -75.94562499999999 Q82.76962499999999 -76.83249999999998 83.85000000000001 -76.83249999999998 H129.0 Q130.14890625 -76.83249999999998 131.0256225 -75.94514124999998 Q131.9025 -75.05778249999999 131.9025 -73.89323499999999 Q131.9025 -72.79721874999998 131.0256225 -71.99290374999998 Q130.14890625 -71.18874999999998 129.0 -71.18874999999998 H83.85000000000001 Z"/></g><g id="Bold-M" transform="matrix(1 0 0 1 2281.8 1126)"><path d="M20.0 3.2700000000000102 Q16.55 3.2700000000000102 14.025 0.7450000000000117 Q11.5 -1.7799999999999905 11.5 -5.22999999999999 Q11.5 -8.679999999999993 14.025 -11.204999999999991 Q16.55 -13.72999999999999 20.0 -13.72999999999999 H70.0 Q73.45 -13.72999999999999 75.975 -11.204999999999991 Q78.5 -8.679999999999993 78.5 -5.22999999999999 Q78.5 -1.7799999999999905 75.975 0.7450000000000117 Q73.45 3.2700000000000102 70.0 3.2700000000000102 H20.0 Z M90.0 3.2700000000000102 Q86.55 3.2700000000000102 84.025 0.7450000000000117 Q81.5 -1.7799999999999905 81.5 -5.22999999999999 Q81.5 -8.679999999999993 84.025 -11.204999999999991 Q86.55 -13.72999999999999 90.0 -13.72999999999999 H100.0 Q103.45 -13.72999999999999 105.975 -11.204999999999991 Q108.5 -8.679999999999993 108.5 -5.22999999999999 Q108.5 -1.7799999999999905 105.975 0.7450000000000117 Q103.45 3.2700000000000102 100.0 3.2700000000000102 H90.0 Z M20.0 -16.72999999999999 Q16.55 -16.72999999999999 14.025 -19.25499999999999 Q11.5 -21.779999999999987 11.5 -25.22999999999999 Q11.5 -28.679999999999993 14.025 -31.20499999999999 Q16.55 -33.72999999999999 20.0 -33.72999999999999 H30.0 Q33.45 -33.72999999999999 35.975 -31.20499999999999 Q38.5 -28.679999999999993 38.5 -25.22999999999999 Q38.5 -21.779999999999987 35.975 -19.25499999999999 Q33.45 -16.72999999999999 30.0 -16.72999999999999 H20.0 Z M50.0 -16.72999999999999 Q46.55 -16.72999999999999 44.025 -19.25499999999999 Q41.5 -21.779999999999987 41.5 -25.22999999999999 Q41.5 -28.679999999999993 44.025 -31.20499999999999 Q46.55 -33.72999999999999 50.0 -33.72999999999999 H100.0 Q103.45 -33.72999999999999 105.975 -31.20499999999999 Q108.5 -28.679999999999993 108.5 -25.22999999999999 Q108.5 -21.779999999999987 105.975 -19.25499999999999 Q103.45 -16.72999999999999 100.0 -16.72999999999999 H50.0 Z M20.0 -36.72999999999999 Q16.55 -36.72999999999999 14.025 -39.254999999999995 Q11.5 -41.77999999999999 11.5 -45.22999999999999 Q11.5 -48.67999999999999 14.025 -51.204999999999984 Q16.55 -53.72999999999999 20.0 -53.72999999999999 H75.0 Q78.45 -53.72999999999999 80.975 -51.204999999999984 Q83.5 -48.67999999999999 83.5 -45.22999999999999 Q83.5 -41.77999999999999 80.975 -39.254999999999995 Q78.45 -36.72999999999999 75.0 -36.72999999999999 H20.0 Z M95.0 -36.72999999999999 Q91.55 -36.72999999999999 89.025 -39.254999999999995 Q86.5 -41.77999999999999 86.5 -45.22999999999999 Q86.5 -48.67999999999999 89.025 -51.204999999999984 Q91.55 -53.72999999999999 95.0 -53.72999999999999 H100.0 Q103.45 -53.72999999999999 105.975 -51.204999999999984 Q108.5 -48.67999999999999 108.5 -45.22999999999999 Q108.5 -41.77999999999999 105.975 -39.254999999999995 Q103.45 -36.72999999999999 100.0 -36.72999999999999 H95.0 Z M20.0 -56.72999999999999 Q16.55 -56.72999999999999 14.025 -59.254999999999995 Q11.5 -61.77999999999999 11.5 -65.22999999999999 Q11.5 -68.67999999999999 14.025 -71.20499999999998 Q16.55 -73.72999999999999 20.0 -73.72999999999999 H45.0 Q48.45 -73.72999999999999 50.975 -71.20499999999998 Q53.5 -68.67999999999999 53.5 -65.22999999999999 Q53.5 -61.77999999999999 50.975 -59.254999999999995 Q48.45 -56.72999999999999 45.0 -56.72999999999999 H20.0 Z M65.0 -56.72999999999999 Q61.55 -56.72999999999999 59.025 -59.254999999999995 Q56.5 -61.77999999999999 56.5 -65.22999999999999 Q56.5 -68.67999999999999 59.025 -71.20499999999998 Q61.55 -73.72999999999999 65.0 -73.72999999999999 H100.0 Q103.45 -73.72999999999999 105.975 -71.20499999999998 Q108.5 -68.67999999999999 108.5 -65.22999999999999 Q108.5 -61.77999999999999 105.975 -59.254999999999995 Q103.45 -56.72999999999999 100.0 -56.72999999999999 H65.0 Z"/></g><g id="Semibold-M" transform="matrix(1 0 0 1 1985.97 1126)"><path d="M20.0 2.454875000000012 Q16.854375 2.454875000000012 14.58475 0.18525000000001057 Q12.315125 -2.0843749999999908 12.315125 -5.22999999999999 Q12.315125 -8.375624999999992 14.58475 -10.64524999999999 Q16.854375 -12.914874999999988 20.0 -12.914874999999988 H70.0 Q73.145625 -12.914874999999988 75.41525 -10.64524999999999 Q77.684875 -8.375624999999992 77.684875 -5.22999999999999 Q77.684875 -2.0843749999999908 75.41525 0.18525000000001057 Q73.145625 2.454875000000012 70.0 2.454875000000012 H20.0 Z M90.0 2.454875000000012 Q86.854375 2.454875000000012 84.58475 0.18525000000001057 Q82.315125 -2.0843749999999908 82.315125 -5.22999999999999 Q82.315125 -8.375624999999992 84.58475 -10.64524999999999 Q86.854375 -12.914874999999988 90.0 -12.914874999999988 H100.0 Q103.145625 -12.914874999999988 105.41525 -10.64524999999999 Q107.684875 -8.375624999999992 107.684875 -5.22999999999999 Q107.684875 -2.0843749999999908 105.41525 0.18525000000001057 Q103.145625 2.454875000000012 100.0 2.454875000000012 H90.0 Z M20.0 -17.54512499999999 Q16.854375 -17.54512499999999 14.58475 -19.81474999999999 Q12.315125 -22.084374999999987 12.315125 -25.22999999999999 Q12.315125 -28.375624999999992 14.58475 -30.64524999999999 Q16.854375 -32.91487499999999 20.0 -32.91487499999999 H30.0 Q33.145625 -32.91487499999999 35.41525 -30.64524999999999 Q37.684875 -28.375624999999992 37.684875 -25.22999999999999 Q37.684875 -22.084374999999987 35.41525 -19.81474999999999 Q33.145625 -17.54512499999999 30.0 -17.54512499999999 H20.0 Z M50.0 -17.54512499999999 Q46.854375 -17.54512499999999 44.58475 -19.81474999999999 Q42.315125 -22.084374999999987 42.315125 -25.22999999999999 Q42.315125 -28.375624999999992 44.58475 -30.64524999999999 Q46.854375 -32.91487499999999 50.0 -32.91487499999999 H100.0 Q103.145625 -32.91487499999999 105.41525 -30.64524999999999 Q107.684875 -28.375624999999992 107.684875 -25.22999999999999 Q107.684875 -22.084374999999987 105.41525 -19.81474999999999 Q103.145625 -17.54512499999999 100.0 -17.54512499999999 H50.0 Z M20.0 -37.54512499999999 Q16.854375 -37.54512499999999 14.58475 -39.81474999999999 Q12.315125 -42.084374999999994 12.315125 -45.22999999999999 Q12.315125 -48.375624999999985 14.58475 -50.64524999999999 Q16.854375 -52.914874999999995 20.0 -52.914874999999995 H75.0 Q78.145625 -52.914874999999995 80.41525 -50.64524999999999 Q82.684875 -48.375624999999985 82.684875 -45.22999999999999 Q82.684875 -42.084374999999994 80.41525 -39.81474999999999 Q78.145625 -37.54512499999999 75.0 -37.54512499999999 H20.0 Z M95.0 -37.54512499999999 Q91.854375 -37.54512499999999 89.58475 -39.81474999999999 Q87.315125 -42.084374999999994 87.315125 -45.22999999999999 Q87.315125 -48.375624999999985 89.58475 -50.64524999999999 Q91.854375 -52.914874999999995 95.0 -52.914874999999995 H100.0 Q103.145625 -52.914874999999995 105.41525 -50.64524999999999 Q107.684875 -48.375624999999985 107.684875 -45.22999999999999 Q107.684875 -42.084374999999994 105.41525 -39.81474999999999 Q103.145625 -37.54512499999999 100.0 -37.54512499999999 H95.0 Z M20.0 -57.545124999999985 Q16.854375 -57.545124999999985 14.58475 -59.81474999999999 Q12.315125 -62.084374999999994 12.315125 -65.22999999999999 Q12.315125 -68.37562499999999 14.58475 -70.64524999999999 Q16.854375 -72.914875 20.0 -72.914875 H45.0 Q48.145625 -72.914875 50.41525 -70.64524999999999 Q52.684875 -68.37562499999999 52.684875 -65.22999999999999 Q52.684875 -62.084374999999994 50.41525 -59.81474999999999 Q48.145625 -57.545124999999985 45.0 -57.545124999999985 H20.0 Z M65.0 -57.545124999999985 Q61.854375 -57.545124999999985 59.58475 -59.81474999999999 Q57.315125 -62.084374999999994 57.315125 -65.22999999999999 Q57.315125 -68.37562499999999 59.58475 -70.64524999999999 Q61.854375 -72.914875 65.0 -72.914875 H100.0 Q103.145625 -72.914875 105.41525 -70.64524999999999 Q107.684875 -68.37562499999999 107.684875 -65.22999999999999 Q107.684875 -62.084374999999994 105.41525 -59.81474999999999 Q103.145625 -57.545124999999985 100.0 -57.545124999999985 H65.0 Z"/></g><g id="Medium-M" transform="matrix(1 0 0 1 1689.91 1126)"><path d="M20.0 1.8433750000000089 Q17.082625 1.8433750000000089 15.004625 -0.23462499999999054 Q12.926625 -2.31262499999999 12.926625 -5.22999999999999 Q12.926625 -8.14737499999999 15.004625 -10.225374999999993 Q17.082625 -12.303374999999988 20.0 -12.303374999999988 H70.0 Q72.917375 -12.303374999999988 74.995375 -10.225374999999993 Q77.073375 -8.14737499999999 77.073375 -5.22999999999999 Q77.073375 -2.31262499999999 74.995375 -0.23462499999999054 Q72.917375 1.8433750000000089 70.0 1.8433750000000089 H20.0 Z M90.0 1.8433750000000089 Q87.082625 1.8433750000000089 85.004625 -0.23462499999999054 Q82.926625 -2.31262499999999 82.926625 -5.22999999999999 Q82.926625 -8.14737499999999 85.004625 -10.225374999999993 Q87.082625 -12.303374999999988 90.0 -12.303374999999988 H100.0 Q102.917375 -12.303374999999988 104.995375 -10.225374999999993 Q107.073375 -8.14737499999999 107.073375 -5.22999999999999 Q107.073375 -2.31262499999999 104.995375 -0.23462499999999054 Q102.917375 1.8433750000000089 100.0 1.8433750000000089 H90.0 Z M20.0 -18.15662499999999 Q17.082625 -18.15662499999999 15.004625 -20.234624999999987 Q12.926625 -22.31262499999999 12.926625 -25.22999999999999 Q12.926625 -28.14737499999999 15.004625 -30.225374999999993 Q17.082625 -32.30337499999999 20.0 -32.30337499999999 H30.0 Q32.917375 -32.30337499999999 34.995375 -30.225374999999993 Q37.073375 -28.14737499999999 37.073375 -25.22999999999999 Q37.073375 -22.31262499999999 34.995375 -20.234624999999987 Q32.917375 -18.15662499999999 30.0 -18.15662499999999 H20.0 Z M50.0 -18.15662499999999 Q47.082625 -18.15662499999999 45.004625 -20.234624999999987 Q42.926625 -22.31262499999999 42.926625 -25.22999999999999 Q42.926625 -28.14737499999999 45.004625 -30.225374999999993 Q47.082625 -32.30337499999999 50.0 -32.30337499999999 H100.0 Q102.917375 -32.30337499999999 104.995375 -30.225374999999993 Q107.073375 -28.14737499999999 107.073375 -25.22999999999999 Q107.073375 -22.31262499999999 104.995375 -20.234624999999987 Q102.917375 -18.15662499999999 100.0 -18.15662499999999 H50.0 Z M20.0 -38.15662499999999 Q17.082625 -38.15662499999999 15.004625 -40.234624999999994 Q12.926625 -42.31262499999998 12.926625 -45.22999999999999 Q12.926625 -48.147375 15.004625 -50.225374999999985 Q17.082625 -52.30337499999999 20.0 -52.30337499999999 H75.0 Q77.917375 -52.30337499999999 79.995375 -50.225374999999985 Q82.073375 -48.147375 82.073375 -45.22999999999999 Q82.073375 -42.31262499999998 79.995375 -40.234624999999994 Q77.917375 -38.15662499999999 75.0 -38.15662499999999 H20.0 Z M95.0 -38.15662499999999 Q92.082625 -38.15662499999999 90.004625 -40.234624999999994 Q87.926625 -42.31262499999998 87.926625 -45.22999999999999 Q87.926625 -48.147375 90.004625 -50.225374999999985 Q92.082625 -52.30337499999999 95.0 -52.30337499999999 H100.0 Q102.917375 -52.30337499999999 104.995375 -50.225374999999985 Q107.073375 -48.147375 107.073375 -45.22999999999999 Q107.073375 -42.31262499999998 104.995375 -40.234624999999994 Q102.917375 -38.15662499999999 100.0 -38.15662499999999 H95.0 Z M20.0 -58.15662499999999 Q17.082625 -58.15662499999999 15.004625 -60.234624999999994 Q12.926625 -62.31262499999998 12.926625 -65.22999999999999 Q12.926625 -68.147375 15.004625 -70.22537499999999 Q17.082625 -72.30337499999999 20.0 -72.30337499999999 H45.0 Q47.917375 -72.30337499999999 49.995375 -70.22537499999999 Q52.073375 -68.147375 52.073375 -65.22999999999999 Q52.073375 -62.31262499999998 49.995375 -60.234624999999994 Q47.917375 -58.15662499999999 45.0 -58.15662499999999 H20.0 Z M65.0 -58.15662499999999 Q62.082625 -58.15662499999999 60.004625 -60.234624999999994 Q57.926625 -62.31262499999998 57.926625 -65.22999999999999 Q57.926625 -68.147375 60.004625 -70.22537499999999 Q62.082625 -72.30337499999999 65.0 -72.30337499999999 H100.0 Q102.917375 -72.30337499999999 104.995375 -70.22537499999999 Q107.073375 -68.147375 107.073375 -65.22999999999999 Q107.073375 -62.31262499999998 104.995375 -60.234624999999994 Q102.917375 -58.15662499999999 100.0 -58.15662499999999 H65.0 Z"/></g><g id="Regular-M" transform="matrix(1 0 0 1 1394.06 1126)"><path d="M20.0 1.3950000000000102 Q17.25 1.3950000000000102 15.3125 -0.5424999999999898 Q13.375 -2.4799999999999898 13.375 -5.22999999999999 Q13.375 -7.97999999999999 15.3125 -9.91749999999999 Q17.25 -11.85499999999999 20.0 -11.85499999999999 H70.0 Q72.75 -11.85499999999999 74.6875 -9.91749999999999 Q76.625 -7.97999999999999 76.625 -5.22999999999999 Q76.625 -2.4799999999999898 74.6875 -0.5424999999999898 Q72.75 1.3950000000000102 70.0 1.3950000000000102 H20.0 Z M90.0 1.3950000000000102 Q87.25 1.3950000000000102 85.3125 -0.5424999999999898 Q83.375 -2.4799999999999898 83.375 -5.22999999999999 Q83.375 -7.97999999999999 85.3125 -9.91749999999999 Q87.25 -11.85499999999999 90.0 -11.85499999999999 H100.0 Q102.75 -11.85499999999999 104.6875 -9.91749999999999 Q106.625 -7.97999999999999 106.625 -5.22999999999999 Q106.625 -2.4799999999999898 104.6875 -0.5424999999999898 Q102.75 1.3950000000000102 100.0 1.3950000000000102 H90.0 Z M20.0 -18.60499999999999 Q17.25 -18.60499999999999 15.3125 -20.54249999999999 Q13.375 -22.47999999999999 13.375 -25.22999999999999 Q13.375 -27.97999999999999 15.3125 -29.91749999999999 Q17.25 -31.85499999999999 20.0 -31.85499999999999 H30.0 Q32.75 -31.85499999999999 34.6875 -29.91749999999999 Q36.625 -27.97999999999999 36.625 -25.22999999999999 Q36.625 -22.47999999999999 34.6875 -20.54249999999999 Q32.75 -18.60499999999999 30.0 -18.60499999999999 H20.0 Z M50.0 -18.60499999999999 Q47.25 -18.60499999999999 45.3125 -20.54249999999999 Q43.375 -22.47999999999999 43.375 -25.22999999999999 Q43.375 -27.97999999999999 45.3125 -29.91749999999999 Q47.25 -31.85499999999999 50.0 -31.85499999999999 H100.0 Q102.75 -31.85499999999999 104.6875 -29.91749999999999 Q106.625 -27.97999999999999 106.625 -25.22999999999999 Q106.625 -22.47999999999999 104.6875 -20.54249999999999 Q102.75 -18.60499999999999 100.0 -18.60499999999999 H50.0 Z M20.0 -38.60499999999999 Q17.25 -38.60499999999999 15.3125 -40.54249999999999 Q13.375 -42.47999999999999 13.375 -45.22999999999999 Q13.375 -47.97999999999999 15.3125 -49.91749999999999 Q17.25 -51.85499999999999 20.0 -51.85499999999999 H75.0 Q77.75 -51.85499999999999 79.6875 -49.91749999999999 Q81.625 -47.97999999999999 81.625 -45.22999999999999 Q81.625 -42.47999999999999 79.6875 -40.54249999999999 Q77.75 -38.60499999999999 75.0 -38.60499999999999 H20.0 Z M95.0 -38.60499999999999 Q92.25 -38.60499999999999 90.3125 -40.54249999999999 Q88.375 -42.47999999999999 88.375 -45.22999999999999 Q88.375 -47.97999999999999 90.3125 -49.91749999999999 Q92.25 -51.85499999999999 95.0 -51.85499999999999 H100.0 Q102.75 -51.85499999999999 104.6875 -49.91749999999999 Q106.625 -47.97999999999999 106.625 -45.22999999999999 Q106.625 -42.47999999999999 104.6875 -40.54249999999999 Q102.75 -38.60499999999999 100.0 -38.60499999999999 H95.0 Z M20.0 -58.60499999999999 Q17.25 -58.60499999999999 15.3125 -60.54249999999999 Q13.375 -62.47999999999999 13.375 -65.22999999999999 Q13.375 -67.97999999999999 15.3125 -69.91749999999999 Q17.25 -71.85499999999999 20.0 -71.85499999999999 H45.0 Q47.75 -71.85499999999999 49.6875 -69.91749999999999 Q51.625 -67.97999999999999 51.625 -65.22999999999999 Q51.625 -62.47999999999999 49.6875 -60.54249999999999 Q47.75 -58.60499999999999 45.0 -58.60499999999999 H20.0 Z M65.0 -58.60499999999999 Q62.25 -58.60499999999999 60.3125 -60.54249999999999 Q58.375 -62.47999999999999 58.375 -65.22999999999999 Q58.375 -67.97999999999999 60.3125 -69.91749999999999 Q62.25 -71.85499999999999 65.0 -71.85499999999999 H100.0 Q102.75 -71.85499999999999 104.6875 -69.91749999999999 Q106.625 -67.97999999999999 106.625 -65.22999999999999 Q106.625 -62.47999999999999 104.6875 -60.54249999999999 Q102.75 -58.60499999999999 100.0 -58.60499999999999 H65.0 Z"/></g><g id="Light-M" transform="matrix(1 0 0 1 1098.18 1126)"><path d="M20.0 0.14487500000000963 Q17.78125 0.14487500000000963 16.20325 -1.4336249999999886 Q14.625125 -3.012249999999991 14.625125 -5.23162499999999 Q14.625125 -7.4511249999999905 16.20325 -9.027999999999992 Q17.78125 -10.604874999999993 20.0 -10.604874999999993 H70.0 Q72.21875 -10.604874999999993 73.796875 -9.026374999999987 Q75.374875 -7.447749999999992 75.374875 -5.228374999999989 Q75.374875 -3.008874999999989 73.796875 -1.4319999999999915 Q72.21875 0.14487500000000963 70.0 0.14487500000000963 H20.0 Z M90.0 0.14487500000000963 Q87.78125 0.14487500000000963 86.203125 -1.4336249999999886 Q84.625125 -3.012249999999991 84.625125 -5.23162499999999 Q84.625125 -7.4511249999999905 86.203125 -9.027999999999992 Q87.78125 -10.604874999999993 90.0 -10.604874999999993 H100.0 Q102.21875 -10.604874999999993 103.796875 -9.026374999999987 Q105.374875 -7.447749999999992 105.374875 -5.228374999999989 Q105.374875 -3.008874999999989 103.796875 -1.4319999999999915 Q102.21875 0.14487500000000963 100.0 0.14487500000000963 H90.0 Z M20.0 -19.855124999999987 Q17.78125 -19.855124999999987 16.20325 -21.433624999999992 Q14.625125 -23.012249999999987 14.625125 -25.231624999999987 Q14.625125 -27.45112499999999 16.20325 -29.02799999999999 Q17.78125 -30.604874999999993 20.0 -30.604874999999993 H30.0 Q32.21875 -30.604874999999993 33.79675 -29.026374999999987 Q35.374875 -27.447749999999992 35.374875 -25.228374999999993 Q35.374875 -23.00887499999999 33.79675 -21.431999999999988 Q32.21875 -19.855124999999987 30.0 -19.855124999999987 H20.0 Z M50.0 -19.855124999999987 Q47.78125 -19.855124999999987 46.20325 -21.433624999999992 Q44.625125 -23.012249999999987 44.625125 -25.231624999999987 Q44.625125 -27.45112499999999 46.20325 -29.02799999999999 Q47.78125 -30.604874999999993 50.0 -30.604874999999993 H100.0 Q102.21875 -30.604874999999993 103.796875 -29.026374999999987 Q105.374875 -27.447749999999992 105.374875 -25.228374999999993 Q105.374875 -23.00887499999999 103.796875 -21.431999999999988 Q102.21875 -19.855124999999987 100.0 -19.855124999999987 H50.0 Z M20.0 -39.85512499999999 Q17.78125 -39.85512499999999 16.20325 -41.43362499999999 Q14.625125 -43.012249999999995 14.625125 -45.231624999999994 Q14.625125 -47.45112499999999 16.20325 -49.02799999999999 Q17.78125 -50.60487499999999 20.0 -50.60487499999999 H75.0 Q77.21875 -50.60487499999999 78.796875 -49.02637499999999 Q80.374875 -47.447749999999985 80.374875 -45.228374999999986 Q80.374875 -43.00887499999999 78.796875 -41.43199999999999 Q77.21875 -39.85512499999999 75.0 -39.85512499999999 H20.0 Z M95.0 -39.85512499999999 Q92.78125 -39.85512499999999 91.203125 -41.43362499999999 Q89.625125 -43.012249999999995 89.625125 -45.231624999999994 Q89.625125 -47.45112499999999 91.203125 -49.02799999999999 Q92.78125 -50.60487499999999 95.0 -50.60487499999999 H100.0 Q102.21875 -50.60487499999999 103.796875 -49.02637499999999 Q105.374875 -47.447749999999985 105.374875 -45.228374999999986 Q105.374875 -43.00887499999999 103.796875 -41.43199999999999 Q102.21875 -39.85512499999999 100.0 -39.85512499999999 H95.0 Z M20.0 -59.85512499999999 Q17.78125 -59.85512499999999 16.20325 -61.43362499999999 Q14.625125 -63.012249999999995 14.625125 -65.231625 Q14.625125 -67.45112499999999 16.20325 -69.02799999999999 Q17.78125 -70.60487499999999 20.0 -70.60487499999999 H45.0 Q47.21875 -70.60487499999999 48.79675 -69.02637499999999 Q50.374875 -67.44774999999998 50.374875 -65.22837499999999 Q50.374875 -63.00887499999999 48.79675 -61.43199999999999 Q47.21875 -59.85512499999999 45.0 -59.85512499999999 H20.0 Z M65.0 -59.85512499999999 Q62.78125 -59.85512499999999 61.20325 -61.43362499999999 Q59.625125 -63.012249999999995 59.625125 -65.231625 Q59.625125 -67.45112499999999 61.20325 -69.02799999999999 Q62.78125 -70.60487499999999 65.0 -70.60487499999999 H100.0 Q102.21875 -70.60487499999999 103.796875 -69.02637499999999 Q105.374875 -67.44774999999998 105.374875 -65.22837499999999 Q105.374875 -63.00887499999999 103.796875 -61.43199999999999 Q102.21875 -59.85512499999999 100.0 -59.85512499999999 H65.0 Z"/></g><g id="Thin-M" transform="matrix(1 0 0 1 802.565 1126)"><path d="M20.0 -1.1049999999999898 Q18.3125 -1.1049999999999898 17.09375 -2.324749999999991 Q15.875 -3.544374999999988 15.875 -5.233374999999988 Q15.875 -6.922374999999988 17.09375 -8.13862499999999 Q18.3125 -9.35499999999999 20.0 -9.35499999999999 H70.0 Q71.6875 -9.35499999999999 72.90625 -8.135249999999992 Q74.125 -6.9156249999999915 74.125 -5.226624999999991 Q74.125 -3.5376249999999914 72.90625 -2.321374999999989 Q71.6875 -1.1049999999999898 70.0 -1.1049999999999898 H20.0 Z M90.0 -1.1049999999999898 Q88.3125 -1.1049999999999898 87.09375 -2.324749999999991 Q85.875 -3.544374999999988 85.875 -5.233374999999988 Q85.875 -6.922374999999988 87.09375 -8.13862499999999 Q88.3125 -9.35499999999999 90.0 -9.35499999999999 H100.0 Q101.6875 -9.35499999999999 102.90625 -8.135249999999992 Q104.125 -6.9156249999999915 104.125 -5.226624999999991 Q104.125 -3.5376249999999914 102.90625 -2.321374999999989 Q101.6875 -1.1049999999999898 100.0 -1.1049999999999898 H90.0 Z M20.0 -21.10499999999999 Q18.3125 -21.10499999999999 17.09375 -22.324749999999987 Q15.875 -23.544374999999988 15.875 -25.233374999999988 Q15.875 -26.922374999999988 17.09375 -28.13862499999999 Q18.3125 -29.35499999999999 20.0 -29.35499999999999 H30.0 Q31.6875 -29.35499999999999 32.90625 -28.135249999999992 Q34.125 -26.91562499999999 34.125 -25.22662499999999 Q34.125 -23.53762499999999 32.90625 -22.32137499999999 Q31.6875 -21.10499999999999 30.0 -21.10499999999999 H20.0 Z M50.0 -21.10499999999999 Q48.3125 -21.10499999999999 47.09375 -22.324749999999987 Q45.875 -23.544374999999988 45.875 -25.233374999999988 Q45.875 -26.922374999999988 47.09375 -28.13862499999999 Q48.3125 -29.35499999999999 50.0 -29.35499999999999 H100.0 Q101.6875 -29.35499999999999 102.90625 -28.135249999999992 Q104.125 -26.91562499999999 104.125 -25.22662499999999 Q104.125 -23.53762499999999 102.90625 -22.32137499999999 Q101.6875 -21.10499999999999 100.0 -21.10499999999999 H50.0 Z M20.0 -41.10499999999999 Q18.3125 -41.10499999999999 17.09375 -42.324749999999995 Q15.875 -43.54437499999999 15.875 -45.233374999999995 Q15.875 -46.92237499999999 17.09375 -48.13862499999999 Q18.3125 -49.35499999999999 20.0 -49.35499999999999 H75.0 Q76.6875 -49.35499999999999 77.90625 -48.135249999999985 Q79.125 -46.91562499999999 79.125 -45.226624999999984 Q79.125 -43.53762499999999 77.90625 -42.32137499999999 Q76.6875 -41.10499999999999 75.0 -41.10499999999999 H20.0 Z M95.0 -41.10499999999999 Q93.3125 -41.10499999999999 92.09375 -42.324749999999995 Q90.875 -43.54437499999999 90.875 -45.233374999999995 Q90.875 -46.92237499999999 92.09375 -48.13862499999999 Q93.3125 -49.35499999999999 95.0 -49.35499999999999 H100.0 Q101.6875 -49.35499999999999 102.90625 -48.135249999999985 Q104.125 -46.91562499999999 104.125 -45.226624999999984 Q104.125 -43.53762499999999 102.90625 -42.32137499999999 Q101.6875 -41.10499999999999 100.0 -41.10499999999999 H95.0 Z M20.0 -61.10499999999999 Q18.3125 -61.10499999999999 17.09375 -62.324749999999995 Q15.875 -63.54437499999999 15.875 -65.233375 Q15.875 -66.92237499999999 17.09375 -68.13862499999999 Q18.3125 -69.35499999999999 20.0 -69.35499999999999 H45.0 Q46.6875 -69.35499999999999 47.90625 -68.13524999999998 Q49.125 -66.91562499999999 49.125 -65.22662499999998 Q49.125 -63.53762499999999 47.90625 -62.32137499999999 Q46.6875 -61.10499999999999 45.0 -61.10499999999999 H20.0 Z M65.0 -61.10499999999999 Q63.3125 -61.10499999999999 62.09375 -62.324749999999995 Q60.875 -63.54437499999999 60.875 -65.233375 Q60.875 -66.92237499999999 62.09375 -68.13862499999999 Q63.3125 -69.35499999999999 65.0 -69.35499999999999 H100.0 Q101.6875 -69.35499999999999 102.90625 -68.13524999999998 Q104.125 -66.91562499999999 104.125 -65.22662499999998 Q104.125 -63.53762499999999 102.90625 -62.32137499999999 Q101.6875 -61.10499999999999 100.0 -61.10499999999999 H65.0 Z"/></g><g id="Ultralight-M" transform="matrix(1 0 0 1 506.415 1126)"><path d="M20.0 -1.8549999999999898 Q18.63125 -1.8549999999999898 17.628125 -2.8593749999999893 Q16.625 -3.863749999999989 16.625 -5.234374999999989 Q16.625 -6.60499999999999 17.628125 -7.60499999999999 Q18.63125 -8.60499999999999 20.0 -8.60499999999999 H70.0 Q71.36875 -8.60499999999999 72.371875 -7.600624999999987 Q73.375 -6.596249999999991 73.375 -5.22562499999999 Q73.375 -3.8549999999999898 72.371875 -2.8549999999999898 Q71.36875 -1.8549999999999898 70.0 -1.8549999999999898 H20.0 Z M90.0 -1.8549999999999898 Q88.63125 -1.8549999999999898 87.628125 -2.8593749999999893 Q86.625 -3.863749999999989 86.625 -5.234374999999989 Q86.625 -6.60499999999999 87.628125 -7.60499999999999 Q88.63125 -8.60499999999999 90.0 -8.60499999999999 H100.0 Q101.36875 -8.60499999999999 102.371875 -7.600624999999987 Q103.375 -6.596249999999991 103.375 -5.22562499999999 Q103.375 -3.8549999999999898 102.371875 -2.8549999999999898 Q101.36875 -1.8549999999999898 100.0 -1.8549999999999898 H90.0 Z M20.0 -21.85499999999999 Q18.63125 -21.85499999999999 17.628125 -22.859374999999993 Q16.625 -23.86374999999999 16.625 -25.234374999999993 Q16.625 -26.60499999999999 17.628125 -27.60499999999999 Q18.63125 -28.60499999999999 20.0 -28.60499999999999 H30.0 Q31.36875 -28.60499999999999 32.371875 -27.600624999999987 Q33.375 -26.59624999999999 33.375 -25.225624999999987 Q33.375 -23.85499999999999 32.371875 -22.85499999999999 Q31.36875 -21.85499999999999 30.0 -21.85499999999999 H20.0 Z M50.0 -21.85499999999999 Q48.63125 -21.85499999999999 47.628125 -22.859374999999993 Q46.625 -23.86374999999999 46.625 -25.234374999999993 Q46.625 -26.60499999999999 47.628125 -27.60499999999999 Q48.63125 -28.60499999999999 50.0 -28.60499999999999 H100.0 Q101.36875 -28.60499999999999 102.371875 -27.600624999999987 Q103.375 -26.59624999999999 103.375 -25.225624999999987 Q103.375 -23.85499999999999 102.371875 -22.85499999999999 Q101.36875 -21.85499999999999 100.0 -21.85499999999999 H50.0 Z M20.0 -41.85499999999999 Q18.63125 -41.85499999999999 17.628125 -42.859374999999986 Q16.625 -43.863749999999996 16.625 -45.234374999999986 Q16.625 -46.60499999999999 17.628125 -47.60499999999999 Q18.63125 -48.60499999999999 20.0 -48.60499999999999 H75.0 Q76.36875 -48.60499999999999 77.371875 -47.600624999999994 Q78.375 -46.59624999999998 78.375 -45.225624999999994 Q78.375 -43.85499999999999 77.371875 -42.85499999999999 Q76.36875 -41.85499999999999 75.0 -41.85499999999999 H20.0 Z M95.0 -41.85499999999999 Q93.63125 -41.85499999999999 92.628125 -42.859374999999986 Q91.625 -43.863749999999996 91.625 -45.234374999999986 Q91.625 -46.60499999999999 92.628125 -47.60499999999999 Q93.63125 -48.60499999999999 95.0 -48.60499999999999 H100.0 Q101.36875 -48.60499999999999 102.371875 -47.600624999999994 Q103.375 -46.59624999999998 103.375 -45.225624999999994 Q103.375 -43.85499999999999 102.371875 -42.85499999999999 Q101.36875 -41.85499999999999 100.0 -41.85499999999999 H95.0 Z M20.0 -61.85499999999999 Q18.63125 -61.85499999999999 17.628125 -62.859374999999986 Q16.625 -63.863749999999996 16.625 -65.23437499999999 Q16.625 -66.60499999999999 17.628125 -67.60499999999999 Q18.63125 -68.60499999999999 20.0 -68.60499999999999 H45.0 Q46.36875 -68.60499999999999 47.371875 -67.600625 Q48.375 -66.59624999999998 48.375 -65.225625 Q48.375 -63.85499999999999 47.371875 -62.85499999999999 Q46.36875 -61.85499999999999 45.0 -61.85499999999999 H20.0 Z M65.0 -61.85499999999999 Q63.63125 -61.85499999999999 62.628125 -62.859374999999986 Q61.625 -63.863749999999996 61.625 -65.23437499999999 Q61.625 -66.60499999999999 62.628125 -67.60499999999999 Q63.63125 -68.60499999999999 65.0 -68.60499999999999 H100.0 Q101.36875 -68.60499999999999 102.371875 -67.600625 Q103.375 -66.59624999999998 103.375 -65.225625 Q103.375 -63.85499999999999 102.371875 -62.85499999999999 Q101.36875 -61.85499999999999 100.0 -61.85499999999999 H65.0 Z"/></g><g id="Bold-S" transform="matrix(1 0 0 1 2294.23 696)"><path d="M17.7525 -4.064499999999988 Q15.1981125 -4.064499999999988 13.319306250000002 -5.937290124999986 Q11.4405 -7.810178874999988 11.4405 -10.355690124999985 Q11.4405 -12.901299999999988 13.319306250000002 -14.794899999999988 Q15.1981125 -16.688499999999987 17.7525 -16.688499999999987 H55.624500000000005 Q58.1788875 -16.688499999999987 60.057693750000006 -14.815709874999989 Q61.9365 -12.942821124999988 61.9365 -10.397309874999987 Q61.9365 -7.851699999999987 60.057693750000006 -5.9580999999999875 Q58.1788875 -4.064499999999988 55.624500000000005 -4.064499999999988 H17.7525 Z M69.852438375 -4.064499999999988 Q67.3017 -4.064499999999988 65.4081 -5.937290124999986 Q63.514500000000005 -7.810178874999988 63.514500000000005 -10.355690124999985 Q63.514500000000005 -12.901299999999988 65.390840625 -14.794899999999988 Q67.26718125 -16.688499999999987 69.81782100000001 -16.688499999999987 H76.901561625 Q79.45230000000001 -16.688499999999987 81.3459 -14.815709874999989 Q83.2395 -12.942821124999988 83.2395 -10.397309874999987 Q83.2395 -7.851699999999987 81.36315937500001 -5.9580999999999875 Q79.48681875000001 -4.064499999999988 76.936179 -4.064499999999988 H69.852438375 Z M17.778438375 -20.63349999999999 Q15.2277 -20.63349999999999 13.3341 -22.506290124999985 Q11.4405 -24.379178874999987 11.4405 -26.924690124999984 Q11.4405 -29.470299999999988 13.316840625000001 -31.363899999999987 Q15.193181250000002 -33.257499999999986 17.743821 -33.257499999999986 H24.827561625 Q27.378300000000003 -33.257499999999986 29.271900000000002 -31.38470987499999 Q31.1655 -29.51182112499999 31.1655 -26.966309874999986 Q31.1655 -24.420699999999982 29.289159375000004 -22.52709999999999 Q27.41281875 -20.63349999999999 24.862179 -20.63349999999999 H17.778438375 Z M39.0555 -20.63349999999999 Q36.501112500000005 -20.63349999999999 34.62230625 -22.506290124999985 Q32.743500000000004 -24.379178874999987 32.743500000000004 -26.924690124999984 Q32.743500000000004 -29.470299999999988 34.62230625 -31.363899999999987 Q36.501112500000005 -33.257499999999986 39.0555 -33.257499999999986 H76.92750000000001 Q79.4818875 -33.257499999999986 81.36069375000001 -31.38470987499999 Q83.2395 -29.51182112499999 83.2395 -26.966309874999986 Q83.2395 -24.420699999999982 81.36069375000001 -22.52709999999999 Q79.4818875 -20.63349999999999 76.92750000000001 -20.63349999999999 H39.0555 Z M17.7525 -37.202499999999986 Q15.1981125 -37.202499999999986 13.319306250000002 -39.07538874999999 Q11.4405 -40.94817887499999 11.4405 -43.493690124999986 Q11.4405 -46.03929999999999 13.319306250000002 -47.93289999999998 Q15.1981125 -49.82649999999999 17.7525 -49.82649999999999 H60.3585 Q62.912887500000004 -49.82649999999999 64.79169375000001 -47.95361124999999 Q66.6705 -46.080821124999986 66.6705 -43.53530987499999 Q66.6705 -40.989699999999985 64.79169375000001 -39.09609999999999 Q62.912887500000004 -37.202499999999986 60.3585 -37.202499999999986 H17.7525 Z M74.5605 -37.202499999999986 Q72.0061125 -37.202499999999986 70.12730625 -39.07538874999999 Q68.2485 -40.94817887499999 68.2485 -43.493690124999986 Q68.2485 -46.03929999999999 70.12730625 -47.93289999999998 Q72.0061125 -49.82649999999999 74.5605 -49.82649999999999 H76.92750000000001 Q79.4818875 -49.82649999999999 81.36069375000001 -47.95361124999999 Q83.2395 -46.080821124999986 83.2395 -43.53530987499999 Q83.2395 -40.989699999999985 81.36069375000001 -39.09609999999999 Q79.4818875 -37.202499999999986 76.92750000000001 -37.202499999999986 H74.5605 Z M17.7525 -53.77149999999999 Q15.1981125 -53.77149999999999 13.319306250000002 -55.64438874999999 Q11.4405 -57.517178875 11.4405 -60.06269012499999 Q11.4405 -62.608299999999986 13.319306250000002 -64.50189999999999 Q15.1981125 -66.39549999999998 17.7525 -66.39549999999998 H34.3215 Q36.8758875 -66.39549999999998 38.75469375 -64.52261124999998 Q40.633500000000005 -62.64982112499999 40.633500000000005 -60.104309874999984 Q40.633500000000005 -57.55869999999999 38.75469375 -55.665099999999995 Q36.8758875 -53.77149999999999 34.3215 -53.77149999999999 H17.7525 Z M48.523500000000006 -53.77149999999999 Q45.9691125 -53.77149999999999 44.090306250000005 -55.64438874999999 Q42.2115 -57.517178875 42.2115 -60.06269012499999 Q42.2115 -62.608299999999986 44.090306250000005 -64.50189999999999 Q45.9691125 -66.39549999999998 48.523500000000006 -66.39549999999998 H76.92750000000001 Q79.4818875 -66.39549999999998 81.36069375000001 -64.52261124999998 Q83.2395 -62.64982112499999 83.2395 -60.104309874999984 Q83.2395 -57.55869999999999 81.36069375000001 -55.665099999999995 Q79.4818875 -53.77149999999999 76.92750000000001 -53.77149999999999 H48.523500000000006 Z"/></g><g id="Semibold-S" transform="matrix(1 0 0 1 1998.1 696)"><path d="M17.7525 -4.7076336249999855 Q15.438264375000001 -4.7076336249999855 13.760949 -6.37893287499999 Q12.083633625000001 -8.050330749999986 12.083633625000001 -10.355690124999985 Q12.083633625000001 -12.661148124999986 13.760949 -14.353257249999988 Q15.438264375000001 -16.045366374999986 17.7525 -16.045366374999986 H55.624500000000005 Q57.93873562500001 -16.045366374999986 59.616051 -14.37406712499999 Q61.293366375000005 -12.702669249999989 61.293366375000005 -10.397309874999987 Q61.293366375000005 -8.091851874999989 59.616051 -6.399742749999987 Q57.93873562500001 -4.7076336249999855 55.624500000000005 -4.7076336249999855 H17.7525 Z M69.852438375 -4.7076336249999855 Q67.541851875 -4.7076336249999855 65.84974275 -6.37893287499999 Q64.157633625 -8.050330749999986 64.157633625 -10.355690124999985 Q64.157633625 -12.661148124999986 65.83248337500001 -14.353257249999988 Q67.50723450000001 -16.045366374999986 69.81782100000001 -16.045366374999986 H76.901561625 Q79.212148125 -16.045366374999986 80.90425725 -14.37406712499999 Q82.596366375 -12.702669249999989 82.596366375 -10.397309874999987 Q82.596366375 -8.091851874999989 80.921516625 -6.399742749999987 Q79.2467655 -4.7076336249999855 76.936179 -4.7076336249999855 H69.852438375 Z M17.778438375 -21.276633624999988 Q15.467851875000001 -21.276633624999988 13.775742750000001 -22.947932874999985 Q12.083633625000001 -24.61933074999999 12.083633625000001 -26.924690124999984 Q12.083633625000001 -29.230148124999992 13.758483374999999 -30.922257249999987 Q15.433234500000001 -32.61436637499999 17.743821 -32.61436637499999 H24.827561625 Q27.138148125000004 -32.61436637499999 28.830257250000003 -30.943067124999992 Q30.522366375 -29.271669249999988 30.522366375 -26.966309874999986 Q30.522366375 -24.660851874999985 28.847516625000004 -22.96874274999999 Q27.172765500000004 -21.276633624999988 24.862179 -21.276633624999988 H17.778438375 Z M39.0555 -21.276633624999988 Q36.74126437500001 -21.276633624999988 35.063949 -22.947932874999985 Q33.386633625 -24.61933074999999 33.386633625 -26.924690124999984 Q33.386633625 -29.230148124999992 35.063949 -30.922257249999987 Q36.74126437500001 -32.61436637499999 39.0555 -32.61436637499999 H76.92750000000001 Q79.241735625 -32.61436637499999 80.919051 -30.943067124999992 Q82.596366375 -29.271669249999988 82.596366375 -26.966309874999986 Q82.596366375 -24.660851874999985 80.919051 -22.96874274999999 Q79.241735625 -21.276633624999988 76.92750000000001 -21.276633624999988 H39.0555 Z M17.7525 -37.84563362499999 Q15.438264375000001 -37.84563362499999 13.760949 -39.51693287499999 Q12.083633625000001 -41.188330749999984 12.083633625000001 -43.493690124999986 Q12.083633625000001 -45.79914812499999 13.760949 -47.49125724999999 Q15.438264375000001 -49.18336637499999 17.7525 -49.18336637499999 H60.3585 Q62.67273562500001 -49.18336637499999 64.35005100000001 -47.51206712499999 Q66.02736637500001 -45.84066924999999 66.02736637500001 -43.53530987499999 Q66.02736637500001 -41.229851874999994 64.35005100000001 -39.537742749999985 Q62.67273562500001 -37.84563362499999 60.3585 -37.84563362499999 H17.7525 Z M74.5605 -37.84563362499999 Q72.246264375 -37.84563362499999 70.568949 -39.51693287499999 Q68.891633625 -41.188330749999984 68.891633625 -43.493690124999986 Q68.891633625 -45.79914812499999 70.568949 -47.49125724999999 Q72.246264375 -49.18336637499999 74.5605 -49.18336637499999 H76.92750000000001 Q79.241735625 -49.18336637499999 80.919051 -47.51206712499999 Q82.596366375 -45.84066924999999 82.596366375 -43.53530987499999 Q82.596366375 -41.229851874999994 80.919051 -39.537742749999985 Q79.241735625 -37.84563362499999 76.92750000000001 -37.84563362499999 H74.5605 Z M17.7525 -54.41463362499998 Q15.438264375000001 -54.41463362499998 13.760949 -56.08593287499998 Q12.083633625000001 -57.757330749999994 12.083633625000001 -60.06269012499999 Q12.083633625000001 -62.36814812499999 13.760949 -64.06025724999999 Q15.438264375000001 -65.752366375 17.7525 -65.752366375 H34.3215 Q36.635735625 -65.752366375 38.313051 -64.08106712499999 Q39.990366375 -62.40966924999999 39.990366375 -60.104309874999984 Q39.990366375 -57.798851875 38.313051 -56.106742749999995 Q36.635735625 -54.41463362499998 34.3215 -54.41463362499998 H17.7525 Z M48.523500000000006 -54.41463362499998 Q46.209264375000004 -54.41463362499998 44.531949000000004 -56.08593287499998 Q42.854633625000005 -57.757330749999994 42.854633625000005 -60.06269012499999 Q42.854633625000005 -62.36814812499999 44.531949000000004 -64.06025724999999 Q46.209264375000004 -65.752366375 48.523500000000006 -65.752366375 H76.92750000000001 Q79.241735625 -65.752366375 80.919051 -64.08106712499999 Q82.596366375 -62.40966924999999 82.596366375 -60.104309874999984 Q82.596366375 -57.798851875 80.919051 -56.106742749999995 Q79.241735625 -54.41463362499998 76.92750000000001 -54.41463362499998 H48.523500000000006 Z"/></g><g id="Medium-S" transform="matrix(1 0 0 1 1701.85 696)"><path d="M17.7525 -5.190107124999987 Q15.618353625 -5.190107124999987 14.092230375000002 -6.710214249999986 Q12.566107125 -8.230419999999988 12.566107125 -10.355690124999985 Q12.566107125 -12.481058874999988 14.092230375000002 -14.021975874999988 Q15.618353625 -15.562892874999985 17.7525 -15.562892874999985 H55.624500000000005 Q57.758646375000005 -15.562892874999985 59.28476962500001 -14.042785749999986 Q60.810892875 -12.522579999999987 60.810892875 -10.397309874999987 Q60.810892875 -8.271941124999987 59.28476962500001 -6.731024124999987 Q57.758646375000005 -5.190107124999987 55.624500000000005 -5.190107124999987 H17.7525 Z M69.852438375 -5.190107124999987 Q67.721941125 -5.190107124999987 66.18102412500001 -6.710214249999986 Q64.640107125 -8.230419999999988 64.640107125 -10.355690124999985 Q64.640107125 -12.481058874999988 66.16376475 -14.021975874999988 Q67.68732375 -15.562892874999985 69.81782100000001 -15.562892874999985 H76.901561625 Q79.032058875 -15.562892874999985 80.572975875 -14.042785749999986 Q82.113892875 -12.522579999999987 82.113892875 -10.397309874999987 Q82.113892875 -8.271941124999987 80.59023525 -6.731024124999987 Q79.06667625000001 -5.190107124999987 76.936179 -5.190107124999987 H69.852438375 Z M17.778438375 -21.759107124999986 Q15.647941125000001 -21.759107124999986 14.107024125 -23.27921424999999 Q12.566107125 -24.79941999999999 12.566107125 -26.924690124999984 Q12.566107125 -29.05005887499999 14.08976475 -30.59097587499999 Q15.613323750000001 -32.131892874999984 17.743821 -32.131892874999984 H24.827561625 Q26.958058875000003 -32.131892874999984 28.498975875000003 -30.61178574999999 Q30.039892875 -29.091579999999986 30.039892875 -26.966309874999986 Q30.039892875 -24.840941124999986 28.516235249999998 -23.300024124999986 Q26.992676250000002 -21.759107124999986 24.862179 -21.759107124999986 H17.778438375 Z M39.0555 -21.759107124999986 Q36.921353625 -21.759107124999986 35.395230375000004 -23.27921424999999 Q33.869107125 -24.79941999999999 33.869107125 -26.924690124999984 Q33.869107125 -29.05005887499999 35.395230375000004 -30.59097587499999 Q36.921353625 -32.131892874999984 39.0555 -32.131892874999984 H76.92750000000001 Q79.06164637500001 -32.131892874999984 80.587769625 -30.61178574999999 Q82.113892875 -29.091579999999986 82.113892875 -26.966309874999986 Q82.113892875 -24.840941124999986 80.587769625 -23.300024124999986 Q79.06164637500001 -21.759107124999986 76.92750000000001 -21.759107124999986 H39.0555 Z M17.7525 -38.32810712499999 Q15.618353625 -38.32810712499999 14.092230375000002 -39.84821424999999 Q12.566107125 -41.368419999999986 12.566107125 -43.493690124999986 Q12.566107125 -45.61905887499999 14.092230375000002 -47.159975874999986 Q15.618353625 -48.70089287499999 17.7525 -48.70089287499999 H60.3585 Q62.49264637500001 -48.70089287499999 64.018769625 -47.180785749999984 Q65.544892875 -45.66057999999999 65.544892875 -43.53530987499999 Q65.544892875 -41.40994112499998 64.018769625 -39.86902412499999 Q62.49264637500001 -38.32810712499999 60.3585 -38.32810712499999 H17.7525 Z M74.5605 -38.32810712499999 Q72.426353625 -38.32810712499999 70.90023037499999 -39.84821424999999 Q69.37410712500001 -41.368419999999986 69.37410712500001 -43.493690124999986 Q69.37410712500001 -45.61905887499999 70.90023037499999 -47.159975874999986 Q72.426353625 -48.70089287499999 74.5605 -48.70089287499999 H76.92750000000001 Q79.06164637500001 -48.70089287499999 80.587769625 -47.180785749999984 Q82.113892875 -45.66057999999999 82.113892875 -43.53530987499999 Q82.113892875 -41.40994112499998 80.587769625 -39.86902412499999 Q79.06164637500001 -38.32810712499999 76.92750000000001 -38.32810712499999 H74.5605 Z M17.7525 -54.89710712499999 Q15.618353625 -54.89710712499999 14.092230375000002 -56.41721424999999 Q12.566107125 -57.93741999999999 12.566107125 -60.06269012499999 Q12.566107125 -62.188058874999996 14.092230375000002 -63.72897587499999 Q15.618353625 -65.26989287499998 17.7525 -65.26989287499998 H34.3215 Q36.455646375 -65.26989287499998 37.981769625 -63.74978574999999 Q39.507892875 -62.229579999999984 39.507892875 -60.104309874999984 Q39.507892875 -57.97894112499998 37.981769625 -56.438024125 Q36.455646375 -54.89710712499999 34.3215 -54.89710712499999 H17.7525 Z M48.523500000000006 -54.89710712499999 Q46.389353625 -54.89710712499999 44.863230375 -56.41721424999999 Q43.337107125 -57.93741999999999 43.337107125 -60.06269012499999 Q43.337107125 -62.188058874999996 44.863230375 -63.72897587499999 Q46.389353625 -65.26989287499998 48.523500000000006 -65.26989287499998 H76.92750000000001 Q79.06164637500001 -65.26989287499998 80.587769625 -63.74978574999999 Q82.113892875 -62.229579999999984 82.113892875 -60.104309874999984 Q82.113892875 -57.97894112499998 80.587769625 -56.438024125 Q79.06164637500001 -54.89710712499999 76.92750000000001 -54.89710712499999 H48.523500000000006 Z"/></g><g id="Regular-S" transform="matrix(1 0 0 1 1405.73 696)"><path d="M17.7525 -5.543874999999986 Q15.7504125 -5.543874999999986 14.33514375 -6.953127624999986 Q12.919875000000001 -8.362478874999987 12.919875000000001 -10.355690124999985 Q12.919875000000001 -12.348999999999986 14.33514375 -13.779062499999988 Q15.7504125 -15.209124999999986 17.7525 -15.209124999999986 H55.624500000000005 Q57.6265875 -15.209124999999986 59.04185625 -13.799872374999989 Q60.457125000000005 -12.390521124999985 60.457125000000005 -10.397309874999987 Q60.457125000000005 -8.403999999999986 59.04185625 -6.9739374999999875 Q57.6265875 -5.543874999999986 55.624500000000005 -5.543874999999986 H17.7525 Z M69.852438375 -5.543874999999986 Q67.854 -5.543874999999986 66.42393750000001 -6.953127624999986 Q64.993875 -8.362478874999987 64.993875 -10.355690124999985 Q64.993875 -12.348999999999986 66.40667812500001 -13.779062499999988 Q67.81948125 -15.209124999999986 69.81782100000001 -15.209124999999986 H76.901561625 Q78.9 -15.209124999999986 80.3300625 -13.799872374999989 Q81.760125 -12.390521124999985 81.760125 -10.397309874999987 Q81.760125 -8.403999999999986 80.347321875 -6.9739374999999875 Q78.93451875000001 -5.543874999999986 76.936179 -5.543874999999986 H69.852438375 Z M17.778438375 -22.11287499999999 Q15.780000000000001 -22.11287499999999 14.349937500000001 -23.52212762499999 Q12.919875000000001 -24.93147887499999 12.919875000000001 -26.924690124999984 Q12.919875000000001 -28.917999999999985 14.332678125 -30.34806249999999 Q15.745481250000001 -31.77812499999999 17.743821 -31.77812499999999 H24.827561625 Q26.826 -31.77812499999999 28.256062500000002 -30.368872374999988 Q29.686125 -28.959521124999988 29.686125 -26.966309874999986 Q29.686125 -24.972999999999985 28.273321875 -23.542937499999987 Q26.860518750000004 -22.11287499999999 24.862179 -22.11287499999999 H17.778438375 Z M39.0555 -22.11287499999999 Q37.0534125 -22.11287499999999 35.638143750000005 -23.52212762499999 Q34.222875 -24.93147887499999 34.222875 -26.924690124999984 Q34.222875 -28.917999999999985 35.638143750000005 -30.34806249999999 Q37.0534125 -31.77812499999999 39.0555 -31.77812499999999 H76.92750000000001 Q78.9295875 -31.77812499999999 80.34485625 -30.368872374999988 Q81.760125 -28.959521124999988 81.760125 -26.966309874999986 Q81.760125 -24.972999999999985 80.34485625 -23.542937499999987 Q78.9295875 -22.11287499999999 76.92750000000001 -22.11287499999999 H39.0555 Z M17.7525 -38.68187499999999 Q15.7504125 -38.68187499999999 14.33514375 -40.091127624999984 Q12.919875000000001 -41.500478874999985 12.919875000000001 -43.493690124999986 Q12.919875000000001 -45.48699999999999 14.33514375 -46.917062499999986 Q15.7504125 -48.34712499999999 17.7525 -48.34712499999999 H60.3585 Q62.3605875 -48.34712499999999 63.775856250000004 -46.93787237499999 Q65.191125 -45.52852112499999 65.191125 -43.53530987499999 Q65.191125 -41.54199999999999 63.775856250000004 -40.11193749999999 Q62.3605875 -38.68187499999999 60.3585 -38.68187499999999 H17.7525 Z M74.5605 -38.68187499999999 Q72.5584125 -38.68187499999999 71.14314375000001 -40.091127624999984 Q69.727875 -41.500478874999985 69.727875 -43.493690124999986 Q69.727875 -45.48699999999999 71.14314375000001 -46.917062499999986 Q72.5584125 -48.34712499999999 74.5605 -48.34712499999999 H76.92750000000001 Q78.9295875 -48.34712499999999 80.34485625 -46.93787237499999 Q81.760125 -45.52852112499999 81.760125 -43.53530987499999 Q81.760125 -41.54199999999999 80.34485625 -40.11193749999999 Q78.9295875 -38.68187499999999 76.92750000000001 -38.68187499999999 H74.5605 Z M17.7525 -55.25087499999999 Q15.7504125 -55.25087499999999 14.33514375 -56.66012762499999 Q12.919875000000001 -58.06947887499999 12.919875000000001 -60.06269012499999 Q12.919875000000001 -62.05599999999998 14.33514375 -63.48606249999999 Q15.7504125 -64.916125 17.7525 -64.916125 H34.3215 Q36.3235875 -64.916125 37.73885625 -63.506872374999986 Q39.154125 -62.097521125 39.154125 -60.104309874999984 Q39.154125 -58.11099999999999 37.73885625 -56.680937499999985 Q36.3235875 -55.25087499999999 34.3215 -55.25087499999999 H17.7525 Z M48.523500000000006 -55.25087499999999 Q46.521412500000004 -55.25087499999999 45.10614375 -56.66012762499999 Q43.690875000000005 -58.06947887499999 43.690875000000005 -60.06269012499999 Q43.690875000000005 -62.05599999999998 45.10614375 -63.48606249999999 Q46.521412500000004 -64.916125 48.523500000000006 -64.916125 H76.92750000000001 Q78.9295875 -64.916125 80.34485625 -63.506872374999986 Q81.760125 -62.097521125 81.760125 -60.104309874999984 Q81.760125 -58.11099999999999 80.34485625 -56.680937499999985 Q78.9295875 -55.25087499999999 76.92750000000001 -55.25087499999999 H48.523500000000006 Z"/></g><g id="Light-S" transform="matrix(1 0 0 1 1109.75 696)"><path d="M17.7525 -6.530223624999987 Q16.16956875 -6.530223624999987 15.037945500000001 -7.656323874999988 Q13.906223625 -8.782424124999988 13.906223625 -10.357070874999987 Q13.906223625 -11.931717624999987 15.037945500000001 -13.077246999999986 Q16.16956875 -14.222776374999992 17.7525 -14.222776374999992 H55.624500000000005 Q57.20743125 -14.222776374999992 58.3390545 -13.096676124999988 Q59.47077637500001 -11.970575874999987 59.47077637500001 -10.395929124999988 Q59.47077637500001 -8.821282374999988 58.3390545 -7.67575299999999 Q57.20743125 -6.530223624999987 55.624500000000005 -6.530223624999987 H17.7525 Z M69.852438375 -6.530223624999987 Q68.27315625 -6.530223624999987 67.12664062500001 -7.656323874999988 Q65.980223625 -8.782424124999988 65.980223625 -10.357070874999987 Q65.980223625 -11.931717624999987 67.10938125000001 -13.077246999999986 Q68.2386375 -14.222776374999992 69.81782100000001 -14.222776374999992 H76.901561625 Q78.48084375 -14.222776374999992 79.627359375 -13.096676124999988 Q80.77377637500001 -11.970575874999987 80.77377637500001 -10.395929124999988 Q80.77377637500001 -8.821282374999988 79.64461874999999 -7.67575299999999 Q78.51536250000001 -6.530223624999987 76.936179 -6.530223624999987 H69.852438375 Z M17.778438375 -23.099223624999986 Q16.19915625 -23.099223624999986 15.052739250000002 -24.225323874999987 Q13.906223625 -25.351424124999987 13.906223625 -26.926070874999986 Q13.906223625 -28.500717624999986 15.03538125 -29.64624699999999 Q16.1646375 -30.79177637499999 17.743821 -30.79177637499999 H24.827561625 Q26.40684375 -30.79177637499999 27.553260750000003 -29.66567612499999 Q28.699776375000003 -28.53957587499999 28.699776375000003 -26.96492912499999 Q28.699776375000003 -25.390282374999984 27.57061875 -24.24475299999999 Q26.441362500000004 -23.099223624999986 24.862179 -23.099223624999986 H17.778438375 Z M39.0555 -23.099223624999986 Q37.47256875 -23.099223624999986 36.340945500000004 -24.225323874999987 Q35.209223625 -25.351424124999987 35.209223625 -26.926070874999986 Q35.209223625 -28.500717624999986 36.340945500000004 -29.64624699999999 Q37.47256875 -30.79177637499999 39.0555 -30.79177637499999 H76.92750000000001 Q78.51043125 -30.79177637499999 79.6420545 -29.66567612499999 Q80.77377637500001 -28.53957587499999 80.77377637500001 -26.96492912499999 Q80.77377637500001 -25.390282374999984 79.6420545 -24.24475299999999 Q78.51043125 -23.099223624999986 76.92750000000001 -23.099223624999986 H39.0555 Z M17.7525 -39.66822362499999 Q16.16956875 -39.66822362499999 15.037945500000001 -40.79432387499999 Q13.906223625 -41.92042412499999 13.906223625 -43.49507087499999 Q13.906223625 -45.06971762499999 15.037945500000001 -46.21524699999999 Q16.16956875 -47.36077637499999 17.7525 -47.36077637499999 H60.3585 Q61.94143125 -47.36077637499999 63.073054500000005 -46.23467612499999 Q64.20477637500001 -45.10857587499999 64.20477637500001 -43.533929124999986 Q64.20477637500001 -41.95928237499999 63.073054500000005 -40.813752999999984 Q61.94143125 -39.66822362499999 60.3585 -39.66822362499999 H17.7525 Z M74.5605 -39.66822362499999 Q72.97756875 -39.66822362499999 71.8459455 -40.79432387499999 Q70.714223625 -41.92042412499999 70.714223625 -43.49507087499999 Q70.714223625 -45.06971762499999 71.8459455 -46.21524699999999 Q72.97756875 -47.36077637499999 74.5605 -47.36077637499999 H76.92750000000001 Q78.51043125 -47.36077637499999 79.6420545 -46.23467612499999 Q80.77377637500001 -45.10857587499999 80.77377637500001 -43.533929124999986 Q80.77377637500001 -41.95928237499999 79.6420545 -40.813752999999984 Q78.51043125 -39.66822362499999 76.92750000000001 -39.66822362499999 H74.5605 Z M17.7525 -56.237223624999984 Q16.16956875 -56.237223624999984 15.037945500000001 -57.36332387499999 Q13.906223625 -58.489424124999985 13.906223625 -60.064070874999985 Q13.906223625 -61.638717624999984 15.037945500000001 -62.78424699999999 Q16.16956875 -63.92977637499999 17.7525 -63.92977637499999 H34.3215 Q35.90443125 -63.92977637499999 37.0360545 -62.803676124999996 Q38.167776375 -61.67757587499999 38.167776375 -60.10292912499999 Q38.167776375 -58.52828237499999 37.0360545 -57.382752999999994 Q35.90443125 -56.237223624999984 34.3215 -56.237223624999984 H17.7525 Z M48.523500000000006 -56.237223624999984 Q46.940568750000004 -56.237223624999984 45.8089455 -57.36332387499999 Q44.677223624999996 -58.489424124999985 44.677223624999996 -60.064070874999985 Q44.677223624999996 -61.638717624999984 45.8089455 -62.78424699999999 Q46.940568750000004 -63.92977637499999 48.523500000000006 -63.92977637499999 H76.92750000000001 Q78.51043125 -63.92977637499999 79.6420545 -62.803676124999996 Q80.77377637500001 -61.67757587499999 80.77377637500001 -60.10292912499999 Q80.77377637500001 -58.52828237499999 79.6420545 -57.382752999999994 Q78.51043125 -56.237223624999984 76.92750000000001 -56.237223624999984 H48.523500000000006 Z"/></g><g id="Thin-S" transform="matrix(1 0 0 1 814.015 696)"><path d="M17.7525 -7.516374999999986 Q16.588725 -7.516374999999986 15.74055 -8.359322874999986 Q14.892375000000001 -9.202270749999986 14.892375000000001 -10.358352999999987 Q14.892375000000001 -11.514533874999987 15.74055 -12.375530124999987 Q16.588725 -13.236624999999986 17.7525 -13.236624999999986 H55.624500000000005 Q56.788275 -13.236624999999986 57.63645 -12.39367712499999 Q58.484625 -11.55072924999999 58.484625 -10.394646999999988 Q58.484625 -9.238466124999988 57.63645 -8.377469874999985 Q56.788275 -7.516374999999986 55.624500000000005 -7.516374999999986 H17.7525 Z M69.852438375 -7.516374999999986 Q68.6923125 -7.516374999999986 67.82934375 -8.359322874999986 Q66.966375 -9.202270749999986 66.966375 -10.358352999999987 Q66.966375 -11.514533874999987 67.81208437500001 -12.375530124999987 Q68.65779375 -13.236624999999986 69.81782100000001 -13.236624999999986 H76.901561625 Q78.0616875 -13.236624999999986 78.92465625 -12.39367712499999 Q79.787625 -11.55072924999999 79.787625 -10.394646999999988 Q79.787625 -9.238466124999988 78.941915625 -8.377469874999985 Q78.09620625000001 -7.516374999999986 76.936179 -7.516374999999986 H69.852438375 Z M17.778438375 -24.085374999999985 Q16.618312500000002 -24.085374999999985 15.755343750000002 -24.928322874999992 Q14.892375000000001 -25.771270749999985 14.892375000000001 -26.927352999999982 Q14.892375000000001 -28.083533874999986 15.738084375 -28.944530124999986 Q16.58379375 -29.805624999999985 17.743821 -29.805624999999985 H24.827561625 Q25.9876875 -29.805624999999985 26.85065625 -28.962677124999985 Q27.713625 -28.119729249999992 27.713625 -26.963646999999987 Q27.713625 -25.80746612499999 26.867915625000002 -24.946469874999984 Q26.022206250000004 -24.085374999999985 24.862179 -24.085374999999985 H17.778438375 Z M39.0555 -24.085374999999985 Q37.891725 -24.085374999999985 37.04355 -24.928322874999992 Q36.195375 -25.771270749999985 36.195375 -26.927352999999982 Q36.195375 -28.083533874999986 37.04355 -28.944530124999986 Q37.891725 -29.805624999999985 39.0555 -29.805624999999985 H76.92750000000001 Q78.091275 -29.805624999999985 78.93945000000001 -28.962677124999985 Q79.787625 -28.119729249999992 79.787625 -26.963646999999987 Q79.787625 -25.80746612499999 78.93945000000001 -24.946469874999984 Q78.091275 -24.085374999999985 76.92750000000001 -24.085374999999985 H39.0555 Z M17.7525 -40.65437499999999 Q16.588725 -40.65437499999999 15.74055 -41.497322874999995 Q14.892375000000001 -42.340270749999995 14.892375000000001 -43.49635299999999 Q14.892375000000001 -44.65253387499999 15.74055 -45.51353012499999 Q16.588725 -46.37462499999999 17.7525 -46.37462499999999 H60.3585 Q61.522275 -46.37462499999999 62.37045 -45.53167712499999 Q63.218625 -44.68872924999999 63.218625 -43.53264699999998 Q63.218625 -42.37646612499999 62.37045 -41.51546987499999 Q61.522275 -40.65437499999999 60.3585 -40.65437499999999 H17.7525 Z M74.5605 -40.65437499999999 Q73.396725 -40.65437499999999 72.54855 -41.497322874999995 Q71.70037500000001 -42.340270749999995 71.70037500000001 -43.49635299999999 Q71.70037500000001 -44.65253387499999 72.54855 -45.51353012499999 Q73.396725 -46.37462499999999 74.5605 -46.37462499999999 H76.92750000000001 Q78.091275 -46.37462499999999 78.93945000000001 -45.53167712499999 Q79.787625 -44.68872924999999 79.787625 -43.53264699999998 Q79.787625 -42.37646612499999 78.93945000000001 -41.51546987499999 Q78.091275 -40.65437499999999 76.92750000000001 -40.65437499999999 H74.5605 Z M17.7525 -57.22337499999999 Q16.588725 -57.22337499999999 15.74055 -58.066322875 Q14.892375000000001 -58.90927074999999 14.892375000000001 -60.06535299999999 Q14.892375000000001 -61.22153387499999 15.74055 -62.08253012499999 Q16.588725 -62.94362499999998 17.7525 -62.94362499999998 H34.3215 Q35.485275 -62.94362499999998 36.33345 -62.10067712499999 Q37.181625000000004 -61.25772924999998 37.181625000000004 -60.101646999999986 Q37.181625000000004 -58.945466124999996 36.33345 -58.08446987499998 Q35.485275 -57.22337499999999 34.3215 -57.22337499999999 H17.7525 Z M48.523500000000006 -57.22337499999999 Q47.359725 -57.22337499999999 46.51155000000001 -58.066322875 Q45.663375 -58.90927074999999 45.663375 -60.06535299999999 Q45.663375 -61.22153387499999 46.51155000000001 -62.08253012499999 Q47.359725 -62.94362499999998 48.523500000000006 -62.94362499999998 H76.92750000000001 Q78.091275 -62.94362499999998 78.93945000000001 -62.10067712499999 Q79.787625 -61.25772924999998 79.787625 -60.101646999999986 Q79.787625 -58.945466124999996 78.93945000000001 -58.08446987499998 Q78.091275 -57.22337499999999 76.92750000000001 -57.22337499999999 H48.523500000000006 Z"/></g><g id="Ultralight-S" transform="matrix(1 0 0 1 517.792 696)"><path d="M17.7525 -8.108124999999987 Q16.840218750000002 -8.108124999999987 16.162171875000002 -8.781240624999985 Q15.484125 -9.454257624999986 15.484125 -10.359240624999988 Q15.484125 -11.264124999999986 16.162171875000002 -11.954499999999989 Q16.840218750000002 -12.644874999999988 17.7525 -12.644874999999988 H55.624500000000005 Q56.536781250000004 -12.644874999999988 57.214828125000004 -11.971759374999987 Q57.892875000000004 -11.298742374999986 57.892875000000004 -10.393759374999988 Q57.892875000000004 -9.488874999999986 57.214828125000004 -8.798499999999986 Q56.536781250000004 -8.108124999999987 55.624500000000005 -8.108124999999987 H17.7525 Z M69.852438375 -8.108124999999987 Q68.94380625 -8.108124999999987 68.250965625 -8.781240624999985 Q67.558125 -9.454257624999986 67.558125 -10.359240624999988 Q67.558125 -11.264124999999986 68.23370625000001 -11.954499999999989 Q68.9092875 -12.644874999999988 69.81782100000001 -12.644874999999988 H76.901561625 Q77.81019375000001 -12.644874999999988 78.503034375 -11.971759374999987 Q79.195875 -11.298742374999986 79.195875 -10.393759374999988 Q79.195875 -9.488874999999986 78.52029375000001 -8.798499999999986 Q77.8447125 -8.108124999999987 76.936179 -8.108124999999987 H69.852438375 Z M17.778438375 -24.67712499999999 Q16.869806250000003 -24.67712499999999 16.176965625 -25.350240624999984 Q15.484125 -26.023257624999985 15.484125 -26.928240624999987 Q15.484125 -27.83312499999999 16.15970625 -28.52349999999999 Q16.8352875 -29.213874999999987 17.743821 -29.213874999999987 H24.827561625 Q25.73619375 -29.213874999999987 26.429034375000004 -28.540759374999986 Q27.121875000000003 -27.867742374999985 27.121875000000003 -26.96275937499999 Q27.121875000000003 -26.05787499999999 26.44629375 -25.367499999999986 Q25.770712500000002 -24.67712499999999 24.862179 -24.67712499999999 H17.778438375 Z M39.0555 -24.67712499999999 Q38.14321875 -24.67712499999999 37.465171875 -25.350240624999984 Q36.787125 -26.023257624999985 36.787125 -26.928240624999987 Q36.787125 -27.83312499999999 37.465171875 -28.52349999999999 Q38.14321875 -29.213874999999987 39.0555 -29.213874999999987 H76.92750000000001 Q77.83978125 -29.213874999999987 78.51782812500001 -28.540759374999986 Q79.195875 -27.867742374999985 79.195875 -26.96275937499999 Q79.195875 -26.05787499999999 78.51782812500001 -25.367499999999986 Q77.83978125 -24.67712499999999 76.92750000000001 -24.67712499999999 H39.0555 Z M17.7525 -41.24612499999999 Q16.840218750000002 -41.24612499999999 16.162171875000002 -41.91924062499999 Q15.484125 -42.59225762499999 15.484125 -43.497240624999996 Q15.484125 -44.40212499999999 16.162171875000002 -45.09249999999999 Q16.840218750000002 -45.78287499999999 17.7525 -45.78287499999999 H60.3585 Q61.270781250000006 -45.78287499999999 61.948828125000006 -45.10975937499998 Q62.626875000000005 -44.43674237499999 62.626875000000005 -43.531759374999986 Q62.626875000000005 -42.62687499999999 61.948828125000006 -41.93649999999999 Q61.270781250000006 -41.24612499999999 60.3585 -41.24612499999999 H17.7525 Z M74.5605 -41.24612499999999 Q73.64821875 -41.24612499999999 72.970171875 -41.91924062499999 Q72.292125 -42.59225762499999 72.292125 -43.497240624999996 Q72.292125 -44.40212499999999 72.970171875 -45.09249999999999 Q73.64821875 -45.78287499999999 74.5605 -45.78287499999999 H76.92750000000001 Q77.83978125 -45.78287499999999 78.51782812500001 -45.10975937499998 Q79.195875 -44.43674237499999 79.195875 -43.531759374999986 Q79.195875 -42.62687499999999 78.51782812500001 -41.93649999999999 Q77.83978125 -41.24612499999999 76.92750000000001 -41.24612499999999 H74.5605 Z M17.7525 -57.815124999999995 Q16.840218750000002 -57.815124999999995 16.162171875000002 -58.48824062499999 Q15.484125 -59.16125762499999 15.484125 -60.06624062499999 Q15.484125 -60.97112499999999 16.162171875000002 -61.66149999999999 Q16.840218750000002 -62.35187499999999 17.7525 -62.35187499999999 H34.3215 Q35.23378125 -62.35187499999999 35.911828125 -61.678759374999984 Q36.589875 -61.00574237499998 36.589875 -60.10075937499998 Q36.589875 -59.19587499999999 35.911828125 -58.505499999999984 Q35.23378125 -57.815124999999995 34.3215 -57.815124999999995 H17.7525 Z M48.523500000000006 -57.815124999999995 Q47.61121875 -57.815124999999995 46.933171875 -58.48824062499999 Q46.255125 -59.16125762499999 46.255125 -60.06624062499999 Q46.255125 -60.97112499999999 46.933171875 -61.66149999999999 Q47.61121875 -62.35187499999999 48.523500000000006 -62.35187499999999 H76.92750000000001 Q77.83978125 -62.35187499999999 78.51782812500001 -61.678759374999984 Q79.195875 -61.00574237499998 79.195875 -60.10075937499998 Q79.195875 -59.19587499999999 78.51782812500001 -58.505499999999984 Q77.83978125 -57.815124999999995 76.92750000000001 -57.815124999999995 H48.523500000000006 Z"/></g></g></svg>