<svg xmlns="http://www.w3.org/2000/svg" version="1.1" width="3300" height="2000"><g id="Notes"><style>
    text {
      font-family: monospace;
      text-anchor: middle;
    }
    text.emphasis {
      font-weight:bold;
    }
    text.lanchor {
      text-anchor: start;
    }
  </style><rect height="2200" id="artboard" fill="white" width="3300" x="0" y="0"/><line id="" style="fill:none;stroke:black;stroke-width:0.5;" x1="263" x2="3036" y1="292" y2="292"/><text class="lanchor emphasis" transform="matrix(1 0 0 1 263 322)">Weight/Scale Variations</text><text transform="matrix(1 0 0 1 559.711 322)">Ultralight</text><text transform="matrix(1 0 0 1 856.422 322)">Thin</text><text transform="matrix(1 0 0 1 1153.13 322)">Light</text><text transform="matrix(1 0 0 1 1449.84 322)">Regular</text><text transform="matrix(1 0 0 1 1746.56 322)">Medium</text><text transform="matrix(1 0 0 1 2043.27 322)">Semibold</text><text transform="matrix(1 0 0 1 2339.98 322)">Bold</text><text transform="matrix(1 0 0 1 2636.69 322)">Heavy</text><text transform="matrix(1 0 0 1 2933.4 322)">Black</text><text id="template-version" style="text-anchor: end;" transform="matrix(1 0 0 1 3036 1933)">Template v.1.0</text><text class="lanchor" transform="matrix(1 0 0 1 263 726)">Small</text><text class="lanchor" transform="matrix(1 0 0 1 263 1156)">Medium</text><text class="lanchor" transform="matrix(1 0 0 1 263 1586)">Large</text></g><g id="Guides"><g id="H-reference" style="fill:#27AAE1;stroke:none;" transform="matrix(1 0 0 1 339 696)"><path d="M 54.9316 0 L 57.666 0 L 30.5664 -70.459 L 28.0762 -70.459 L 0.976562 0 L 3.66211 0 L 12.9395 -24.4629 L 45.7031 -24.4629 Z M 29.1992 -67.0898 L 29.4434 -67.0898 L 44.8242 -26.709 L 13.8184 -26.709 Z"/></g><line id="Baseline-S" style="fill:none;stroke:#27AAE1;opacity:1;stroke-width:0.577;" x1="263" x2="3036" y1="696" y2="696"/><line id="Capline-S" style="fill:none;stroke:#27AAE1;opacity:1;stroke-width:0.577;" x1="263" x2="3036" y1="625.541" y2="625.541"/><g id="H-reference" style="fill:#27AAE1;stroke:none;" transform="matrix(1 0 0 1 339 1126)"><path d="M 54.9316 0 L 57.666 0 L 30.5664 -70.459 L 28.0762 -70.459 L 0.976562 0 L 3.66211 0 L 12.9395 -24.4629 L 45.7031 -24.4629 Z M 29.1992 -67.0898 L 29.4434 -67.0898 L 44.8242 -26.709 L 13.8184 -26.709 Z"/></g><line id="Baseline-M" style="fill:none;stroke:#27AAE1;opacity:1;stroke-width:0.577;" x1="263" x2="3036" y1="1126" y2="1126"/><line id="Capline-M" style="fill:none;stroke:#27AAE1;opacity:1;stroke-width:0.577;" x1="263" x2="3036" y1="1055.54" y2="1055.54"/><g id="H-reference" style="fill:#27AAE1;stroke:none;" transform="matrix(1 0 0 1 339 1556)"><path d="M 54.9316 0 L 57.666 0 L 30.5664 -70.459 L 28.0762 -70.459 L 0.976562 0 L 3.66211 0 L 12.9395 -24.4629 L 45.7031 -24.4629 Z M 29.1992 -67.0898 L 29.4434 -67.0898 L 44.8242 -26.709 L 13.8184 -26.709 Z"/></g><line id="Baseline-L" style="fill:none;stroke:#27AAE1;opacity:1;stroke-width:0.577;" x1="263" x2="3036" y1="1556" y2="1556"/><line id="Capline-L" style="fill:none;stroke:#27AAE1;opacity:1;stroke-width:0.577;" x1="263" x2="3036" y1="1485.54" y2="1485.54"/><rect height="119.336" id="left-margin" style="fill:darkred;stroke:none;opacity:0.4;" width="12.4512" x="1394.06" y="1030.79"/><rect height="119.336" id="right-margin" style="fill:darkgreen;stroke:none;opacity:0.4;" width="12.4512" x="1502.5112" y="1030.79"/><rect x="1406.5112" y="1045" width="96" height="96" fill="none" stroke="blue" stroke-dasharray="5"/><rect x="1394.06" y="1030.79" width="120.9024" height="119.336" fill="none" stroke="blue"/></g><g id="Symbols"><g id="Bold-L" transform="matrix(1 0 0 1 2266 1556)"><path d="M139.804 -50.549 Q136.821 -50.549 134.845 -52.538 Q132.87 -54.528 132.87 -57.335 Q132.87 -60.062 134.845 -62.118 Q136.821 -64.174 139.804 -64.174 H146.254 Q148.975 -64.174 150.96 -62.152 Q152.946 -60.13 152.946 -57.355 Q152.946 -54.499 150.96 -52.524 Q148.975 -50.549 146.254 -50.549 H139.804 Z M98.477 -91.748 Q95.621 -91.748 93.646 -93.723 Q91.671 -95.699 91.671 -98.682 V-105.132 Q91.671 -107.853 93.66 -109.838 Q95.649 -111.824 98.457 -111.824 Q101.184 -111.824 103.24 -109.838 Q105.296 -107.853 105.296 -105.132 V-98.682 Q105.296 -95.699 103.274 -93.723 Q101.252 -91.748 98.477 -91.748 Z M125.291 -84.141 Q123.034 -86.289 123.034 -88.938 Q123.034 -91.587 125.291 -93.844 L129.806 -98.359 Q131.947 -100.375 134.586 -100.415 Q137.224 -100.456 139.481 -98.359 Q141.578 -96.138 141.578 -93.499 Q141.578 -90.861 139.481 -88.684 L134.966 -84.089 Q132.745 -81.912 130.106 -81.912 Q127.468 -81.912 125.291 -84.141 Z M107.849 -60.304 Q106.748 -60.304 105.901 -60.546 Q105.054 -60.788 104.168 -61.272 L98.362 -64.658 Q96.024 -65.787 93.646 -65.142 Q91.267 -64.497 90.058 -62.32 L89.736 -61.594 L95.46 -58.369 Q99.297 -55.805 100.523 -51.484 Q101.749 -47.162 99.411 -43.131 L95.621 -36.197 Q99.008 -30.151 100.862 -23.66 Q102.716 -17.17 102.716 -10.236 Q102.716 10.726 88.047 25.239 Q73.378 39.751 52.572 39.751 Q31.524 39.751 17.012 25.083 Q2.499 10.416 2.499 -10.634 Q2.499 -31.36 17.294 -45.913 Q32.089 -60.466 53.136 -60.466 Q53.132 -60.466 53.18 -60.466 Q53.229 -60.466 53.374 -60.466 L57.163 -67.48 Q59.566 -71.488 64.049 -72.588 Q68.531 -73.688 72.562 -71.511 L77.964 -68.367 L78.448 -69.254 Q82.641 -76.268 90.381 -78.243 Q98.121 -80.219 105.296 -76.429 L111.101 -72.962 Q112.633 -72.156 113.56 -70.646 Q114.487 -69.136 114.487 -66.996 Q114.487 -64.195 112.558 -62.249 Q110.628 -60.304 107.849 -60.304 Z"/></g><g id="Semibold-L" transform="matrix(1 0 0 1 1970.27 1556)"><path d="M138.612 -53.774 Q136.05 -53.774 134.355 -55.476 Q132.66 -57.179 132.66 -59.643 Q132.66 -62.025 134.355 -63.766 Q136.05 -65.506 138.612 -65.506 H145.062 Q147.441 -65.506 149.142 -63.785 Q150.842 -62.064 150.842 -59.654 Q150.842 -57.163 149.142 -55.468 Q147.441 -53.774 145.062 -53.774 H138.612 Z M99.304 -93.01 Q96.813 -93.01 95.118 -94.705 Q93.423 -96.4 93.423 -98.962 V-105.412 Q93.423 -107.792 95.126 -109.492 Q96.829 -111.193 99.292 -111.193 Q101.675 -111.193 103.416 -109.492 Q105.156 -107.792 105.156 -105.412 V-98.962 Q105.156 -96.4 103.435 -94.705 Q101.713 -93.01 99.304 -93.01 Z M124.45 -84.784 Q122.543 -86.594 122.543 -88.88 Q122.543 -91.166 124.45 -93.073 L129.035 -97.658 Q130.841 -99.393 133.121 -99.434 Q135.401 -99.474 137.308 -97.658 Q139.124 -95.772 139.124 -93.492 Q139.124 -91.212 137.308 -89.385 L132.723 -84.72 Q130.836 -82.893 128.556 -82.893 Q126.276 -82.893 124.45 -84.784 Z M107.966 -62.968 Q107.028 -62.968 106.322 -63.175 Q105.615 -63.382 104.869 -63.796 L99.835 -66.691 Q97.216 -68.1 94.417 -67.35 Q91.618 -66.6 90.198 -64.073 L89.806 -63.207 L97.423 -58.86 Q100.678 -56.745 101.704 -53.11 Q102.73 -49.476 100.743 -46.146 L96.182 -37.88 Q99.673 -31.903 101.545 -25.413 Q103.417 -18.923 103.417 -11.989 Q103.417 8.623 89.027 22.925 Q74.636 37.228 54.148 37.228 Q33.487 37.228 19.185 22.767 Q4.883 8.307 4.883 -12.354 Q4.883 -32.762 19.362 -47.034 Q33.841 -61.307 54.466 -61.307 Q54.674 -61.307 54.894 -61.307 Q55.114 -61.307 55.407 -61.307 L59.967 -69.583 Q61.921 -72.97 65.682 -73.89 Q69.443 -74.81 72.843 -72.983 L79.647 -69.068 L80.201 -70.025 Q84.183 -76.689 91.572 -78.594 Q98.962 -80.499 105.787 -76.85 L110.821 -73.874 Q112.142 -73.138 112.929 -71.828 Q113.716 -70.519 113.716 -68.749 Q113.716 -66.289 112.065 -64.629 Q110.413 -62.968 107.966 -62.968 Z"/></g><g id="Medium-L" transform="matrix(1 0 0 1 1674.31 1556)"><path d="M137.718 -56.192 Q135.471 -56.192 133.986 -57.68 Q132.502 -59.168 132.502 -61.373 Q132.502 -63.498 133.986 -65.002 Q135.471 -66.505 137.718 -66.505 H144.168 Q146.291 -66.505 147.778 -65.01 Q149.265 -63.514 149.265 -61.378 Q149.265 -59.162 147.778 -57.677 Q146.291 -56.192 144.168 -56.192 H137.718 Z M99.924 -93.957 Q97.707 -93.957 96.222 -95.441 Q94.738 -96.926 94.738 -99.173 V-105.623 Q94.738 -107.746 96.226 -109.233 Q97.714 -110.72 99.919 -110.72 Q102.043 -110.72 103.547 -109.233 Q105.051 -107.746 105.051 -105.623 V-99.173 Q105.051 -96.926 103.555 -95.441 Q102.059 -93.957 99.924 -93.957 Z M123.819 -85.267 Q122.175 -86.823 122.175 -88.837 Q122.175 -90.851 123.819 -92.495 L128.457 -97.132 Q130.012 -98.657 132.023 -98.698 Q134.034 -98.738 135.678 -97.132 Q137.283 -95.497 137.283 -93.486 Q137.283 -91.475 135.678 -89.911 L131.04 -85.193 Q129.405 -83.63 127.394 -83.63 Q125.382 -83.63 123.819 -85.267 Z M108.054 -64.967 Q107.238 -64.967 106.637 -65.147 Q106.036 -65.328 105.394 -65.689 L100.939 -68.216 Q98.11 -69.836 94.996 -69.007 Q91.881 -68.178 90.304 -65.387 L89.858 -64.416 L98.895 -59.228 Q101.715 -57.45 102.59 -54.33 Q103.466 -51.211 101.742 -48.407 L96.603 -39.142 Q100.173 -33.218 102.058 -26.728 Q103.943 -20.237 103.943 -13.304 Q103.943 7.046 89.761 21.19 Q75.579 35.334 55.329 35.334 Q34.96 35.334 20.815 21.03 Q6.671 6.726 6.671 -13.644 Q6.671 -33.814 20.913 -47.876 Q35.156 -61.938 55.464 -61.938 Q55.831 -61.938 56.18 -61.938 Q56.529 -61.938 56.932 -61.938 L62.071 -71.161 Q63.688 -74.082 66.907 -74.867 Q70.126 -75.651 73.053 -74.088 L80.909 -69.594 L81.515 -70.603 Q85.34 -77.004 92.466 -78.857 Q99.593 -80.709 106.155 -77.165 L110.611 -74.557 Q111.774 -73.874 112.456 -72.715 Q113.138 -71.557 113.138 -70.064 Q113.138 -67.86 111.695 -66.413 Q110.252 -64.967 108.054 -64.967 Z"/></g><g id="Regular-L" transform="matrix(1 0 0 1 1378.56 1556)"><path d="M137.062 -57.966 Q135.047 -57.966 133.717 -59.297 Q132.386 -60.627 132.386 -62.642 Q132.386 -64.577 133.717 -65.908 Q135.047 -67.238 137.062 -67.238 H143.513 Q145.447 -67.238 146.778 -65.908 Q148.108 -64.577 148.108 -62.642 Q148.108 -60.627 146.778 -59.297 Q145.447 -57.966 143.513 -57.966 H137.062 Z M100.378 -94.651 Q98.362 -94.651 97.032 -95.981 Q95.702 -97.311 95.702 -99.327 V-105.777 Q95.702 -107.712 97.032 -109.042 Q98.362 -110.373 100.378 -110.373 Q102.313 -110.373 103.643 -109.042 Q104.974 -107.712 104.974 -105.777 V-99.327 Q104.974 -97.311 103.643 -95.981 Q102.313 -94.651 100.378 -94.651 Z M123.356 -85.621 Q121.905 -86.991 121.905 -88.805 Q121.905 -90.619 123.356 -92.071 L128.032 -96.747 Q129.403 -98.117 131.217 -98.158 Q133.031 -98.198 134.483 -96.747 Q135.934 -95.296 135.934 -93.482 Q135.934 -91.667 134.483 -90.297 L129.806 -85.54 Q128.355 -84.169 126.541 -84.169 Q124.727 -84.169 123.356 -85.621 Z M108.118 -66.432 Q107.392 -66.432 106.868 -66.593 Q106.344 -66.754 105.78 -67.077 L101.749 -69.334 Q98.766 -71.108 95.42 -70.221 Q92.074 -69.334 90.381 -66.351 L89.897 -65.303 L99.975 -59.498 Q102.474 -57.966 103.24 -55.225 Q104.006 -52.484 102.474 -50.065 L96.911 -40.067 Q100.539 -34.182 102.434 -27.692 Q104.329 -21.201 104.329 -14.267 Q104.329 5.889 90.3 19.918 Q76.271 33.946 56.196 33.946 Q36.039 33.946 22.011 19.756 Q7.982 5.566 7.982 -14.59 Q7.982 -34.585 22.051 -48.493 Q36.12 -62.401 56.196 -62.401 Q56.679 -62.401 57.123 -62.401 Q57.566 -62.401 58.05 -62.401 L63.613 -72.317 Q64.984 -74.897 67.806 -75.583 Q70.627 -76.268 73.207 -74.897 L81.834 -69.979 L82.479 -71.027 Q86.188 -77.236 93.122 -79.05 Q100.056 -80.864 106.425 -77.397 L110.456 -75.059 Q111.504 -74.414 112.109 -73.366 Q112.714 -72.317 112.714 -71.027 Q112.714 -69.012 111.424 -67.722 Q110.134 -66.432 108.118 -66.432 Z"/></g><g id="Light-L" transform="matrix(1 0 0 1 1082.77 1556)"><path d="M131.822 -57.718 Q130.243 -57.718 129.237 -58.725 Q128.231 -59.732 128.231 -61.311 Q128.231 -62.779 129.237 -63.784 Q130.243 -64.788 131.822 -64.788 H138.272 Q139.738 -64.788 140.744 -63.781 Q141.751 -62.774 141.751 -61.307 Q141.751 -59.728 140.744 -58.723 Q139.738 -57.718 138.272 -57.718 H131.822 Z M99.011 -91.27 Q97.432 -91.27 96.428 -92.277 Q95.423 -93.283 95.423 -94.861 V-101.311 Q95.423 -102.778 96.43 -103.784 Q97.436 -104.79 99.016 -104.79 Q100.483 -104.79 101.488 -103.784 Q102.493 -102.778 102.493 -101.311 V-94.861 Q102.493 -93.283 101.486 -92.277 Q100.479 -91.27 99.011 -91.27 Z M122.023 -83.822 Q120.944 -84.789 120.944 -86.185 Q120.944 -87.58 122.023 -88.628 L126.699 -93.367 Q127.697 -94.365 129.139 -94.421 Q130.581 -94.477 131.629 -93.398 Q132.677 -92.318 132.647 -90.861 Q132.616 -89.404 131.567 -88.436 L126.922 -83.679 Q125.812 -82.681 124.401 -82.712 Q122.99 -82.743 122.023 -83.822 Z M106.647 -65.812 Q106.121 -65.812 105.693 -65.918 Q105.265 -66.024 104.906 -66.32 L101.873 -68.001 Q98.424 -69.992 94.644 -69.027 Q90.864 -68.063 88.923 -64.677 L88.439 -63.536 L96.564 -58.847 Q99.001 -57.408 99.736 -54.682 Q100.471 -51.957 99.032 -49.6 L94.027 -40.595 Q97.655 -34.585 99.814 -28.079 Q101.972 -21.573 101.972 -14.547 Q101.972 4.214 88.857 17.189 Q75.742 30.163 57.017 30.163 Q38.148 30.163 25.003 16.923 Q11.858 3.684 11.858 -15.117 Q11.858 -33.903 25.245 -46.896 Q38.632 -59.889 57.467 -59.889 Q58.323 -59.889 59.092 -59.858 Q59.861 -59.827 60.655 -59.765 L65.629 -68.689 Q66.937 -71.176 69.728 -71.846 Q72.519 -72.516 75.006 -71.176 L82.3 -67.126 L83.007 -68.267 Q86.467 -74.041 92.951 -75.747 Q99.435 -77.453 105.464 -74.141 L108.494 -72.415 Q109.241 -71.902 109.706 -71.072 Q110.171 -70.242 110.171 -69.278 Q110.171 -67.709 109.201 -66.761 Q108.231 -65.812 106.647 -65.812 Z"/></g><g id="Thin-L" transform="matrix(1 0 0 1 787.282 1556)"><path d="M126.581 -57.47 Q125.44 -57.47 124.758 -58.154 Q124.076 -58.837 124.076 -59.98 Q124.076 -60.98 124.758 -61.66 Q125.44 -62.339 126.581 -62.339 H133.031 Q134.03 -62.339 134.712 -61.655 Q135.394 -60.972 135.394 -59.971 Q135.394 -58.828 134.712 -58.149 Q134.03 -57.47 133.031 -57.47 H126.581 Z M97.645 -87.891 Q96.502 -87.891 95.823 -88.573 Q95.144 -89.255 95.144 -90.396 V-96.846 Q95.144 -97.845 95.827 -98.527 Q96.511 -99.209 97.654 -99.209 Q98.654 -99.209 99.333 -98.527 Q100.012 -97.845 100.012 -96.846 V-90.396 Q100.012 -89.255 99.329 -88.573 Q98.645 -87.891 97.645 -87.891 Z M120.689 -82.023 Q119.982 -82.588 119.982 -83.565 Q119.982 -84.542 120.689 -85.187 L125.366 -89.987 Q125.992 -90.613 127.062 -90.685 Q128.132 -90.756 128.777 -90.049 Q129.422 -89.342 129.36 -88.241 Q129.298 -87.14 128.653 -86.576 L124.038 -81.819 Q123.269 -81.193 122.262 -81.254 Q121.254 -81.317 120.689 -82.023 Z M105.176 -65.192 Q104.85 -65.192 104.518 -65.242 Q104.186 -65.293 104.031 -65.564 L101.997 -66.668 Q98.083 -68.875 93.869 -67.833 Q89.655 -66.792 87.466 -63.002 L86.982 -61.768 L93.153 -58.196 Q95.528 -56.85 96.232 -54.14 Q96.936 -51.429 95.59 -49.135 L91.143 -41.122 Q94.772 -34.988 97.193 -28.467 Q99.615 -21.945 99.615 -14.826 Q99.615 2.54 87.414 14.46 Q75.213 26.38 57.837 26.38 Q40.257 26.38 27.995 14.091 Q15.734 1.802 15.734 -15.644 Q15.734 -33.221 28.439 -45.299 Q41.144 -57.377 58.738 -57.377 Q59.966 -57.377 61.061 -57.315 Q62.156 -57.253 63.26 -57.129 L67.644 -65.061 Q68.891 -67.455 71.651 -68.11 Q74.411 -68.764 76.805 -67.455 L82.765 -64.274 L83.534 -65.508 Q86.746 -70.848 92.781 -72.445 Q98.815 -74.042 104.502 -70.885 L106.532 -69.772 Q106.977 -69.39 107.303 -68.778 Q107.628 -68.166 107.628 -67.528 Q107.628 -66.407 106.978 -65.799 Q106.329 -65.192 105.176 -65.192 Z"/></g><g id="Ultralight-L" transform="matrix(1 0 0 1 491.205 1556)"><path d="M123.437 -57.321 Q122.558 -57.321 122.07 -57.811 Q121.583 -58.3 121.583 -59.181 Q121.583 -59.901 122.07 -60.385 Q122.558 -60.869 123.437 -60.869 H129.887 Q130.604 -60.869 131.092 -60.379 Q131.58 -59.89 131.58 -59.17 Q131.58 -58.289 131.092 -57.805 Q130.604 -57.321 129.887 -57.321 H123.437 Z M96.825 -85.862 Q95.944 -85.862 95.46 -86.35 Q94.976 -86.838 94.976 -87.717 V-94.167 Q94.976 -94.884 95.466 -95.372 Q95.955 -95.86 96.836 -95.86 Q97.556 -95.86 98.04 -95.372 Q98.524 -94.884 98.524 -94.167 V-87.717 Q98.524 -86.838 98.034 -86.35 Q97.545 -85.862 96.825 -85.862 Z M119.889 -80.944 Q119.406 -81.267 119.406 -81.992 Q119.406 -82.718 119.889 -83.121 L124.566 -87.959 Q124.969 -88.362 125.815 -88.442 Q126.662 -88.523 127.065 -88.039 Q127.468 -87.556 127.388 -86.669 Q127.307 -85.782 126.904 -85.459 L122.308 -80.702 Q121.744 -80.299 120.978 -80.38 Q120.212 -80.461 119.889 -80.944 Z M104.293 -64.819 Q104.087 -64.819 103.813 -64.837 Q103.539 -64.855 103.506 -65.11 L102.071 -65.867 Q97.879 -68.206 93.404 -67.117 Q88.929 -66.029 86.591 -61.997 L86.108 -60.707 L91.106 -57.805 Q93.444 -56.515 94.13 -53.814 Q94.815 -51.113 93.525 -48.856 L89.413 -41.438 Q93.041 -35.23 95.621 -28.699 Q98.201 -22.169 98.201 -14.993 Q98.201 1.535 86.549 12.823 Q74.896 24.11 58.33 24.11 Q41.522 24.11 29.791 12.391 Q18.06 0.672 18.06 -15.961 Q18.06 -32.811 30.355 -44.341 Q42.651 -55.87 59.501 -55.87 Q60.953 -55.87 62.242 -55.789 Q63.532 -55.709 64.823 -55.547 L68.854 -62.884 Q70.063 -65.222 72.804 -65.867 Q75.546 -66.512 77.884 -65.222 L83.044 -62.562 L83.85 -63.852 Q86.914 -68.931 92.678 -70.463 Q98.443 -71.995 103.926 -68.931 L105.354 -68.185 Q105.619 -67.883 105.861 -67.402 Q106.103 -66.921 106.103 -66.478 Q106.103 -65.626 105.645 -65.222 Q105.187 -64.819 104.293 -64.819 Z"/></g><g id="Bold-M" transform="matrix(1 0 0 1 2281.8 1126)"><path d="M107.688 -44.23 Q104.875 -44.23 102.812 -46.292 Q100.75 -48.355 100.75 -51.167 Q100.75 -53.98 102.812 -56.042 Q104.875 -58.105 107.688 -58.105 H112.688 Q115.5 -58.105 117.562 -56.042 Q119.625 -53.98 119.625 -51.167 Q119.625 -48.355 117.562 -46.292 Q115.5 -44.23 112.688 -44.23 H107.688 Z M76.062 -75.855 Q73.25 -75.855 71.188 -77.917 Q69.125 -79.98 69.125 -82.792 V-87.792 Q69.125 -90.605 71.188 -92.667 Q73.25 -94.73 76.062 -94.73 Q78.875 -94.73 80.938 -92.667 Q83 -90.605 83 -87.792 V-82.792 Q83 -79.98 80.938 -77.917 Q78.875 -75.855 76.062 -75.855 Z M95.562 -70.667 Q93.438 -72.792 93.438 -75.574 Q93.438 -78.355 95.562 -80.48 L99.062 -83.98 Q101.125 -86.042 103.938 -86.074 Q106.75 -86.105 108.875 -83.98 Q111 -81.855 111 -79.074 Q111 -76.292 108.875 -74.167 L105.312 -70.605 Q103.25 -68.542 100.469 -68.542 Q97.688 -68.542 95.562 -70.667 Z M84.5 -51.417 Q83.5 -51.417 82.594 -51.699 Q81.688 -51.98 80.875 -52.417 L74.875 -55.855 Q73.75 -56.542 72.594 -56.136 Q71.438 -55.73 70.75 -54.605 L70.625 -54.23 L71.375 -53.73 Q75.375 -51.292 76.656 -46.855 Q77.938 -42.417 75.625 -38.292 L73.812 -35.167 Q76.438 -30.542 77.844 -25.48 Q79.25 -20.417 79.25 -15.042 Q79.25 1.208 67.781 12.614 Q56.312 24.02 40.062 24.02 Q23.688 24.02 12.281 12.583 Q0.875 1.145 0.875 -15.292 Q0.875 -31.542 12.531 -42.949 Q24.188 -54.355 40.625 -54.355 Q40.625 -54.355 40.562 -54.355 Q40.5 -54.355 40.5 -54.355 L42.25 -57.542 Q44.688 -61.605 49.188 -62.792 Q53.688 -63.98 57.75 -61.605 L58.625 -61.167 L58.75 -61.542 Q62.25 -67.73 69.031 -69.48 Q75.812 -71.23 81.812 -67.855 L87.688 -64.417 Q89.375 -63.417 90.375 -61.917 Q91.375 -60.417 91.375 -58.355 Q91.375 -55.542 89.344 -53.48 Q87.312 -51.417 84.5 -51.417 Z"/></g><g id="Semibold-M" transform="matrix(1 0 0 1 1985.97 1126)"><path d="M106.492 -47.599 Q104.06 -47.599 102.296 -49.363 Q100.533 -51.126 100.533 -53.559 Q100.533 -55.991 102.296 -57.754 Q104.06 -59.518 106.492 -59.518 H111.492 Q113.924 -59.518 115.688 -57.754 Q117.451 -55.991 117.451 -53.559 Q117.451 -51.126 115.688 -49.363 Q113.924 -47.599 111.492 -47.599 H106.492 Z M76.932 -77.159 Q74.5 -77.159 72.736 -78.923 Q70.973 -80.686 70.973 -83.119 V-88.119 Q70.973 -90.551 72.736 -92.314 Q74.5 -94.078 76.932 -94.078 Q79.364 -94.078 81.128 -92.314 Q82.891 -90.551 82.891 -88.119 V-83.119 Q82.891 -80.686 81.128 -78.923 Q79.364 -77.159 76.932 -77.159 Z M94.693 -71.32 Q92.894 -73.119 92.894 -75.519 Q92.894 -77.92 94.693 -79.719 L98.247 -83.273 Q99.984 -85.01 102.416 -85.041 Q104.848 -85.072 106.647 -83.273 Q108.446 -81.475 108.446 -79.074 Q108.446 -76.673 106.647 -74.874 L103.03 -71.257 Q101.294 -69.521 98.893 -69.521 Q96.492 -69.521 94.693 -71.32 Z M84.663 -54.189 Q83.826 -54.189 83.056 -54.416 Q82.285 -54.643 81.582 -55.026 L76.397 -57.974 Q74.946 -58.825 73.355 -58.337 Q71.764 -57.849 70.913 -56.398 L70.679 -55.915 L73.44 -54.273 Q76.788 -52.271 77.852 -48.54 Q78.916 -44.809 76.984 -41.39 L74.41 -36.906 Q77.144 -32.336 78.577 -27.273 Q80.011 -22.211 80.011 -16.836 Q80.011 -0.912 68.814 10.25 Q57.617 21.412 41.693 21.412 Q25.698 21.412 14.537 10.191 Q3.375 -1.029 3.375 -17.086 Q3.375 -33.01 14.678 -44.117 Q25.981 -55.224 42.038 -55.224 Q42.201 -55.224 42.329 -55.224 Q42.456 -55.224 42.619 -55.224 L45.13 -59.716 Q47.133 -63.127 50.899 -64.124 Q54.666 -65.121 58.076 -63.127 L60.364 -61.874 L60.598 -62.358 Q63.826 -68.165 70.254 -69.833 Q76.682 -71.502 82.356 -68.29 L87.416 -65.341 Q88.832 -64.504 89.696 -63.195 Q90.56 -61.885 90.56 -60.148 Q90.56 -57.716 88.828 -55.953 Q87.095 -54.189 84.663 -54.189 Z"/></g><g id="Medium-M" transform="matrix(1 0 0 1 1689.91 1126)"><path d="M105.595 -50.127 Q103.448 -50.127 101.909 -51.666 Q100.37 -53.205 100.37 -55.352 Q100.37 -57.499 101.909 -59.038 Q103.448 -60.578 105.595 -60.578 H110.595 Q112.742 -60.578 114.281 -59.038 Q115.821 -57.499 115.821 -55.352 Q115.821 -53.205 114.281 -51.666 Q112.742 -50.127 110.595 -50.127 H105.595 Z M77.584 -78.138 Q75.438 -78.138 73.898 -79.677 Q72.359 -81.216 72.359 -83.363 V-88.363 Q72.359 -90.51 73.898 -92.049 Q75.438 -93.589 77.584 -93.589 Q79.731 -93.589 81.27 -92.049 Q82.81 -90.51 82.81 -88.363 V-83.363 Q82.81 -81.216 81.27 -79.677 Q79.731 -78.138 77.584 -78.138 Z M94.041 -71.809 Q92.486 -73.363 92.486 -75.479 Q92.486 -77.594 94.041 -79.148 L97.636 -82.744 Q99.128 -84.235 101.275 -84.267 Q103.421 -84.298 104.976 -82.744 Q106.53 -81.189 106.53 -79.074 Q106.53 -76.958 104.976 -75.404 L101.318 -71.746 Q99.826 -70.254 97.711 -70.254 Q95.595 -70.254 94.041 -71.809 Z M84.785 -56.268 Q84.071 -56.268 83.402 -56.454 Q82.734 -56.64 82.111 -56.983 L77.538 -59.564 Q75.842 -60.537 73.925 -59.988 Q72.008 -59.439 71.035 -57.744 L70.72 -57.178 L74.989 -54.681 Q77.848 -53.004 78.749 -49.803 Q79.65 -46.602 78.003 -43.714 L74.859 -38.211 Q77.674 -33.681 79.128 -28.619 Q80.582 -23.556 80.582 -18.181 Q80.582 -2.502 69.588 8.477 Q58.595 19.455 42.916 19.455 Q27.206 19.455 16.228 8.398 Q5.25 -2.659 5.25 -18.431 Q5.25 -34.11 16.288 -44.994 Q27.326 -55.877 43.098 -55.877 Q43.383 -55.877 43.654 -55.877 Q43.924 -55.877 44.209 -55.877 L47.291 -61.347 Q48.967 -64.268 52.183 -65.123 Q55.4 -65.977 58.321 -64.268 L61.669 -62.404 L61.984 -62.969 Q65.008 -68.491 71.171 -70.098 Q77.334 -71.705 82.764 -68.616 L87.212 -66.034 Q88.424 -65.32 89.186 -64.152 Q89.948 -62.985 89.948 -61.494 Q89.948 -59.347 88.44 -57.807 Q86.932 -56.268 84.785 -56.268 Z"/></g><g id="Regular-M" transform="matrix(1 0 0 1 1394.06 1126)"><path d="M104.938 -51.98 Q103 -51.98 101.625 -53.355 Q100.25 -54.73 100.25 -56.667 Q100.25 -58.605 101.625 -59.98 Q103 -61.355 104.938 -61.355 H109.938 Q111.875 -61.355 113.25 -59.98 Q114.625 -58.605 114.625 -56.667 Q114.625 -54.73 113.25 -53.355 Q111.875 -51.98 109.938 -51.98 H104.938 Z M78.062 -78.855 Q76.125 -78.855 74.75 -80.23 Q73.375 -81.605 73.375 -83.542 V-88.542 Q73.375 -90.48 74.75 -91.855 Q76.125 -93.23 78.062 -93.23 Q80 -93.23 81.375 -91.855 Q82.75 -90.48 82.75 -88.542 V-83.542 Q82.75 -81.605 81.375 -80.23 Q80 -78.855 78.062 -78.855 Z M93.562 -72.167 Q92.188 -73.542 92.188 -75.449 Q92.188 -77.355 93.562 -78.73 L97.188 -82.355 Q98.5 -83.667 100.438 -83.699 Q102.375 -83.73 103.75 -82.355 Q105.125 -80.98 105.125 -79.074 Q105.125 -77.167 103.75 -75.792 L100.062 -72.105 Q98.75 -70.792 96.844 -70.792 Q94.938 -70.792 93.562 -72.167 Z M84.875 -57.792 Q84.25 -57.792 83.656 -57.949 Q83.062 -58.105 82.5 -58.417 L78.375 -60.73 Q76.5 -61.792 74.344 -61.199 Q72.188 -60.605 71.125 -58.73 L70.75 -58.105 L76.125 -54.98 Q78.625 -53.542 79.406 -50.73 Q80.188 -47.917 78.75 -45.417 L75.188 -39.167 Q78.062 -34.667 79.531 -29.605 Q81 -24.542 81 -19.167 Q81 -3.667 70.156 7.176 Q59.312 18.02 43.812 18.02 Q28.312 18.02 17.469 7.083 Q6.625 -3.855 6.625 -19.417 Q6.625 -34.917 17.469 -45.636 Q28.312 -56.355 43.875 -56.355 Q44.25 -56.355 44.625 -56.355 Q45 -56.355 45.375 -56.355 L48.875 -62.542 Q50.312 -65.105 53.125 -65.855 Q55.938 -66.605 58.5 -65.105 L62.625 -62.792 L63 -63.417 Q65.875 -68.73 71.844 -70.292 Q77.812 -71.855 83.062 -68.855 L87.062 -66.542 Q88.125 -65.917 88.812 -64.855 Q89.5 -63.792 89.5 -62.48 Q89.5 -60.542 88.156 -59.167 Q86.812 -57.792 84.875 -57.792 Z"/></g><g id="Light-M" transform="matrix(1 0 0 1 1098.18 1126)"><path d="M101.211 -52.124 Q99.757 -52.124 98.729 -53.152 Q97.702 -54.18 97.702 -55.635 Q97.702 -57.066 98.729 -58.093 Q99.757 -59.119 101.211 -59.119 H106.211 Q107.641 -59.119 108.669 -58.091 Q109.697 -57.063 109.697 -55.632 Q109.697 -54.177 108.669 -53.151 Q107.641 -52.124 106.211 -52.124 H101.211 Z M77.003 -76.908 Q75.548 -76.908 74.522 -77.935 Q73.495 -78.963 73.495 -80.417 V-85.417 Q73.495 -86.847 74.523 -87.875 Q75.551 -88.903 77.006 -88.903 Q78.437 -88.903 79.464 -87.875 Q80.49 -86.847 80.49 -85.417 V-80.417 Q80.49 -78.963 79.462 -77.935 Q78.434 -76.908 77.003 -76.908 Z M93.106 -71.35 Q92.067 -72.364 92.067 -73.754 Q92.067 -75.143 93.106 -76.158 L96.731 -79.831 Q97.707 -80.807 99.163 -80.85 Q100.62 -80.893 101.635 -79.855 Q102.649 -78.816 102.625 -77.379 Q102.601 -75.941 101.586 -74.927 L97.923 -71.239 Q96.923 -70.264 95.522 -70.288 Q94.12 -70.312 93.106 -71.35 Z M83.446 -57.792 Q82.976 -57.792 82.529 -57.906 Q82.082 -58.019 81.678 -58.264 L78.615 -59.985 Q76.284 -61.312 73.647 -60.61 Q71.01 -59.908 69.707 -57.576 L69.332 -56.879 L73.913 -54.235 Q76.221 -52.917 76.93 -50.357 Q77.639 -47.797 76.322 -45.49 L72.952 -39.576 Q75.827 -34.98 77.5 -29.905 Q79.173 -24.831 79.173 -19.384 Q79.173 -4.966 69.038 5.061 Q58.902 15.087 44.449 15.087 Q29.947 15.087 19.789 4.886 Q9.63 -5.314 9.63 -19.826 Q9.63 -34.389 19.945 -44.398 Q30.26 -54.408 44.909 -54.408 Q45.524 -54.408 46.151 -54.384 Q46.779 -54.36 47.394 -54.312 L50.678 -60.162 Q51.971 -62.509 54.543 -63.174 Q57.115 -63.84 59.462 -62.509 L63.274 -60.388 L63.697 -61.086 Q66.428 -65.965 71.856 -67.396 Q77.284 -68.826 82.125 -66.042 L85.109 -64.301 Q85.889 -63.826 86.397 -63.029 Q86.904 -62.231 86.904 -61.268 Q86.904 -59.821 85.904 -58.807 Q84.905 -57.792 83.446 -57.792 Z"/></g><g id="Thin-M" transform="matrix(1 0 0 1 802.565 1126)"><path d="M97.486 -52.268 Q96.514 -52.268 95.834 -52.95 Q95.154 -53.631 95.154 -54.604 Q95.154 -55.528 95.834 -56.206 Q96.514 -56.884 97.486 -56.884 H102.486 Q103.409 -56.884 104.089 -56.203 Q104.769 -55.521 104.769 -54.597 Q104.769 -53.624 104.089 -52.946 Q103.409 -52.268 102.486 -52.268 H97.486 Z M75.944 -74.961 Q74.971 -74.961 74.293 -75.641 Q73.615 -76.321 73.615 -77.292 V-82.292 Q73.615 -83.216 74.297 -83.896 Q74.978 -84.576 75.951 -84.576 Q76.875 -84.576 77.553 -83.896 Q78.231 -83.216 78.231 -82.292 V-77.292 Q78.231 -76.321 77.549 -75.641 Q76.868 -74.961 75.944 -74.961 Z M92.649 -70.533 Q91.947 -71.187 91.947 -72.059 Q91.947 -72.932 92.649 -73.586 L96.274 -77.307 Q96.913 -77.946 97.889 -78.002 Q98.865 -78.057 99.519 -77.355 Q100.173 -76.653 100.125 -75.684 Q100.077 -74.716 99.423 -74.062 L95.784 -70.374 Q95.096 -69.735 94.2 -69.783 Q93.303 -69.831 92.649 -70.533 Z M82.017 -57.792 Q81.702 -57.792 81.401 -57.863 Q81.101 -57.934 80.856 -58.11 L78.856 -59.24 Q76.067 -60.831 72.95 -60.021 Q69.832 -59.211 68.288 -56.422 L67.913 -55.653 L71.702 -53.49 Q73.817 -52.292 74.454 -49.985 Q75.091 -47.677 73.894 -45.562 L70.716 -39.985 Q73.591 -35.292 75.469 -30.206 Q77.346 -25.119 77.346 -19.6 Q77.346 -6.264 67.919 2.946 Q58.492 12.155 45.085 12.155 Q31.582 12.155 22.108 2.691 Q12.635 -6.773 12.635 -20.235 Q12.635 -33.86 22.421 -43.16 Q32.207 -52.461 45.942 -52.461 Q46.798 -52.461 47.678 -52.413 Q48.558 -52.365 49.413 -52.268 L52.481 -57.783 Q53.63 -59.913 55.962 -60.494 Q58.293 -61.076 60.423 -59.913 L63.923 -57.985 L64.394 -58.754 Q66.981 -63.201 71.868 -64.499 Q76.755 -65.797 81.188 -63.23 L83.155 -62.059 Q83.654 -61.735 83.981 -61.203 Q84.308 -60.671 84.308 -60.056 Q84.308 -59.1 83.653 -58.446 Q82.997 -57.792 82.017 -57.792 Z"/></g><g id="Ultralight-M" transform="matrix(1 0 0 1 506.415 1126)"><path d="M95.25 -52.355 Q94.569 -52.355 94.097 -52.828 Q93.625 -53.301 93.625 -53.984 Q93.625 -54.605 94.097 -55.074 Q94.569 -55.542 95.25 -55.542 H100.25 Q100.869 -55.542 101.341 -55.069 Q101.812 -54.596 101.812 -53.976 Q101.812 -53.292 101.341 -52.824 Q100.869 -52.355 100.25 -52.355 H95.25 Z M75.308 -73.792 Q74.625 -73.792 74.156 -74.264 Q73.688 -74.736 73.688 -75.417 V-80.417 Q73.688 -81.036 74.161 -81.508 Q74.634 -81.98 75.317 -81.98 Q75.938 -81.98 76.406 -81.508 Q76.875 -81.036 76.875 -80.417 V-75.417 Q76.875 -74.736 76.402 -74.264 Q75.929 -73.792 75.308 -73.792 Z M92.375 -70.042 Q91.875 -70.48 91.875 -71.042 Q91.875 -71.605 92.375 -72.042 L96 -75.792 Q96.438 -76.23 97.125 -76.292 Q97.812 -76.355 98.25 -75.855 Q98.688 -75.355 98.625 -74.667 Q98.562 -73.98 98.125 -73.542 L94.5 -69.855 Q94 -69.417 93.406 -69.48 Q92.812 -69.542 92.375 -70.042 Z M81.16 -57.792 Q80.938 -57.792 80.725 -57.837 Q80.513 -57.882 80.362 -58.017 L79 -58.792 Q75.938 -60.542 72.531 -59.667 Q69.125 -58.792 67.438 -55.73 L67.062 -54.917 L70.375 -53.042 Q72.375 -51.917 72.969 -49.761 Q73.562 -47.605 72.438 -45.605 L69.375 -40.23 Q72.25 -35.48 74.25 -30.386 Q76.25 -25.292 76.25 -19.73 Q76.25 -7.042 67.248 1.676 Q58.246 10.395 45.467 10.395 Q32.562 10.395 23.5 1.373 Q14.438 -7.649 14.438 -20.48 Q14.438 -33.542 23.906 -42.417 Q33.375 -51.292 46.562 -51.292 Q47.562 -51.292 48.594 -51.23 Q49.625 -51.167 50.625 -51.042 L53.562 -56.355 Q54.625 -58.355 56.812 -58.886 Q59 -59.417 61 -58.355 L64.312 -56.542 L64.812 -57.355 Q67.312 -61.542 71.875 -62.761 Q76.438 -63.98 80.625 -61.542 L81.983 -60.714 Q82.312 -60.48 82.531 -60.107 Q82.75 -59.734 82.75 -59.328 Q82.75 -58.667 82.301 -58.23 Q81.853 -57.792 81.16 -57.792 Z"/></g><g id="Bold-S" transform="matrix(1 0 0 1 2294.23 696)"><path d="M61.295 -61.957 Q60.25 -61.957 59.417 -63.93 Q58.583 -65.902 58.583 -74.138 Q58.583 -75.183 59.417 -76.016 Q60.25 -76.85 61.295 -76.85 Q64.353 -76.85 66.547 -74.655 Q68.742 -72.461 68.742 -69.404 Q68.742 -66.346 66.547 -64.152 Q64.353 -61.957 61.295 -61.957 Z M76.286 -44.895 Q75.241 -44.895 74.408 -45.729 Q73.574 -46.562 73.574 -47.607 Q73.574 -50.665 75.769 -52.859 Q77.963 -55.054 81.02 -55.054 Q84.078 -55.054 86.272 -52.859 Q88.467 -50.665 88.467 -47.607 Q88.467 -46.562 86.494 -45.729 Q84.522 -44.895 76.286 -44.895 Z M76.089 -61.119 Q74.413 -62.796 74.363 -64.744 Q74.314 -66.691 75.991 -68.368 L79.344 -71.623 Q80.971 -73.25 82.894 -73.225 Q84.818 -73.201 86.494 -71.524 Q88.171 -69.847 88.171 -67.949 Q88.171 -66.05 86.494 -64.374 L83.19 -61.07 Q81.563 -59.442 79.664 -59.442 Q77.766 -59.442 76.089 -61.119 Z M66.035 -46.72 Q65.29 -46.72 64.624 -46.991 Q63.958 -47.262 63.416 -47.509 L58.682 -50.221 Q57.597 -50.862 56.586 -50.542 Q55.575 -50.221 54.934 -49.136 L55.131 -49.333 L55.822 -48.84 Q58.583 -47.114 59.545 -44.057 Q60.506 -41 58.781 -38.139 L56.068 -33.603 Q58.139 -30.052 59.2 -26.122 Q60.26 -22.192 60.26 -18.02 Q60.26 -5.733 51.556 2.893 Q42.853 11.518 30.524 11.518 Q18.098 11.518 9.443 2.882 Q0.789 -5.753 0.789 -18.174 Q0.789 -30.447 9.69 -39.15 Q18.591 -47.854 30.968 -47.854 Q31.067 -47.854 31.067 -47.903 Q31.067 -47.953 31.215 -47.953 L33.927 -52.637 Q35.554 -55.349 38.661 -56.138 Q41.768 -56.927 44.48 -55.349 L46.354 -54.413 L46.058 -54.117 Q48.918 -58.999 54.022 -60.281 Q59.126 -61.563 63.761 -58.999 L68.396 -56.188 Q69.629 -55.399 70.369 -54.413 Q71.109 -53.426 71.109 -51.799 Q71.109 -49.748 69.607 -48.234 Q68.105 -46.72 66.035 -46.72 Z"/></g><g id="Semibold-S" transform="matrix(1 0 0 1 1998.1 696)"><path d="M60.352 -64.616 Q59.607 -64.616 59.009 -66.352 Q58.412 -68.089 58.412 -76.024 Q58.412 -76.769 59.009 -77.367 Q59.607 -77.965 60.352 -77.965 Q63.109 -77.965 65.068 -76.006 Q67.027 -74.047 67.027 -71.29 Q67.027 -68.533 65.068 -66.574 Q63.109 -64.616 60.352 -64.616 Z M76.972 -45.924 Q76.227 -45.924 75.63 -46.522 Q75.032 -47.119 75.032 -47.865 Q75.032 -50.622 76.991 -52.581 Q78.949 -54.539 81.706 -54.539 Q84.464 -54.539 86.422 -52.581 Q88.381 -50.622 88.381 -47.865 Q88.381 -47.119 86.644 -46.522 Q84.908 -45.924 76.972 -45.924 Z M75.403 -61.634 Q73.984 -63.053 73.934 -64.701 Q73.885 -66.348 75.305 -67.768 L78.701 -71.065 Q80.071 -72.435 81.694 -72.411 Q83.317 -72.386 84.736 -70.967 Q86.156 -69.547 86.156 -67.949 Q86.156 -66.35 84.736 -64.931 L81.389 -61.584 Q80.019 -60.214 78.421 -60.214 Q76.822 -60.214 75.403 -61.634 Z M66.164 -48.907 Q65.547 -48.907 64.988 -49.135 Q64.43 -49.363 63.973 -49.567 L59.882 -51.893 Q58.54 -52.663 57.186 -52.278 Q55.833 -51.893 55.063 -50.551 L55.174 -50.663 L57.451 -49.269 Q59.698 -47.886 60.488 -45.386 Q61.278 -42.886 59.852 -40.583 L56.54 -34.975 Q58.697 -31.467 59.778 -27.537 Q60.86 -23.607 60.86 -19.435 Q60.86 -7.405 52.371 1.028 Q43.882 9.46 31.811 9.46 Q19.684 9.46 11.223 0.996 Q2.761 -7.468 2.761 -19.589 Q2.761 -31.604 11.384 -40.072 Q20.006 -48.54 32.083 -48.54 Q32.31 -48.54 32.46 -48.589 Q32.61 -48.639 32.887 -48.639 L36.2 -54.352 Q37.484 -56.55 40.012 -57.189 Q42.54 -57.828 44.737 -56.55 L47.726 -54.97 L47.516 -54.76 Q50.161 -59.342 54.987 -60.559 Q59.812 -61.777 64.19 -59.342 L68.182 -56.917 Q69.2 -56.256 69.833 -55.42 Q70.465 -54.584 70.465 -53.214 Q70.465 -51.463 69.199 -50.185 Q67.933 -48.907 66.164 -48.907 Z"/></g><g id="Medium-S" transform="matrix(1 0 0 1 1701.85 696)"><path d="M59.645 -66.61 Q59.124 -66.61 58.704 -68.17 Q58.283 -69.729 58.283 -77.439 Q58.283 -77.959 58.704 -78.38 Q59.124 -78.801 59.645 -78.801 Q62.177 -78.801 63.958 -77.019 Q65.74 -75.237 65.74 -72.705 Q65.74 -70.173 63.958 -68.392 Q62.177 -66.61 59.645 -66.61 Z M77.487 -46.696 Q76.967 -46.696 76.546 -47.117 Q76.126 -47.538 76.126 -48.058 Q76.126 -50.59 77.907 -52.371 Q79.689 -54.153 82.221 -54.153 Q84.753 -54.153 86.535 -52.371 Q88.317 -50.59 88.317 -48.058 Q88.317 -47.538 86.757 -47.117 Q85.197 -46.696 77.487 -46.696 Z M74.889 -62.02 Q73.662 -63.246 73.613 -64.668 Q73.563 -66.091 74.79 -67.317 L78.218 -70.647 Q79.395 -71.824 80.793 -71.8 Q82.191 -71.775 83.418 -70.549 Q84.644 -69.322 84.644 -67.949 Q84.644 -66.576 83.418 -65.349 L80.039 -61.97 Q78.861 -60.793 77.488 -60.793 Q76.115 -60.793 74.889 -62.02 Z M66.26 -50.547 Q65.74 -50.547 65.262 -50.743 Q64.784 -50.939 64.391 -51.111 L60.783 -53.148 Q59.248 -54.014 57.637 -53.581 Q56.025 -53.148 55.159 -51.613 L55.206 -51.66 L58.673 -49.591 Q60.534 -48.465 61.196 -46.383 Q61.857 -44.301 60.657 -42.417 L56.894 -36.004 Q59.115 -32.529 60.213 -28.599 Q61.31 -24.669 61.31 -20.496 Q61.31 -8.659 52.982 -0.372 Q44.654 7.916 32.776 7.916 Q20.874 7.916 12.558 -0.419 Q4.241 -8.755 4.241 -20.65 Q4.241 -32.473 12.654 -40.764 Q21.067 -49.055 32.919 -49.055 Q33.243 -49.055 33.506 -49.104 Q33.768 -49.153 34.141 -49.153 L37.904 -55.639 Q38.931 -57.451 41.025 -57.977 Q43.118 -58.503 44.93 -57.451 L48.755 -55.388 L48.609 -55.242 Q51.094 -59.599 55.71 -60.769 Q60.326 -61.938 64.512 -59.599 L68.021 -57.464 Q68.879 -56.9 69.431 -56.176 Q69.983 -55.452 69.983 -54.275 Q69.983 -52.749 68.894 -51.648 Q67.805 -50.547 66.26 -50.547 Z"/></g><g id="Regular-S" transform="matrix(1 0 0 1 1405.73 696)"><path d="M59.126 -68.072 Q58.771 -68.072 58.48 -69.502 Q58.189 -70.932 58.189 -78.477 Q58.189 -78.832 58.48 -79.123 Q58.771 -79.414 59.126 -79.414 Q61.493 -79.414 63.145 -77.762 Q64.797 -76.11 64.797 -73.743 Q64.797 -71.376 63.145 -69.724 Q61.493 -68.072 59.126 -68.072 Z M77.864 -47.262 Q77.509 -47.262 77.218 -47.553 Q76.928 -47.844 76.928 -48.199 Q76.928 -50.566 78.579 -52.218 Q80.231 -53.87 82.598 -53.87 Q84.965 -53.87 86.617 -52.218 Q88.269 -50.566 88.269 -48.199 Q88.269 -47.844 86.839 -47.553 Q85.409 -47.262 77.864 -47.262 Z M74.511 -62.303 Q73.426 -63.387 73.377 -64.645 Q73.328 -65.902 74.413 -66.987 L77.864 -70.34 Q78.9 -71.376 80.133 -71.351 Q81.366 -71.327 82.451 -70.242 Q83.535 -69.157 83.535 -67.949 Q83.535 -66.741 82.451 -65.656 L79.048 -62.253 Q78.012 -61.218 76.804 -61.218 Q75.596 -61.218 74.511 -62.303 Z M66.331 -51.75 Q65.882 -51.75 65.462 -51.922 Q65.043 -52.095 64.698 -52.243 L61.443 -54.067 Q59.767 -55.004 57.967 -54.536 Q56.167 -54.067 55.23 -52.391 L59.57 -49.826 Q61.148 -48.89 61.715 -47.114 Q62.282 -45.339 61.246 -43.761 L57.153 -36.759 Q59.422 -33.307 60.531 -29.377 Q61.641 -25.447 61.641 -21.275 Q61.641 -9.579 53.43 -1.397 Q45.22 6.784 33.483 6.784 Q21.747 6.784 13.536 -1.457 Q5.326 -9.698 5.326 -21.429 Q5.326 -33.11 13.586 -41.271 Q21.845 -49.432 33.532 -49.432 Q33.927 -49.432 34.272 -49.481 Q34.617 -49.531 35.061 -49.531 L39.154 -56.582 Q39.992 -58.111 41.768 -58.555 Q43.543 -58.999 45.072 -58.111 L49.51 -55.695 L49.411 -55.596 Q51.778 -59.788 56.241 -60.922 Q60.704 -62.056 64.747 -59.788 L67.903 -57.864 Q68.643 -57.371 69.136 -56.73 Q69.629 -56.089 69.629 -55.054 Q69.629 -53.693 68.67 -52.721 Q67.71 -51.75 66.331 -51.75 Z"/></g><g id="Light-S" transform="matrix(1 0 0 1 1109.75 696)"><path d="M56.186 -68.186 Q56.212 -68.186 56.195 -69.342 Q56.178 -70.499 56.178 -77.663 Q56.178 -77.618 56.195 -77.634 Q56.212 -77.65 56.186 -77.65 Q58.152 -77.65 59.53 -76.272 Q60.908 -74.893 60.908 -72.926 Q60.908 -70.94 59.53 -69.563 Q58.152 -68.186 56.186 -68.186 Z M77.028 -45.726 Q77.054 -45.726 77.038 -45.743 Q77.022 -45.76 77.022 -45.733 Q77.022 -47.7 78.401 -49.078 Q79.779 -50.456 81.765 -50.456 Q83.733 -50.456 85.109 -49.078 Q86.486 -47.7 86.486 -45.733 Q86.486 -45.76 85.33 -45.743 Q84.174 -45.726 77.028 -45.726 Z M74.151 -61.658 Q73.331 -62.458 73.282 -63.308 Q73.233 -64.157 74.052 -64.958 L77.504 -68.349 Q78.274 -69.119 79.128 -69.104 Q79.981 -69.089 80.781 -68.269 Q81.582 -67.45 81.563 -66.612 Q81.544 -65.773 80.743 -64.973 L77.36 -61.57 Q76.571 -60.8 75.761 -60.819 Q74.951 -60.838 74.151 -61.658 Z M65.203 -51.75 Q64.876 -51.75 64.573 -51.889 Q64.269 -52.027 64.049 -52.121 L61.633 -53.479 Q59.596 -54.625 57.417 -54.071 Q55.237 -53.517 54.111 -51.48 V-51.423 L57.824 -49.238 Q59.251 -48.396 59.761 -46.82 Q60.271 -45.244 59.33 -43.818 L55.389 -37.081 Q57.658 -33.553 58.928 -29.614 Q60.199 -25.675 60.199 -21.445 Q60.199 -10.604 52.547 -3.067 Q44.896 4.47 33.985 4.47 Q23.037 4.47 15.367 -3.19 Q7.697 -10.85 7.697 -21.751 Q7.697 -32.692 15.539 -40.294 Q23.382 -47.896 34.348 -47.896 Q34.932 -47.896 35.477 -47.926 Q36.021 -47.956 36.654 -47.918 L40.577 -54.704 Q41.301 -56.062 42.887 -56.44 Q44.472 -56.817 45.83 -56.062 L50.022 -53.798 L49.961 -53.756 Q52.214 -57.606 56.25 -58.636 Q60.286 -59.666 64.008 -57.568 L66.362 -56.096 Q66.879 -55.721 67.23 -55.289 Q67.581 -54.857 67.581 -54.097 Q67.581 -53.124 66.893 -52.437 Q66.205 -51.75 65.203 -51.75 Z"/></g><g id="Thin-S" transform="matrix(1 0 0 1 814.015 696)"><path d="M53.246 -68.3 Q53.654 -68.3 53.911 -69.182 Q54.168 -70.065 54.168 -76.849 Q54.168 -76.404 53.911 -76.145 Q53.654 -75.886 53.246 -75.886 Q54.813 -75.886 55.917 -74.782 Q57.02 -73.677 57.02 -72.109 Q57.02 -70.504 55.917 -69.402 Q54.813 -68.3 53.246 -68.3 Z M76.193 -44.19 Q76.599 -44.19 76.858 -43.933 Q77.117 -43.675 77.117 -43.268 Q77.117 -44.835 78.222 -45.938 Q79.326 -47.042 80.932 -47.042 Q82.5 -47.042 83.602 -45.938 Q84.704 -44.835 84.704 -43.268 Q84.704 -43.675 83.821 -43.933 Q82.938 -44.19 76.193 -44.19 Z M73.79 -61.013 Q73.237 -61.529 73.187 -61.971 Q73.138 -62.413 73.692 -62.928 L77.144 -66.358 Q77.648 -66.862 78.122 -66.856 Q78.597 -66.851 79.112 -66.297 Q79.628 -65.743 79.59 -65.275 Q79.553 -64.806 79.037 -64.29 L75.672 -60.888 Q75.129 -60.383 74.718 -60.421 Q74.306 -60.459 73.79 -61.013 Z M64.076 -51.75 Q63.871 -51.75 63.683 -51.855 Q63.496 -51.96 63.401 -52 L61.823 -52.891 Q59.425 -54.246 56.867 -53.607 Q54.308 -52.967 52.992 -50.57 V-50.456 L56.08 -48.651 Q57.354 -47.903 57.808 -46.526 Q58.261 -45.149 57.415 -43.875 L53.625 -37.403 Q55.894 -33.8 57.326 -29.851 Q58.758 -25.902 58.758 -21.616 Q58.758 -11.628 51.665 -4.736 Q44.572 2.156 34.487 2.156 Q24.326 2.156 17.197 -4.922 Q10.067 -12.001 10.067 -22.073 Q10.067 -32.275 17.493 -39.317 Q24.918 -46.359 35.164 -46.359 Q35.937 -46.359 36.681 -46.371 Q37.424 -46.382 38.247 -46.306 L41.999 -52.827 Q42.61 -54.014 44.006 -54.325 Q45.402 -54.636 46.589 -54.014 L50.534 -51.901 L50.511 -51.917 Q52.651 -55.425 56.26 -56.351 Q59.869 -57.277 63.268 -55.349 L64.82 -54.327 Q65.115 -54.071 65.324 -53.849 Q65.533 -53.626 65.533 -53.141 Q65.533 -52.555 65.116 -52.152 Q64.7 -51.75 64.076 -51.75 Z"/></g><g id="Ultralight-S" transform="matrix(1 0 0 1 517.792 696)"><path d="M51.482 -68.368 Q52.118 -68.368 52.54 -69.086 Q52.962 -69.805 52.962 -76.36 Q52.962 -75.676 52.54 -75.252 Q52.118 -74.828 51.482 -74.828 Q52.809 -74.828 53.748 -73.888 Q54.688 -72.947 54.688 -71.619 Q54.688 -70.242 53.748 -69.305 Q52.809 -68.368 51.482 -68.368 Z M75.691 -43.268 Q76.326 -43.268 76.75 -42.846 Q77.174 -42.425 77.174 -41.789 Q77.174 -43.115 78.114 -44.054 Q79.055 -44.994 80.432 -44.994 Q81.76 -44.994 82.697 -44.054 Q83.634 -43.115 83.634 -41.789 Q83.634 -42.425 82.916 -42.846 Q82.197 -43.268 75.691 -43.268 Z M73.574 -60.626 Q73.18 -60.971 73.13 -61.168 Q73.081 -61.366 73.476 -61.711 L76.928 -65.163 Q77.273 -65.508 77.519 -65.508 Q77.766 -65.508 78.111 -65.113 Q78.456 -64.719 78.407 -64.472 Q78.358 -64.226 78.012 -63.881 L74.659 -60.478 Q74.265 -60.133 74.092 -60.182 Q73.919 -60.231 73.574 -60.626 Z M63.399 -51.75 Q63.268 -51.75 63.15 -51.835 Q63.031 -51.919 63.012 -51.927 L61.937 -52.539 Q59.323 -54.018 56.537 -53.328 Q53.751 -52.637 52.321 -50.024 V-49.876 L55.033 -48.298 Q56.216 -47.607 56.635 -46.35 Q57.055 -45.092 56.266 -43.909 L52.567 -37.597 Q54.836 -33.948 56.364 -29.993 Q57.893 -26.039 57.893 -21.718 Q57.893 -12.242 51.136 -5.737 Q44.378 0.768 34.788 0.768 Q25.1 0.768 18.295 -5.962 Q11.49 -12.692 11.49 -22.267 Q11.49 -32.025 18.665 -38.731 Q25.84 -45.438 35.653 -45.438 Q36.541 -45.438 37.404 -45.438 Q38.267 -45.438 39.203 -45.339 L42.853 -51.7 Q43.395 -52.785 44.677 -53.056 Q45.959 -53.328 47.044 -52.785 L50.841 -50.763 V-50.813 Q52.912 -54.117 56.266 -54.98 Q59.619 -55.843 62.824 -54.018 L63.895 -53.266 Q64.057 -53.081 64.18 -52.984 Q64.303 -52.887 64.303 -52.567 Q64.303 -52.213 64.05 -51.981 Q63.797 -51.75 63.399 -51.75 Z"/></g></g></svg>