<svg xmlns="http://www.w3.org/2000/svg" version="1.1" width="3300" height="2000"><g id="Notes"><style>
    text {
      font-family: monospace;
      text-anchor: middle;
    }
    text.emphasis {
      font-weight:bold;
    }
    text.lanchor {
      text-anchor: start;
    }
  </style><rect height="2200" id="artboard" fill="white" width="3300" x="0" y="0"/><line id="" style="fill:none;stroke:black;stroke-width:0.5;" x1="263" x2="3036" y1="292" y2="292"/><text class="lanchor emphasis" transform="matrix(1 0 0 1 263 322)">Weight/Scale Variations</text><text transform="matrix(1 0 0 1 559.711 322)">Ultralight</text><text transform="matrix(1 0 0 1 856.422 322)">Thin</text><text transform="matrix(1 0 0 1 1153.13 322)">Light</text><text transform="matrix(1 0 0 1 1449.84 322)">Regular</text><text transform="matrix(1 0 0 1 1746.56 322)">Medium</text><text transform="matrix(1 0 0 1 2043.27 322)">Semibold</text><text transform="matrix(1 0 0 1 2339.98 322)">Bold</text><text transform="matrix(1 0 0 1 2636.69 322)">Heavy</text><text transform="matrix(1 0 0 1 2933.4 322)">Black</text><text id="template-version" style="text-anchor: end;" transform="matrix(1 0 0 1 3036 1933)">Template v.1.0</text><text class="lanchor" transform="matrix(1 0 0 1 263 726)">Small</text><text class="lanchor" transform="matrix(1 0 0 1 263 1156)">Medium</text><text class="lanchor" transform="matrix(1 0 0 1 263 1586)">Large</text></g><g id="Guides"><g id="H-reference" style="fill:#27AAE1;stroke:none;" transform="matrix(1 0 0 1 339 696)"><path d="M 54.9316 0 L 57.666 0 L 30.5664 -70.459 L 28.0762 -70.459 L 0.976562 0 L 3.66211 0 L 12.9395 -24.4629 L 45.7031 -24.4629 Z M 29.1992 -67.0898 L 29.4434 -67.0898 L 44.8242 -26.709 L 13.8184 -26.709 Z"/></g><line id="Baseline-S" style="fill:none;stroke:#27AAE1;opacity:1;stroke-width:0.577;" x1="263" x2="3036" y1="696" y2="696"/><line id="Capline-S" style="fill:none;stroke:#27AAE1;opacity:1;stroke-width:0.577;" x1="263" x2="3036" y1="625.541" y2="625.541"/><g id="H-reference" style="fill:#27AAE1;stroke:none;" transform="matrix(1 0 0 1 339 1126)"><path d="M 54.9316 0 L 57.666 0 L 30.5664 -70.459 L 28.0762 -70.459 L 0.976562 0 L 3.66211 0 L 12.9395 -24.4629 L 45.7031 -24.4629 Z M 29.1992 -67.0898 L 29.4434 -67.0898 L 44.8242 -26.709 L 13.8184 -26.709 Z"/></g><line id="Baseline-M" style="fill:none;stroke:#27AAE1;opacity:1;stroke-width:0.577;" x1="263" x2="3036" y1="1126" y2="1126"/><line id="Capline-M" style="fill:none;stroke:#27AAE1;opacity:1;stroke-width:0.577;" x1="263" x2="3036" y1="1055.54" y2="1055.54"/><g id="H-reference" style="fill:#27AAE1;stroke:none;" transform="matrix(1 0 0 1 339 1556)"><path d="M 54.9316 0 L 57.666 0 L 30.5664 -70.459 L 28.0762 -70.459 L 0.976562 0 L 3.66211 0 L 12.9395 -24.4629 L 45.7031 -24.4629 Z M 29.1992 -67.0898 L 29.4434 -67.0898 L 44.8242 -26.709 L 13.8184 -26.709 Z"/></g><line id="Baseline-L" style="fill:none;stroke:#27AAE1;opacity:1;stroke-width:0.577;" x1="263" x2="3036" y1="1556" y2="1556"/><line id="Capline-L" style="fill:none;stroke:#27AAE1;opacity:1;stroke-width:0.577;" x1="263" x2="3036" y1="1485.54" y2="1485.54"/><rect height="119.336" id="left-margin" style="fill:darkred;stroke:none;opacity:0.4;" width="12.4512" x="1394.06" y="1030.79"/><rect height="119.336" id="right-margin" style="fill:darkgreen;stroke:none;opacity:0.4;" width="12.4512" x="1502.5112" y="1030.79"/><rect x="1406.5112" y="1045" width="96" height="96" fill="none" stroke="blue" stroke-dasharray="5"/><rect x="1394.06" y="1030.79" width="120.9024" height="119.336" fill="none" stroke="blue"/></g><g id="Symbols"><g id="Bold-L" transform="matrix(1 0 0 1 2266 1556)"><path d="M94.17 -27.489999999999995 V19.917500000000018 H60.791250000000005 V-27.489999999999995 L11.932500000000001 -90.53875 H143.02875 L94.17 -27.489999999999995 Z M77.4 -30.3925  113.1975 -75.70375 H41.76375 L77.4 -30.3925 Z"/></g><g id="Semibold-L" transform="matrix(1 0 0 1 1970.27 1556)"><path d="M93.2025 -27.812499999999986 V19.272500000000008 H61.75875 V-27.812499999999986 L13.545000000000002 -89.73249999999999 H141.41625000000002 L93.2025 -27.812499999999986 Z M77.4 -29.747500000000002  114.16499999999999 -76.1875 H40.79625 L77.4 -29.747500000000002 Z"/></g><g id="Medium-L" transform="matrix(1 0 0 1 1674.31 1556)"><path d="M92.39625 -27.973749999999995 V18.627500000000026 H62.40375000000001 V-27.973749999999995 L14.67375 -89.24875 H140.2875 L92.39625 -27.973749999999995 Z M77.4 -29.263749999999987  114.81 -76.67124999999999 H39.99 L77.4 -29.263749999999987 Z"/></g><g id="Regular-L" transform="matrix(1 0 0 1 1378.56 1556)"><path d="M91.91250000000001 -28.13499999999999 V18.305000000000007 H62.8875 V-28.13499999999999 L15.64125 -88.76499999999999 H139.32000000000002 L91.91250000000001 -28.13499999999999 Z M77.4 -28.941249999999997  115.29375 -76.99374999999999 H39.50625 L77.4 -28.941249999999997 Z"/></g><g id="Light-L" transform="matrix(1 0 0 1 1082.77 1556)"><path d="M88.6875 -29.263749999999987 V15.080000000000013 H66.1125 V-29.263749999999987 L22.2525 -85.53999999999999 H132.87 L88.6875 -29.263749999999987 Z M77.4 -30.23124999999999  113.52000000000001 -76.1875 H41.28 L77.4 -30.23124999999999 Z"/></g><g id="Thin-L" transform="matrix(1 0 0 1 787.282 1556)"><path d="M85.4625 -30.3925 V11.855000000000018 H69.3375 V-30.3925 L28.86375 -82.315 H126.25874999999999 L85.4625 -30.3925 Z M77.4 -31.68249999999999  111.74625 -75.22 H43.05375 L77.4 -31.68249999999999 Z"/></g><g id="Ultralight-L" transform="matrix(1 0 0 1 491.205 1556)"><path d="M83.5275 -31.037499999999994 V9.920000000000002 H71.27250000000001 V-31.037499999999994 L32.73375 -80.38 H122.38875000000002 L83.5275 -31.037499999999994 Z M77.4 -32.48874999999998  110.61749999999999 -74.73624999999998 H44.1825 L77.4 -32.48874999999998 Z"/></g><g id="Bold-M" transform="matrix(1 0 0 1 2281.8 1126)"><path d="M75.25 -28.35499999999999 V10.14500000000001 H44.75 V-28.35499999999999 L4.375 -80.60499999999999 H115.625 L75.25 -28.35499999999999 Z M60.0 -36.72999999999999  81.0 -63.60499999999999 H39.0 L60.0 -36.72999999999999 Z"/></g><g id="Semibold-M" transform="matrix(1 0 0 1 1985.97 1126)"><path d="M74.0 -28.72999999999999 V9.14500000000001 H46.0 V-28.72999999999999 L6.5 -79.60499999999999 H113.5 L74.0 -28.72999999999999 Z M60.0 -35.97999999999999  82.125 -64.22999999999999 H37.875 L60.0 -35.97999999999999 Z"/></g><g id="Medium-M" transform="matrix(1 0 0 1 1689.91 1126)"><path d="M73.125 -28.97999999999999 V8.39500000000001 H46.875 V-28.97999999999999 L8.125 -78.85499999999999 H111.875 L73.125 -28.97999999999999 Z M60.0 -35.35499999999999  82.875 -64.60499999999999 H37.125 L60.0 -35.35499999999999 Z"/></g><g id="Regular-M" transform="matrix(1 0 0 1 1394.06 1126)"><path d="M72.5 -29.22999999999999 V7.77000000000001 H47.5 V-29.22999999999999 L9.375 -78.22999999999999 H110.625 L72.5 -29.22999999999999 Z M60.0 -34.97999999999999  83.5 -64.97999999999999 H36.5 L60.0 -34.97999999999999 Z"/></g><g id="Light-M" transform="matrix(1 0 0 1 1098.18 1126)"><path d="M70.0 -30.10499999999999 V5.27000000000001 H50.0 V-30.10499999999999 L14.5 -75.72999999999999 H105.625 L70.0 -30.10499999999999 Z M60.0 -34.97999999999999  83.5 -64.97999999999999 H36.5 L60.0 -34.97999999999999 Z"/></g><g id="Thin-M" transform="matrix(1 0 0 1 802.565 1126)"><path d="M67.5 -30.97999999999999 V2.7700000000000102 H52.5 V-30.97999999999999 L19.625 -73.22999999999999 H100.5 L67.5 -30.97999999999999 Z M60.0 -34.97999999999999  83.5 -64.97999999999999 H36.5 L60.0 -34.97999999999999 Z"/></g><g id="Ultralight-M" transform="matrix(1 0 0 1 506.415 1126)"><path d="M66.0 -31.47999999999999 V1.2700000000000102 H54.0 V-31.47999999999999 L22.625 -71.72999999999999 H97.5 L66.0 -31.47999999999999 Z M60.0 -34.97999999999999  83.5 -64.97999999999999 H36.5 L60.0 -34.97999999999999 Z"/></g><g id="Bold-S" transform="matrix(1 0 0 1 2294.23 696)"><path d="M59.373827999999996 -29.804835999999987 V0.5685080000000085 H35.306172000000004 V-29.804835999999987 L3.451086 -71.02850799999999 H91.228914 L59.373827999999996 -29.804835999999987 Z M47.34 -37.00525  63.118422 -57.22416399999999 H31.561578 L47.34 -37.00525 Z"/></g><g id="Semibold-S" transform="matrix(1 0 0 1 1998.1 696)"><path d="M58.384422 -30.10307799999999 V-0.21733599999998887 H36.295578 V-30.10307799999999 L5.1269219999999995 -70.24266399999999 H89.55307800000001 L58.384422 -30.10307799999999 Z M47.34 -36.41349999999999  64.008414 -57.716499999999996 H30.671586 L47.34 -36.41349999999999 Z"/></g><g id="Medium-S" transform="matrix(1 0 0 1 1701.85 696)"><path d="M57.697992 -30.297171999999996 V-0.8090859999999935 H36.982008 V-30.297171999999996 L6.409836 -69.650914 H88.27016400000001 L57.697992 -30.297171999999996 Z M47.34 -35.921164  64.600164 -58.010008 H30.079836 L47.34 -35.921164 Z"/></g><g id="Regular-S" transform="matrix(1 0 0 1 1405.73 696)"><path d="M57.200922 -30.495999999999995 V-1.301421999999988 H37.479078 V-30.495999999999995 L7.394508 -69.15857799999999 H87.28549199999999 L57.200922 -30.495999999999995 Z M47.34 -35.622921999999996  65.0925 -58.308249999999994 H29.5875 L47.34 -35.622921999999996 Z"/></g><g id="Light-S" transform="matrix(1 0 0 1 1109.75 696)"><path d="M55.231578 -31.187163999999996 V-3.275499999999994 H39.448422 V-31.187163999999996 L11.442077999999999 -67.18449999999999 H83.337336 L55.231578 -31.187163999999996 Z M47.34 -35.622921999999996  65.0925 -58.308249999999994 H29.5875 L47.34 -35.622921999999996 Z"/></g><g id="Thin-S" transform="matrix(1 0 0 1 814.015 696)"><path d="M53.2575 -31.87832799999999 V-5.249578 H41.4225 V-31.87832799999999 L15.484914 -65.210422 H79.2945 L53.2575 -31.87832799999999 Z M47.34 -35.622921999999996  65.0925 -58.308249999999994 H29.5875 L47.34 -35.622921999999996 Z"/></g><g id="Ultralight-S" transform="matrix(1 0 0 1 517.792 696)"><path d="M52.074 -32.271249999999995 V-6.433077999999995 H42.606 V-32.271249999999995 L17.851914 -64.026922 H76.9275 L52.074 -32.271249999999995 Z M47.34 -35.622921999999996  65.0925 -58.308249999999994 H29.5875 L47.34 -35.622921999999996 Z"/></g></g></svg>