<svg xmlns="http://www.w3.org/2000/svg" version="1.1" width="3300" height="2000"><g id="Notes"><style>
    text {
      font-family: monospace;
      text-anchor: middle;
    }
    text.emphasis {
      font-weight:bold;
    }
    text.lanchor {
      text-anchor: start;
    }
  </style><rect height="2200" id="artboard" fill="white" width="3300" x="0" y="0"/><line id="" style="fill:none;stroke:black;stroke-width:0.5;" x1="263" x2="3036" y1="292" y2="292"/><text class="lanchor emphasis" transform="matrix(1 0 0 1 263 322)">Weight/Scale Variations</text><text transform="matrix(1 0 0 1 559.711 322)">Ultralight</text><text transform="matrix(1 0 0 1 856.422 322)">Thin</text><text transform="matrix(1 0 0 1 1153.13 322)">Light</text><text transform="matrix(1 0 0 1 1449.84 322)">Regular</text><text transform="matrix(1 0 0 1 1746.56 322)">Medium</text><text transform="matrix(1 0 0 1 2043.27 322)">Semibold</text><text transform="matrix(1 0 0 1 2339.98 322)">Bold</text><text transform="matrix(1 0 0 1 2636.69 322)">Heavy</text><text transform="matrix(1 0 0 1 2933.4 322)">Black</text><text id="template-version" style="text-anchor: end;" transform="matrix(1 0 0 1 3036 1933)">Template v.1.0</text><text class="lanchor" transform="matrix(1 0 0 1 263 726)">Small</text><text class="lanchor" transform="matrix(1 0 0 1 263 1156)">Medium</text><text class="lanchor" transform="matrix(1 0 0 1 263 1586)">Large</text></g><g id="Guides"><g id="H-reference" style="fill:#27AAE1;stroke:none;" transform="matrix(1 0 0 1 339 696)"><path d="M 54.9316 0 L 57.666 0 L 30.5664 -70.459 L 28.0762 -70.459 L 0.976562 0 L 3.66211 0 L 12.9395 -24.4629 L 45.7031 -24.4629 Z M 29.1992 -67.0898 L 29.4434 -67.0898 L 44.8242 -26.709 L 13.8184 -26.709 Z"/></g><line id="Baseline-S" style="fill:none;stroke:#27AAE1;opacity:1;stroke-width:0.577;" x1="263" x2="3036" y1="696" y2="696"/><line id="Capline-S" style="fill:none;stroke:#27AAE1;opacity:1;stroke-width:0.577;" x1="263" x2="3036" y1="625.541" y2="625.541"/><g id="H-reference" style="fill:#27AAE1;stroke:none;" transform="matrix(1 0 0 1 339 1126)"><path d="M 54.9316 0 L 57.666 0 L 30.5664 -70.459 L 28.0762 -70.459 L 0.976562 0 L 3.66211 0 L 12.9395 -24.4629 L 45.7031 -24.4629 Z M 29.1992 -67.0898 L 29.4434 -67.0898 L 44.8242 -26.709 L 13.8184 -26.709 Z"/></g><line id="Baseline-M" style="fill:none;stroke:#27AAE1;opacity:1;stroke-width:0.577;" x1="263" x2="3036" y1="1126" y2="1126"/><line id="Capline-M" style="fill:none;stroke:#27AAE1;opacity:1;stroke-width:0.577;" x1="263" x2="3036" y1="1055.54" y2="1055.54"/><g id="H-reference" style="fill:#27AAE1;stroke:none;" transform="matrix(1 0 0 1 339 1556)"><path d="M 54.9316 0 L 57.666 0 L 30.5664 -70.459 L 28.0762 -70.459 L 0.976562 0 L 3.66211 0 L 12.9395 -24.4629 L 45.7031 -24.4629 Z M 29.1992 -67.0898 L 29.4434 -67.0898 L 44.8242 -26.709 L 13.8184 -26.709 Z"/></g><line id="Baseline-L" style="fill:none;stroke:#27AAE1;opacity:1;stroke-width:0.577;" x1="263" x2="3036" y1="1556" y2="1556"/><line id="Capline-L" style="fill:none;stroke:#27AAE1;opacity:1;stroke-width:0.577;" x1="263" x2="3036" y1="1485.54" y2="1485.54"/><rect height="119.336" id="left-margin" style="fill:darkred;stroke:none;opacity:0.4;" width="12.4512" x="1394.06" y="1030.79"/><rect height="119.336" id="right-margin" style="fill:darkgreen;stroke:none;opacity:0.4;" width="12.4512" x="1502.5112" y="1030.79"/><rect x="1406.5112" y="1045" width="96" height="96" fill="none" stroke="blue" stroke-dasharray="5"/><rect x="1394.06" y="1030.79" width="120.9024" height="119.336" fill="none" stroke="blue"/></g><g id="Symbols"><g id="Bold-L" transform="matrix(1 0 0 1 2266 1556)"><path d="M79.738125 -13.138749999999987 V-50.30687499999999 H99.16875 L94.573125 -54.90249999999999 H79.738125 V-83.36312499999998 Q79.738125 -86.42897124999999 81.83437500000001 -88.64502999999999 Q83.930625 -90.86124999999998 87.075 -90.86124999999998 H104.570625 Q106.50643125 -90.86124999999998 108.26244375 -89.77087749999998 Q110.01861749999999 -88.68050499999998 111.02062500000001 -87.15249999999997 L125.13000000000001 -61.67499999999998 H113.09542875 L105.376875 -75.62312499999999 H90.6225 V-71.02749999999999 H102.50936625 L110.0469975 -56.99874999999999 H127.54875 L141.41625 -32.64999999999999 Q136.4313675 -35.640058749999994 130.88549625 -37.16854749999999 Q125.339625 -38.69687499999999 119.244375 -38.69687499999999 Q106.344375 -38.69687499999999 95.7825 -31.64218749999999 Q85.220625 -24.58749999999999 79.738125 -13.138749999999987 Z M67.72500000000001 20.159375000000015 H50.471250000000005 Q48.450303749999996 20.159375000000015 46.679133750000005 19.191875000000014 Q44.908125 18.224375000000016 44.02125 16.450625000000016 L29.83125 -8.784999999999982 H41.994176249999995 L49.745625000000004 5.163125000000015 H64.258125 V0.48687500000001194 H52.532508750000005 L44.9142525 -13.461249999999986 H27.331875 L17.0925 -31.69023999999999 Q16.4475 -32.56937499999998 16.205625 -33.42174249999999 Q15.963750000000001 -34.27394874999999 15.963750000000001 -35.24273874999999 Q15.963750000000001 -36.00174249999999 17.0925 -39.01937499999998 L27.331875 -56.99874999999999 H44.7530025 L52.45188375000001 -71.02749999999999 H64.258125 V-75.62312499999999 H49.7285325 L41.844375 -61.67499999999998 H29.750625 L44.02125 -87.15249999999997 Q44.908125 -88.68437499999999 46.679133750000005 -89.77281249999999 Q48.450303749999996 -90.86124999999998 50.471250000000005 -90.86124999999998 H67.72500000000001 Q70.869375 -90.86124999999998 72.965625 -88.64502999999999 Q75.061875 -86.42897124999999 75.061875 -83.36312499999998 V-54.90249999999999 H60.307500000000005 L55.63125 -50.30687499999999 H75.061875 V-26.441874999999982 H57.808125000000004 L51.0527175 -40.30937499999999 H34.99125 L30.315 -35.63312499999999 H47.810625 L54.81645375 -21.846249999999984 H75.061875 V4.276250000000012 Q75.868125 4.592622500000012 76.27125000000001 4.39106000000001 Q76.674375 4.189497500000016 76.674375 4.034375000000011 Q76.674375 5.378071250000012 76.83562500000001 6.762241250000017 Q76.996875 8.146250000000016 76.996875 9.436250000000015 Q77.56125 14.031875000000014 74.6990625 17.095625000000016 Q71.836875 20.159375000000015 67.72500000000001 20.159375000000015 Z M119.325 23.384375000000016  138.755625 3.9537500000000136  133.99875 -0.4806249999999821  122.63062500000001 10.887500000000014 V-15.154374999999987 H116.11144875000001 V10.887500000000014 L104.538375 -0.4564374999999856 L100.13625 3.9537500000000136 L119.325 23.384375000000016 Z M119.2388925 33.94625000000001 Q107.07000000000001 33.94625000000001 98.120625 25.152642500000013 Q89.17125 16.359196250000014 89.17125 4.028892500000019 Q89.17125 -8.462499999999984 98.1261075 -17.331249999999983 Q107.08080375 -26.19999999999999 119.2498575 -26.19999999999999 Q131.58 -26.19999999999999 140.44875 -17.325767499999984 Q149.3175 -8.451696249999983 149.3175 4.039857500000011 Q149.3175 16.370000000000015 140.44326750000002 25.158125000000016 Q131.56919625 33.94625000000001 119.2388925 33.94625000000001 Z"/></g><g id="Semibold-L" transform="matrix(1 0 0 1 1970.27 1556)"><path d="M79.738125 -14.260404999999992 V-49.74604749999999 H98.74804875 L94.15242375 -54.3416725 H79.738125 V-82.8022975 Q79.738125 -85.3861675 81.4838175 -87.21232375 Q83.22951 -89.03847999999999 85.88320125000001 -89.03847999999999 H104.22006750000001 Q105.83805000000001 -89.03847999999999 107.29736249999999 -88.15853874999999 Q108.75667500000002 -87.27843624999997 109.61855625 -85.96070125 L123.51766125 -60.973884999999996 H111.73770375000001 L104.39534625 -74.43132625 H89.78125875 V-69.83570125 H101.54767125000001 L108.78779625 -56.297635 H125.93641125 L138.96267 -33.49124124999999 Q134.32818375 -36.06075999999999 129.16947375 -37.3788175 Q124.010925 -38.69687499999999 118.4732775 -38.69687499999999 Q105.92367374999999 -38.69687499999999 95.57223 -31.95759249999999 Q85.220625 -25.218471249999993 79.738125 -14.260404999999992 Z M68.91679875 18.406748750000016 H50.75166375 Q49.04854125000001 18.406748750000016 47.5742325 17.614527500000012 Q46.09992375 16.822306250000015 45.353175 15.328970000000016 L31.44358875 -9.486114999999991 H43.31029875 L50.65701 3.9713262500000184 H65.09936625 V-0.7049237499999919 H53.424060000000004 L46.17345375 -14.162364999999987 H28.94421375 L18.70483875 -32.25106749999999 Q18.20012625 -32.99007624999999 17.9932425 -33.71715249999998 Q17.78652 -34.44422874999999 17.78652 -35.252736249999984 Q17.78652 -35.771316249999984 18.70483875 -38.38840374999998 L28.94421375 -56.297635 H46.01220375 L53.34343500000001 -69.83570125 H65.09936625 V-74.43132625 H50.6121825 L43.1763 -60.973884999999996 H31.36296375 L45.353175 -85.96070125 Q46.09992375 -87.28230624999998 47.5742325 -88.16047375 Q49.04854125000001 -89.03847999999999 50.75166375 -89.03847999999999 H68.91679875 Q71.57049 -89.03847999999999 73.3161825 -87.21232375 Q75.061875 -85.3861675 75.061875 -82.8022975 V-54.3416725 H60.72820125 L56.05195125 -49.74604749999999 H75.061875 V-27.072846249999984 H58.439096250000006 L51.921532500000005 -40.51964499999998 H35.902635 L31.226385 -35.84339499999999 H48.72201 L55.45113375 -22.477221249999985 H75.061875 V1.6122387500000173 Q75.51756750000001 2.4894387500000192 75.7104225 2.9714150000000146 Q75.9032775 3.45339125000001 75.9032775 4.034375000000011 Q75.9032775 5.588502500000018 76.09951875 7.147790000000015 Q76.29576 8.707077500000018 76.36590375 10.207347500000015 Q76.649865 13.751461250000016 74.3836575 16.079105000000016 Q72.11728875 18.406748750000016 68.91679875 18.406748750000016 Z M118.55390249999999 22.893691250000014  137.35355625 4.094037500000013  133.2276525 0.15034625000001967  121.43882625 11.939011250000014 V-14.663691249999985 H115.69090874999999 V11.939011250000014 L103.7672775 0.17453375000001614 L99.85583625 4.094037500000013 L118.55390249999999 22.893691250000014 Z M118.467795 33.94625000000001 Q106.22875875000001 33.94625000000001 97.314375 25.152642500000013 Q88.40015249999999 16.359196250000014 88.40015249999999 4.028892500000019 Q88.40015249999999 -8.462499999999984 97.3198575 -17.331249999999983 Q106.2395625 -26.19999999999999 118.47859875 -26.19999999999999 Q130.8089025 -26.19999999999999 139.6776525 -17.325767499999984 Q148.5464025 -8.451696249999983 148.5464025 4.039857500000011 Q148.5464025 16.370000000000015 139.67217 25.158125000000016 Q130.79809875 33.94625000000001 118.467795 33.94625000000001 Z"/></g><g id="Medium-L" transform="matrix(1 0 0 1 1674.31 1556)"><path d="M79.738125 -15.101807499999985 V-49.32534624999998 H98.43264375 L93.83701875 -53.920971249999994 H79.738125 V-82.38159624999999 Q79.738125 -84.60394375 81.22098000000001 -86.13759249999998 Q82.70367375 -87.67140249999997 84.98923125000002 -87.67140249999997 H103.95723000000001 Q105.33672375 -87.67140249999997 106.57351125000001 -86.9490025 Q107.81013750000001 -86.22676375 108.56688375 -85.06673124999999 L122.308125 -60.448048749999984 H110.71924875 L103.65924 -73.53735625 H89.1502875 V-68.94173124999999 H100.82639999999999 L107.84319375 -55.771798749999974 H124.726875 L137.1221625 -34.12221249999999 Q132.750675 -36.37632624999998 127.88237625 -37.53651999999998 Q123.01423875 -38.69687499999999 117.8947125 -38.69687499999999 Q105.60826875 -38.69687499999999 95.41436625 -32.19430749999998 Q85.220625 -25.69173999999998 79.738125 -15.101807499999985 Z M69.81076875000001 17.092077500000016 H50.96193375 Q49.497138750000005 17.092077500000016 48.24551625 16.431436250000015 Q46.993893750000005 15.770633750000012 46.35228000000001 14.487567500000015 L32.653125 -10.011951249999981 H44.2976325 L51.34054875 3.0773562500000153 H65.7303375 V-1.5988937499999878 H54.09276375 L47.11805625 -14.688201249999985 H30.153750000000002 L19.914375 -32.671768749999984 Q19.5147975 -33.305481249999985 19.334197500000002 -33.938709999999986 Q19.1535975 -34.57193874999999 19.1535975 -35.26031499999999 Q19.1535975 -35.59861749999999 19.914375 -37.91513499999998 L30.153750000000002 -55.771798749999974 H46.95680625 L54.012138750000005 -68.94173124999999 H65.7303375 V-73.53735625 H51.27508125000001 L44.175405000000005 -60.448048749999984 H32.5725 L46.35228000000001 -85.06673124999999 Q46.993893750000005 -86.23063374999998 48.24551625 -86.95093749999998 Q49.497138750000005 -87.67140249999997 50.96193375 -87.67140249999997 H69.81076875000001 Q72.09632625 -87.67140249999997 73.57902 -86.13759249999998 Q75.061875 -84.60394375 75.061875 -82.38159624999999 V-53.920971249999994 H61.04360625 L56.36735625 -49.32534624999998 H75.061875 V-27.546114999999986 H58.912365 L52.573305000000005 -40.67750874999999 H36.58617375 L31.90992375 -36.00125874999999 H49.40554875 L55.92714375 -22.950489999999988 H75.061875 V-0.3859712499999901 Q75.25473000000001 0.9119300000000123 75.28972125 1.9065200000000146 Q75.3247125 2.901110000000017 75.3247125 4.034375000000011 Q75.3247125 5.7462050000000175 75.54739875 7.436911250000016 Q75.76992375 9.127778750000012 75.892635 10.785912500000016 Q75.96632625 13.541191250000015 74.14694250000001 15.316553750000018 Q72.32755875000001 17.092077500000016 69.81076875000001 17.092077500000016 Z M117.97533750000001 22.525557500000016  136.30188375 4.19917250000001  132.6490875 0.6236150000000151  120.54485625000001 12.727846250000017 V-14.29555749999998 H115.3753425 V12.727846250000017 L103.1887125 0.6478025000000116 L99.64556625 4.19917250000001 L117.97533750000001 22.525557500000016 Z M117.88939125 33.94625000000001 Q105.59778750000001 33.94625000000001 96.7096875 25.152642500000013 Q87.8215875 16.359196250000014 87.8215875 4.028892500000019 Q87.8215875 -8.462499999999984 96.71517 -17.331249999999983 Q105.60859125 -26.19999999999999 117.900195 -26.19999999999999 Q130.2303375 -26.19999999999999 139.0990875 -17.325767499999984 Q147.9678375 -8.451696249999983 147.9678375 4.039857500000011 Q147.9678375 16.370000000000015 139.09376625 25.158125000000016 Q130.21953375 33.94625000000001 117.88939125 33.94625000000001 Z"/></g><g id="Regular-L" transform="matrix(1 0 0 1 1378.56 1556)"><path d="M79.738125 -15.718749999999986 V-49.016874999999985 H98.20125 L93.605625 -53.61249999999998 H79.738125 V-82.07312499999999 Q79.738125 -84.03037749999999 81.028125 -85.34956374999999 Q82.31812500000001 -86.66874999999999 84.33375000000001 -86.66874999999999 H103.764375 Q104.96907375 -86.66874999999999 106.04267625 -86.0621275 Q107.11611749999999 -85.45550499999999 107.795625 -84.41124999999998 L121.42125 -60.062499999999986 H109.9725 L103.119375 -72.881875 H88.6875 V-68.28624999999998 H100.2975 L107.150625 -55.38624999999999 H123.84 L135.7725 -34.58499999999998 Q131.59386750000002 -36.60755874999998 126.93858 -37.65229749999999 Q122.28345375 -38.69687499999999 117.470625 -38.69687499999999 Q105.376875 -38.69687499999999 95.29875 -32.367812499999985 Q85.220625 -26.03874999999998 79.738125 -15.718749999999986 Z M70.46625 16.128125000000015 H51.11625 Q49.82625 16.128125000000015 48.737812500000004 15.563750000000017 Q47.649375 14.999375000000015 47.085 13.870625000000015 L33.54 -10.397499999999987 H45.021645 L51.841875 2.421875000000014 H66.193125 V-2.254374999999982 H54.583125 L47.810625 -15.073749999999983 H31.040625000000002 L20.80125 -32.98023999999998 Q20.47875 -33.53687499999998 20.3175 -34.10124999999999 Q20.15625 -34.66562499999999 20.15625 -35.26579749999998 Q20.15625 -35.47187499999998 20.80125 -37.56812499999998 L31.040625000000002 -55.38624999999999 H47.649375 L54.502500000000005 -68.28624999999998 H66.193125 V-72.881875 H51.761250000000004 L44.908125 -60.062499999999986 H33.459375 L47.085 -84.41124999999998 Q47.649375 -85.459375 48.737812500000004 -86.06406249999998 Q49.82625 -86.66874999999999 51.11625 -86.66874999999999 H70.46625 Q72.481875 -86.66874999999999 73.77187500000001 -85.34956374999999 Q75.061875 -84.03037749999999 75.061875 -82.07312499999999 V-53.61249999999998 H61.275 L56.59875 -49.016874999999985 H75.061875 V-27.893124999999984 H59.259375 L53.05125 -40.79312499999999 H37.0875 L32.41125 -36.11687499999999 H49.906875 L56.276250000000005 -23.297499999999985 H75.061875 V-1.851249999999986 Q75.061875 -0.24487749999998698 74.98125 1.12574750000001 Q74.900625 2.496372500000014 74.900625 4.034375000000011 Q74.900625 5.861821250000013 75.1425 7.649116250000013 Q75.384375 9.436250000000015 75.545625 11.210000000000015 Q75.465 13.386875000000014 73.9734375 14.757500000000014 Q72.481875 16.128125000000015 70.46625 16.128125000000015 Z M117.55125000000001 22.255625000000016  135.53062500000001 4.276250000000012  132.225 0.9706250000000125  119.889375 13.306250000000016 V-14.025624999999984 H115.14394875 V13.306250000000016 L102.764625 0.9948125000000161 L99.49125000000001 4.276250000000012 L117.55125000000001 22.255625000000016 Z M117.4651425 33.94625000000001 Q105.135 33.94625000000001 96.26625 25.152642500000013 Q87.39750000000001 16.359196250000014 87.39750000000001 4.028892500000019 Q87.39750000000001 -8.462499999999984 96.2717325 -17.331249999999983 Q105.14580375 -26.19999999999999 117.4761075 -26.19999999999999 Q129.80625 -26.19999999999999 138.675 -17.325767499999984 Q147.54375000000002 -8.451696249999983 147.54375000000002 4.039857500000011 Q147.54375000000002 16.370000000000015 138.6695175 25.158125000000016 Q129.79544625 33.94625000000001 117.4651425 33.94625000000001 Z"/></g><g id="Light-L" transform="matrix(1 0 0 1 1082.77 1556)"><path d="M79.67604375 -16.276997499999986 V-48.21062499999999 H96.77467125000001 L92.42721 -52.55808624999999 H79.67604375 V-79.033885 Q79.67604375 -80.96017749999999 80.91960375000001 -82.24840374999998 Q82.1630025 -83.53662999999999 84.1786275 -83.53662999999999 H102.0586725 Q103.23241125000001 -83.53662999999999 104.30601375 -82.93000749999999 Q105.379455 -82.32338499999999 105.99688125 -81.34105 L118.72321500000001 -58.54288 H108.45288000000001 L101.90983875 -70.61808624999999 H88.346295 V-66.27046374999999 H99.24308625 L105.69308625000001 -54.08367249999999 H121.07988375000001 L131.492925 -35.85645624999998 Q128.05846125 -37.32092874999998 124.25602500000001 -38.05542249999999 Q120.45375 -38.78991624999999 116.5092525 -38.78991624999999 Q104.63254500000001 -38.78991624999999 94.80258375 -32.55389499999998 Q84.97246125000001 -26.31787374999999 79.67604375 -16.276997499999986 Z M70.71441375 12.964883750000016 H52.821952499999995 Q51.531952499999996 12.964883750000016 50.443515 12.415988750000018 Q49.3550775 11.867255000000014 48.883743749999994 10.769465000000014 L36.238035 -12.010161249999982 H46.510304999999995 L53.02029 0.09600500000001944 H66.56529 V-4.363202499999979 H55.60657875 L49.1751225 -16.469207499999982 H33.83170125 L24.33665625 -33.07328124999998 Q24.014156250000003 -33.56783499999999 23.852906250000004 -34.163331249999985 Q23.69165625 -34.75866624999999 23.69165625 -35.26579749999998 Q23.69165625 -35.40979374999999 24.33665625 -37.56812499999998 L33.83170125 -54.08367249999999 H49.0448325 L55.55691375 -66.27046374999999 H66.56529 V-70.61808624999999 H52.970786249999996 L46.458705 -58.54288 H36.15741 L48.883743749999994 -81.34105 Q49.3550775 -82.327255 50.443515 -82.93194249999999 Q51.531952499999996 -83.53662999999999 52.821952499999995 -83.53662999999999 H70.71441375 Q72.6679575 -83.53662999999999 73.9424775 -82.24840374999998 Q75.2169975 -80.96017749999999 75.2169975 -79.033885 V-52.55808624999999 H62.48453625 L58.02532875 -48.21062499999999 H75.2169975 V-28.420251249999993 H60.5929125 L54.69487125 -40.544961249999986 H40.46778375 L36.00857625 -36.085914999999986 H51.76753875 L57.76474875 -24.072789999999983 H75.2169975 V-2.7505412499999835 Q75.15491625 -1.2373712499999812 75.13637250000001 0.04021250000001686 Q75.1176675 1.3177962500000149 75.1176675 2.700837500000013 Q75.1176675 4.187240000000017 75.2976225 5.664290000000015 Q75.47741625 7.141340000000014 75.57658500000001 8.574046250000016 Q75.43404 10.564838750000014 74.00439750000001 11.764861250000017 Q72.57491625 12.964883750000016 70.71441375 12.964883750000016 Z M116.5898775 19.929755000000014  133.48387875 3.035753750000012  130.333215 -0.11474874999998264  118.83496125 11.445586250000016 V-14.428749999999987 H114.36865875000001 V11.445586250000016 L102.764625 -0.09056124999998616 L99.6463725 3.035753750000012 L116.5898775 19.929755000000014 Z M116.50377 30.100760000000015 Q105.19708125 30.100760000000015 97.10362125 22.051482500000013 Q89.01016125 14.002205000000014 89.01016125 2.6955162500000185 Q89.01016125 -8.772583749999988 97.1089425 -16.83508374999999 Q105.207885 -24.89742249999999 116.514735 -24.89742249999999 Q127.82142375000001 -24.89742249999999 135.91488375 -16.82960124999999 Q144.00834375000002 -8.761779999999987 144.00834375000002 2.7063200000000194 Q144.00834375000002 14.013170000000013 135.90956250000002 22.056965000000016 Q127.81062000000001 30.100760000000015 116.50377 30.100760000000015 Z"/></g><g id="Thin-L" transform="matrix(1 0 0 1 787.282 1556)"><path d="M79.61412375 -16.83508374999999 V-47.40437499999999 H95.348415 L91.24895625 -51.503833749999984 H79.61412375 V-75.99528999999998 Q79.61412375 -77.89046124999999 80.8110825 -79.14756624999998 Q82.00804125 -80.40483249999998 84.02366625 -80.40483249999998 H100.35329250000001 Q101.49607125 -80.40483249999998 102.5695125 -79.79821 Q103.64295374999999 -79.19158749999998 104.19846 -78.27133374999998 L116.02566375 -57.02358249999999 H106.9335825 L100.700625 -68.35445874999999 H88.00525125 V-64.25499999999998 H98.18883375 L104.23570875 -52.78141749999999 H118.32025125 L127.21383375 -37.12775124999999 Q124.5237 -38.034137499999986 121.57395375 -38.45854749999998 Q118.62436875 -38.88295749999999 115.54804125 -38.88295749999999 Q103.88837625000001 -38.88295749999999 94.30641750000001 -32.73997749999998 Q84.72445875 -26.596997499999986 79.61412375 -16.83508374999999 Z M70.96241625 9.802126250000015 H54.5273325 Q53.2373325 9.802126250000015 52.148895 9.268872500000015 Q51.0604575 8.735457500000017 50.682165 7.668788750000012 L38.93558625 -13.622499999999988 H47.998481250000005 L54.198543750000006 -2.2295424999999867 H66.93729375000001 V-6.471707499999987 H56.62971 L50.53945875 -17.864664999999988 H36.622293750000004 L27.8714175 -33.16616124999999 Q27.5489175 -33.598956249999986 27.387667500000003 -34.225251249999985 Q27.2264175 -34.85170749999999 27.2264175 -35.26579749999998 Q27.2264175 -35.34787374999999 27.8714175 -37.56812499999998 L36.622293750000004 -52.78141749999999 H50.44029 L56.611166250000004 -64.25499999999998 H66.93729375000001 V-68.35445874999999 H54.18 L48.00912375 -57.02358249999999 H38.85496125 L50.682165 -78.27133374999998 Q51.0604575 -79.19545749999999 52.148895 -79.80014499999999 Q53.2373325 -80.40483249999998 54.5273325 -80.40483249999998 H70.96241625 Q72.85404 -80.40483249999998 74.11291875 -79.14756624999998 Q75.37195875 -77.89046124999999 75.37195875 -75.99528999999998 V-51.503833749999984 H63.69375 L59.451585 -47.40437499999999 H75.37195875 V-28.947377499999988 H61.92612750000001 L56.338170000000005 -40.29695874999999 H43.84758375 L39.605418750000005 -36.05479374999999 H53.62804125 L59.25308625 -24.84791874999999 H75.37195875 V-3.649832499999988 Q75.2479575 -2.2295424999999867 75.29133375 -1.0449999999999875 Q75.33471 0.13954250000001878 75.33471 1.3676225000000102 Q75.33471 2.512820000000012 75.45258375 3.6797862500000136 Q75.5704575 4.846913750000013 75.60770625 5.938415000000013 Q75.40291875 7.743125000000013 74.03551875 8.772706250000013 Q72.6679575 9.802126250000015 70.96241625 9.802126250000015 Z M115.62866625000001 17.604207500000015  131.437455 1.7954187500000174  128.44191375 -1.199961249999987  117.78070875 9.585083750000017 V-14.831874999999982 H113.59353 V9.585083750000017 L102.764625 -1.1757737499999834 L99.80133375 1.7954187500000174 L115.62866625000001 17.604207500000015 Z M115.54255875 26.255915000000016 Q105.25900125 26.255915000000016 97.94083125 18.950806250000014 Q90.6225 11.645697500000015 90.6225 1.362140000000018 Q90.6225 -9.082667499999985 97.9461525 -16.338917499999987 Q105.269805 -23.595167499999988 115.55352375 -23.595167499999988 Q125.83708125 -23.595167499999988 133.15525125 -16.333596249999985 Q140.4735825 -9.071863749999984 140.4735825 1.3729437500000188 Q140.4735825 11.656501250000016 133.14993 18.956288750000013 Q125.8262775 26.255915000000016 115.54255875 26.255915000000016 Z"/></g><g id="Ultralight-L" transform="matrix(1 0 0 1 491.205 1556)"><path d="M79.576875 -17.169999999999987 V-46.92062499999999 H94.4925 L90.541875 -50.87124999999999 H79.576875 V-74.17187499999999 Q79.576875 -76.0485025 80.7459375 -77.28706374999999 Q81.915 -78.52562499999999 83.930625 -78.52562499999999 H99.33 Q100.45407375 -78.52562499999999 101.52767625 -77.91900249999999 Q102.6011175 -77.31237999999999 103.119375 -76.429375 L114.406875 -56.11187499999998 H106.02187500000001 L99.97500000000001 -66.99624999999999 H87.800625 V-63.04562499999999 H97.55625 L103.36125 -51.999999999999986 H116.664375 L124.64625000000001 -37.890624999999986 Q122.4026175 -38.461933749999986 119.9645175 -38.70042249999999 Q117.52657875 -38.938749999999985 114.97125 -38.938749999999985 Q103.441875 -38.938749999999985 94.00875 -32.851562499999986 Q84.575625 -26.764374999999987 79.576875 -17.169999999999987 Z M71.11125 7.904375000000016 H55.550625000000004 Q54.260625000000005 7.904375000000016 53.1721875 7.3803125000000165 Q52.08375 6.856250000000017 51.761250000000004 5.808125000000018 L40.554375 -14.58999999999999 H48.891645000000004 L54.905625 -3.624999999999986 H67.160625 V-7.7368749999999835 H57.24375 L51.358125 -18.701874999999987 H38.296875 L29.9925 -33.22211499999999 Q29.67 -33.61749999999999 29.50875 -34.26249999999999 Q29.3475 -34.907499999999985 29.3475 -35.26579749999998 Q29.3475 -35.31062499999999 29.9925 -37.56812499999998 L38.296875 -51.999999999999986 H51.2775 L57.24375 -63.04562499999999 H67.160625 V-66.99624999999999 H54.905625 L48.939375 -56.11187499999998 H40.47375 L51.761250000000004 -76.429375 Q52.08375 -77.31624999999998 53.1721875 -77.9209375 Q54.260625000000005 -78.52562499999999 55.550625000000004 -78.52562499999999 H71.11125 Q72.965625 -78.52562499999999 74.2153125 -77.28706374999999 Q75.465 -76.0485025 75.465 -74.17187499999999 V-50.87124999999999 H64.419375 L60.307500000000005 -46.92062499999999 H75.465 V-29.263749999999987 H62.72625 L57.324375 -40.14812499999999 H45.875625 L41.76375 -36.03624999999998 H54.744375 L60.14625 -25.313124999999985 H75.465 V-4.189374999999984 Q75.30375000000001 -2.8248774999999853 75.384375 -1.6961274999999887 Q75.465 -0.567377499999985 75.465 0.5675000000000168 Q75.465 1.5080712500000146 75.545625 2.4891162500000164 Q75.62625 3.470000000000013 75.62625 4.3568750000000165 Q75.384375 6.050000000000011 74.0540625 6.977187500000014 Q72.72375 7.904375000000016 71.11125 7.904375000000016 Z M115.05187500000001 16.208750000000016  130.209375 1.0512500000000173  127.306875 -1.851249999999986  117.14812500000001 8.468750000000014 V-15.073749999999983 H113.12832375 V8.468750000000014 L102.764625 -1.8270624999999896 L99.894375 1.0512500000000173 L115.05187500000001 16.208750000000016 Z M114.9657675 23.948750000000015 Q105.29625 23.948750000000015 98.44312500000001 17.090142500000017 Q91.59 10.231696250000013 91.59 0.5620175000000174 Q91.59 -9.268749999999983 98.44860750000001 -16.041249999999984 Q105.30705375000001 -22.813749999999985 114.9767325 -22.813749999999985 Q124.64625000000001 -22.813749999999985 131.49937500000001 -16.035767499999984 Q138.3525 -9.257946249999982 138.3525 0.5729825000000162 Q138.3525 10.242500000000014 131.49389250000002 17.095625000000016 Q124.63544625 23.948750000000015 114.9657675 23.948750000000015 Z"/></g><g id="Bold-M" transform="matrix(1 0 0 1 2281.8 1126)"><path d="M62.3125 -22.72999999999999 V-46.66749999999999 H75.75 L71.0625 -51.35499999999999 H62.3125 V-71.66749999999999 Q62.3125 -74.72999999999999 64.53125 -76.94874999999999 Q66.75 -79.16749999999999 69.8125 -79.16749999999999 H80.625 Q82.625 -79.16749999999999 84.40625 -78.10499999999999 Q86.1875 -77.04249999999999 87.1875 -75.29249999999999 L97.5625 -56.54249999999999 H89.5625 L83.625 -67.72999999999999 H71.9375 V-63.04249999999999 H80.875 L86.625 -51.85499999999999 H100.0625 L109.875 -34.29249999999999 Q105.8125 -36.85499999999999 101.1875 -38.22999999999999 Q96.5625 -39.60499999999999 91.5 -39.60499999999999 Q82.125 -39.60499999999999 74.46875 -34.94874999999999 Q66.8125 -30.29249999999999 62.3125 -22.72999999999999 Z M50.125 8.70750000000001 H39.5625 Q37.5625 8.70750000000001 35.78125 7.64500000000001 Q34.0 6.58250000000001 33.0 4.83250000000001 L22.5625 -13.85499999999999 H30.625 L36.5625 -2.7299999999999898 H48.0625 V-7.41749999999999 H39.375 L33.5625 -18.54249999999999 H19.9375 L12.75 -31.54249999999999 Q12.125 -32.47999999999999 11.875 -33.35499999999999 Q11.625 -34.22999999999999 11.625 -35.22999999999999 Q11.625 -36.16749999999999 12.75 -39.04249999999999 L19.9375 -51.85499999999999 H33.375 L39.25 -63.04249999999999 H48.0625 V-67.72999999999999 H36.4375 L30.4375 -56.54249999999999 H22.5 L33.0 -75.29249999999999 Q34.0 -77.04249999999999 35.78125 -78.10499999999999 Q37.5625 -79.16749999999999 39.5625 -79.16749999999999 H50.125 Q53.1875 -79.16749999999999 55.40625 -76.94874999999999 Q57.625 -74.72999999999999 57.625 -71.66749999999999 V-51.35499999999999 H48.9375 L44.25 -46.66749999999999 H57.625 V-28.60499999999999 H45.125 L39.6875 -39.54249999999999 H27.6875 L23.0 -34.85499999999999 H36.6875 L42.25 -23.91749999999999 H57.625 V-9.04249999999999 Q57.875 -8.22999999999999 57.9375 -7.51124999999999 Q58.0 -6.79249999999999 58.0 -6.10499999999999 Q58.0 -4.54249999999999 58.21875 -3.1362499999999898 Q58.4375 -1.7299999999999898 58.375 -0.29249999999998977 Q58.5625 3.5200000000000102 56.15625 6.11375000000001 Q53.75 8.70750000000001 50.125 8.70750000000001 Z M91.5625 10.02000000000001  107.5625 -5.97999999999999  102.8125 -10.60499999999999  94.9375 -2.7299999999999898 V-21.47999999999999 H88.1875 V-2.7299999999999898 L80.1875 -10.60499999999999 L75.5625 -5.97999999999999 L91.5625 10.02000000000001 Z M91.5 18.02000000000001 Q81.5 18.02000000000001 74.4375 10.95750000000001 Q67.375 3.8950000000000102 67.375 -6.10499999999999 Q67.375 -16.10499999999999 74.4375 -23.16749999999999 Q81.5 -30.22999999999999 91.5 -30.22999999999999 Q101.5 -30.22999999999999 108.5625 -23.16749999999999 Q115.625 -16.10499999999999 115.625 -6.10499999999999 Q115.625 3.8950000000000102 108.5625 10.95750000000001 Q101.5 18.02000000000001 91.5 18.02000000000001 Z"/></g><g id="Semibold-M" transform="matrix(1 0 0 1 1985.97 1126)"><path d="M62.3125 -23.87124999999999 V-46.069749999999985 H75.31525 L70.62775 -50.757249999999985 H62.3125 V-71.06974999999998 Q62.3125 -73.64312499999998 64.150875 -75.48149999999998 Q65.989125 -77.31974999999998 68.562625 -77.31974999999998 H80.244625 Q81.9185 -77.31974999999998 83.400875 -76.44749999999999 Q84.88325 -75.57524999999998 85.72025 -74.09687499999998 L95.877875 -55.835999999999984 H88.203875 L82.64675 -66.48012499999999 H71.068 V-61.79262499999999 H79.8425 L85.32075 -51.148499999999984 H98.377875 L107.375125 -35.16199999999999 Q103.63875 -37.28974999999999 99.42125 -38.44737499999999 Q95.203875 -39.60499999999999 90.684875 -39.60499999999999 Q81.69025 -39.60499999999999 74.251375 -35.27487499999999 Q66.8125 -30.944624999999988 62.3125 -23.87124999999999 Z M51.374875 6.859750000000009 H39.888625 Q38.214625 6.859750000000009 36.73225 5.987500000000011 Q35.249875 5.11525000000001 34.413 3.6368750000000105 L24.247125 -14.561499999999988 H31.983625 L37.54075 -3.979874999999989 H48.932 V-8.667374999999993 H40.35325 L34.86675 -19.248999999999988 H21.622125 L14.434625 -32.14024999999999 Q13.97275 -32.91474999999999 13.749875 -33.65387499999999 Q13.527 -34.39299999999999 13.527 -35.22999999999999 Q13.527 -35.95012499999999 14.434625 -38.39037499999999 L21.622125 -51.148499999999984 H34.67925 L40.22825 -61.79262499999999 H48.932 V-66.48012499999999 H37.41575 L31.796125 -55.835999999999984 H24.184625 L34.413 -74.09687499999998 Q35.249875 -75.57524999999998 36.73225 -76.44749999999999 Q38.214625 -77.31974999999998 39.888625 -77.31974999999998 H51.374875 Q53.948375 -77.31974999999998 55.786625 -75.48149999999998 Q57.625 -73.64312499999998 57.625 -71.06974999999998 V-50.757249999999985 H49.37225 L44.68475 -46.069749999999985 H57.625 V-29.257124999999988 H45.777125 L40.557 -39.759874999999994 H28.66575 L23.97825 -35.07237499999999 H37.611375 L42.902125 -24.569624999999988 H57.625 V-11.813999999999993 Q57.44025 -10.403749999999988 57.3125 -8.97849999999999 Q57.184875 -7.553374999999988 57.184875 -6.10499999999999 Q57.184875 -4.3794999999999895 57.403625 -2.755874999999989 Q57.622375 -1.1322499999999884 57.722875 0.5226250000000086 Q57.693 3.193875000000009 55.857375 5.026875000000011 Q54.02175 6.859750000000009 51.374875 6.859750000000009 Z M90.747375 9.53087500000001  106.1495 -5.871249999999989  101.997375 -9.952874999999992  93.687625 -1.6431249999999906 V-20.99087499999999 H87.75275 V-1.6431249999999906 L79.372375 -9.952874999999992 L75.29075 -5.871249999999989 L90.747375 9.53087500000001 Z M90.684875 18.02000000000001 Q80.684875 18.02000000000001 73.622375 10.95750000000001 Q66.559875 3.8950000000000102 66.559875 -6.10499999999999 Q66.559875 -16.10499999999999 73.622375 -23.16749999999999 Q80.684875 -30.22999999999999 90.684875 -30.22999999999999 Q100.684875 -30.22999999999999 107.747375 -23.16749999999999 Q114.809875 -16.10499999999999 114.809875 -6.10499999999999 Q114.809875 3.8950000000000102 107.747375 10.95750000000001 Q100.684875 18.02000000000001 90.684875 18.02000000000001 Z"/></g><g id="Medium-M" transform="matrix(1 0 0 1 1689.91 1126)"><path d="M62.3125 -24.72724999999999 V-45.62124999999999 H74.989125 L70.301625 -50.30874999999999 H62.3125 V-70.62124999999999 Q62.3125 -72.82787499999999 63.8655 -74.38087499999999 Q65.4185 -75.93387499999999 67.625 -75.93387499999999 H79.95925 Q81.388625 -75.93387499999999 82.64675 -75.20424999999999 Q83.904875 -74.47462499999999 84.619625 -73.20012499999999 L94.614125 -55.306124999999994 H87.18475 L81.913 -65.54249999999999 H70.41575 V-60.85499999999999 H79.068 L84.342375 -50.618624999999994 H97.114125 L105.5 -35.81424999999999 Q102.008125 -37.61587499999999 98.0965 -38.61037499999999 Q94.18475 -39.60499999999999 90.073375 -39.60499999999999 Q81.364125 -39.60499999999999 74.088375 -35.51937499999999 Q66.8125 -31.43374999999999 62.3125 -24.72724999999999 Z M52.3125 5.47387500000001 H40.133125 Q38.70375 5.47387500000001 37.445625 4.744250000000012 Q36.1875 4.014625000000009 35.47275 2.7401250000000097 L25.510875 -15.091374999999992 H33.00275 L38.2745 -4.91749999999999 H49.58425 V-9.60499999999999 H41.087 L35.845125 -19.778874999999992 H22.885875 L15.698375 -32.58874999999999 Q15.358625 -33.24087499999999 15.15625 -33.87812499999999 Q14.95375 -34.51537499999999 14.95375 -35.22999999999999 Q14.95375 -35.78712499999999 15.698375 -37.90124999999999 L22.885875 -50.618624999999994 H35.657625 L40.962 -60.85499999999999 H49.58425 V-65.54249999999999 H38.1495 L32.81525 -55.306124999999994 H25.448375 L35.47275 -73.20012499999999 Q36.1875 -74.47462499999999 37.445625 -75.20424999999999 Q38.70375 -75.93387499999999 40.133125 -75.93387499999999 H52.3125 Q54.519 -75.93387499999999 56.072 -74.38087499999999 Q57.625 -72.82787499999999 57.625 -70.62124999999999 V-50.30874999999999 H49.698375 L45.010875 -45.62124999999999 H57.625 V-29.74624999999999 H46.26625 L41.20925 -39.92287499999999 H29.3995 L24.712 -35.23537499999999 H38.304375 L43.39125 -25.05874999999999 H57.625 V-13.892999999999986 Q57.114125 -12.03437499999999 56.84375 -10.07912499999999 Q56.573375 -8.123999999999988 56.573375 -6.10499999999999 Q56.573375 -4.257124999999991 56.792125 -2.4704999999999906 Q57.010875 -0.6837499999999892 57.23375 1.1341250000000116 Q57.04075 2.9493750000000105 55.633125 4.211625000000009 Q54.2255 5.47387500000001 52.3125 5.47387500000001 Z M90.135875 9.16400000000001  105.08975 -5.789749999999991  101.385875 -9.46374999999999  92.75 -0.8278749999999881 V-20.623999999999988 H87.426625 V-0.8278749999999881 L78.760875 -9.46374999999999 L75.087 -5.789749999999991 L90.135875 9.16400000000001 Z M90.073375 18.02000000000001 Q80.073375 18.02000000000001 73.010875 10.95750000000001 Q65.948375 3.8950000000000102 65.948375 -6.10499999999999 Q65.948375 -16.10499999999999 73.010875 -23.16749999999999 Q80.073375 -30.22999999999999 90.073375 -30.22999999999999 Q100.073375 -30.22999999999999 107.135875 -23.16749999999999 Q114.198375 -16.10499999999999 114.198375 -6.10499999999999 Q114.198375 3.8950000000000102 107.135875 10.95750000000001 Q100.073375 18.02000000000001 90.073375 18.02000000000001 Z"/></g><g id="Regular-M" transform="matrix(1 0 0 1 1394.06 1126)"><path d="M62.3125 -25.35499999999999 V-45.29249999999999 H74.75 L70.0625 -49.97999999999999 H62.3125 V-70.29249999999999 Q62.3125 -72.22999999999999 63.65625 -73.57374999999999 Q65.0 -74.91749999999999 66.9375 -74.91749999999999 H79.75 Q81.0 -74.91749999999999 82.09375 -74.29249999999999 Q83.1875 -73.66749999999999 83.8125 -72.54249999999999 L93.6875 -54.91749999999999 H86.4375 L81.375 -64.85499999999999 H69.9375 V-60.16749999999999 H78.5 L83.625 -50.22999999999999 H96.1875 L104.125 -36.29249999999999 Q100.8125 -37.85499999999999 97.125 -38.72999999999999 Q93.4375 -39.60499999999999 89.625 -39.60499999999999 Q81.125 -39.60499999999999 73.96875 -35.69874999999999 Q66.8125 -31.79249999999999 62.3125 -25.35499999999999 Z M53.0 4.45750000000001 H40.3125 Q39.0625 4.45750000000001 37.96875 3.8325000000000102 Q36.875 3.2075000000000102 36.25 2.0825000000000102 L26.4375 -15.47999999999999 H33.75 L38.8125 -5.60499999999999 H50.0625 V-10.29249999999999 H41.625 L36.5625 -20.16749999999999 H23.8125 L16.625 -32.91749999999999 Q16.375 -33.47999999999999 16.1875 -34.04249999999999 Q16.0 -34.60499999999999 16.0 -35.22999999999999 Q16.0 -35.66749999999999 16.625 -37.54249999999999 L23.8125 -50.22999999999999 H36.375 L41.5 -60.16749999999999 H50.0625 V-64.85499999999999 H38.6875 L33.5625 -54.91749999999999 H26.375 L36.25 -72.54249999999999 Q36.875 -73.66749999999999 37.96875 -74.29249999999999 Q39.0625 -74.91749999999999 40.3125 -74.91749999999999 H53.0 Q54.9375 -74.91749999999999 56.28125 -73.57374999999999 Q57.625 -72.22999999999999 57.625 -70.29249999999999 V-49.97999999999999 H49.9375 L45.25 -45.29249999999999 H57.625 V-30.10499999999999 H46.625 L41.6875 -40.04249999999999 H29.9375 L25.25 -35.35499999999999 H38.8125 L43.75 -25.41749999999999 H57.625 V-15.41749999999999 Q56.875 -13.22999999999999 56.5 -10.88624999999999 Q56.125 -8.54249999999999 56.125 -6.10499999999999 Q56.125 -4.16749999999999 56.34375 -2.2612499999999898 Q56.5625 -0.35499999999998977 56.875 1.5825000000000102 Q56.5625 2.7700000000000102 55.46875 3.6137500000000102 Q54.375 4.45750000000001 53.0 4.45750000000001 Z M89.6875 8.89500000000001  104.3125 -5.72999999999999  100.9375 -9.10499999999999  92.0625 -0.22999999999998977 V-20.35499999999999 H87.1875 V-0.22999999999998977 L78.3125 -9.10499999999999 L74.9375 -5.72999999999999 L89.6875 8.89500000000001 Z M89.625 18.02000000000001 Q79.625 18.02000000000001 72.5625 10.95750000000001 Q65.5 3.8950000000000102 65.5 -6.10499999999999 Q65.5 -16.10499999999999 72.5625 -23.16749999999999 Q79.625 -30.22999999999999 89.625 -30.22999999999999 Q99.625 -30.22999999999999 106.6875 -23.16749999999999 Q113.75 -16.10499999999999 113.75 -6.10499999999999 Q113.75 3.8950000000000102 106.6875 10.95750000000001 Q99.625 18.02000000000001 89.625 18.02000000000001 Z"/></g><g id="Light-M" transform="matrix(1 0 0 1 1098.18 1126)"><path d="M62.072125 -24.15299999999999 V-44.81174999999999 H73.98075 L69.822125 -48.97024999999999 H62.072125 V-68.273125 Q62.072125 -70.04237499999999 63.283625 -71.265875 Q64.495125 -72.48949999999999 66.288375 -72.48949999999999 H78.620125 Q79.749875 -72.48949999999999 80.7475 -71.9365 Q81.745125 -71.383625 82.322 -70.35487499999999 L91.692125 -53.54724999999999 H84.923 L80.05275 -62.90774999999999 H69.3365 V-58.74912499999999 H77.49025 L82.350875 -49.36449999999999 H93.95175 L101.144 -36.70112499999999 Q98.4085 -37.87899999999999 95.382125 -38.51362499999999 Q92.35575 -39.14824999999999 89.216375 -39.14824999999999 Q80.596125 -39.14824999999999 73.463875 -35.02562499999999 Q66.33175 -30.90299999999999 62.072125 -24.15299999999999 Z M53.673125 2.0053750000000115 H41.442375 Q40.2885 2.0053750000000115 39.291 1.4645000000000117 Q38.293375 0.9236250000000119 37.7405 -0.12924999999998832 L28.432875 -16.874374999999986 H35.2405 L40.110625 -7.552249999999987 H50.6875 V-11.734874999999988 H42.610625 L37.7645 -21.056999999999988 H26.07225 L19.269375 -33.13387499999999 Q19.019375 -33.64824999999999 18.856 -34.16274999999999 Q18.6925 -34.67712499999999 18.6925 -35.22999999999999 Q18.6925 -35.57137499999999 19.269375 -37.35012499999999 L26.07225 -49.36449999999999 H37.601 L42.50975 -58.74912499999999 H50.6875 V-62.90774999999999 H40.00975 L35.101125 -53.54724999999999 H28.370375 L37.7405 -70.35487499999999 Q38.293375 -71.383625 39.291 -71.9365 Q40.2885 -72.48949999999999 41.442375 -72.48949999999999 H53.673125 Q55.466375 -72.48949999999999 56.677875 -71.265875 Q57.8895 -70.04237499999999 57.8895 -68.273125 V-48.97024999999999 H50.202 L46.01925 -44.81174999999999 H57.8895 V-30.32137499999999 H47.466375 L42.817375 -39.65787499999999 H32.221375 L28.038625 -35.47524999999999 H40.254875 L44.903875 -26.16274999999999 H57.8895 V-14.095249999999993 Q57.427875 -12.364499999999992 57.197125 -10.549624999999992 Q56.966375 -8.734874999999988 56.966375 -6.898374999999991 Q56.966375 -5.3694999999999915 57.137125 -3.89599999999999 Q57.30775 -2.4224999999999888 57.476 -0.8936249999999895 Q57.211625 0.3420000000000094 56.141875 1.173625000000012 Q55.072125 2.0053750000000115 53.673125 2.0053750000000115 Z M89.278875 7.092000000000009  102.822 -6.451249999999991  99.807625 -9.465624999999989  91.389375 -1.0473749999999882 V-20.28287499999999 H87.06725 V-1.0473749999999882 L78.649125 -9.465624999999989 L75.634625 -6.451249999999991 L89.278875 7.092000000000009 Z M89.216375 14.89475000000001 Q80.153875 14.89475000000001 73.7885 8.52950000000001 Q67.42325 2.164125000000009 67.42325 -6.898374999999991 Q67.42325 -15.96074999999999 73.7885 -22.32612499999999 Q80.153875 -28.691374999999987 89.216375 -28.691374999999987 Q98.27875 -28.691374999999987 104.644125 -22.32612499999999 Q111.009375 -15.96074999999999 111.009375 -6.898374999999991 Q111.009375 2.164125000000009 104.644125 8.52950000000001 Q98.27875 14.89475000000001 89.216375 14.89475000000001 Z"/></g><g id="Thin-M" transform="matrix(1 0 0 1 802.565 1126)"><path d="M61.83175 -22.95112499999999 V-44.33099999999999 H73.2115 L69.58175 -47.96074999999999 H61.83175 V-66.25412499999999 Q61.83175 -67.85499999999999 62.911125 -68.95837499999999 Q63.990375 -70.06174999999999 65.639375 -70.06174999999999 H77.490375 Q78.5 -70.06174999999999 79.4015 -69.58099999999999 Q80.302875 -69.10024999999999 80.83175 -68.16749999999999 L89.697125 -52.17712499999999 H83.408625 L78.73075 -60.96074999999999 H68.735625 V-57.33099999999999 H76.48075 L81.076875 -48.49924999999999 H91.716375 L98.1635 -37.10974999999999 Q96.004875 -37.90312499999999 93.6395 -38.29724999999999 Q91.274 -38.69149999999999 88.80775 -38.69149999999999 Q80.067375 -38.69149999999999 72.959125 -34.35262499999999 Q65.851 -30.01362499999999 61.83175 -22.95112499999999 Z M54.346125 -0.4463749999999891 H42.572125 Q41.514375 -0.4463749999999891 40.613 -0.902999999999988 Q39.7115 -1.3597499999999911 39.23075 -2.340499999999988 L30.427875 -18.26849999999999 H36.73075 L41.408625 -9.49924999999999 H51.3125 V-13.17712499999999 H43.596125 L38.966375 -21.94637499999999 H28.33175 L21.913375 -33.35024999999999 Q21.663375 -33.81649999999999 21.524 -34.28287499999999 Q21.384625 -34.74924999999999 21.384625 -35.22999999999999 Q21.384625 -35.47524999999999 21.913375 -37.15787499999999 L28.33175 -48.49924999999999 H38.826875 L43.51925 -57.33099999999999 H51.3125 V-60.96074999999999 H41.33175 L36.639375 -52.17712499999999 H30.365375 L39.23075 -68.16749999999999 Q39.7115 -69.10024999999999 40.613 -69.58099999999999 Q41.514375 -70.06174999999999 42.572125 -70.06174999999999 H54.346125 Q55.995125 -70.06174999999999 57.0745 -68.95837499999999 Q58.153875 -67.85499999999999 58.153875 -66.25412499999999 V-47.96074999999999 H50.466375 L46.7885 -44.33099999999999 H58.153875 V-30.53774999999999 H48.307625 L43.947125 -39.27324999999999 H34.50475 L30.826875 -35.59537499999999 H41.697125 L46.057625 -26.90787499999999 H58.153875 V-12.77324999999999 Q57.98075 -11.49924999999999 57.89425 -10.213124999999991 Q57.807625 -8.92712499999999 57.807625 -7.691499999999991 Q57.807625 -6.571374999999989 57.93025 -5.530499999999989 Q58.052875 -4.4896249999999895 58.076875 -3.369374999999991 Q57.860625 -2.0857499999999902 56.814875 -1.2659999999999911 Q55.76925 -0.4463749999999891 54.346125 -0.4463749999999891 Z M88.87025 5.28925000000001  101.33175 -7.172249999999991  98.677875 -9.82612499999999  90.716375 -1.8646249999999895 V-20.21074999999999 H86.947125 V-1.8646249999999895 L78.985625 -9.82612499999999 L76.33175 -7.172249999999991 L88.87025 5.28925000000001 Z M88.80775 11.77000000000001 Q80.682625 11.77000000000001 75.014375 6.10175000000001 Q69.346125 0.4335000000000093 69.346125 -7.691499999999991 Q69.346125 -15.81649999999999 75.014375 -21.484874999999988 Q80.682625 -27.15312499999999 88.80775 -27.15312499999999 Q96.93275 -27.15312499999999 102.601 -21.484874999999988 Q108.26925 -15.81649999999999 108.26925 -7.691499999999991 Q108.26925 0.4335000000000093 102.601 6.10175000000001 Q96.93275 11.77000000000001 88.80775 11.77000000000001 Z"/></g><g id="Ultralight-M" transform="matrix(1 0 0 1 506.415 1126)"><path d="M61.6875 -22.22999999999999 V-44.04249999999999 H72.75 L69.4375 -47.35499999999999 H61.6875 V-65.04249999999999 Q61.6875 -66.54249999999999 62.6875 -67.57374999999999 Q63.6875 -68.60499999999999 65.25 -68.60499999999999 H76.8125 Q77.75 -68.60499999999999 78.59375 -68.16749999999999 Q79.4375 -67.72999999999999 79.9375 -66.85499999999999 L88.5 -51.35499999999999 H82.5 L77.9375 -59.79249999999999 H68.375 V-56.47999999999999 H75.875 L80.3125 -47.97999999999999 H90.375 L96.375 -37.35499999999999 Q94.5625 -37.91749999999999 92.59375 -38.16749999999999 Q90.625 -38.41749999999999 88.5625 -38.41749999999999 Q79.75 -38.41749999999999 72.65625 -33.94874999999999 Q65.5625 -29.47999999999999 61.6875 -22.22999999999999 Z M54.75 -1.9174999999999898 H43.25 Q42.25 -1.9174999999999898 41.40625 -2.3237499999999898 Q40.5625 -2.7299999999999898 40.125 -3.6674999999999898 L31.625 -19.10499999999999 H37.625 L42.1875 -10.66749999999999 H51.6875 V-14.04249999999999 H44.1875 L39.6875 -22.47999999999999 H29.6875 L23.5 -33.47999999999999 Q23.25 -33.91749999999999 23.125 -34.35499999999999 Q23.0 -34.79249999999999 23.0 -35.22999999999999 Q23.0 -35.41749999999999 23.5 -37.04249999999999 L29.6875 -47.97999999999999 H39.5625 L44.125 -56.47999999999999 H51.6875 V-59.79249999999999 H42.125 L37.5625 -51.35499999999999 H31.5625 L40.125 -66.85499999999999 Q40.5625 -67.72999999999999 41.40625 -68.16749999999999 Q42.25 -68.60499999999999 43.25 -68.60499999999999 H54.75 Q56.3125 -68.60499999999999 57.3125 -67.57374999999999 Q58.3125 -66.54249999999999 58.3125 -65.04249999999999 V-47.35499999999999 H50.625 L47.25 -44.04249999999999 H58.3125 V-30.66749999999999 H48.8125 L44.625 -39.04249999999999 H35.875 L32.5 -35.66749999999999 H42.5625 L46.75 -27.35499999999999 H58.3125 V-11.97999999999999 Q58.3125 -10.97999999999999 58.3125 -10.01124999999999 Q58.3125 -9.04249999999999 58.3125 -8.16749999999999 Q58.3125 -7.29249999999999 58.40625 -6.51124999999999 Q58.5 -5.72999999999999 58.4375 -4.85499999999999 Q58.25 -3.5424999999999898 57.21875 -2.7299999999999898 Q56.1875 -1.9174999999999898 54.75 -1.9174999999999898 Z M88.625 4.20750000000001  100.4375 -7.60499999999999  98.0 -10.04249999999999  90.3125 -2.3549999999999898 V-20.16749999999999 H86.875 V-2.3549999999999898 L79.1875 -10.04249999999999 L76.75 -7.60499999999999 L88.625 4.20750000000001 Z M88.5625 9.89500000000001 Q81.0 9.89500000000001 75.75 4.64500000000001 Q70.5 -0.6049999999999898 70.5 -8.16749999999999 Q70.5 -15.72999999999999 75.75 -20.97999999999999 Q81.0 -26.22999999999999 88.5625 -26.22999999999999 Q96.125 -26.22999999999999 101.375 -20.97999999999999 Q106.625 -15.72999999999999 106.625 -8.16749999999999 Q106.625 -0.6049999999999898 101.375 4.64500000000001 Q96.125 9.89500000000001 88.5625 9.89500000000001 Z"/></g><g id="Bold-S" transform="matrix(1 0 0 1 2294.23 696)"><path d="M48.0796875 -20.929374999999986 V-43.46518749999999 H57.399750000000004 L54.0958125 -45.585624999999986 H48.0796875 V-60.03418749999999 Q48.0796875 -62.746374999999986 50.07684375 -64.74353124999999 Q52.074000000000005 -66.74068749999999 54.786187500000004 -66.74068749999999 H61.344750000000005 Q63.120000000000005 -66.74068749999999 64.72265625 -65.80375 Q66.32531250000001 -64.8668125 67.21293750000001 -63.38743749999999 L74.31393750000001 -50.46756249999999 H68.19918750000001 L63.909000000000006 -58.505499999999984 H55.9696875 V-56.38506249999999 H62.725500000000004 L66.86775 -48.34712499999999 H75.3988125 L83.43675 -33.99718749999999 Q80.9218125 -35.525874999999985 78.111 -36.31487499999999 Q75.3001875 -37.10387499999999 72.1935 -37.10387499999999 Q64.007625 -37.10387499999999 57.62165625 -32.59178124999999 Q51.235687500000004 -28.07968749999999 48.0796875 -20.929374999999986 Z M39.25275 -3.7193124999999867 H33.4831875 Q31.7079375 -3.7193124999999867 30.10528125 -4.656249999999986 Q28.502625000000002 -5.593187499999988 27.615000000000002 -7.072562499999986 L20.4646875 -19.943124999999988 H26.332875 L30.6230625 -11.954499999999989 H38.513062500000004 V-14.074937499999987 H31.954500000000003 L27.7629375 -22.06356249999999 H19.2811875 L13.807500000000001 -31.926062499999986 Q13.21575 -32.66574999999999 13.018500000000001 -33.50406249999999 Q12.821250000000001 -34.34237499999999 12.821250000000001 -35.22999999999999 Q12.821250000000001 -35.87106249999999 13.807500000000001 -38.63256249999999 L19.2811875 -48.34712499999999 H27.812250000000002 L32.053125 -56.38506249999999 H38.7103125 V-58.505499999999984 H30.8203125 L26.480812500000003 -50.46756249999999 H20.415375 L27.615000000000002 -63.38743749999999 Q28.502625000000002 -64.8668125 30.10528125 -65.80375 Q31.7079375 -66.74068749999999 33.4831875 -66.74068749999999 H39.25275 Q41.964937500000005 -66.74068749999999 43.96209375 -64.74353124999999 Q45.959250000000004 -62.746374999999986 45.959250000000004 -60.03418749999999 V-45.585624999999986 H40.5841875 L37.28025 -43.46518749999999 H45.959250000000004 V-29.213874999999987 H36.294000000000004 L32.3983125 -37.05456249999999 H24.2124375 L21.894750000000002 -34.93412499999999 H31.0175625 L35.011875 -27.093437499999986 H45.959250000000004 V-11.116187499999988 Q46.649625 -11.165499999999987 46.9948125 -11.486031249999986 Q47.34 -11.806562499999988 47.34 -12.250374999999988 Q47.34 -12.003812499999988 47.36465625 -11.979156249999988 Q47.3893125 -11.954499999999989 46.9455 -11.806562499999988 Q46.9948125 -8.305374999999987 44.80040625 -6.012343749999989 Q42.606 -3.7193124999999867 39.25275 -3.7193124999999867 Z M72.2428125 -1.8947499999999877  83.6833125 -13.335249999999988  79.3438125 -17.576124999999987  75.3001875 -13.532499999999988 V-22.01424999999999 H69.1854375 V-13.532499999999988 L65.0431875 -17.576124999999987 L60.8023125 -13.335249999999988 L72.2428125 -1.8947499999999877 Z M72.1935 5.995250000000014 Q64.59937500000001 5.995250000000014 59.273625 0.6695000000000135 Q53.947875 -4.656249999999986 53.947875 -12.250374999999988 Q53.947875 -19.84449999999999 59.273625 -25.17024999999999 Q64.59937500000001 -30.495999999999988 72.1935 -30.495999999999988 Q79.787625 -30.495999999999988 85.113375 -25.17024999999999 Q90.439125 -19.84449999999999 90.439125 -12.250374999999988 Q90.439125 -4.656249999999986 85.113375 0.6695000000000135 Q79.787625 5.995250000000014 72.1935 5.995250000000014 Z"/></g><g id="Semibold-S" transform="matrix(1 0 0 1 1998.1 696)"><path d="M48.0796875 -21.829821249999988 V-42.99356274999999 H57.05673225000001 L53.75279475000001 -45.11400024999998 H48.0796875 V-59.562562749999984 Q48.0796875 -61.88883062499998 49.776727875 -63.58587099999998 Q51.47366962500001 -65.28281274999999 53.800036125 -65.28281274999999 H61.044634125 Q62.5625715 -65.28281274999999 63.929415375000005 -64.4959825 Q65.29625925 -63.70915224999999 66.05527725 -62.44408937499999 L72.984768375 -49.910133999999985 H67.127232375 L63.13716075 -57.51934862499999 H55.283652000000004 V-55.398911124999984 H61.910857500000006 L65.83869675000001 -47.789696499999984 H74.06964337500001 L81.464348625 -34.68322299999999 Q79.20672375000001 -35.868892749999986 76.71742875000001 -36.48638387499999 Q74.228232375 -37.10387499999999 71.55036637500001 -37.10387499999999 Q63.66460725000001 -37.10387499999999 57.450147375 -32.84909387499999 Q51.235687500000004 -28.594214124999986 48.0796875 -21.829821249999988 Z M40.238901375000005 -5.177187249999989 H33.740500125 Q32.222464125 -5.177187249999989 30.85562025 -5.964017499999986 Q29.488776375000004 -6.750847749999988 28.729857 -8.015910624999986 L21.793856625 -20.500553499999988 H27.404830125000004 L31.394901750000002 -12.940651374999987 H39.199098000000006 V-15.061088874999989 H32.72633925 L28.791990750000004 -22.62099099999999 H20.610356625 L15.136669125000001 -32.39768724999999 Q14.673624750000002 -33.00876774999999 14.497776375 -33.73987487499999 Q14.321928000000002 -34.470981999999985 14.321928000000002 -35.22999999999999 Q14.321928000000002 -35.69955362499999 15.136669125000001 -38.11803587499999 L20.610356625 -47.789696499999984 H28.841303250000003 L32.82496425 -55.398911124999984 H39.396348 V-57.51934862499999 H31.592151750000003 L27.552767625000005 -49.910133999999985 H21.744544125 L28.729857 -62.44408937499999 Q29.488776375000004 -63.70915224999999 30.85562025 -64.4959825 Q32.222464125 -65.28281274999999 33.740500125 -65.28281274999999 H40.238901375000005 Q42.565267875 -65.28281274999999 44.262209625000004 -63.58587099999998 Q45.959250000000004 -61.88883062499998 45.959250000000004 -59.562562749999984 V-45.11400024999998 H40.92720525 L37.623267750000004 -42.99356274999999 H45.959250000000004 V-29.72840162499999 H36.808526625 L33.084348000000006 -37.22607137499999 H24.98427675 L22.66658925 -35.10563387499999 H31.746499875000005 L35.526401625 -27.607964124999988 H45.959250000000004 V-13.302900999999991 Q46.30660725 -12.880588749999987 46.5016875 -12.643691499999989 Q46.696866375 -12.406892874999986 46.696866375 -12.250374999999988 Q46.696866375 -11.875205499999986 46.721522625 -11.679040374999985 Q46.746178875 -11.482875249999985 46.430973375 -11.16342887499999 Q46.308777 -8.562687624999988 44.564593875 -6.869888124999985 Q42.82041075 -5.177187249999989 40.238901375000005 -5.177187249999989 Z M71.59967887500001 -2.2806696249999874  82.56845550000001 -13.249446249999988  78.70067887500001 -17.06159837499999  74.314036125 -12.674955624999988 V-21.62833037499999 H68.84241975 V-12.674955624999988 L64.40005387500001 -17.06159837499999 L60.58790175000001 -13.249446249999988 L71.59967887500001 -2.2806696249999874 Z M71.55036637500001 5.995250000000014 Q63.956241375000005 5.995250000000014 58.630491375000005 0.6695000000000135 Q53.304741375000006 -4.656249999999986 53.304741375000006 -12.250374999999988 Q53.304741375000006 -19.84449999999999 58.630491375000005 -25.17024999999999 Q63.956241375000005 -30.495999999999988 71.55036637500001 -30.495999999999988 Q79.144491375 -30.495999999999988 84.47024137500001 -25.17024999999999 Q89.79599137500001 -19.84449999999999 89.79599137500001 -12.250374999999988 Q89.79599137500001 -4.656249999999986 84.47024137500001 0.6695000000000135 Q79.144491375 5.995250000000014 71.55036637500001 5.995250000000014 Z"/></g><g id="Medium-S" transform="matrix(1 0 0 1 1701.85 696)"><path d="M48.0796875 -22.50520524999999 V-42.639696249999986 H56.799419625000006 L53.495482125 -44.76013374999999 H48.0796875 V-59.20869624999999 Q48.0796875 -61.245598374999986 49.551567 -62.717477874999986 Q51.0234465 -64.18935737499999 53.06025 -64.18935737499999 H60.81947325 Q62.14450012500001 -64.18935737499999 63.33441075 -63.51505824999998 Q64.524321375 -62.84075912499999 65.186884125 -61.736553624999985 L71.98766962500001 -49.492062624999996 H66.32314275 L62.558232 -56.77956249999998 H54.76902675 V-54.65912499999999 H61.299777 L65.066758875 -47.371625124999994 H73.072544625 L79.984875 -35.197848249999986 Q77.92016062500001 -36.12620537499999 75.672201 -36.61499087499999 Q73.42414275 -37.10387499999999 71.067892875 -37.10387499999999 Q63.407294625000006 -37.10387499999999 57.321540375000005 -33.04200437499999 Q51.235687500000004 -28.980133749999986 48.0796875 -22.50520524999999 Z M40.9786875 -6.2706426249999865 H33.933410625 Q32.60838375 -6.2706426249999865 31.418473125000002 -6.9449417499999875 Q30.228562500000002 -7.6192408749999885 29.56599975 -8.723446374999988 L22.790955375 -20.918624874999992 H28.20891975 L31.973830500000005 -13.680437499999986 H39.71372325 V-15.800874999999987 H33.305268000000005 L29.563928625000003 -23.039062374999993 H21.607455375 L16.133767875 -32.75155374999999 Q15.767080125000001 -33.26608037499999 15.60740625 -33.91680812499999 Q15.44763375 -34.56753587499999 15.44763375 -35.22999999999999 Q15.44763375 -35.57094662499999 16.133767875 -37.73211624999999 L21.607455375 -47.371625124999994 H29.613241125000005 L33.403893000000004 -54.65912499999999 H39.91097325 V-56.77956249999998 H32.1710805 L28.35685725 -49.492062624999996 H22.741642875 L29.56599975 -61.736553624999985 Q30.228562500000002 -62.84075912499999 31.418473125000002 -63.51505824999998 Q32.60838375 -64.18935737499999 33.933410625 -64.18935737499999 H40.9786875 Q43.015491 -64.18935737499999 44.487370500000004 -62.717477874999986 Q45.959250000000004 -61.245598374999986 45.959250000000004 -59.20869624999999 V-44.76013374999999 H41.184517875 L37.880580375 -42.639696249999986 H45.959250000000004 V-30.11432124999999 H37.19444625 L33.59897325 -37.35467837499999 H25.563205500000002 L23.245518 -35.23424087499999 H32.293276875000004 L35.91232125 -27.993883749999988 H45.959250000000004 V-14.943231999999984 Q46.049294625 -14.167151874999988 46.13184375 -13.51208462499999 Q46.214392875 -12.857115999999987 46.214392875 -12.250374999999988 Q46.214392875 -11.778651624999988 46.239049125 -11.453879499999989 Q46.263705375 -11.129008749999986 46.04505375 -10.680955374999986 Q45.794151750000005 -8.755598124999988 44.387660625 -7.513120374999989 Q42.9811695 -6.2706426249999865 40.9786875 -6.2706426249999865 Z M71.117205375 -2.570133999999989  81.73231275 -13.18514274999999  78.218205375 -16.67567874999999  73.57425 -12.031723374999988 V-21.33886599999999 H68.58510712500001 V-12.031723374999988 L63.917580375 -16.67567874999999 L60.42714300000001 -13.18514274999999 L71.117205375 -2.570133999999989 Z M71.067892875 5.995250000000014 Q63.473767875 5.995250000000014 58.148017875 0.6695000000000135 Q52.822267875 -4.656249999999986 52.822267875 -12.250374999999988 Q52.822267875 -19.84449999999999 58.148017875 -25.17024999999999 Q63.473767875 -30.495999999999988 71.067892875 -30.495999999999988 Q78.662017875 -30.495999999999988 83.987767875 -25.17024999999999 Q89.313517875 -19.84449999999999 89.313517875 -12.250374999999988 Q89.313517875 -4.656249999999986 83.987767875 0.6695000000000135 Q78.662017875 5.995250000000014 71.067892875 5.995250000000014 Z"/></g><g id="Regular-S" transform="matrix(1 0 0 1 1405.73 696)"><path d="M48.0796875 -23.000499999999988 V-42.38031249999999 H56.61075 L53.3068125 -44.50074999999999 H48.0796875 V-58.94931249999999 Q48.0796875 -60.77387499999999 49.38646875 -62.08065624999999 Q50.69325 -63.38743749999999 52.517812500000005 -63.38743749999999 H60.654375 Q61.837875000000004 -63.38743749999999 62.89809375 -62.795687499999985 Q63.958312500000005 -62.203937499999995 64.55006250000001 -61.21768749999998 L71.2565625 -49.18543749999999 H65.7335625 L62.133750000000006 -56.23712499999999 H54.3916875 V-54.11668749999998 H60.851625000000006 L64.50075 -47.06499999999999 H72.3414375 L78.9 -35.57518749999999 Q76.97681250000001 -36.31487499999999 74.9056875 -36.70937499999999 Q72.8345625 -37.10387499999999 70.71412500000001 -37.10387499999999 Q63.218625 -37.10387499999999 57.22715625 -33.18353124999999 Q51.235687500000004 -29.263187499999987 48.0796875 -23.000499999999988 Z M41.521125000000005 -7.072562499999986 H34.074937500000004 Q32.8914375 -7.072562499999986 31.83121875 -7.664312499999987 Q30.771 -8.256062499999988 30.17925 -9.242312499999986 L23.5220625 -21.22524999999999 H28.7985 L32.3983125 -14.222874999999988 H40.0910625 V-16.34331249999999 H33.72975 L30.1299375 -23.34568749999999 H22.338562500000002 L16.864875 -33.01093749999999 Q16.569 -33.45474999999999 16.4210625 -34.04649999999999 Q16.273125 -34.638249999999985 16.273125 -35.22999999999999 Q16.273125 -35.476562499999986 16.864875 -37.44906249999999 L22.338562500000002 -47.06499999999999 H30.17925 L33.828375 -54.11668749999998 H40.2883125 V-56.23712499999999 H32.5955625 L28.946437500000002 -49.18543749999999 H23.47275 L30.17925 -61.21768749999998 Q30.771 -62.203937499999995 31.83121875 -62.795687499999985 Q32.8914375 -63.38743749999999 34.074937500000004 -63.38743749999999 H41.521125000000005 Q43.345687500000004 -63.38743749999999 44.652468750000004 -62.08065624999999 Q45.959250000000004 -60.77387499999999 45.959250000000004 -58.94931249999999 V-44.50074999999999 H41.3731875 L38.069250000000004 -42.38031249999999 H45.959250000000004 V-30.39737499999999 H37.4775 L33.9763125 -37.44906249999999 H25.9876875 L23.67 -35.32862499999999 H32.6941875 L36.195375 -28.27693749999999 H45.959250000000004 V-16.14606249999999 Q45.860625 -15.110499999999988 45.860625 -14.148906249999989 Q45.860625 -13.187312499999987 45.860625 -12.250374999999988 Q45.860625 -11.707937499999986 45.88528125 -11.288781249999989 Q45.909937500000005 -10.869624999999989 45.762 -10.327187499999987 Q45.4168125 -8.897124999999988 44.25796875 -7.984843749999989 Q43.099125 -7.072562499999986 41.521125000000005 -7.072562499999986 Z M70.76343750000001 -2.7823749999999876  81.1190625 -13.137999999999987  77.86443750000001 -16.39262499999999  73.0318125 -11.559999999999988 V-21.12662499999999 H68.3964375 V-11.559999999999988 L63.563812500000004 -16.39262499999999 L60.3091875 -13.137999999999987 L70.76343750000001 -2.7823749999999876 Z M70.71412500000001 5.995250000000014 Q63.120000000000005 5.995250000000014 57.794250000000005 0.6695000000000135 Q52.4685 -4.656249999999986 52.4685 -12.250374999999988 Q52.4685 -19.84449999999999 57.794250000000005 -25.17024999999999 Q63.120000000000005 -30.495999999999988 70.71412500000001 -30.495999999999988 Q78.30825 -30.495999999999988 83.634 -25.17024999999999 Q88.95975 -19.84449999999999 88.95975 -12.250374999999988 Q88.95975 -4.656249999999986 83.634 0.6695000000000135 Q78.30825 5.995250000000014 70.71412500000001 5.995250000000014 Z"/></g><g id="Light-S" transform="matrix(1 0 0 1 1109.75 696)"><path d="M47.890031625 -22.05212199999999 V-42.00100074999999 H56.003811750000004 L53.117156625 -43.70405724999999 H47.890031625 V-57.35602562499999 Q47.890031625 -59.047838875 49.092467625000005 -60.259742874999986 Q50.294903625 -61.4717455 52.005652875 -61.4717455 H59.76290362500001 Q60.851526375000006 -61.4717455 61.8359025 -60.936803499999996 Q62.82027862500001 -60.40196012499999 63.374058000000005 -59.49165137499999 L69.68221162500001 -48.10431024999999 H64.538622 L61.090494750000005 -54.70074475 H53.9174985 V-52.99758962499999 H60.05493225000001 L63.495465375 -46.38212049999999 H70.57743075 L76.54799100000001 -35.89759262499999 Q75.08005650000001 -36.33381099999999 73.53055912500001 -36.53865512499999 Q71.98106175000001 -36.74349924999999 70.391719875 -36.74349924999999 Q62.801342625000004 -36.74349924999999 56.828809875000005 -32.65243562499999 Q50.856375750000005 -28.56137199999999 47.890031625 -22.05212199999999 Z M42.052220625000004 -9.007289124999986 H34.966408875 Q33.858751500000004 -9.007289124999986 32.874474 -9.532664499999985 Q31.890097875 -10.058039874999984 31.3552545 -10.987383249999986 L25.096413375 -22.325411874999986 H29.9745045 L33.422533125 -15.759255249999985 H40.5841875 V-17.481346374999987 H34.507408125 L31.0783155 -24.047502999999985 H24.121505250000002 L18.951286875 -33.181657374999986 Q18.655411875000002 -33.587499249999986 18.526509 -34.14137724999999 Q18.3975075 -34.69515662499999 18.3975075 -35.22999999999999 Q18.3975075 -35.400719874999986 18.951286875 -37.29727862499999 L24.121505250000002 -46.38212049999999 H31.146564 L34.62506775 -52.99758962499999 H40.7814375 V-54.70074475 H33.63881775 L30.160412625000003 -48.10431024999999 H25.047100875 L31.3552545 -59.49165137499999 Q31.890097875 -60.40196012499999 32.874474 -60.936803499999996 Q33.858751500000004 -61.4717455 34.966408875 -61.4717455 H42.052220625000004 Q43.762969875 -61.4717455 44.965405875 -60.259742874999986 Q46.1679405 -59.047838875 46.1679405 -57.35602562499999 V-43.70405724999999 H41.581878 L38.67618825 -42.00100074999999 H46.1679405 V-30.568094874999986 H38.141344875 L34.867783875 -37.14559337499999 H27.789664875000003 L25.870225125000005 -35.423502249999984 H33.832221375 L37.105782375000004 -28.864939749999984 H46.1679405 V-15.10280724999999 Q46.296843375 -14.427620499999989 46.410656625 -13.88330912499999 Q46.524469875 -13.339096374999986 46.524469875 -12.87634787499999 Q46.524469875 -12.656315499999987 46.511254125 -12.578598999999986 Q46.49793975 -12.500882499999985 46.236189 -12.280850124999986 Q45.928972125 -10.812816999999988 44.789064375 -9.910102374999987 Q43.649156625 -9.007289124999986 42.052220625000004 -9.007289124999986 Z M70.441032375 -4.204941999999988  79.94305800000001 -13.707066249999986  76.972966125 -16.677158124999988  72.50071687500001 -12.204908874999987 V-21.069718374999987 H68.30156025000001 V-12.204908874999987 L63.829409625000004 -16.677158124999988 L60.859219125 -13.707066249999986 L70.441032375 -4.204941999999988 Z M70.391719875 3.529427750000014 Q63.537282375000004 3.529427750000014 58.761564 -1.2461919999999882 Q53.985944249999996 -6.021910374999987 53.985944249999996 -12.87634787499999 Q53.985944249999996 -19.73068674999999 58.761564 -24.506405124999986 Q63.537282375000004 -29.282024874999983 70.391719875 -29.282024874999983 Q77.24605875 -29.282024874999983 82.021777125 -24.506405124999986 Q86.797396875 -19.73068674999999 86.797396875 -12.87634787499999 Q86.797396875 -6.021910374999987 82.021777125 -1.2461919999999882 Q77.24605875 3.529427750000014 70.391719875 3.529427750000014 Z"/></g><g id="Thin-S" transform="matrix(1 0 0 1 814.015 696)"><path d="M47.70037575 -21.10384262499999 V-41.62168899999999 H55.396873500000005 L52.92750075 -42.90756174999999 H47.70037575 V-55.76303462499999 Q47.70037575 -57.32199999999999 48.798565125 -58.43912537499999 Q49.896655875 -59.55625074999999 51.493591875 -59.55625074999999 H58.871530875000005 Q59.865375 -59.55625074999999 60.773908500000005 -59.07831399999999 Q61.682343375 -58.600377249999994 62.19825075 -57.765812499999996 L68.108156625 -47.02328162499999 H63.343780125 L60.04743675 -53.16456174999999 H53.443408125000005 V-51.87868899999999 H59.25843675 L62.49027937500001 -45.699438249999986 H68.813719875 L74.1963765 -36.21999774999999 Q73.18359637500001 -36.352845624999986 72.15562800000001 -36.36793524999999 Q71.127561 -36.38312349999999 70.06931475 -36.38312349999999 Q62.384158875000004 -36.38312349999999 56.430562125 -32.12143862499999 Q50.477064 -27.85965512499999 47.70037575 -21.10384262499999 Z M42.583217625 -10.941719874999986 H35.857781625 Q34.825966875 -10.941719874999986 33.917532 -11.400621999999984 Q33.008998500000004 -11.859622749999989 32.53106175 -12.732059499999988 L26.670468375000002 -23.425376499999985 H31.15031175 L34.446655125 -17.295438249999986 H41.077312500000005 V-18.61928162499999 H35.284967625 L32.026594875 -24.749219874999987 H25.90425075 L21.037402875 -33.35237724999999 Q20.741527875 -33.72024849999999 20.631561 -34.23615587499999 Q20.521594125 -34.752063249999985 20.521594125 -35.22999999999999 Q20.521594125 -35.324877249999986 21.037402875 -37.14559337499999 L25.90425075 -45.699438249999986 H32.113779375 L35.42156325 -51.87868899999999 H41.2745625 V-53.16456174999999 H34.68187575 L31.374091875 -47.02328162499999 H26.621155875000003 L32.53106175 -57.765812499999996 Q33.008998500000004 -58.600377249999994 33.917532 -59.07831399999999 Q34.825966875 -59.55625074999999 35.857781625 -59.55625074999999 H42.583217625 Q44.180153625 -59.55625074999999 45.278343 -58.43912537499999 Q46.376532375000004 -57.32199999999999 46.376532375000004 -55.76303462499999 V-42.90756174999999 H41.790469875 L39.2831265 -41.62168899999999 H46.376532375000004 V-30.73881474999999 H38.805091125000004 L35.759156625 -36.84212424999999 H29.59124775 L28.070154375 -35.51828087499999 H34.970156625 L38.016091125 -29.452843374999986 H46.376532375000004 V-14.059749249999989 Q46.733061750000005 -13.744938249999986 46.960688250000004 -13.61781062499999 Q47.188216125000004 -13.490781624999986 47.188216125000004 -13.502123499999989 Q47.188216125000004 -13.604594874999986 47.13702975 -13.868219499999988 Q47.085843375 -14.131844124999986 46.710279375000006 -14.234216874999987 Q46.441033125000004 -12.728311749999989 45.320061375 -11.83496649999999 Q44.19918825 -10.941719874999986 42.583217625 -10.941719874999986 Z M70.11862725 -5.627311749999986  78.76725075 -14.27593524999999  76.081593375 -16.961592624999987  71.969719875 -12.849719124999986 V-21.01281174999999 H68.206781625 V-12.849719124999986 L64.094908125 -16.961592624999987 L61.409250750000005 -14.27593524999999 L70.11862725 -5.627311749999986 Z M70.06931475 1.0640000000000125 Q63.954466125 1.0640000000000125 59.728779375 -3.161686749999987 Q55.503092625 -7.387373499999988 55.503092625 -13.502123499999989 Q55.503092625 -19.61687349999999 59.728779375 -23.842658874999984 Q63.954466125 -28.068345624999985 70.06931475 -28.068345624999985 Q76.18406475 -28.068345624999985 80.4097515 -23.842658874999984 Q84.63543825 -19.61687349999999 84.63543825 -13.502123499999989 Q84.63543825 -7.387373499999988 80.4097515 -3.161686749999987 Q76.18406475 1.0640000000000125 70.06931475 1.0640000000000125 Z"/></g><g id="Ultralight-S" transform="matrix(1 0 0 1 517.792 696)"><path d="M47.5865625 -20.534874999999985 V-41.39406249999999 H55.03275 L52.8136875 -42.42962499999999 H47.5865625 V-54.80706249999999 Q47.5865625 -56.28643749999999 48.622125000000004 -57.346656249999995 Q49.6576875 -58.406874999999985 51.186375000000005 -58.406874999999985 H58.336687500000004 Q59.273625 -58.406874999999985 60.13659375 -57.96306249999999 Q60.9995625 -57.519249999999985 61.4926875 -56.730249999999984 L67.163625 -46.37462499999999 H62.626875000000005 L59.4215625 -52.242812499999985 H53.158875 V-51.20724999999999 H58.7805 L61.8871875 -45.28974999999999 H67.755375 L72.78525 -36.41349999999999 Q72.0455625 -36.364187499999986 71.33053125 -36.26556249999999 Q70.6155 -36.16693749999999 69.87581250000001 -36.16693749999999 Q62.133750000000006 -36.16693749999999 56.19159375 -31.80278124999999 Q50.2494375 -27.438624999999988 47.5865625 -20.534874999999985 Z M42.901875000000004 -12.102437499999986 H36.392625 Q35.406375000000004 -12.102437499999986 34.543406250000004 -12.521593749999987 Q33.680437500000004 -12.940749999999987 33.236625000000004 -13.779062499999988 L27.615000000000002 -24.085374999999985 H31.855875 L35.0611875 -18.217187499999987 H41.3731875 V-19.302062499999987 H35.7515625 L32.5955625 -25.17024999999999 H26.9739375 L22.289250000000003 -33.45474999999999 Q21.993375 -33.79993749999999 21.894750000000002 -34.29306249999999 Q21.796125 -34.78618749999999 21.796125 -35.22999999999999 Q21.796125 -35.27931249999999 22.289250000000003 -37.05456249999999 L26.9739375 -45.28974999999999 H32.6941875 L35.8995 -51.20724999999999 H41.570437500000004 V-52.242812499999985 H35.30775 L32.1024375 -46.37462499999999 H27.565687500000003 L33.236625000000004 -56.730249999999984 Q33.680437500000004 -57.519249999999985 34.543406250000004 -57.96306249999999 Q35.406375000000004 -58.406874999999985 36.392625 -58.406874999999985 H42.901875000000004 Q44.4305625 -58.406874999999985 45.466125000000005 -57.346656249999995 Q46.5016875 -56.28643749999999 46.5016875 -54.80706249999999 V-42.42962499999999 H41.915625 L39.64725 -41.39406249999999 H46.5016875 V-30.84118749999999 H39.2034375 L36.294000000000004 -36.66006249999999 H30.672375000000002 L29.39025 -35.57518749999999 H35.6529375 L38.562375 -29.805624999999985 H46.5016875 V-13.433874999999986 Q46.9948125 -13.335249999999988 47.290687500000004 -13.458531249999986 Q47.5865625 -13.581812499999987 47.5865625 -13.877687499999986 Q47.5865625 -14.173562499999989 47.51259375 -14.642031249999988 Q47.438625 -15.110499999999988 46.9948125 -15.406374999999986 Q46.74825 -13.877687499999986 45.63871875 -12.990062499999986 Q44.5291875 -12.102437499999986 42.901875000000004 -12.102437499999986 Z M69.92512500000001 -6.480812499999988  78.0616875 -14.617374999999988  75.54675 -17.132312499999987  71.65106250000001 -13.236624999999986 V-20.978687499999985 H68.14987500000001 V-13.236624999999986 L64.2541875 -17.132312499999987 L61.739250000000006 -14.617374999999988 L69.92512500000001 -6.480812499999988 Z M69.87581250000001 -0.4153749999999867 Q64.204875 -0.4153749999999867 60.3091875 -4.311062499999988 Q56.4135 -8.206749999999989 56.4135 -13.877687499999986 Q56.4135 -19.548624999999987 60.3091875 -23.444312499999988 Q64.204875 -27.33999999999999 69.87581250000001 -27.33999999999999 Q75.54675 -27.33999999999999 79.4424375 -23.444312499999988 Q83.338125 -19.548624999999987 83.338125 -13.877687499999986 Q83.338125 -8.206749999999989 79.4424375 -4.311062499999988 Q75.54675 -0.4153749999999867 69.87581250000001 -0.4153749999999867 Z"/></g></g></svg>