<svg xmlns="http://www.w3.org/2000/svg" version="1.1" width="3300" height="2000"><g id="Notes"><style>
    text {
      font-family: monospace;
      text-anchor: middle;
    }
    text.emphasis {
      font-weight:bold;
    }
    text.lanchor {
      text-anchor: start;
    }
  </style><rect height="2200" id="artboard" fill="white" width="3300" x="0" y="0"/><line id="" style="fill:none;stroke:black;stroke-width:0.5;" x1="263" x2="3036" y1="292" y2="292"/><text class="lanchor emphasis" transform="matrix(1 0 0 1 263 322)">Weight/Scale Variations</text><text transform="matrix(1 0 0 1 559.711 322)">Ultralight</text><text transform="matrix(1 0 0 1 856.422 322)">Thin</text><text transform="matrix(1 0 0 1 1153.13 322)">Light</text><text transform="matrix(1 0 0 1 1449.84 322)">Regular</text><text transform="matrix(1 0 0 1 1746.56 322)">Medium</text><text transform="matrix(1 0 0 1 2043.27 322)">Semibold</text><text transform="matrix(1 0 0 1 2339.98 322)">Bold</text><text transform="matrix(1 0 0 1 2636.69 322)">Heavy</text><text transform="matrix(1 0 0 1 2933.4 322)">Black</text><text id="template-version" style="text-anchor: end;" transform="matrix(1 0 0 1 3036 1933)">Template v.1.0</text><text class="lanchor" transform="matrix(1 0 0 1 263 726)">Small</text><text class="lanchor" transform="matrix(1 0 0 1 263 1156)">Medium</text><text class="lanchor" transform="matrix(1 0 0 1 263 1586)">Large</text></g><g id="Guides"><g id="H-reference" style="fill:#27AAE1;stroke:none;" transform="matrix(1 0 0 1 339 696)"><path d="M 54.9316 0 L 57.666 0 L 30.5664 -70.459 L 28.0762 -70.459 L 0.976562 0 L 3.66211 0 L 12.9395 -24.4629 L 45.7031 -24.4629 Z M 29.1992 -67.0898 L 29.4434 -67.0898 L 44.8242 -26.709 L 13.8184 -26.709 Z"/></g><line id="Baseline-S" style="fill:none;stroke:#27AAE1;opacity:1;stroke-width:0.577;" x1="263" x2="3036" y1="696" y2="696"/><line id="Capline-S" style="fill:none;stroke:#27AAE1;opacity:1;stroke-width:0.577;" x1="263" x2="3036" y1="625.541" y2="625.541"/><g id="H-reference" style="fill:#27AAE1;stroke:none;" transform="matrix(1 0 0 1 339 1126)"><path d="M 54.9316 0 L 57.666 0 L 30.5664 -70.459 L 28.0762 -70.459 L 0.976562 0 L 3.66211 0 L 12.9395 -24.4629 L 45.7031 -24.4629 Z M 29.1992 -67.0898 L 29.4434 -67.0898 L 44.8242 -26.709 L 13.8184 -26.709 Z"/></g><line id="Baseline-M" style="fill:none;stroke:#27AAE1;opacity:1;stroke-width:0.577;" x1="263" x2="3036" y1="1126" y2="1126"/><line id="Capline-M" style="fill:none;stroke:#27AAE1;opacity:1;stroke-width:0.577;" x1="263" x2="3036" y1="1055.54" y2="1055.54"/><g id="H-reference" style="fill:#27AAE1;stroke:none;" transform="matrix(1 0 0 1 339 1556)"><path d="M 54.9316 0 L 57.666 0 L 30.5664 -70.459 L 28.0762 -70.459 L 0.976562 0 L 3.66211 0 L 12.9395 -24.4629 L 45.7031 -24.4629 Z M 29.1992 -67.0898 L 29.4434 -67.0898 L 44.8242 -26.709 L 13.8184 -26.709 Z"/></g><line id="Baseline-L" style="fill:none;stroke:#27AAE1;opacity:1;stroke-width:0.577;" x1="263" x2="3036" y1="1556" y2="1556"/><line id="Capline-L" style="fill:none;stroke:#27AAE1;opacity:1;stroke-width:0.577;" x1="263" x2="3036" y1="1485.54" y2="1485.54"/><rect height="119.336" id="left-margin" style="fill:darkred;stroke:none;opacity:0.4;" width="12.4512" x="1394.06" y="1030.79"/><rect height="119.336" id="right-margin" style="fill:darkgreen;stroke:none;opacity:0.4;" width="12.4512" x="1502.5112" y="1030.79"/><rect x="1406.5112" y="1045" width="96" height="96" fill="none" stroke="blue" stroke-dasharray="5"/><rect x="1394.06" y="1030.79" width="120.9024" height="119.336" fill="none" stroke="blue"/></g><g id="Symbols"><g id="Bold-L" transform="matrix(1 0 0 1 2266 1556)"><path d="M9.513750000000002 26.528750000000002 V-79.4125 H49.987500000000004 V-106.34125 H104.8125 V-79.4125 H145.44750000000002 V26.528750000000002 H9.513750000000002 Z M64.66125000000001 -79.4125 H90.13875 V-91.50625 H64.66125000000001 V-79.4125 Z M24.1875 11.693749999999994 H130.6125 V-64.73875 H24.1875 V11.693749999999994 Z"/></g><g id="Semibold-L" transform="matrix(1 0 0 1 1970.27 1556)"><path d="M9.83625 26.367500000000007 V-78.60624999999999 H50.471250000000005 V-105.05125 H104.32875000000001 V-78.60624999999999 H144.96375 V26.367500000000007 H9.83625 Z M63.855000000000004 -78.60624999999999 H90.945 V-91.50625 H63.855000000000004 V-78.60624999999999 Z M23.220000000000002 12.822500000000005 H131.57999999999998 V-65.2225 H23.220000000000002 V12.822500000000005 Z"/></g><g id="Medium-L" transform="matrix(1 0 0 1 1674.31 1556)"><path d="M10.15875 26.20625000000001 V-77.96124999999999 H50.79375 V-104.08375 H104.00625000000001 V-77.96124999999999 H144.64125 V26.20625000000001 H10.15875 Z M63.21000000000001 -77.96124999999999 H91.59 V-91.66749999999999 H63.21000000000001 V-77.96124999999999 Z M22.575 13.79000000000002 H132.225 V-65.54499999999999 H22.575 V13.79000000000002 Z"/></g><g id="Regular-L" transform="matrix(1 0 0 1 1378.56 1556)"><path d="M10.32 26.20625000000001 V-77.47749999999999 H50.955000000000005 V-103.43875 H103.84500000000001 V-77.47749999999999 H144.48 V26.20625000000001 H10.32 Z M62.72625 -77.47749999999999 H92.07375 V-91.66749999999999 H62.72625 V-77.47749999999999 Z M22.09125 14.435000000000002 H132.70875 V-65.70624999999998 H22.09125 V14.435000000000002 Z"/></g><g id="Light-L" transform="matrix(1 0 0 1 1082.77 1556)"><path d="M13.545000000000002 22.98124999999999 V-73.76874999999998 H53.69625 V-96.98875 H101.10375 V-73.76874999999998 H141.255 V22.98124999999999 H13.545000000000002 Z M63.21000000000001 -73.76874999999998 H91.59 V-87.63624999999999 H63.21000000000001 V-73.76874999999998 Z M22.8975 13.628749999999997 H131.9025 V-64.255 H22.8975 V13.628749999999997 Z"/></g><g id="Thin-L" transform="matrix(1 0 0 1 787.282 1556)"><path d="M16.77 19.756249999999994 V-69.89874999999999 H56.59875 V-90.53875 H98.20125 V-69.89874999999999 H138.03 V19.756249999999994 H16.77 Z M63.5325 -69.89874999999999 H91.2675 V-83.44375 H63.5325 V-69.89874999999999 Z M23.865000000000002 12.66125000000001 H130.935 V-62.803749999999994 H23.865000000000002 V12.66125000000001 Z"/></g><g id="Ultralight-L" transform="matrix(1 0 0 1 491.205 1556)"><path d="M18.705 17.82125000000002 V-67.64125 H58.21125000000001 V-86.66874999999999 H96.58875 V-67.64125 H136.095 V17.82125000000002 H18.705 Z M63.855000000000004 -67.64125 H90.945 V-81.02499999999999 H63.855000000000004 V-67.64125 Z M24.34875 12.177500000000023 H130.45125000000002 V-61.997499999999995 H24.34875 V12.177500000000023 Z"/></g><g id="Bold-M" transform="matrix(1 0 0 1 2281.8 1126)"><path d="M4.25 16.39500000000001 V-69.97999999999999 H34.75 V-95.10499999999999 H85.25 V-69.97999999999999 H115.75 V16.39500000000001 H4.25 Z M51.75 -69.97999999999999 H68.25 V-78.10499999999999 H51.75 V-69.97999999999999 Z M21.25 -0.6049999999999898 H98.75 V-52.97999999999999 H21.25 V-0.6049999999999898 Z"/></g><g id="Semibold-M" transform="matrix(1 0 0 1 1985.97 1126)"><path d="M5.0 15.77000000000001 V-68.85499999999999 H35.5 V-93.35499999999999 H84.5 V-68.85499999999999 H115.0 V15.77000000000001 H5.0 Z M50.875 -68.85499999999999 H69.125 V-77.97999999999999 H50.875 V-68.85499999999999 Z M20.375 0.39500000000001023 H99.625 V-53.47999999999999 H20.375 V0.39500000000001023 Z"/></g><g id="Medium-M" transform="matrix(1 0 0 1 1689.91 1126)"><path d="M5.625 15.39500000000001 V-68.10499999999999 H36.125 V-91.97999999999999 H83.875 V-68.10499999999999 H114.375 V15.39500000000001 H5.625 Z M50.25 -68.10499999999999 H69.75 V-77.85499999999999 H50.25 V-68.10499999999999 Z M19.75 1.1450000000000102 H100.25 V-53.97999999999999 H19.75 V1.1450000000000102 Z"/></g><g id="Regular-M" transform="matrix(1 0 0 1 1394.06 1126)"><path d="M6.0 15.02000000000001 V-67.47999999999999 H36.5 V-90.97999999999999 H83.5 V-67.47999999999999 H114.0 V15.02000000000001 H6.0 Z M49.75 -67.47999999999999 H70.25 V-77.72999999999999 H49.75 V-67.47999999999999 Z M19.25 1.7700000000000102 H100.75 V-54.22999999999999 H19.25 V1.7700000000000102 Z"/></g><g id="Light-M" transform="matrix(1 0 0 1 1098.18 1126)"><path d="M8.5 12.52000000000001 V-64.97999999999999 H39.0 V-85.97999999999999 H81.0 V-64.97999999999999 H111.5 V12.52000000000001 H8.5 Z M49.75 -64.97999999999999 H70.25 V-75.22999999999999 H49.75 V-64.97999999999999 Z M19.25 1.7700000000000102 H100.75 V-54.22999999999999 H19.25 V1.7700000000000102 Z"/></g><g id="Thin-M" transform="matrix(1 0 0 1 802.565 1126)"><path d="M11.0 10.02000000000001 V-62.47999999999999 H41.5 V-80.97999999999999 H78.5 V-62.47999999999999 H109.0 V10.02000000000001 H11.0 Z M49.75 -62.47999999999999 H70.25 V-72.72999999999999 H49.75 V-62.47999999999999 Z M19.25 1.7700000000000102 H100.75 V-54.22999999999999 H19.25 V1.7700000000000102 Z"/></g><g id="Ultralight-M" transform="matrix(1 0 0 1 506.415 1126)"><path d="M12.5 8.52000000000001 V-60.97999999999999 H43.0 V-77.97999999999999 H77.0 V-60.97999999999999 H107.5 V8.52000000000001 H12.5 Z M49.75 -60.97999999999999 H70.25 V-71.22999999999999 H49.75 V-60.97999999999999 Z M19.25 1.7700000000000102 H100.75 V-54.22999999999999 H19.25 V1.7700000000000102 Z"/></g><g id="Bold-S" transform="matrix(1 0 0 1 2294.23 696)"><path d="M3.3516719999999998 5.501336000000009 V-62.45049999999999 H26.827578 V-82.470586 H67.852422 V-62.45049999999999 H91.32832800000001 V5.501336000000009 H3.3516719999999998 Z M40.631922 -62.45049999999999 H54.048078 V-68.661508 H40.631922 V-62.45049999999999 Z M17.16075 -8.303007999999991 H77.51925 V-48.64142199999999 H17.16075 V-8.303007999999991 Z"/></g><g id="Semibold-S" transform="matrix(1 0 0 1 1998.1 696)"><path d="M3.943422 5.009 V-61.560508 H27.419328 V-81.092992 H67.260672 V-61.560508 H90.73657800000001 V5.009 H3.943422 Z M39.945492 -61.560508 H54.734508 V-68.56682799999999 H39.945492 V-61.560508 Z M16.469586 -7.517163999999994 H78.210414 V-49.03907799999999 H16.469586 V-7.517163999999994 Z"/></g><g id="Medium-S" transform="matrix(1 0 0 1 1701.85 696)"><path d="M4.440492 4.715491999999998 V-60.97349199999999 H27.911664 V-80.004172 H66.76833599999999 V-60.97349199999999 H90.239508 V4.715491999999998 H4.440492 Z M39.448422 -60.97349199999999 H55.231578 V-68.46741399999999 H39.448422 V-60.97349199999999 Z M15.97725 -6.9254140000000035 H78.70275 V-49.431999999999995 H15.97725 V-6.9254140000000035 Z"/></g><g id="Regular-S" transform="matrix(1 0 0 1 1405.73 696)"><path d="M4.734 4.41725000000001 V-60.47642199999999 H28.205172 V-79.218328 H66.474828 V-60.47642199999999 H89.946 V4.41725000000001 H4.734 Z M39.0555 -60.47642199999999 H55.6245 V-68.368 H39.0555 V-60.47642199999999 Z M15.584328 -6.433077999999995 H79.095672 V-49.630827999999994 H15.584328 V-6.433077999999995 Z"/></g><g id="Light-S" transform="matrix(1 0 0 1 1109.75 696)"><path d="M6.708078 2.443172000000004 V-58.50707799999999 H30.17925 V-75.27017199999999 H64.50075 V-58.50707799999999 H87.97192199999999 V2.443172000000004 H6.708078 Z M39.0555 -58.50707799999999 H55.6245 V-66.39392199999999 H39.0555 V-58.50707799999999 Z M15.584328 -6.433077999999995 H79.095672 V-49.630827999999994 H15.584328 V-6.433077999999995 Z"/></g><g id="Thin-S" transform="matrix(1 0 0 1 814.015 696)"><path d="M8.677422 0.4738280000000117 V-56.532999999999994 H32.153328 V-71.32674999999999 H62.526672 V-56.532999999999994 H86.00257800000001 V0.4738280000000117 H8.677422 Z M39.0555 -56.532999999999994 H55.6245 V-64.424578 H39.0555 V-56.532999999999994 Z M15.584328 -6.433077999999995 H79.095672 V-49.630827999999994 H15.584328 V-6.433077999999995 Z"/></g><g id="Ultralight-S" transform="matrix(1 0 0 1 517.792 696)"><path d="M9.860922 -0.7096719999999834 V-55.34949999999999 H33.336828 V-68.95974999999999 H61.343172 V-55.34949999999999 H84.819078 V-0.7096719999999834 H9.860922 Z M39.0555 -55.34949999999999 H55.6245 V-63.24107799999999 H39.0555 V-55.34949999999999 Z M15.584328 -6.433077999999995 H79.095672 V-49.630827999999994 H15.584328 V-6.433077999999995 Z"/></g></g></svg>