<svg xmlns="http://www.w3.org/2000/svg" version="1.1" width="3300" height="2000"><g id="Notes"><style>
    text {
      font-family: monospace;
      text-anchor: middle;
    }
    text.emphasis {
      font-weight:bold;
    }
    text.lanchor {
      text-anchor: start;
    }
  </style><rect height="2200" id="artboard" fill="white" width="3300" x="0" y="0"/><line id="" style="fill:none;stroke:black;stroke-width:0.5;" x1="263" x2="3036" y1="292" y2="292"/><text class="lanchor emphasis" transform="matrix(1 0 0 1 263 322)">Weight/Scale Variations</text><text transform="matrix(1 0 0 1 559.711 322)">Ultralight</text><text transform="matrix(1 0 0 1 856.422 322)">Thin</text><text transform="matrix(1 0 0 1 1153.13 322)">Light</text><text transform="matrix(1 0 0 1 1449.84 322)">Regular</text><text transform="matrix(1 0 0 1 1746.56 322)">Medium</text><text transform="matrix(1 0 0 1 2043.27 322)">Semibold</text><text transform="matrix(1 0 0 1 2339.98 322)">Bold</text><text transform="matrix(1 0 0 1 2636.69 322)">Heavy</text><text transform="matrix(1 0 0 1 2933.4 322)">Black</text><text id="template-version" style="text-anchor: end;" transform="matrix(1 0 0 1 3036 1933)">Template v.1.0</text><text class="lanchor" transform="matrix(1 0 0 1 263 726)">Small</text><text class="lanchor" transform="matrix(1 0 0 1 263 1156)">Medium</text><text class="lanchor" transform="matrix(1 0 0 1 263 1586)">Large</text></g><g id="Guides"><g id="H-reference" style="fill:#27AAE1;stroke:none;" transform="matrix(1 0 0 1 339 696)"><path d="M 54.9316 0 L 57.666 0 L 30.5664 -70.459 L 28.0762 -70.459 L 0.976562 0 L 3.66211 0 L 12.9395 -24.4629 L 45.7031 -24.4629 Z M 29.1992 -67.0898 L 29.4434 -67.0898 L 44.8242 -26.709 L 13.8184 -26.709 Z"/></g><line id="Baseline-S" style="fill:none;stroke:#27AAE1;opacity:1;stroke-width:0.577;" x1="263" x2="3036" y1="696" y2="696"/><line id="Capline-S" style="fill:none;stroke:#27AAE1;opacity:1;stroke-width:0.577;" x1="263" x2="3036" y1="625.541" y2="625.541"/><g id="H-reference" style="fill:#27AAE1;stroke:none;" transform="matrix(1 0 0 1 339 1126)"><path d="M 54.9316 0 L 57.666 0 L 30.5664 -70.459 L 28.0762 -70.459 L 0.976562 0 L 3.66211 0 L 12.9395 -24.4629 L 45.7031 -24.4629 Z M 29.1992 -67.0898 L 29.4434 -67.0898 L 44.8242 -26.709 L 13.8184 -26.709 Z"/></g><line id="Baseline-M" style="fill:none;stroke:#27AAE1;opacity:1;stroke-width:0.577;" x1="263" x2="3036" y1="1126" y2="1126"/><line id="Capline-M" style="fill:none;stroke:#27AAE1;opacity:1;stroke-width:0.577;" x1="263" x2="3036" y1="1055.54" y2="1055.54"/><g id="H-reference" style="fill:#27AAE1;stroke:none;" transform="matrix(1 0 0 1 339 1556)"><path d="M 54.9316 0 L 57.666 0 L 30.5664 -70.459 L 28.0762 -70.459 L 0.976562 0 L 3.66211 0 L 12.9395 -24.4629 L 45.7031 -24.4629 Z M 29.1992 -67.0898 L 29.4434 -67.0898 L 44.8242 -26.709 L 13.8184 -26.709 Z"/></g><line id="Baseline-L" style="fill:none;stroke:#27AAE1;opacity:1;stroke-width:0.577;" x1="263" x2="3036" y1="1556" y2="1556"/><line id="Capline-L" style="fill:none;stroke:#27AAE1;opacity:1;stroke-width:0.577;" x1="263" x2="3036" y1="1485.54" y2="1485.54"/><rect height="119.336" id="left-margin" style="fill:darkred;stroke:none;opacity:0.4;" width="12.4512" x="1394.06" y="1030.79"/><rect height="119.336" id="right-margin" style="fill:darkgreen;stroke:none;opacity:0.4;" width="12.4512" x="1502.5112" y="1030.79"/><rect x="1406.5112" y="1045" width="96" height="96" fill="none" stroke="blue" stroke-dasharray="5"/><rect x="1394.06" y="1030.79" width="120.9024" height="119.336" fill="none" stroke="blue"/></g><g id="Symbols"><g id="Bold-L" transform="matrix(1 0 0 1 2266 1556)"><path d="M79.49625 -15.879999999999995 H87.55875 V-30.3925 L101.10375 -15.879999999999995 H111.58500000000001 L93.68625 -35.22999999999999 L111.58500000000001 -54.57999999999999 H101.10375 L87.55875 -40.067499999999995 V-54.57999999999999 H79.49625 V-15.879999999999995 Z M54.18000000000001 -15.879999999999995 H62.24250000000001 V-54.57999999999999 H44.02125 V-46.5175 H54.18000000000001 V-15.879999999999995 Z M30.47625 26.85125000000002 Q24.1875 26.85125000000002 19.753125 22.416875000000005 Q15.31875 17.982500000000016 15.31875 11.693749999999994 V-82.15375 Q15.31875 -88.4425 19.753125 -92.9575 Q24.1875 -97.4725 30.47625 -97.4725 H124.32374999999999 Q130.6125 -97.4725 135.1275 -92.9575 Q139.64249999999998 -88.4425 139.64249999999998 -82.15375 V11.693749999999994 Q139.64249999999998 17.982500000000016 135.1275 22.416875000000005 Q130.6125 26.85125000000002 124.32374999999999 26.85125000000002 H30.47625 Z M30.47625 11.693749999999994 H124.32374999999999 Q124.32374999999999 11.693749999999994 124.32374999999999 11.693749999999994 Q124.32374999999999 11.693749999999994 124.32374999999999 11.693749999999994 V-82.15375 Q124.32374999999999 -82.15375 124.32374999999999 -82.15375 Q124.32374999999999 -82.15375 124.32374999999999 -82.15375 H30.47625 Q30.47625 -82.15375 30.47625 -82.15375 Q30.47625 -82.15375 30.47625 -82.15375 V11.693749999999994 Q30.47625 11.693749999999994 30.47625 11.693749999999994 Q30.47625 11.693749999999994 30.47625 11.693749999999994 Z"/></g><g id="Semibold-L" transform="matrix(1 0 0 1 1970.27 1556)"><path d="M79.49625 -15.879999999999995 H87.55875 V-30.3925 L101.10375 -15.879999999999995 H111.58500000000001 L93.68625 -35.22999999999999 L111.58500000000001 -54.57999999999999 H101.10375 L87.55875 -40.067499999999995 V-54.57999999999999 H79.49625 V-15.879999999999995 Z M54.18000000000001 -15.879999999999995 H62.24250000000001 V-54.57999999999999 H44.02125 V-46.5175 H54.18000000000001 V-15.879999999999995 Z M29.83125 25.077500000000015 Q24.67125 25.077500000000015 20.881875 21.288125000000008 Q17.0925 17.49875 17.0925 12.338750000000005 V-82.79875 Q17.0925 -88.12 20.881875 -91.909375 Q24.67125 -95.69874999999999 29.83125 -95.69874999999999 H124.96875 Q130.29 -95.69874999999999 134.079375 -91.909375 Q137.86875 -88.12 137.86875 -82.79875 V12.338750000000005 Q137.86875 17.49875 134.079375 21.288125000000008 Q130.29 25.077500000000015 124.96875 25.077500000000015 H29.83125 Z M29.83125 12.338750000000005 H124.96875 Q124.96875 12.338750000000005 124.96875 12.338750000000005 Q124.96875 12.338750000000005 124.96875 12.338750000000005 V-82.79875 Q124.96875 -82.79875 124.96875 -82.79875 Q124.96875 -82.79875 124.96875 -82.79875 H29.83125 Q29.83125 -82.79875 29.83125 -82.79875 Q29.83125 -82.79875 29.83125 -82.79875 V12.338750000000005 Q29.83125 12.338750000000005 29.83125 12.338750000000005 Q29.83125 12.338750000000005 29.83125 12.338750000000005 Z"/></g><g id="Medium-L" transform="matrix(1 0 0 1 1674.31 1556)"><path d="M79.49625 -15.879999999999995 H87.55875 V-30.3925 L101.10375 -15.879999999999995 H111.74625 L93.68625 -35.22999999999999 L111.74625 -54.57999999999999 H101.10375 L87.55875 -40.067499999999995 V-54.57999999999999 H79.49625 V-15.879999999999995 Z M54.18000000000001 -15.879999999999995 H62.24250000000001 V-54.57999999999999 H44.02125 V-46.5175 H54.18000000000001 V-15.879999999999995 Z M29.3475 23.787499999999994 Q24.993750000000002 23.787499999999994 21.688125 20.481875000000002 Q18.3825 17.17625000000001 18.3825 12.822500000000005 V-83.2825 Q18.3825 -87.7975 21.688125 -91.0225 Q24.993750000000002 -94.2475 29.3475 -94.2475 H125.4525 Q129.9675 -94.2475 133.1925 -91.0225 Q136.4175 -87.7975 136.4175 -83.2825 V12.822500000000005 Q136.4175 17.17625000000001 133.1925 20.481875000000002 Q129.9675 23.787499999999994 125.4525 23.787499999999994 H29.3475 Z M29.3475 12.822500000000005 H125.4525 Q125.4525 12.822500000000005 125.4525 12.822500000000005 Q125.4525 12.822500000000005 125.4525 12.822500000000005 V-83.2825 Q125.4525 -83.2825 125.4525 -83.2825 Q125.4525 -83.2825 125.4525 -83.2825 H29.3475 Q29.3475 -83.2825 29.3475 -83.2825 Q29.3475 -83.2825 29.3475 -83.2825 V12.822500000000005 Q29.3475 12.822500000000005 29.3475 12.822500000000005 Q29.3475 12.822500000000005 29.3475 12.822500000000005 Z"/></g><g id="Regular-L" transform="matrix(1 0 0 1 1378.56 1556)"><path d="M79.49625 -15.879999999999995 H87.55875 V-30.3925 L101.10375 -15.879999999999995 H111.74625 L93.68625 -35.22999999999999 L111.74625 -54.57999999999999 H101.10375 L87.55875 -40.067499999999995 V-54.57999999999999 H79.49625 V-15.879999999999995 Z M54.18000000000001 -15.879999999999995 H62.24250000000001 V-54.57999999999999 H44.02125 V-46.5175 H54.18000000000001 V-15.879999999999995 Z M29.025000000000002 22.82000000000002 Q25.155 22.82000000000002 22.2525 19.917500000000018 Q19.35 17.015000000000015 19.35 13.14500000000001 V-83.60499999999999 Q19.35 -87.475 22.2525 -90.3775 Q25.155 -93.28 29.025000000000002 -93.28 H125.775 Q129.645 -93.28 132.5475 -90.3775 Q135.45000000000002 -87.475 135.45000000000002 -83.60499999999999 V13.14500000000001 Q135.45000000000002 17.015000000000015 132.5475 19.917500000000018 Q129.645 22.82000000000002 125.775 22.82000000000002 H29.025000000000002 Z M29.025000000000002 13.14500000000001 H125.775 Q125.775 13.14500000000001 125.775 13.14500000000001 Q125.775 13.14500000000001 125.775 13.14500000000001 V-83.60499999999999 Q125.775 -83.60499999999999 125.775 -83.60499999999999 Q125.775 -83.60499999999999 125.775 -83.60499999999999 H29.025000000000002 Q29.025000000000002 -83.60499999999999 29.025000000000002 -83.60499999999999 Q29.025000000000002 -83.60499999999999 29.025000000000002 -83.60499999999999 V13.14500000000001 Q29.025000000000002 13.14500000000001 29.025000000000002 13.14500000000001 Q29.025000000000002 13.14500000000001 29.025000000000002 13.14500000000001 Z"/></g><g id="Light-L" transform="matrix(1 0 0 1 1082.77 1556)"><path d="M80.625 -16.847499999999997 H87.23625 V-31.68249999999999 L101.91000000000001 -16.847499999999997 H110.94 L92.5575 -35.39125 L110.94 -53.61249999999999 H101.91000000000001 L87.23625 -38.7775 V-53.61249999999999 H80.625 V-16.847499999999997 Z M55.308749999999996 -16.847499999999997 H61.92 V-53.61249999999999 H45.31125 V-47.001249999999985 H55.308749999999996 V-16.847499999999997 Z M31.927500000000002 19.595 Q28.057499999999997 19.595 25.31625 16.85374999999999 Q22.575 14.112499999999997 22.575 10.242500000000007 V-80.70249999999999 Q22.575 -84.57249999999999 25.31625 -87.31375 Q28.057499999999997 -90.05499999999999 31.927500000000002 -90.05499999999999 H122.8725 Q126.74249999999999 -90.05499999999999 129.48375 -87.31375 Q132.225 -84.57249999999999 132.225 -80.70249999999999 V10.242500000000007 Q132.225 14.112499999999997 129.48375 16.85374999999999 Q126.74249999999999 19.595 122.8725 19.595 H31.927500000000002 Z M31.927500000000002 12.338750000000005 H122.8725 Q123.67875000000001 12.338750000000005 124.32374999999999 11.693749999999994 Q124.96875 11.048750000000013 124.96875 10.242500000000007 V-80.70249999999999 Q124.96875 -81.50874999999999 124.32374999999999 -82.15375 Q123.67875000000001 -82.79875 122.8725 -82.79875 H31.927500000000002 Q31.121250000000003 -82.79875 30.47625 -82.15375 Q29.83125 -81.50874999999999 29.83125 -80.70249999999999 V10.242500000000007 Q29.83125 11.048750000000013 30.47625 11.693749999999994 Q31.121250000000003 12.338750000000005 31.927500000000002 12.338750000000005 Z"/></g><g id="Thin-L" transform="matrix(1 0 0 1 787.282 1556)"><path d="M81.91499999999999 -17.814999999999998 H86.7525 V-33.13374999999999 L102.555 -17.814999999999998 H109.97250000000001 L91.42875000000001 -35.552499999999995 L109.97250000000001 -52.64499999999999 H102.8775 L86.7525 -37.64874999999999 V-52.64499999999999 H81.91499999999999 V-17.814999999999998 Z M56.59875 -17.814999999999998 H61.43625 V-52.64499999999999 H46.60125 V-47.646249999999995 H56.59875 V-17.814999999999998 Z M34.66875 16.370000000000005 Q30.96 16.370000000000005 28.380000000000003 13.79000000000002 Q25.8 11.210000000000008 25.8 7.501250000000013 V-77.96124999999999 Q25.8 -81.66999999999999 28.380000000000003 -84.25 Q30.96 -86.83 34.66875 -86.83 H120.13125000000001 Q123.84 -86.83 126.42000000000002 -84.25 Q129.0 -81.66999999999999 129.0 -77.96124999999999 V7.501250000000013 Q129.0 11.210000000000008 126.42000000000002 13.79000000000002 Q123.84 16.370000000000005 120.13125000000001 16.370000000000005 H34.66875 Z M34.66875 11.371250000000018 H120.13125000000001 Q121.58250000000001 11.371250000000018 122.79187500000002 10.161875000000023 Q124.00125000000001 8.952500000000015 124.00125000000001 7.501250000000013 V-77.96124999999999 Q124.00125000000001 -79.4125 122.79187500000002 -80.62187499999999 Q121.58250000000001 -81.83125 120.13125000000001 -81.83125 H34.66875 Q33.2175 -81.83125 32.008125 -80.62187499999999 Q30.798750000000002 -79.4125 30.798750000000002 -77.96124999999999 V7.501250000000013 Q30.798750000000002 8.952500000000015 32.008125 10.161875000000023 Q33.2175 11.371250000000018 34.66875 11.371250000000018 Z"/></g><g id="Ultralight-L" transform="matrix(1 0 0 1 491.205 1556)"><path d="M82.56 -18.459999999999994 H86.59125 V-33.94 L103.03875000000001 -18.459999999999994 H109.48875000000001 L90.78375 -35.552499999999995 L109.48875000000001 -51.99999999999999 H103.36125 L86.59125 -36.84249999999999 V-51.99999999999999 H82.56 V-18.459999999999994 Z M57.24375 -18.459999999999994 H61.275 V-51.99999999999999 H47.4075 V-47.968749999999986 H57.24375 V-18.459999999999994 Z M36.4425 14.435000000000002 Q32.73375 14.435000000000002 30.234375 11.935625000000002 Q27.735 9.436250000000015 27.735 5.7275000000000205 V-76.1875 Q27.735 -79.89625 30.234375 -82.395625 Q32.73375 -84.895 36.4425 -84.895 H118.35750000000002 Q122.06625000000001 -84.895 124.565625 -82.395625 Q127.065 -79.89625 127.065 -76.1875 V5.7275000000000205 Q127.065 9.436250000000015 124.565625 11.935625000000002 Q122.06625000000001 14.435000000000002 118.35750000000002 14.435000000000002 H36.4425 Z M36.4425 10.887500000000003 H118.35750000000002 Q120.29249999999999 10.887500000000003 121.905 9.275000000000006 Q123.5175 7.662499999999994 123.5175 5.7275000000000205 V-76.1875 Q123.5175 -78.1225 121.905 -79.735 Q120.29249999999999 -81.3475 118.35750000000002 -81.3475 H36.4425 Q34.5075 -81.3475 32.894999999999996 -79.735 Q31.2825 -78.1225 31.2825 -76.1875 V5.7275000000000205 Q31.2825 7.662499999999994 32.894999999999996 9.275000000000006 Q34.5075 10.887500000000003 36.4425 10.887500000000003 Z"/></g><g id="Bold-M" transform="matrix(1 0 0 1 2281.8 1126)"><path d="M60.0 -20.22999999999999 H67.5 V-31.47999999999999 L76.25 -20.22999999999999 H85.125 L73.75 -35.22999999999999 L85.125 -50.22999999999999 H76.25 L67.5 -38.97999999999999 V-50.22999999999999 H60.0 V-20.22999999999999 Z M42.5 -20.22999999999999 H50.0 V-50.22999999999999 H35.0 V-42.72999999999999 H42.5 V-20.22999999999999 Z M26.5 14.02000000000001 Q19.875 14.02000000000001 15.309999999999999 9.460000000000008 Q10.75 4.89500000000001 10.75 -1.7299999999999898 V-68.72999999999999 Q10.75 -75.35499999999999 15.309999999999999 -79.91999999999999 Q19.875 -84.47999999999999 26.5 -84.47999999999999 H93.5 Q100.125 -84.47999999999999 104.69 -79.91999999999999 Q109.25 -75.35499999999999 109.25 -68.72999999999999 V-1.7299999999999898 Q109.25 4.89500000000001 104.69 9.460000000000008 Q100.125 14.02000000000001 93.5 14.02000000000001 H26.5 Z M26.5 -1.7299999999999898 H93.5 Q93.5 -1.7299999999999898 93.5 -1.7299999999999898 Q93.5 -1.7299999999999898 93.5 -1.7299999999999898 V-68.72999999999999 Q93.5 -68.72999999999999 93.5 -68.72999999999999 Q93.5 -68.72999999999999 93.5 -68.72999999999999 H26.5 Q26.5 -68.72999999999999 26.5 -68.72999999999999 Q26.5 -68.72999999999999 26.5 -68.72999999999999 V-1.7299999999999898 Q26.5 -1.7299999999999898 26.5 -1.7299999999999898 Q26.5 -1.7299999999999898 26.5 -1.7299999999999898 Z"/></g><g id="Semibold-M" transform="matrix(1 0 0 1 1985.97 1126)"><path d="M60.0 -20.22999999999999 H67.5 V-31.47999999999999 L76.25 -20.22999999999999 H85.25 L73.75 -35.22999999999999 L85.25 -50.22999999999999 H76.25 L67.5 -38.97999999999999 V-50.22999999999999 H60.0 V-20.22999999999999 Z M42.5 -20.22999999999999 H50.0 V-50.22999999999999 H35.0 V-42.72999999999999 H42.5 V-20.22999999999999 Z M25.875 12.14500000000001 Q20.25 12.14500000000001 16.439999999999998 8.330000000000013 Q12.625 4.52000000000001 12.625 -1.1049999999999898 V-69.35499999999999 Q12.625 -74.97999999999999 16.439999999999998 -78.79499999999999 Q20.25 -82.60499999999999 25.875 -82.60499999999999 H94.125 Q99.75 -82.60499999999999 103.565 -78.79499999999999 Q107.375 -74.97999999999999 107.375 -69.35499999999999 V-1.1049999999999898 Q107.375 4.52000000000001 103.565 8.330000000000013 Q99.75 12.14500000000001 94.125 12.14500000000001 H25.875 Z M25.875 -1.1049999999999898 H94.125 Q94.125 -1.1049999999999898 94.125 -1.1049999999999898 Q94.125 -1.1049999999999898 94.125 -1.1049999999999898 V-69.35499999999999 Q94.125 -69.35499999999999 94.125 -69.35499999999999 Q94.125 -69.35499999999999 94.125 -69.35499999999999 H25.875 Q25.875 -69.35499999999999 25.875 -69.35499999999999 Q25.875 -69.35499999999999 25.875 -69.35499999999999 V-1.1049999999999898 Q25.875 -1.1049999999999898 25.875 -1.1049999999999898 Q25.875 -1.1049999999999898 25.875 -1.1049999999999898 Z"/></g><g id="Medium-M" transform="matrix(1 0 0 1 1689.91 1126)"><path d="M60.0 -20.22999999999999 H67.5 V-31.47999999999999 L76.25 -20.22999999999999 H85.375 L73.75 -35.22999999999999 L85.375 -50.22999999999999 H76.25 L67.5 -38.97999999999999 V-50.22999999999999 H60.0 V-20.22999999999999 Z M42.5 -20.22999999999999 H50.0 V-50.22999999999999 H35.0 V-42.72999999999999 H42.5 V-20.22999999999999 Z M25.375 10.77000000000001 Q20.625 10.77000000000001 17.315 7.460000000000008 Q14.0 4.14500000000001 14.0 -0.6049999999999898 V-69.85499999999999 Q14.0 -74.60499999999999 17.315 -77.91999999999999 Q20.625 -81.22999999999999 25.375 -81.22999999999999 H94.625 Q99.375 -81.22999999999999 102.69 -77.91999999999999 Q106.0 -74.60499999999999 106.0 -69.85499999999999 V-0.6049999999999898 Q106.0 4.14500000000001 102.69 7.460000000000008 Q99.375 10.77000000000001 94.625 10.77000000000001 H25.375 Z M25.375 -0.6049999999999898 H94.625 Q94.625 -0.6049999999999898 94.625 -0.6049999999999898 Q94.625 -0.6049999999999898 94.625 -0.6049999999999898 V-69.85499999999999 Q94.625 -69.85499999999999 94.625 -69.85499999999999 Q94.625 -69.85499999999999 94.625 -69.85499999999999 H25.375 Q25.375 -69.85499999999999 25.375 -69.85499999999999 Q25.375 -69.85499999999999 25.375 -69.85499999999999 V-0.6049999999999898 Q25.375 -0.6049999999999898 25.375 -0.6049999999999898 Q25.375 -0.6049999999999898 25.375 -0.6049999999999898 Z"/></g><g id="Regular-M" transform="matrix(1 0 0 1 1394.06 1126)"><path d="M60.0 -20.22999999999999 H67.5 V-31.47999999999999 L76.25 -20.22999999999999 H85.375 L73.75 -35.22999999999999 L85.375 -50.22999999999999 H76.25 L67.5 -38.97999999999999 V-50.22999999999999 H60.0 V-20.22999999999999 Z M42.5 -20.22999999999999 H50.0 V-50.22999999999999 H35.0 V-42.72999999999999 H42.5 V-20.22999999999999 Z M25.0 9.77000000000001 Q20.875 9.77000000000001 17.935000000000002 6.835000000000008 Q15.0 3.8950000000000102 15.0 -0.22999999999998977 V-70.22999999999999 Q15.0 -74.35499999999999 17.935000000000002 -77.29499999999999 Q20.875 -80.22999999999999 25.0 -80.22999999999999 H95.0 Q99.125 -80.22999999999999 102.065 -77.29499999999999 Q105.0 -74.35499999999999 105.0 -70.22999999999999 V-0.22999999999998977 Q105.0 3.8950000000000102 102.065 6.835000000000008 Q99.125 9.77000000000001 95.0 9.77000000000001 H25.0 Z M25.0 -0.22999999999998977 H95.0 Q95.0 -0.22999999999998977 95.0 -0.22999999999998977 Q95.0 -0.22999999999998977 95.0 -0.22999999999998977 V-70.22999999999999 Q95.0 -70.22999999999999 95.0 -70.22999999999999 Q95.0 -70.22999999999999 95.0 -70.22999999999999 H25.0 Q25.0 -70.22999999999999 25.0 -70.22999999999999 Q25.0 -70.22999999999999 25.0 -70.22999999999999 V-0.22999999999998977 Q25.0 -0.22999999999998977 25.0 -0.22999999999998977 Q25.0 -0.22999999999998977 25.0 -0.22999999999998977 Z"/></g><g id="Light-M" transform="matrix(1 0 0 1 1098.18 1126)"><path d="M61.375 -20.97999999999999 H67.25 V-32.47999999999999 L77.375 -20.97999999999999 H85.0 L72.625 -35.35499999999999 L85.0 -49.47999999999999 H77.5 L67.25 -37.97999999999999 V-49.47999999999999 H61.375 V-20.97999999999999 Z M43.25 -20.97999999999999 H49.25 V-49.47999999999999 H35.75 V-43.47999999999999 H43.25 V-20.97999999999999 Z M26.5 7.27000000000001 Q22.75 7.27000000000001 20.125 4.64500000000001 Q17.5 2.0200000000000102 17.5 -1.7299999999999898 V-68.72999999999999 Q17.5 -72.47999999999999 20.125 -75.10499999999999 Q22.75 -77.72999999999999 26.5 -77.72999999999999 H93.5 Q97.25 -77.72999999999999 99.875 -75.10499999999999 Q102.5 -72.47999999999999 102.5 -68.72999999999999 V-1.7299999999999898 Q102.5 2.0200000000000102 99.875 4.64500000000001 Q97.25 7.27000000000001 93.5 7.27000000000001 H26.5 Z M26.5 -0.22999999999998977 H93.5 Q94.0 -0.22999999999998977 94.5 -0.7299999999999898 Q95.0 -1.2299999999999898 95.0 -1.7299999999999898 V-68.72999999999999 Q95.0 -69.22999999999999 94.5 -69.72999999999999 Q94.0 -70.22999999999999 93.5 -70.22999999999999 H26.5 Q26.0 -70.22999999999999 25.5 -69.72999999999999 Q25.0 -69.22999999999999 25.0 -68.72999999999999 V-1.7299999999999898 Q25.0 -1.2299999999999898 25.5 -0.7299999999999898 Q26.0 -0.22999999999998977 26.5 -0.22999999999998977 Z"/></g><g id="Thin-M" transform="matrix(1 0 0 1 802.565 1126)"><path d="M62.75 -21.72999999999999 H67.125 V-33.60499999999999 L78.5 -21.72999999999999 H84.75 L71.5 -35.47999999999999 L84.75 -48.72999999999999 H78.75 L67.125 -37.10499999999999 V-48.72999999999999 H62.75 V-21.72999999999999 Z M44.0 -21.72999999999999 H48.5 V-48.72999999999999 H36.5 V-44.22999999999999 H44.0 V-21.72999999999999 Z M28.125 4.77000000000001 Q24.625 4.77000000000001 22.315 2.460000000000008 Q20.0 0.14500000000001023 20.0 -3.3549999999999898 V-67.10499999999999 Q20.0 -70.60499999999999 22.315 -72.91499999999999 Q24.625 -75.22999999999999 28.125 -75.22999999999999 H91.875 Q95.375 -75.22999999999999 97.69 -72.91499999999999 Q100.0 -70.60499999999999 100.0 -67.10499999999999 V-3.3549999999999898 Q100.0 0.14500000000001023 97.69 2.460000000000008 Q95.375 4.77000000000001 91.875 4.77000000000001 H28.125 Z M28.125 -0.22999999999998977 H91.875 Q93.125 -0.22999999999998977 94.06 -1.1699999999999875 Q95.0 -2.1049999999999898 95.0 -3.3549999999999898 V-67.10499999999999 Q95.0 -68.35499999999999 94.06 -69.28999999999999 Q93.125 -70.22999999999999 91.875 -70.22999999999999 H28.125 Q26.875 -70.22999999999999 25.939999999999998 -69.28999999999999 Q25.0 -68.35499999999999 25.0 -67.10499999999999 V-3.3549999999999898 Q25.0 -2.1049999999999898 25.939999999999998 -1.1699999999999875 Q26.875 -0.22999999999998977 28.125 -0.22999999999998977 Z"/></g><g id="Ultralight-M" transform="matrix(1 0 0 1 506.415 1126)"><path d="M63.5 -22.22999999999999 H67.0 V-34.22999999999999 L79.25 -22.22999999999999 H84.5 L70.75 -35.47999999999999 L84.5 -48.22999999999999 H79.5 L67.0 -36.47999999999999 V-48.22999999999999 H63.5 V-22.22999999999999 Z M44.5 -22.22999999999999 H48.0 V-48.22999999999999 H37.0 V-44.72999999999999 H44.5 V-22.22999999999999 Z M29.0 3.2700000000000102 Q25.75 3.2700000000000102 23.625 1.1450000000000102 Q21.5 -0.9799999999999898 21.5 -4.22999999999999 V-66.22999999999999 Q21.5 -69.47999999999999 23.625 -71.60499999999999 Q25.75 -73.72999999999999 29.0 -73.72999999999999 H91.0 Q94.25 -73.72999999999999 96.375 -71.60499999999999 Q98.5 -69.47999999999999 98.5 -66.22999999999999 V-4.22999999999999 Q98.5 -0.9799999999999898 96.375 1.1450000000000102 Q94.25 3.2700000000000102 91.0 3.2700000000000102 H29.0 Z M29.0 -0.22999999999998977 H91.0 Q92.5 -0.22999999999998977 93.75 -1.4799999999999898 Q95.0 -2.7299999999999898 95.0 -4.22999999999999 V-66.22999999999999 Q95.0 -67.72999999999999 93.75 -68.97999999999999 Q92.5 -70.22999999999999 91.0 -70.22999999999999 H29.0 Q27.5 -70.22999999999999 26.25 -68.97999999999999 Q25.0 -67.72999999999999 25.0 -66.22999999999999 V-4.22999999999999 Q25.0 -2.7299999999999898 26.25 -1.4799999999999898 Q27.5 -0.22999999999998977 29.0 -0.22999999999998977 Z"/></g><g id="Bold-S" transform="matrix(1 0 0 1 2294.23 696)"><path d="M47.34 -25.761999999999993 H52.074 V-32.86299999999999 L57.598577999999996 -25.761999999999993 H62.924327999999996 L56.017422 -35.22999999999999 L62.924327999999996 -44.69799999999999 H57.598577999999996 L52.074 -37.596999999999994 V-44.69799999999999 H47.34 V-25.761999999999993 Z M37.872 -25.761999999999993 H42.606 V-44.69799999999999 H33.138 V-39.96399999999999 H37.872 V-25.761999999999993 Z M22.4865 1.2596719999999948 Q17.553672000000002 1.2596719999999948 14.202 -2.0919999999999987 Q10.850328 -5.443671999999992 10.850328 -10.376499999999993 V-60.083499999999994 Q10.850328 -65.01632799999999 14.202 -68.368 Q17.553672000000002 -71.71967199999999 22.4865 -71.71967199999999 H72.1935 Q77.126328 -71.71967199999999 80.478 -68.368 Q83.82967199999999 -65.01632799999999 83.82967199999999 -60.083499999999994 V-10.376499999999993 Q83.82967199999999 -5.443671999999992 80.478 -2.0919999999999987 Q77.126328 1.2596719999999948 72.1935 1.2596719999999948 H22.4865 Z M22.4865 -10.376499999999993 H72.1935 Q72.1935 -10.376499999999993 72.1935 -10.376499999999993 Q72.1935 -10.376499999999993 72.1935 -10.376499999999993 V-60.083499999999994 Q72.1935 -60.083499999999994 72.1935 -60.083499999999994 Q72.1935 -60.083499999999994 72.1935 -60.083499999999994 H22.4865 Q22.4865 -60.083499999999994 22.4865 -60.083499999999994 Q22.4865 -60.083499999999994 22.4865 -60.083499999999994 V-10.376499999999993 Q22.4865 -10.376499999999993 22.4865 -10.376499999999993 Q22.4865 -10.376499999999993 22.4865 -10.376499999999993 Z"/></g><g id="Semibold-S" transform="matrix(1 0 0 1 1998.1 696)"><path d="M47.34 -25.761999999999993 H52.074 V-32.86299999999999 L57.598577999999996 -25.761999999999993 H63.019008 L56.017422 -35.22999999999999 L63.019008 -44.69799999999999 H57.598577999999996 L52.074 -37.596999999999994 V-44.69799999999999 H47.34 V-25.761999999999993 Z M37.872 -25.761999999999993 H42.606 V-44.69799999999999 H33.138 V-39.96399999999999 H37.872 V-25.761999999999993 Z M21.994163999999998 -0.21733599999998887 Q17.951328 -0.21733599999998887 15.139332 -3.0293319999999966 Q12.327336 -5.841328000000004 12.327336 -9.884163999999998 V-60.575835999999995 Q12.327336 -64.61867199999999 15.139332 -67.430668 Q17.951328 -70.24266399999999 21.994163999999998 -70.24266399999999 H72.685836 Q76.72867199999999 -70.24266399999999 79.540668 -67.430668 Q82.352664 -64.61867199999999 82.352664 -60.575835999999995 V-9.884163999999998 Q82.352664 -5.841328000000004 79.540668 -3.0293319999999966 Q76.72867199999999 -0.21733599999998887 72.685836 -0.21733599999998887 H21.994163999999998 Z M21.994163999999998 -9.884163999999998 H72.685836 Q72.685836 -9.884163999999998 72.685836 -9.884163999999998 Q72.685836 -9.884163999999998 72.685836 -9.884163999999998 V-60.575835999999995 Q72.685836 -60.575835999999995 72.685836 -60.575835999999995 Q72.685836 -60.575835999999995 72.685836 -60.575835999999995 H21.994163999999998 Q21.994163999999998 -60.575835999999995 21.994163999999998 -60.575835999999995 Q21.994163999999998 -60.575835999999995 21.994163999999998 -60.575835999999995 V-9.884163999999998 Q21.994163999999998 -9.884163999999998 21.994163999999998 -9.884163999999998 Q21.994163999999998 -9.884163999999998 21.994163999999998 -9.884163999999998 Z"/></g><g id="Medium-S" transform="matrix(1 0 0 1 1701.85 696)"><path d="M47.34 -25.761999999999993 H52.074 V-32.86299999999999 L57.598577999999996 -25.761999999999993 H63.118422 L56.017422 -35.22999999999999 L63.118422 -44.69799999999999 H57.598577999999996 L52.074 -37.596999999999994 V-44.69799999999999 H47.34 V-25.761999999999993 Z M37.872 -25.761999999999993 H42.606 V-44.69799999999999 H33.138 V-39.96399999999999 H37.872 V-25.761999999999993 Z M21.596508 -1.301421999999988 Q18.145422 -1.301421999999988 15.778422 -3.6684219999999925 Q13.411422 -6.035421999999983 13.411422 -9.486507999999986 V-60.97349199999999 Q13.411422 -64.424578 15.778422 -66.79157799999999 Q18.145422 -69.15857799999999 21.596508 -69.15857799999999 H73.083492 Q76.53457800000001 -69.15857799999999 78.901578 -66.79157799999999 Q81.268578 -64.424578 81.268578 -60.97349199999999 V-9.486507999999986 Q81.268578 -6.035421999999983 78.901578 -3.6684219999999925 Q76.53457800000001 -1.301421999999988 73.083492 -1.301421999999988 H21.596508 Z M21.596508 -9.486507999999986 H73.083492 Q73.083492 -9.486507999999986 73.083492 -9.486507999999986 Q73.083492 -9.486507999999986 73.083492 -9.486507999999986 V-60.97349199999999 Q73.083492 -60.97349199999999 73.083492 -60.97349199999999 Q73.083492 -60.97349199999999 73.083492 -60.97349199999999 H21.596508 Q21.596508 -60.97349199999999 21.596508 -60.97349199999999 Q21.596508 -60.97349199999999 21.596508 -60.97349199999999 V-9.486507999999986 Q21.596508 -9.486507999999986 21.596508 -9.486507999999986 Q21.596508 -9.486507999999986 21.596508 -9.486507999999986 Z"/></g><g id="Regular-S" transform="matrix(1 0 0 1 1405.73 696)"><path d="M47.34 -25.761999999999993 H52.074 V-32.86299999999999 L57.598577999999996 -25.761999999999993 H63.118422 L56.017422 -35.22999999999999 L63.118422 -44.69799999999999 H57.598577999999996 L52.074 -37.596999999999994 V-44.69799999999999 H47.34 V-25.761999999999993 Z M37.872 -25.761999999999993 H42.606 V-44.69799999999999 H33.138 V-39.96399999999999 H37.872 V-25.761999999999993 Z M21.303 -2.0919999999999987 Q18.34425 -2.0919999999999987 16.275492 -4.165491999999986 Q14.202 -6.234249999999989 14.202 -9.192999999999998 V-61.266999999999996 Q14.202 -64.22574999999999 16.275492 -66.294508 Q18.34425 -68.368 21.303 -68.368 H73.377 Q76.33575 -68.368 78.404508 -66.294508 Q80.478 -64.22574999999999 80.478 -61.266999999999996 V-9.192999999999998 Q80.478 -6.234249999999989 78.404508 -4.165491999999986 Q76.33575 -2.0919999999999987 73.377 -2.0919999999999987 H21.303 Z M21.303 -9.192999999999998 H73.377 Q73.377 -9.192999999999998 73.377 -9.192999999999998 Q73.377 -9.192999999999998 73.377 -9.192999999999998 V-61.266999999999996 Q73.377 -61.266999999999996 73.377 -61.266999999999996 Q73.377 -61.266999999999996 73.377 -61.266999999999996 H21.303 Q21.303 -61.266999999999996 21.303 -61.266999999999996 Q21.303 -61.266999999999996 21.303 -61.266999999999996 V-9.192999999999998 Q21.303 -9.192999999999998 21.303 -9.192999999999998 Q21.303 -9.192999999999998 21.303 -9.192999999999998 Z"/></g><g id="Light-S" transform="matrix(1 0 0 1 1109.75 696)"><path d="M48.424085999999996 -26.35374999999999 H51.875172 V-33.653577999999996 L58.483836 -26.35374999999999 H62.82491400000001 L55.132164 -35.329414 L62.82491400000001 -44.106249999999996 H58.58325 L51.875172 -36.80642199999999 V-44.106249999999996 H48.424085999999996 V-26.35374999999999 Z M38.46375 -26.35374999999999 H42.01425 V-44.106249999999996 H33.72975 V-40.555749999999996 H38.46375 V-26.35374999999999 Z M22.4865 -4.0660780000000045 Q19.825992 -4.0660780000000045 17.998668 -5.888667999999996 Q16.176078 -7.715992 16.176078 -10.376499999999993 V-60.083499999999994 Q16.176078 -62.744007999999994 17.998668 -64.571332 Q19.825992 -66.39392199999999 22.4865 -66.39392199999999 H72.1935 Q74.854008 -66.39392199999999 76.681332 -64.571332 Q78.50392199999999 -62.744007999999994 78.50392199999999 -60.083499999999994 V-10.376499999999993 Q78.50392199999999 -7.715992 76.681332 -5.888667999999996 Q74.854008 -4.0660780000000045 72.1935 -4.0660780000000045 H22.4865 Z M22.4865 -9.192999999999998 H72.1935 Q72.586422 -9.192999999999998 72.984078 -9.585921999999997 Q73.377 -9.983577999999994 73.377 -10.376499999999993 V-60.083499999999994 Q73.377 -60.47642199999999 72.984078 -60.874078 Q72.586422 -61.266999999999996 72.1935 -61.266999999999996 H22.4865 Q22.093578 -61.266999999999996 21.695922 -60.874078 Q21.303 -60.47642199999999 21.303 -60.083499999999994 V-10.376499999999993 Q21.303 -9.983577999999994 21.695922 -9.585921999999997 Q22.093578 -9.192999999999998 22.4865 -9.192999999999998 Z"/></g><g id="Thin-S" transform="matrix(1 0 0 1 814.015 696)"><path d="M49.508172 -26.945499999999996 H51.780492 V-34.53883599999999 L59.373827999999996 -26.945499999999996 H62.626085999999994 L54.242172000000004 -35.428827999999996 L62.626085999999994 -43.51449999999999 H59.567922 L51.780492 -36.119991999999996 V-43.51449999999999 H49.508172 V-26.945499999999996 Z M39.0555 -26.945499999999996 H41.4225 V-43.51449999999999 H34.3215 V-41.147499999999994 H39.0555 V-26.945499999999996 Z M23.769414 -6.035421999999983 Q21.303 -6.035421999999983 19.726578 -7.61657799999999 Q18.145422 -9.192999999999998 18.145422 -11.659413999999998 V-58.800585999999996 Q18.145422 -61.266999999999996 19.726578 -62.84342199999999 Q21.303 -64.424578 23.769414 -64.424578 H70.910586 Q73.377 -64.424578 74.953422 -62.84342199999999 Q76.53457800000001 -61.266999999999996 76.53457800000001 -58.800585999999996 V-11.659413999999998 Q76.53457800000001 -9.192999999999998 74.953422 -7.61657799999999 Q73.377 -6.035421999999983 70.910586 -6.035421999999983 H23.769414 Z M23.769414 -9.192999999999998 H70.910586 Q71.899992 -9.192999999999998 72.638496 -9.93150399999999 Q73.377 -10.670007999999996 73.377 -11.659413999999998 V-58.800585999999996 Q73.377 -59.78999199999999 72.638496 -60.52849599999999 Q71.899992 -61.266999999999996 70.910586 -61.266999999999996 H23.769414 Q22.780008000000002 -61.266999999999996 22.041504 -60.52849599999999 Q21.303 -59.78999199999999 21.303 -58.800585999999996 V-11.659413999999998 Q21.303 -10.670007999999996 22.041504 -9.93150399999999 Q22.780008000000002 -9.192999999999998 23.769414 -9.192999999999998 Z"/></g><g id="Ultralight-S" transform="matrix(1 0 0 1 517.792 696)"><path d="M50.099922 -27.338421999999994 H51.681078 V-35.03117199999999 L59.965578 -27.338421999999994 H62.431992 L53.650422 -35.428827999999996 L62.431992 -43.12157799999999 H60.159672 L51.681078 -35.622921999999996 V-43.12157799999999 H50.099922 V-27.338421999999994 Z M39.448422 -27.338421999999994 H41.029578 V-43.12157799999999 H34.714422 V-41.54042199999999 H39.448422 V-27.338421999999994 Z M24.460577999999998 -7.218921999999992 Q22.192992 -7.218921999999992 20.758589999999998 -8.648589999999999 Q19.328922000000002 -10.08299199999999 19.328922000000002 -12.350577999999999 V-58.109421999999995 Q19.328922000000002 -60.37700799999999 20.758589999999998 -61.811409999999995 Q22.192992 -63.24107799999999 24.460577999999998 -63.24107799999999 H70.219422 Q72.487008 -63.24107799999999 73.92141 -61.811409999999995 Q75.351078 -60.37700799999999 75.351078 -58.109421999999995 V-12.350577999999999 Q75.351078 -10.08299199999999 73.92141 -8.648589999999999 Q72.487008 -7.218921999999992 70.219422 -7.218921999999992 H24.460577999999998 Z M24.460577999999998 -9.192999999999998 H70.219422 Q71.402922 -9.192999999999998 72.39232799999999 -10.177672000000001 Q73.377 -11.16707799999999 73.377 -12.350577999999999 V-58.109421999999995 Q73.377 -59.29292199999999 72.39232799999999 -60.28232799999999 Q71.402922 -61.266999999999996 70.219422 -61.266999999999996 H24.460577999999998 Q23.277078 -61.266999999999996 22.287672 -60.28232799999999 Q21.303 -59.29292199999999 21.303 -58.109421999999995 V-12.350577999999999 Q21.303 -11.16707799999999 22.287672 -10.177672000000001 Q23.277078 -9.192999999999998 24.460577999999998 -9.192999999999998 Z"/></g></g></svg>