<svg xmlns="http://www.w3.org/2000/svg" version="1.1" width="3300" height="2000"><g id="Notes"><style>
    text {
      font-family: monospace;
      text-anchor: middle;
    }
    text.emphasis {
      font-weight:bold;
    }
    text.lanchor {
      text-anchor: start;
    }
  </style><rect height="2200" id="artboard" fill="white" width="3300" x="0" y="0"/><line id="" style="fill:none;stroke:black;stroke-width:0.5;" x1="263" x2="3036" y1="292" y2="292"/><text class="lanchor emphasis" transform="matrix(1 0 0 1 263 322)">Weight/Scale Variations</text><text transform="matrix(1 0 0 1 559.711 322)">Ultralight</text><text transform="matrix(1 0 0 1 856.422 322)">Thin</text><text transform="matrix(1 0 0 1 1153.13 322)">Light</text><text transform="matrix(1 0 0 1 1449.84 322)">Regular</text><text transform="matrix(1 0 0 1 1746.56 322)">Medium</text><text transform="matrix(1 0 0 1 2043.27 322)">Semibold</text><text transform="matrix(1 0 0 1 2339.98 322)">Bold</text><text transform="matrix(1 0 0 1 2636.69 322)">Heavy</text><text transform="matrix(1 0 0 1 2933.4 322)">Black</text><text id="template-version" style="text-anchor: end;" transform="matrix(1 0 0 1 3036 1933)">Template v.1.0</text><text class="lanchor" transform="matrix(1 0 0 1 263 726)">Small</text><text class="lanchor" transform="matrix(1 0 0 1 263 1156)">Medium</text><text class="lanchor" transform="matrix(1 0 0 1 263 1586)">Large</text></g><g id="Guides"><g id="H-reference" style="fill:#27AAE1;stroke:none;" transform="matrix(1 0 0 1 339 696)"><path d="M 54.9316 0 L 57.666 0 L 30.5664 -70.459 L 28.0762 -70.459 L 0.976562 0 L 3.66211 0 L 12.9395 -24.4629 L 45.7031 -24.4629 Z M 29.1992 -67.0898 L 29.4434 -67.0898 L 44.8242 -26.709 L 13.8184 -26.709 Z"/></g><line id="Baseline-S" style="fill:none;stroke:#27AAE1;opacity:1;stroke-width:0.577;" x1="263" x2="3036" y1="696" y2="696"/><line id="Capline-S" style="fill:none;stroke:#27AAE1;opacity:1;stroke-width:0.577;" x1="263" x2="3036" y1="625.541" y2="625.541"/><g id="H-reference" style="fill:#27AAE1;stroke:none;" transform="matrix(1 0 0 1 339 1126)"><path d="M 54.9316 0 L 57.666 0 L 30.5664 -70.459 L 28.0762 -70.459 L 0.976562 0 L 3.66211 0 L 12.9395 -24.4629 L 45.7031 -24.4629 Z M 29.1992 -67.0898 L 29.4434 -67.0898 L 44.8242 -26.709 L 13.8184 -26.709 Z"/></g><line id="Baseline-M" style="fill:none;stroke:#27AAE1;opacity:1;stroke-width:0.577;" x1="263" x2="3036" y1="1126" y2="1126"/><line id="Capline-M" style="fill:none;stroke:#27AAE1;opacity:1;stroke-width:0.577;" x1="263" x2="3036" y1="1055.54" y2="1055.54"/><g id="H-reference" style="fill:#27AAE1;stroke:none;" transform="matrix(1 0 0 1 339 1556)"><path d="M 54.9316 0 L 57.666 0 L 30.5664 -70.459 L 28.0762 -70.459 L 0.976562 0 L 3.66211 0 L 12.9395 -24.4629 L 45.7031 -24.4629 Z M 29.1992 -67.0898 L 29.4434 -67.0898 L 44.8242 -26.709 L 13.8184 -26.709 Z"/></g><line id="Baseline-L" style="fill:none;stroke:#27AAE1;opacity:1;stroke-width:0.577;" x1="263" x2="3036" y1="1556" y2="1556"/><line id="Capline-L" style="fill:none;stroke:#27AAE1;opacity:1;stroke-width:0.577;" x1="263" x2="3036" y1="1485.54" y2="1485.54"/><rect height="119.336" id="left-margin" style="fill:darkred;stroke:none;opacity:0.4;" width="12.4512" x="1394.06" y="1030.79"/><rect height="119.336" id="right-margin" style="fill:darkgreen;stroke:none;opacity:0.4;" width="12.4512" x="1502.5112" y="1030.79"/><rect x="1406.5112" y="1045" width="96" height="96" fill="none" stroke="blue" stroke-dasharray="5"/><rect x="1394.06" y="1030.79" width="120.9024" height="119.336" fill="none" stroke="blue"/></g><g id="Symbols"><g id="Bold-L" transform="matrix(1 0 0 1 2266 1556)"><path d="M122.2275 15.241250000000015  127.71000000000001 9.436250000000015  113.8425 -3.042403749999984 V-23.297499999999985 H105.4575 V-0.39999999999998437 L122.2275 15.241250000000015 Z M15.963750000000001 -0.29018874999998445 V-70.3825 L77.4 -105.69624999999999 L139.15875 -70.3825 V-34.10124999999999 Q133.1925 -39.26124999999999 125.97075750000002 -42.32499999999999 Q118.74917625 -45.38874999999999 110.45625 -45.38874999999999 Q109.3275 -45.38874999999999 108.82311 -45.23894874999999 Q108.31888125 -45.08930874999999 107.715 -44.90499999999999 L124.32375 -54.741249999999994 V-61.67258124999999 L116.745 -66.02874999999999 L77.4 -42.969999999999985 L37.893750000000004 -66.02874999999999 L30.6375 -61.83383124999999 V-54.741249999999994 L70.6275 -31.68249999999999 V-19.588749999999983 Q69.015 -15.396249999999988 68.128125 -11.157632499999984 Q67.24125000000001 -6.919176249999978 67.24125000000001 -2.173749999999984 Q67.24125000000001 8.539861250000016 71.595 17.776100000000014 Q75.94875 27.012500000000017 84.01125 33.46250000000002 L15.963750000000001 -0.29018874999998445 Z M110.295 27.657500000000013 Q97.87875 27.657500000000013 89.01 18.869375000000016 Q80.14125 10.081250000000018 80.14125 -2.173749999999984 Q80.14125 -14.751249999999985 89.01 -23.61999999999999 Q97.87875 -32.48874999999998 110.295 -32.48874999999998 Q122.38875 -32.48874999999998 131.41875000000002 -23.61999999999999 Q140.44875 -14.751249999999985 140.44875 -2.173749999999984 Q140.44875 10.081250000000018 131.41875000000002 18.869375000000016 Q122.38875 27.657500000000013 110.295 27.657500000000013 Z"/></g><g id="Semibold-L" transform="matrix(1 0 0 1 1970.27 1556)"><path d="M123.41929875 15.731933750000017  128.55124125 10.417778750000014  114.75388500000001 -2.0337849999999875 V-23.01708624999999 H106.85956875000001 V0.37109750000001185 L123.41929875 15.731933750000017 Z M16.3143075 -0.4780449999999803 V-70.10208624999999 L77.4 -105.20556624999998 L138.66806625 -70.10208624999999 V-36.20443374999999 Q132.91208625 -40.59317499999999 126.13104 -43.166241249999985 Q119.34999375 -45.73930749999998 111.64804875 -45.73930749999998 Q110.23888500000001 -45.73930749999998 109.32282375 -45.54951624999998 Q108.4067625 -45.359725 107.43458625 -45.185413749999995 L125.16499125 -55.65263499999999 V-62.16439374999999 L118.00694250000001 -66.23901999999998 L77.4 -42.47931624999998 L36.6318075 -66.23901999999998 L29.726115000000004 -62.255499999999984 V-55.65263499999999 L71.04820125 -31.75264374999999 V-19.869163749999984 Q69.22527 -15.466393749999988 68.23326 -10.932366249999987 Q67.24125000000001 -6.398338749999986 67.24125000000001 -1.3325087499999881 Q67.24125000000001 8.859458750000016 71.20945125 17.690637500000015 Q75.17765250000001 26.521816250000015 82.46889375 32.90167250000002 L16.3143075 -0.4780449999999803 Z M111.48679874999999 29.760683750000016 Q98.579865 29.760683750000016 89.3605575 20.586848750000016 Q80.14125 11.413175000000013 80.14125 -1.3325087499999881 Q80.14125 -14.400692499999991 89.3605575 -23.61999999999999 Q98.579865 -32.83930749999999 111.48679874999999 -32.83930749999999 Q124.14137625000001 -32.83930749999999 133.48678125 -23.61999999999999 Q142.8323475 -14.400692499999991 142.8323475 -1.3325087499999881 Q142.8323475 11.413175000000013 133.48678125 20.586848750000016 Q124.14137625000001 29.760683750000016 111.48679874999999 29.760683750000016 Z"/></g><g id="Medium-L" transform="matrix(1 0 0 1 1674.31 1556)"><path d="M124.31326874999999 16.100067500000016  129.1822125 11.153885000000013  115.43742375 -1.2771999999999863 V-22.806816249999983 H107.91124125 V0.9496625000000165 L124.31326874999999 16.100067500000016 Z M16.577145 -0.6191387499999834 V-69.89181624999999 L77.4 -104.83743249999998 L138.2999325 -69.89181624999999 V-37.781942499999985 Q132.70181625 -41.59227999999999 126.25117125 -43.797212499999986 Q119.80068750000001 -46.002144999999985 112.54201875 -46.002144999999985 Q110.92242375 -46.002144999999985 109.69773 -45.782361249999994 Q108.47287500000002 -45.56257749999999 107.22431625 -45.39568374999999 L125.7959625 -56.336173749999986 V-62.53333374999998 L118.95348000000001 -66.39688374999999 L77.4 -42.111182499999984 L35.68527 -66.39688374999999 L29.042576250000003 -62.571872499999984 V-56.336173749999986 L71.36360625 -31.805211249999985 V-20.079433749999986 Q69.38313375 -15.51896124999999 68.31211125 -10.763376249999986 Q67.24125000000001 -6.007629999999985 67.24125000000001 -0.7015374999999864 Q67.24125000000001 9.099237500000015 70.92016875 17.626460000000016 Q74.5990875 26.153682500000016 81.31208625000001 32.48097125000002 L16.577145 -0.6191387499999834 Z M112.38076874999999 31.338192500000012 Q99.10570125000001 31.338192500000012 89.623395 21.875236250000015 Q80.14125 12.412280000000013 80.14125 -0.7015374999999864 Q80.14125 -14.137854999999988 89.623395 -23.61999999999999 Q99.10570125000001 -33.10214499999998 112.38076874999999 -33.10214499999998 Q125.45604750000001 -33.10214499999998 135.03800625000002 -23.61999999999999 Q144.62012625 -14.137854999999988 144.62012625 -0.7015374999999864 Q144.62012625 12.412280000000013 135.03800625000002 21.875236250000015 Q125.45604750000001 31.338192500000012 112.38076874999999 31.338192500000012 Z"/></g><g id="Regular-L" transform="matrix(1 0 0 1 1378.56 1556)"><path d="M124.96875 16.370000000000015  129.645 11.693750000000016  115.93875 -0.7224999999999824 V-22.65249999999999 H108.6825 V1.3737500000000153 L124.96875 16.370000000000015 Z M16.77 -0.7224999999999824 V-69.73749999999998 L77.4 -104.5675 L138.03 -69.73749999999998 V-38.938749999999985 Q132.5475 -42.32499999999999 126.339375 -44.25999999999999 Q120.13125000000001 -46.19499999999999 113.1975 -46.19499999999999 Q111.42375 -46.19499999999999 109.9725 -45.953124999999986 Q108.52125000000001 -45.71124999999999 107.07000000000001 -45.54999999999998 L126.25875 -56.83749999999999 V-62.803749999999994 L119.64750000000001 -66.51249999999999 L77.4 -41.84124999999999 L34.99125 -66.51249999999999 L28.54125 -62.803749999999994 V-56.83749999999999 L71.595 -31.843749999999986 V-20.233749999999986 Q69.49875 -15.557499999999983 68.37 -10.639374999999987 Q67.24125000000001 -5.7212499999999835 67.24125000000001 -0.2387499999999818 Q67.24125000000001 9.275000000000013 70.708125 17.579375000000017 Q74.175 25.883750000000017 80.46375 32.172500000000014 L16.77 -0.7224999999999824 Z M113.03625000000001 32.49500000000002 Q99.49125000000001 32.49500000000002 89.81625 22.820000000000014 Q80.14125 13.145000000000014 80.14125 -0.2387499999999818 Q80.14125 -13.944999999999986 89.81625 -23.61999999999999 Q99.49125000000001 -33.29499999999999 113.03625000000001 -33.29499999999999 Q126.42 -33.29499999999999 136.175625 -23.61999999999999 Q145.93125 -13.944999999999986 145.93125 -0.2387499999999818 Q145.93125 13.145000000000014 136.175625 22.820000000000014 Q126.42 32.49500000000002 113.03625000000001 32.49500000000002 Z"/></g><g id="Light-L" transform="matrix(1 0 0 1 1082.77 1556)"><path d="M124.16250000000001 14.385173750000014  128.40450375 10.143170000000012  115.25650125 -2.0250774999999805 V-23.210747499999982 H108.8685825 V-0.014612499999984152 L124.16250000000001 14.385173750000014 Z M19.995161250000002 -2.583163749999983 V-67.87683624999998 L77.4 -100.84601125 L134.80483875000002 -67.87683624999998 V-41.29557999999999 Q129.81850500000002 -43.99958124999999 124.27714875000001 -45.53145624999999 Q118.7357925 -47.06333124999999 112.6392525 -47.06333124999999 Q110.77052624999999 -47.06333124999999 109.1652825 -46.79049624999999 Q107.5598775 -46.517499999999984 106.01558625 -46.29432999999999 L125.39041875000001 -57.64374999999998 V-62.30758374999999 L120.019665 -65.33408499999999 L77.4 -40.47675249999999 L34.681166250000004 -65.33408499999999 L29.40958125 -62.277913749999996 V-57.70583124999999 L72.773415 -32.525998749999985 V-23.458911249999986 Q70.03684125 -18.46580499999999 68.577045 -13.051352499999993 Q67.11724875 -7.637061249999981 67.11724875 -1.54132749999998 Q67.11724875 7.042171250000017 70.05683625 14.664297500000014 Q72.99658500000001 22.286423750000015 78.41700375 28.264928750000017 L19.995161250000002 -2.583163749999983 Z M112.59797250000001 28.525508750000014 Q100.17349875000001 28.525508750000014 91.33587 19.687880000000014 Q82.49808 10.850090000000016 82.49808 -1.4792462499999814 Q82.49808 -14.03739624999998 91.34006250000002 -22.859867499999993 Q100.18188375000001 -31.682338749999985 112.60619625 -31.682338749999985 Q124.86942 -31.682338749999985 133.78767375 -22.859867499999993 Q142.70608875000002 -14.03739624999998 142.70608875000002 -1.4792462499999814 Q142.70608875000002 10.850090000000016 133.78348125 19.687880000000014 Q124.861035 28.525508750000014 112.59797250000001 28.525508750000014 Z"/></g><g id="Thin-L" transform="matrix(1 0 0 1 787.282 1556)"><path d="M123.35625 12.400831250000014  127.16416875 8.592751250000013  114.57441375 -3.327332499999983 V-23.768833749999985 H109.054665 V-1.4026524999999879 L123.35625 12.400831250000014 Z M23.22 -4.4436662499999855 V-66.01633374999999 L77.4 -97.12516749999998 L131.58 -66.01633374999999 V-43.652248749999984 Q127.0898325 -45.67400124999999 122.21508375 -46.802751249999986 Q117.34033500000001 -47.93150124999998 112.08116625000001 -47.93150124999998 Q110.11746375 -47.93150124999998 108.35806500000001 -47.62770624999999 Q106.59866625000001 -47.32374999999999 104.96133375000001 -47.03849874999999 L124.52224875 -58.44999999999999 V-61.81141749999999 L120.39166875000001 -64.15583124999999 L77.4 -39.11241624999998 L34.3710825 -64.15583124999999 L30.27775125 -61.75223874999999 V-58.57400124999998 L73.95166875000001 -33.208086249999994 V-26.68374999999999 Q70.57477125 -21.37346499999998 68.78392875 -15.463007499999982 Q66.9932475 -9.552711249999987 66.9932475 -2.8435824999999824 Q66.9932475 4.809665000000017 69.40570875 11.749542500000015 Q71.81833125 18.689581250000014 76.37058 24.358163750000017 L23.22 -4.4436662499999855 Z M112.159695 24.556662500000016 Q100.85558625 24.556662500000016 92.85516750000001 16.556082500000013 Q84.85474875 8.555663750000015 84.85474875 -2.719581249999983 Q84.85474875 -14.129792499999986 92.86355250000001 -22.099896249999986 Q100.87235625000001 -30.069999999999993 112.17630375 -30.069999999999993 Q123.31900125 -30.069999999999993 131.40020625 -22.099896249999986 Q139.48125000000002 -14.129792499999986 139.48125000000002 -2.719581249999983 Q139.48125000000002 8.555663750000015 131.39182125 16.556082500000013 Q123.30239250000001 24.556662500000016 112.159695 24.556662500000016 Z"/></g><g id="Ultralight-L" transform="matrix(1 0 0 1 491.205 1556)"><path d="M122.8725 11.210000000000015  126.42 7.662500000000016  114.165 -4.108749999999986 V-24.10374999999999 H109.16625 V-2.2355087499999797 L122.8725 11.210000000000015 Z M25.155 -5.559999999999988 V-64.89999999999999 L77.4 -94.89249999999998 L129.645 -64.89999999999999 V-45.06624999999998 Q125.4525 -46.67874999999998 120.9778125 -47.56562499999998 Q116.503125 -48.452499999999986 111.74625 -48.452499999999986 Q109.72562625 -48.452499999999986 107.87367 -48.12999999999998 Q106.02187500000001 -47.80749999999999 104.32875 -47.484999999999985 L124.00125 -58.93374999999999 V-61.51374999999999 L120.61500000000001 -63.44874999999999 L77.4 -38.29374999999999 L34.185 -63.44874999999999 L30.798750000000002 -61.4366725 V-59.094999999999985 L74.65875 -33.61749999999999 V-28.61874999999999 Q70.89759375 -23.11835124999999 68.90809125 -16.910226249999987 Q66.91875 -10.702101249999984 66.91875 -3.624999999999986 Q66.91875 3.470000000000013 69.015 10.000625000000014 Q71.11125 16.531250000000014 75.1425 22.013750000000016 L25.155 -5.559999999999988 Z M111.89669625 22.175000000000015 Q101.265 22.175000000000015 93.766875 14.676875000000017 Q86.26875 7.178750000000015 86.26875 -3.4637499999999832 Q86.26875 -14.185262499999986 93.77767875 -21.643881249999986 Q101.2866075 -29.102499999999992 111.91830375 -29.102499999999992 Q122.38875 -29.102499999999992 129.9675 -21.643881249999986 Q137.54625000000001 -14.185262499999986 137.54625000000001 -3.4637499999999832 Q137.54625000000001 7.178750000000015 129.95669625 14.676875000000017 Q122.3671425 22.175000000000015 111.89669625 22.175000000000015 Z"/></g><g id="Bold-M" transform="matrix(1 0 0 1 2281.8 1126)"><path d="M93.5 8.02000000000001  98.5 2.8950000000000102  88.75 -6.752874999999989 V-22.60499999999999 H81.625 V-3.9799999999999898 L93.5 8.02000000000001 Z M9.25 -6.22999999999999 V-64.22999999999999 L60.0 -93.35499999999999 L110.75 -64.22999999999999 V-31.22999999999999 Q105.75 -36.10499999999999 99.25 -38.91749999999999 Q92.75 -41.72999999999999 85.25 -41.72999999999999 Q85.75 -41.72999999999999 86.3125 -41.79249999999999 Q86.875 -41.85499999999999 87.375 -41.97999999999999 L93.75 -45.72999999999999 V-54.22999999999999 L85.375 -59.10499999999999 L60.0 -44.22999999999999 L34.625 -59.10499999999999 L26.25 -54.22999999999999 V-45.85499999999999 L52.125 -30.72999999999999 V-20.60499999999999 Q50.625 -17.10499999999999 49.75 -13.29249999999999 Q48.875 -9.47999999999999 48.875 -5.35499999999999 Q48.875 2.1450000000000102 51.75 8.83250000000001 Q54.625 15.52000000000001 59.75 20.52000000000001 L9.25 -6.22999999999999 Z M85.25 20.89500000000001 Q74.375 20.89500000000001 66.625 13.20750000000001 Q58.875 5.52000000000001 58.875 -5.35499999999999 Q58.875 -16.22999999999999 66.625 -23.97999999999999 Q74.375 -31.72999999999999 85.25 -31.72999999999999 Q96.125 -31.72999999999999 103.875 -23.97999999999999 Q111.625 -16.22999999999999 111.625 -5.35499999999999 Q111.625 5.52000000000001 103.875 13.20750000000001 Q96.125 20.89500000000001 85.25 20.89500000000001 Z"/></g><g id="Semibold-M" transform="matrix(1 0 0 1 1985.97 1126)"><path d="M94.5325 8.346125000000011  99.09775 3.7101250000000086  89.4565 -5.873374999999989 V-22.22462499999999 H82.92925 V-3.327874999999988 L94.5325 8.346125000000011 Z M10.010875 -6.664749999999991 V-63.74087499999999 L60.0 -92.431125 L109.934875 -63.74087499999999 V-33.24074999999999 Q105.097875 -37.30062499999999 99.114125 -39.623999999999995 Q93.130375 -41.947374999999994 86.2825 -41.947374999999994 Q86.2935 -41.947374999999994 86.339625 -41.95549999999999 Q86.385875 -41.96374999999999 86.39675 -42.03437499999998 L94.565125 -46.816874999999996 V-54.71912499999999 L86.788 -59.21374999999999 L60.0 -43.57787499999999 L33.212 -59.21374999999999 L25.3805 -54.664749999999984 V-46.941874999999996 L52.72275 -30.947374999999987 V-21.03974999999999 Q50.951125 -17.322374999999987 49.967375 -13.210999999999991 Q48.98375 -9.099624999999989 48.98375 -4.648499999999991 Q48.98375 2.253750000000011 51.39675 8.45212500000001 Q53.809875 14.65050000000001 58.119625 19.54175000000001 L10.010875 -6.664749999999991 Z M86.2825 22.57962500000001 Q75.027125 22.57962500000001 67.005375 14.59325000000001 Q58.98375 6.606875000000009 58.98375 -4.648499999999991 Q58.98375 -15.903874999999992 67.005375 -23.92562499999999 Q75.027125 -31.947374999999987 86.2825 -31.947374999999987 Q97.538 -31.947374999999987 105.559625 -23.92562499999999 Q113.581375 -15.903874999999992 113.581375 -4.648499999999991 Q113.581375 6.606875000000009 105.559625 14.59325000000001 Q97.538 22.57962500000001 86.2825 22.57962500000001 Z"/></g><g id="Medium-M" transform="matrix(1 0 0 1 1689.91 1126)"><path d="M95.307 8.59062500000001  99.54625 4.321625000000012  89.986375 -5.21374999999999 V-21.939249999999987 H83.907625 V-2.8387499999999903 L95.307 8.59062500000001 Z M10.5815 -6.990874999999988 V-63.373999999999995 L60.0 -91.738125 L109.323375 -63.373999999999995 V-34.74899999999999 Q104.60875 -38.19737499999999 99.01225 -40.153874999999985 Q93.41575 -42.11037499999999 87.057 -42.11037499999999 Q86.701125 -42.11037499999999 86.36 -42.07787499999999 Q86.019 -42.045249999999996 85.663 -42.075124999999986 L95.176625 -47.63212499999999 V-55.085999999999984 L87.84775 -59.295249999999996 L60.0 -43.08874999999999 L32.15225 -59.295249999999996 L24.72825 -54.99087499999999 V-47.75712499999999 L53.17125 -31.11037499999999 V-21.36587499999999 Q51.195625 -17.48537499999999 50.130375 -13.149874999999987 Q49.06525 -8.814249999999987 49.06525 -4.118624999999991 Q49.06525 2.335250000000009 51.13175 8.166750000000011 Q53.198375 13.99825000000001 56.89675 18.80800000000001 L10.5815 -6.990874999999988 Z M87.057 23.84337500000001 Q75.51625 23.84337500000001 67.29075 15.63275000000001 Q59.06525 7.422125000000012 59.06525 -4.118624999999991 Q59.06525 -15.65937499999999 67.29075 -23.884874999999987 Q75.51625 -32.11037499999999 87.057 -32.11037499999999 Q98.59775 -32.11037499999999 106.823375 -23.884874999999987 Q115.048875 -15.65937499999999 115.048875 -4.118624999999991 Q115.048875 7.422125000000012 106.823375 15.63275000000001 Q98.59775 23.84337500000001 87.057 23.84337500000001 Z"/></g><g id="Regular-M" transform="matrix(1 0 0 1 1394.06 1126)"><path d="M95.875 8.77000000000001  99.875 4.77000000000001  90.375 -4.72999999999999 V-21.72999999999999 H84.625 V-2.4799999999999898 L95.875 8.77000000000001 Z M11.0 -7.22999999999999 V-63.10499999999999 L60.0 -91.22999999999999 L108.875 -63.10499999999999 V-35.85499999999999 Q104.25 -38.85499999999999 98.9375 -40.54249999999999 Q93.625 -42.22999999999999 87.625 -42.22999999999999 Q87.0 -42.22999999999999 86.375 -42.16749999999999 Q85.75 -42.10499999999999 85.125 -42.10499999999999 L95.625 -48.22999999999999 V-55.35499999999999 L88.625 -59.35499999999999 L60.0 -42.72999999999999 L31.375 -59.35499999999999 L24.25 -55.22999999999999 V-48.35499999999999 L53.5 -31.22999999999999 V-21.60499999999999 Q51.375 -17.60499999999999 50.25 -13.10499999999999 Q49.125 -8.60499999999999 49.125 -3.7299999999999898 Q49.125 2.3950000000000102 50.9375 7.95750000000001 Q52.75 13.52000000000001 56.0 18.27000000000001 L11.0 -7.22999999999999 Z M87.625 24.77000000000001 Q75.875 24.77000000000001 67.5 16.39500000000001 Q59.125 8.02000000000001 59.125 -3.7299999999999898 Q59.125 -15.47999999999999 67.5 -23.85499999999999 Q75.875 -32.22999999999999 87.625 -32.22999999999999 Q99.375 -32.22999999999999 107.75 -23.85499999999999 Q116.125 -15.47999999999999 116.125 -3.7299999999999898 Q116.125 8.02000000000001 107.75 16.39500000000001 Q99.375 24.77000000000001 87.625 24.77000000000001 Z"/></g><g id="Light-M" transform="matrix(1 0 0 1 1098.18 1126)"><path d="M95.875 6.462125000000011  99.490375 2.8467500000000108  90.0865 -6.5569999999999915 V-23.364749999999987 H84.9135 V-4.49937499999999 L95.875 6.462125000000011 Z M13.500125 -8.672374999999988 V-61.66262499999999 L60.0 -88.345125 L106.374875 -61.66262499999999 V-38.499374999999986 Q102.1825 -40.874374999999986 97.495125 -42.225374999999985 Q92.807625 -43.57624999999999 87.576875 -43.57624999999999 Q86.903875 -43.57624999999999 86.182625 -43.48974999999999 Q85.4615 -43.40312499999999 84.788375 -43.35512499999999 L95.625 -49.67237499999999 V-55.35499999999999 L89.875125 -58.63374999999999 L60.0 -41.28762499999999 L30.124875 -58.63374999999999 L24.25 -55.22999999999999 V-49.79737499999999 L54.750125 -31.951249999999987 V-24.393624999999993 Q52.2885 -20.297499999999992 50.99525 -15.581124999999993 Q49.702 -10.864749999999987 49.702 -5.701249999999991 Q49.702 0.18325000000001168 51.41825 5.55350000000001 Q53.134625 10.92362500000001 56.192375 15.52937500000001 L13.500125 -8.672374999999988 Z M87.625 20.34662500000001 Q76.88475 20.34662500000001 69.254875 12.71687500000001 Q61.625125 5.087125000000011 61.625125 -5.653249999999989 Q61.625125 -16.39349999999999 69.254875 -24.02324999999999 Q76.88475 -31.65299999999999 87.625 -31.65299999999999 Q98.36525 -31.65299999999999 105.995125 -24.02324999999999 Q113.624875 -16.39349999999999 113.624875 -5.653249999999989 Q113.624875 5.087125000000011 105.995125 12.71687500000001 Q98.36525 20.34662500000001 87.625 20.34662500000001 Z"/></g><g id="Thin-M" transform="matrix(1 0 0 1 802.565 1126)"><path d="M95.875 4.15462500000001  99.10575 0.9238750000000095  89.798125 -8.383874999999989 V-24.99924999999999 H85.201875 V-6.518374999999988 L95.875 4.15462500000001 Z M16.0 -10.11462499999999 V-60.22037499999999 L60.0 -85.46074999999999 L103.875 -60.22037499999999 V-41.14337499999999 Q100.115375 -42.89337499999999 96.052875 -43.90787499999999 Q91.990375 -44.92224999999999 87.528875 -44.92224999999999 Q86.80775 -44.92224999999999 85.990375 -44.81174999999999 Q85.173125 -44.70112499999999 84.451875 -44.60499999999999 L95.625 -51.11462499999999 V-55.35499999999999 L91.125 -57.91274999999999 L60.0 -39.84537499999999 L28.875 -57.91274999999999 L24.25 -55.22999999999999 V-51.23962499999999 L56.0 -32.67224999999999 V-27.18187499999999 Q53.201875 -22.98962499999999 51.740375 -18.05687499999999 Q50.278875 -13.12424999999999 50.278875 -7.672249999999991 Q50.278875 -2.027999999999988 51.899 3.1498750000000086 Q53.51925 8.327750000000009 56.384625 12.78925000000001 L16.0 -10.11462499999999 Z M87.625 15.92387500000001 Q77.89425 15.92387500000001 71.009625 9.03925000000001 Q64.125 2.15462500000001 64.125 -7.5761249999999905 Q64.125 -17.30687499999999 71.009625 -24.19149999999999 Q77.89425 -31.07612499999999 87.625 -31.07612499999999 Q97.35575 -31.07612499999999 104.240375 -24.19149999999999 Q111.125 -17.30687499999999 111.125 -7.5761249999999905 Q111.125 2.15462500000001 104.240375 9.03925000000001 Q97.35575 15.92387500000001 87.625 15.92387500000001 Z"/></g><g id="Ultralight-M" transform="matrix(1 0 0 1 506.415 1126)"><path d="M95.875 2.7700000000000102  98.875 -0.22999999999998977  89.625 -9.47999999999999 V-25.97999999999999 H85.375 V-7.72999999999999 L95.875 2.7700000000000102 Z M17.5 -10.97999999999999 V-59.35499999999999 L60.0 -83.72999999999999 L102.375 -59.35499999999999 V-42.72999999999999 Q98.875 -44.10499999999999 95.1875 -44.91749999999999 Q91.5 -45.72999999999999 87.5 -45.72999999999999 Q86.75 -45.72999999999999 85.875 -45.60499999999999 Q85.0 -45.47999999999999 84.25 -45.35499999999999 L95.625 -51.97999999999999 V-55.35499999999999 L91.875 -57.47999999999999 L60.0 -38.97999999999999 L28.125 -57.47999999999999 L24.25 -55.22999999999999 V-52.10499999999999 L56.75 -33.10499999999999 V-28.85499999999999 Q53.75 -24.60499999999999 52.1875 -19.54249999999999 Q50.625 -14.47999999999999 50.625 -8.85499999999999 Q50.625 -3.3549999999999898 52.1875 1.7075000000000102 Q53.75 6.77000000000001 56.5 11.14500000000001 L17.5 -10.97999999999999 Z M87.625 13.27000000000001 Q78.5 13.27000000000001 72.0625 6.83250000000001 Q65.625 0.39500000000001023 65.625 -8.72999999999999 Q65.625 -17.85499999999999 72.0625 -24.29249999999999 Q78.5 -30.72999999999999 87.625 -30.72999999999999 Q96.75 -30.72999999999999 103.1875 -24.29249999999999 Q109.625 -17.85499999999999 109.625 -8.72999999999999 Q109.625 0.39500000000001023 103.1875 6.83250000000001 Q96.75 13.27000000000001 87.625 13.27000000000001 Z"/></g><g id="Bold-S" transform="matrix(1 0 0 1 2294.23 696)"><path d="M71.897625 -1.5988749999999872  76.434375 -6.234249999999989  69.62925 -12.958798374999986 V-22.90187499999999 H63.218625 V-10.376499999999986 L71.897625 -1.5988749999999872 Z M9.66525 -12.940749999999987 V-57.519249999999985 L47.34 -79.21674999999999 L85.01475 -57.519249999999985 V-31.18637499999999 Q81.36562500000001 -34.638249999999985 76.631625 -36.70937499999999 Q71.897625 -38.78049999999999 66.47325000000001 -38.78049999999999 Q66.769125 -38.78049999999999 67.0156875 -38.78049999999999 Q67.26225000000001 -38.78049999999999 67.558125 -38.78049999999999 L70.02375 -40.25987499999999 V-48.84024999999999 L63.415875 -52.68662499999999 L47.34 -43.31724999999999 L31.264125 -52.68662499999999 L24.65625 -48.84024999999999 V-40.358499999999985 L40.337625 -31.18637499999999 V-20.33762499999999 Q39.943125 -18.167874999999988 39.64725 -15.998124999999987 Q39.351375000000004 -13.828374999999987 39.351375000000004 -11.658624999999986 Q39.351375000000004 -6.332874999999987 41.4225 -1.500249999999987 Q43.493625 3.332375000000013 47.14275 6.882875000000014 L9.66525 -12.940749999999987 Z M66.47325000000001 8.263625000000014 Q58.188750000000006 8.263625000000014 52.3205625 2.4447500000000133 Q46.452375 -3.374124999999987 46.452375 -11.658624999999986 Q46.452375 -19.943124999999988 52.3205625 -25.811312499999985 Q58.188750000000006 -31.67949999999999 66.47325000000001 -31.67949999999999 Q74.75775 -31.67949999999999 80.6259375 -25.811312499999985 Q86.494125 -19.943124999999988 86.494125 -11.658624999999986 Q86.494125 -3.374124999999987 80.6259375 2.4447500000000133 Q74.75775 8.263625000000014 66.47325000000001 8.263625000000014 Z"/></g><g id="Semibold-S" transform="matrix(1 0 0 1 1998.1 696)"><path d="M72.7122675 -1.3415623749999863  76.90599975 -5.591116374999988  70.18667850000001 -12.264872874999988 V-22.601759124999987 H64.24767824999999 V-9.861973374999987 L72.7122675 -1.3415623749999863 Z M10.265580375 -13.283767749999988 V-57.133330374999986 L47.34 -78.48781262499999 L84.371616375 -57.133330374999986 V-32.77285674999999 Q80.851098375 -35.581598124999985 76.52441962500001 -37.26680349999999 Q72.19774087500001 -38.95200887499999 67.2878925 -38.95200887499999 Q67.1979465 -38.95200887499999 67.03708912500001 -38.909106999999985 Q66.876330375 -38.866303749999986 66.78628575 -38.82340187499998 L70.666883625 -41.11741937499999 V-49.22616962499999 L64.530732 -52.77242874999999 L47.34 -42.80272337499999 L30.149268000000003 -52.77242874999999 L23.9702145 -49.183267749999985 V-41.216044374999996 L40.80924975 -31.357883874999985 V-20.68064274999999 Q40.200437625 -18.339383874999985 39.818758875 -15.93382149999999 Q39.43717875 -13.528259124999988 39.43717875 -11.10119649999999 Q39.43717875 -6.247071249999987 41.14378575 -1.8003658749999882 Q42.850491375 2.6463395000000123 45.856384125 6.111035750000013 L10.265580375 -13.283767749999988 Z M67.2878925 9.592794125000013 Q58.703276625 9.592794125000013 52.620678375000004 3.538106750000013 Q46.53817875 -2.516580624999987 46.53817875 -11.10119649999999 Q46.53817875 -19.68581237499999 52.620678375000004 -25.768410624999987 Q58.703276625 -31.851008874999984 67.2878925 -31.851008874999984 Q75.872607 -31.851008874999984 81.955106625 -25.768410624999987 Q88.037704875 -19.68581237499999 88.037704875 -11.10119649999999 Q88.037704875 -2.516580624999987 81.955106625 3.538106750000013 Q75.872607 9.592794125000013 67.2878925 9.592794125000013 Z"/></g><g id="Medium-S" transform="matrix(1 0 0 1 1701.85 696)"><path d="M73.32334800000001 -1.1486518749999863  77.25986625 -5.108642874999987  70.604749875 -11.744428749999987 V-22.376598249999986 H65.019616125 V-9.476053749999988 L73.32334800000001 -1.1486518749999863 Z M10.7158035 -13.541080374999986 V-56.84386599999999 L47.34 -77.941035625 L83.889142875 -56.84386599999999 V-33.962865999999984 Q80.46517875 -36.28913387499998 76.44404025 -37.68487487499999 Q72.42290175000001 -39.08061587499999 67.898973 -39.08061587499999 Q67.519562625 -39.08061587499999 67.053165 -39.00566087499999 Q66.586866 -38.930607249999994 66.207357 -38.855553624999985 L71.14935712500001 -41.76065162499999 V-49.515633999999984 L65.36687475000001 -52.83673225 L47.34 -42.41680374999999 L29.313125250000002 -52.83673225 L23.45558925 -49.44058037499999 V-41.859276624999985 L41.16311625 -31.486490874999987 V-20.937955374999987 Q40.393348125 -18.467990874999987 39.947365875 -15.885593874999987 Q39.50148225 -13.303098249999984 39.50148225 -10.68312512499999 Q39.50148225 -6.182767749999989 40.93470075 -2.0255267499999867 Q42.368017875 2.1317142500000124 44.89153575 5.532107000000013 L10.7158035 -13.541080374999986 Z M67.898973 10.589892875000015 Q59.08919625 10.589892875000015 52.845839250000004 4.358272250000013 Q46.60248225 -1.8733483749999849 46.60248225 -10.68312512499999 Q46.60248225 -19.492901874999987 52.845839250000004 -25.736258874999983 Q59.08919625 -31.979615874999986 67.898973 -31.979615874999986 Q76.70874975000001 -31.979615874999986 82.952205375 -25.736258874999983 Q89.195562375 -19.492901874999987 89.195562375 -10.68312512499999 Q89.195562375 -1.8733483749999849 82.952205375 4.358272250000013 Q76.70874975000001 10.589892875000015 67.898973 10.589892875000015 Z"/></g><g id="Regular-S" transform="matrix(1 0 0 1 1405.73 696)"><path d="M73.7715 -1.007124999999986  77.51925 -4.754874999999988  70.911375 -11.362749999999988 V-22.211499999999987 H65.58562500000001 V-9.192999999999987 L73.7715 -1.007124999999986 Z M11.046000000000001 -13.729749999999989 V-56.631624999999985 L47.34 -77.54012499999999 L83.535375 -56.631624999999985 V-34.83549999999999 Q80.182125 -36.807999999999986 76.3850625 -37.99149999999999 Q72.58800000000001 -39.17499999999999 68.347125 -39.17499999999999 Q67.755375 -39.17499999999999 67.065 -39.07637499999999 Q66.37462500000001 -38.977749999999986 65.782875 -38.87912499999999 L71.503125 -42.23237499999999 V-49.72787499999999 L65.980125 -52.88387499999999 L47.34 -42.13374999999999 L28.699875000000002 -52.88387499999999 L23.07825 -49.62924999999999 V-42.33099999999999 L41.4225 -31.580874999999992 V-21.12662499999999 Q40.534875 -18.56237499999999 40.04175 -15.850187499999986 Q39.548625 -13.137999999999987 39.548625 -10.376499999999986 Q39.548625 -6.135624999999987 40.7814375 -2.1906249999999865 Q42.014250000000004 1.7543750000000138 44.184000000000005 5.107625000000013 L11.046000000000001 -13.729749999999989 Z M68.347125 11.321000000000014 Q59.37225 11.321000000000014 53.010937500000004 4.959687500000014 Q46.649625 -1.4016249999999868 46.649625 -10.376499999999986 Q46.649625 -19.351374999999987 53.010937500000004 -25.712687499999987 Q59.37225 -32.07399999999999 68.347125 -32.07399999999999 Q77.322 -32.07399999999999 83.6833125 -25.712687499999987 Q90.04462500000001 -19.351374999999987 90.04462500000001 -10.376499999999986 Q90.04462500000001 -1.4016249999999868 83.6833125 4.959687500000014 Q77.322 11.321000000000014 68.347125 11.321000000000014 Z"/></g><g id="Light-S" transform="matrix(1 0 0 1 1109.75 696)"><path d="M73.7715 -2.828038374999986  77.21578087500001 -6.272319249999988  70.68374850000001 -12.804252999999989 V-23.501317749999984 H65.8132515 V-10.786286874999988 L73.7715 -2.828038374999986 Z M13.018598625000001 -14.867783874999986 V-55.493591124999995 L47.34 -75.263958625 L81.56277637500001 -55.493591124999995 V-36.921911874999985 Q78.55086750000001 -38.40128687499998 75.247028625 -39.319288374999985 Q71.94309112500001 -40.23719124999999 68.309154375 -40.23719124999999 Q67.67953237500001 -40.23719124999999 66.913216125 -40.119630249999986 Q66.14699850000001 -40.001970624999984 65.517277875 -39.865473624999986 L71.503125 -43.37040887499999 V-49.72787499999999 L66.966473625 -52.31480875 L47.34 -40.99571612499999 L27.713526375000004 -52.31480875 L23.07825 -49.62924999999999 V-43.46903387499999 L42.408848625 -32.14994124999998 V-23.326850124999993 Q41.2556265 -20.68675749999999 40.62975225 -17.80385012499999 Q40.003878 -14.920942749999984 40.003878 -11.93181624999999 Q40.003878 -7.880695749999987 41.16074925 -4.087380999999986 Q42.317719125 -0.29416487499998745 44.335783875000004 2.9452718750000138 L13.018598625000001 -14.867783874999986 Z M68.347125 7.830957125000014 Q60.16894275 7.830957125000014 54.395533875 2.057646875000014 Q48.622223625 -3.715663374999986 48.622223625 -11.893944249999986 Q48.622223625 -20.07212649999999 54.395533875 -25.84543674999999 Q60.16894275 -31.618746999999992 68.347125 -31.618746999999992 Q76.52530725000001 -31.618746999999992 82.298716125 -25.84543674999999 Q88.07202637500001 -20.07212649999999 88.07202637500001 -11.893944249999986 Q88.07202637500001 -3.715663374999986 82.298716125 2.057646875000014 Q76.52530725000001 7.830957125000014 68.347125 7.830957125000014 Z"/></g><g id="Thin-S" transform="matrix(1 0 0 1 814.015 696)"><path d="M73.7715 -4.648655874999989  76.91231175 -7.789467624999986  70.456220625 -14.245657374999986 V-24.79093824999999 H66.040779375 V-12.379277874999985 L73.7715 -4.648655874999989 Z M14.991000000000001 -16.005719124999988 V-54.355655875 L47.34 -72.98818675 L79.59037500000001 -54.355655875 V-39.00802787499999 Q76.919905875 -39.99427787499999 74.109093375 -40.64678087499999 Q71.298280875 -41.29918524999999 68.271282375 -41.29918524999999 Q67.60368975 -41.29918524999999 66.761530875 -41.16268824999999 Q65.919470625 -41.02609262499999 65.251779375 -40.85162499999999 L71.503125 -44.50834412499999 V-49.72787499999999 L67.952625 -51.74593974999999 L47.34 -39.85778087499999 L26.727375000000002 -51.74593974999999 L23.07825 -49.62924999999999 V-44.60696912499999 L43.395 -32.71881024999999 V-25.52677937499999 Q41.976279375000004 -22.81084412499999 41.217655875000005 -19.75721687499999 Q40.459032375 -16.70368824999999 40.459032375 -13.486935249999988 Q40.459032375 -9.625371999999984 41.540061 -5.983841124999987 Q42.62118825 -2.342310249999988 44.487469125000004 0.7833132500000133 L14.991000000000001 -16.005719124999988 Z M68.347125 4.341407375000013 Q60.965438250000005 4.341407375000013 55.780031625 -0.8439992499999871 Q50.594625 -6.029405874999988 50.594625 -13.411092624999988 Q50.594625 -20.792779374999988 55.780031625 -25.978185999999987 Q60.965438250000005 -31.163592624999986 68.347125 -31.163592624999986 Q75.72881175 -31.163592624999986 80.914218375 -25.978185999999987 Q86.099625 -20.792779374999988 86.099625 -13.411092624999988 Q86.099625 -6.029405874999988 80.914218375 -0.8439992499999871 Q75.72881175 4.341407375000013 68.347125 4.341407375000013 Z"/></g><g id="Ultralight-S" transform="matrix(1 0 0 1 517.792 696)"><path d="M73.7715 -5.741124999999986  76.73025 -8.699874999999988  70.319625 -15.110499999999988 V-25.56474999999999 H66.177375 V-13.335249999999988 L73.7715 -5.741124999999986 Z M16.174500000000002 -16.688499999999987 V-53.67287499999999 L47.34 -71.62262499999999 L78.406875 -53.67287499999999 V-40.25987499999999 Q75.94125 -40.95024999999999 73.42631250000001 -41.44337499999999 Q70.911375 -41.93649999999999 68.2485 -41.93649999999999 Q67.558125 -41.93649999999999 66.6705 -41.78856249999999 Q65.782875 -41.640624999999986 65.0925 -41.44337499999999 L71.503125 -45.191124999999985 V-49.72787499999999 L68.544375 -51.40449999999999 L47.34 -39.17499999999999 L26.135625 -51.40449999999999 L23.07825 -49.62924999999999 V-45.28974999999999 L43.98675 -33.06024999999999 V-26.84687499999999 Q42.408750000000005 -24.085374999999985 41.570437500000004 -20.929374999999986 Q40.732125 -17.773374999999987 40.732125 -14.420124999999988 Q40.732125 -10.672374999999988 41.7676875 -7.121874999999989 Q42.80325 -3.5713749999999873 44.578500000000005 -0.5139999999999869 L16.174500000000002 -16.688499999999987 Z M68.347125 2.247500000000013 Q61.443375 2.247500000000013 56.61075 -2.5851249999999872 Q51.778125 -7.417749999999987 51.778125 -14.321499999999986 Q51.778125 -21.22524999999999 56.61075 -26.05787499999999 Q61.443375 -30.89049999999999 68.347125 -30.89049999999999 Q75.25087500000001 -30.89049999999999 80.0835 -26.05787499999999 Q84.91612500000001 -21.22524999999999 84.91612500000001 -14.321499999999986 Q84.91612500000001 -7.417749999999987 80.0835 -2.5851249999999872 Q75.25087500000001 2.247500000000013 68.347125 2.247500000000013 Z"/></g></g></svg>