<svg xmlns="http://www.w3.org/2000/svg" version="1.1" width="3300" height="2000"><g id="Notes"><style>
    text {
      font-family: monospace;
      text-anchor: middle;
    }
    text.emphasis {
      font-weight:bold;
    }
    text.lanchor {
      text-anchor: start;
    }
  </style><rect height="2200" id="artboard" fill="white" width="3300" x="0" y="0"/><line id="" style="fill:none;stroke:black;stroke-width:0.5;" x1="263" x2="3036" y1="292" y2="292"/><text class="lanchor emphasis" transform="matrix(1 0 0 1 263 322)">Weight/Scale Variations</text><text transform="matrix(1 0 0 1 559.711 322)">Ultralight</text><text transform="matrix(1 0 0 1 856.422 322)">Thin</text><text transform="matrix(1 0 0 1 1153.13 322)">Light</text><text transform="matrix(1 0 0 1 1449.84 322)">Regular</text><text transform="matrix(1 0 0 1 1746.56 322)">Medium</text><text transform="matrix(1 0 0 1 2043.27 322)">Semibold</text><text transform="matrix(1 0 0 1 2339.98 322)">Bold</text><text transform="matrix(1 0 0 1 2636.69 322)">Heavy</text><text transform="matrix(1 0 0 1 2933.4 322)">Black</text><text id="template-version" style="text-anchor: end;" transform="matrix(1 0 0 1 3036 1933)">Template v.1.0</text><text class="lanchor" transform="matrix(1 0 0 1 263 726)">Small</text><text class="lanchor" transform="matrix(1 0 0 1 263 1156)">Medium</text><text class="lanchor" transform="matrix(1 0 0 1 263 1586)">Large</text></g><g id="Guides"><g id="H-reference" style="fill:#27AAE1;stroke:none;" transform="matrix(1 0 0 1 339 696)"><path d="M 54.9316 0 L 57.666 0 L 30.5664 -70.459 L 28.0762 -70.459 L 0.976562 0 L 3.66211 0 L 12.9395 -24.4629 L 45.7031 -24.4629 Z M 29.1992 -67.0898 L 29.4434 -67.0898 L 44.8242 -26.709 L 13.8184 -26.709 Z"/></g><line id="Baseline-S" style="fill:none;stroke:#27AAE1;opacity:1;stroke-width:0.577;" x1="263" x2="3036" y1="696" y2="696"/><line id="Capline-S" style="fill:none;stroke:#27AAE1;opacity:1;stroke-width:0.577;" x1="263" x2="3036" y1="625.541" y2="625.541"/><g id="H-reference" style="fill:#27AAE1;stroke:none;" transform="matrix(1 0 0 1 339 1126)"><path d="M 54.9316 0 L 57.666 0 L 30.5664 -70.459 L 28.0762 -70.459 L 0.976562 0 L 3.66211 0 L 12.9395 -24.4629 L 45.7031 -24.4629 Z M 29.1992 -67.0898 L 29.4434 -67.0898 L 44.8242 -26.709 L 13.8184 -26.709 Z"/></g><line id="Baseline-M" style="fill:none;stroke:#27AAE1;opacity:1;stroke-width:0.577;" x1="263" x2="3036" y1="1126" y2="1126"/><line id="Capline-M" style="fill:none;stroke:#27AAE1;opacity:1;stroke-width:0.577;" x1="263" x2="3036" y1="1055.54" y2="1055.54"/><g id="H-reference" style="fill:#27AAE1;stroke:none;" transform="matrix(1 0 0 1 339 1556)"><path d="M 54.9316 0 L 57.666 0 L 30.5664 -70.459 L 28.0762 -70.459 L 0.976562 0 L 3.66211 0 L 12.9395 -24.4629 L 45.7031 -24.4629 Z M 29.1992 -67.0898 L 29.4434 -67.0898 L 44.8242 -26.709 L 13.8184 -26.709 Z"/></g><line id="Baseline-L" style="fill:none;stroke:#27AAE1;opacity:1;stroke-width:0.577;" x1="263" x2="3036" y1="1556" y2="1556"/><line id="Capline-L" style="fill:none;stroke:#27AAE1;opacity:1;stroke-width:0.577;" x1="263" x2="3036" y1="1485.54" y2="1485.54"/><rect height="119.336" id="left-margin" style="fill:darkred;stroke:none;opacity:0.4;" width="12.4512" x="1394.06" y="1030.79"/><rect height="119.336" id="right-margin" style="fill:darkgreen;stroke:none;opacity:0.4;" width="12.4512" x="1502.5112" y="1030.79"/><rect x="1406.5112" y="1045" width="96" height="96" fill="none" stroke="blue" stroke-dasharray="5"/><rect x="1394.06" y="1030.79" width="120.9024" height="119.336" fill="none" stroke="blue"/></g><g id="Symbols"><g id="Bold-L" transform="matrix(1 0 0 1 2266 1556)"><path d="M15.963750000000001 26.206250000000015 V-96.82749999999999 H138.9975 V26.206250000000015 H15.963750000000001 Z M124.16250000000001 -57.15999999999998  85.94625 -18.943749999999987  57.405 -47.484999999999985  30.6375 -20.556249999999984 V-5.0762499999999875 L57.405 -31.843749999999986 L85.785 -3.302499999999988 L124.16250000000001 -41.51874999999998 V-57.15999999999998 Z"/></g><g id="Semibold-L" transform="matrix(1 0 0 1 1970.27 1556)"><path d="M16.3143075 25.855692500000014 V-96.40679874999998 H138.57679875 V25.855692500000014 H16.3143075 Z M125.073885 -58.351798749999986  85.52554875 -18.733479999999993  56.91431625 -47.344712499999986  29.726115000000004 -20.065566249999982 V-4.094721249999985 L56.91431625 -31.282922499999984 L85.50458625 -2.6013849999999863 L125.073885 -42.219864999999984 V-58.351798749999986 Z"/></g><g id="Medium-L" transform="matrix(1 0 0 1 1674.31 1556)"><path d="M16.577145 25.592855000000014 V-96.09139374999998 H138.26139375 V25.592855000000014 H16.577145 Z M125.75742375 -59.24576874999998  85.21014375 -18.57561624999998  56.5461825 -47.23957749999998  29.042576250000003 -19.697432499999984 V-3.358614999999986 L56.5461825 -30.86222124999999 L85.29431625 -2.0755487499999887 L125.75742375 -42.745701249999996 V-59.24576874999998 Z"/></g><g id="Regular-L" transform="matrix(1 0 0 1 1378.56 1556)"><path d="M16.77 25.400000000000016 V-95.85999999999999 H138.03 V25.400000000000016 H16.77 Z M126.25875 -59.90124999999999  84.97875 -18.459999999999987  56.276250000000005 -47.16249999999998  28.54125 -19.427499999999988 V-2.818749999999987 L56.276250000000005 -30.55374999999998 L85.14 -1.6899999999999835 L126.25875 -43.13124999999998 V-59.90124999999999 Z"/></g><g id="Light-L" transform="matrix(1 0 0 1 1082.77 1556)"><path d="M19.995161250000002 22.174838750000013 V-92.63483875 H134.80483875000002 V22.174838750000013 H19.995161250000002 Z M125.39041875000001 -59.28108249999998  85.350915 -18.025753749999986  57.33066375 -46.046004999999994  29.40958125 -18.12492249999999 V-4.803576249999992 L57.33066375 -32.72465874999999 L85.38816375 -4.667158749999992 L125.39041875000001 -45.86024499999998 V-59.28108249999998 Z"/></g><g id="Thin-L" transform="matrix(1 0 0 1 787.282 1556)"><path d="M23.22 18.950000000000017 V-89.41 H131.58 V18.950000000000017 H23.22 Z M124.52224875 -58.66091499999999  85.72291875 -17.59166874999999  58.38491625 -44.92983249999999  30.27775125 -16.822667499999987 V-6.787918749999989 L58.38491625 -34.89508374999998 L85.63616625 -7.643833749999985 L124.52224875 -48.588917499999994 V-58.66091499999999 Z"/></g><g id="Ultralight-L" transform="matrix(1 0 0 1 491.205 1556)"><path d="M25.155 17.015000000000015 V-87.475 H129.645 V17.015000000000015 H25.155 Z M124.00125 -58.28874999999999  85.94625 -17.331249999999983  59.0175 -44.25999999999999  30.798750000000002 -16.041249999999984 V-7.978749999999984 L59.0175 -36.19749999999999 L85.785 -9.429999999999986 L124.00125 -50.22624999999999 V-58.28874999999999 Z"/></g><g id="Bold-M" transform="matrix(1 0 0 1 2281.8 1126)"><path d="M9.25 15.52000000000001 V-85.97999999999999 H110.75 V15.52000000000001 H9.25 Z M93.75 -59.72999999999999  64.875 -26.97999999999999  45.0 -46.85499999999999  26.25 -27.97999999999999 V-9.47999999999999 L45.0 -28.22999999999999 L65.375 -7.72999999999999 L93.75 -40.10499999999999 V-59.72999999999999 Z"/></g><g id="Semibold-M" transform="matrix(1 0 0 1 1985.97 1126)"><path d="M10.010875 14.75912500000001 V-85.21912499999999 H109.989125 V14.75912500000001 H10.010875 Z M94.6195 -60.70824999999999  64.494625 -26.653874999999992  44.56525 -46.58324999999999  25.3805 -27.32787499999999 V-8.719124999999991 L44.56525 -27.903874999999992 L65.10325 -7.295249999999989 L94.6195 -41.028874999999985 V-60.70824999999999 Z"/></g><g id="Medium-M" transform="matrix(1 0 0 1 1689.91 1126)"><path d="M10.5815 14.18850000000001 V-84.64849999999998 H109.4185 V14.18850000000001 H10.5815 Z M95.27175 -61.44199999999999  64.20925 -26.40937499999999  44.239125 -46.37949999999999  24.72825 -26.83874999999999 V-8.148499999999991 L44.239125 -27.65937499999999 L64.8995 -6.969124999999991 L95.27175 -41.72187499999998 V-61.44199999999999 Z"/></g><g id="Regular-M" transform="matrix(1 0 0 1 1394.06 1126)"><path d="M11.0 13.77000000000001 V-84.22999999999999 H109.0 V13.77000000000001 H11.0 Z M95.75 -61.97999999999999  64.0 -26.22999999999999  44.0 -46.22999999999999  24.25 -26.47999999999999 V-7.72999999999999 L44.0 -27.47999999999999 L64.75 -6.72999999999999 L95.75 -42.22999999999999 V-61.97999999999999 Z"/></g><g id="Light-M" transform="matrix(1 0 0 1 1098.18 1126)"><path d="M13.500125 11.26987500000001 V-81.72987499999999 H106.499875 V11.26987500000001 H13.500125 Z M95.75 -59.86449999999999  64.673125 -24.979874999999993  44.577 -45.07612499999999  24.25 -24.749124999999992 V-9.556999999999988 L44.577 -29.883999999999993 L65.23075 -9.230124999999987 L95.75 -43.86474999999999 V-59.86449999999999 Z"/></g><g id="Thin-M" transform="matrix(1 0 0 1 802.565 1126)"><path d="M16.0 8.77000000000001 V-79.22999999999999 H104.0 V8.77000000000001 H16.0 Z M95.75 -57.74924999999999  65.346125 -23.72999999999999  45.153875 -43.92237499999999  24.25 -23.01849999999999 V-11.383874999999989 L45.153875 -32.28762499999999 L65.7115 -11.72999999999999 L95.75 -45.49924999999999 V-57.74924999999999 Z"/></g><g id="Ultralight-M" transform="matrix(1 0 0 1 506.415 1126)"><path d="M17.5 7.27000000000001 V-77.72999999999999 H102.5 V7.27000000000001 H17.5 Z M95.75 -56.47999999999999  65.75 -22.97999999999999  45.5 -43.22999999999999  24.25 -21.97999999999999 V-12.47999999999999 L45.5 -33.72999999999999 L66.0 -13.22999999999999 L95.75 -46.47999999999999 V-56.47999999999999 Z"/></g><g id="Bold-S" transform="matrix(1 0 0 1 2294.23 696)"><path d="M9.66525 2.4447500000000133 V-72.90474999999999 H85.01475 V2.4447500000000133 H9.66525 Z M72.39075 -57.22337499999999  47.438625 -31.383624999999988  35.505 -43.21862499999999  22.289250000000003 -29.90424999999999 V-16.58987499999999 L35.505 -29.805624999999985 L47.53725 -17.67474999999999 L72.39075 -43.415874999999986 V-57.22337499999999 Z"/></g><g id="Semibold-S" transform="matrix(1 0 0 1 1998.1 696)"><path d="M10.265580375 1.8444196250000129 V-72.304419625 H84.41441962500001 V1.8444196250000129 H10.265580375 Z M73.0767855 -57.99521424999999  47.138509125 -31.12631237499999  35.16198225 -43.00421424999999  21.603214500000004 -29.38972337499999 V-15.98954462499999 L35.16198225 -29.548312374999988 L47.32283925 -17.331732249999988 L73.0767855 -44.14481237499999 V-57.99521424999999 Z"/></g><g id="Medium-S" transform="matrix(1 0 0 1 1701.85 696)"><path d="M10.7158035 1.3941965000000138 V-71.85419649999999 H83.9641965 V1.3941965000000138 H10.7158035 Z M73.59141075 -58.57414299999999  46.91334825 -30.933401874999987  34.904669625000004 -42.84345549999999  21.088589250000002 -29.00380374999999 V-15.53932149999999 L34.904669625000004 -29.35540187499999 L47.1620805 -17.07441962499999 L73.59141075 -44.691589374999985 V-58.57414299999999 Z"/></g><g id="Regular-S" transform="matrix(1 0 0 1 1405.73 696)"><path d="M11.046000000000001 1.0640000000000125 V-71.52399999999999 H83.634 V1.0640000000000125 H11.046000000000001 Z M73.96875 -58.99862499999999  46.74825 -30.79187499999999  34.716 -42.72549999999999  20.71125 -28.72074999999999 V-15.209124999999986 L34.716 -29.213874999999987 L47.044125 -16.885749999999987 L73.96875 -45.09249999999999 V-58.99862499999999 Z"/></g><g id="Light-S" transform="matrix(1 0 0 1 1109.75 696)"><path d="M13.018598625000001 -0.9085986249999873 V-69.551401375 H81.66140137500001 V-0.9085986249999873 H13.018598625000001 Z M73.96875 -57.32949549999999  47.279345625 -29.805526374999992  35.171253 -41.81509262499999  20.71125 -27.35508962499999 V-16.650627999999987 L35.171253 -31.11063099999999 L47.42343675 -18.858348624999984 L73.96875 -46.382317749999984 V-57.32949549999999 Z"/></g><g id="Thin-S" transform="matrix(1 0 0 1 814.015 696)"><path d="M14.991000000000001 -2.880999999999988 V-67.579 H79.68900000000001 V-2.880999999999988 H14.991000000000001 Z M73.96875 -55.660563249999996  47.810342625000004 -28.819374999999987  35.626407375 -40.904783874999985  20.71125 -25.989626499999986 V-18.092032374999988 L35.626407375 -33.00709112499999 L47.8027485 -20.830749999999988 L73.96875 -47.67193824999999 V-55.660563249999996 Z"/></g><g id="Ultralight-S" transform="matrix(1 0 0 1 517.792 696)"><path d="M16.174500000000002 -4.064499999999988 V-66.39549999999998 H78.5055 V-4.064499999999988 H16.174500000000002 Z M73.96875 -54.65912499999999  48.129000000000005 -28.22762499999999  35.8995 -40.358499999999985  20.71125 -25.17024999999999 V-18.95687499999999 L35.8995 -34.145124999999986 L48.030375 -22.01424999999999 L73.96875 -48.44574999999999 V-54.65912499999999 Z"/></g></g></svg>