<svg xmlns="http://www.w3.org/2000/svg" version="1.1" width="3300" height="2000"><g id="Notes"><style>
    text {
      font-family: monospace;
      text-anchor: middle;
    }
    text.emphasis {
      font-weight:bold;
    }
    text.lanchor {
      text-anchor: start;
    }
  </style><rect height="2200" id="artboard" fill="white" width="3300" x="0" y="0"/><line id="" style="fill:none;stroke:black;stroke-width:0.5;" x1="263" x2="3036" y1="292" y2="292"/><text class="lanchor emphasis" transform="matrix(1 0 0 1 263 322)">Weight/Scale Variations</text><text transform="matrix(1 0 0 1 559.711 322)">Ultralight</text><text transform="matrix(1 0 0 1 856.422 322)">Thin</text><text transform="matrix(1 0 0 1 1153.13 322)">Light</text><text transform="matrix(1 0 0 1 1449.84 322)">Regular</text><text transform="matrix(1 0 0 1 1746.56 322)">Medium</text><text transform="matrix(1 0 0 1 2043.27 322)">Semibold</text><text transform="matrix(1 0 0 1 2339.98 322)">Bold</text><text transform="matrix(1 0 0 1 2636.69 322)">Heavy</text><text transform="matrix(1 0 0 1 2933.4 322)">Black</text><text id="template-version" style="text-anchor: end;" transform="matrix(1 0 0 1 3036 1933)">Template v.1.0</text><text class="lanchor" transform="matrix(1 0 0 1 263 726)">Small</text><text class="lanchor" transform="matrix(1 0 0 1 263 1156)">Medium</text><text class="lanchor" transform="matrix(1 0 0 1 263 1586)">Large</text></g><g id="Guides"><g id="H-reference" style="fill:#27AAE1;stroke:none;" transform="matrix(1 0 0 1 339 696)"><path d="M 54.9316 0 L 57.666 0 L 30.5664 -70.459 L 28.0762 -70.459 L 0.976562 0 L 3.66211 0 L 12.9395 -24.4629 L 45.7031 -24.4629 Z M 29.1992 -67.0898 L 29.4434 -67.0898 L 44.8242 -26.709 L 13.8184 -26.709 Z"/></g><line id="Baseline-S" style="fill:none;stroke:#27AAE1;opacity:1;stroke-width:0.577;" x1="263" x2="3036" y1="696" y2="696"/><line id="Capline-S" style="fill:none;stroke:#27AAE1;opacity:1;stroke-width:0.577;" x1="263" x2="3036" y1="625.541" y2="625.541"/><g id="H-reference" style="fill:#27AAE1;stroke:none;" transform="matrix(1 0 0 1 339 1126)"><path d="M 54.9316 0 L 57.666 0 L 30.5664 -70.459 L 28.0762 -70.459 L 0.976562 0 L 3.66211 0 L 12.9395 -24.4629 L 45.7031 -24.4629 Z M 29.1992 -67.0898 L 29.4434 -67.0898 L 44.8242 -26.709 L 13.8184 -26.709 Z"/></g><line id="Baseline-M" style="fill:none;stroke:#27AAE1;opacity:1;stroke-width:0.577;" x1="263" x2="3036" y1="1126" y2="1126"/><line id="Capline-M" style="fill:none;stroke:#27AAE1;opacity:1;stroke-width:0.577;" x1="263" x2="3036" y1="1055.54" y2="1055.54"/><g id="H-reference" style="fill:#27AAE1;stroke:none;" transform="matrix(1 0 0 1 339 1556)"><path d="M 54.9316 0 L 57.666 0 L 30.5664 -70.459 L 28.0762 -70.459 L 0.976562 0 L 3.66211 0 L 12.9395 -24.4629 L 45.7031 -24.4629 Z M 29.1992 -67.0898 L 29.4434 -67.0898 L 44.8242 -26.709 L 13.8184 -26.709 Z"/></g><line id="Baseline-L" style="fill:none;stroke:#27AAE1;opacity:1;stroke-width:0.577;" x1="263" x2="3036" y1="1556" y2="1556"/><line id="Capline-L" style="fill:none;stroke:#27AAE1;opacity:1;stroke-width:0.577;" x1="263" x2="3036" y1="1485.54" y2="1485.54"/><rect height="119.336" id="left-margin" style="fill:darkred;stroke:none;opacity:0.4;" width="12.4512" x="1394.06" y="1030.79"/><rect height="119.336" id="right-margin" style="fill:darkgreen;stroke:none;opacity:0.4;" width="12.4512" x="1502.5112" y="1030.79"/><rect x="1406.5112" y="1045" width="96" height="96" fill="none" stroke="blue" stroke-dasharray="5"/><rect x="1394.06" y="1030.79" width="120.9024" height="119.336" fill="none" stroke="blue"/></g><g id="Symbols"><g id="Bold-L" transform="matrix(1 0 0 1 2266 1556)"><path d="M83.85000000000001 -16.2025 H91.59 V-30.553749999999994 L105.135 -16.2025 H115.455 L97.55625 -35.22999999999999 L115.455 -54.41874999999999 H105.135 L91.59 -40.067499999999995 V-54.41874999999999 H83.85000000000001 V-16.2025 Z M45.15 -16.2025 H72.07875000000001 V-23.942499999999995 H52.88999999999999 V-32.64999999999999 H72.07875000000001 V-54.41874999999999 H45.15 V-46.5175 H64.1775 V-37.81 H45.15 V-16.2025 Z M16.125 26.045000000000016 V-96.82749999999999 H138.9975 V26.045000000000016 H16.125 Z M30.798750000000002 11.371250000000018 H124.00125000000001 V-81.83125 H30.798750000000002 V11.371250000000018 Z"/></g><g id="Semibold-L" transform="matrix(1 0 0 1 1970.27 1556)"><path d="M83.85000000000001 -16.2025 H91.59 V-30.553749999999994 L105.135 -16.2025 H115.455 L97.55625 -35.22999999999999 L115.455 -54.41874999999999 H105.135 L91.59 -40.067499999999995 V-54.41874999999999 H83.85000000000001 V-16.2025 Z M44.66625 -16.2025 H71.595 V-23.942499999999995 H52.40625 V-32.64999999999999 H71.595 V-54.41874999999999 H44.66625 V-46.5175 H63.69375 V-37.81 H44.66625 V-16.2025 Z M17.7375 24.432500000000005 V-94.8925 H137.0625 V24.432500000000005 H17.7375 Z M30.15375 12.01625 H124.64625 V-82.47625 H30.15375 V12.01625 Z"/></g><g id="Medium-L" transform="matrix(1 0 0 1 1674.31 1556)"><path d="M83.85000000000001 -16.2025 H91.59 V-30.553749999999994 L105.135 -16.2025 H115.455 L97.55625 -35.22999999999999 L115.455 -54.41874999999999 H105.135 L91.59 -40.067499999999995 V-54.41874999999999 H83.85000000000001 V-16.2025 Z M44.34375 -16.2025 H71.27250000000001 V-23.942499999999995 H52.083749999999995 V-32.64999999999999 H71.27250000000001 V-54.41874999999999 H44.34375 V-46.5175 H63.371249999999996 V-37.81 H44.34375 V-16.2025 Z M19.188750000000002 22.98124999999999 V-93.60249999999999 H135.7725 V22.98124999999999 H19.188750000000002 Z M29.669999999999998 12.5 H125.13 V-82.96 H29.669999999999998 V12.5 Z"/></g><g id="Regular-L" transform="matrix(1 0 0 1 1378.56 1556)"><path d="M83.85000000000001 -16.2025 H91.59 V-30.553749999999994 L105.135 -16.2025 H115.61625000000001 L97.55625 -35.22999999999999 L115.61625000000001 -54.41874999999999 H105.135 L91.59 -40.067499999999995 V-54.41874999999999 H83.85000000000001 V-16.2025 Z M44.1825 -16.2025 H71.11125 V-23.942499999999995 H51.92250000000001 V-32.64999999999999 H71.11125 V-54.41874999999999 H44.1825 V-46.5175 H63.21000000000001 V-37.81 H44.1825 V-16.2025 Z M20.15625 22.013750000000016 V-92.63499999999999 H134.805 V22.013750000000016 H20.15625 Z M29.3475 12.822500000000005 H125.4525 V-83.2825 H29.3475 V12.822500000000005 Z"/></g><g id="Light-L" transform="matrix(1 0 0 1 1082.77 1556)"><path d="M83.36625000000001 -17.008749999999992 H89.81625000000001 V-31.843749999999986 L104.49 -17.008749999999992 H113.35875 L94.97625000000001 -35.39125 L113.35875 -53.45124999999999 H104.65125000000002 L89.81625000000001 -38.7775 V-53.45124999999999 H83.36625000000001 V-17.008749999999992 Z M44.66625 -17.008749999999992 H70.305 V-23.458749999999995 H51.11625 V-32.81124999999999 H70.305 V-53.45124999999999 H44.66625 V-47.001249999999985 H63.855000000000004 V-37.64874999999999 H44.66625 V-17.008749999999992 Z M23.058750000000003 19.111250000000013 V-89.57124999999999 H131.74125 V19.111250000000013 H23.058750000000003 Z M30.15375 12.01625 H124.64625 V-82.47625 H30.15375 V12.01625 Z"/></g><g id="Thin-L" transform="matrix(1 0 0 1 787.282 1556)"><path d="M83.04375 -17.976249999999993 H88.0425 V-33.13374999999999 L103.84500000000001 -17.976249999999993 H111.2625 L92.5575 -35.552499999999995 L111.2625 -52.48375 H104.00625000000001 L88.0425 -37.64874999999999 V-52.48375 H83.04375 V-17.976249999999993 Z M45.31125 -17.976249999999993 H69.49875 V-22.813749999999985 H50.14875000000001 V-32.9725 H69.49875 V-52.48375 H45.31125 V-47.646249999999995 H64.5 V-37.4875 H45.31125 V-17.976249999999993 Z M25.961250000000003 16.20875000000001 V-86.66874999999999 H128.83875 V16.20875000000001 H25.961250000000003 Z M30.798750000000002 11.371250000000018 H124.00125000000001 V-81.83125 H30.798750000000002 V11.371250000000018 Z"/></g><g id="Ultralight-L" transform="matrix(1 0 0 1 491.205 1556)"><path d="M82.8825 -18.459999999999994 H86.91375 V-33.94 L103.36125 -18.459999999999994 H109.97250000000001 L91.10625 -35.552499999999995 L109.97250000000001 -51.99999999999999 H103.68375 L86.91375 -36.84249999999999 V-51.99999999999999 H82.8825 V-18.459999999999994 Z M45.63375 -18.459999999999994 H69.015 V-22.491249999999994 H49.665 V-33.13374999999999 H69.015 V-51.99999999999999 H45.63375 V-47.968749999999986 H64.98375 V-37.32624999999999 H45.63375 V-18.459999999999994 Z M27.735 14.435000000000002 V-84.895 H127.065 V14.435000000000002 H27.735 Z M31.2825 10.887500000000003 H123.5175 V-81.3475 H31.2825 V10.887500000000003 Z"/></g><g id="Bold-M" transform="matrix(1 0 0 1 2281.8 1126)"><path d="M64.875 -20.60499999999999 H72.0 V-31.60499999999999 L80.75 -20.60499999999999 H89.25 L77.875 -35.22999999999999 L89.25 -49.85499999999999 H80.75 L72.0 -38.85499999999999 V-49.85499999999999 H64.875 V-20.60499999999999 Z M34.375 -20.60499999999999 H56.125 V-27.72999999999999 H41.5 V-32.85499999999999 H56.125 V-49.85499999999999 H34.375 V-42.72999999999999 H49.0 V-37.60499999999999 H34.375 V-20.60499999999999 Z M11.875 12.89500000000001 V-83.35499999999999 H108.125 V12.89500000000001 H11.875 Z M27.0 -2.2299999999999898 H93.0 V-68.22999999999999 H27.0 V-2.2299999999999898 Z"/></g><g id="Semibold-M" transform="matrix(1 0 0 1 1985.97 1126)"><path d="M64.875 -20.60499999999999 H72.0 V-31.60499999999999 L80.75 -20.60499999999999 H89.25 L77.875 -35.22999999999999 L89.25 -49.85499999999999 H80.75 L72.0 -38.85499999999999 V-49.85499999999999 H64.875 V-20.60499999999999 Z M34.0 -20.60499999999999 H55.75 V-27.72999999999999 H41.125 V-32.85499999999999 H55.75 V-49.85499999999999 H34.0 V-42.72999999999999 H48.625 V-37.60499999999999 H34.0 V-20.60499999999999 Z M13.75 11.02000000000001 V-81.47999999999999 H106.25 V11.02000000000001 H13.75 Z M26.375 -1.6049999999999898 H93.625 V-68.85499999999999 H26.375 V-1.6049999999999898 Z"/></g><g id="Medium-M" transform="matrix(1 0 0 1 1689.91 1126)"><path d="M64.875 -20.60499999999999 H72.0 V-31.60499999999999 L80.75 -20.60499999999999 H89.375 L77.875 -35.22999999999999 L89.375 -49.85499999999999 H80.75 L72.0 -38.85499999999999 V-49.85499999999999 H64.875 V-20.60499999999999 Z M33.625 -20.60499999999999 H55.375 V-27.72999999999999 H40.75 V-32.85499999999999 H55.375 V-49.85499999999999 H33.625 V-42.72999999999999 H48.25 V-37.60499999999999 H33.625 V-20.60499999999999 Z M15.125 9.64500000000001 V-80.10499999999999 H104.875 V9.64500000000001 H15.125 Z M25.875 -1.1049999999999898 H94.125 V-69.35499999999999 H25.875 V-1.1049999999999898 Z"/></g><g id="Regular-M" transform="matrix(1 0 0 1 1394.06 1126)"><path d="M64.875 -20.60499999999999 H72.0 V-31.60499999999999 L80.75 -20.60499999999999 H89.5 L77.875 -35.22999999999999 L89.5 -49.85499999999999 H80.75 L72.0 -38.85499999999999 V-49.85499999999999 H64.875 V-20.60499999999999 Z M33.375 -20.60499999999999 H55.125 V-27.72999999999999 H40.5 V-32.85499999999999 H55.125 V-49.85499999999999 H33.375 V-42.72999999999999 H48.0 V-37.60499999999999 H33.375 V-20.60499999999999 Z M16.125 8.64500000000001 V-79.10499999999999 H103.875 V8.64500000000001 H16.125 Z M25.5 -0.7299999999999898 H94.5 V-69.72999999999999 H25.5 V-0.7299999999999898 Z"/></g><g id="Light-M" transform="matrix(1 0 0 1 1098.18 1126)"><path d="M64.625 -21.35499999999999 H70.25 V-32.60499999999999 L80.375 -21.35499999999999 H87.625 L75.25 -35.35499999999999 L87.625 -49.10499999999999 H80.5 L70.25 -37.85499999999999 V-49.10499999999999 H64.625 V-21.35499999999999 Z M34.125 -21.35499999999999 H54.5 V-26.97999999999999 H39.875 V-33.10499999999999 H54.5 V-49.10499999999999 H34.125 V-43.47999999999999 H48.875 V-37.35499999999999 H34.125 V-21.35499999999999 Z M18.375 6.39500000000001 V-76.85499999999999 H101.625 V6.39500000000001 H18.375 Z M25.375 -0.6049999999999898 H94.625 V-69.85499999999999 H25.375 V-0.6049999999999898 Z"/></g><g id="Thin-M" transform="matrix(1 0 0 1 802.565 1126)"><path d="M64.375 -21.97999999999999 H68.5 V-33.72999999999999 L80.0 -21.97999999999999 H85.875 L72.625 -35.47999999999999 L85.875 -48.47999999999999 H80.125 L68.5 -36.97999999999999 V-48.47999999999999 H64.375 V-21.97999999999999 Z M35.0 -21.97999999999999 H53.875 V-26.22999999999999 H39.125 V-33.35499999999999 H53.875 V-48.47999999999999 H35.0 V-44.22999999999999 H49.75 V-37.10499999999999 H35.0 V-21.97999999999999 Z M20.75 4.02000000000001 V-74.47999999999999 H99.25 V4.02000000000001 H20.75 Z M25.25 -0.47999999999998977 H94.75 V-69.97999999999999 H25.25 V-0.47999999999998977 Z"/></g><g id="Ultralight-M" transform="matrix(1 0 0 1 506.415 1126)"><path d="M64.25 -22.47999999999999 H67.5 V-34.35499999999999 L79.75 -22.47999999999999 H84.875 L71.125 -35.47999999999999 L84.875 -48.10499999999999 H80.0 L67.5 -36.47999999999999 V-48.10499999999999 H64.25 V-22.47999999999999 Z M35.5 -22.47999999999999 H53.625 V-25.72999999999999 H38.75 V-33.60499999999999 H53.625 V-48.10499999999999 H35.5 V-44.72999999999999 H50.25 V-36.97999999999999 H35.5 V-22.47999999999999 Z M22.125 2.6450000000000102 V-73.22999999999999 H98.0 V2.6450000000000102 H22.125 Z M25.25 -0.47999999999998977 H94.75 V-69.97999999999999 H25.25 V-0.47999999999998977 Z"/></g><g id="Bold-S" transform="matrix(1 0 0 1 2294.23 696)"><path d="M51.283422 -23.787921999999995 H57.006828 V-32.569492 L63.809585999999996 -23.787921999999995 H70.51766400000001 L61.835508 -35.22999999999999 L70.51766400000001 -46.771491999999995 H63.809585999999996 L57.006828 -37.89050799999999 V-46.771491999999995 H51.283422 V-23.787921999999995 Z M27.2205 -23.787921999999995 H44.774172 V-29.511327999999992 H32.939172 V-33.35533599999999 H44.774172 V-46.771491999999995 H27.2205 V-41.04808599999999 H38.956086 V-37.104664 H27.2205 V-23.787921999999995 Z M9.368586 2.741414000000006 V-73.201414 H85.311414 V2.741414000000006 H9.368586 Z M21.695922 -9.585921999999997 H72.984078 V-60.874078 H21.695922 V-9.585921999999997 Z"/></g><g id="Semibold-S" transform="matrix(1 0 0 1 1998.1 696)"><path d="M51.283422 -23.787921999999995 H57.006828 V-32.569492 L63.809585999999996 -23.787921999999995 H70.51766400000001 L61.835508 -35.22999999999999 L70.51766400000001 -46.771491999999995 H63.809585999999996 L57.006828 -37.89050799999999 V-46.771491999999995 H51.283422 V-23.787921999999995 Z M26.926992 -23.787921999999995 H44.480664000000004 V-29.511327999999992 H32.645664 V-33.35533599999999 H44.480664000000004 V-46.771491999999995 H26.926992 V-41.04808599999999 H38.662577999999996 V-37.104664 H26.926992 V-23.787921999999995 Z M10.850328 1.2596719999999948 V-71.71967199999999 H83.82967199999999 V1.2596719999999948 H10.850328 Z M21.203586 -9.093585999999988 H73.476414 V-61.36641399999999 H21.203586 V-9.093585999999988 Z"/></g><g id="Medium-S" transform="matrix(1 0 0 1 1701.85 696)"><path d="M51.283422 -23.787921999999995 H57.006828 V-32.569492 L63.809585999999996 -23.787921999999995 H70.61707799999999 L61.835508 -35.22999999999999 L70.61707799999999 -46.771491999999995 H63.809585999999996 L57.006828 -37.89050799999999 V-46.771491999999995 H51.283422 V-23.787921999999995 Z M26.62875 -23.787921999999995 H44.182422 V-29.511327999999992 H32.347422 V-33.35533599999999 H44.182422 V-46.771491999999995 H26.62875 V-41.04808599999999 H38.364335999999994 V-37.104664 H26.62875 V-23.787921999999995 Z M11.934414 0.1755860000000098 V-70.63558599999999 H82.745586 V0.1755860000000098 H11.934414 Z M20.810664 -8.700664000000003 H73.86933599999999 V-61.75933599999999 H20.810664 V-8.700664000000003 Z"/></g><g id="Regular-S" transform="matrix(1 0 0 1 1405.73 696)"><path d="M51.283422 -23.787921999999995 H57.006828 V-32.569492 L63.809585999999996 -23.787921999999995 H70.716492 L61.835508 -35.22999999999999 L70.716492 -46.771491999999995 H63.809585999999996 L57.006828 -37.89050799999999 V-46.771491999999995 H51.283422 V-23.787921999999995 Z M26.429922 -23.787921999999995 H43.988327999999996 V-29.511327999999992 H32.153328 V-33.35533599999999 H43.988327999999996 V-46.771491999999995 H26.429922 V-41.04808599999999 H38.165507999999996 V-37.104664 H26.429922 V-23.787921999999995 Z M12.724992 -0.6149919999999867 V-69.84500799999999 H81.955008 V-0.6149919999999867 H12.724992 Z M20.512422 -8.402421999999987 H74.167578 V-62.05757799999999 H20.512422 V-8.402421999999987 Z"/></g><g id="Light-S" transform="matrix(1 0 0 1 1109.75 696)"><path d="M51.089328 -24.379671999999992 H55.6245 V-33.35533599999999 L63.516078 -24.379671999999992 H69.23475 L59.76675 -35.329414 L69.23475 -46.17500799999999 H63.615492 L55.6245 -37.104664 V-46.17500799999999 H51.089328 V-24.379671999999992 Z M27.021672000000002 -24.379671999999992 H43.495992 V-28.919577999999994 H31.660992 V-33.554164 H43.495992 V-46.17500799999999 H27.021672000000002 V-41.63983599999999 H38.856672 V-36.90583599999999 H27.021672000000002 V-24.379671999999992 Z M14.495508 -2.3855080000000015 V-68.07449199999999 H80.18449199999999 V-2.3855080000000015 H14.495508 Z M20.413008 -8.303007999999991 H74.266992 V-62.15699199999999 H20.413008 V-8.303007999999991 Z"/></g><g id="Thin-S" transform="matrix(1 0 0 1 814.015 696)"><path d="M50.8905 -24.872007999999994 H54.242172000000004 V-34.24532799999999 L63.217836 -24.872007999999994 H67.852422 L57.697992 -35.428827999999996 L67.852422 -45.682672 H63.31725 L54.242172000000004 -36.41349999999999 V-45.682672 H50.8905 V-24.872007999999994 Z M27.712836 -24.872007999999994 H42.998922 V-28.32782799999999 H31.064508 V-33.752992 H42.998922 V-45.682672 H27.712836 V-42.23158599999999 H39.547836 V-36.70700799999999 H27.712836 V-24.872007999999994 Z M16.370172 -4.260171999999983 V-66.199828 H78.30982800000001 V-4.260171999999983 H16.370172 Z M20.318327999999998 -8.208327999999995 H74.361672 V-62.251672 H20.318327999999998 V-8.208327999999995 Z"/></g><g id="Ultralight-S" transform="matrix(1 0 0 1 517.792 696)"><path d="M50.79108599999999 -25.269664 H53.456328 V-34.737663999999995 L63.019008 -25.269664 H67.06657799999999 L56.514492000000004 -35.428827999999996 L67.06657799999999 -45.389163999999994 H63.217836 L53.456328 -36.02057799999999 V-45.389163999999994 H50.79108599999999 V-25.269664 Z M28.110491999999997 -25.269664 H42.804828 V-27.930171999999992 H30.771 V-33.94708599999999 H42.804828 V-45.389163999999994 H28.110491999999997 V-42.62450799999999 H39.945492 V-36.61232799999999 H28.110491999999997 V-25.269664 Z M17.458992000000002 -5.348991999999981 V-65.210422 H77.320422 V-5.348991999999981 H17.458992000000002 Z M20.318327999999998 -8.208327999999995 H74.361672 V-62.251672 H20.318327999999998 V-8.208327999999995 Z"/></g></g></svg>