<svg xmlns="http://www.w3.org/2000/svg" version="1.1" width="3300" height="2000"><g id="Notes"><style>
    text {
      font-family: monospace;
      text-anchor: middle;
    }
    text.emphasis {
      font-weight:bold;
    }
    text.lanchor {
      text-anchor: start;
    }
  </style><rect height="2200" id="artboard" fill="white" width="3300" x="0" y="0"/><line id="" style="fill:none;stroke:black;stroke-width:0.5;" x1="263" x2="3036" y1="292" y2="292"/><text class="lanchor emphasis" transform="matrix(1 0 0 1 263 322)">Weight/Scale Variations</text><text transform="matrix(1 0 0 1 559.711 322)">Ultralight</text><text transform="matrix(1 0 0 1 856.422 322)">Thin</text><text transform="matrix(1 0 0 1 1153.13 322)">Light</text><text transform="matrix(1 0 0 1 1449.84 322)">Regular</text><text transform="matrix(1 0 0 1 1746.56 322)">Medium</text><text transform="matrix(1 0 0 1 2043.27 322)">Semibold</text><text transform="matrix(1 0 0 1 2339.98 322)">Bold</text><text transform="matrix(1 0 0 1 2636.69 322)">Heavy</text><text transform="matrix(1 0 0 1 2933.4 322)">Black</text><text id="template-version" style="text-anchor: end;" transform="matrix(1 0 0 1 3036 1933)">Template v.1.0</text><text class="lanchor" transform="matrix(1 0 0 1 263 726)">Small</text><text class="lanchor" transform="matrix(1 0 0 1 263 1156)">Medium</text><text class="lanchor" transform="matrix(1 0 0 1 263 1586)">Large</text></g><g id="Guides"><g id="H-reference" style="fill:#27AAE1;stroke:none;" transform="matrix(1 0 0 1 339 696)"><path d="M 54.9316 0 L 57.666 0 L 30.5664 -70.459 L 28.0762 -70.459 L 0.976562 0 L 3.66211 0 L 12.9395 -24.4629 L 45.7031 -24.4629 Z M 29.1992 -67.0898 L 29.4434 -67.0898 L 44.8242 -26.709 L 13.8184 -26.709 Z"/></g><line id="Baseline-S" style="fill:none;stroke:#27AAE1;opacity:1;stroke-width:0.577;" x1="263" x2="3036" y1="696" y2="696"/><line id="Capline-S" style="fill:none;stroke:#27AAE1;opacity:1;stroke-width:0.577;" x1="263" x2="3036" y1="625.541" y2="625.541"/><g id="H-reference" style="fill:#27AAE1;stroke:none;" transform="matrix(1 0 0 1 339 1126)"><path d="M 54.9316 0 L 57.666 0 L 30.5664 -70.459 L 28.0762 -70.459 L 0.976562 0 L 3.66211 0 L 12.9395 -24.4629 L 45.7031 -24.4629 Z M 29.1992 -67.0898 L 29.4434 -67.0898 L 44.8242 -26.709 L 13.8184 -26.709 Z"/></g><line id="Baseline-M" style="fill:none;stroke:#27AAE1;opacity:1;stroke-width:0.577;" x1="263" x2="3036" y1="1126" y2="1126"/><line id="Capline-M" style="fill:none;stroke:#27AAE1;opacity:1;stroke-width:0.577;" x1="263" x2="3036" y1="1055.54" y2="1055.54"/><g id="H-reference" style="fill:#27AAE1;stroke:none;" transform="matrix(1 0 0 1 339 1556)"><path d="M 54.9316 0 L 57.666 0 L 30.5664 -70.459 L 28.0762 -70.459 L 0.976562 0 L 3.66211 0 L 12.9395 -24.4629 L 45.7031 -24.4629 Z M 29.1992 -67.0898 L 29.4434 -67.0898 L 44.8242 -26.709 L 13.8184 -26.709 Z"/></g><line id="Baseline-L" style="fill:none;stroke:#27AAE1;opacity:1;stroke-width:0.577;" x1="263" x2="3036" y1="1556" y2="1556"/><line id="Capline-L" style="fill:none;stroke:#27AAE1;opacity:1;stroke-width:0.577;" x1="263" x2="3036" y1="1485.54" y2="1485.54"/><rect height="119.336" id="left-margin" style="fill:darkred;stroke:none;opacity:0.4;" width="12.4512" x="1394.06" y="1030.79"/><rect height="119.336" id="right-margin" style="fill:darkgreen;stroke:none;opacity:0.4;" width="12.4512" x="1502.5112" y="1030.79"/><rect x="1406.5112" y="1045" width="96" height="96" fill="none" stroke="blue" stroke-dasharray="5"/><rect x="1394.06" y="1030.79" width="120.9024" height="119.336" fill="none" stroke="blue"/></g><g id="Symbols"><g id="Bold-L" transform="matrix(1 0 0 1 2266 1556)"><path d="M45.31125 -5.882499999999993 H59.50125 L65.4675 -22.33 H89.17125 L95.29875 -5.882499999999993 H110.45625 L84.33375 -73.92999999999999 H71.27250000000001 L45.31125 -5.882499999999993 Z M68.20875 -32.48874999999998  77.23875 -57.64374999999999 H77.56125 L86.7525 -32.48874999999998 H68.20875 Z M77.56125 32.65625 Q63.21000000000001 32.65625 50.6325 27.496250000000003 Q38.05500000000001 22.336250000000007 28.944375 13.225625000000008 Q19.833750000000002 4.115000000000023 14.67375 -8.462500000000006 Q9.513750000000002 -21.039999999999992 9.513750000000002 -35.39125 Q9.513750000000002 -49.58124999999999 14.67375 -61.997499999999995 Q19.833750000000002 -74.41375 28.944375 -83.60499999999999 Q38.05500000000001 -92.79624999999999 50.6325 -98.036875 Q63.21000000000001 -103.2775 77.56125 -103.2775 Q91.75125 -103.2775 104.16749999999999 -98.036875 Q116.58375 -92.79624999999999 125.775 -83.60499999999999 Q134.96625 -74.41375 140.206875 -61.997499999999995 Q145.44750000000002 -49.58124999999999 145.44750000000002 -35.22999999999999 Q145.44750000000002 -21.039999999999992 140.206875 -8.462500000000006 Q134.96625 4.115000000000023 125.775 13.225625000000008 Q116.58375 22.336250000000007 104.16749999999999 27.496250000000003 Q91.75125 32.65625 77.56125 32.65625 Z M77.4 17.982500000000016 Q99.97500000000001 17.982500000000016 115.29375 2.825000000000003 Q130.6125 -12.332499999999982 130.6125 -35.22999999999999 Q130.6125 -57.966249999999995 115.374375 -73.204375 Q100.13625 -88.4425 77.4 -88.4425 Q54.825 -88.4425 39.50625 -73.285 Q24.1875 -58.1275 24.1875 -35.22999999999999 Q24.1875 -12.493749999999991 39.425625 2.744375000000005 Q54.66375 17.982500000000016 77.4 17.982500000000016 Z"/></g><g id="Semibold-L" transform="matrix(1 0 0 1 1970.27 1556)"><path d="M44.505 -4.592499999999987 H57.566250000000004 L64.1775 -22.33 H90.6225 L97.395 -4.592499999999987 H110.94 L84.01125 -75.05875 H71.27250000000001 L44.505 -4.592499999999987 Z M67.08 -32.16624999999999  77.23875 -60.223749999999995 H77.56125 L87.88125000000001 -32.16624999999999 H67.08 Z M77.4 32.33375000000001 Q63.21000000000001 32.33375000000001 50.713125 27.173750000000013 Q38.21625 22.013750000000016 29.186250000000005 12.983750000000015 Q20.15625 3.9537499999999994 14.996250000000002 -8.543125000000003 Q9.83625 -21.039999999999992 9.83625 -35.22999999999999 Q9.83625 -49.41999999999999 14.996250000000002 -61.83624999999999 Q20.15625 -74.2525 29.266875 -83.363125 Q38.377500000000005 -92.47375 50.79375 -97.63374999999999 Q63.21000000000001 -102.79374999999999 77.4 -102.79374999999999 Q91.59 -102.79374999999999 104.00625000000001 -97.63374999999999 Q116.42250000000001 -92.47375 125.533125 -83.363125 Q134.64375 -74.2525 139.80375 -61.916875 Q144.96375 -49.58124999999999 144.96375 -35.22999999999999 Q144.96375 -21.039999999999992 139.80375 -8.623749999999987 Q134.64375 3.792500000000018 125.533125 12.903125000000003 Q116.42250000000001 22.013750000000016 104.00625000000001 27.173750000000013 Q91.59 32.33375000000001 77.4 32.33375000000001 Z M77.4 18.94999999999999 Q100.45875 18.94999999999999 116.01937500000001 3.470000000000013 Q131.57999999999998 -12.009999999999991 131.57999999999998 -35.22999999999999 Q131.57999999999998 -58.288749999999986 116.01937500000001 -73.849375 Q100.45875 -89.41 77.4 -89.41 Q54.34125000000001 -89.41 38.780625 -73.92999999999999 Q23.220000000000002 -58.44999999999999 23.220000000000002 -35.22999999999999 Q23.220000000000002 -12.17125 38.780625 3.3893750000000153 Q54.34125000000001 18.94999999999999 77.4 18.94999999999999 Z"/></g><g id="Medium-L" transform="matrix(1 0 0 1 1674.31 1556)"><path d="M44.02125 -3.625 H56.114999999999995 L63.21000000000001 -22.33 H91.75125 L98.84625 -3.625 H111.2625 L83.68875 -76.02625 H71.27250000000001 L44.02125 -3.625 Z M66.435 -32.004999999999995  77.23875 -61.997499999999995 H77.56125 L88.6875 -32.004999999999995 H66.435 Z M77.4 32.01125000000002 Q63.21000000000001 32.01125000000002 50.874375 26.85125000000002 Q38.53875 21.691249999999997 29.508750000000003 12.66125000000001 Q20.478749999999998 3.6312499999999943 15.31875 -8.704374999999985 Q10.15875 -21.039999999999992 10.15875 -35.22999999999999 Q10.15875 -49.41999999999999 15.31875 -61.755624999999995 Q20.478749999999998 -74.09125 29.508750000000003 -83.12124999999999 Q38.53875 -92.15125 50.874375 -97.31125 Q63.21000000000001 -102.47125 77.4 -102.47125 Q91.59 -102.47125 103.92562500000001 -97.31125 Q116.26124999999999 -92.15125 125.29125 -83.12124999999999 Q134.32125 -74.09125 139.48125000000002 -61.755624999999995 Q144.64125 -49.41999999999999 144.64125 -35.22999999999999 Q144.64125 -21.039999999999992 139.48125000000002 -8.704374999999985 Q134.32125 3.6312499999999943 125.29125 12.66125000000001 Q116.26124999999999 21.691249999999997 103.92562500000001 26.85125000000002 Q91.59 32.01125000000002 77.4 32.01125000000002 Z M77.4 19.595 Q100.78125 19.595 116.503125 3.8731250000000017 Q132.225 -11.848749999999995 132.225 -35.22999999999999 Q132.225 -58.61124999999999 116.503125 -74.333125 Q100.78125 -90.05499999999999 77.4 -90.05499999999999 Q54.018750000000004 -90.05499999999999 38.296875 -74.333125 Q22.575 -58.61124999999999 22.575 -35.22999999999999 Q22.575 -11.848749999999995 38.296875 3.8731250000000017 Q54.018750000000004 19.595 77.4 19.595 Z"/></g><g id="Regular-L" transform="matrix(1 0 0 1 1378.56 1556)"><path d="M43.5375 -2.9799999999999898 H55.14750000000001 L62.40375000000001 -22.33 H92.5575 L99.97500000000001 -2.9799999999999898 H111.42375 L83.5275 -76.67124999999999 H71.27250000000001 L43.5375 -2.9799999999999898 Z M65.78999999999999 -31.843749999999986  77.23875 -63.44875 H77.56125 L89.3325 -31.843749999999986 H65.78999999999999 Z M77.4 31.849999999999994 Q63.21000000000001 31.849999999999994 50.955000000000005 26.690000000000026 Q38.7 21.53 29.669999999999998 12.5 Q20.64 3.470000000000013 15.48 -8.784999999999982 Q10.32 -21.039999999999992 10.32 -35.22999999999999 Q10.32 -49.41999999999999 15.48 -61.67499999999999 Q20.64 -73.92999999999999 29.669999999999998 -82.96 Q38.7 -91.99 50.955000000000005 -97.14999999999999 Q63.21000000000001 -102.31 77.4 -102.31 Q91.59 -102.31 103.84500000000001 -97.14999999999999 Q116.10000000000001 -91.99 125.13 -82.96 Q134.16 -73.92999999999999 139.32000000000002 -61.67499999999999 Q144.48 -49.41999999999999 144.48 -35.22999999999999 Q144.48 -21.039999999999992 139.32000000000002 -8.784999999999982 Q134.16 3.470000000000013 125.13 12.5 Q116.10000000000001 21.53 103.84500000000001 26.690000000000026 Q91.59 31.849999999999994 77.4 31.849999999999994 Z M77.4 20.078750000000014 Q100.94250000000001 20.078750000000014 116.825625 4.195625000000007 Q132.70875 -11.687499999999986 132.70875 -35.22999999999999 Q132.70875 -58.772499999999994 116.825625 -74.65562499999999 Q100.94250000000001 -90.53875 77.4 -90.53875 Q53.8575 -90.53875 37.974375 -74.65562499999999 Q22.09125 -58.772499999999994 22.09125 -35.22999999999999 Q22.09125 -11.687499999999986 37.974375 4.195625000000007 Q53.8575 20.078750000000014 77.4 20.078750000000014 Z"/></g><g id="Light-L" transform="matrix(1 0 0 1 1082.77 1556)"><path d="M45.4725 -3.7862499999999955 H54.825 L62.081250000000004 -23.13624999999999 H92.88000000000001 L100.13625 -3.7862499999999955 H109.48875000000001 L82.39875 -75.70375 H72.5625 L45.4725 -3.7862499999999955 Z M64.98375 -30.876249999999985  77.23875 -64.41624999999999 H77.72250000000001 L90.13875 -30.876249999999985 H64.98375 Z M77.4 28.625 Q64.01625 28.625 52.32562500000001 23.706874999999997 Q40.635 18.78875000000002 32.008125 10.161875000000023 Q23.38125 1.5349999999999966 18.463124999999998 -10.155625 Q13.545000000000002 -21.846249999999998 13.545000000000002 -35.22999999999999 Q13.545000000000002 -48.613749999999996 18.463124999999998 -60.304374999999986 Q23.38125 -71.995 32.008125 -80.62187499999999 Q40.635 -89.24875 52.32562500000001 -94.166875 Q64.01625 -99.085 77.4 -99.085 Q90.78375 -99.085 102.474375 -94.166875 Q114.16499999999999 -89.24875 122.79187500000002 -80.62187499999999 Q131.41875000000002 -71.995 136.336875 -60.304374999999986 Q141.255 -48.613749999999996 141.255 -35.22999999999999 Q141.255 -21.846249999999998 136.336875 -10.155625 Q131.41875000000002 1.5349999999999966 122.79187500000002 10.161875000000023 Q114.16499999999999 18.78875000000002 102.474375 23.706874999999997 Q90.78375 28.625 77.4 28.625 Z M77.4 19.272500000000008 Q100.45875 19.272500000000008 116.18062499999999 3.5506249999999966 Q131.9025 -12.17125 131.9025 -35.22999999999999 Q131.9025 -58.288749999999986 116.18062499999999 -74.010625 Q100.45875 -89.73249999999999 77.4 -89.73249999999999 Q54.34125000000001 -89.73249999999999 38.619375 -74.010625 Q22.8975 -58.288749999999986 22.8975 -35.22999999999999 Q22.8975 -12.17125 38.619375 3.5506249999999966 Q54.34125000000001 19.272500000000008 77.4 19.272500000000008 Z"/></g><g id="Thin-L" transform="matrix(1 0 0 1 787.282 1556)"><path d="M47.4075 -4.431250000000006 H54.66375 L61.75875 -23.781249999999986 H93.2025 L100.29750000000001 -4.431250000000006 H107.3925 L81.27 -74.73624999999998 H74.01375 L47.4075 -4.431250000000006 Z M64.01625 -29.908749999999998  77.4 -65.38374999999999 H77.88374999999999 L90.945 -29.908749999999998 H64.01625 Z M77.4 25.400000000000006 Q64.8225 25.400000000000006 53.69625 20.723750000000024 Q42.57 16.047500000000014 34.426875 7.823750000000018 Q26.28375 -0.4000000000000057 21.526875 -11.52624999999999 Q16.77 -22.652500000000003 16.77 -35.22999999999999 Q16.77 -47.968749999999986 21.526875 -59.014374999999994 Q26.28375 -70.06 34.426875 -78.28375 Q42.57 -86.5075 53.69625 -91.18374999999999 Q64.8225 -95.86 77.4 -95.86 Q90.13875 -95.86 101.184375 -91.18374999999999 Q112.22999999999999 -86.5075 120.45375000000001 -78.28375 Q128.6775 -70.06 133.35375000000002 -59.014374999999994 Q138.03 -47.968749999999986 138.03 -35.22999999999999 Q138.03 -22.652500000000003 133.35375000000002 -11.606874999999988 Q128.6775 -0.5612499999999869 120.45375000000001 7.662499999999994 Q112.22999999999999 15.886250000000018 101.184375 20.643125000000026 Q90.13875 25.400000000000006 77.4 25.400000000000006 Z M77.4 18.305000000000007 Q99.81375 18.305000000000007 115.374375 2.744375000000005 Q130.935 -12.816249999999997 130.935 -35.22999999999999 Q130.935 -57.64374999999999 115.374375 -73.204375 Q99.81375 -88.76499999999999 77.4 -88.76499999999999 Q54.986250000000005 -88.76499999999999 39.425625 -73.204375 Q23.865000000000002 -57.64374999999999 23.865000000000002 -35.22999999999999 Q23.865000000000002 -12.816249999999997 39.425625 2.744375000000005 Q54.986250000000005 18.305000000000007 77.4 18.305000000000007 Z"/></g><g id="Ultralight-L" transform="matrix(1 0 0 1 491.205 1556)"><path d="M48.53625 -4.914999999999992 H54.5025 L61.597500000000004 -24.265 H93.36375 L100.45875 -4.914999999999992 H106.26375000000002 L80.625 -74.2525 H74.82 L48.53625 -4.914999999999992 Z M63.5325 -29.263749999999987  77.4 -66.02875 H78.045 L91.42875000000001 -29.263749999999987 H63.5325 Z M77.4 23.465000000000003 Q65.30625 23.465000000000003 54.583125 18.86937499999999 Q43.86 14.273750000000007 35.878125000000004 6.372500000000002 Q27.896250000000002 -1.528749999999988 23.300625 -12.332499999999982 Q18.705 -23.13624999999999 18.705 -35.22999999999999 Q18.705 -47.485 23.300625 -58.208124999999995 Q27.896250000000002 -68.93124999999999 35.878125000000004 -76.913125 Q43.86 -84.895 54.583125 -89.41 Q65.30625 -93.925 77.4 -93.925 Q89.655 -93.925 100.378125 -89.41 Q111.10125000000001 -84.895 119.083125 -76.913125 Q127.065 -68.93124999999999 131.57999999999998 -58.208124999999995 Q136.095 -47.485 136.095 -35.22999999999999 Q136.095 -23.13624999999999 131.57999999999998 -12.413124999999994 Q127.065 -1.6899999999999977 119.083125 6.2918750000000045 Q111.10125000000001 14.273750000000007 100.378125 18.86937499999999 Q89.655 23.465000000000003 77.4 23.465000000000003 Z M77.4 17.82125000000002 Q99.49125000000001 17.82125000000002 114.97125 2.3412500000000023 Q130.45125000000002 -13.138749999999987 130.45125000000002 -35.22999999999999 Q130.45125000000002 -57.32125 114.97125 -72.80125 Q99.49125000000001 -88.28125 77.4 -88.28125 Q55.308749999999996 -88.28125 39.82875 -72.80125 Q24.34875 -57.32125 24.34875 -35.22999999999999 Q24.34875 -13.138749999999987 39.82875 2.3412500000000023 Q55.308749999999996 17.82125000000002 77.4 17.82125000000002 Z"/></g><g id="Bold-M" transform="matrix(1 0 0 1 2281.8 1126)"><path d="M31.5 -10.72999999999999 H47.25 L51.25 -22.85499999999999 H68.75 L72.625 -10.72999999999999 H89.25 L67.875 -68.60499999999999 H52.875 L31.5 -10.72999999999999 Z M54.25 -34.47999999999999  59.75 -52.10499999999999 H60.25 L65.875 -34.47999999999999 H54.25 Z M60.0 20.52000000000001 Q48.375 20.52000000000001 38.19 16.210000000000008 Q28.0 11.89500000000001 20.44 4.335000000000008 Q12.875 -3.2299999999999898 8.565000000000001 -13.420000000000002 Q4.25 -23.60499999999999 4.25 -35.22999999999999 Q4.25 -46.85499999999999 8.565000000000001 -57.044999999999995 Q12.875 -67.22999999999999 20.44 -74.79499999999999 Q28.0 -82.35499999999999 38.19 -86.66999999999999 Q48.375 -90.97999999999999 60.0 -90.97999999999999 Q71.625 -90.97999999999999 81.815 -86.66999999999999 Q92.0 -82.35499999999999 99.565 -74.79499999999999 Q107.125 -67.22999999999999 111.44 -57.044999999999995 Q115.75 -46.85499999999999 115.75 -35.22999999999999 Q115.75 -23.60499999999999 111.44 -13.420000000000002 Q107.125 -3.2299999999999898 99.565 4.335000000000008 Q92.0 11.89500000000001 81.815 16.210000000000008 Q71.625 20.52000000000001 60.0 20.52000000000001 Z M60.0 3.5200000000000102 Q76.125 3.5200000000000102 87.44 -7.72999999999999 Q98.75 -18.97999999999999 98.75 -35.22999999999999 Q98.75 -51.47999999999999 87.44 -62.72999999999999 Q76.125 -73.97999999999999 60.0 -73.97999999999999 Q43.875 -73.97999999999999 32.565 -62.72999999999999 Q21.25 -51.47999999999999 21.25 -35.22999999999999 Q21.25 -18.97999999999999 32.565 -7.72999999999999 Q43.875 3.5200000000000102 60.0 3.5200000000000102 Z"/></g><g id="Semibold-M" transform="matrix(1 0 0 1 1985.97 1126)"><path d="M31.125 -9.60499999999999 H45.375 L49.875 -22.97999999999999 H70.125 L74.625 -9.60499999999999 H89.375 L67.375 -69.35499999999999 H53.0 L31.125 -9.60499999999999 Z M53.125 -34.10499999999999  59.75 -54.47999999999999 H60.25 L67.0 -34.10499999999999 H53.125 Z M60.0 19.77000000000001 Q48.625 19.77000000000001 38.565 15.455000000000013 Q28.5 11.14500000000001 21.065 3.710000000000008 Q13.625 -3.7299999999999898 9.315 -13.789999999999992 Q5.0 -23.85499999999999 5.0 -35.22999999999999 Q5.0 -46.72999999999999 9.315 -56.78999999999999 Q13.625 -66.85499999999999 21.065 -74.28999999999999 Q28.5 -81.72999999999999 38.565 -85.97999999999999 Q48.625 -90.22999999999999 60.0 -90.22999999999999 Q71.5 -90.22999999999999 81.56 -85.97999999999999 Q91.625 -81.72999999999999 99.06 -74.28999999999999 Q106.5 -66.85499999999999 110.75 -56.78999999999999 Q115.0 -46.72999999999999 115.0 -35.22999999999999 Q115.0 -23.72999999999999 110.75 -13.72999999999999 Q106.5 -3.7299999999999898 99.06 3.710000000000008 Q91.625 11.14500000000001 81.56 15.455000000000013 Q71.5 19.77000000000001 60.0 19.77000000000001 Z M60.0 4.39500000000001 Q76.5 4.39500000000001 88.065 -7.10499999999999 Q99.625 -18.60499999999999 99.625 -35.22999999999999 Q99.625 -51.85499999999999 88.065 -63.35499999999999 Q76.5 -74.85499999999999 60.0 -74.85499999999999 Q43.5 -74.85499999999999 31.939999999999998 -63.35499999999999 Q20.375 -51.85499999999999 20.375 -35.22999999999999 Q20.375 -18.60499999999999 31.939999999999998 -7.10499999999999 Q43.5 4.39500000000001 60.0 4.39500000000001 Z"/></g><g id="Medium-M" transform="matrix(1 0 0 1 1689.91 1126)"><path d="M30.75 -8.72999999999999 H44.0 L49.0 -23.10499999999999 H71.25 L76.125 -8.72999999999999 H89.5 L67.0 -69.97999999999999 H53.125 L30.75 -8.72999999999999 Z M52.375 -33.85499999999999  59.75 -56.22999999999999 H60.25 L67.875 -33.85499999999999 H52.375 Z M60.0 19.14500000000001 Q48.75 19.14500000000001 38.815 14.89500000000001 Q28.875 10.64500000000001 21.5 3.2700000000000102 Q14.125 -4.10499999999999 9.875 -14.039999999999992 Q5.625 -23.97999999999999 5.625 -35.22999999999999 Q5.625 -46.60499999999999 9.875 -56.54499999999999 Q14.125 -66.47999999999999 21.5 -73.85499999999999 Q28.875 -81.22999999999999 38.815 -85.41999999999999 Q48.75 -89.60499999999999 60.0 -89.60499999999999 Q71.375 -89.60499999999999 81.31 -85.41999999999999 Q91.25 -81.22999999999999 98.625 -73.85499999999999 Q106.0 -66.47999999999999 110.19 -56.54499999999999 Q114.375 -46.60499999999999 114.375 -35.22999999999999 Q114.375 -23.85499999999999 110.19 -13.97999999999999 Q106.0 -4.10499999999999 98.625 3.2700000000000102 Q91.25 10.64500000000001 81.31 14.89500000000001 Q71.375 19.14500000000001 60.0 19.14500000000001 Z M60.0 5.02000000000001 Q76.75 5.02000000000001 88.5 -6.6699999999999875 Q100.25 -18.35499999999999 100.25 -35.22999999999999 Q100.25 -52.10499999999999 88.5 -63.79499999999999 Q76.75 -75.47999999999999 60.0 -75.47999999999999 Q43.25 -75.47999999999999 31.5 -63.79499999999999 Q19.75 -52.10499999999999 19.75 -35.22999999999999 Q19.75 -18.35499999999999 31.5 -6.6699999999999875 Q43.25 5.02000000000001 60.0 5.02000000000001 Z"/></g><g id="Regular-M" transform="matrix(1 0 0 1 1394.06 1126)"><path d="M30.5 -8.10499999999999 H43.0 L48.25 -23.10499999999999 H72.0 L77.25 -8.10499999999999 H89.5 L66.75 -70.35499999999999 H53.25 L30.5 -8.10499999999999 Z M51.75 -33.60499999999999  59.75 -57.60499999999999 H60.25 L68.5 -33.60499999999999 H51.75 Z M60.0 18.77000000000001 Q48.75 18.77000000000001 38.935 14.52000000000001 Q29.125 10.27000000000001 21.815 2.960000000000022 Q14.5 -4.35499999999999 10.25 -14.169999999999987 Q6.0 -23.97999999999999 6.0 -35.22999999999999 Q6.0 -46.47999999999999 10.25 -56.35499999999999 Q14.5 -66.22999999999999 21.815 -73.53999999999999 Q29.125 -80.85499999999999 38.935 -85.04499999999999 Q48.75 -89.22999999999999 60.0 -89.22999999999999 Q71.25 -89.22999999999999 81.125 -85.04499999999999 Q91.0 -80.85499999999999 98.315 -73.53999999999999 Q105.625 -66.22999999999999 109.81 -56.35499999999999 Q114.0 -46.47999999999999 114.0 -35.22999999999999 Q114.0 -23.97999999999999 109.81 -14.169999999999987 Q105.625 -4.35499999999999 98.315 2.960000000000022 Q91.0 10.27000000000001 81.125 14.52000000000001 Q71.25 18.77000000000001 60.0 18.77000000000001 Z M60.0 5.52000000000001 Q77.0 5.52000000000001 88.875 -6.35499999999999 Q100.75 -18.22999999999999 100.75 -35.22999999999999 Q100.75 -52.22999999999999 88.875 -64.10499999999999 Q77.0 -75.97999999999999 60.0 -75.97999999999999 Q43.0 -75.97999999999999 31.125 -64.10499999999999 Q19.25 -52.22999999999999 19.25 -35.22999999999999 Q19.25 -18.22999999999999 31.125 -6.35499999999999 Q43.0 5.52000000000001 60.0 5.52000000000001 Z"/></g><g id="Light-M" transform="matrix(1 0 0 1 1098.18 1126)"><path d="M32.375 -8.97999999999999 H42.625 L48.0 -24.10499999999999 H72.25 L77.625 -8.97999999999999 H87.625 L65.625 -69.47999999999999 H54.625 L32.375 -8.97999999999999 Z M50.875 -32.72999999999999  59.875 -58.60499999999999 H60.375 L69.375 -32.72999999999999 H50.875 Z M60.0 16.27000000000001 Q49.375 16.27000000000001 39.940000000000005 12.210000000000008 Q30.5 8.14500000000001 23.565 1.210000000000008 Q16.625 -5.72999999999999 12.565 -15.10499999999999 Q8.5 -24.47999999999999 8.5 -35.22999999999999 Q8.5 -45.97999999999999 12.565 -55.41999999999999 Q16.625 -64.85499999999999 23.565 -71.79499999999999 Q30.5 -78.72999999999999 39.940000000000005 -82.72999999999999 Q49.375 -86.72999999999999 60.0 -86.72999999999999 Q70.75 -86.72999999999999 80.19 -82.72999999999999 Q89.625 -78.72999999999999 96.56 -71.79499999999999 Q103.5 -64.85499999999999 107.5 -55.41999999999999 Q111.5 -45.97999999999999 111.5 -35.22999999999999 Q111.5 -24.47999999999999 107.5 -15.10499999999999 Q103.5 -5.72999999999999 96.56 1.210000000000008 Q89.625 8.14500000000001 80.19 12.210000000000008 Q70.75 16.27000000000001 60.0 16.27000000000001 Z M60.0 5.52000000000001 Q77.0 5.52000000000001 88.875 -6.35499999999999 Q100.75 -18.22999999999999 100.75 -35.22999999999999 Q100.75 -52.22999999999999 88.875 -64.10499999999999 Q77.0 -75.97999999999999 60.0 -75.97999999999999 Q43.0 -75.97999999999999 31.125 -64.10499999999999 Q19.25 -52.22999999999999 19.25 -35.22999999999999 Q19.25 -18.22999999999999 31.125 -6.35499999999999 Q43.0 5.52000000000001 60.0 5.52000000000001 Z"/></g><g id="Thin-M" transform="matrix(1 0 0 1 802.565 1126)"><path d="M34.125 -9.85499999999999 H42.25 L47.625 -24.97999999999999 H72.625 L78.0 -9.85499999999999 H85.875 L64.5 -68.60499999999999 H56.0 L34.125 -9.85499999999999 Z M50.0 -31.85499999999999  60.0 -59.47999999999999 H60.5 L70.25 -31.85499999999999 H50.0 Z M60.0 13.77000000000001 Q49.875 13.77000000000001 40.940000000000005 9.89500000000001 Q32.0 6.02000000000001 25.375 -0.6049999999999898 Q18.75 -7.22999999999999 14.875 -16.169999999999987 Q11.0 -25.10499999999999 11.0 -35.22999999999999 Q11.0 -45.35499999999999 14.875 -54.35499999999999 Q18.75 -63.35499999999999 25.375 -69.97999999999999 Q32.0 -76.60499999999999 40.940000000000005 -80.41999999999999 Q49.875 -84.22999999999999 60.0 -84.22999999999999 Q70.125 -84.22999999999999 79.125 -80.41999999999999 Q88.125 -76.60499999999999 94.75 -69.97999999999999 Q101.375 -63.35499999999999 105.19 -54.41999999999999 Q109.0 -45.47999999999999 109.0 -35.22999999999999 Q109.0 -24.97999999999999 105.19 -16.10499999999999 Q101.375 -7.22999999999999 94.75 -0.6049999999999898 Q88.125 6.02000000000001 79.19 9.89500000000001 Q70.25 13.77000000000001 60.0 13.77000000000001 Z M60.0 5.52000000000001 Q77.0 5.52000000000001 88.875 -6.35499999999999 Q100.75 -18.22999999999999 100.75 -35.22999999999999 Q100.75 -52.22999999999999 88.875 -64.10499999999999 Q77.0 -75.97999999999999 60.0 -75.97999999999999 Q43.0 -75.97999999999999 31.125 -64.10499999999999 Q19.25 -52.22999999999999 19.25 -35.22999999999999 Q19.25 -18.22999999999999 31.125 -6.35499999999999 Q43.0 5.52000000000001 60.0 5.52000000000001 Z"/></g><g id="Ultralight-M" transform="matrix(1 0 0 1 506.415 1126)"><path d="M35.25 -10.35499999999999 H42.0 L47.5 -25.60499999999999 H72.75 L78.25 -10.35499999999999 H84.75 L63.75 -68.10499999999999 H56.75 L35.25 -10.35499999999999 Z M49.5 -31.35499999999999  60.0 -60.10499999999999 H60.5 L70.75 -31.35499999999999 H49.5 Z M60.0 12.27000000000001 Q50.125 12.27000000000001 41.5 8.52000000000001 Q32.875 4.77000000000001 26.435 -1.6049999999999898 Q20.0 -7.97999999999999 16.25 -16.669999999999987 Q12.5 -25.35499999999999 12.5 -35.22999999999999 Q12.5 -45.10499999999999 16.25 -53.79499999999999 Q20.0 -62.47999999999999 26.435 -68.91999999999999 Q32.875 -75.35499999999999 41.5 -79.04499999999999 Q50.125 -82.72999999999999 60.0 -82.72999999999999 Q69.875 -82.72999999999999 78.565 -79.04499999999999 Q87.25 -75.35499999999999 93.69 -68.91999999999999 Q100.125 -62.47999999999999 103.81500000000001 -53.79499999999999 Q107.5 -45.10499999999999 107.5 -35.22999999999999 Q107.5 -25.35499999999999 103.81500000000001 -16.72999999999999 Q100.125 -8.10499999999999 93.69 -1.6699999999999875 Q87.25 4.77000000000001 78.565 8.52000000000001 Q69.875 12.27000000000001 60.0 12.27000000000001 Z M60.0 5.52000000000001 Q77.0 5.52000000000001 88.875 -6.35499999999999 Q100.75 -18.22999999999999 100.75 -35.22999999999999 Q100.75 -52.22999999999999 88.875 -64.10499999999999 Q77.0 -75.97999999999999 60.0 -75.97999999999999 Q43.0 -75.97999999999999 31.125 -64.10499999999999 Q19.25 -52.22999999999999 19.25 -35.22999999999999 Q19.25 -18.22999999999999 31.125 -6.35499999999999 Q43.0 5.52000000000001 60.0 5.52000000000001 Z"/></g><g id="Bold-S" transform="matrix(1 0 0 1 2294.23 696)"><path d="M25.147008 -16.686921999999996 H37.479078 L40.532508 -26.05550799999999 H54.147492 L57.101507999999995 -16.686921999999996 H70.120008 L53.356914 -61.560508 H41.815422 L25.147008 -16.686921999999996 Z M42.899508 -35.13058599999999  47.141172 -48.740835999999994 H47.538828 L51.875172 -35.13058599999999 H42.899508 Z M47.34 7.177171999999999 Q38.563164 7.177171999999999 30.81834 3.9249140000000153 Q23.07825 0.6679220000000043 17.260164 -5.150164000000004 Q11.442077999999999 -10.968249999999998 8.185086 -18.708339999999993 Q4.932828 -26.453163999999994 4.932828 -35.22999999999999 Q4.932828 -44.106249999999996 8.185086 -51.79899999999999 Q11.442077999999999 -59.491749999999996 17.260164 -65.30983599999999 Q23.07825 -71.127922 30.81834 -74.384914 Q38.563164 -77.63717199999999 47.34 -77.63717199999999 Q56.21625 -77.63717199999999 63.909 -74.384914 Q71.60175 -71.127922 77.41983599999999 -65.30983599999999 Q83.237922 -59.491749999999996 86.49491400000001 -51.751659999999994 Q89.74717199999999 -44.00683599999999 89.74717199999999 -35.22999999999999 Q89.74717199999999 -26.453163999999994 86.49491400000001 -18.708339999999993 Q83.237922 -10.968249999999998 77.41983599999999 -5.150164000000004 Q71.60175 0.6679220000000043 63.86166 3.9249140000000153 Q56.116836 7.177171999999999 47.34 7.177171999999999 Z M47.34 -5.443671999999992 Q59.76675 -5.443671999999992 68.444172 -14.073753999999994 Q77.126328 -22.70383599999999 77.126328 -35.22999999999999 Q77.126328 -47.75616399999999 68.444172 -56.386246 Q59.76675 -65.01632799999999 47.34 -65.01632799999999 Q34.91325 -65.01632799999999 26.235827999999998 -56.386246 Q17.553672000000002 -47.75616399999999 17.553672000000002 -35.22999999999999 Q17.553672000000002 -22.70383599999999 26.235827999999998 -14.073753999999994 Q34.91325 -5.443671999999992 47.34 -5.443671999999992 Z"/></g><g id="Semibold-S" transform="matrix(1 0 0 1 1998.1 696)"><path d="M24.8535 -15.801664000000002 H35.997336 L39.547836 -26.154921999999992 H55.231578 L58.682664 -15.801664000000002 H70.219422 L52.963992000000005 -62.15699199999999 H41.914835999999994 L24.8535 -15.801664000000002 Z M42.01425 -34.83707799999999  47.141172 -50.6155 H47.538828 L52.765164000000006 -34.83707799999999 H42.01425 Z M47.34 6.585421999999994 Q38.761992 6.585421999999994 31.116582 3.3331640000000107 Q23.471172 0.07617199999999968 17.7525 -5.642499999999998 Q12.033828 -11.361171999999996 8.776836000000001 -19.006581999999995 Q5.524578 -26.651991999999993 5.524578 -35.22999999999999 Q5.524578 -44.00683599999999 8.776836000000001 -51.60017199999999 Q12.033828 -59.193507999999994 17.7525 -64.91691399999999 Q23.471172 -70.63558599999999 31.116582 -73.840504 Q38.761992 -77.04542199999999 47.34 -77.04542199999999 Q56.116836 -77.04542199999999 63.710172 -73.840504 Q71.303508 -70.63558599999999 77.026914 -64.91691399999999 Q82.745586 -59.193507999999994 85.950504 -51.552831999999995 Q89.15542199999999 -43.907422 89.15542199999999 -35.22999999999999 Q89.15542199999999 -26.55257799999999 85.950504 -18.95450799999999 Q82.745586 -11.361171999999996 77.026914 -5.642499999999998 Q71.303508 0.07617199999999968 63.662832 3.3331640000000107 Q56.017422 6.585421999999994 47.34 6.585421999999994 Z M47.34 -4.752508000000006 Q60.064992000000004 -4.752508000000006 68.936508 -13.63349199999999 Q77.81749199999999 -22.50500799999999 77.81749199999999 -35.22999999999999 Q77.81749199999999 -48.049671999999994 68.936508 -56.878581999999994 Q60.064992000000004 -65.707492 47.34 -65.707492 Q34.615008 -65.707492 25.743492 -56.82650799999999 Q16.862508 -47.95499199999999 16.862508 -35.22999999999999 Q16.862508 -22.410327999999993 25.743492 -13.581417999999985 Q34.615008 -4.752508000000006 47.34 -4.752508000000006 Z"/></g><g id="Medium-S" transform="matrix(1 0 0 1 1701.85 696)"><path d="M24.559991999999998 -15.110499999999988 H34.91325 L38.761992 -26.254335999999988 H56.116836 L59.866164000000005 -15.110499999999988 H70.31883599999999 L52.66575 -62.649328 H42.01425 L24.559991999999998 -15.110499999999988 Z M41.4225 -34.63824999999999  47.141172 -51.99782799999999 H47.538828 L53.456328 -34.63824999999999 H41.4225 Z M47.34 6.093086 Q38.856672 6.093086 31.31541 2.8881680000000074 Q23.769414 -0.316749999999999 18.098081999999998 -5.9880819999999915 Q12.42675 -11.659413999999998 9.221832 -19.205409999999993 Q6.016914 -26.746671999999997 6.016914 -35.22999999999999 Q6.016914 -43.907422 9.221832 -51.406077999999994 Q12.42675 -58.89999999999999 18.098081999999998 -64.571332 Q23.769414 -70.24266399999999 31.31541 -73.39550799999999 Q38.856672 -76.553086 47.34 -76.553086 Q56.017422 -76.553086 63.516078 -73.39550799999999 Q71.01 -70.24266399999999 76.681332 -64.571332 Q82.352664 -58.89999999999999 85.505508 -51.35400399999999 Q88.66308599999999 -43.808007999999994 88.66308599999999 -35.22999999999999 Q88.66308599999999 -26.651991999999993 85.505508 -19.15333599999999 Q82.352664 -11.659413999999998 76.681332 -5.9880819999999915 Q71.01 -0.316749999999999 63.464004 2.8881680000000074 Q55.918008 6.093086 47.34 6.093086 Z M47.34 -4.260171999999983 Q60.259085999999996 -4.260171999999983 69.28209 -13.287909999999997 Q78.30982800000001 -22.310913999999997 78.30982800000001 -35.22999999999999 Q78.30982800000001 -48.24849999999999 69.28209 -57.22416399999999 Q60.259085999999996 -66.199828 47.34 -66.199828 Q34.420913999999996 -66.199828 25.39791 -57.17209 Q16.370172 -48.149086 16.370172 -35.22999999999999 Q16.370172 -22.211499999999994 25.39791 -13.235835999999992 Q34.420913999999996 -4.260171999999983 47.34 -4.260171999999983 Z"/></g><g id="Regular-S" transform="matrix(1 0 0 1 1405.73 696)"><path d="M24.361164 -14.618163999999993 H34.122672 L38.165507999999996 -26.254335999999988 H56.708586 L60.751422 -14.618163999999993 H70.31883599999999 L52.466922000000004 -62.94283599999999 H42.11366400000001 L24.361164 -14.618163999999993 Z M40.930164000000005 -34.43942199999999  47.141172 -53.081914 H47.538828 L53.948664 -34.43942199999999 H40.930164000000005 Z M47.34 5.799578000000011 Q38.856672 5.799578000000011 31.41009 2.5946600000000046 Q23.963508 -0.6149919999999867 18.34425 -6.234249999999989 Q12.724992 -11.85350799999999 9.515339999999998 -19.30008999999999 Q6.310422 -26.746671999999997 6.310422 -35.22999999999999 Q6.310422 -43.808007999999994 9.515339999999998 -51.25458999999999 Q12.724992 -58.70117199999999 18.34425 -64.325164 Q23.963508 -69.94442199999999 31.41009 -73.10199999999999 Q38.856672 -76.25957799999999 47.34 -76.25957799999999 Q55.918008 -76.25957799999999 63.36459 -73.10199999999999 Q70.811172 -69.94442199999999 76.435164 -64.325164 Q82.05442199999999 -58.70117199999999 85.212 -51.207249999999995 Q88.369578 -43.71332799999999 88.369578 -35.22999999999999 Q88.369578 -26.746671999999997 85.212 -19.30008999999999 Q82.05442199999999 -11.85350799999999 76.435164 -6.234249999999989 Q70.811172 -0.6149919999999867 63.31725 2.5946600000000046 Q55.823328 5.799578000000011 47.34 5.799578000000011 Z M47.34 -3.8672499999999985 Q60.457914 -3.8672499999999985 69.580332 -12.989667999999995 Q78.70275 -22.11208599999999 78.70275 -35.22999999999999 Q78.70275 -48.347913999999996 69.580332 -57.470332 Q60.457914 -66.59275 47.34 -66.59275 Q34.222086 -66.59275 25.099667999999998 -57.470332 Q15.97725 -48.347913999999996 15.97725 -35.22999999999999 Q15.97725 -22.11208599999999 25.099667999999998 -12.989667999999995 Q34.222086 -3.8672499999999985 47.34 -3.8672499999999985 Z"/></g><g id="Light-S" transform="matrix(1 0 0 1 1109.75 696)"><path d="M25.838172 -15.309327999999994 H33.829164 L37.971414 -27.044914 H56.907414 L61.04966400000001 -15.309327999999994 H68.84182799999999 L51.581664 -62.251672 H43.19775 L25.838172 -15.309327999999994 Z M40.239 -33.752992  47.24058599999999 -53.872491999999994 H47.633508 L54.639828 -33.752992 H40.239 Z M47.34 3.8255000000000052 Q39.349008 3.8255000000000052 32.200668 0.7673360000000002 Q25.052328 -2.2908280000000047 19.726578 -7.61657799999999 Q14.400827999999999 -12.94232799999999 11.342664 -20.043327999999995 Q8.2845 -27.144327999999994 8.2845 -35.22999999999999 Q8.2845 -43.41508599999999 11.342664 -50.516085999999994 Q14.400827999999999 -57.61708599999999 19.726578 -62.94283599999999 Q25.052328 -68.268586 32.153328 -71.27941 Q39.254328 -74.2855 47.34 -74.2855 Q55.525085999999995 -74.2855 62.626085999999994 -71.27941 Q69.727086 -68.268586 75.052836 -62.94283599999999 Q80.378586 -57.61708599999999 83.38941 -50.468745999999996 Q86.3955 -43.31567199999999 86.3955 -35.22999999999999 Q86.3955 -27.144327999999994 83.38941 -20.043327999999995 Q80.378586 -12.94232799999999 75.052836 -7.61657799999999 Q69.727086 -2.2908280000000047 62.578745999999995 0.7673360000000002 Q55.425672 3.8255000000000052 47.34 3.8255000000000052 Z M47.34 -3.8672499999999985 Q60.457914 -3.8672499999999985 69.580332 -12.989667999999995 Q78.70275 -22.11208599999999 78.70275 -35.22999999999999 Q78.70275 -48.347913999999996 69.580332 -57.470332 Q60.457914 -66.59275 47.34 -66.59275 Q34.222086 -66.59275 25.099667999999998 -57.470332 Q15.97725 -48.347913999999996 15.97725 -35.22999999999999 Q15.97725 -22.11208599999999 25.099667999999998 -12.989667999999995 Q34.222086 -3.8672499999999985 47.34 -3.8672499999999985 Z"/></g><g id="Thin-S" transform="matrix(1 0 0 1 814.015 696)"><path d="M27.2205 -16.000491999999994 H33.530922000000004 L37.772586 -27.736077999999992 H57.200922 L61.343172 -16.000491999999994 H67.4595 L50.691672000000004 -61.560508 H44.281836 L27.2205 -16.000491999999994 Z M39.547836 -33.06182799999999  47.34 -54.558921999999995 H47.732922 L55.330992 -33.06182799999999 H39.547836 Z M47.34 1.8514219999999995 Q39.746664 1.8514219999999995 32.991246000000004 -1.0552539999999908 Q26.235827999999998 -3.9666639999999944 21.156246000000003 -9.046245999999996 Q16.076664 -14.125827999999998 13.165254000000001 -20.829171999999993 Q10.258578 -27.537249999999993 10.258578 -35.22999999999999 Q10.258578 -42.92274999999999 13.165254000000001 -49.67816799999999 Q16.076664 -56.43358599999999 21.156246000000003 -61.51316799999999 Q26.235827999999998 -66.59275 32.991246000000004 -69.452086 Q39.746664 -72.311422 47.34 -72.311422 Q55.03275 -72.311422 61.788168 -69.452086 Q68.54358599999999 -66.59275 73.62316799999999 -61.51316799999999 Q78.70275 -56.43358599999999 81.562086 -49.67816799999999 Q84.42142199999999 -42.92274999999999 84.42142199999999 -35.22999999999999 Q84.42142199999999 -27.537249999999993 81.562086 -20.829171999999993 Q78.70275 -14.125827999999998 73.62316799999999 -9.046245999999996 Q68.54358599999999 -3.9666639999999944 61.788168 -1.0552539999999908 Q55.03275 1.8514219999999995 47.34 1.8514219999999995 Z M47.34 -3.8672499999999985 Q60.457914 -3.8672499999999985 69.580332 -12.989667999999995 Q78.70275 -22.11208599999999 78.70275 -35.22999999999999 Q78.70275 -48.347913999999996 69.580332 -57.470332 Q60.457914 -66.59275 47.34 -66.59275 Q34.222086 -66.59275 25.099667999999998 -57.470332 Q15.97725 -48.347913999999996 15.97725 -35.22999999999999 Q15.97725 -22.11208599999999 25.099667999999998 -12.989667999999995 Q34.222086 -3.8672499999999985 47.34 -3.8672499999999985 Z"/></g><g id="Ultralight-S" transform="matrix(1 0 0 1 517.792 696)"><path d="M28.110491999999997 -16.393413999999993 H33.336828 L37.578492 -28.228413999999994 H57.300335999999994 L61.542 -16.393413999999993 H66.569508 L50.099922 -61.16758599999999 H44.873585999999996 L28.110491999999997 -16.393413999999993 Z M39.154914000000005 -32.66417199999999  47.34 -55.05599199999999 H47.732922 L55.723914 -32.66417199999999 H39.154914000000005 Z M47.34 0.6679220000000043 Q39.945492 0.6679220000000043 33.431508 -2.1393400000000042 Q26.926992 -4.9513359999999835 21.994163999999998 -9.832089999999994 Q17.061336 -14.717577999999989 14.249339999999998 -21.27416799999999 Q11.442077999999999 -27.835491999999995 11.442077999999999 -35.22999999999999 Q11.442077999999999 -42.723921999999995 14.249339999999998 -49.233171999999996 Q17.061336 -55.74242199999999 21.994163999999998 -60.67524999999999 Q26.926992 -65.60807799999999 33.431508 -68.368 Q39.945492 -71.127922 47.34 -71.127922 Q54.833922 -71.127922 61.343172 -68.368 Q67.852422 -65.60807799999999 72.78525 -60.67524999999999 Q77.718078 -55.74242199999999 80.478 -49.233171999999996 Q83.237922 -42.723921999999995 83.237922 -35.22999999999999 Q83.237922 -27.835491999999995 80.478 -21.321507999999987 Q77.718078 -14.816991999999999 72.78525 -9.884163999999998 Q67.852422 -4.9513359999999835 61.343172 -2.1393400000000042 Q54.833922 0.6679220000000043 47.34 0.6679220000000043 Z M47.34 -3.8672499999999985 Q60.457914 -3.8672499999999985 69.580332 -12.989667999999995 Q78.70275 -22.11208599999999 78.70275 -35.22999999999999 Q78.70275 -48.347913999999996 69.580332 -57.470332 Q60.457914 -66.59275 47.34 -66.59275 Q34.222086 -66.59275 25.099667999999998 -57.470332 Q15.97725 -48.347913999999996 15.97725 -35.22999999999999 Q15.97725 -22.11208599999999 25.099667999999998 -12.989667999999995 Q34.222086 -3.8672499999999985 47.34 -3.8672499999999985 Z"/></g></g></svg>