<svg xmlns="http://www.w3.org/2000/svg" version="1.1" width="3300" height="2000"><g id="Notes"><style>
    text {
      font-family: monospace;
      text-anchor: middle;
    }
    text.emphasis {
      font-weight:bold;
    }
    text.lanchor {
      text-anchor: start;
    }
  </style><rect height="2200" id="artboard" fill="white" width="3300" x="0" y="0"/><line id="" style="fill:none;stroke:black;stroke-width:0.5;" x1="263" x2="3036" y1="292" y2="292"/><text class="lanchor emphasis" transform="matrix(1 0 0 1 263 322)">Weight/Scale Variations</text><text transform="matrix(1 0 0 1 559.711 322)">Ultralight</text><text transform="matrix(1 0 0 1 856.422 322)">Thin</text><text transform="matrix(1 0 0 1 1153.13 322)">Light</text><text transform="matrix(1 0 0 1 1449.84 322)">Regular</text><text transform="matrix(1 0 0 1 1746.56 322)">Medium</text><text transform="matrix(1 0 0 1 2043.27 322)">Semibold</text><text transform="matrix(1 0 0 1 2339.98 322)">Bold</text><text transform="matrix(1 0 0 1 2636.69 322)">Heavy</text><text transform="matrix(1 0 0 1 2933.4 322)">Black</text><text id="template-version" style="text-anchor: end;" transform="matrix(1 0 0 1 3036 1933)">Template v.1.0</text><text class="lanchor" transform="matrix(1 0 0 1 263 726)">Small</text><text class="lanchor" transform="matrix(1 0 0 1 263 1156)">Medium</text><text class="lanchor" transform="matrix(1 0 0 1 263 1586)">Large</text></g><g id="Guides"><g id="H-reference" style="fill:#27AAE1;stroke:none;" transform="matrix(1 0 0 1 339 696)"><path d="M 54.9316 0 L 57.666 0 L 30.5664 -70.459 L 28.0762 -70.459 L 0.976562 0 L 3.66211 0 L 12.9395 -24.4629 L 45.7031 -24.4629 Z M 29.1992 -67.0898 L 29.4434 -67.0898 L 44.8242 -26.709 L 13.8184 -26.709 Z"/></g><line id="Baseline-S" style="fill:none;stroke:#27AAE1;opacity:1;stroke-width:0.577;" x1="263" x2="3036" y1="696" y2="696"/><line id="Capline-S" style="fill:none;stroke:#27AAE1;opacity:1;stroke-width:0.577;" x1="263" x2="3036" y1="625.541" y2="625.541"/><g id="H-reference" style="fill:#27AAE1;stroke:none;" transform="matrix(1 0 0 1 339 1126)"><path d="M 54.9316 0 L 57.666 0 L 30.5664 -70.459 L 28.0762 -70.459 L 0.976562 0 L 3.66211 0 L 12.9395 -24.4629 L 45.7031 -24.4629 Z M 29.1992 -67.0898 L 29.4434 -67.0898 L 44.8242 -26.709 L 13.8184 -26.709 Z"/></g><line id="Baseline-M" style="fill:none;stroke:#27AAE1;opacity:1;stroke-width:0.577;" x1="263" x2="3036" y1="1126" y2="1126"/><line id="Capline-M" style="fill:none;stroke:#27AAE1;opacity:1;stroke-width:0.577;" x1="263" x2="3036" y1="1055.54" y2="1055.54"/><g id="H-reference" style="fill:#27AAE1;stroke:none;" transform="matrix(1 0 0 1 339 1556)"><path d="M 54.9316 0 L 57.666 0 L 30.5664 -70.459 L 28.0762 -70.459 L 0.976562 0 L 3.66211 0 L 12.9395 -24.4629 L 45.7031 -24.4629 Z M 29.1992 -67.0898 L 29.4434 -67.0898 L 44.8242 -26.709 L 13.8184 -26.709 Z"/></g><line id="Baseline-L" style="fill:none;stroke:#27AAE1;opacity:1;stroke-width:0.577;" x1="263" x2="3036" y1="1556" y2="1556"/><line id="Capline-L" style="fill:none;stroke:#27AAE1;opacity:1;stroke-width:0.577;" x1="263" x2="3036" y1="1485.54" y2="1485.54"/><rect height="119.336" id="left-margin" style="fill:darkred;stroke:none;opacity:0.4;" width="12.4512" x="1394.06" y="1030.79"/><rect height="119.336" id="right-margin" style="fill:darkgreen;stroke:none;opacity:0.4;" width="12.4512" x="1502.5112" y="1030.79"/><rect x="1406.5112" y="1045" width="96" height="96" fill="none" stroke="blue" stroke-dasharray="5"/><rect x="1394.06" y="1030.79" width="120.9024" height="119.336" fill="none" stroke="blue"/></g><g id="Symbols"><g id="Bold-L" transform="matrix(1 0 0 1 2266 1556)"><path d="M15.963750000000001 26.20625000000001 V-96.82749999999999 H72.885 V26.20625000000001 H15.963750000000001 Z M82.07625 -44.582499999999996 V-96.82749999999999 H138.9975 V-44.582499999999996 H82.07625 Z M138.9975 26.20625000000001 H82.07625 V-35.39125 H138.9975 V26.20625000000001 Z"/></g><g id="Semibold-L" transform="matrix(1 0 0 1 1970.27 1556)"><path d="M16.28625 25.88375000000002 V-96.34375 H72.40125 V25.88375000000002 H16.28625 Z M82.56 -45.71124999999999 V-96.34375 H138.51375000000002 V-45.71124999999999 H82.56 Z M138.51375000000002 25.88375000000002 H82.56 V-35.39125 H138.51375000000002 V25.88375000000002 Z"/></g><g id="Medium-L" transform="matrix(1 0 0 1 1674.31 1556)"><path d="M16.60875 25.56125 V-96.02125 H71.9175 V25.56125 H16.60875 Z M83.04375 -46.5175 V-96.02125 H138.19125 V-46.5175 H83.04375 Z M138.19125 25.56125 H83.04375 V-35.39125 H138.19125 V25.56125 Z"/></g><g id="Regular-L" transform="matrix(1 0 0 1 1378.56 1556)"><path d="M16.77 25.400000000000006 V-95.86 H71.595 V25.400000000000006 H16.77 Z M83.36625000000001 -47.162499999999994 V-95.86 H138.03 V-47.162499999999994 H83.36625000000001 Z M138.03 25.400000000000006 H83.36625000000001 V-35.39125 H138.03 V25.400000000000006 Z"/></g><g id="Light-L" transform="matrix(1 0 0 1 1082.77 1556)"><path d="M19.995 22.17500000000001 V-92.63499999999999 H72.72375000000001 V22.17500000000001 H19.995 Z M82.2375 -44.74374999999999 V-92.63499999999999 H134.805 V-44.74374999999999 H82.2375 Z M134.805 22.17500000000001 H82.2375 V-35.39125 H134.805 V22.17500000000001 Z"/></g><g id="Thin-L" transform="matrix(1 0 0 1 787.282 1556)"><path d="M23.220000000000002 18.94999999999999 V-89.41 H74.01375 V18.94999999999999 H23.220000000000002 Z M80.9475 -42.32499999999999 V-89.41 H131.57999999999998 V-42.32499999999999 H80.9475 Z M131.57999999999998 18.94999999999999 H80.9475 V-35.22999999999999 H131.57999999999998 V18.94999999999999 Z"/></g><g id="Ultralight-L" transform="matrix(1 0 0 1 491.205 1556)"><path d="M25.155 17.015000000000015 V-87.475 H74.65875 V17.015000000000015 H25.155 Z M80.3025 -40.87374999999999 V-87.475 H129.645 V-40.87374999999999 H80.3025 Z M129.645 17.015000000000015 H80.3025 V-35.22999999999999 H129.645 V17.015000000000015 Z"/></g><g id="Bold-M" transform="matrix(1 0 0 1 2281.8 1126)"><path d="M9.25 15.52000000000001 V-85.97999999999999 H54.375 V15.52000000000001 H9.25 Z M65.625 -46.47999999999999 V-85.97999999999999 H110.75 V-46.47999999999999 H65.625 Z M110.75 15.52000000000001 H65.625 V-35.22999999999999 H110.75 V15.52000000000001 Z"/></g><g id="Semibold-M" transform="matrix(1 0 0 1 1985.97 1126)"><path d="M10.0 14.77000000000001 V-85.22999999999999 H54.0 V14.77000000000001 H10.0 Z M66.0 -47.35499999999999 V-85.22999999999999 H110.0 V-47.35499999999999 H66.0 Z M110.0 14.77000000000001 H66.0 V-35.22999999999999 H110.0 V14.77000000000001 Z"/></g><g id="Medium-M" transform="matrix(1 0 0 1 1689.91 1126)"><path d="M10.625 14.14500000000001 V-84.60499999999999 H53.625 V14.14500000000001 H10.625 Z M66.375 -47.97999999999999 V-84.60499999999999 H109.375 V-47.97999999999999 H66.375 Z M109.375 14.14500000000001 H66.375 V-35.22999999999999 H109.375 V14.14500000000001 Z"/></g><g id="Regular-M" transform="matrix(1 0 0 1 1394.06 1126)"><path d="M11.0 13.77000000000001 V-84.22999999999999 H53.375 V13.77000000000001 H11.0 Z M66.625 -48.47999999999999 V-84.22999999999999 H109.0 V-48.47999999999999 H66.625 Z M109.0 13.77000000000001 H66.625 V-35.22999999999999 H109.0 V13.77000000000001 Z"/></g><g id="Light-M" transform="matrix(1 0 0 1 1098.18 1126)"><path d="M13.5 11.27000000000001 V-81.72999999999999 H54.625 V11.27000000000001 H13.5 Z M65.375 -45.97999999999999 V-81.72999999999999 H106.5 V-45.97999999999999 H65.375 Z M106.5 11.27000000000001 H65.375 V-35.22999999999999 H106.5 V11.27000000000001 Z"/></g><g id="Thin-M" transform="matrix(1 0 0 1 802.565 1126)"><path d="M16.0 8.77000000000001 V-79.22999999999999 H55.875 V8.77000000000001 H16.0 Z M64.125 -43.47999999999999 V-79.22999999999999 H104.0 V-43.47999999999999 H64.125 Z M104.0 8.77000000000001 H64.125 V-35.22999999999999 H104.0 V8.77000000000001 Z"/></g><g id="Ultralight-M" transform="matrix(1 0 0 1 506.415 1126)"><path d="M17.5 7.27000000000001 V-77.72999999999999 H56.625 V7.27000000000001 H17.5 Z M63.375 -41.97999999999999 V-77.72999999999999 H102.5 V-41.97999999999999 H63.375 Z M102.5 7.27000000000001 H63.375 V-35.22999999999999 H102.5 V7.27000000000001 Z"/></g><g id="Bold-S" transform="matrix(1 0 0 1 2294.23 696)"><path d="M9.666827999999999 2.443172000000004 V-72.903172 H43.297164 V2.443172000000004 H9.666827999999999 Z M51.382836 -43.31567199999999 V-72.903172 H85.013172 V-43.31567199999999 H51.382836 Z M85.013172 2.443172000000004 H51.382836 V-35.22999999999999 H85.013172 V2.443172000000004 Z"/></g><g id="Semibold-S" transform="matrix(1 0 0 1 1998.1 696)"><path d="M10.258578 1.8514219999999995 V-72.311422 H42.998922 V1.8514219999999995 H10.258578 Z M51.681078 -44.00683599999999 V-72.311422 H84.42142199999999 V-44.00683599999999 H51.681078 Z M84.42142199999999 1.8514219999999995 H51.681078 V-35.22999999999999 H84.42142199999999 V1.8514219999999995 Z"/></g><g id="Medium-S" transform="matrix(1 0 0 1 1701.85 696)"><path d="M10.750914 1.359086000000005 V-71.819086 H42.705414000000005 V1.359086000000005 H10.750914 Z M51.974585999999995 -44.499171999999994 V-71.819086 H83.929086 V-44.499171999999994 H51.974585999999995 Z M83.929086 1.359086000000005 H51.974585999999995 V-35.22999999999999 H83.929086 V1.359086000000005 Z"/></g><g id="Regular-S" transform="matrix(1 0 0 1 1405.73 696)"><path d="M11.044422 1.0655780000000163 V-71.525578 H42.506586 V1.0655780000000163 H11.044422 Z M52.173414 -44.89682799999999 V-71.525578 H83.63557800000001 V-44.89682799999999 H52.173414 Z M83.63557800000001 1.0655780000000163 H52.173414 V-35.22999999999999 H83.63557800000001 V1.0655780000000163 Z"/></g><g id="Light-S" transform="matrix(1 0 0 1 1109.75 696)"><path d="M13.0185 -0.9084999999999894 V-69.55149999999999 H43.495992 V-0.9084999999999894 H13.0185 Z M51.184008 -42.92274999999999 V-69.55149999999999 H81.6615 V-42.92274999999999 H51.184008 Z M81.6615 -0.9084999999999894 H51.184008 V-35.22999999999999 H81.6615 V-0.9084999999999894 Z"/></g><g id="Thin-S" transform="matrix(1 0 0 1 814.015 696)"><path d="M14.992578 -2.882577999999995 V-67.577422 H44.480664000000004 V-2.882577999999995 H14.992578 Z M50.199335999999995 -40.948671999999995 V-67.577422 H79.687422 V-40.948671999999995 H50.199335999999995 Z M79.687422 -2.882577999999995 H50.199335999999995 V-35.22999999999999 H79.687422 V-2.882577999999995 Z"/></g><g id="Ultralight-S" transform="matrix(1 0 0 1 517.792 696)"><path d="M16.176078 -4.0660780000000045 V-66.39392199999999 H45.072414 V-4.0660780000000045 H16.176078 Z M49.607586 -39.76517199999999 V-66.39392199999999 H78.50392199999999 V-39.76517199999999 H49.607586 Z M78.50392199999999 -4.0660780000000045 H49.607586 V-35.22999999999999 H78.50392199999999 V-4.0660780000000045 Z"/></g></g></svg>