<svg xmlns="http://www.w3.org/2000/svg" version="1.1" width="3300" height="2000"><g id="Notes"><style>
    text {
      font-family: monospace;
      text-anchor: middle;
    }
    text.emphasis {
      font-weight:bold;
    }
    text.lanchor {
      text-anchor: start;
    }
  </style><rect height="2200" id="artboard" fill="white" width="3300" x="0" y="0"/><line id="" style="fill:none;stroke:black;stroke-width:0.5;" x1="263" x2="3036" y1="292" y2="292"/><text class="lanchor emphasis" transform="matrix(1 0 0 1 263 322)">Weight/Scale Variations</text><text transform="matrix(1 0 0 1 559.711 322)">Ultralight</text><text transform="matrix(1 0 0 1 856.422 322)">Thin</text><text transform="matrix(1 0 0 1 1153.13 322)">Light</text><text transform="matrix(1 0 0 1 1449.84 322)">Regular</text><text transform="matrix(1 0 0 1 1746.56 322)">Medium</text><text transform="matrix(1 0 0 1 2043.27 322)">Semibold</text><text transform="matrix(1 0 0 1 2339.98 322)">Bold</text><text transform="matrix(1 0 0 1 2636.69 322)">Heavy</text><text transform="matrix(1 0 0 1 2933.4 322)">Black</text><text id="template-version" style="text-anchor: end;" transform="matrix(1 0 0 1 3036 1933)">Template v.1.0</text><text class="lanchor" transform="matrix(1 0 0 1 263 726)">Small</text><text class="lanchor" transform="matrix(1 0 0 1 263 1156)">Medium</text><text class="lanchor" transform="matrix(1 0 0 1 263 1586)">Large</text></g><g id="Guides"><g id="H-reference" style="fill:#27AAE1;stroke:none;" transform="matrix(1 0 0 1 339 696)"><path d="M 54.9316 0 L 57.666 0 L 30.5664 -70.459 L 28.0762 -70.459 L 0.976562 0 L 3.66211 0 L 12.9395 -24.4629 L 45.7031 -24.4629 Z M 29.1992 -67.0898 L 29.4434 -67.0898 L 44.8242 -26.709 L 13.8184 -26.709 Z"/></g><line id="Baseline-S" style="fill:none;stroke:#27AAE1;opacity:1;stroke-width:0.577;" x1="263" x2="3036" y1="696" y2="696"/><line id="Capline-S" style="fill:none;stroke:#27AAE1;opacity:1;stroke-width:0.577;" x1="263" x2="3036" y1="625.541" y2="625.541"/><g id="H-reference" style="fill:#27AAE1;stroke:none;" transform="matrix(1 0 0 1 339 1126)"><path d="M 54.9316 0 L 57.666 0 L 30.5664 -70.459 L 28.0762 -70.459 L 0.976562 0 L 3.66211 0 L 12.9395 -24.4629 L 45.7031 -24.4629 Z M 29.1992 -67.0898 L 29.4434 -67.0898 L 44.8242 -26.709 L 13.8184 -26.709 Z"/></g><line id="Baseline-M" style="fill:none;stroke:#27AAE1;opacity:1;stroke-width:0.577;" x1="263" x2="3036" y1="1126" y2="1126"/><line id="Capline-M" style="fill:none;stroke:#27AAE1;opacity:1;stroke-width:0.577;" x1="263" x2="3036" y1="1055.54" y2="1055.54"/><g id="H-reference" style="fill:#27AAE1;stroke:none;" transform="matrix(1 0 0 1 339 1556)"><path d="M 54.9316 0 L 57.666 0 L 30.5664 -70.459 L 28.0762 -70.459 L 0.976562 0 L 3.66211 0 L 12.9395 -24.4629 L 45.7031 -24.4629 Z M 29.1992 -67.0898 L 29.4434 -67.0898 L 44.8242 -26.709 L 13.8184 -26.709 Z"/></g><line id="Baseline-L" style="fill:none;stroke:#27AAE1;opacity:1;stroke-width:0.577;" x1="263" x2="3036" y1="1556" y2="1556"/><line id="Capline-L" style="fill:none;stroke:#27AAE1;opacity:1;stroke-width:0.577;" x1="263" x2="3036" y1="1485.54" y2="1485.54"/><rect height="119.336" id="left-margin" style="fill:darkred;stroke:none;opacity:0.4;" width="12.4512" x="1394.06" y="1030.79"/><rect height="119.336" id="right-margin" style="fill:darkgreen;stroke:none;opacity:0.4;" width="12.4512" x="1502.5112" y="1030.79"/><rect x="1406.5112" y="1045" width="96" height="96" fill="none" stroke="blue" stroke-dasharray="5"/><rect x="1394.06" y="1030.79" width="120.9024" height="119.336" fill="none" stroke="blue"/></g><g id="Symbols"><g id="Bold-L" transform="matrix(1 0 0 1 2266 1556)"><path d="M143.754375 -45.469374999999985 Q146.0925 -43.21187499999999 146.0925 -40.14812499999999 Q146.0925 -37.08437499999998 143.754375 -34.907499999999985 L121.17937500000001 -12.009999999999984 Q118.760625 -9.994374999999984 115.7371875 -9.994374999999984 Q112.71375 -9.994374999999984 110.45625 -12.009999999999984 L101.42625 -21.362499999999983 Q99.249375 -23.539374999999993 99.249375 -26.52249999999998 Q99.249375 -29.50562499999998 101.42625 -31.763124999999988 Q103.603125 -34.10124999999999 106.58625 -34.10124999999999 Q109.56937500000001 -34.10124999999999 111.74625 -31.763124999999988 L115.858125 -27.893124999999984 L133.35375 -45.469374999999985 Q135.53062500000001 -47.64624999999998 138.51375000000002 -47.64624999999998 Q141.49687500000002 -47.64624999999998 143.754375 -45.469374999999985 Z M65.79 22.820000000000014  60.388125 17.901875000000015 Q42.650625 2.180000000000014 31.4840625 -9.107499999999987 Q20.3175 -20.39499999999999 13.9884375 -29.14281249999999 Q7.659375 -37.890624999999986 5.3615625 -45.22749999999999 Q3.06375 -52.564374999999984 3.06375 -60.38499999999999 Q3.06375 -76.34874999999998 13.786875 -87.75718749999999 Q24.51 -99.16562499999998 40.393125 -99.16562499999998 Q49.3425 -99.16562499999998 57.042187500000004 -95.21499999999997 Q64.74187500000001 -91.264375 70.78875000000001 -83.60499999999999 Q77.88375 -91.50625 85.1803125 -95.3359375 Q92.476875 -99.16562499999998 101.184375 -99.16562499999998 Q115.7775 -99.16562499999998 126.70218750000001 -88.80531249999999 Q137.626875 -78.445 138.916875 -63.20687499999998 Q133.918125 -66.51249999999999 129.2015625 -68.28624999999998 Q124.485 -70.05999999999999 119.244375 -70.05999999999999 Q98.92687500000001 -70.05999999999999 86.91375000000001 -57.764687499999994 Q74.900625 -45.469374999999985 74.900625 -28.779999999999987 Q74.900625 -17.492499999999986 79.98 -8.664062499999986 Q85.059375 0.16437500000001393 94.41187500000001 6.130625000000016 Q90.6225 9.678125000000016 87.39750000000001 12.580625000000015 Q84.1725 15.483125000000015 79.98 19.272500000000015 L75.868125 22.820000000000014 Q73.77187500000001 24.835625000000014 70.9096875 24.835625000000014 Q68.0475 24.835625000000014 65.79 22.820000000000014 Z"/></g><g id="Semibold-L" transform="matrix(1 0 0 1 1970.27 1556)"><path d="M142.91313375000001 -44.62813374999999 Q144.8305575 -42.72119124999999 144.8305575 -40.14812499999999 Q144.8305575 -37.57505874999998 142.91313375000001 -35.74874124999998 L120.26799 -12.921384999999987 Q118.26994125 -11.186173749999988 115.7371875 -11.186173749999988 Q113.20443375 -11.186173749999988 111.29749125000001 -12.921384999999987 L102.26749125 -22.20374124999998 Q100.44117374999999 -24.03005874999998 100.44117374999999 -26.52249999999998 Q100.44117374999999 -29.01494124999998 102.26749125 -30.921883749999992 Q104.09380875000001 -32.83930749999999 106.58625 -32.83930749999999 Q109.07869125 -32.83930749999999 110.90500875000001 -30.921883749999992 L115.858125 -26.210642499999977 L134.19499125000002 -44.62813374999999 Q136.02130875 -46.45445124999999 138.51375000000002 -46.45445124999999 Q141.00619125 -46.45445124999999 142.91313375000001 -44.62813374999999 Z M66.701385 21.207661250000015  58.0045275 13.345111250000016 Q42.019653749999996 -0.9045512499999901 31.729485 -11.245674999999984 Q21.439155 -21.586798749999986 15.46065 -29.808774999999983 Q9.482145000000001 -38.030912499999985 7.184332500000001 -45.05222124999999 Q4.88652 -52.07369124999998 4.88652 -59.68388499999999 Q4.88652 -74.87653749999998 15.118800000000002 -85.7241475 Q25.35124125 -96.57175749999999 40.463268750000005 -96.57175749999999 Q49.4827875 -96.57175749999999 57.21746625 -92.44585375 Q64.952145 -88.31994999999998 70.85889375000001 -80.38016124999999 Q77.81360625 -88.63196874999997 85.1803125 -92.60194374999998 Q92.54701874999999 -96.57175749999999 101.25451874999999 -96.57175749999999 Q114.79597125000001 -96.57175749999999 124.98471375000001 -87.05268625 Q135.173295 -77.53361499999998 136.81369125 -63.97797249999999 Q132.5862 -66.37221249999999 128.74587 -67.62028749999999 Q124.90570125 -68.86820125 120.64644375000002 -68.86820125 Q101.59088625 -68.86820125 89.89316625 -56.99358999999998 Q78.19544625 -45.11881749999999 78.19544625 -28.779999999999987 Q78.19544625 -18.75444249999999 82.538715 -10.521823749999989 Q86.882145 -2.2892049999999884 94.90255875 3.4666137500000147 Q90.9730575 7.084257500000014 87.082095 10.547585000000016 Q83.19097125 14.010912500000018 78.78820125 17.940575000000017 L75.09702750000001 21.207661250000015 Q73.35117375 22.872728750000014 70.94467875 22.872728750000014 Q68.53818375 22.872728750000014 66.701385 21.207661250000015 Z"/></g><g id="Medium-L" transform="matrix(1 0 0 1 1674.31 1556)"><path d="M142.2821625 -43.99716249999999 Q143.88402 -42.35305749999998 143.88402 -40.14812499999999 Q143.88402 -37.943192499999995 142.2821625 -36.37971249999998 L119.58445125000001 -13.60492374999999 Q117.9018075 -12.080143749999984 115.7371875 -12.080143749999984 Q113.5725675 -12.080143749999984 111.92846250000001 -13.60492374999999 L102.89846250000001 -22.83471249999998 Q101.33514375 -24.398192499999993 101.33514375 -26.52249999999998 Q101.33514375 -28.64680749999998 102.89846250000001 -30.29091249999999 Q104.4619425 -31.892769999999985 106.58625 -31.892769999999985 Q108.7105575 -31.892769999999985 110.2740375 -30.29091249999999 L115.858125 -24.948538749999983 L134.8259625 -43.99716249999999 Q136.3894425 -45.560481249999995 138.51375000000002 -45.560481249999995 Q140.6380575 -45.560481249999995 142.2821625 -43.99716249999999 Z M67.38492375 19.998125000000016  56.216748749999994 9.927095000000016 Q41.546385 -3.2183274999999867 31.913471250000004 -12.849467499999989 Q22.2805575 -22.48076874999998 16.56489 -30.30832749999999 Q10.8492225 -38.13604749999999 8.551409999999999 -44.92080249999998 Q6.2535975 -51.70555749999998 6.2535975 -59.15804874999998 Q6.2535975 -73.7722975 16.117905 -84.19920624999997 Q25.9822125 -94.62611499999997 40.51583625 -94.62611499999997 Q49.5879225 -94.62611499999997 57.348885 -90.36879249999998 Q65.11000875 -86.11147 70.91146125 -77.96124999999999 Q77.76103875 -86.47605624999997 85.1803125 -90.551005 Q92.59958625 -94.62611499999997 101.30708625 -94.62611499999997 Q114.059865 -94.62611499999997 123.69632625000001 -85.73801499999998 Q133.3327875 -76.85007624999999 135.2361825 -64.55653749999999 Q131.587095 -66.26707749999998 128.40402 -67.120735 Q125.22110625 -67.97423125 121.69811625 -67.97423125 Q103.58909625000001 -67.97423125 92.12809125 -56.415024999999986 Q80.66708625000001 -44.85597999999999 80.66708625000001 -28.779999999999987 Q80.66708625000001 -19.700979999999987 84.45823500000002 -11.915346249999985 Q88.2492225 -4.129712499999982 95.27069250000001 1.4684037500000144 Q91.235895 5.138615000000016 86.84538 9.022643750000015 Q82.454865 12.906672500000013 77.89423125 16.941470000000017 L74.5184625 19.998125000000016 Q73.03576875 21.400355000000015 70.9709625 21.400355000000015 Q68.9063175 21.400355000000015 67.38492375 19.998125000000016 Z"/></g><g id="Regular-L" transform="matrix(1 0 0 1 1378.56 1556)"><path d="M141.819375 -43.53437499999998 Q143.19 -42.08312499999998 143.19 -40.14812499999999 Q143.19 -38.21312499999999 141.819375 -36.84249999999999 L119.08312500000001 -14.106249999999989 Q117.63187500000001 -12.735624999999985 115.7371875 -12.735624999999985 Q113.8425 -12.735624999999985 112.39125 -14.106249999999989 L103.36125 -23.297499999999985 Q101.99062500000001 -24.66812499999999 101.99062500000001 -26.52249999999998 Q101.99062500000001 -28.376874999999984 103.36125 -29.828124999999986 Q104.731875 -31.19874999999999 106.58625 -31.19874999999999 Q108.440625 -31.19874999999999 109.81125 -29.828124999999986 L115.858125 -24.02312499999998 L135.28875 -43.53437499999998 Q136.659375 -44.90499999999999 138.51375000000002 -44.90499999999999 Q140.368125 -44.90499999999999 141.819375 -43.53437499999998 Z M67.88625 19.111250000000016  54.905625 7.420625000000015 Q41.199375 -4.914999999999985 32.0484375 -14.025624999999984 Q22.8975 -23.13624999999999 17.3746875 -30.67468749999999 Q11.851875 -38.21312499999999 9.5540625 -44.82437499999999 Q7.2562500000000005 -51.43562499999999 7.2562500000000005 -58.772499999999994 Q7.2562500000000005 -72.96249999999999 16.850625 -83.08093749999999 Q26.445 -93.19937499999997 40.554375 -93.19937499999997 Q49.665 -93.19937499999997 57.4453125 -88.84562499999998 Q65.22562500000001 -84.491875 70.95 -76.18749999999999 Q77.7225 -84.89499999999998 85.1803125 -89.04718749999998 Q92.638125 -93.19937499999997 101.345625 -93.19937499999997 Q113.52000000000001 -93.19937499999997 122.7515625 -84.77406249999999 Q131.983125 -76.34874999999998 134.079375 -64.98062499999999 Q130.854375 -66.18999999999998 128.1534375 -66.75437499999998 Q125.4525 -67.31874999999998 122.469375 -67.31874999999998 Q105.05437500000001 -67.31874999999998 93.766875 -55.99093749999999 Q82.479375 -44.66312499999998 82.479375 -28.779999999999987 Q82.479375 -20.39499999999999 85.86562500000001 -12.937187499999986 Q89.251875 -5.479374999999983 95.540625 0.0031250000000113687 Q91.42875000000001 3.7118750000000134 86.671875 7.904375000000016 Q81.915 12.096875000000015 77.23875 16.208750000000016 L74.094375 19.111250000000016 Q72.80437500000001 20.320625000000014 70.9903125 20.320625000000014 Q69.17625 20.320625000000014 67.88625 19.111250000000016 Z"/></g><g id="Light-L" transform="matrix(1 0 0 1 1082.77 1556)"><path d="M141.013125 -42.72812499999999 Q142.04254500000002 -41.61791874999999 142.04254500000002 -40.13264499999998 Q142.04254500000002 -38.64737124999998 141.013125 -37.58682999999998 L118.95912375 -15.532828749999986 Q117.63187500000001 -14.25524499999998 115.7371875 -14.25524499999998 Q113.8425 -14.25524499999998 112.45333125 -15.532828749999986 L104.04349875 -24.04182999999999 Q103.10712 -25.040289999999985 103.10712 -26.47605999999999 Q103.10712 -27.91166874999999 104.10558 -29.02187499999998 Q105.10404 -30.051294999999982 106.55529 -30.051294999999982 Q108.00637875000001 -30.051294999999982 109.00500000000001 -29.02187499999998 L115.79604375000001 -22.472544999999982 L136.03308 -42.72812499999999 Q137.03154 -43.75754499999999 138.46731 -43.75754499999999 Q139.90291875 -43.75754499999999 141.013125 -42.72812499999999 Z M67.88625 15.141758750000015  59.86744875 7.854871250000016 Q45.230947500000006 -5.2871649999999875 35.692365 -14.847516249999984 Q26.1537825 -24.40770624999999 20.4294075 -32.054664999999986 Q14.705032500000002 -39.70162374999998 12.43818 -46.049391249999985 Q10.1713275 -52.39699749999998 10.1713275 -59.36170749999998 Q10.1713275 -72.31121124999999 19.02153375 -81.59243874999999 Q27.87157875 -90.873505 40.89558 -90.873505 Q49.8201225 -90.873505 57.491752500000004 -86.3336725 Q65.16354375 -81.79383999999999 70.95 -73.05537999999999 Q77.47433625000001 -82.07296374999999 84.88570875 -86.47315375 Q92.29692 -90.873505 101.00442000000001 -90.873505 Q112.62070875 -90.873505 121.2319425 -82.8358375 Q129.84333750000002 -74.79816999999998 131.41230000000002 -63.67804749999999 Q128.46642375000002 -64.73246124999999 125.84304750000001 -65.23475499999999 Q123.21967125 -65.73720999999999 120.48454875 -65.73720999999999 Q103.90692 -65.73720999999999 93.038025 -55.09164624999998 Q82.16929125 -44.44608249999999 82.16929125 -28.84208124999998 Q82.16929125 -21.356372499999985 85.01277375000001 -14.549848749999981 Q87.8564175 -7.743163749999987 93.46275750000001 -2.384826249999989 Q89.44392375000001 1.2620037500000123 84.99729375 5.283901250000014 Q80.55050250000001 9.305798750000015 75.8742525 13.386713750000013 L74.03229375000001 15.141758750000015 Q72.71133375000001 16.382093750000013 70.9438725 16.382093750000013 Q69.17625 16.382093750000013 67.88625 15.141758750000015 Z"/></g><g id="Thin-L" transform="matrix(1 0 0 1 787.282 1556)"><path d="M140.206875 -41.921874999999986 Q140.89525125 -41.15287374999998 140.89525125 -40.117164999999986 Q140.89525125 -39.08145624999999 140.206875 -38.33099874999999 L118.8351225 -16.959084999999988 Q117.63187500000001 -15.774542499999988 115.7371875 -15.774542499999988 Q113.8425 -15.774542499999988 112.51525125 -16.959084999999988 L104.72558625 -24.78599874999999 Q104.2232925 -25.41229374999999 104.2232925 -26.42945874999998 Q104.2232925 -27.446623749999986 104.84974875 -28.21562499999999 Q105.47604375 -28.904001249999993 106.52416875 -28.904001249999993 Q107.57229375 -28.904001249999993 108.19875 -28.21562499999999 L115.73412375000001 -20.922126249999984 L136.77724875 -41.921874999999986 Q137.40354375 -42.61025124999999 138.42070875000002 -42.61025124999999 Q139.43787375 -42.61025124999999 140.206875 -41.921874999999986 Z M67.88625 11.172912500000017  64.82862750000001 8.288956250000012 Q49.261875 -5.659168749999985 39.3356475 -15.669084999999988 Q29.409419999999997 -25.679001249999985 23.483482499999997 -33.43448124999999 Q17.557545 -41.18996124999998 15.32181375 -47.274084999999985 Q13.0860825 -53.35820874999999 13.0860825 -59.95091499999998 Q13.0860825 -71.66008374999998 21.19195875 -80.10410124999999 Q29.297835000000003 -88.5479575 41.23662375 -88.5479575 Q49.97508375 -88.5479575 57.53835375 -83.8220425 Q65.10162375 -79.09628874999999 70.95 -69.92358249999998 Q77.22633375000001 -79.25124999999998 84.591105 -83.89960374999998 Q91.95587625 -88.5479575 100.66337625 -88.5479575 Q111.7214175 -88.5479575 119.71264500000001 -80.89793499999999 Q127.7038725 -73.24775125 128.74570875 -62.37579249999999 Q126.07895625 -63.27508374999999 123.53298000000001 -63.715457499999985 Q120.987165 -64.15583124999999 118.50020625 -64.15583124999999 Q102.75962625 -64.15583124999999 92.3094975 -54.19235499999999 Q81.8592075 -44.22903999999998 81.8592075 -28.904001249999993 Q81.8592075 -22.317583749999983 84.16008375 -16.162187499999987 Q86.46096 -10.006791249999985 91.38537375 -4.772293749999989 Q87.45958125 -1.1875449999999859 83.32287375 2.6637500000000145 Q79.18616625 6.515206250000013 74.50991625 10.565000000000015 L73.97037375000001 11.172912500000017 Q72.61829250000001 12.444207500000015 70.89727125 12.444207500000015 Q69.17625 12.444207500000015 67.88625 11.172912500000017 Z"/></g><g id="Ultralight-L" transform="matrix(1 0 0 1 491.205 1556)"><path d="M139.723125 -41.438124999999985 Q140.206875 -40.87374999999999 140.206875 -40.10781249999998 Q140.206875 -39.34187499999999 139.723125 -38.77749999999999 L118.760625 -17.814999999999984 Q117.63187500000001 -16.686249999999987 115.7371875 -16.686249999999987 Q113.8425 -16.686249999999987 112.55250000000001 -17.814999999999984 L105.135 -25.232499999999987 Q104.893125 -25.63562499999999 104.893125 -26.401562499999983 Q104.893125 -27.16749999999999 105.29625 -27.731874999999988 Q105.699375 -28.21562499999999 106.50562500000001 -28.21562499999999 Q107.311875 -28.21562499999999 107.715 -27.731874999999988 L115.696875 -19.991874999999986 L137.22375 -41.438124999999985 Q137.626875 -41.921874999999986 138.3928125 -41.921874999999986 Q139.15875 -41.921874999999986 139.723125 -41.438124999999985 Z M67.88625 8.791250000000012  67.805625 8.549375000000012 Q51.680625 -5.882499999999986 41.521875 -16.162187499999987 Q31.363125 -26.441874999999982 25.31625 -34.26249999999999 Q19.269375 -42.08312499999998 17.0521875 -48.009062499999985 Q14.835 -53.93499999999999 14.835 -60.30437499999999 Q14.835 -71.26937499999998 22.494375 -79.21093749999999 Q30.153750000000002 -87.15249999999997 41.441250000000004 -87.15249999999997 Q50.068125 -87.15249999999997 57.566250000000004 -82.31499999999998 Q65.064375 -77.47749999999999 70.95 -68.04437499999999 Q77.0775 -77.55812499999999 84.414375 -82.35531249999998 Q91.75125 -87.15249999999997 100.45875000000001 -87.15249999999997 Q111.181875 -87.15249999999997 118.8009375 -79.73499999999999 Q126.42 -72.31749999999998 127.14562500000001 -61.594374999999985 Q124.64625000000001 -62.40062499999999 122.14687500000001 -62.803749999999994 Q119.64750000000001 -63.20687499999998 117.309375 -63.20687499999998 Q102.07125 -63.20687499999998 91.8721875 -53.65281249999998 Q81.673125 -44.09874999999998 81.673125 -28.941249999999982 Q81.673125 -22.894374999999982 83.6484375 -17.12968749999999 Q85.62375 -11.364999999999988 90.13875 -6.204999999999984 Q86.26875 -2.6574999999999847 82.31812500000001 1.0915625000000162 Q78.3675 4.840625000000017 73.69125 8.871875000000017 L73.933125 8.791250000000012 Q72.5625 10.081250000000018 70.869375 10.081250000000018 Q69.17625 10.081250000000018 67.88625 8.791250000000012 Z"/></g><g id="Bold-M" transform="matrix(1 0 0 1 2281.8 1126)"><path d="M112.6875 -44.41749999999999 Q115.0625 -42.10499999999999 115.0625 -39.01124999999999 Q115.0625 -35.91749999999999 112.6875 -33.72999999999999 L95.0625 -15.97999999999999 Q92.6875 -13.79249999999999 89.65625 -13.79249999999999 Q86.625 -13.79249999999999 84.375 -15.97999999999999 L77.25 -23.10499999999999 Q74.9375 -25.41749999999999 74.9375 -28.44874999999999 Q74.9375 -31.47999999999999 77.25 -33.79249999999999 Q79.4375 -36.16749999999999 82.5 -36.16749999999999 Q85.5625 -36.16749999999999 87.875 -33.79249999999999 L89.6875 -32.04249999999999 L102.0 -44.41749999999999 Q104.1875 -46.66749999999999 107.28125 -46.66749999999999 Q110.375 -46.66749999999999 112.6875 -44.41749999999999 Z M49.75 9.52000000000001  49.5625 9.33250000000001 Q34.8125 -3.8549999999999898 25.5 -13.29249999999999 Q16.1875 -22.72999999999999 11.0 -29.94874999999999 Q5.8125 -37.16749999999999 3.84375 -43.04249999999999 Q1.875 -48.91749999999999 1.875 -55.16749999999999 Q1.875 -68.41749999999999 10.6875 -77.32374999999999 Q19.5 -86.22999999999999 32.75 -86.22999999999999 Q39.0625 -86.22999999999999 44.71875 -83.94874999999999 Q50.375 -81.66749999999999 54.875 -77.16749999999999 Q59.5625 -81.66749999999999 65.125 -83.94874999999999 Q70.6875 -86.22999999999999 77.0 -86.22999999999999 Q89.8125 -86.22999999999999 98.8125 -77.79249999999999 Q107.8125 -69.35499999999999 108.3125 -55.91749999999999 Q103.75 -59.22999999999999 98.75 -61.01124999999999 Q93.75 -62.79249999999999 88.3125 -62.79249999999999 Q73.9375 -62.79249999999999 64.4375 -53.13624999999999 Q54.9375 -43.47999999999999 54.9375 -30.22999999999999 Q54.9375 -20.85499999999999 59.4375 -13.44874999999999 Q63.9375 -6.04249999999999 72.0 -1.4799999999999898 Q69.9375 0.39500000000001023 68.40625 1.8637500000000102 Q66.875 3.3325000000000102 64.5 5.45750000000001 L59.9375 9.52000000000001 Q57.75 11.58250000000001 54.84375 11.58250000000001 Q51.9375 11.58250000000001 49.75 9.52000000000001 Z"/></g><g id="Semibold-M" transform="matrix(1 0 0 1 1985.97 1126)"><path d="M111.818 -43.54799999999999 Q113.75825 -41.61587499999999 113.75825 -39.03837499999999 Q113.75825 -36.46099999999999 111.818 -34.59949999999999 L94.138625 -16.903874999999992 Q92.198375 -15.042374999999993 89.65625 -15.042374999999993 Q87.114125 -15.042374999999993 85.2445 -16.903874999999992 L78.1195 -23.974499999999992 Q76.187375 -25.90662499999999 76.187375 -28.44874999999999 Q76.187375 -30.99087499999999 78.1195 -32.92299999999999 Q79.981 -34.86324999999999 82.527125 -34.86324999999999 Q85.073375 -34.86324999999999 87.0055 -32.92299999999999 L89.6875 -30.303499999999993 L102.8695 -43.54799999999999 Q104.731 -45.41762499999999 107.308375 -45.41762499999999 Q109.885875 -45.41762499999999 111.818 -43.54799999999999 Z M50.673875 7.83537500000001  47.117 4.604500000000009 Q34.160375 -7.006999999999991 25.77175 -15.466249999999988 Q17.383125 -23.92562499999999 12.521625 -30.600874999999988 Q7.66025 -37.27624999999999 5.718625 -42.87949999999999 Q3.777 -48.482749999999996 3.777 -54.460999999999984 Q3.777 -66.89587499999999 12.07325 -75.23149999999998 Q20.3695 -83.56712499999999 32.804375 -83.56712499999999 Q39.17125 -83.56712499999999 44.88175 -81.09562499999998 Q50.592375 -78.62424999999999 54.929375 -73.85249999999999 Q59.45375 -78.62424999999999 65.070625 -81.09562499999998 Q70.6875 -83.56712499999999 77.054375 -83.56712499999999 Q88.83425 -83.56712499999999 97.04625 -75.972 Q105.258375 -68.37674999999999 106.13875 -56.732624999999985 Q102.391375 -59.12124999999999 98.288125 -60.331999999999994 Q94.18475 -61.54262499999999 89.77975 -61.54262499999999 Q76.709 -61.54262499999999 67.535125 -52.34824999999999 Q58.361125 -43.153874999999985 58.361125 -30.22999999999999 Q58.361125 -22.159249999999993 62.07325 -15.377999999999993 Q65.78525 -8.596624999999989 72.489125 -4.251499999999989 Q70.317875 -2.2678749999999894 68.080125 -0.2284999999999897 Q65.8425 1.81087500000001 63.304375 4.09887500000001 L59.122375 7.83537500000001 Q57.31525 9.51737500000001 54.898125 9.51737500000001 Q52.481 9.51737500000001 50.673875 7.83537500000001 Z"/></g><g id="Medium-M" transform="matrix(1 0 0 1 1689.91 1126)"><path d="M111.16575 -42.89574999999999 Q112.779875 -41.248999999999995 112.779875 -39.05874999999999 Q112.779875 -36.86862499999999 111.16575 -35.25174999999999 L93.445625 -17.59687499999999 Q91.8315 -15.97999999999999 89.65625 -15.97999999999999 Q87.481 -15.97999999999999 85.89675 -17.59687499999999 L78.77175 -24.626749999999987 Q77.125 -26.27349999999999 77.125 -28.44874999999999 Q77.125 -30.623999999999988 78.77175 -32.27074999999999 Q80.388625 -33.88487499999999 82.5475 -33.88487499999999 Q84.7065 -33.88487499999999 86.35325 -32.27074999999999 L89.6875 -28.998999999999988 L103.52175 -42.89574999999999 Q105.138625 -44.47999999999999 107.32875 -44.47999999999999 Q109.519 -44.47999999999999 111.16575 -42.89574999999999 Z M51.366875 6.571625000000012  45.282625 1.058125000000011 Q33.67125 -9.37124999999999 25.9755 -17.09687499999999 Q18.279875 -24.822374999999987 13.663 -31.08999999999999 Q9.046125 -37.35774999999999 7.125 -42.75712499999999 Q5.20375 -48.15662499999999 5.20375 -53.931124999999994 Q5.20375 -65.7545 13.11275 -73.66212499999999 Q21.02175 -81.56974999999998 32.845125 -81.56974999999998 Q39.25275 -81.56974999999998 45.004125 -78.95562499999998 Q50.755375 -76.3415 54.970125 -71.36587499999999 Q59.37225 -76.3415 65.029875 -78.95562499999998 Q70.6875 -81.56974999999998 77.095125 -81.56974999999998 Q88.1005 -81.56974999999998 95.7215 -74.60637499999999 Q103.342375 -67.64299999999999 104.508125 -57.34412499999999 Q101.37225 -59.039749999999984 97.941625 -59.822374999999994 Q94.510875 -60.60499999999999 90.880375 -60.60499999999999 Q78.788 -60.60499999999999 69.858625 -51.75712499999999 Q60.92925 -42.90937499999998 60.92925 -30.22999999999999 Q60.92925 -23.137624999999993 64.05025 -16.825124999999993 Q67.171125 -10.512624999999993 72.856 -6.33049999999999 Q70.60325 -4.265249999999991 67.835625 -1.7978749999999906 Q65.068 0.66950000000001 62.407625 3.0797500000000113 L58.510875 6.571625000000012 Q56.989125 7.968375000000009 54.938875 7.968375000000009 Q52.888625 7.968375000000009 51.366875 6.571625000000012 Z"/></g><g id="Regular-M" transform="matrix(1 0 0 1 1394.06 1126)"><path d="M110.6875 -42.41749999999999 Q112.0625 -40.97999999999999 112.0625 -39.07374999999999 Q112.0625 -37.16749999999999 110.6875 -35.72999999999999 L92.9375 -18.10499999999999 Q91.5625 -16.66749999999999 89.65625 -16.66749999999999 Q87.75 -16.66749999999999 86.375 -18.10499999999999 L79.25 -25.10499999999999 Q77.8125 -26.54249999999999 77.8125 -28.44874999999999 Q77.8125 -30.35499999999999 79.25 -31.79249999999999 Q80.6875 -33.16749999999999 82.5625 -33.16749999999999 Q84.4375 -33.16749999999999 85.875 -31.79249999999999 L89.6875 -28.04249999999999 L104.0 -42.41749999999999 Q105.4375 -43.79249999999999 107.34375 -43.79249999999999 Q109.25 -43.79249999999999 110.6875 -42.41749999999999 Z M51.875 5.64500000000001  43.9375 -1.5424999999999898 Q33.3125 -11.10499999999999 26.125 -18.29249999999999 Q18.9375 -25.47999999999999 14.5 -31.44874999999999 Q10.0625 -37.41749999999999 8.15625 -42.66749999999999 Q6.25 -47.91749999999999 6.25 -53.54249999999999 Q6.25 -64.91749999999999 13.875 -72.51124999999999 Q21.5 -80.10499999999999 32.875 -80.10499999999999 Q39.3125 -80.10499999999999 45.09375 -77.38624999999999 Q50.875 -74.66749999999999 55.0 -69.54249999999999 Q59.3125 -74.66749999999999 65.0 -77.38624999999999 Q70.6875 -80.10499999999999 77.125 -80.10499999999999 Q87.5625 -80.10499999999999 94.75 -73.60499999999999 Q101.9375 -67.10499999999999 103.3125 -57.79249999999999 Q100.625 -58.97999999999999 97.6875 -59.44874999999999 Q94.75 -59.91749999999999 91.6875 -59.91749999999999 Q80.3125 -59.91749999999999 71.5625 -51.32374999999999 Q62.8125 -42.72999999999999 62.8125 -30.22999999999999 Q62.8125 -23.85499999999999 65.5 -17.88624999999999 Q68.1875 -11.91749999999999 73.125 -7.85499999999999 Q70.8125 -5.72999999999999 67.65625 -2.9487499999999898 Q64.5 -0.16749999999998977 61.75 2.3325000000000102 L58.0625 5.64500000000001 Q56.75 6.83250000000001 54.96875 6.83250000000001 Q53.1875 6.83250000000001 51.875 5.64500000000001 Z"/></g><g id="Light-M" transform="matrix(1 0 0 1 1098.18 1126)"><path d="M109.822 -41.55199999999999 Q110.8845 -40.47512499999999 110.8845 -39.06174999999999 Q110.8845 -37.64824999999999 109.822 -36.54737499999999 L92.649 -19.451249999999987 Q91.41825 -18.181999999999988 89.68025 -18.181999999999988 Q87.942375 -18.181999999999988 86.6635 -19.451249999999987 L80.067375 -25.970499999999987 Q79.0145 -27.02324999999999 79.0145 -28.43674999999999 Q79.0145 -29.85012499999999 80.1155 -30.926999999999992 Q81.16825 -31.989499999999992 82.5625 -31.989499999999992 Q83.95675 -31.989499999999992 85.0095 -30.926999999999992 L89.6875 -26.359624999999987 L104.8655 -41.55199999999999 Q105.91825 -42.61449999999999 107.33175 -42.61449999999999 Q108.745125 -42.61449999999999 109.822 -41.55199999999999 Z M52.115375 2.7601250000000093  48.072375 -0.965499999999988 Q36.533875 -11.393499999999989 28.925625 -19.00162499999999 Q21.3175 -26.609874999999988 16.77175 -32.63874999999999 Q12.226125 -38.66762499999999 10.368 -43.71324999999999 Q8.50975 -48.75887499999999 8.50975 -54.04737499999999 Q8.50975 -64.36462499999999 15.48575 -71.33324999999999 Q22.461625 -78.30199999999999 32.802875 -78.30199999999999 Q39.2885 -78.30199999999999 45.033625 -75.246625 Q50.778875 -72.191375 55.0 -66.39325 Q59.360625 -72.191375 65.036 -75.246625 Q70.7115 -78.30199999999999 77.197125 -78.30199999999999 Q86.913375 -78.30199999999999 93.620125 -72.10249999999999 Q100.32675 -65.90299999999999 101.293125 -56.78274999999999 Q98.822 -57.80199999999999 96.161 -58.24674999999999 Q93.499875 -58.69149999999999 90.774 -58.69149999999999 Q79.374875 -58.69149999999999 70.9735 -50.57849999999999 Q62.572125 -42.46549999999999 62.572125 -30.27812499999999 Q62.572125 -24.504124999999988 64.838875 -19.136374999999987 Q67.10575 -13.768624999999993 71.51425 -9.706124999999993 Q69.0335 -7.436874999999986 66.069625 -4.73974999999999 Q63.105625 -2.0426249999999904 60.11525 0.673750000000009 L57.822125 2.7601250000000093 Q56.58175 3.8755000000000095 54.95675 3.8755000000000095 Q53.33175 3.8755000000000095 52.115375 2.7601250000000093 Z"/></g><g id="Thin-M" transform="matrix(1 0 0 1 802.565 1126)"><path d="M108.95675 -40.68674999999999 Q109.70675 -39.97037499999999 109.70675 -39.04974999999999 Q109.70675 -38.12899999999999 108.95675 -37.36462499999999 L92.360625 -20.79724999999999 Q91.274 -19.69637499999999 89.704375 -19.69637499999999 Q88.134625 -19.69637499999999 86.951875 -20.79724999999999 L80.884625 -26.83574999999999 Q80.216375 -27.50399999999999 80.216375 -28.42474999999999 Q80.216375 -29.34537499999999 80.98075 -30.06174999999999 Q81.649 -30.81174999999999 82.5625 -30.81174999999999 Q83.476 -30.81174999999999 84.14425 -30.06174999999999 L89.6875 -24.67712499999999 L105.73075 -40.68674999999999 Q106.399 -41.43674999999999 107.31975 -41.43674999999999 Q108.240375 -41.43674999999999 108.95675 -40.68674999999999 Z M52.35575 -0.12424999999998931  52.206625 -0.38862499999999045 Q39.75475 -11.681874999999991 31.725875 -19.71074999999999 Q23.697125 -27.73962499999999 19.04325 -33.82849999999999 Q14.389375 -39.91749999999999 12.57925 -44.75887499999999 Q10.76925 -49.60012499999999 10.76925 -54.55212499999999 Q10.76925 -63.81174999999999 17.096125 -70.15549999999999 Q23.423125 -76.49924999999999 32.73075 -76.49924999999999 Q39.264375 -76.49924999999999 44.9735 -73.10737499999999 Q50.68275 -69.71562499999999 55.0 -63.24449999999999 Q59.408625 -69.71562499999999 65.072125 -73.10737499999999 Q70.735625 -76.49924999999999 77.26925 -76.49924999999999 Q86.264375 -76.49924999999999 92.490375 -70.60024999999999 Q98.716375 -64.70112499999999 99.274125 -55.77324999999999 Q97.01925 -56.62424999999999 94.634625 -57.04487499999999 Q92.25 -57.46562499999999 89.860625 -57.46562499999999 Q78.4375 -57.46562499999999 70.384625 -49.83337499999999 Q62.33175 -42.20112499999999 62.33175 -30.32612499999999 Q62.33175 -25.15312499999999 64.177875 -20.38624999999999 Q66.024 -15.619374999999991 69.903875 -11.556874999999991 Q67.254875 -9.143499999999989 64.48325 -6.530499999999989 Q61.7115 -3.9174999999999898 58.48075 -0.9847499999999911 L57.58175 -0.12424999999998931 Q56.4135 0.9191250000000117 54.94475 0.9191250000000117 Q53.476 0.9191250000000117 52.35575 -0.12424999999998931 Z"/></g><g id="Ultralight-M" transform="matrix(1 0 0 1 506.415 1126)"><path d="M108.4375 -40.16749999999999 Q109.0 -39.66749999999999 109.0 -39.04249999999999 Q109.0 -38.41749999999999 108.4375 -37.85499999999999 L92.1875 -21.60499999999999 Q91.1875 -20.60499999999999 89.71875 -20.60499999999999 Q88.25 -20.60499999999999 87.125 -21.60499999999999 L81.375 -27.35499999999999 Q80.9375 -27.79249999999999 80.9375 -28.41749999999999 Q80.9375 -29.04249999999999 81.5 -29.54249999999999 Q81.9375 -30.10499999999999 82.5625 -30.10499999999999 Q83.1875 -30.10499999999999 83.625 -29.54249999999999 L89.6875 -23.66749999999999 L106.25 -40.16749999999999 Q106.6875 -40.72999999999999 107.3125 -40.72999999999999 Q107.9375 -40.72999999999999 108.4375 -40.16749999999999 Z M52.5 -1.8549999999999898  54.6875 -0.04249999999998977 Q41.6875 -11.85499999999999 33.40625 -20.13624999999999 Q25.125 -28.41749999999999 20.40625 -34.54249999999999 Q15.6875 -40.66749999999999 13.90625 -45.38624999999999 Q12.125 -50.10499999999999 12.125 -54.85499999999999 Q12.125 -63.47999999999999 18.0625 -69.44874999999999 Q24.0 -75.41749999999999 32.6875 -75.41749999999999 Q39.25 -75.41749999999999 44.9375 -71.82374999999999 Q50.625 -68.22999999999999 55.0 -61.35499999999999 Q59.4375 -68.22999999999999 65.09375 -71.82374999999999 Q70.75 -75.41749999999999 77.3125 -75.41749999999999 Q85.875 -75.41749999999999 91.8125 -69.69874999999999 Q97.75 -63.97999999999999 98.0625 -55.16749999999999 Q95.9375 -55.91749999999999 93.71875 -56.32374999999999 Q91.5 -56.72999999999999 89.3125 -56.72999999999999 Q77.875 -56.72999999999999 70.03125 -49.38624999999999 Q62.1875 -42.04249999999999 62.1875 -30.35499999999999 Q62.1875 -25.54249999999999 63.78125 -21.13624999999999 Q65.375 -16.72999999999999 68.9375 -12.66749999999999 Q66.1875 -10.16749999999999 63.53125 -7.60499999999999 Q60.875 -5.04249999999999 57.5 -1.9799999999999898 L57.4375 -1.8549999999999898 Q56.3125 -0.8549999999999898 54.9375 -0.8549999999999898 Q53.5625 -0.8549999999999898 52.5 -1.8549999999999898 Z"/></g><g id="Bold-S" transform="matrix(1 0 0 1 2294.23 696)"><path d="M89.6994375 -41.09818749999999 Q91.5733125 -39.37224999999999 91.5733125 -37.12853124999999 Q91.5733125 -34.88481249999999 89.6994375 -33.257499999999986 L76.3850625 -19.745874999999987 Q74.5111875 -18.11856249999999 72.36609375 -18.11856249999999 Q70.221 -18.11856249999999 68.44575 -19.745874999999987 L61.739250000000006 -26.550999999999988 Q60.013312500000005 -28.27693749999999 60.013312500000005 -30.47134374999999 Q60.013312500000005 -32.66574999999999 61.739250000000006 -34.39168749999999 Q63.3665625 -36.26556249999999 65.58562500000001 -36.26556249999999 Q67.8046875 -36.26556249999999 69.530625 -34.39168749999999 L72.3414375 -31.63018749999999 L81.85875 -41.09818749999999 Q83.4860625 -42.87343749999999 85.72978125 -42.87343749999999 Q87.9735 -42.87343749999999 89.6994375 -41.09818749999999 Z M38.661 0.2750000000000128  40.189687500000005 1.7050625000000128 Q27.8615625 -9.192999999999987 20.3660625 -16.836437499999988 Q12.8705625 -24.479874999999986 8.9255625 -30.126156249999987 Q4.9805625000000004 -35.77243749999999 3.62446875 -40.25987499999999 Q2.2683750000000003 -44.747312499999985 2.2683750000000003 -49.38268749999999 Q2.2683750000000003 -59.343812499999984 9.0241875 -66.22290625 Q15.780000000000001 -73.10199999999999 25.741125 -73.10199999999999 Q30.425812500000003 -73.10199999999999 34.78996875 -71.35140625 Q39.154125 -69.60081249999999 42.507375 -66.24756249999999 Q46.008562500000004 -69.60081249999999 50.298750000000005 -71.35140625 Q54.5889375 -73.10199999999999 59.273625 -73.10199999999999 Q68.6923125 -73.10199999999999 75.842625 -66.74068749999999 Q82.99293750000001 -60.379374999999996 83.3874375 -49.18543749999999 Q80.576625 -51.20724999999999 77.7165 -52.51403124999999 Q74.856375 -53.82081249999999 71.8483125 -53.82081249999999 Q59.9146875 -53.82081249999999 53.2081875 -46.79378124999999 Q46.5016875 -39.76674999999999 46.5016875 -30.495999999999988 Q46.5016875 -24.085374999999985 49.509750000000004 -18.882906249999987 Q52.517812500000005 -13.680437499999986 57.9915 -10.573749999999986 Q56.462812500000005 -9.094374999999989 53.72596875 -6.456156249999989 Q50.989125 -3.817937499999987 49.11525 -2.2399374999999875 L46.2058125 0.2750000000000128 Q44.578500000000005 1.803687500000013 42.482718750000004 1.803687500000013 Q40.3869375 1.803687500000013 38.661 0.2750000000000128 Z"/></g><g id="Semibold-S" transform="matrix(1 0 0 1 1998.1 696)"><path d="M89.013402 -40.412151999999985 Q90.54425925000001 -38.98633037499999 90.54425925000001 -37.14993287499999 Q90.54425925000001 -35.313633999999986 89.013402 -33.94353549999999 L75.656125125 -20.474812374999992 Q74.125267875 -19.10471387499999 72.36609375 -19.10471387499999 Q70.606919625 -19.10471387499999 69.1317855 -20.474812374999992 L62.4252855 -27.23703549999999 Q60.999463875000004 -28.662857124999988 60.999463875000004 -30.47134374999999 Q60.999463875000004 -32.27983037499999 62.4252855 -33.705651999999986 Q63.795384 -35.23650924999998 65.607026625 -35.23650924999998 Q67.418767875 -35.23650924999998 68.8445895 -33.705651999999986 L72.3414375 -30.258116499999993 L82.5447855 -40.412151999999985 Q83.914884 -41.88728612499999 85.751182875 -41.88728612499999 Q87.587580375 -41.88728612499999 89.013402 -40.412151999999985 Z M39.389937375 -1.0541691249999872  38.260188 -2.0253294999999873 Q27.347035875000003 -11.67992799999999 20.58047325 -18.551526249999988 Q13.813910625 -25.423223124999986 10.126124625000001 -30.64068287499999 Q6.43843725 -35.85824124999999 5.1037451250000005 -40.13126799999999 Q3.7690530000000004 -44.40429474999999 3.7690530000000004 -48.82525899999998 Q3.7690530000000004 -58.143250374999994 10.11754425 -64.57212099999998 Q16.4660355 -71.00099162499998 25.784026875000002 -71.00099162499998 Q30.511616250000003 -71.00099162499998 34.91857575 -69.10029062499999 Q39.325633875 -67.19968825 42.550276875 -63.63202749999999 Q45.92275875 -67.19968825 50.255848125 -69.10029062499999 Q54.5889375 -71.00099162499998 59.316526874999994 -71.00099162499998 Q67.92047325 -71.00099162499998 74.44905375 -65.304313 Q80.977732875 -59.60753574999998 81.67234875000001 -49.82857112499998 Q79.504669875 -51.12144624999999 77.352080625 -51.97810299999999 Q75.19939275 -52.83466112499998 73.00597275000001 -52.83466112499998 Q62.101401 -52.83466112499998 55.652213624999995 -46.17204924999999 Q49.202927625 -39.50943737499998 49.202927625 -30.495999999999988 Q49.202927625 -25.11442824999999 51.58935675 -20.405084499999994 Q53.97568725000001 -15.695642124999988 58.377419625 -12.760463499999986 Q56.762928375 -11.195383374999988 53.468656124999995 -8.106941499999987 Q50.1744825 -5.018499624999986 48.171901875 -3.3118926249999863 L45.562678875 -1.0541691249999872 Q44.235482250000004 0.17430387500001387 42.525620625 0.17430387500001387 Q40.815759 0.17430387500001387 39.389937375 -1.0541691249999872 Z"/></g><g id="Medium-S" transform="matrix(1 0 0 1 1701.85 696)"><path d="M88.49877675 -39.89752674999999 Q89.772321375 -38.69686599999999 89.772321375 -37.16600874999999 Q89.772321375 -35.635250124999985 88.49877675 -34.45816074999998 L75.10934812500001 -21.02158937499999 Q73.83580350000001 -19.84449999999999 72.36609375 -19.84449999999999 Q70.896384 -19.84449999999999 69.64641075 -21.02158937499999 L62.93991075 -27.751660749999985 Q61.739250000000006 -28.95232149999999 61.739250000000006 -30.47134374999999 Q61.739250000000006 -31.990365999999987 62.93991075 -33.19102674999999 Q64.117000125 -34.464571374999984 65.6231025 -34.464571374999984 Q67.1293035 -34.464571374999984 68.32996425 -33.19102674999999 L72.3414375 -29.22886599999999 L83.05941075 -39.89752674999999 Q84.236500125 -41.14749999999999 85.76725875 -41.14749999999999 Q87.29811600000001 -41.14749999999999 88.49877675 -39.89752674999999 Z M39.936714375 -2.0512678749999864  36.812866125000006 -4.823419374999986 Q26.96111625 -13.545321249999986 20.741232 -19.83808937499999 Q14.521446375000002 -26.130758874999984 11.0266695 -31.02660249999999 Q7.531892625 -35.922544749999986 6.213375 -40.03471412499999 Q4.89475875 -44.14698212499999 4.89475875 -48.40718762499999 Q4.89475875 -57.242705499999985 10.93770975 -63.33388412499998 Q16.980660750000002 -69.42506274999998 25.816178625000003 -69.42506274999998 Q30.57591975 -69.42506274999998 35.015129625 -67.41183062499998 Q39.454240875 -65.39859849999999 42.582428625000006 -61.67008037499998 Q45.858455250000006 -65.39859849999999 50.223696375 -67.41183062499998 Q54.5889375 -69.42506274999998 59.348678625 -69.42506274999998 Q67.3415445 -69.42506274999998 73.40382600000001 -64.22683487499998 Q79.466008875 -59.028606999999994 80.38578562500001 -50.31104462499999 Q78.70058025 -51.05714274999998 77.078692125 -51.57600887499999 Q75.456705375 -52.09487499999999 73.87436587500001 -52.09487499999999 Q63.741732 -52.09487499999999 57.48545512500001 -45.70565162499999 Q51.22917825 -39.31652687499999 51.22917825 -30.495999999999988 Q51.22917825 -25.886366124999988 53.149209750000004 -21.546866124999987 Q55.069142625000005 -17.20736612499999 58.666883999999996 -14.400794499999986 Q56.98808925 -12.771312249999987 53.275745625 -9.345178374999989 Q49.563402 -5.919044499999988 47.464366125000005 -4.115982249999988 L45.080205375 -2.0512678749999864 Q43.978169625 -1.0478571249999877 42.557772375000006 -1.0478571249999877 Q41.137375125 -1.0478571249999877 39.936714375 -2.0512678749999864 Z"/></g><g id="Regular-S" transform="matrix(1 0 0 1 1405.73 696)"><path d="M88.1214375 -39.52018749999999 Q89.20631250000001 -38.48462499999999 89.20631250000001 -37.17784374999999 Q89.20631250000001 -35.87106249999999 88.1214375 -34.83549999999999 L74.7084375 -21.422499999999985 Q73.6235625 -20.386937499999988 72.36609375 -20.386937499999988 Q71.108625 -20.386937499999988 70.02375 -21.422499999999985 L63.31725 -28.12899999999999 Q62.281687500000004 -29.164562499999988 62.281687500000004 -30.47134374999999 Q62.281687500000004 -31.77812499999999 63.31725 -32.813687499999986 Q64.3528125 -33.89856249999999 65.6349375 -33.89856249999999 Q66.9170625 -33.89856249999999 67.952625 -32.813687499999986 L72.3414375 -28.474187499999985 L83.43675 -39.52018749999999 Q84.4723125 -40.60506249999999 85.77909375 -40.60506249999999 Q87.085875 -40.60506249999999 88.1214375 -39.52018749999999 Z M40.337625 -2.7823749999999876  35.7515625 -6.8753124999999855 Q26.678062500000003 -14.913249999999987 20.8591875 -20.78143749999999 Q15.0403125 -26.649624999999986 11.6870625 -31.30965624999999 Q8.3338125 -35.969687499999985 7.02703125 -39.96399999999999 Q5.72025 -43.95831249999999 5.72025 -48.10056249999999 Q5.72025 -56.582312499999986 11.539125 -62.425843749999984 Q17.358 -68.269375 25.839750000000002 -68.269375 Q30.6230625 -68.269375 35.08584375 -66.17359375 Q39.548625 -64.0778125 42.606 -60.231437499999984 Q45.8113125 -64.0778125 50.200125 -66.17359375 Q54.5889375 -68.269375 59.37225 -68.269375 Q66.9170625 -68.269375 72.63731250000001 -63.43674999999999 Q78.3575625 -58.604124999999996 79.4424375 -50.66481249999999 Q78.111 -51.00999999999999 76.87818750000001 -51.28121874999999 Q75.645375 -51.55243749999999 74.5111875 -51.55243749999999 Q64.9445625 -51.55243749999999 58.8298125 -45.36371874999999 Q52.7150625 -39.17499999999999 52.7150625 -30.495999999999988 Q52.7150625 -26.45237499999999 54.293062500000005 -22.38409374999999 Q55.8710625 -18.31581249999999 58.879125 -15.603624999999987 Q57.1531875 -13.926999999999989 53.13421875 -10.253218749999988 Q49.11525 -6.579437499999987 46.9455 -4.7055624999999885 L44.7264375 -2.7823749999999876 Q43.789500000000004 -1.944062499999987 42.58134375 -1.944062499999987 Q41.3731875 -1.944062499999987 40.337625 -2.7823749999999876 Z"/></g><g id="Light-S" transform="matrix(1 0 0 1 1109.75 696)"><path d="M87.438558 -38.83730799999999 Q88.2768705 -38.08627862499999 88.2768705 -37.16837574999999 Q88.2768705 -36.250374249999986 87.438558 -35.48040887499999 L74.480811 -22.484691249999983 Q73.50974925 -21.58187799999999 72.38502975 -21.58187799999999 Q71.260408875 -21.58187799999999 70.2513765 -22.484691249999983 L63.962158875 -28.81187949999999 Q63.2300655 -29.543874249999988 63.2300655 -30.46187574999999 Q63.2300655 -31.379778624999993 64.0001295 -32.13080799999999 Q64.73212425 -32.96912049999999 65.6349375 -32.96912049999999 Q66.53775075 -32.96912049999999 67.2697455 -32.13080799999999 L72.3414375 -27.146399124999988 L84.1196295 -38.83730799999999 Q84.85162425 -39.675620499999994 85.76962575 -39.675620499999994 Q86.687528625 -39.675620499999994 87.438558 -38.83730799999999 Z M40.527280875 -5.058541374999987  39.013978875 -6.4200594999999865 Q29.219727375 -15.140876499999987 23.068880625000002 -21.34093712499999 Q16.9181325 -27.541096374999988 13.479473250000002 -32.24856624999999 Q10.040912625 -36.95603612499998 8.772102 -40.789096749999985 Q7.50319275 -44.622157374999986 7.50319275 -48.49890887499999 Q7.50319275 -56.14609412499999 12.81000675 -61.49640174999999 Q18.116722125000003 -66.846808 25.782843375000002 -66.846808 Q30.6041265 -66.846808 35.038405125000004 -64.485429625 Q39.472782375 -62.124149874999986 42.606 -57.74667925 Q45.849283125 -62.124149874999986 50.228529 -64.485429625 Q54.607873500000004 -66.846808 59.429156625000005 -66.846808 Q66.404902875 -66.846808 71.745841125 -62.251277499999986 Q77.08668075000001 -57.65574699999999 77.84915062500001 -49.86811974999999 Q76.688433 -50.08055799999999 75.67377900000001 -50.33284074999999 Q74.65902637500001 -50.58512349999999 73.790436 -50.58512349999999 Q64.20477637500001 -50.58512349999999 58.365091500000005 -44.77571649999999 Q52.525406625 -38.96630949999999 52.525406625 -30.533970624999988 Q52.525406625 -26.964534624999985 53.771434875000004 -23.37044237499999 Q55.017561750000006 -19.77635012499999 57.60824325000001 -17.06416262499999 Q55.749556500000004 -15.273724374999986 51.882371625000005 -11.666317749999987 Q48.015088125000005 -8.058911124999987 45.655682250000005 -6.01431624999999 L44.536781625 -5.058541374999987 Q43.65675075 -4.277135499999989 42.571875750000004 -4.277135499999989 Q41.48700075 -4.277135499999989 40.527280875 -5.058541374999987 Z"/></g><g id="Thin-S" transform="matrix(1 0 0 1 814.015 696)"><path d="M86.75587575 -38.15462574999999 Q87.34762575 -37.68803087499999 87.34762575 -37.15890774999999 Q87.34762575 -36.62968599999999 86.75587575 -36.12521912499999 L74.253283125 -23.54668524999999 Q73.395936 -22.77671987499999 72.404064375 -22.77671987499999 Q71.412094125 -22.77671987499999 70.478904375 -23.54668524999999 L64.606969125 -29.49456174999999 Q64.17834487500001 -29.923185999999987 64.17834487500001 -30.452407749999985 Q64.17834487500001 -30.98153087499999 64.68281175 -31.44812574999999 Q65.111436 -32.039875749999986 65.6349375 -32.039875749999986 Q66.158439 -32.039875749999986 66.58706325 -31.44812574999999 L72.3414375 -25.81890662499999 L84.80231175 -38.15462574999999 Q85.230936 -38.74637574999999 85.76015775 -38.74637574999999 Q86.289280875 -38.74637574999999 86.75587575 -38.15462574999999 Z M40.71693675 -7.334313249999987  42.275902125 -5.964905124999987 Q31.76099775 -15.36840437499999 25.278277875000004 -21.90043674999999 Q18.795656625 -28.43246912499999 15.27168675 -33.18727899999999 Q11.747716875 -37.94218749999999 10.51677825 -41.614094874999985 Q9.28593825 -45.28590362499999 9.28593825 -48.89715662499999 Q9.28593825 -55.709875749999995 14.080592625000001 -60.567156999999995 Q18.875345625 -65.42443825 25.725936750000002 -65.42443825 Q30.585091875000003 -65.42443825 34.990966500000006 -62.79756137499999 Q39.39693975 -60.170783124999986 42.606 -55.262315499999985 Q45.887155125 -60.170783124999986 50.257031625 -62.79756137499999 Q54.626908125 -65.42443825 59.48606325 -65.42443825 Q65.892841875 -65.42443825 70.85446837500001 -61.06600224999998 Q75.816094875 -56.70746762499999 76.256159625 -49.07162424999999 Q75.26606325 -49.15131324999999 74.469469125 -49.38456137499999 Q73.672875 -49.617908124999985 73.069783125 -49.617908124999985 Q63.465187500000006 -49.617908124999985 57.900469125 -44.18781287499999 Q52.33575075 -38.75771762499999 52.33575075 -30.571842624999988 Q52.33575075 -27.476595624999987 53.249905875 -24.356593749999988 Q54.164061000000004 -21.236591874999988 56.337657375 -18.52440437499999 Q54.346221375 -16.620251499999988 50.63072175 -13.079219499999986 Q46.9151235 -9.538187499999989 44.36606175 -7.322872749999988 L44.347125750000004 -7.334313249999987 Q43.524001500000004 -6.609715374999986 42.56240775 -6.609715374999986 Q41.600814 -6.609715374999986 40.71693675 -7.334313249999987 Z"/></g><g id="Ultralight-S" transform="matrix(1 0 0 1 517.792 696)"><path d="M86.3461875 -37.74493749999999 Q86.79 -37.44906249999999 86.79 -37.15318749999999 Q86.79 -36.85731249999999 86.3461875 -36.51212499999999 L74.1166875 -24.18399999999999 Q73.3276875 -23.493624999999987 72.41540625 -23.493624999999987 Q71.503125 -23.493624999999987 70.6155 -24.18399999999999 L64.993875 -29.90424999999999 Q64.7473125 -30.150812499999986 64.7473125 -30.44668749999999 Q64.7473125 -30.74256249999999 65.0925 -31.038437499999986 Q65.3390625 -31.482249999999986 65.6349375 -31.482249999999986 Q65.9308125 -31.482249999999986 66.177375 -31.038437499999986 L72.3414375 -25.02231249999999 L85.212 -37.74493749999999 Q85.4585625 -38.18874999999999 85.75443750000001 -38.18874999999999 Q86.0503125 -38.18874999999999 86.3461875 -37.74493749999999 Z M40.83075 -8.699874999999988  44.233312500000004 -5.691812499999987 Q33.2859375 -15.504999999999988 26.60409375 -22.236156249999986 Q19.922250000000002 -28.96731249999999 16.34709375 -33.750624999999985 Q12.7719375 -38.533937499999986 11.56378125 -42.109093749999985 Q10.355625 -45.68424999999999 10.355625 -49.136124999999986 Q10.355625 -55.44812499999999 14.8430625 -60.009531249999995 Q19.3305 -64.57093749999999 25.6918125 -64.57093749999999 Q30.57375 -64.57093749999999 34.962562500000004 -61.784781249999995 Q39.351375000000004 -58.99862499999999 42.606 -53.77149999999999 Q45.909937500000005 -58.99862499999999 50.27409375 -61.784781249999995 Q54.63825 -64.57093749999999 59.520187500000006 -64.57093749999999 Q65.58562500000001 -64.57093749999999 70.319625 -60.35471874999999 Q75.053625 -56.13849999999999 75.3001875 -48.59368749999999 Q74.4125625 -48.59368749999999 73.74684375 -48.81559374999999 Q73.081125 -49.03749999999999 72.63731250000001 -49.03749999999999 Q63.021375000000006 -49.03749999999999 57.62165625 -43.835031249999986 Q52.2219375 -38.63256249999999 52.2219375 -30.594624999999986 Q52.2219375 -27.78381249999999 52.936968750000005 -24.948343749999985 Q53.652 -22.11287499999999 55.575187500000006 -19.40068749999999 Q53.5040625 -17.42818749999999 49.879593750000005 -13.926999999999989 Q46.255125 -10.425812499999989 43.59225 -8.108124999999987 L44.233312500000004 -8.699874999999988 Q43.4443125 -8.009499999999989 42.5566875 -8.009499999999989 Q41.6690625 -8.009499999999989 40.83075 -8.699874999999988 Z"/></g></g></svg>