<svg xmlns="http://www.w3.org/2000/svg" version="1.1" width="3300" height="2000"><g id="Notes"><style>
    text {
      font-family: monospace;
      text-anchor: middle;
    }
    text.emphasis {
      font-weight:bold;
    }
    text.lanchor {
      text-anchor: start;
    }
  </style><rect height="2200" id="artboard" fill="white" width="3300" x="0" y="0"/><line id="" style="fill:none;stroke:black;stroke-width:0.5;" x1="263" x2="3036" y1="292" y2="292"/><text class="lanchor emphasis" transform="matrix(1 0 0 1 263 322)">Weight/Scale Variations</text><text transform="matrix(1 0 0 1 559.711 322)">Ultralight</text><text transform="matrix(1 0 0 1 856.422 322)">Thin</text><text transform="matrix(1 0 0 1 1153.13 322)">Light</text><text transform="matrix(1 0 0 1 1449.84 322)">Regular</text><text transform="matrix(1 0 0 1 1746.56 322)">Medium</text><text transform="matrix(1 0 0 1 2043.27 322)">Semibold</text><text transform="matrix(1 0 0 1 2339.98 322)">Bold</text><text transform="matrix(1 0 0 1 2636.69 322)">Heavy</text><text transform="matrix(1 0 0 1 2933.4 322)">Black</text><text id="template-version" style="text-anchor: end;" transform="matrix(1 0 0 1 3036 1933)">Template v.1.0</text><text class="lanchor" transform="matrix(1 0 0 1 263 726)">Small</text><text class="lanchor" transform="matrix(1 0 0 1 263 1156)">Medium</text><text class="lanchor" transform="matrix(1 0 0 1 263 1586)">Large</text></g><g id="Guides"><g id="H-reference" style="fill:#27AAE1;stroke:none;" transform="matrix(1 0 0 1 339 696)"><path d="M 54.9316 0 L 57.666 0 L 30.5664 -70.459 L 28.0762 -70.459 L 0.976562 0 L 3.66211 0 L 12.9395 -24.4629 L 45.7031 -24.4629 Z M 29.1992 -67.0898 L 29.4434 -67.0898 L 44.8242 -26.709 L 13.8184 -26.709 Z"/></g><line id="Baseline-S" style="fill:none;stroke:#27AAE1;opacity:1;stroke-width:0.577;" x1="263" x2="3036" y1="696" y2="696"/><line id="Capline-S" style="fill:none;stroke:#27AAE1;opacity:1;stroke-width:0.577;" x1="263" x2="3036" y1="625.541" y2="625.541"/><g id="H-reference" style="fill:#27AAE1;stroke:none;" transform="matrix(1 0 0 1 339 1126)"><path d="M 54.9316 0 L 57.666 0 L 30.5664 -70.459 L 28.0762 -70.459 L 0.976562 0 L 3.66211 0 L 12.9395 -24.4629 L 45.7031 -24.4629 Z M 29.1992 -67.0898 L 29.4434 -67.0898 L 44.8242 -26.709 L 13.8184 -26.709 Z"/></g><line id="Baseline-M" style="fill:none;stroke:#27AAE1;opacity:1;stroke-width:0.577;" x1="263" x2="3036" y1="1126" y2="1126"/><line id="Capline-M" style="fill:none;stroke:#27AAE1;opacity:1;stroke-width:0.577;" x1="263" x2="3036" y1="1055.54" y2="1055.54"/><g id="H-reference" style="fill:#27AAE1;stroke:none;" transform="matrix(1 0 0 1 339 1556)"><path d="M 54.9316 0 L 57.666 0 L 30.5664 -70.459 L 28.0762 -70.459 L 0.976562 0 L 3.66211 0 L 12.9395 -24.4629 L 45.7031 -24.4629 Z M 29.1992 -67.0898 L 29.4434 -67.0898 L 44.8242 -26.709 L 13.8184 -26.709 Z"/></g><line id="Baseline-L" style="fill:none;stroke:#27AAE1;opacity:1;stroke-width:0.577;" x1="263" x2="3036" y1="1556" y2="1556"/><line id="Capline-L" style="fill:none;stroke:#27AAE1;opacity:1;stroke-width:0.577;" x1="263" x2="3036" y1="1485.54" y2="1485.54"/><rect height="119.336" id="left-margin" style="fill:darkred;stroke:none;opacity:0.4;" width="12.4512" x="1394.06" y="1030.79"/><rect height="119.336" id="right-margin" style="fill:darkgreen;stroke:none;opacity:0.4;" width="12.4512" x="1502.5112" y="1030.79"/><rect x="1406.5112" y="1045" width="96" height="96" fill="none" stroke="blue" stroke-dasharray="5"/><rect x="1394.06" y="1030.79" width="120.9024" height="119.336" fill="none" stroke="blue"/></g><g id="Symbols"><g id="Bold-L" transform="matrix(1 0 0 1 2266 1556)"><path d="M21.76875 18.94999999999999 Q13.545000000000002 18.94999999999999 7.820625 13.306250000000006 Q2.09625 7.662499999999994 2.09625 -0.7224999999999824 V-47.646249999999995 Q2.09625 -52.48375 5.401875 -55.86999999999999 Q8.707500000000001 -59.256249999999994 13.70625 -59.256249999999994 H50.31 V-84.25 Q50.31 -87.475 52.486875 -89.490625 Q54.66375 -91.50625 57.566250000000004 -91.50625 H84.65625 Q93.68625 -91.50625 100.05562499999999 -85.13687499999999 Q106.425 -78.76749999999998 106.58624999999999 -69.57624999999999 V-45.06625 H116.26124999999999 V-49.58124999999999 Q116.26124999999999 -52.48375 117.309375 -55.144375 Q118.35750000000002 -57.80499999999999 120.615 -59.90124999999999 L125.93625 -65.54499999999999 Q128.51625 -68.125 132.5475 -67.56062499999999 Q136.57875 -66.99625 138.03 -63.287499999999994 L155.28375 -27.006249999999994 Q157.21875 -23.2975 154.880625 -19.991874999999993 Q152.5425 -16.686249999999987 148.18875000000003 -16.686249999999987 H128.0325 Q123.03375 -16.686249999999987 119.64750000000001 -19.991874999999993 Q116.26124999999999 -23.2975 116.26124999999999 -28.29625 V-31.521249999999995 H106.58624999999999 V-15.235 Q109.81124999999999 -12.493749999999991 111.50437500000001 -8.704374999999985 Q113.1975 -4.914999999999992 113.1975 -0.7224999999999824 Q113.1975 7.662499999999994 107.55375000000001 13.306250000000006 Q101.91000000000001 18.94999999999999 93.525 18.94999999999999 Q87.39750000000001 18.94999999999999 82.479375 15.563749999999999 Q77.56125 12.177500000000023 75.30375000000001 6.372500000000002 H40.15125 Q37.7325 12.177500000000023 32.73375 15.563749999999999 Q27.735 18.94999999999999 21.76875 18.94999999999999 Z M21.76875 6.372500000000002 Q24.993750000000002 6.372500000000002 26.92875 4.4375 Q28.86375 2.502500000000012 28.86375 -0.5612499999999869 Q28.86375 -3.7862499999999955 26.848125 -5.8018749999999955 Q24.8325 -7.8174999999999955 21.76875 -7.8174999999999955 Q18.54375 -7.8174999999999955 16.60875 -5.8018749999999955 Q14.67375 -3.7862499999999955 14.67375 -0.7224999999999824 Q14.67375 2.502500000000012 16.689375 4.4375 Q18.705 6.372500000000002 21.76875 6.372500000000002 Z M93.525 6.372500000000002 Q96.58875 6.372500000000002 98.604375 4.4375 Q100.62 2.502500000000012 100.62 -0.5612499999999869 Q100.62 -3.7862499999999955 98.604375 -5.8018749999999955 Q96.58875 -7.8174999999999955 93.525 -7.8174999999999955 Q90.3 -7.8174999999999955 88.365 -5.8018749999999955 Q86.43 -3.7862499999999955 86.43 -0.7224999999999824 Q86.43 2.502500000000012 88.365 4.4375 Q90.3 6.372500000000002 93.525 6.372500000000002 Z M50.31 -7.49499999999999 V-45.71124999999999 H15.64125 Q15.64125 -45.71124999999999 15.64125 -45.71124999999999 Q15.64125 -45.71124999999999 15.64125 -45.71124999999999 V-18.782499999999985 Q16.931250000000002 -19.26625 18.54375 -19.830624999999998 Q20.15625 -20.394999999999982 21.76875 -20.394999999999982 Q27.735 -20.394999999999982 32.814375000000005 -16.847499999999997 Q37.893750000000004 -13.299999999999997 39.99 -7.49499999999999 H50.31 Z M63.855000000000004 -7.49499999999999 H75.1425 Q77.23875 -12.654999999999987 81.511875 -16.12187499999999 Q85.78500000000001 -19.58874999999999 91.42875000000001 -20.23375 Q91.75125 -20.23375 92.07375 -20.23375 Q92.39625 -20.23375 93.04125 -20.23375 V-31.521249999999995 H63.855000000000004 V-7.49499999999999 Z M140.12625 -29.263749999999987  130.45125000000002 -49.58124999999999 Q129.80625 -48.77499999999999 129.32250000000002 -48.129999999999995 Q128.83875 -47.485 128.83875 -46.5175 V-29.263749999999987 Q128.83875 -29.263749999999987 128.83875 -29.263749999999987 Q128.83875 -29.263749999999987 128.83875 -29.263749999999987 H140.12625 Z M63.855000000000004 -45.06625 H93.04125 V-69.57624999999999 Q93.04125 -73.285 90.703125 -75.62312499999999 Q88.365 -77.96124999999999 84.65625 -77.96124999999999 H63.855000000000004 V-45.06625 Z"/></g><g id="Semibold-L" transform="matrix(1 0 0 1 1970.27 1556)"><path d="M22.575 17.82125000000002 Q14.35125 17.82125000000002 8.788125 12.258125000000007 Q3.225 6.695000000000007 3.225 -1.3674999999999926 V-47.646249999999995 Q3.225 -52.3225 6.45 -55.5475 Q9.675 -58.772499999999994 14.35125 -58.772499999999994 H50.79375 V-84.41125 Q50.79375 -87.15249999999999 52.728750000000005 -89.08749999999999 Q54.66375 -91.0225 57.405 -91.0225 H85.14 Q93.68625 -91.0225 99.6525 -85.05624999999999 Q105.61875 -79.09 105.77999999999999 -70.54374999999999 V-44.90499999999999 H115.455 V-50.709999999999994 Q115.455 -53.29 116.34187500000002 -55.62812499999999 Q117.22875 -57.966249999999995 119.16375000000001 -59.74 L124.96875 -65.86749999999999 Q127.3875 -68.28625 130.935 -67.8025 Q134.48250000000002 -67.31875 135.93375 -64.09375 L154.4775 -27.16749999999999 Q156.25125000000003 -23.781249999999986 154.155 -20.717499999999987 Q152.05875 -17.653749999999988 148.18875000000003 -17.653749999999988 H126.74249999999999 Q122.06625000000001 -17.653749999999988 118.76062500000002 -20.878749999999997 Q115.455 -24.10374999999999 115.455 -28.779999999999987 V-32.004999999999995 H105.77999999999999 V-15.718749999999986 Q108.84375 -12.977499999999992 110.536875 -9.268749999999997 Q112.22999999999999 -5.559999999999988 112.22999999999999 -1.3674999999999926 Q112.22999999999999 6.695000000000007 106.66687500000002 12.258125000000007 Q101.10375 17.82125000000002 92.88000000000001 17.82125000000002 Q86.91375 17.82125000000002 82.07625 14.435000000000002 Q77.23875 11.048750000000013 75.1425 5.243750000000006 H40.635 Q38.377500000000005 11.048750000000013 33.459375 14.435000000000002 Q28.541249999999998 17.82125000000002 22.575 17.82125000000002 Z M22.575 5.7275000000000205 Q25.63875 5.7275000000000205 27.573750000000004 3.792500000000018 Q29.508750000000003 1.8575000000000017 29.508750000000003 -1.3674999999999926 Q29.508750000000003 -4.431250000000006 27.493125000000003 -6.446875000000006 Q25.477500000000003 -8.462500000000006 22.41375 -8.462500000000006 Q19.35 -8.462500000000006 17.415000000000003 -6.446875000000006 Q15.48 -4.431250000000006 15.48 -1.3674999999999926 Q15.48 1.8575000000000017 17.495625 3.792500000000018 Q19.51125 5.7275000000000205 22.575 5.7275000000000205 Z M92.88000000000001 5.7275000000000205 Q96.105 5.7275000000000205 98.120625 3.792500000000018 Q100.13625 1.8575000000000017 100.13625 -1.3674999999999926 Q100.13625 -4.431250000000006 98.120625 -6.446875000000006 Q96.105 -8.462500000000006 93.04125 -8.462500000000006 Q89.81625000000001 -8.462500000000006 87.88125000000001 -6.446875000000006 Q85.94624999999999 -4.431250000000006 85.94624999999999 -1.3674999999999926 Q85.94624999999999 1.8575000000000017 87.88125000000001 3.792500000000018 Q89.81625000000001 5.7275000000000205 92.88000000000001 5.7275000000000205 Z M50.79375 -7.8174999999999955 V-46.03375 H15.963750000000001 Q15.963750000000001 -46.03375 15.963750000000001 -46.03375 Q15.963750000000001 -46.03375 15.963750000000001 -46.03375 V-18.943749999999994 Q17.415000000000003 -19.58874999999999 19.027500000000003 -20.15312499999999 Q20.64 -20.717499999999987 22.41375 -20.717499999999987 Q28.541249999999998 -20.717499999999987 33.54 -17.08937499999999 Q38.53875 -13.461249999999993 40.47375 -7.8174999999999955 H50.79375 Z M63.5325 -7.8174999999999955 H74.82 Q76.91625 -13.138749999999987 81.27 -16.605625000000003 Q85.62375 -20.07249999999999 91.42875000000001 -20.55624999999999 Q91.75125 -20.55624999999999 92.07375 -20.55624999999999 Q92.39625 -20.55624999999999 93.04125 -20.55624999999999 V-32.004999999999995 H63.5325 V-7.8174999999999955 Z M139.48125000000002 -29.908749999999998  129.32250000000002 -49.903749999999995 Q128.51625 -49.0975 128.113125 -48.4525 Q127.71000000000001 -47.80749999999999 127.71000000000001 -46.84 V-29.908749999999998 Q127.71000000000001 -29.908749999999998 127.71000000000001 -29.908749999999998 Q127.71000000000001 -29.908749999999998 127.71000000000001 -29.908749999999998 H139.48125000000002 Z M63.5325 -44.90499999999999 H93.04125 V-70.54374999999999 Q93.04125 -73.76874999999998 90.78375 -76.02625 Q88.52625 -78.28375 85.14 -78.28375 H63.5325 V-44.90499999999999 Z"/></g><g id="Medium-L" transform="matrix(1 0 0 1 1674.31 1556)"><path d="M23.058750000000003 17.17625000000001 Q15.1575 17.17625000000001 9.594375000000001 11.613124999999997 Q4.03125 6.049999999999997 4.03125 -2.012500000000003 V-47.485 Q4.03125 -51.99999999999999 7.175625 -55.224999999999994 Q10.32 -58.44999999999999 14.996250000000002 -58.44999999999999 H51.11625 V-84.57249999999999 Q51.11625 -86.99125 52.970625000000005 -88.845625 Q54.825 -90.69999999999999 57.24375 -90.69999999999999 H85.4625 Q93.68625 -90.69999999999999 99.33 -85.05624999999999 Q104.97375 -79.4125 105.135 -71.18875 V-44.74374999999999 H114.81 V-51.51625 Q114.81 -53.77374999999999 115.61625000000001 -55.950624999999995 Q116.42250000000001 -58.1275 118.19624999999999 -59.57875 L124.32374999999999 -66.19 Q126.58125 -68.44749999999999 129.80625 -68.044375 Q133.03125 -67.64125 134.48250000000002 -64.57749999999999 L153.8325 -27.32875 Q155.44500000000002 -24.265 153.59062500000002 -21.362499999999997 Q151.73624999999998 -18.459999999999994 148.0275 -18.459999999999994 H125.775 Q121.26 -18.459999999999994 118.03500000000001 -21.523749999999993 Q114.81 -24.58749999999999 114.81 -29.263749999999987 V-32.48874999999998 H105.135 V-16.04124999999999 Q108.03750000000001 -13.299999999999997 109.81124999999999 -9.671874999999986 Q111.58500000000001 -6.043750000000003 111.58500000000001 -2.012500000000003 Q111.58500000000001 6.049999999999997 106.02187500000001 11.613124999999997 Q100.45875 17.17625000000001 92.5575 17.17625000000001 Q86.43 17.17625000000001 81.673125 13.709374999999994 Q76.91625 10.242500000000007 74.98125 4.4375 H40.957499999999996 Q38.861250000000005 10.242500000000007 34.02375 13.709374999999994 Q29.186250000000005 17.17625000000001 23.058750000000003 17.17625000000001 Z M23.058750000000003 5.08250000000001 Q26.1225 5.08250000000001 28.138125 3.147500000000008 Q30.15375 1.2124999999999915 30.15375 -1.8512499999999932 Q30.15375 -4.914999999999992 28.138125 -6.930624999999992 Q26.1225 -8.946249999999992 23.058750000000003 -8.946249999999992 Q19.995 -8.946249999999992 17.979375 -6.930624999999992 Q15.963750000000001 -4.914999999999992 15.963750000000001 -2.012500000000003 Q15.963750000000001 1.2124999999999915 17.979375 3.147500000000008 Q19.995 5.08250000000001 23.058750000000003 5.08250000000001 Z M92.5575 5.08250000000001 Q95.62125 5.08250000000001 97.636875 3.147500000000008 Q99.6525 1.2124999999999915 99.6525 -1.8512499999999932 Q99.6525 -4.914999999999992 97.636875 -6.930624999999992 Q95.62125 -8.946249999999992 92.5575 -8.946249999999992 Q89.49375 -8.946249999999992 87.55875 -6.930624999999992 Q85.62375 -4.914999999999992 85.62375 -2.012500000000003 Q85.62375 1.2124999999999915 87.55875 3.147500000000008 Q89.49375 5.08250000000001 92.5575 5.08250000000001 Z M51.11625 -7.978749999999977 V-46.19499999999999 H16.28625 Q16.28625 -46.19499999999999 16.28625 -46.19499999999999 Q16.28625 -46.19499999999999 16.28625 -46.19499999999999 V-19.10499999999999 Q17.7375 -19.911249999999995 19.430625000000003 -20.394999999999982 Q21.12375 -20.878749999999997 23.058750000000003 -20.878749999999997 Q29.186250000000005 -20.878749999999997 34.02375 -17.250625 Q38.861250000000005 -13.622499999999988 40.79625 -7.978749999999977 H51.11625 Z M63.371249999999996 -7.978749999999977 H74.65875 Q76.59375 -13.461249999999993 81.028125 -16.928124999999994 Q85.4625 -20.394999999999982 91.2675 -20.878749999999997 Q91.59 -20.878749999999997 91.99312499999999 -20.878749999999997 Q92.39625 -20.878749999999997 92.88000000000001 -20.878749999999997 V-32.48874999999998 H63.371249999999996 V-7.978749999999977 Z M138.83625 -30.3925  128.355 -50.065 Q127.54875 -49.41999999999999 127.145625 -48.694374999999994 Q126.74249999999999 -47.968749999999986 126.74249999999999 -47.001249999999985 V-30.3925 Q126.74249999999999 -30.3925 126.74249999999999 -30.3925 Q126.74249999999999 -30.3925 126.74249999999999 -30.3925 H138.83625 Z M63.371249999999996 -44.74374999999999 H92.88000000000001 V-71.18875 Q92.88000000000001 -74.2525 90.78375 -76.34875 Q88.6875 -78.445 85.4625 -78.445 H63.371249999999996 V-44.74374999999999 Z"/></g><g id="Regular-L" transform="matrix(1 0 0 1 1378.56 1556)"><path d="M23.5425 16.53125 Q15.64125 16.53125 10.15875 11.048750000000013 Q4.67625 5.566249999999997 4.67625 -2.3349999999999795 V-47.485 Q4.67625 -51.83874999999999 7.74 -54.983124999999994 Q10.80375 -58.1275 15.31875 -58.1275 H51.43875 V-84.57249999999999 Q51.43875 -86.99125 53.13187500000001 -88.68437499999999 Q54.825 -90.3775 57.24375 -90.3775 H85.78500000000001 Q93.525 -90.3775 99.00750000000001 -84.975625 Q104.49 -79.57374999999999 104.65125000000002 -71.6725 V-44.582499999999996 H114.32625000000002 V-52.161249999999995 Q114.32625000000002 -54.257499999999986 115.051875 -56.192499999999995 Q115.7775 -58.1275 117.39 -59.57875 L123.84 -66.35125 Q125.93625 -68.44749999999999 129.0 -68.125 Q132.06375 -67.8025 133.35375000000002 -65.06125 L153.34875 -27.489999999999995 Q154.96125 -24.58749999999999 153.268125 -21.765624999999986 Q151.57500000000002 -18.943749999999994 148.0275 -18.943749999999994 H125.13 Q120.615 -18.943749999999994 117.470625 -22.007499999999993 Q114.32625000000002 -25.071249999999992 114.32625000000002 -29.586249999999993 V-32.81124999999999 H104.65125000000002 V-16.363749999999982 Q107.55375000000001 -13.622499999999988 109.3275 -9.994374999999991 Q111.10125000000001 -6.3662499999999795 111.10125000000001 -2.3349999999999795 Q111.10125000000001 5.566249999999997 105.61875 11.048750000000013 Q100.13625 16.53125 92.23500000000001 16.53125 Q86.26875 16.53125 81.511875 13.064375000000013 Q76.75500000000001 9.597499999999997 74.82 3.792500000000018 H41.11875 Q39.18375 9.597499999999997 34.346250000000005 13.064375000000013 Q29.508750000000003 16.53125 23.5425 16.53125 Z M23.38125 4.760000000000005 Q26.444999999999997 4.760000000000005 28.460624999999997 2.825000000000003 Q30.47625 0.8900000000000148 30.47625 -2.1737499999999983 Q30.47625 -5.237499999999997 28.460624999999997 -7.253124999999997 Q26.444999999999997 -9.268749999999997 23.38125 -9.268749999999997 Q20.478749999999998 -9.268749999999997 18.463124999999998 -7.253124999999997 Q16.447499999999998 -5.237499999999997 16.447499999999998 -2.3349999999999795 Q16.447499999999998 0.7287500000000051 18.463124999999998 2.744375000000005 Q20.478749999999998 4.760000000000005 23.38125 4.760000000000005 Z M92.23500000000001 4.760000000000005 Q95.1375 4.760000000000005 97.23375 2.825000000000003 Q99.33 0.8900000000000148 99.33 -2.1737499999999983 Q99.33 -5.237499999999997 97.314375 -7.253124999999997 Q95.29875 -9.268749999999997 92.23500000000001 -9.268749999999997 Q89.3325 -9.268749999999997 87.316875 -7.253124999999997 Q85.30125 -5.237499999999997 85.30125 -2.3349999999999795 Q85.30125 0.7287500000000051 87.316875 2.744375000000005 Q89.3325 4.760000000000005 92.23500000000001 4.760000000000005 Z M51.43875 -8.14 V-46.35624999999999 H16.447499999999998 Q16.447499999999998 -46.35624999999999 16.447499999999998 -46.35624999999999 Q16.447499999999998 -46.35624999999999 16.447499999999998 -46.35624999999999 V-19.26625 Q17.89875 -20.07249999999999 19.753125 -20.55624999999999 Q21.6075 -21.039999999999992 23.38125 -21.039999999999992 Q29.508750000000003 -21.039999999999992 34.346250000000005 -17.411874999999995 Q39.18375 -13.783749999999998 40.957499999999996 -8.14 H51.43875 Z M63.21000000000001 -8.14 H74.4975 Q76.27125 -13.622499999999988 80.866875 -17.169999999999987 Q85.4625 -20.717499999999987 91.2675 -21.039999999999992 Q91.59 -21.039999999999992 91.99312499999999 -21.039999999999992 Q92.39625 -21.039999999999992 92.88000000000001 -21.039999999999992 V-32.81124999999999 H63.21000000000001 V-8.14 Z M138.51375000000002 -30.715000000000003  127.71000000000001 -50.226249999999986 Q126.90375 -49.58124999999999 126.50062500000001 -48.855624999999996 Q126.09750000000001 -48.129999999999995 126.09750000000001 -47.162499999999994 V-30.715000000000003 Q126.09750000000001 -30.715000000000003 126.09750000000001 -30.715000000000003 Q126.09750000000001 -30.715000000000003 126.09750000000001 -30.715000000000003 H138.51375000000002 Z M63.21000000000001 -44.582499999999996 H92.88000000000001 V-71.6725 Q92.88000000000001 -74.57499999999999 90.86437500000001 -76.59062499999999 Q88.84875000000001 -78.60624999999999 85.78500000000001 -78.60624999999999 H63.21000000000001 V-44.582499999999996 Z"/></g><g id="Light-L" transform="matrix(1 0 0 1 1082.77 1556)"><path d="M25.477500000000003 14.918750000000003 Q18.06 14.918750000000003 12.980625000000002 9.75875000000002 Q7.901250000000001 4.59875000000001 7.901250000000001 -2.8187500000000085 V-44.582499999999996 Q7.901250000000001 -48.936249999999994 10.80375 -51.919374999999995 Q13.70625 -54.902499999999996 18.06 -54.902499999999996 H53.535000000000004 V-81.50874999999999 Q53.535000000000004 -83.76625 55.228125 -85.459375 Q56.92124999999999 -87.15249999999999 59.17875000000001 -87.15249999999999 H84.65625 Q91.91250000000001 -87.15249999999999 97.0725 -81.99249999999999 Q102.2325 -76.8325 102.2325 -69.57624999999999 V-42.80875 H112.06875000000001 V-50.38749999999999 Q112.06875000000001 -52.3225 112.794375 -54.176874999999995 Q113.52000000000001 -56.03124999999999 114.97125 -57.32125 L120.29249999999999 -62.964999999999996 Q122.22749999999999 -64.89999999999999 125.29125 -64.57749999999999 Q128.355 -64.255 129.48375 -61.67499999999999 L148.18875000000003 -26.844999999999985 Q149.64 -23.942499999999995 148.0275 -21.201249999999987 Q146.415 -18.459999999999994 142.8675 -18.459999999999994 H122.22749999999999 Q118.03500000000001 -18.459999999999994 115.13250000000001 -21.362499999999997 Q112.22999999999999 -24.265 112.06875000000001 -28.457499999999982 V-33.29499999999999 H102.2325 V-16.52499999999999 Q105.45750000000001 -13.944999999999993 107.311875 -10.397499999999994 Q109.16625 -6.8500000000000085 109.16625 -2.8187500000000085 Q109.16625 4.59875000000001 104.00625000000001 9.75875000000002 Q98.84625 14.918750000000003 91.42875000000001 14.918750000000003 Q85.62375 14.918750000000003 81.028125 11.451875000000015 Q76.4325 7.984999999999999 74.98125 2.180000000000007 H42.2475 Q40.635 7.984999999999999 36.03937500000001 11.451875000000015 Q31.44375 14.918750000000003 25.477500000000003 14.918750000000003 Z M25.477500000000003 5.566249999999997 Q28.86375 5.566249999999997 31.2825 3.2281249999999915 Q33.70125 0.8900000000000148 33.70125 -2.6574999999999847 Q33.70125 -6.204999999999998 31.2825 -8.543125000000003 Q28.86375 -10.881249999999994 25.31625 -10.881249999999994 Q21.93 -10.881249999999994 19.591875 -8.543125000000003 Q17.25375 -6.204999999999998 17.25375 -2.8187500000000085 Q17.25375 0.7287500000000051 19.6725 3.147500000000008 Q22.09125 5.566249999999997 25.477500000000003 5.566249999999997 Z M91.42875000000001 5.566249999999997 Q94.97625000000001 5.566249999999997 97.395 3.2281249999999915 Q99.81375 0.8900000000000148 99.81375 -2.6574999999999847 Q99.81375 -6.204999999999998 97.395 -8.543125000000003 Q94.97625000000001 -10.881249999999994 91.59 -10.881249999999994 Q88.0425 -10.881249999999994 85.704375 -8.543125000000003 Q83.36625000000001 -6.204999999999998 83.36625000000001 -2.8187500000000085 Q83.36625000000001 0.7287500000000051 85.704375 3.147500000000008 Q88.0425 5.566249999999997 91.42875000000001 5.566249999999997 Z M53.535000000000004 -7.333749999999995 V-45.55 H19.188750000000002 Q18.3825 -45.55 17.818125000000002 -44.985624999999985 Q17.25375 -44.42125 17.25375 -43.45375 V-17.492499999999993 Q18.86625 -18.782499999999985 20.962500000000002 -19.508124999999993 Q23.058750000000003 -20.23375 25.31625 -20.23375 Q31.2825 -20.23375 35.95875 -16.605625000000003 Q40.635 -12.977499999999992 42.08625000000001 -7.333749999999995 H53.535000000000004 Z M63.048750000000005 -7.333749999999995 H74.82 Q76.11000000000001 -12.816249999999997 80.46375 -16.363749999999982 Q84.81750000000001 -19.911249999999995 90.46125 -20.23375 Q91.10625 -20.23375 91.670625 -20.23375 Q92.23500000000001 -20.23375 92.88000000000001 -20.23375 V-33.29499999999999 H63.048750000000005 V-7.333749999999995 Z M137.0625 -27.973749999999995  124.64625 -50.54874999999999  123.19500000000001 -48.936249999999994 Q122.38875000000002 -48.29124999999999 121.98562500000001 -47.485 Q121.58250000000001 -46.678749999999994 121.58250000000001 -45.55 V-29.586249999999993 Q121.58250000000001 -28.941249999999997 122.06625000000001 -28.457499999999982 Q122.55 -27.973749999999995 123.19500000000001 -27.973749999999995 H137.0625 Z M63.048750000000005 -42.80875 H92.88000000000001 V-69.57624999999999 Q92.88000000000001 -72.96249999999999 90.46125 -75.300625 Q88.0425 -77.63874999999999 84.65625 -77.63874999999999 H63.048750000000005 V-42.80875 Z"/></g><g id="Thin-L" transform="matrix(1 0 0 1 787.282 1556)"><path d="M27.4125 13.306250000000006 Q20.64 13.306250000000006 15.802500000000002 8.46875 Q10.965 3.6312499999999943 10.965 -3.141249999999985 V-41.84125 Q10.965 -45.8725 13.8675 -48.77499999999999 Q16.77 -51.677499999999995 20.962500000000002 -51.677499999999995 H55.792500000000004 V-78.445 Q55.792500000000004 -80.70249999999999 57.405 -82.234375 Q59.017500000000005 -83.76625 61.275 -83.76625 H83.36625000000001 Q90.3 -83.76625 95.1375 -79.00937499999999 Q99.97500000000001 -74.2525 99.97500000000001 -67.47999999999999 V-41.035 H109.81124999999999 V-48.613749999999996 Q109.81124999999999 -50.38749999999999 110.45625 -52.080625 Q111.10125000000001 -53.77374999999999 112.5525 -55.06374999999999 L116.74500000000002 -59.57875 Q118.67999999999999 -61.35249999999999 121.58250000000001 -61.11062499999999 Q124.48500000000001 -60.86874999999999 125.61375000000001 -58.288749999999986 L142.8675 -26.19999999999999 Q144.48 -23.2975 142.8675 -20.717499999999987 Q141.255 -18.13749999999999 137.86875 -18.13749999999999 H119.16375000000001 Q115.455 -18.13749999999999 112.71375000000002 -20.717499999999987 Q109.97250000000001 -23.2975 109.81124999999999 -27.16749999999999 V-33.94 H99.97500000000001 V-16.686249999999987 Q103.2 -14.267499999999998 105.215625 -10.800624999999997 Q107.23125 -7.333749999999995 107.23125 -3.141249999999985 Q107.23125 3.6312499999999943 102.39375 8.46875 Q97.55625 13.306250000000006 90.78375 13.306250000000006 Q85.14 13.306250000000006 80.705625 9.75875000000002 Q76.27125 6.211250000000007 75.1425 0.5675000000000097 H43.37625 Q42.08625000000001 6.211250000000007 37.651875000000004 9.75875000000002 Q33.2175 13.306250000000006 27.4125 13.306250000000006 Z M27.4125 6.211250000000007 Q31.44375 6.211250000000007 34.104375 3.5506249999999966 Q36.765 0.8900000000000148 36.765 -3.141249999999985 Q36.765 -7.172499999999985 34.104375 -9.833124999999995 Q31.44375 -12.493749999999991 27.4125 -12.493749999999991 Q23.38125 -12.493749999999991 20.720625 -9.833124999999995 Q18.06 -7.172499999999985 18.06 -3.302499999999995 Q18.06 0.7287500000000051 20.80125 3.470000000000013 Q23.5425 6.211250000000007 27.4125 6.211250000000007 Z M90.78375 6.211250000000007 Q94.65375 6.211250000000007 97.395 3.5506249999999966 Q100.13625 0.8900000000000148 100.13625 -3.141249999999985 Q100.13625 -7.172499999999985 97.47562500000001 -9.833124999999995 Q94.815 -12.493749999999991 90.78375 -12.493749999999991 Q86.91375 -12.493749999999991 84.17250000000001 -9.833124999999995 Q81.43125 -7.172499999999985 81.43125 -3.302499999999995 Q81.43125 0.7287500000000051 84.17250000000001 3.470000000000013 Q86.91375 6.211250000000007 90.78375 6.211250000000007 Z M55.792500000000004 -6.688749999999985 V-44.582499999999996 H22.09125 Q20.3175 -44.582499999999996 19.188750000000002 -43.45375 Q18.06 -42.32499999999999 18.06 -40.71249999999999 V-15.718749999999986 Q19.833750000000002 -17.492499999999993 22.2525 -18.54062499999999 Q24.67125 -19.58874999999999 27.4125 -19.58874999999999 Q33.05625 -19.58874999999999 37.57125 -15.960624999999993 Q42.08625000000001 -12.332499999999982 43.05375 -6.688749999999985 H55.792500000000004 Z M62.8875 -6.688749999999985 H74.98125 Q75.94875 -12.17125 80.060625 -15.718749999999986 Q84.17250000000001 -19.26625 89.81625000000001 -19.58874999999999 Q90.46125 -19.58874999999999 91.2675 -19.508124999999993 Q92.07375 -19.427499999999995 92.88000000000001 -19.26625 V-33.94 H62.8875 V-6.688749999999985 Z M135.61124999999998 -25.071249999999992  121.58250000000001 -50.871249999999996  118.67999999999999 -47.80749999999999 Q117.87375 -47.001249999999985 117.39 -46.114374999999995 Q116.90625 -45.22749999999999 116.90625 -44.098749999999995 V-28.29625 Q117.0675 -27.16749999999999 117.95437500000001 -26.11937499999999 Q118.84125 -25.071249999999992 120.13125000000001 -25.071249999999992 H135.61124999999998 Z M62.8875 -41.035 H92.88000000000001 V-67.47999999999999 Q92.88000000000001 -71.35 90.13875 -74.010625 Q87.39750000000001 -76.67124999999999 83.36625000000001 -76.67124999999999 H62.8875 V-41.035 Z"/></g><g id="Ultralight-L" transform="matrix(1 0 0 1 491.205 1556)"><path d="M28.7025 12.338750000000005 Q22.09125 12.338750000000005 17.495625 7.7431250000000205 Q12.9 3.147500000000008 12.9 -3.4637499999999903 V-40.067499999999995 Q12.9 -44.098749999999995 15.721875 -46.92062499999999 Q18.54375 -49.74249999999999 22.575 -49.74249999999999 H57.082499999999996 V-76.50999999999999 Q57.082499999999996 -78.76749999999998 58.614375 -80.299375 Q60.146249999999995 -81.83125 62.40375000000001 -81.83125 H82.72125 Q89.3325 -81.83125 93.92812500000001 -77.31625 Q98.52375 -72.80125 98.52375 -66.19 V-39.906249999999986 H108.52125 V-47.485 Q108.52125 -49.25875 109.16625 -50.871249999999996 Q109.81124999999999 -52.48375 111.10125000000001 -53.77374999999999 L114.64874999999999 -57.48249999999999 Q116.42250000000001 -59.256249999999994 119.405625 -59.014374999999994 Q122.38875000000002 -58.772499999999994 123.35625 -56.35375 L139.80375 -25.716250000000002 Q141.255 -22.974999999999994 139.723125 -20.394999999999982 Q138.19125 -17.814999999999998 134.805 -17.814999999999998 H117.39 Q113.84249999999999 -17.814999999999998 111.2625 -20.314375 Q108.68250000000002 -22.813749999999985 108.52125 -26.522499999999994 V-34.26249999999999 H98.52375 V-16.686249999999987 Q101.91000000000001 -14.428749999999994 104.00625000000001 -11.04249999999999 Q106.10249999999999 -7.65625 106.10249999999999 -3.4637499999999903 Q106.10249999999999 3.147500000000008 101.50687500000001 7.7431250000000205 Q96.91125000000001 12.338750000000005 90.3 12.338750000000005 Q84.81750000000001 12.338750000000005 80.46375 8.791250000000005 Q76.11000000000001 5.243750000000006 75.30375000000001 -0.4000000000000057 H44.02125 Q43.05375 5.243750000000006 38.7 8.791250000000005 Q34.346250000000005 12.338750000000005 28.7025 12.338750000000005 Z M28.541249999999998 6.695000000000007 Q32.894999999999996 6.695000000000007 35.7975 3.792500000000018 Q38.7 0.8900000000000148 38.7 -3.302499999999995 Q38.7 -7.65625 35.7975 -10.558750000000003 Q32.894999999999996 -13.461249999999993 28.541249999999998 -13.461249999999993 Q24.34875 -13.461249999999993 21.446250000000003 -10.558750000000003 Q18.54375 -7.65625 18.54375 -3.4637499999999903 Q18.54375 0.7287500000000051 21.526875 3.7118750000000205 Q24.509999999999998 6.695000000000007 28.541249999999998 6.695000000000007 Z M90.3 6.695000000000007 Q94.4925 6.695000000000007 97.47562500000001 3.792500000000018 Q100.45875 0.8900000000000148 100.45875 -3.302499999999995 Q100.45875 -7.65625 97.55625 -10.558750000000003 Q94.65375 -13.461249999999993 90.3 -13.461249999999993 Q86.26875 -13.461249999999993 83.285625 -10.558750000000003 Q80.3025 -7.65625 80.3025 -3.4637499999999903 Q80.3025 0.7287500000000051 83.285625 3.7118750000000205 Q86.26875 6.695000000000007 90.3 6.695000000000007 Z M57.082499999999996 -6.204999999999998 V-44.098749999999995 H23.70375 Q21.446250000000003 -44.098749999999995 19.995 -42.647499999999994 Q18.54375 -41.19624999999999 18.54375 -38.938749999999985 V-14.751249999999985 Q20.3175 -16.847499999999997 22.978125000000002 -17.976249999999993 Q25.63875 -19.10499999999999 28.541249999999998 -19.10499999999999 Q34.185 -19.10499999999999 38.53875 -15.476874999999993 Q42.892500000000005 -11.848749999999995 43.698750000000004 -6.204999999999998 H57.082499999999996 Z M62.72625 -6.204999999999998 H75.1425 Q75.94875 -11.687499999999986 79.89937499999999 -15.235 Q83.85000000000001 -18.782499999999985 89.3325 -19.10499999999999 Q90.13875 -19.10499999999999 91.025625 -19.024374999999992 Q91.91250000000001 -18.943749999999994 92.88000000000001 -18.782499999999985 V-34.26249999999999 H62.72625 V-6.204999999999998 Z M134.64375 -23.458749999999995  119.80875 -51.03249999999999  115.93875000000001 -47.001249999999985 Q115.13250000000001 -46.19499999999999 114.64874999999999 -45.22749999999999 Q114.16499999999999 -44.25999999999999 114.16499999999999 -43.131249999999994 V-27.65124999999999 Q114.32625000000002 -26.038749999999993 115.53562500000001 -24.748749999999987 Q116.74500000000002 -23.458749999999995 118.35750000000002 -23.458749999999995 H134.64375 Z M62.72625 -39.906249999999986 H92.88000000000001 V-66.19 Q92.88000000000001 -70.3825 89.97749999999999 -73.285 Q87.075 -76.1875 82.72125 -76.1875 H62.72625 V-39.906249999999986 Z"/></g><g id="Bold-M" transform="matrix(1 0 0 1 2281.8 1126)"><path d="M16.875 9.52000000000001 Q9.375 9.52000000000001 4.125 4.39500000000001 Q-1.125 -0.7299999999999898 -1.125 -8.35499999999999 V-43.22999999999999 Q-1.125 -48.60499999999999 2.625 -52.35499999999999 Q6.375 -56.10499999999999 11.75 -56.10499999999999 H35.375 V-72.60499999999999 Q35.375 -76.22999999999999 37.875 -78.66999999999999 Q40.375 -81.10499999999999 43.875 -81.10499999999999 H62.25 Q70.625 -81.10499999999999 76.5 -75.22999999999999 Q82.375 -69.35499999999999 82.375 -60.85499999999999 L82.5 -47.22999999999999 H87.5 V-45.97999999999999 Q87.375 -49.22999999999999 88.69 -52.16999999999999 Q90.0 -55.10499999999999 92.25 -57.35499999999999 L95.75 -60.97999999999999 Q98.875 -64.10499999999999 103.315 -63.35499999999999 Q107.75 -62.60499999999999 109.625 -58.47999999999999 L122.125 -30.60499999999999 Q124.125 -26.35499999999999 121.625 -22.47999999999999 Q119.125 -18.60499999999999 114.25 -18.60499999999999 H100.375 Q95.0 -18.60499999999999 91.25 -22.35499999999999 Q87.5 -26.10499999999999 87.5 -31.47999999999999 H82.5 V-20.85499999999999 Q85.0 -18.35499999999999 86.31500000000001 -15.10499999999999 Q87.625 -11.85499999999999 87.625 -8.35499999999999 Q87.625 -0.7299999999999898 82.5 4.39500000000001 Q77.375 9.52000000000001 69.75 9.52000000000001 Q64.75 9.52000000000001 60.44 6.89500000000001 Q56.125 4.27000000000001 53.75 -0.22999999999998977 H32.875 Q30.5 4.27000000000001 26.19 6.89500000000001 Q21.875 9.52000000000001 16.875 9.52000000000001 Z M16.875 -5.22999999999999 Q18.125 -5.22999999999999 19.0 -6.10499999999999 Q19.875 -6.97999999999999 19.875 -8.35499999999999 Q19.875 -9.60499999999999 19.0 -10.539999999999992 Q18.125 -11.47999999999999 16.75 -11.47999999999999 Q15.375 -11.47999999999999 14.5 -10.539999999999992 Q13.625 -9.60499999999999 13.625 -8.22999999999999 Q13.625 -6.97999999999999 14.565 -6.10499999999999 Q15.5 -5.22999999999999 16.875 -5.22999999999999 Z M69.75 -5.22999999999999 Q71.125 -5.22999999999999 72.0 -6.10499999999999 Q72.875 -6.97999999999999 72.875 -8.35499999999999 Q72.875 -9.60499999999999 72.0 -10.539999999999992 Q71.125 -11.47999999999999 69.75 -11.47999999999999 Q68.375 -11.47999999999999 67.5 -10.539999999999992 Q66.625 -9.60499999999999 66.625 -8.22999999999999 Q66.625 -6.97999999999999 67.5 -6.10499999999999 Q68.375 -5.22999999999999 69.75 -5.22999999999999 Z M35.375 -16.22999999999999 V-40.35499999999999 H14.625 Q14.625 -40.35499999999999 14.625 -40.35499999999999 Q14.625 -40.35499999999999 14.625 -40.35499999999999 V-26.10499999999999 Q15.125 -26.10499999999999 15.69 -26.169999999999987 Q16.25 -26.22999999999999 16.75 -26.22999999999999 Q21.875 -26.22999999999999 26.19 -23.544999999999987 Q30.5 -20.85499999999999 32.75 -16.22999999999999 H35.375 Z M51.125 -16.22999999999999 H53.75 Q55.75 -19.97999999999999 59.059999999999995 -22.544999999999987 Q62.375 -25.10499999999999 66.625 -25.97999999999999 Q66.625 -25.97999999999999 66.625 -25.97999999999999 Q66.625 -25.97999999999999 66.625 -25.97999999999999 V-31.47999999999999 H51.125 V-16.22999999999999 Z M104.25 -33.35499999999999  102.25 -39.97999999999999 Q102.25 -39.97999999999999 102.25 -39.97999999999999 Q102.25 -39.97999999999999 102.25 -39.97999999999999 V-33.35499999999999 Q102.25 -33.35499999999999 102.25 -33.35499999999999 Q102.25 -33.35499999999999 102.25 -33.35499999999999 H104.25 Z M51.125 -47.22999999999999 H66.625 V-60.85499999999999 Q66.625 -62.85499999999999 65.375 -64.10499999999999 Q64.125 -65.35499999999999 62.25 -65.35499999999999 H51.125 V-47.22999999999999 Z"/></g><g id="Semibold-M" transform="matrix(1 0 0 1 1985.97 1126)"><path d="M17.625 8.14500000000001 Q10.5 8.14500000000001 5.375 3.1450000000000102 Q0.25 -1.8549999999999898 0.25 -9.22999999999999 V-42.97999999999999 Q0.25 -48.10499999999999 3.875 -51.72999999999999 Q7.5 -55.35499999999999 12.625 -55.35499999999999 H36.125 V-72.60499999999999 Q36.125 -75.85499999999999 38.375 -78.10499999999999 Q40.625 -80.35499999999999 43.875 -80.35499999999999 H62.875 Q70.625 -80.35499999999999 76.065 -74.91999999999999 Q81.5 -69.47999999999999 81.5 -61.72999999999999 L81.625 -46.60499999999999 H86.625 V-47.10499999999999 Q86.5 -49.85499999999999 87.625 -52.47999999999999 Q88.75 -55.10499999999999 90.75 -56.97999999999999 L94.75 -61.10499999999999 Q97.625 -63.97999999999999 101.56 -63.35499999999999 Q105.5 -62.72999999999999 107.25 -59.10499999999999 L121.0 -30.60499999999999 Q122.875 -26.85499999999999 120.625 -23.22999999999999 Q118.375 -19.60499999999999 114.0 -19.60499999999999 H98.875 Q93.75 -19.60499999999999 90.19 -23.22999999999999 Q86.625 -26.85499999999999 86.625 -31.97999999999999 H81.625 V-21.35499999999999 Q84.0 -18.97999999999999 85.31 -15.794999999999987 Q86.625 -12.60499999999999 86.625 -9.22999999999999 Q86.625 -1.8549999999999898 81.625 3.1450000000000102 Q76.625 8.14500000000001 69.25 8.14500000000001 Q64.375 8.14500000000001 60.19 5.52000000000001 Q56.0 2.8950000000000102 53.75 -1.6049999999999898 H33.375 Q31.125 2.8950000000000102 26.939999999999998 5.52000000000001 Q22.75 8.14500000000001 17.625 8.14500000000001 Z M17.625 -5.97999999999999 Q19.0 -5.97999999999999 19.935000000000002 -6.85499999999999 Q20.875 -7.72999999999999 20.875 -9.10499999999999 Q20.875 -10.47999999999999 19.935000000000002 -11.419999999999987 Q19.0 -12.35499999999999 17.625 -12.35499999999999 Q16.125 -12.35499999999999 15.25 -11.419999999999987 Q14.375 -10.47999999999999 14.375 -9.10499999999999 Q14.375 -7.72999999999999 15.375 -6.85499999999999 Q16.375 -5.97999999999999 17.625 -5.97999999999999 Z M69.375 -5.97999999999999 Q70.75 -5.97999999999999 71.625 -6.85499999999999 Q72.5 -7.72999999999999 72.5 -9.10499999999999 Q72.5 -10.47999999999999 71.625 -11.419999999999987 Q70.75 -12.35499999999999 69.25 -12.35499999999999 Q67.875 -12.35499999999999 67.0 -11.419999999999987 Q66.125 -10.47999999999999 66.125 -9.10499999999999 Q66.125 -7.72999999999999 67.0 -6.85499999999999 Q67.875 -5.97999999999999 69.375 -5.97999999999999 Z M36.125 -16.47999999999999 V-40.72999999999999 H15.0 Q15.0 -40.72999999999999 15.0 -40.72999999999999 Q15.0 -40.72999999999999 15.0 -40.72999999999999 V-26.22999999999999 Q15.625 -26.35499999999999 16.25 -26.419999999999987 Q16.875 -26.47999999999999 17.625 -26.47999999999999 Q22.625 -26.47999999999999 26.875 -23.794999999999987 Q31.125 -21.10499999999999 33.25 -16.47999999999999 H36.125 Z M50.75 -16.47999999999999 H53.625 Q55.5 -20.35499999999999 59.0 -22.97999999999999 Q62.5 -25.60499999999999 66.875 -26.35499999999999 Q66.875 -26.35499999999999 66.875 -26.35499999999999 Q66.875 -26.35499999999999 66.875 -26.35499999999999 V-31.97999999999999 H50.75 V-16.47999999999999 Z M103.625 -33.72999999999999  100.625 -40.85499999999999 Q100.625 -40.85499999999999 100.625 -40.85499999999999 Q100.625 -40.85499999999999 100.625 -40.85499999999999 V-33.72999999999999 Q100.625 -33.72999999999999 100.625 -33.72999999999999 Q100.625 -33.72999999999999 100.625 -33.72999999999999 H103.625 Z M50.75 -46.60499999999999 H66.875 V-61.72999999999999 Q66.875 -63.35499999999999 65.75 -64.54499999999999 Q64.625 -65.72999999999999 62.875 -65.72999999999999 H50.75 V-46.60499999999999 Z"/></g><g id="Medium-M" transform="matrix(1 0 0 1 1689.91 1126)"><path d="M18.25 7.14500000000001 Q11.25 7.14500000000001 6.3100000000000005 2.210000000000008 Q1.375 -2.7299999999999898 1.375 -9.72999999999999 V-42.85499999999999 Q1.375 -47.72999999999999 4.875 -51.22999999999999 Q8.375 -54.72999999999999 13.25 -54.72999999999999 H36.75 V-72.72999999999999 Q36.75 -75.60499999999999 38.815 -77.66999999999999 Q40.875 -79.72999999999999 43.75 -79.72999999999999 H63.375 Q70.625 -79.72999999999999 75.75 -74.66999999999999 Q80.875 -69.60499999999999 80.875 -62.22999999999999 V-46.22999999999999 H85.875 V-47.85499999999999 Q85.875 -50.35499999999999 86.875 -52.72999999999999 Q87.875 -55.10499999999999 89.625 -56.72999999999999 L94.0 -61.22999999999999 Q96.625 -63.85499999999999 100.19 -63.35499999999999 Q103.75 -62.85499999999999 105.5 -59.47999999999999 L120.125 -30.72999999999999 Q122.0 -27.22999999999999 119.94 -23.794999999999987 Q117.875 -20.35499999999999 113.75 -20.35499999999999 H97.75 Q92.875 -20.35499999999999 89.375 -23.85499999999999 Q85.875 -27.35499999999999 85.875 -32.35499999999999 H80.875 V-21.85499999999999 Q83.25 -19.35499999999999 84.565 -16.294999999999987 Q85.875 -13.22999999999999 85.875 -9.72999999999999 Q85.875 -2.7299999999999898 81.0 2.210000000000008 Q76.125 7.14500000000001 69.0 7.14500000000001 Q64.125 7.14500000000001 60.0 4.460000000000008 Q55.875 1.7700000000000102 53.625 -2.7299999999999898 H33.75 Q31.625 1.7700000000000102 27.5 4.460000000000008 Q23.375 7.14500000000001 18.25 7.14500000000001 Z M18.25 -6.47999999999999 Q19.625 -6.47999999999999 20.625 -7.4199999999999875 Q21.625 -8.35499999999999 21.625 -9.72999999999999 Q21.625 -11.22999999999999 20.689999999999998 -12.164999999999992 Q19.75 -13.10499999999999 18.25 -13.10499999999999 Q16.875 -13.10499999999999 15.940000000000001 -12.164999999999992 Q15.0 -11.22999999999999 15.0 -9.72999999999999 Q15.0 -8.35499999999999 15.940000000000001 -7.4199999999999875 Q16.875 -6.47999999999999 18.25 -6.47999999999999 Z M69.0 -6.47999999999999 Q70.375 -6.47999999999999 71.315 -7.4199999999999875 Q72.25 -8.35499999999999 72.25 -9.72999999999999 Q72.25 -11.22999999999999 71.315 -12.164999999999992 Q70.375 -13.10499999999999 69.0 -13.10499999999999 Q67.5 -13.10499999999999 66.56 -12.164999999999992 Q65.625 -11.22999999999999 65.625 -9.72999999999999 Q65.625 -8.35499999999999 66.625 -7.4199999999999875 Q67.625 -6.47999999999999 69.0 -6.47999999999999 Z M36.75 -16.72999999999999 V-40.97999999999999 H15.25 Q15.25 -40.97999999999999 15.25 -40.97999999999999 Q15.25 -40.97999999999999 15.25 -40.97999999999999 V-26.35499999999999 Q16.0 -26.60499999999999 16.69 -26.669999999999987 Q17.375 -26.72999999999999 18.25 -26.72999999999999 Q23.25 -26.72999999999999 27.375 -23.97999999999999 Q31.5 -21.22999999999999 33.625 -16.72999999999999 H36.75 Z M50.5 -16.72999999999999 H53.5 Q55.375 -20.72999999999999 59.0 -23.35499999999999 Q62.625 -25.97999999999999 67.0 -26.60499999999999 Q67.0 -26.60499999999999 67.0 -26.60499999999999 Q67.0 -26.60499999999999 67.0 -26.60499999999999 V-32.35499999999999 H50.5 V-16.72999999999999 Z M103.125 -33.97999999999999  99.5 -41.35499999999999 Q99.5 -41.35499999999999 99.5 -41.35499999999999 Q99.5 -41.35499999999999 99.5 -41.35499999999999 V-33.97999999999999 Q99.5 -33.97999999999999 99.5 -33.97999999999999 Q99.5 -33.97999999999999 99.5 -33.97999999999999 H103.125 Z M50.5 -46.22999999999999 H67.0 V-62.22999999999999 Q67.0 -63.85499999999999 66.0 -64.91999999999999 Q65.0 -65.97999999999999 63.375 -65.97999999999999 H50.5 V-46.22999999999999 Z"/></g><g id="Regular-M" transform="matrix(1 0 0 1 1394.06 1126)"><path d="M18.75 6.39500000000001 Q11.875 6.39500000000001 7.0 1.5200000000000102 Q2.125 -3.3549999999999898 2.125 -10.22999999999999 V-42.72999999999999 Q2.125 -47.47999999999999 5.5649999999999995 -50.91999999999999 Q9.0 -54.35499999999999 13.75 -54.35499999999999 H37.125 V-72.72999999999999 Q37.125 -75.47999999999999 39.065 -77.41999999999999 Q41.0 -79.35499999999999 43.75 -79.35499999999999 H63.75 Q70.625 -79.35499999999999 75.5 -74.47999999999999 Q80.375 -69.60499999999999 80.375 -62.72999999999999 V-45.85499999999999 H85.375 V-48.47999999999999 Q85.375 -50.72999999999999 86.25 -52.85499999999999 Q87.125 -54.97999999999999 88.75 -56.60499999999999 L93.5 -61.35499999999999 Q95.875 -63.72999999999999 99.185 -63.29499999999999 Q102.5 -62.85499999999999 104.125 -59.85499999999999 L119.5 -30.72999999999999 Q121.25 -27.47999999999999 119.375 -24.22999999999999 Q117.5 -20.97999999999999 113.625 -20.97999999999999 H97.0 Q92.25 -20.97999999999999 88.81 -24.419999999999987 Q85.375 -27.85499999999999 85.375 -32.60499999999999 H80.375 V-22.10499999999999 Q82.75 -19.72999999999999 84.06 -16.669999999999987 Q85.375 -13.60499999999999 85.375 -10.22999999999999 Q85.375 -3.3549999999999898 80.5 1.5200000000000102 Q75.625 6.39500000000001 68.75 6.39500000000001 Q63.875 6.39500000000001 59.815 3.710000000000008 Q55.75 1.0200000000000102 53.625 -3.4799999999999898 H34.0 Q32.0 1.0200000000000102 27.875 3.710000000000008 Q23.75 6.39500000000001 18.75 6.39500000000001 Z M18.75 -6.85499999999999 Q20.125 -6.85499999999999 21.125 -7.85499999999999 Q22.125 -8.85499999999999 22.125 -10.22999999999999 Q22.125 -11.60499999999999 21.125 -12.60499999999999 Q20.125 -13.60499999999999 18.75 -13.60499999999999 Q17.375 -13.60499999999999 16.375 -12.60499999999999 Q15.375 -11.60499999999999 15.375 -10.22999999999999 Q15.375 -8.85499999999999 16.375 -7.85499999999999 Q17.375 -6.85499999999999 18.75 -6.85499999999999 Z M68.75 -6.85499999999999 Q70.125 -6.85499999999999 71.125 -7.85499999999999 Q72.125 -8.85499999999999 72.125 -10.22999999999999 Q72.125 -11.60499999999999 71.125 -12.60499999999999 Q70.125 -13.60499999999999 68.75 -13.60499999999999 Q67.375 -13.60499999999999 66.375 -12.60499999999999 Q65.375 -11.60499999999999 65.375 -10.22999999999999 Q65.375 -8.85499999999999 66.375 -7.85499999999999 Q67.375 -6.85499999999999 68.75 -6.85499999999999 Z M37.125 -16.85499999999999 V-41.10499999999999 H15.375 Q15.375 -41.10499999999999 15.375 -41.10499999999999 Q15.375 -41.10499999999999 15.375 -41.10499999999999 V-26.47999999999999 Q16.25 -26.72999999999999 17.064999999999998 -26.789999999999992 Q17.875 -26.85499999999999 18.75 -26.85499999999999 Q23.75 -26.85499999999999 27.810000000000002 -24.10499999999999 Q31.875 -21.35499999999999 33.875 -16.85499999999999 H37.125 Z M50.375 -16.85499999999999 H53.5 Q55.25 -20.97999999999999 58.94 -23.60499999999999 Q62.625 -26.22999999999999 67.125 -26.72999999999999 Q67.125 -26.72999999999999 67.125 -26.72999999999999 Q67.125 -26.72999999999999 67.125 -26.72999999999999 V-32.60499999999999 H50.375 V-16.85499999999999 Z M102.75 -34.22999999999999  98.625 -41.85499999999999 Q98.625 -41.85499999999999 98.625 -41.85499999999999 Q98.625 -41.85499999999999 98.625 -41.85499999999999 V-34.22999999999999 Q98.625 -34.22999999999999 98.625 -34.22999999999999 Q98.625 -34.22999999999999 98.625 -34.22999999999999 H102.75 Z M50.375 -45.85499999999999 H67.125 V-62.72999999999999 Q67.125 -64.10499999999999 66.125 -65.10499999999999 Q65.125 -66.10499999999999 63.75 -66.10499999999999 H50.375 V-45.85499999999999 Z"/></g><g id="Light-M" transform="matrix(1 0 0 1 1098.18 1126)"><path d="M20.0 5.14500000000001 Q13.625 5.14500000000001 9.125 0.6450000000000102 Q4.625 -3.8549999999999898 4.625 -10.22999999999999 V-41.22999999999999 Q4.625 -45.60499999999999 7.75 -48.72999999999999 Q10.875 -51.85499999999999 15.25 -51.85499999999999 H39.125 V-70.72999999999999 Q39.125 -73.22999999999999 40.940000000000005 -75.04499999999999 Q42.75 -76.85499999999999 45.25 -76.85499999999999 H63.375 Q69.75 -76.85499999999999 74.25 -72.35499999999999 Q78.75 -67.85499999999999 78.75 -61.47999999999999 L78.875 -44.22999999999999 H84.625 V-47.22999999999999 Q84.5 -49.22999999999999 85.31 -51.169999999999995 Q86.125 -53.10499999999999 87.625 -54.47999999999999 L91.5 -58.47999999999999 Q93.75 -60.72999999999999 96.875 -60.35499999999999 Q100.0 -59.97999999999999 101.375 -57.10499999999999 L115.75 -30.10499999999999 Q117.375 -27.10499999999999 115.565 -24.039999999999992 Q113.75 -20.97999999999999 110.25 -20.97999999999999 H95.0 Q90.75 -20.97999999999999 87.69 -24.039999999999992 Q84.625 -27.10499999999999 84.625 -31.35499999999999 V-33.47999999999999 H78.875 V-21.72999999999999 Q81.25 -19.47999999999999 82.69 -16.539999999999992 Q84.125 -13.60499999999999 84.125 -10.22999999999999 Q84.125 -3.8549999999999898 79.625 0.6450000000000102 Q75.125 5.14500000000001 68.75 5.14500000000001 Q64.0 5.14500000000001 60.19 2.460000000000008 Q56.375 -0.22999999999998977 54.625 -4.72999999999999 H34.25 Q32.625 -0.22999999999998977 28.75 2.460000000000008 Q24.875 5.14500000000001 20.0 5.14500000000001 Z M20.0 -5.60499999999999 Q21.875 -5.60499999999999 23.25 -6.97999999999999 Q24.625 -8.35499999999999 24.625 -10.22999999999999 Q24.625 -12.22999999999999 23.25 -13.544999999999987 Q21.875 -14.85499999999999 20.0 -14.85499999999999 Q18.0 -14.85499999999999 16.69 -13.544999999999987 Q15.375 -12.22999999999999 15.375 -10.22999999999999 Q15.375 -8.35499999999999 16.75 -6.97999999999999 Q18.125 -5.60499999999999 20.0 -5.60499999999999 Z M68.75 -5.60499999999999 Q70.625 -5.60499999999999 72.0 -6.97999999999999 Q73.375 -8.35499999999999 73.375 -10.22999999999999 Q73.375 -12.22999999999999 72.0 -13.544999999999987 Q70.625 -14.85499999999999 68.75 -14.85499999999999 Q66.875 -14.85499999999999 65.5 -13.544999999999987 Q64.125 -12.22999999999999 64.125 -10.22999999999999 Q64.125 -8.35499999999999 65.5 -6.97999999999999 Q66.875 -5.60499999999999 68.75 -5.60499999999999 Z M39.125 -15.60499999999999 V-41.10499999999999 H16.875 Q16.25 -41.10499999999999 15.815 -40.66999999999999 Q15.375 -40.22999999999999 15.375 -39.60499999999999 V-24.22999999999999 Q16.375 -24.97999999999999 17.5 -25.294999999999987 Q18.625 -25.60499999999999 20.0 -25.60499999999999 Q24.75 -25.60499999999999 28.625 -22.85499999999999 Q32.5 -20.10499999999999 34.125 -15.60499999999999 H39.125 Z M49.875 -15.60499999999999 H54.5 Q55.875 -19.72999999999999 59.315 -22.35499999999999 Q62.75 -24.97999999999999 67.125 -25.47999999999999 Q67.375 -25.47999999999999 67.565 -25.47999999999999 Q67.75 -25.47999999999999 68.0 -25.47999999999999 V-33.47999999999999 H49.875 V-15.60499999999999 Z M102.75 -31.72999999999999  96.875 -42.72999999999999  95.75 -41.47999999999999 Q95.5 -41.35499999999999 95.375 -41.10499999999999 Q95.25 -40.85499999999999 95.25 -40.60499999999999 V-32.97999999999999 Q95.375 -32.47999999999999 95.69000000000001 -32.10499999999999 Q96.0 -31.72999999999999 96.5 -31.72999999999999 H102.75 Z M49.875 -44.22999999999999 H68.0 V-61.47999999999999 Q68.0 -63.35499999999999 66.69 -64.72999999999999 Q65.375 -66.10499999999999 63.375 -66.10499999999999 H49.875 V-44.22999999999999 Z"/></g><g id="Thin-M" transform="matrix(1 0 0 1 802.565 1126)"><path d="M21.25 3.7700000000000102 Q15.375 3.7700000000000102 11.19 -0.35499999999998977 Q7.0 -4.47999999999999 7.0 -10.35499999999999 V-39.72999999999999 Q7.0 -43.72999999999999 9.875 -46.60499999999999 Q12.75 -49.47999999999999 16.75 -49.47999999999999 H41.125 V-68.72999999999999 Q41.125 -71.10499999999999 42.809999999999995 -72.72999999999999 Q44.5 -74.35499999999999 46.875 -74.35499999999999 H63.125 Q69.0 -74.35499999999999 73.125 -70.22999999999999 Q77.25 -66.10499999999999 77.25 -60.22999999999999 V-42.47999999999999 H83.875 V-45.97999999999999 Q83.75 -47.72999999999999 84.44000000000001 -49.41999999999999 Q85.125 -51.10499999999999 86.5 -52.35499999999999 L89.5 -55.60499999999999 Q91.625 -57.72999999999999 94.5 -57.35499999999999 Q97.375 -56.97999999999999 98.75 -54.35499999999999 L112.0 -29.35499999999999 Q113.5 -26.60499999999999 111.815 -23.85499999999999 Q110.125 -21.10499999999999 106.875 -21.10499999999999 H93.0 Q89.25 -21.10499999999999 86.56 -23.72999999999999 Q83.875 -26.35499999999999 83.875 -30.22999999999999 V-34.22999999999999 H77.25 V-21.35499999999999 Q79.875 -19.35499999999999 81.375 -16.539999999999992 Q82.875 -13.72999999999999 82.875 -10.35499999999999 Q82.875 -4.47999999999999 78.75 -0.35499999999998977 Q74.625 3.7700000000000102 68.75 3.7700000000000102 Q64.125 3.7700000000000102 60.5 1.0850000000000222 Q56.875 -1.6049999999999898 55.625 -5.97999999999999 H34.5 Q33.375 -1.6049999999999898 29.689999999999998 1.0850000000000222 Q26.0 3.7700000000000102 21.25 3.7700000000000102 Z M21.25 -4.47999999999999 Q23.625 -4.47999999999999 25.310000000000002 -6.22999999999999 Q27.0 -7.97999999999999 27.0 -10.35499999999999 Q27.0 -12.72999999999999 25.25 -14.47999999999999 Q23.5 -16.22999999999999 21.125 -16.22999999999999 Q18.75 -16.22999999999999 17.0 -14.47999999999999 Q15.25 -12.72999999999999 15.25 -10.35499999999999 Q15.25 -7.97999999999999 17.064999999999998 -6.22999999999999 Q18.875 -4.47999999999999 21.25 -4.47999999999999 Z M68.75 -4.47999999999999 Q71.125 -4.47999999999999 72.875 -6.22999999999999 Q74.625 -7.97999999999999 74.625 -10.35499999999999 Q74.625 -12.72999999999999 72.875 -14.47999999999999 Q71.125 -16.22999999999999 68.75 -16.22999999999999 Q66.375 -16.22999999999999 64.625 -14.47999999999999 Q62.875 -12.72999999999999 62.875 -10.35499999999999 Q62.875 -7.97999999999999 64.625 -6.22999999999999 Q66.375 -4.47999999999999 68.75 -4.47999999999999 Z M41.125 -14.47999999999999 V-41.22999999999999 H18.375 Q17.0 -41.22999999999999 16.125 -40.35499999999999 Q15.25 -39.47999999999999 15.25 -38.10499999999999 V-22.10499999999999 Q16.375 -23.22999999999999 17.94 -23.85499999999999 Q19.5 -24.47999999999999 21.125 -24.47999999999999 Q25.875 -24.47999999999999 29.439999999999998 -21.669999999999987 Q33.0 -18.85499999999999 34.25 -14.47999999999999 H41.125 Z M49.375 -14.47999999999999 H55.5 Q56.5 -18.47999999999999 59.690000000000005 -21.169999999999987 Q62.875 -23.85499999999999 67.125 -24.35499999999999 Q67.625 -24.35499999999999 68.065 -24.289999999999992 Q68.5 -24.22999999999999 69.0 -24.10499999999999 V-34.22999999999999 H49.375 V-14.47999999999999 Z M102.75 -29.35499999999999  95.125 -43.60499999999999  92.75 -41.22999999999999 Q92.375 -40.85499999999999 92.19 -40.35499999999999 Q92.0 -39.85499999999999 92.0 -39.35499999999999 V-31.85499999999999 Q92.125 -30.72999999999999 92.75 -30.044999999999987 Q93.375 -29.35499999999999 94.5 -29.35499999999999 H102.75 Z M49.375 -42.47999999999999 H69.0 V-60.22999999999999 Q69.0 -62.60499999999999 67.25 -64.35499999999999 Q65.5 -66.10499999999999 63.125 -66.10499999999999 H49.375 V-42.47999999999999 Z"/></g><g id="Ultralight-M" transform="matrix(1 0 0 1 506.415 1126)"><path d="M22.0 3.0200000000000102 Q16.5 3.0200000000000102 12.5 -0.9200000000000017 Q8.5 -4.85499999999999 8.5 -10.35499999999999 V-38.85499999999999 Q8.5 -42.60499999999999 11.19 -45.29499999999999 Q13.875 -47.97999999999999 17.625 -47.97999999999999 H42.375 V-67.47999999999999 Q42.375 -69.72999999999999 43.935 -71.29499999999999 Q45.5 -72.85499999999999 47.75 -72.85499999999999 H62.875 Q68.375 -72.85499999999999 72.315 -68.91999999999999 Q76.25 -64.97999999999999 76.25 -59.47999999999999 L76.375 -41.47999999999999 H83.375 V-45.22999999999999 Q83.25 -46.85499999999999 83.875 -48.35499999999999 Q84.5 -49.85499999999999 85.75 -51.10499999999999 L88.375 -53.85499999999999 Q90.375 -55.85499999999999 93.125 -55.53999999999999 Q95.875 -55.22999999999999 97.125 -52.72999999999999 L109.75 -28.97999999999999 Q111.125 -26.35499999999999 109.565 -23.72999999999999 Q108.0 -21.10499999999999 104.875 -21.10499999999999 H91.75 Q88.375 -21.10499999999999 85.94 -23.544999999999987 Q83.5 -25.97999999999999 83.375 -29.47999999999999 V-34.72999999999999 H76.375 V-21.10499999999999 Q79.0 -19.22999999999999 80.565 -16.47999999999999 Q82.125 -13.72999999999999 82.125 -10.35499999999999 Q82.125 -4.85499999999999 78.19 -0.9200000000000017 Q74.25 3.0200000000000102 68.75 3.0200000000000102 Q64.25 3.0200000000000102 60.75 0.3299999999999983 Q57.25 -2.3549999999999898 56.25 -6.72999999999999 H34.625 Q33.75 -2.3549999999999898 30.185 0.3299999999999983 Q26.625 3.0200000000000102 22.0 3.0200000000000102 Z M22.0 -3.7299999999999898 Q24.625 -3.7299999999999898 26.560000000000002 -5.72999999999999 Q28.5 -7.72999999999999 28.5 -10.35499999999999 Q28.5 -12.97999999999999 26.5 -14.97999999999999 Q24.5 -16.97999999999999 21.875 -16.97999999999999 Q19.25 -16.97999999999999 17.25 -14.97999999999999 Q15.25 -12.97999999999999 15.25 -10.35499999999999 Q15.25 -7.72999999999999 17.315 -5.72999999999999 Q19.375 -3.7299999999999898 22.0 -3.7299999999999898 Z M68.75 -3.7299999999999898 Q71.375 -3.7299999999999898 73.375 -5.72999999999999 Q75.375 -7.72999999999999 75.375 -10.35499999999999 Q75.375 -12.97999999999999 73.375 -14.97999999999999 Q71.375 -16.97999999999999 68.75 -16.97999999999999 Q66.125 -16.97999999999999 64.125 -14.97999999999999 Q62.125 -12.97999999999999 62.125 -10.35499999999999 Q62.125 -7.72999999999999 64.125 -5.72999999999999 Q66.125 -3.7299999999999898 68.75 -3.7299999999999898 Z M42.375 -13.72999999999999 V-41.22999999999999 H19.25 Q17.5 -41.22999999999999 16.375 -40.10499999999999 Q15.25 -38.97999999999999 15.25 -37.22999999999999 V-20.72999999999999 Q16.5 -22.22999999999999 18.25 -22.97999999999999 Q20.0 -23.72999999999999 21.875 -23.72999999999999 Q26.5 -23.72999999999999 29.94 -20.919999999999987 Q33.375 -18.10499999999999 34.375 -13.72999999999999 H42.375 Z M49.125 -13.72999999999999 H56.125 Q56.875 -17.72999999999999 59.94 -20.419999999999987 Q63.0 -23.10499999999999 67.125 -23.60499999999999 Q67.75 -23.60499999999999 68.315 -23.544999999999987 Q68.875 -23.47999999999999 69.5 -23.35499999999999 V-34.72999999999999 H49.125 V-13.72999999999999 Z M102.75 -27.85499999999999  94.0 -44.10499999999999  91.0 -40.97999999999999 Q90.5 -40.47999999999999 90.25 -39.85499999999999 Q90.0 -39.22999999999999 90.0 -38.60499999999999 V-31.10499999999999 Q90.125 -29.72999999999999 91.0 -28.794999999999987 Q91.875 -27.85499999999999 93.25 -27.85499999999999 H102.75 Z M49.125 -41.47999999999999 H69.5 V-59.47999999999999 Q69.5 -62.10499999999999 67.5 -64.10499999999999 Q65.5 -66.10499999999999 62.875 -66.10499999999999 H49.125 V-41.47999999999999 Z"/></g><g id="Bold-S" transform="matrix(1 0 0 1 2294.23 696)"><path d="M14.202 -2.1914139999999946 Q8.2845 -2.1914139999999946 4.09491 -6.234249999999989 Q-0.099414 -10.277085999999983 -0.099414 -16.293999999999997 V-43.808007999999994 Q-0.099414 -47.75616399999999 2.6131680000000004 -50.468745999999996 Q5.32575 -53.18132799999999 9.269172 -53.18132799999999 H29.488086 V-61.06817199999999 Q29.488086 -63.733413999999996 31.36275 -65.556004 Q33.237414 -67.38332799999999 35.798508 -67.38332799999999 H49.905828 Q55.525085999999995 -67.38332799999999 59.468508 -63.435171999999994 Q63.416664000000004 -59.491749999999996 63.416664000000004 -53.77307799999999 L63.615492 -44.59858599999999 H68.349492 V-43.71332799999999 Q68.150664 -45.78208599999999 68.936508 -47.75616399999999 Q69.727086 -49.725508 71.109414 -51.306664 L72.685836 -53.96717199999999 Q74.854008 -56.532999999999994 78.25775399999999 -56.187417999999994 Q81.6615 -55.841835999999994 83.237922 -52.783671999999996 L95.962914 -30.297171999999996 Q97.53933599999999 -27.144327999999994 95.664672 -24.185577999999992 Q93.790008 -21.22682799999999 90.239508 -21.22682799999999 H77.718078 Q73.769922 -21.22682799999999 71.05734 -23.939409999999995 Q68.349492 -26.651991999999993 68.349492 -30.595413999999998 V-32.962413999999995 H63.615492 V-26.746671999999997 Q65.883078 -24.77732799999999 67.113918 -22.064745999999992 Q68.349492 -19.352163999999995 68.349492 -16.293999999999997 Q68.349492 -10.277085999999983 64.301922 -6.234249999999989 Q60.259085999999996 -2.1914139999999946 54.242172000000004 -2.1914139999999946 Q49.806414000000004 -2.1914139999999946 46.1565 -4.752508000000006 Q42.506586 -7.318335999999988 41.223672 -11.460585999999992 H27.2205 Q25.937586 -7.318335999999988 22.287672 -4.752508000000006 Q18.642492 -2.1914139999999946 14.202 -2.1914139999999946 Z M14.202 -13.037007999999986 Q15.484914 -13.037007999999986 16.370172 -13.974339999999998 Q17.260164 -14.911671999999996 17.260164 -16.293999999999997 Q17.260164 -17.676327999999998 16.370172 -18.613659999999996 Q15.484914 -19.550991999999994 14.003172000000001 -19.550991999999994 Q12.526164 -19.550991999999994 11.636172 -18.613659999999996 Q10.750914 -17.676327999999998 10.750914 -16.194585999999987 Q10.750914 -14.816991999999999 11.78766 -13.926999999999992 Q12.819672 -13.037007999999986 14.202 -13.037007999999986 Z M54.242172000000004 -13.037007999999986 Q55.723914 -13.037007999999986 56.609172 -13.974339999999998 Q57.499164 -14.911671999999996 57.499164 -16.293999999999997 Q57.499164 -17.676327999999998 56.609172 -18.613659999999996 Q55.723914 -19.550991999999994 54.242172000000004 -19.550991999999994 Q52.765164000000006 -19.550991999999994 51.875172 -18.613659999999996 Q50.989914000000006 -17.676327999999998 50.989914000000006 -16.194585999999987 Q50.989914000000006 -14.816991999999999 51.875172 -13.926999999999992 Q52.765164000000006 -13.037007999999986 54.242172000000004 -13.037007999999986 Z M29.488086 -23.295585999999993 V-41.54042199999999 H11.541492000000002 Q11.541492000000002 -41.54042199999999 11.541492000000002 -41.54042199999999 Q11.541492000000002 -41.54042199999999 11.541492000000002 -41.54042199999999 V-30.003664 Q12.033828 -30.10307799999999 12.772332 -30.249831999999998 Q13.510836000000001 -30.396585999999992 14.003172000000001 -30.396585999999992 Q17.851914 -30.396585999999992 21.104172000000002 -28.474581999999998 Q24.361164 -26.55257799999999 26.330508000000002 -23.295585999999993 H29.488086 Z M41.128992000000004 -23.295585999999993 H42.01425 Q43.7895 -25.861413999999996 46.20384 -27.684003999999995 Q48.622914 -29.511327999999992 51.780492 -30.202492 Q51.780492 -30.202492 51.780492 -30.202492 Q51.780492 -30.202492 51.780492 -30.202492 V-32.962413999999995 H41.128992000000004 V-23.295585999999993 Z M82.352664 -32.072421999999996  79.095672 -37.696414 Q79.095672 -37.696414 79.095672 -37.696414 Q79.095672 -37.696414 79.095672 -37.696414 V-32.072421999999996 Q79.095672 -32.072421999999996 79.095672 -32.072421999999996 Q79.095672 -32.072421999999996 79.095672 -32.072421999999996 H82.352664 Z M41.128992000000004 -44.59858599999999 H51.780492 V-53.77307799999999 Q51.780492 -54.65833599999999 51.283422 -55.20274599999999 Q50.79108599999999 -55.74242199999999 49.905828 -55.74242199999999 H41.128992000000004 V-44.59858599999999 Z"/></g><g id="Semibold-S" transform="matrix(1 0 0 1 1998.1 696)"><path d="M14.79375 -3.275499999999994 Q9.075078 -3.275499999999994 5.027508 -7.218921999999992 Q0.984672 -11.16707799999999 0.984672 -16.985163999999997 V-43.613913999999994 Q0.984672 -47.35850799999999 3.59784 -49.976409999999994 Q6.2110080000000005 -52.58957799999999 9.960336 -52.58957799999999 H30.079836 V-61.06817199999999 Q30.079836 -63.53458599999999 31.755672 -65.16308199999999 Q33.431508 -66.79157799999999 35.798508 -66.79157799999999 H50.398164 Q55.525085999999995 -66.79157799999999 59.12766 -63.189004 Q62.7255 -59.59116399999999 62.7255 -54.459508 L62.924327999999996 -44.106249999999996 H67.658328 V-44.59858599999999 Q67.4595 -46.274421999999994 68.09859 -48.002331999999996 Q68.742414 -49.725508 69.925914 -51.008421999999996 L71.899992 -54.066585999999994 Q73.86933599999999 -56.43358599999999 76.88015999999999 -56.187417999999994 Q79.88625 -55.94125 81.367992 -53.27600799999999 L95.07292199999999 -30.297171999999996 Q96.554664 -27.537249999999993 94.87882800000001 -24.77732799999999 Q93.202992 -22.012671999999995 90.04541400000001 -22.012671999999995 H76.53457800000001 Q72.884664 -22.012671999999995 70.271496 -24.62583999999999 Q67.658328 -27.23900799999999 67.658328 -30.98833599999999 V-33.35533599999999 H62.924327999999996 V-27.144327999999994 Q65.0925 -25.269664 66.32334 -22.604421999999992 Q67.558914 -19.943914 67.558914 -16.985163999999997 Q67.558914 -11.16707799999999 63.615492 -7.218921999999992 Q59.667336 -3.275499999999994 53.84925 -3.275499999999994 Q49.508172 -3.275499999999994 45.957672 -5.841328000000004 Q42.407172 -8.402421999999987 41.223672 -12.544671999999991 H27.613422 Q26.429922 -8.402421999999987 22.879422 -5.841328000000004 Q19.328922000000002 -3.275499999999994 14.79375 -3.275499999999994 Z M14.79375 -13.63349199999999 Q16.176078 -13.63349199999999 17.113410000000002 -14.566089999999988 Q18.046008 -15.503422 18.046008 -16.885749999999987 Q18.046008 -18.367492 17.113410000000002 -19.30008999999999 Q16.176078 -20.237421999999995 14.694336 -20.237421999999995 Q13.217327999999998 -20.237421999999995 12.279995999999999 -19.30008999999999 Q11.342664 -18.367492 11.342664 -16.885749999999987 Q11.342664 -15.503422 12.42675 -14.566089999999988 Q13.510836000000001 -13.63349199999999 14.79375 -13.63349199999999 Z M53.948664 -13.63349199999999 Q55.330992 -13.63349199999999 56.26359 -14.566089999999988 Q57.200922 -15.503422 57.200922 -16.885749999999987 Q57.200922 -18.367492 56.26359 -19.30008999999999 Q55.330992 -20.237421999999995 53.84925 -20.237421999999995 Q52.466922000000004 -20.237421999999995 51.52959 -19.30008999999999 Q50.596992 -18.367492 50.596992 -16.885749999999987 Q50.596992 -15.503422 51.52959 -14.566089999999988 Q52.466922000000004 -13.63349199999999 53.948664 -13.63349199999999 Z M30.079836 -23.494414 V-41.838663999999994 H11.835 Q11.835 -41.838663999999994 11.835 -41.838663999999994 Q11.835 -41.838663999999994 11.835 -41.838663999999994 V-30.10307799999999 Q12.42675 -30.297171999999996 13.217327999999998 -30.448659999999997 Q14.003172000000001 -30.595413999999998 14.694336 -30.595413999999998 Q18.543077999999998 -30.595413999999998 21.695922 -28.673409999999997 Q24.8535 -26.746671999999997 26.728164 -23.494414 H30.079836 Z M40.83075 -23.494414 H41.914835999999994 Q43.590672 -26.154921999999992 46.1565 -28.029585999999988 Q48.722328 -29.90424999999999 51.974585999999995 -30.495999999999995 Q51.974585999999995 -30.495999999999995 51.974585999999995 -30.495999999999995 Q51.974585999999995 -30.495999999999995 51.974585999999995 -30.495999999999995 V-33.35533599999999 H40.83075 V-23.494414 Z M81.86032800000001 -32.370664  77.81749199999999 -38.38757799999999 Q77.81749199999999 -38.38757799999999 77.81749199999999 -38.38757799999999 Q77.81749199999999 -38.38757799999999 77.81749199999999 -38.38757799999999 V-32.370664 Q77.81749199999999 -32.370664 77.81749199999999 -32.370664 Q77.81749199999999 -32.370664 77.81749199999999 -32.370664 H81.86032800000001 Z M40.83075 -44.106249999999996 H51.974585999999995 V-54.459508 Q51.974585999999995 -55.15067199999999 51.52959 -55.59566799999999 Q51.089328 -56.04066399999999 50.398164 -56.04066399999999 H40.83075 V-44.106249999999996 Z"/></g><g id="Medium-S" transform="matrix(1 0 0 1 1701.85 696)"><path d="M15.286086000000001 -4.0660780000000045 Q9.761508 -4.0660780000000045 5.818086 -7.962159999999997 Q1.874664 -11.85350799999999 1.874664 -17.378085999999996 V-43.51449999999999 Q1.874664 -47.06499999999999 4.388418000000001 -49.57875399999999 Q6.902172 -52.092507999999995 10.452672000000002 -52.092507999999995 H30.572172000000002 V-61.16758599999999 Q30.572172000000002 -63.34049199999999 32.101254 -64.8175 Q33.630336 -66.294508 35.703828 -66.294508 H50.79108599999999 Q55.525085999999995 -66.294508 58.881492 -62.99490999999999 Q62.233164 -59.69057799999999 62.233164 -54.857164 L62.332578 -43.808007999999994 H67.06657799999999 V-45.190335999999995 Q66.967164 -46.67207799999999 67.50684 -48.201159999999994 Q68.05125 -49.725508 69.035922 -50.81432799999999 L71.303508 -54.166 Q73.083492 -56.334171999999995 75.79134 -56.187417999999994 Q78.50392199999999 -56.04066399999999 79.985664 -53.57424999999999 L94.38649199999999 -30.396585999999992 Q95.8635 -27.835491999999995 94.334418 -25.217589999999994 Q92.805336 -22.604421999999992 89.846586 -22.604421999999992 H75.64458599999999 Q72.09408599999999 -22.604421999999992 69.580332 -25.170249999999996 Q67.06657799999999 -27.736077999999992 67.06657799999999 -31.28657799999999 V-33.653577999999996 H62.332578 V-27.537249999999993 Q64.50075 -25.563171999999994 65.73159 -23.00207799999999 Q66.967164 -20.436249999999994 66.967164 -17.378085999999996 Q66.967164 -11.85350799999999 63.118422 -7.962159999999997 Q59.274414 -4.0660780000000045 53.650422 -4.0660780000000045 Q49.314078 -4.0660780000000045 45.810918 -6.679245999999992 Q42.312492000000006 -9.292413999999994 41.128992000000004 -13.434663999999998 H27.911664 Q26.827578 -9.292413999999994 23.324417999999998 -6.679245999999992 Q19.825992 -4.0660780000000045 15.286086000000001 -4.0660780000000045 Z M15.286086000000001 -14.026414000000003 Q16.668414 -14.026414000000003 17.653086000000002 -15.011085999999992 Q18.642492 -16.000491999999994 18.642492 -17.378085999999996 Q18.642492 -18.859827999999993 17.653086000000002 -19.844499999999996 Q16.668414 -20.829171999999993 15.186672000000002 -20.829171999999993 Q13.709664 -20.829171999999993 12.772332 -19.844499999999996 Q11.835 -18.859827999999993 11.835 -17.378085999999996 Q11.835 -16.000491999999994 12.871746 -15.011085999999992 Q13.908492 -14.026414000000003 15.286086000000001 -14.026414000000003 Z M53.650422 -14.026414000000003 Q55.132164 -14.026414000000003 56.069495999999994 -15.011085999999992 Q57.006828 -16.000491999999994 57.006828 -17.378085999999996 Q57.006828 -18.859827999999993 56.069495999999994 -19.844499999999996 Q55.132164 -20.829171999999993 53.650422 -20.829171999999993 Q52.173414 -20.829171999999993 51.184008 -19.844499999999996 Q50.199335999999995 -18.859827999999993 50.199335999999995 -17.378085999999996 Q50.199335999999995 -16.000491999999994 51.184008 -15.011085999999992 Q52.173414 -14.026414000000003 53.650422 -14.026414000000003 Z M30.572172000000002 -23.68850799999999 V-42.03749199999999 H12.033828 Q12.033828 -42.03749199999999 12.033828 -42.03749199999999 Q12.033828 -42.03749199999999 12.033828 -42.03749199999999 V-30.202492 Q12.724992 -30.495999999999995 13.56291 -30.642753999999996 Q14.400827999999999 -30.78950799999999 15.186672000000002 -30.78950799999999 Q18.936 -30.78950799999999 22.041504 -28.820164 Q25.147008 -26.846085999999993 27.021672000000002 -23.68850799999999 H30.572172000000002 Z M40.631922 -23.68850799999999 H41.815422 Q43.495992 -26.453163999999994 46.1565 -28.32782799999999 Q48.817007999999994 -30.202492 52.074 -30.694827999999994 Q52.074 -30.694827999999994 52.074 -30.694827999999994 Q52.074 -30.694827999999994 52.074 -30.694827999999994 V-33.653577999999996 H40.631922 V-23.68850799999999 Z M81.462672 -32.569492  76.9275 -38.780499999999996 Q76.9275 -38.780499999999996 76.9275 -38.780499999999996 Q76.9275 -38.780499999999996 76.9275 -38.780499999999996 V-32.569492 Q76.9275 -32.569492 76.9275 -32.569492 Q76.9275 -32.569492 76.9275 -32.569492 H81.462672 Z M40.631922 -43.808007999999994 H52.074 V-54.857164 Q52.074 -55.44891399999999 51.728418 -55.841835999999994 Q51.382836 -56.23949199999999 50.79108599999999 -56.23949199999999 H40.631922 V-43.808007999999994 Z"/></g><g id="Regular-S" transform="matrix(1 0 0 1 1405.73 696)"><path d="M15.679008 -4.657827999999995 Q10.258578 -4.657827999999995 6.362496 -8.501835999999983 Q2.466414 -12.350577999999999 2.466414 -17.771007999999995 V-43.41508599999999 Q2.466414 -46.86617199999999 4.932828 -49.33258599999999 Q7.394508 -51.79899999999999 10.850328 -51.79899999999999 H30.870414 V-61.16758599999999 Q30.870414 -63.14166399999999 32.300082 -64.571332 Q33.72975 -66.00099999999999 35.703828 -66.00099999999999 H51.089328 Q55.525085999999995 -66.00099999999999 58.682664 -62.84342199999999 Q61.835508 -59.69057799999999 61.835508 -55.250085999999996 L61.934922 -43.51449999999999 H66.668922 V-45.682672 Q66.569508 -46.965585999999995 67.014504 -48.29583999999999 Q67.4595 -49.630827999999994 68.349492 -50.71491399999999 L70.910586 -54.26541399999999 Q72.487008 -56.23949199999999 75.005496 -56.14007799999999 Q77.51925 -56.04066399999999 78.901578 -53.872491999999994 L93.889422 -30.396585999999992 Q95.27175 -28.029585999999988 93.889422 -25.563171999999994 Q92.51182800000001 -23.101491999999993 89.74717199999999 -23.101491999999993 H75.052836 Q71.60175 -23.101491999999993 69.135336 -25.563171999999994 Q66.668922 -28.029585999999988 66.668922 -31.48067199999999 V-33.847671999999996 H61.934922 V-27.736077999999992 Q64.107828 -25.861413999999996 65.338668 -23.295585999999993 Q66.569508 -20.734491999999996 66.569508 -17.771007999999995 Q66.569508 -12.350577999999999 62.7255 -8.501835999999983 Q58.881492 -4.657827999999995 53.456328 -4.657827999999995 Q49.11525 -4.657827999999995 45.66416400000001 -7.270995999999997 Q42.213077999999996 -9.884163999999998 41.128992000000004 -14.026414000000003 H28.110491999999997 Q27.121086000000002 -9.884163999999998 23.62266 -7.270995999999997 Q20.1195 -4.657827999999995 15.679008 -4.657827999999995 Z M15.679008 -14.319921999999991 Q17.061336 -14.319921999999991 18.046008 -15.309327999999994 Q19.035414 -16.293999999999997 19.035414 -17.771007999999995 Q19.035414 -19.252749999999992 18.046008 -20.237421999999995 Q17.061336 -21.22682799999999 15.584328 -21.22682799999999 Q14.102586 -21.22682799999999 13.117913999999999 -20.237421999999995 Q12.128507999999998 -19.252749999999992 12.128507999999998 -17.771007999999995 Q12.128507999999998 -16.293999999999997 13.217327999999998 -15.309327999999994 Q14.301414 -14.319921999999991 15.679008 -14.319921999999991 Z M53.456328 -14.319921999999991 Q54.933336 -14.319921999999991 55.918008 -15.309327999999994 Q56.907414 -16.293999999999997 56.907414 -17.771007999999995 Q56.907414 -19.252749999999992 55.918008 -20.237421999999995 Q54.933336 -21.22682799999999 53.456328 -21.22682799999999 Q51.974585999999995 -21.22682799999999 50.989914000000006 -20.237421999999995 Q50.000507999999996 -19.252749999999992 50.000507999999996 -17.771007999999995 Q50.000507999999996 -16.293999999999997 50.989914000000006 -15.309327999999994 Q51.974585999999995 -14.319921999999991 53.456328 -14.319921999999991 Z M30.870414 -23.787921999999995 V-42.132172 H12.128507999999998 Q12.128507999999998 -42.132172 12.128507999999998 -42.132172 Q12.128507999999998 -42.132172 12.128507999999998 -42.132172 V-30.297171999999996 Q12.919086 -30.595413999999998 13.856418 -30.742167999999992 Q14.79375 -30.888921999999994 15.584328 -30.888921999999994 Q19.328922000000002 -30.888921999999994 22.387086 -28.919577999999994 Q25.44525 -26.945499999999996 27.2205 -23.787921999999995 H30.870414 Z M40.532508 -23.787921999999995 H41.815422 Q43.396578 -26.651991999999993 46.10916 -28.521921999999996 Q48.817007999999994 -30.396585999999992 52.173414 -30.78950799999999 Q52.173414 -30.78950799999999 52.173414 -30.78950799999999 Q52.173414 -30.78950799999999 52.173414 -30.78950799999999 V-33.847671999999996 H40.532508 V-23.787921999999995 Z M81.16916400000001 -32.76358599999999  76.236336 -39.173421999999995 Q76.236336 -39.173421999999995 76.236336 -39.173421999999995 Q76.236336 -39.173421999999995 76.236336 -39.173421999999995 V-32.76358599999999 Q76.236336 -32.76358599999999 76.236336 -32.76358599999999 Q76.236336 -32.76358599999999 76.236336 -32.76358599999999 H81.16916400000001 Z M40.532508 -43.51449999999999 H52.173414 V-55.250085999999996 Q52.173414 -55.74242199999999 51.875172 -56.04066399999999 Q51.581664 -56.334171999999995 51.089328 -56.334171999999995 H40.532508 V-43.51449999999999 Z"/></g><g id="Light-S" transform="matrix(1 0 0 1 1109.75 696)"><path d="M16.668414 -5.642499999999998 Q11.636172 -5.642499999999998 8.038332 -9.192999999999998 Q4.440492 -12.743499999999997 4.440492 -17.771007999999995 V-42.23158599999999 Q4.440492 -45.389163999999994 6.656003999999999 -47.60941 Q8.87625 -49.824921999999994 12.033828 -49.824921999999994 H32.446836 V-59.59116399999999 Q32.446836 -61.46582799999999 33.77709 -62.744007999999994 Q35.112078 -64.026922 36.887328 -64.026922 H50.79108599999999 Q54.833922 -64.026922 57.697992 -61.16758599999999 Q60.557328 -58.308249999999994 60.557328 -54.26541399999999 L60.751422 -42.23158599999999 H66.077172 V-44.69799999999999 Q65.883078 -45.78208599999999 66.276 -46.965585999999995 Q66.668922 -48.149086 67.4595 -49.03907799999999 L69.334164 -51.99782799999999 Q70.811172 -53.872491999999994 73.178172 -53.82041799999999 Q75.545172 -53.77307799999999 76.72867199999999 -51.699586 L90.93067199999999 -29.90424999999999 Q92.21358599999999 -27.736077999999992 90.93067199999999 -25.416417999999993 Q89.652492 -23.101491999999993 87.086664 -23.101491999999993 H73.476414 Q70.41825 -23.101491999999993 68.250078 -25.269664 Q66.077172 -27.43783599999999 66.077172 -30.495999999999995 V-34.53883599999999 H60.751422 V-27.43783599999999 Q62.924327999999996 -25.66258599999999 64.254582 -23.196171999999997 Q65.584836 -20.734491999999996 65.584836 -17.771007999999995 Q65.584836 -12.743499999999997 62.034335999999996 -9.192999999999998 Q58.483836 -5.642499999999998 53.456328 -5.642499999999998 Q49.214664000000006 -5.642499999999998 45.957672 -8.255667999999986 Q42.705414000000005 -10.868835999999988 41.914835999999994 -15.011085999999992 H28.304586 Q27.613422 -10.868835999999988 24.309089999999998 -8.255667999999986 Q21.009491999999998 -5.642499999999998 16.668414 -5.642499999999998 Z M16.668414 -13.335249999999988 Q18.443664 -13.335249999999988 19.726578 -14.665503999999999 Q21.009491999999998 -16.000491999999994 21.009491999999998 -17.771007999999995 Q21.009491999999998 -19.645671999999998 19.674504 -20.92858599999999 Q18.34425 -22.211499999999994 16.569 -22.211499999999994 Q14.694336 -22.211499999999994 13.411422 -20.92858599999999 Q12.128507999999998 -19.645671999999998 12.128507999999998 -17.771007999999995 Q12.128507999999998 -16.000491999999994 13.510836000000001 -14.665503999999999 Q14.893163999999999 -13.335249999999988 16.668414 -13.335249999999988 Z M53.456328 -13.335249999999988 Q55.330992 -13.335249999999988 56.609172 -14.665503999999999 Q57.892086 -16.000491999999994 57.892086 -17.771007999999995 Q57.892086 -19.645671999999998 56.609172 -20.92858599999999 Q55.330992 -22.211499999999994 53.456328 -22.211499999999994 Q51.581664 -22.211499999999994 50.29875 -20.92858599999999 Q49.01583599999999 -19.645671999999998 49.01583599999999 -17.771007999999995 Q49.01583599999999 -16.000491999999994 50.29875 -14.665503999999999 Q51.581664 -13.335249999999988 53.456328 -13.335249999999988 Z M32.446836 -22.80324999999999 V-42.132172 H13.312007999999999 Q12.819672 -42.132172 12.474089999999999 -41.78658999999999 Q12.128507999999998 -41.44100799999999 12.128507999999998 -40.948671999999995 V-28.521921999999996 Q13.0185 -29.21308599999999 14.202 -29.55866799999999 Q15.3855 -29.90424999999999 16.569 -29.90424999999999 Q20.1195 -29.90424999999999 23.030910000000002 -27.930171999999992 Q25.937586 -25.960827999999992 27.419328 -22.80324999999999 H32.446836 Z M40.139585999999994 -22.80324999999999 H42.606 Q43.88891400000001 -25.66258599999999 46.402668 -27.537249999999993 Q48.916422 -29.411913999999996 52.173414 -29.804835999999987 Q52.367507999999994 -29.804835999999987 52.518995999999994 -29.804835999999987 Q52.66575 -29.804835999999987 52.864578 -29.804835999999987 V-34.53883599999999 H40.139585999999994 V-22.80324999999999 Z M81.16916400000001 -30.78950799999999  74.854008 -39.86458599999999  73.96875 -38.879914 Q73.769922 -38.780499999999996 73.670508 -38.581672 Q73.575828 -38.38757799999999 73.575828 -38.18874999999999 V-31.778914 Q73.670508 -31.385991999999995 73.92141 -31.087749999999993 Q74.167578 -30.78950799999999 74.5605 -30.78950799999999 H81.16916400000001 Z M40.139585999999994 -42.23158599999999 H52.864578 V-54.26541399999999 Q52.864578 -55.15067199999999 52.272828 -55.74242199999999 Q51.681078 -56.334171999999995 50.79108599999999 -56.334171999999995 H40.139585999999994 V-42.23158599999999 Z"/></g><g id="Thin-S" transform="matrix(1 0 0 1 814.015 696)"><path d="M17.653086000000002 -6.726585999999983 Q13.0185 -6.726585999999983 9.666827999999999 -9.983577999999994 Q6.310422 -13.235835999999992 6.310422 -17.87042199999999 V-41.04808599999999 Q6.310422 -43.907422 8.33184 -45.928839999999994 Q10.357992000000001 -47.95499199999999 13.217327999999998 -47.95499199999999 H34.027992 V-58.010008 Q34.027992 -59.69057799999999 35.211492 -60.874078 Q36.394992 -62.05757799999999 38.165507999999996 -62.05757799999999 H50.596992 Q54.242172000000004 -62.05757799999999 56.808 -59.491749999999996 Q59.373827999999996 -56.92592199999999 59.373827999999996 -53.27600799999999 L59.468508 -40.853992 H65.485422 V-43.71332799999999 Q65.291328 -44.59858599999999 65.584836 -45.583257999999994 Q65.883078 -46.572663999999996 66.569508 -47.35850799999999 L67.753008 -49.725508 Q69.135336 -51.50549199999999 71.303508 -51.45341799999999 Q73.476414 -51.406077999999994 74.659914 -49.53141399999999 L87.97192199999999 -29.312499999999993 Q89.15542199999999 -27.338421999999994 87.97192199999999 -25.269664 Q86.788422 -23.196171999999997 84.42142199999999 -23.196171999999997 H71.899992 Q69.23475 -23.196171999999997 67.360086 -25.023495999999987 Q65.485422 -26.846085999999993 65.485422 -29.60600799999999 V-35.13058599999999 H59.468508 V-27.144327999999994 Q61.835508 -25.563171999999994 63.217836 -23.196171999999997 Q64.600164 -20.829171999999993 64.600164 -17.87042199999999 Q64.600164 -13.235835999999992 61.343172 -9.983577999999994 Q58.090914000000005 -6.726585999999983 53.456328 -6.726585999999983 Q49.314078 -6.726585999999983 46.20384 -9.339754 Q43.098335999999996 -11.952922000000001 42.705414000000005 -16.000491999999994 H28.503414 Q28.205172 -11.952922000000001 25.052328 -9.339754 Q21.89475 -6.726585999999983 17.653086000000002 -6.726585999999983 Z M17.653086000000002 -12.449991999999995 Q19.825992 -12.449991999999995 21.35034 -14.026414000000003 Q22.879422 -15.602835999999996 22.879422 -17.87042199999999 Q22.879422 -20.043327999999995 21.303 -21.667089999999995 Q19.726578 -23.295585999999993 17.458992000000002 -23.295585999999993 Q15.286086000000001 -23.295585999999993 13.657589999999999 -21.667089999999995 Q12.033828 -20.043327999999995 12.033828 -17.87042199999999 Q12.033828 -15.602835999999996 13.757004 -14.026414000000003 Q15.484914 -12.449991999999995 17.653086000000002 -12.449991999999995 Z M53.456328 -12.449991999999995 Q55.723914 -12.449991999999995 57.300335999999994 -14.026414000000003 Q58.881492 -15.602835999999996 58.881492 -17.87042199999999 Q58.881492 -20.043327999999995 57.300335999999994 -21.667089999999995 Q55.723914 -23.295585999999993 53.456328 -23.295585999999993 Q51.184008 -23.295585999999993 49.607586 -21.667089999999995 Q48.031164000000004 -20.043327999999995 48.031164000000004 -17.87042199999999 Q48.031164000000004 -15.602835999999996 49.607586 -14.026414000000003 Q51.184008 -12.449991999999995 53.456328 -12.449991999999995 Z M34.027992 -21.917991999999998 V-42.23158599999999 H14.495508 Q13.411422 -42.23158599999999 12.724992 -41.54042199999999 Q12.033828 -40.853992 12.033828 -39.76517199999999 V-26.846085999999993 Q13.0185 -27.835491999999995 14.547582 -28.422507999999993 Q16.076664 -29.018991999999997 17.458992000000002 -29.018991999999997 Q21.009491999999998 -29.018991999999997 23.67 -26.992839999999994 Q26.330508000000002 -24.971421999999997 27.514008 -21.917991999999998 H34.027992 Z M39.746664 -21.917991999999998 H43.396578 Q44.38125 -24.677913999999994 46.74825 -26.599917999999988 Q49.11525 -28.521921999999996 52.173414 -28.919577999999994 Q52.56633599999999 -28.919577999999994 52.911918 -28.867503999999997 Q53.2575 -28.820164 53.650422 -28.720749999999995 V-35.13058599999999 H39.746664 V-21.917991999999998 Z M81.16916400000001 -28.919577999999994  73.476414 -40.555749999999996  71.60175 -38.681085999999986 Q71.303508 -38.38757799999999 71.156754 -37.98992199999999 Q71.01 -37.596999999999994 71.01 -37.204077999999996 V-30.888921999999994 Q71.109414 -30.003664 71.60175 -29.459253999999994 Q72.09408599999999 -28.919577999999994 72.984078 -28.919577999999994 H81.16916400000001 Z M39.746664 -40.853992 H53.650422 V-53.27600799999999 Q53.650422 -54.459508 52.71309 -55.39684 Q51.780492 -56.334171999999995 50.596992 -56.334171999999995 H39.746664 V-40.853992 Z"/></g><g id="Ultralight-S" transform="matrix(1 0 0 1 517.792 696)"><path d="M18.244836 -7.318335999999988 Q13.908492 -7.318335999999988 10.698839999999999 -10.423839999999998 Q7.4939219999999995 -13.534077999999994 7.4939219999999995 -17.87042199999999 V-40.356922 Q7.4939219999999995 -43.022164 9.368586 -44.89682799999999 Q11.24325 -46.771491999999995 13.908492 -46.771491999999995 H35.012664 V-57.025335999999996 Q35.012664 -58.60649199999999 36.14409 -59.73791799999999 Q37.28025 -60.874078 38.856672 -60.874078 H50.398164 Q53.749835999999995 -60.874078 56.168910000000004 -58.45500399999999 Q58.58325 -56.04066399999999 58.58325 -52.68899199999999 L58.782078 -40.063413999999995 H65.0925 V-43.12157799999999 Q64.893672 -43.907422 65.13983999999999 -44.74533999999999 Q65.386008 -45.58799199999999 65.98249200000001 -46.373836 L66.86775 -48.347913999999996 Q68.150664 -50.02374999999999 70.219422 -50.02374999999999 Q72.29291400000001 -50.02374999999999 73.377 -48.24849999999999 L86.19667199999999 -29.018991999999997 Q87.28549199999999 -27.144327999999994 86.149332 -25.170249999999996 Q85.013172 -23.196171999999997 82.845 -23.196171999999997 H70.910586 Q68.54358599999999 -23.196171999999997 66.86775 -24.872007999999994 Q65.191914 -26.55257799999999 65.0925 -29.018991999999997 V-35.52350799999999 H58.782078 V-26.945499999999996 Q61.149077999999996 -25.468491999999998 62.578745999999995 -23.148832 Q64.008414 -20.829171999999993 64.008414 -17.87042199999999 Q64.008414 -13.534077999999994 60.90291 -10.423839999999998 Q57.792672 -7.318335999999988 53.456328 -7.318335999999988 Q49.413492000000005 -7.318335999999988 46.402668 -9.93150399999999 Q43.396578 -12.544671999999991 43.19775 -16.587507999999985 H28.602828 Q28.503414 -12.544671999999991 25.44525 -9.93150399999999 Q22.387086 -7.318335999999988 18.244836 -7.318335999999988 Z M18.244836 -11.85350799999999 Q20.611836 -11.85350799999999 22.339746 -13.63349199999999 Q24.062922 -15.40400799999999 24.062922 -17.87042199999999 Q24.062922 -20.33683599999999 22.287672 -22.11208599999999 Q20.512422 -23.88733599999999 18.046008 -23.88733599999999 Q15.584328 -23.88733599999999 13.809078 -22.11208599999999 Q12.033828 -20.33683599999999 12.033828 -17.87042199999999 Q12.033828 -15.40400799999999 13.955832 -13.63349199999999 Q15.877836 -11.85350799999999 18.244836 -11.85350799999999 Z M53.456328 -11.85350799999999 Q55.918008 -11.85350799999999 57.697992 -13.63349199999999 Q59.468508 -15.40400799999999 59.468508 -17.87042199999999 Q59.468508 -20.33683599999999 57.697992 -22.11208599999999 Q55.918008 -23.88733599999999 53.456328 -23.88733599999999 Q50.989914000000006 -23.88733599999999 49.214664000000006 -22.11208599999999 Q47.439414000000006 -20.33683599999999 47.439414000000006 -17.87042199999999 Q47.439414000000006 -15.40400799999999 49.214664000000006 -13.63349199999999 Q50.989914000000006 -11.85350799999999 53.456328 -11.85350799999999 Z M35.012664 -21.321507999999987 V-42.23158599999999 H15.186672000000002 Q13.809078 -42.23158599999999 12.919086 -41.34632799999999 Q12.033828 -40.456335999999986 12.033828 -39.07400799999999 V-25.761999999999993 Q13.117913999999999 -27.044914 14.79375 -27.736077999999992 Q16.469586 -28.422507999999993 18.046008 -28.422507999999993 Q21.501828 -28.422507999999993 24.062922 -26.40108999999999 Q26.62875 -24.379671999999992 27.613422 -21.321507999999987 H35.012664 Z M39.547836 -21.321507999999987 H43.88891400000001 Q44.679492 -24.086163999999997 46.895004 -26.00816799999999 Q49.11525 -27.930171999999992 52.173414 -28.32782799999999 Q52.66575 -28.32782799999999 53.110746 -28.275754 Q53.551007999999996 -28.228413999999994 54.048078 -28.12899999999999 V-35.52350799999999 H39.547836 V-21.321507999999987 Z M81.16916400000001 -27.736077999999992  72.586422 -40.948671999999995  70.219422 -38.486991999999994 Q69.8265 -38.08933599999999 69.627672 -37.596999999999994 Q69.433578 -37.104664 69.433578 -36.61232799999999 V-30.297171999999996 Q69.53299200000001 -29.21308599999999 70.219422 -28.474581999999998 Q70.910586 -27.736077999999992 71.994672 -27.736077999999992 H81.16916400000001 Z M39.547836 -40.063413999999995 H54.048078 V-52.68899199999999 Q54.048078 -54.166 52.963992000000005 -55.250085999999996 Q51.875172 -56.334171999999995 50.398164 -56.334171999999995 H39.547836 V-40.063413999999995 Z"/></g></g></svg>