<svg xmlns="http://www.w3.org/2000/svg" version="1.1" width="3300" height="2000"><g id="Notes"><style>
    text {
      font-family: monospace;
      text-anchor: middle;
    }
    text.emphasis {
      font-weight:bold;
    }
    text.lanchor {
      text-anchor: start;
    }
  </style><rect height="2200" id="artboard" fill="white" width="3300" x="0" y="0"/><line id="" style="fill:none;stroke:black;stroke-width:0.5;" x1="263" x2="3036" y1="292" y2="292"/><text class="lanchor emphasis" transform="matrix(1 0 0 1 263 322)">Weight/Scale Variations</text><text transform="matrix(1 0 0 1 559.711 322)">Ultralight</text><text transform="matrix(1 0 0 1 856.422 322)">Thin</text><text transform="matrix(1 0 0 1 1153.13 322)">Light</text><text transform="matrix(1 0 0 1 1449.84 322)">Regular</text><text transform="matrix(1 0 0 1 1746.56 322)">Medium</text><text transform="matrix(1 0 0 1 2043.27 322)">Semibold</text><text transform="matrix(1 0 0 1 2339.98 322)">Bold</text><text transform="matrix(1 0 0 1 2636.69 322)">Heavy</text><text transform="matrix(1 0 0 1 2933.4 322)">Black</text><text id="template-version" style="text-anchor: end;" transform="matrix(1 0 0 1 3036 1933)">Template v.1.0</text><text class="lanchor" transform="matrix(1 0 0 1 263 726)">Small</text><text class="lanchor" transform="matrix(1 0 0 1 263 1156)">Medium</text><text class="lanchor" transform="matrix(1 0 0 1 263 1586)">Large</text></g><g id="Guides"><g id="H-reference" style="fill:#27AAE1;stroke:none;" transform="matrix(1 0 0 1 339 696)"><path d="M 54.9316 0 L 57.666 0 L 30.5664 -70.459 L 28.0762 -70.459 L 0.976562 0 L 3.66211 0 L 12.9395 -24.4629 L 45.7031 -24.4629 Z M 29.1992 -67.0898 L 29.4434 -67.0898 L 44.8242 -26.709 L 13.8184 -26.709 Z"/></g><line id="Baseline-S" style="fill:none;stroke:#27AAE1;opacity:1;stroke-width:0.577;" x1="263" x2="3036" y1="696" y2="696"/><line id="Capline-S" style="fill:none;stroke:#27AAE1;opacity:1;stroke-width:0.577;" x1="263" x2="3036" y1="625.541" y2="625.541"/><g id="H-reference" style="fill:#27AAE1;stroke:none;" transform="matrix(1 0 0 1 339 1126)"><path d="M 54.9316 0 L 57.666 0 L 30.5664 -70.459 L 28.0762 -70.459 L 0.976562 0 L 3.66211 0 L 12.9395 -24.4629 L 45.7031 -24.4629 Z M 29.1992 -67.0898 L 29.4434 -67.0898 L 44.8242 -26.709 L 13.8184 -26.709 Z"/></g><line id="Baseline-M" style="fill:none;stroke:#27AAE1;opacity:1;stroke-width:0.577;" x1="263" x2="3036" y1="1126" y2="1126"/><line id="Capline-M" style="fill:none;stroke:#27AAE1;opacity:1;stroke-width:0.577;" x1="263" x2="3036" y1="1055.54" y2="1055.54"/><g id="H-reference" style="fill:#27AAE1;stroke:none;" transform="matrix(1 0 0 1 339 1556)"><path d="M 54.9316 0 L 57.666 0 L 30.5664 -70.459 L 28.0762 -70.459 L 0.976562 0 L 3.66211 0 L 12.9395 -24.4629 L 45.7031 -24.4629 Z M 29.1992 -67.0898 L 29.4434 -67.0898 L 44.8242 -26.709 L 13.8184 -26.709 Z"/></g><line id="Baseline-L" style="fill:none;stroke:#27AAE1;opacity:1;stroke-width:0.577;" x1="263" x2="3036" y1="1556" y2="1556"/><line id="Capline-L" style="fill:none;stroke:#27AAE1;opacity:1;stroke-width:0.577;" x1="263" x2="3036" y1="1485.54" y2="1485.54"/><rect height="119.336" id="left-margin" style="fill:darkred;stroke:none;opacity:0.4;" width="12.4512" x="1394.06" y="1030.79"/><rect height="119.336" id="right-margin" style="fill:darkgreen;stroke:none;opacity:0.4;" width="12.4512" x="1502.5112" y="1030.79"/><rect x="1406.5112" y="1045" width="96" height="96" fill="none" stroke="blue" stroke-dasharray="5"/><rect x="1394.06" y="1030.79" width="120.9024" height="119.336" fill="none" stroke="blue"/></g><g id="Symbols"><g id="Bold-L" transform="matrix(1 0 0 1 2266 1556)"><path d="M77.4 35.881250000000016  58.533750000000005 7.0175000000000125 H24.1875 Q18.25753125 7.0175000000000125 13.88556 2.645528750000018 Q9.51375 -1.7262812499999924 9.51375 -7.656249999999986 V-88.4425 Q9.51375 -94.27781499999998 13.88556 -98.7776575 Q18.25753125 -103.27749999999997 24.1875 -103.27749999999997 H130.6125 Q136.60906500000002 -103.27749999999997 141.02828250000002 -98.7776575 Q145.4475 -94.27781499999998 145.4475 -88.4425 V-7.656249999999986 Q145.4475 -1.7262812499999924 141.02828250000002 2.645528750000018 Q136.60906500000002 7.0175000000000125 130.6125 7.0175000000000125 H96.42750000000001 L77.4 35.881250000000016 Z"/></g><g id="Semibold-L" transform="matrix(1 0 0 1 1970.27 1556)"><path d="M77.4 34.61930750000002  58.74402 6.246402500000016 H23.276115000000004 Q17.91052125 6.246402500000016 13.887333750000002 2.2232150000000175 Q9.8643075 -1.7998112499999834 9.8643075 -7.1655662499999835 V-89.564155 Q9.8643075 -94.87621374999998 13.887333750000002 -98.97164125 Q17.91052125 -103.06723 23.276115000000004 -103.06723 H131.523885 Q136.92705 -103.06723 140.977005 -98.97164125 Q145.02679875 -94.87621374999998 145.02679875 -89.564155 V-7.1655662499999835 Q145.02679875 -1.7998112499999834 140.977005 2.2232150000000175 Q136.92705 6.246402500000016 131.523885 6.246402500000016 H96.14708625 L77.4 34.61930750000002 Z"/></g><g id="Medium-L" transform="matrix(1 0 0 1 1674.31 1556)"><path d="M77.4 33.672770000000014  58.90188375 5.667837500000012 H22.59257625 Q17.65026375 5.667837500000012 13.888785 1.9063587500000168 Q10.127145 -1.8551199999999852 10.127145 -6.797432499999985 V-90.40555749999999 Q10.127145 -95.32513374999999 13.888785 -99.11724999999998 Q17.65026375 -102.90936624999998 22.59257625 -102.90936624999998 H132.20742375 Q137.16570000000002 -102.90936624999998 140.93846625 -99.11724999999998 Q144.71139374999998 -95.32513374999999 144.71139374999998 -90.40555749999999 V-6.797432499999985 Q144.71139374999998 -1.8551199999999852 140.93846625 1.9063587500000168 Q137.16570000000002 5.667837500000012 132.20742375 5.667837500000012 H95.93681625 L77.4 33.672770000000014 Z"/></g><g id="Regular-L" transform="matrix(1 0 0 1 1378.56 1556)"><path d="M77.4 32.97875000000002  59.0175 5.243750000000013 H22.091250000000002 Q17.459343750000002 5.243750000000013 13.889752500000002 1.674158750000018 Q10.32 -1.895593749999982 10.32 -6.527499999999982 V-91.02249999999998 Q10.32 -95.65440625 13.889752500000002 -99.2239975 Q17.459343750000002 -102.79374999999999 22.091250000000002 -102.79374999999999 H132.70875 Q137.34065625 -102.79374999999999 140.9102475 -99.2239975 Q144.48000000000002 -95.65440625 144.48000000000002 -91.02249999999998 V-6.527499999999982 Q144.48000000000002 -1.895593749999982 140.9102475 1.674158750000018 Q137.34065625 5.243750000000013 132.70875 5.243750000000013 H95.7825 L77.4 32.97875000000002 Z"/></g><g id="Light-L" transform="matrix(1 0 0 1 1082.77 1556)"><path d="M77.4 27.148595000000014  60.7541625 2.0185887500000135 H24.9444075 Q20.37442125 2.0185887500000135 16.959791250000002 -1.396041249999989 Q13.545161250000001 -4.810671249999984 13.545161250000001 -9.380657499999991 V-88.1693425 Q13.545161250000001 -92.73932875 16.959791250000002 -96.15395874999999 Q20.37442125 -99.56858875 24.9444075 -99.56858875 H129.8555925 Q134.42557875 -99.56858875 137.84020875 -96.15395874999999 Q141.25483875 -92.73932875 141.25483875 -88.1693425 V-9.380657499999991 Q141.25483875 -4.810671249999984 137.84020875 -1.396041249999989 Q134.42557875 2.0185887500000135 129.8555925 2.0185887500000135 H94.0458375 L77.4 27.148595000000014 Z"/></g><g id="Thin-L" transform="matrix(1 0 0 1 787.282 1556)"><path d="M77.4 21.319246250000017  62.490502500000005 -1.206249999999983 H27.79692 Q23.28917625 -1.206249999999983 20.0295075 -4.465757499999988 Q16.77 -7.725426249999984 16.77 -12.233169999999987 V-85.31682999999998 Q16.77 -89.82457374999998 20.0295075 -93.08424249999999 Q23.28917625 -96.34375 27.79692 -96.34375 H127.00308 Q131.51082375000001 -96.34375 134.7704925 -93.08424249999999 Q138.03 -89.82457374999998 138.03 -85.31682999999998 V-12.233169999999987 Q138.03 -7.725426249999984 134.7704925 -4.465757499999988 Q131.51082375000001 -1.206249999999983 127.00308 -1.206249999999983 H92.3094975 L77.4 21.319246250000017 Z"/></g><g id="Ultralight-L" transform="matrix(1 0 0 1 491.205 1556)"><path d="M77.4 17.821250000000017  63.5325 -3.141249999999985 H29.50875 Q25.03809375 -3.141249999999985 21.87146625 -6.307877499999982 Q18.705000000000002 -9.474343749999981 18.705000000000002 -13.944999999999986 V-83.60499999999999 Q18.705000000000002 -88.07565624999998 21.87146625 -91.2421225 Q25.03809375 -94.40875 29.50875 -94.40875 H125.29125 Q129.76190625 -94.40875 132.9283725 -91.2421225 Q136.095 -88.07565624999998 136.095 -83.60499999999999 V-13.944999999999986 Q136.095 -9.474343749999981 132.9283725 -6.307877499999982 Q129.76190625 -3.141249999999985 125.29125 -3.141249999999985 H91.2675 L77.4 17.821250000000017 Z"/></g><g id="Bold-M" transform="matrix(1 0 0 1 2281.8 1126)"><path d="M60.0 24.64500000000001  43.75 0.020000000000010232 H21.25 Q14.159375 0.020000000000010232 9.20475 -4.93462499999999 Q4.25 -9.889374999999987 4.25 -16.97999999999999 V-74.35499999999999 Q4.25 -81.32062499999999 9.20475 -86.33774999999999 Q14.159375 -91.35499999999999 21.25 -91.35499999999999 H98.75 Q105.840625 -91.35499999999999 110.79525 -86.33774999999999 Q115.75 -81.32062499999999 115.75 -74.35499999999999 V-16.97999999999999 Q115.75 -9.889374999999987 110.79525 -4.93462499999999 Q105.840625 0.020000000000010232 98.75 0.020000000000010232 H76.25 L60.0 24.64500000000001 Z"/></g><g id="Semibold-M" transform="matrix(1 0 0 1 1985.97 1126)"><path d="M60.0 22.85162500000001  44.18475 -1.066874999999989 H20.3805 Q13.996375 -1.066874999999989 9.503625 -5.55962499999999 Q5.010875 -10.05237499999999 5.010875 -16.436499999999988 V-75.38749999999999 Q5.010875 -81.701 9.503625 -86.229125 Q13.996375 -90.75724999999998 20.3805 -90.75724999999998 H99.6195 Q106.003625 -90.75724999999998 110.496375 -86.229125 Q114.989125 -81.701 114.989125 -75.38749999999999 V-16.436499999999988 Q114.989125 -10.05237499999999 110.496375 -5.55962499999999 Q106.003625 -1.066874999999989 99.6195 -1.066874999999989 H75.81525 L60.0 22.85162500000001 Z"/></g><g id="Medium-M" transform="matrix(1 0 0 1 1689.91 1126)"><path d="M60.0 21.50650000000001  44.510875 -1.8821249999999914 H19.72825 Q13.874 -1.8821249999999914 9.72775 -6.02837499999999 Q5.5815 -10.174749999999989 5.5815 -16.028874999999992 V-76.16199999999999 Q5.5815 -81.986375 9.72775 -86.14762499999999 Q13.874 -90.30874999999999 19.72825 -90.30874999999999 H100.27175 Q106.126 -90.30874999999999 110.27225 -86.14762499999999 Q114.4185 -81.986375 114.4185 -76.16199999999999 V-16.028874999999992 Q114.4185 -10.174749999999989 110.27225 -6.02837499999999 Q106.126 -1.8821249999999914 100.27175 -1.8821249999999914 H75.489125 L60.0 21.50650000000001 Z"/></g><g id="Regular-M" transform="matrix(1 0 0 1 1394.06 1126)"><path d="M60.0 20.52000000000001  44.75 -2.4799999999999898 H19.25 Q13.784375 -2.4799999999999898 9.89225 -6.37212499999999 Q6.0 -10.264374999999987 6.0 -15.72999999999999 V-76.72999999999999 Q6.0 -82.19562499999999 9.89225 -86.08774999999999 Q13.784375 -89.97999999999999 19.25 -89.97999999999999 H100.75 Q106.215625 -89.97999999999999 110.10775 -86.08774999999999 Q114.0 -82.19562499999999 114.0 -76.72999999999999 V-15.72999999999999 Q114.0 -10.264374999999987 110.10775 -6.37212499999999 Q106.215625 -2.4799999999999898 100.75 -2.4799999999999898 H75.25 L60.0 20.52000000000001 Z"/></g><g id="Light-M" transform="matrix(1 0 0 1 1098.18 1126)"><path d="M60.0 16.00050000000001  46.09625 -4.98012499999999 H20.788625 Q15.6595 -4.98012499999999 12.079875 -8.559874999999991 Q8.500125 -12.139499999999991 8.500125 -17.268624999999993 V-75.191375 Q8.500125 -80.3205 12.079875 -83.90012499999999 Q15.6595 -87.47987499999999 20.788625 -87.47987499999999 H99.211375 Q104.3405 -87.47987499999999 107.920125 -83.90012499999999 Q111.499875 -80.3205 111.499875 -75.191375 V-17.268624999999993 Q111.499875 -12.139499999999991 107.920125 -8.559874999999991 Q104.3405 -4.98012499999999 99.211375 -4.98012499999999 H73.90375 L60.0 16.00050000000001 Z"/></g><g id="Thin-M" transform="matrix(1 0 0 1 802.565 1126)"><path d="M60.0 11.48162500000001  47.44225 -7.47999999999999 H22.326875 Q17.534375 -7.47999999999999 14.267125 -10.74712499999999 Q11.0 -14.014374999999987 11.0 -18.80687499999999 V-73.65312499999999 Q11.0 -78.44562499999999 14.267125 -81.712875 Q17.534375 -84.97999999999999 22.326875 -84.97999999999999 H97.673125 Q102.465625 -84.97999999999999 105.732875 -81.712875 Q109.0 -78.44562499999999 109.0 -73.65312499999999 V-18.80687499999999 Q109.0 -14.014374999999987 105.732875 -10.74712499999999 Q102.465625 -7.47999999999999 97.673125 -7.47999999999999 H72.55775 L60.0 11.48162500000001 Z"/></g><g id="Ultralight-M" transform="matrix(1 0 0 1 506.415 1126)"><path d="M60.0 8.77000000000001  48.25 -8.97999999999999 H23.25 Q18.659375 -8.97999999999999 15.579625 -12.059749999999987 Q12.5 -15.139374999999987 12.5 -19.72999999999999 V-72.72999999999999 Q12.5 -77.32062499999999 15.579625 -80.40024999999999 Q18.659375 -83.47999999999999 23.25 -83.47999999999999 H96.75 Q101.340625 -83.47999999999999 104.42025 -80.40024999999999 Q107.5 -77.32062499999999 107.5 -72.72999999999999 V-19.72999999999999 Q107.5 -15.139374999999987 104.42025 -12.059749999999987 Q101.340625 -8.97999999999999 96.75 -8.97999999999999 H71.75 L60.0 8.77000000000001 Z"/></g><g id="Bold-S" transform="matrix(1 0 0 1 2294.23 696)"><path d="M47.34 10.433375000000014  32.349000000000004 -12.15174999999999 H17.55525 Q12.286209375 -12.15174999999999 8.608680375 -15.830363874999986 Q4.93125 -19.509076374999985 4.93125 -24.77969499999999 V-65.33853587499999 Q4.93125 -70.510628125 8.608680375 -74.22257724999999 Q12.286209375 -77.934625 17.55525 -77.934625 H77.12475 Q82.393790625 -77.934625 86.071319625 -74.20669862499999 Q89.74875 -70.47867362499998 89.74875 -65.30668 V-24.747839124999985 Q89.74875 -19.477121874999984 86.071319625 -15.814485249999986 Q82.393790625 -12.15174999999999 77.12475 -12.15174999999999 H62.331 L47.34 10.433375000000014 Z"/></g><g id="Semibold-S" transform="matrix(1 0 0 1 1998.1 696)"><path d="M47.34 9.018402125000014  32.692017750000005 -13.009294374999985 H16.869214500000002 Q12.157602375 -13.009294374999985 8.844591375 -16.323488874999985 Q5.531580375000001 -19.63768337499999 5.531580375000001 -24.350972124999984 V-66.15327699999999 Q5.531580375000001 -70.810744 8.844591375 -74.136872125 Q12.157602375 -77.46300025 16.869214500000002 -77.46300025 H77.81078550000001 Q82.52239762500001 -77.46300025 85.835408625 -74.12089487499999 Q89.148419625 -70.77878949999999 89.148419625 -66.12132249999999 V-24.319017624999994 Q89.148419625 -19.60572887499999 85.835408625 -16.30751162499999 Q82.52239762500001 -13.009294374999985 77.81078550000001 -13.009294374999985 H61.98798225000001 L47.34 9.018402125000014 Z"/></g><g id="Medium-S" transform="matrix(1 0 0 1 1701.85 696)"><path d="M47.34 7.957098500000014  32.949330375 -13.652526624999986 H16.35458925 Q12.0610485 -13.652526624999986 9.021426 -16.693332624999986 Q5.981803500000001 -19.734138624999986 5.981803500000001 -24.029355999999993 V-66.76435749999999 Q5.981803500000001 -71.035904875 9.021426 -74.07256862499999 Q12.0610485 -77.10913374999998 16.35458925 -77.10913374999998 H78.32541075 Q82.6189515 -77.10913374999998 85.658574 -74.05659137499998 Q88.6981965 -71.00395037499999 88.6981965 -66.73240299999999 V-23.997401499999988 Q88.6981965 -19.702282749999988 85.658574 -16.677355374999987 Q82.6189515 -13.652526624999986 78.32541075 -13.652526624999986 H61.730669625000004 L47.34 7.957098500000014 Z"/></g><g id="Regular-S" transform="matrix(1 0 0 1 1405.73 696)"><path d="M47.34 7.178750000000013  33.138 -14.124249999999986 H15.977250000000002 Q11.990334375000002 -14.124249999999986 9.151117875 -16.964551374999985 Q6.312 -19.804951374999987 6.312 -23.79344499999999 V-67.21241087499999 Q6.312 -71.20100312499999 9.151117875 -74.02532724999999 Q11.990334375000002 -76.84974999999999 15.977250000000002 -76.84974999999999 H78.70275000000001 Q82.689665625 -76.84974999999999 85.528882125 -74.00944862499999 Q88.36800000000001 -71.16904862499999 88.36800000000001 -67.180555 V-23.761589124999986 Q88.36800000000001 -19.772996874999986 85.528882125 -16.948672749999986 Q82.689665625 -14.124249999999986 78.70275000000001 -14.124249999999986 H61.542 L47.34 7.178750000000013 Z"/></g><g id="Light-S" transform="matrix(1 0 0 1 1109.75 696)"><path d="M47.34 3.612864500000013  34.20019125 -16.096848624999986 H17.191225125 Q13.469808 -16.096848624999986 10.877252625 -18.690686124999985 Q8.284598625000001 -21.28442499999999 8.284598625000001 -25.00742012499999 V-65.99853437499999 Q8.284598625000001 -69.72152949999999 10.877252625 -72.29929112499998 Q13.469808 -74.877151375 17.191225125 -74.877151375 H77.488774875 Q81.210192 -74.877151375 83.80274737500001 -72.28331387499999 Q86.395401375 -69.68957499999999 86.395401375 -65.96657987499998 V-24.975465624999984 Q86.395401375 -21.252470499999987 83.80274737500001 -18.67470887499999 Q81.210192 -16.096848624999986 77.488774875 -16.096848624999986 H60.479808750000004 L47.34 3.612864500000013 Z"/></g><g id="Thin-S" transform="matrix(1 0 0 1 814.015 696)"><path d="M47.34 0.047472125000012966  35.26218525 -18.069249999999986 H18.404904375 Q14.949084375 -18.069249999999986 12.602992875000002 -20.416426374999986 Q10.257 -22.76370137499999 10.257 -26.221197999999987 V-64.78475649999999 Q10.257 -68.24225312499999 12.602992875000002 -70.573550875 Q14.949084375 -72.90474999999999 18.404904375 -72.90474999999999 H76.275095625 Q79.730915625 -72.90474999999999 82.077007125 -70.55757362499999 Q84.423 -68.21029862499998 84.423 -64.75280199999999 V-26.18924349999999 Q84.423 -22.731746874999985 82.077007125 -20.400449124999987 Q79.730915625 -18.069249999999986 76.275095625 -18.069249999999986 H59.41781475 L47.34 0.047472125000012966 Z"/></g><g id="Ultralight-S" transform="matrix(1 0 0 1 517.792 696)"><path d="M47.34 -2.0919999999999863  35.8995 -19.25274999999999 H19.13325 Q15.836709375 -19.25274999999999 13.638654000000002 -21.451988874999984 Q11.4405 -23.65132637499999 11.4405 -26.94944499999999 V-64.056410875 Q11.4405 -67.35462812499999 13.638654000000002 -69.53788974999999 Q15.836709375 -71.72124999999998 19.13325 -71.72124999999998 H75.54675 Q78.843290625 -71.72124999999998 81.041444625 -69.52201112499999 Q83.2395 -67.32267362499998 83.2395 -64.02455499999999 V-26.917589124999985 Q83.2395 -23.619371874999985 81.041444625 -21.436110249999984 Q78.843290625 -19.25274999999999 75.54675 -19.25274999999999 H58.7805 L47.34 -2.0919999999999863 Z"/></g></g></svg>