<svg xmlns="http://www.w3.org/2000/svg" version="1.1" width="3300" height="2000"><g id="Notes"><style>
    text {
      font-family: monospace;
      text-anchor: middle;
    }
    text.emphasis {
      font-weight:bold;
    }
    text.lanchor {
      text-anchor: start;
    }
  </style><rect height="2200" id="artboard" fill="white" width="3300" x="0" y="0"/><line id="" style="fill:none;stroke:black;stroke-width:0.5;" x1="263" x2="3036" y1="292" y2="292"/><text class="lanchor emphasis" transform="matrix(1 0 0 1 263 322)">Weight/Scale Variations</text><text transform="matrix(1 0 0 1 559.711 322)">Ultralight</text><text transform="matrix(1 0 0 1 856.422 322)">Thin</text><text transform="matrix(1 0 0 1 1153.13 322)">Light</text><text transform="matrix(1 0 0 1 1449.84 322)">Regular</text><text transform="matrix(1 0 0 1 1746.56 322)">Medium</text><text transform="matrix(1 0 0 1 2043.27 322)">Semibold</text><text transform="matrix(1 0 0 1 2339.98 322)">Bold</text><text transform="matrix(1 0 0 1 2636.69 322)">Heavy</text><text transform="matrix(1 0 0 1 2933.4 322)">Black</text><text id="template-version" style="text-anchor: end;" transform="matrix(1 0 0 1 3036 1933)">Template v.1.0</text><text class="lanchor" transform="matrix(1 0 0 1 263 726)">Small</text><text class="lanchor" transform="matrix(1 0 0 1 263 1156)">Medium</text><text class="lanchor" transform="matrix(1 0 0 1 263 1586)">Large</text></g><g id="Guides"><g id="H-reference" style="fill:#27AAE1;stroke:none;" transform="matrix(1 0 0 1 339 696)"><path d="M 54.9316 0 L 57.666 0 L 30.5664 -70.459 L 28.0762 -70.459 L 0.976562 0 L 3.66211 0 L 12.9395 -24.4629 L 45.7031 -24.4629 Z M 29.1992 -67.0898 L 29.4434 -67.0898 L 44.8242 -26.709 L 13.8184 -26.709 Z"/></g><line id="Baseline-S" style="fill:none;stroke:#27AAE1;opacity:1;stroke-width:0.577;" x1="263" x2="3036" y1="696" y2="696"/><line id="Capline-S" style="fill:none;stroke:#27AAE1;opacity:1;stroke-width:0.577;" x1="263" x2="3036" y1="625.541" y2="625.541"/><g id="H-reference" style="fill:#27AAE1;stroke:none;" transform="matrix(1 0 0 1 339 1126)"><path d="M 54.9316 0 L 57.666 0 L 30.5664 -70.459 L 28.0762 -70.459 L 0.976562 0 L 3.66211 0 L 12.9395 -24.4629 L 45.7031 -24.4629 Z M 29.1992 -67.0898 L 29.4434 -67.0898 L 44.8242 -26.709 L 13.8184 -26.709 Z"/></g><line id="Baseline-M" style="fill:none;stroke:#27AAE1;opacity:1;stroke-width:0.577;" x1="263" x2="3036" y1="1126" y2="1126"/><line id="Capline-M" style="fill:none;stroke:#27AAE1;opacity:1;stroke-width:0.577;" x1="263" x2="3036" y1="1055.54" y2="1055.54"/><g id="H-reference" style="fill:#27AAE1;stroke:none;" transform="matrix(1 0 0 1 339 1556)"><path d="M 54.9316 0 L 57.666 0 L 30.5664 -70.459 L 28.0762 -70.459 L 0.976562 0 L 3.66211 0 L 12.9395 -24.4629 L 45.7031 -24.4629 Z M 29.1992 -67.0898 L 29.4434 -67.0898 L 44.8242 -26.709 L 13.8184 -26.709 Z"/></g><line id="Baseline-L" style="fill:none;stroke:#27AAE1;opacity:1;stroke-width:0.577;" x1="263" x2="3036" y1="1556" y2="1556"/><line id="Capline-L" style="fill:none;stroke:#27AAE1;opacity:1;stroke-width:0.577;" x1="263" x2="3036" y1="1485.54" y2="1485.54"/><rect height="119.336" id="left-margin" style="fill:darkred;stroke:none;opacity:0.4;" width="12.4512" x="1394.06" y="1030.79"/><rect height="119.336" id="right-margin" style="fill:darkgreen;stroke:none;opacity:0.4;" width="12.4512" x="1502.5112" y="1030.79"/><rect x="1406.5112" y="1045" width="96" height="96" fill="none" stroke="blue" stroke-dasharray="5"/><rect x="1394.06" y="1030.79" width="120.9024" height="119.336" fill="none" stroke="blue"/></g><g id="Symbols"><g id="Bold-L" transform="matrix(1 0 0 1 2266 1556)"><path d="M41.925000000000004 -64.73874999999998 Q42.55532625 -63.77124999999998 44.24845125 -63.77124999999998 Q45.94157625 -63.77124999999998 47.085 -64.73874999999998 L53.8575 -71.51124999999999 Q54.66375 -72.18559749999999 54.66375 -73.91532624999999 Q54.66375 -75.64505499999999 53.8575 -76.83249999999998 L47.085 -83.28249999999998 Q45.956250000000004 -84.08874999999999 44.263125 -84.08874999999999 Q42.57 -84.08874999999999 41.925000000000004 -83.28249999999998 L34.99125 -76.83249999999998 Q34.185 -75.61586874999999 34.185 -73.88597874999998 Q34.185 -72.15624999999999 34.99125 -71.51124999999999 L41.925000000000004 -64.73874999999998 Z M106.46289375 -69.09249999999999 Q110.13375 -69.09249999999999 112.633125 -71.62976874999998 Q115.13250000000001 -74.16719874999998 115.13250000000001 -77.83789374999999 Q115.13250000000001 -81.34749999999998 112.62844875 -83.92749999999998 Q110.12423625000001 -86.5075 106.50094875 -86.5075 Q102.8775 -86.5075 100.2975 -83.92282374999999 Q97.7175 -81.33798624999999 97.7175 -77.87594874999999 Q97.7175 -74.25249999999998 100.25476875000001 -71.67249999999999 Q102.79219875 -69.09249999999999 106.46289375 -69.09249999999999 Z M37.7325 39.75125000000001 Q34.733250000000005 39.75125000000001 32.604749999999996 37.73562500000001 Q30.47625 35.72000000000001 30.47625 32.333750000000016 V24.110000000000014 Q30.47625 18.143750000000015 33.781875 12.822500000000016 Q37.0875 7.501250000000013 42.8925 4.760000000000012 Q50.955 0.8900000000000148 59.71684125 -0.9643749999999827 Q68.47884375000001 -2.818749999999987 77.4 -2.818749999999987 Q86.32115625000002 -2.818749999999987 95.0829975 -0.9643749999999827 Q103.845 0.8900000000000148 112.06875000000001 4.760000000000012 Q117.72846375000002 7.436750000000011 121.18727625 12.790250000000018 Q124.64625000000001 18.143750000000015 124.64625000000001 24.110000000000014 V32.333750000000016 Q124.64625000000001 35.72000000000001 122.34634125 37.73562500000001 Q120.04659375000001 39.75125000000001 117.06750000000001 39.75125000000001 H37.7325 Z M77.403225 -9.268749999999983 Q67.0177575 -9.268749999999983 60.034503750000006 -16.38809874999999 Q53.05125 -23.507447499999984 53.05125 -33.86179374999999 Q53.05125 -43.83849249999999 60.078525 -51.06362124999998 Q67.1058 -58.28874999999999 77.44402125 -58.28874999999999 Q87.7822425 -58.28874999999999 94.92674625 -51.06362124999998 Q102.07125 -43.83849249999999 102.07125 -33.78116874999998 Q102.07125 -23.56275624999998 94.92997125 -16.415672499999985 Q87.78869250000001 -9.268749999999983 77.403225 -9.268749999999983 Z M46.60125 -19.266249999999985 H24.1875 Q18.19303125 -19.266249999999985 13.853310000000002 -23.766092499999985 Q9.51375 -28.265934999999985 9.51375 -34.10124999999999 V-95.69874999999999 Q9.51375 -101.46746875 13.853310000000002 -105.91990374999997 Q18.19303125 -110.3725 24.1875 -110.3725 H130.6125 Q136.673565 -110.3725 141.0605325 -105.91990374999997 Q145.4475 -101.46746875 145.4475 -95.69874999999999 V-34.10124999999999 Q145.4475 -28.265934999999985 141.0605325 -23.766092499999985 Q136.673565 -19.266249999999985 130.6125 -19.266249999999985 H108.36 Q110.13375 -22.65249999999999 111.02062500000001 -26.468803749999978 Q111.9075 -30.28494624999999 111.74625 -34.10124999999999 Q111.42375 -48.12999999999998 101.45866125 -58.046874999999986 Q91.49341125 -67.96374999999999 77.43241125 -67.96374999999999 Q63.37125 -67.96374999999999 53.357786250000004 -58.072029999999984 Q43.344322500000004 -48.18014874999999 43.37625 -34.10124999999999 Q43.05375 -30.28494624999999 43.86 -26.468803749999978 Q44.66625 -22.65249999999999 46.60125 -19.266249999999985 Z"/></g><g id="Semibold-L" transform="matrix(1 0 0 1 1970.27 1556)"><path d="M42.20541375 -63.47680749999998 Q42.90588375000001 -62.57945124999999 44.391802500000004 -62.57945124999999 Q45.877882500000005 -62.57945124999999 46.9447125 -63.47680749999998 L54.48847125 -70.9504225 Q55.29472125 -71.69491374999998 55.29472125 -73.22711124999998 Q55.29472125 -74.75930874999999 54.48847125 -75.85097124999999 L46.9447125 -83.07222999999999 Q45.892556250000005 -83.87848 44.406476250000004 -83.87848 Q42.9205575 -83.87848 42.20541375 -83.07222999999999 L34.57054875 -75.85097124999999 Q33.76429875 -74.72996124999999 33.76429875 -73.19776374999998 Q33.76429875 -71.66556624999998 34.57054875 -70.9504225 L42.20541375 -63.47680749999998 Z M106.4382225 -68.391385 Q110.2740375 -68.391385 112.91353875000001 -71.04427 Q115.55320125000001 -73.69699374999998 115.55320125000001 -77.53280874999999 Q115.55320125000001 -81.27735625 112.9191825 -83.96249124999999 Q110.28516375 -86.64778749999999 106.47611625 -86.64778749999999 Q102.66723 -86.64778749999999 99.982095 -83.96813499999998 Q97.29679875 -81.28848249999999 97.29679875 -77.57070249999998 Q97.29679875 -73.76181624999998 99.94968374999999 -71.07668124999998 Q102.6024075 -68.391385 106.4382225 -68.391385 Z M37.45208625 39.40069250000002 Q34.7051925 39.40069250000002 32.766 37.52535500000002 Q30.8268075 35.64985625000001 30.8268075 32.61416375000002 V24.180143750000017 Q30.8268075 18.213893750000015 34.09728 12.997778750000013 Q37.36791375 7.781663750000014 43.10277 5.110557500000013 Q51.095287500000005 1.3107012500000152 59.79843375000001 -0.5436737499999893 Q68.50158 -2.3980487499999867 77.4 -2.3980487499999867 Q86.29842 -2.3980487499999867 95.00156625000001 -0.5436737499999893 Q103.7047125 1.3107012500000152 111.85848000000001 5.110557500000013 Q117.44111625000001 7.745221250000014 120.83333250000001 12.979557500000013 Q124.22554875 18.213893750000015 124.22554875 24.180143750000017 V32.61416375000002 Q124.22554875 35.64985625000001 122.15445375 37.52535500000002 Q120.08335875 39.40069250000002 117.34791375 39.40069250000002 H37.45208625 Z M77.40177375 -8.84804874999999 Q67.22818875 -8.84804874999999 60.3149175 -15.873227499999992 Q53.4018075 -22.89840624999998 53.4018075 -33.05457624999998 Q53.4018075 -42.92710749999999 60.33975 -50.01210999999999 Q67.27785374999999 -57.09695124999999 77.42483250000001 -57.09695124999999 Q87.57181125000001 -57.09695124999999 94.61118 -50.01210999999999 Q101.65054875 -42.92710749999999 101.65054875 -33.00894249999999 Q101.65054875 -22.929688749999983 94.61311500000001 -15.888868749999986 Q87.57552000000001 -8.84804874999999 77.40177375 -8.84804874999999 Z M46.53110625 -19.54666374999998 H23.276115000000004 Q17.87407875 -19.54666374999998 13.869112500000002 -23.642091249999993 Q9.8643075 -27.737679999999983 9.8643075 -33.04973874999999 V-96.18943374999998 Q9.8643075 -101.46392125 13.869112500000002 -105.53258124999999 Q17.87407875 -109.60140249999998 23.276115000000004 -109.60140249999998 H131.523885 Q136.9634925 -109.60140249999998 140.99522625 -105.53258124999999 Q145.02679875 -101.46392125 145.02679875 -96.18943374999998 V-33.04973874999999 Q145.02679875 -27.737679999999983 140.99522625 -23.642091249999993 Q136.9634925 -19.54666374999998 131.523885 -19.54666374999998 H108.43014375 Q109.92348000000001 -22.65249999999999 110.6700675 -26.10647499999999 Q111.41681625 -29.560611249999994 111.32554875 -33.04973874999999 Q111.14333625 -47.00834499999998 101.26935375000001 -56.89022874999999 Q91.39521 -66.77195124999999 77.41822125 -66.77195124999999 Q63.44139375 -66.77195124999999 53.53999875 -56.904257499999986 Q43.63860375 -47.03672499999999 43.7268075 -33.04973874999999 Q43.54443375 -29.560611249999994 44.2105575 -26.10647499999999 Q44.87652 -22.65249999999999 46.53110625 -19.54666374999998 Z"/></g><g id="Medium-L" transform="matrix(1 0 0 1 1674.31 1556)"><path d="M42.41568375 -62.53026999999999 Q43.168721250000004 -61.685481249999995 44.49935625 -61.685481249999995 Q45.82999125 -61.685481249999995 46.839577500000004 -62.53026999999999 L54.961740000000006 -70.52972125 Q55.767990000000005 -71.32677999999999 55.767990000000005 -72.71078874999998 Q55.767990000000005 -74.0947975 54.961740000000006 -75.11486499999998 L46.839577500000004 -82.91436624999999 Q45.844665 -83.72061624999999 44.51403 -83.72061624999999 Q43.183395 -83.72061624999999 42.41568375 -82.91436624999999 L34.25514375 -75.11486499999998 Q33.44889375 -74.06545 33.44889375 -72.68144124999998 Q33.44889375 -71.29743249999999 34.25514375 -70.52972125 L42.41568375 -62.53026999999999 Z M106.41967875 -67.86554874999999 Q110.37917250000001 -67.86554874999999 113.12380875000001 -70.60502499999998 Q115.86860625000001 -73.34434 115.86860625000001 -77.30383374999998 Q115.86860625000001 -81.22478874999999 113.1371925 -83.98877499999999 Q110.40577875000001 -86.75292249999998 106.4575725 -86.75292249999998 Q102.50936625 -86.75292249999998 99.74538000000001 -84.00215874999998 Q96.98139375 -81.25139499999999 96.98139375 -77.34188874999998 Q96.98139375 -73.39368249999998 99.72070875 -70.62969625 Q102.46018500000001 -67.86554874999999 106.41967875 -67.86554874999999 Z M37.24181625 39.137855000000016 Q34.68423 39.137855000000016 32.8869375 37.367491250000015 Q31.089645 35.59728875000002 31.089645 32.824595000000016 V24.232711250000015 Q31.089645 18.266461250000013 34.333995 13.129197500000014 Q37.57818375 7.991933750000015 43.260633750000004 5.373395000000016 Q51.2004225 1.6261062500000136 59.8595475 -0.2282687499999838 Q68.51867250000001 -2.0826437499999884 77.4 -2.0826437499999884 Q86.2813275 -2.0826437499999884 94.9404525 -0.2282687499999838 Q103.5995775 1.6261062500000136 111.70061625 5.373395000000016 Q117.225525 7.976615000000017 120.56775375000001 13.121457500000016 Q123.91014374999999 18.266461250000013 123.91014374999999 24.232711250000015 V32.824595000000016 Q123.91014374999999 35.59728875000002 122.01061874999999 37.367491250000015 Q120.1109325 39.137855000000016 117.55818375 39.137855000000016 H37.24181625 Z M77.40080625 -8.532643749999984 Q67.38589125 -8.532643749999984 60.52534875 -15.48703374999998 Q53.664645 -22.44158499999999 53.664645 -32.44908249999999 Q53.664645 -42.24356874999998 60.535830000000004 -49.22327499999999 Q67.40685375 -56.20298124999999 77.41048125 -56.20298124999999 Q87.41410875 -56.20298124999999 94.37462625 -49.22327499999999 Q101.33514375 -42.24356874999998 101.33514375 -32.429732499999986 Q101.33514375 -22.454807499999987 94.3754325 -15.493644999999987 Q87.41572125000002 -8.532643749999984 77.40080625 -8.532643749999984 Z M46.47853875 -19.756933749999988 H22.59257625 Q17.63478375 -19.756933749999988 13.881045 -23.54904999999998 Q10.127145 -27.341166249999986 10.127145 -32.26090374999998 V-96.5575675 Q10.127145 -101.46134124999998 13.881045 -105.24216999999999 Q17.63478375 -109.02283749999998 22.59257625 -109.02283749999998 H132.20742375 Q137.18118 -109.02283749999998 140.94620625000002 -105.24216999999999 Q144.71139374999998 -101.46134124999998 144.71139374999998 -96.5575675 V-32.26090374999998 Q144.71139374999998 -27.341166249999986 140.94620625000002 -23.54904999999998 Q137.18118 -19.756933749999988 132.20742375 -19.756933749999988 H108.48271125 Q109.76561625 -22.65249999999999 110.40723000000001 -25.834929999999986 Q111.0486825 -29.01719874999999 111.01014375 -32.26090374999998 Q110.93306625 -46.16694249999999 101.1272925 -56.022542499999986 Q91.32151875000001 -65.87798124999999 77.40774 -65.87798124999999 Q63.493961250000005 -65.87798124999999 53.6765775 -56.02850874999997 Q43.859355 -46.17903624999998 43.989644999999996 -32.26090374999998 Q43.9125675 -29.01719874999999 44.473395 -25.834929999999986 Q45.03438375 -22.65249999999999 46.47853875 -19.756933749999988 Z"/></g><g id="Regular-L" transform="matrix(1 0 0 1 1378.56 1556)"><path d="M42.57 -61.83624999999999 Q43.36157625 -61.02999999999999 44.578368749999996 -61.02999999999999 Q45.795 -61.02999999999999 46.7625 -61.83624999999999 L55.30875 -70.22124999999998 Q56.115 -71.05684749999999 56.115 -72.33217375 Q56.115 -73.60749999999999 55.30875 -74.57499999999999 L46.7625 -82.79874999999998 Q45.80967375 -83.60499999999999 44.592881250000005 -83.60499999999999 Q43.37625 -83.60499999999999 42.57 -82.79874999999998 L34.02375 -74.57499999999999 Q33.2175 -73.57815249999999 33.2175 -72.30282624999998 Q33.2175 -71.02749999999999 34.02375 -70.22124999999998 L42.57 -61.83624999999999 Z M106.40597249999999 -67.47999999999999 Q110.45625 -67.47999999999999 113.278125 -70.28284749999997 Q116.10000000000001 -73.08585624999999 116.10000000000001 -77.13597249999998 Q116.10000000000001 -81.18624999999999 113.29715250000001 -84.00812499999999 Q110.49414375 -86.82999999999998 106.4440275 -86.82999999999998 Q102.39375 -86.82999999999998 99.571875 -84.0271525 Q96.75 -81.22414375 96.75 -77.1740275 Q96.75 -73.12374999999999 99.5528475 -70.30187499999998 Q102.35585625 -67.47999999999999 106.40597249999999 -67.47999999999999 Z M37.0875 38.945000000000014 Q34.66875 38.945000000000014 32.975625 37.25187500000001 Q31.282500000000002 35.55875000000002 31.282500000000002 32.97875000000002 V24.271250000000016 Q31.282500000000002 18.305000000000014 34.5075 13.225625000000015 Q37.7325 8.146250000000016 43.37625 5.566250000000018 Q51.2775 1.857500000000016 59.904375 0.0031250000000113687 Q68.53125 -1.851249999999986 77.4 -1.851249999999986 Q86.26875 -1.851249999999986 94.89562500000001 0.0031250000000113687 Q103.52250000000001 1.857500000000016 111.58500000000001 5.566250000000018 Q117.06750000000001 8.146250000000016 120.373125 13.225625000000015 Q123.67875000000001 18.305000000000014 123.67875000000001 24.271250000000016 V32.97875000000002 Q123.67875000000001 35.55875000000002 121.905 37.25187500000001 Q120.13125000000001 38.945000000000014 117.7125 38.945000000000014 H37.0875 Z M77.4 -8.301249999999989 Q67.5015075 -8.301249999999989 60.67950375 -15.203878749999987 Q53.8575 -22.106507499999978 53.8575 -32.00499999999998 Q53.8575 -41.742242499999975 60.67950375 -48.64487124999998 Q67.5015075 -55.547499999999985 77.4 -55.547499999999985 Q87.2984925 -55.547499999999985 94.20112125 -48.64487124999998 Q101.10375 -41.742242499999975 101.10375 -32.00499999999998 Q101.10375 -22.106507499999978 94.20112125 -15.203878749999987 Q87.2984925 -8.301249999999989 77.4 -8.301249999999989 Z M46.44 -19.91124999999999 H22.091250000000002 Q17.459343750000002 -19.91124999999999 13.889752500000002 -23.48100249999999 Q10.32 -27.050593749999976 10.32 -31.68249999999999 V-96.82749999999999 Q10.32 -101.45940625 13.889752500000002 -105.02899749999997 Q17.459343750000002 -108.59875 22.091250000000002 -108.59875 H132.70875 Q137.34065625 -108.59875 140.9102475 -105.02899749999997 Q144.48000000000002 -101.45940625 144.48000000000002 -96.82749999999999 V-31.68249999999999 Q144.48000000000002 -27.050593749999976 140.9102475 -23.48100249999999 Q137.34065625 -19.91124999999999 132.70875 -19.91124999999999 H108.52125000000001 Q109.65 -22.65249999999999 110.214375 -25.63562499999999 Q110.77875 -28.61874999999999 110.77875 -31.68249999999999 Q110.77875 -45.54999999999998 101.02312500000001 -55.38624999999999 Q91.2675 -65.22249999999998 77.4 -65.22249999999998 Q63.5325 -65.22249999999998 53.776875000000004 -55.38624999999999 Q44.02125 -45.54999999999998 44.182500000000005 -31.68249999999999 Q44.182500000000005 -28.61874999999999 44.66625 -25.63562499999999 Q45.15 -22.65249999999999 46.44 -19.91124999999999 Z"/></g><g id="Light-L" transform="matrix(1 0 0 1 1082.77 1556)"><path d="M42.63788625 -61.58228124999998 Q43.36157625 -60.84391749999999 44.547247500000005 -60.84391749999999 Q45.73291875 -60.84391749999999 46.63269375 -61.58228124999998 L54.3222225 -69.11055999999998 Q55.06058625 -69.87843249999999 55.06058625 -71.15375875 Q55.06058625 -72.42908499999999 54.3222225 -73.32869874999999 L46.63269375 -80.69572749999999 Q45.7475925 -81.43409125 44.561921250000005 -81.43409125 Q43.37625 -81.43409125 42.63788625 -80.69572749999999 L34.9483575 -73.32869874999999 Q34.2098325 -72.39973749999999 34.2098325 -71.12441124999998 Q34.2098325 -69.84908499999999 34.9483575 -69.11055999999998 L42.63788625 -61.58228124999998 Z M106.39146000000001 -66.42558625 Q109.86881625 -66.42558625 112.30224 -68.79434874999998 Q114.73550250000001 -71.16311124999999 114.73550250000001 -74.64046749999999 Q114.73550250000001 -78.11782374999999 112.32110625000001 -80.55124749999999 Q109.90671 -82.98451 106.42935375 -82.98451 Q102.9519975 -82.98451 100.56420750000001 -80.57011374999999 Q98.17657875 -78.15587874999999 98.17657875 -74.67836124999998 Q98.17657875 -71.201005 100.54534125 -68.81337624999999 Q102.91410375 -66.42558625 106.39146000000001 -66.42558625 Z M40.126740000000005 33.238846250000016 Q37.771522499999996 33.238846250000016 36.1396725 31.606996250000016 Q34.50766125 29.975146250000016 34.50766125 27.458678750000015 V20.797925000000017 Q34.50766125 15.762087500000014 37.205535 11.458002500000017 Q39.90340875 7.153917500000013 44.7407475 5.008002500000018 Q52.393995 1.4853350000000134 60.61758375 -0.3069587499999855 Q68.84133375 -2.0994137499999823 77.4 -2.0994137499999823 Q85.95866625000001 -2.0994137499999823 94.18241625 -0.3069587499999855 Q102.40600500000001 1.4853350000000134 110.22050250000001 5.008002500000018 Q114.89659125000001 7.153917500000013 117.67509000000001 11.458002500000017 Q120.45358875000001 15.762087500000014 120.45358875000001 20.797925000000017 V27.458678750000015 Q120.45358875000001 29.975146250000016 118.7409525 31.606996250000016 Q117.02847750000001 33.238846250000016 114.67326000000001 33.238846250000016 H40.126740000000005 Z M77.4 -9.789748749999987 Q68.804085 -9.789748749999987 62.943453749999996 -15.731166249999987 Q57.08266125 -21.67242249999999 57.08266125 -30.268337499999987 Q57.08266125 -38.70300249999998 62.943453749999996 -44.64425874999999 Q68.804085 -50.58567624999999 77.4 -50.58567624999999 Q85.995915 -50.58567624999999 91.93717125 -44.64425874999999 Q97.87858875 -38.70300249999998 97.87858875 -30.268337499999987 Q97.87858875 -21.67242249999999 91.93717125 -15.731166249999987 Q85.995915 -9.789748749999987 77.4 -9.789748749999987 Z M47.92849875 -20.655579999999986 H24.9444075 Q20.38845 -20.655579999999986 16.96688625 -24.077143749999976 Q13.545161250000001 -27.49870749999998 13.545161250000001 -32.054664999999986 V-91.49351124999998 Q13.545161250000001 -96.0493075 16.96688625 -99.47103249999998 Q20.38845 -102.89259625 24.9444075 -102.89259625 H129.8555925 Q134.41155 -102.89259625 137.83311375 -99.47103249999998 Q141.25483875 -96.0493075 141.25483875 -91.49351124999998 V-32.054664999999986 Q141.25483875 -27.49870749999998 137.83311375 -24.077143749999976 Q134.41155 -20.655579999999986 129.8555925 -20.655579999999986 H107.03275125 Q107.85125625 -22.838582499999987 108.32259 -25.26345999999998 Q108.79392375 -27.68833749999999 108.79392375 -30.069838749999988 Q108.79392375 -43.0690075 99.59654625 -52.28509 Q90.39916875 -61.50101124999999 77.4 -61.50101124999999 Q64.40083125 -61.50101124999999 55.20345375 -52.28509 Q46.00607625000001 -43.0690075 46.16732625 -30.069838749999988 Q46.16732625 -27.68833749999999 46.558035000000004 -25.26345999999998 Q46.94874375 -22.838582499999987 47.92849875 -20.655579999999986 Z"/></g><g id="Thin-L" transform="matrix(1 0 0 1 787.282 1556)"><path d="M42.705611250000004 -61.328473749999986 Q43.36157625 -60.65783499999999 44.5162875 -60.65783499999999 Q45.67099875 -60.65783499999999 46.50272625 -61.328473749999986 L53.335695 -68.00019249999998 Q54.00633375 -68.70017874999999 54.00633375 -69.97550499999998 Q54.00633375 -71.25083124999999 53.335695 -72.08255874999999 L46.50272625 -78.59302749999999 Q45.6856725 -79.26366624999999 44.530961250000004 -79.26366624999999 Q43.37625 -79.26366624999999 42.705611250000004 -78.59302749999999 L35.872642500000005 -72.08255874999999 Q35.202165 -71.22148374999998 35.202165 -69.94615749999998 Q35.202165 -68.67083124999999 35.872642500000005 -68.00019249999998 L42.705611250000004 -61.328473749999986 Z M106.37678625000001 -65.37133374999999 Q109.28154375000001 -65.37133374999999 111.32635499999999 -67.30601125 Q113.37116625 -69.24068874999999 113.37116625 -72.14528499999999 Q113.37116625 -75.05004249999999 111.3453825 -77.09485374999998 Q109.3194375 -79.13966499999998 106.41484125000001 -79.13966499999998 Q103.51008375 -79.13966499999998 101.55654 -77.11388124999999 Q99.602835 -75.08793625 99.602835 -72.18333999999999 Q99.602835 -69.27858249999998 101.5375125 -67.32503874999999 Q103.47219 -65.37133374999999 106.37678625000001 -65.37133374999999 Z M43.165335 27.533498750000014 Q40.87381125 27.533498750000014 39.303075 25.962923750000016 Q37.7325 24.392187500000016 37.7325 21.939413750000014 V17.325083750000015 Q37.7325 13.219497500000013 39.90308625 9.690541250000017 Q42.07383375 6.1615850000000165 46.10508375 4.449916250000015 Q53.5101675 1.1133312500000159 61.3307925 -0.6170424999999824 Q69.15141750000001 -2.3474162499999878 77.4 -2.3474162499999878 Q85.6485825 -2.3474162499999878 93.4692075 -0.6170424999999824 Q101.2898325 1.1133312500000159 108.85616625 4.449916250000015 Q112.72616625 6.1615850000000165 114.97753875000001 9.690541250000017 Q117.22875 13.219497500000013 117.22875 17.325083750000015 V21.939413750000014 Q117.22875 24.392187500000016 115.57755 25.962923750000016 Q113.92618875000001 27.533498750000014 111.634665 27.533498750000014 H43.165335 Z M77.4 -11.278086249999987 Q70.10634 -11.278086249999987 65.20692000000001 -16.25829249999999 Q60.307500000000005 -21.238337499999986 60.307500000000005 -28.53199749999999 Q60.307500000000005 -35.664407499999996 65.20692000000001 -40.644452499999986 Q70.10634 -45.62449749999999 77.4 -45.62449749999999 Q84.69366 -45.62449749999999 89.673705 -40.644452499999986 Q94.65375 -35.664407499999996 94.65375 -28.53199749999999 Q94.65375 -21.238337499999986 89.673705 -16.25829249999999 Q84.69366 -11.278086249999987 77.4 -11.278086249999987 Z M49.41683625 -21.399748749999986 H27.79692 Q23.317072500000002 -21.399748749999986 20.043536250000002 -24.67328499999998 Q16.77 -27.946821249999985 16.77 -32.42666874999999 V-86.16032874999999 Q16.77 -90.64017625 20.043536250000002 -93.91371249999997 Q23.317072500000002 -97.18724874999998 27.79692 -97.18724874999998 H127.00308 Q131.48292750000002 -97.18724874999998 134.75646375 -93.91371249999997 Q138.03 -90.64017625 138.03 -86.16032874999999 V-32.42666874999999 Q138.03 -27.946821249999985 134.75646375 -24.67328499999998 Q131.48292750000002 -21.399748749999986 127.00308 -21.399748749999986 H105.54441375 Q106.052835 -23.024664999999985 106.43128875000001 -24.89145624999999 Q106.80958125000001 -26.75824749999998 106.80958125000001 -28.457499999999982 Q106.80958125000001 -40.588498749999985 98.17029000000001 -49.18441374999999 Q89.53099875 -57.78016749999999 77.4 -57.78016749999999 Q65.26900125 -57.78016749999999 56.62971 -49.18441374999999 Q47.99041875 -40.588498749999985 48.151668750000006 -28.457499999999982 Q48.151668750000006 -26.75824749999998 48.44933625 -24.89145624999999 Q48.747165 -23.024664999999985 49.41683625 -21.399748749999986 Z"/></g><g id="Ultralight-L" transform="matrix(1 0 0 1 491.205 1556)"><path d="M42.746407500000004 -61.17609249999998 Q43.36157625 -60.546249999999986 44.49774375 -60.546249999999986 Q45.63375 -60.546249999999986 46.424842500000004 -61.17609249999998 L52.7439075 -67.3339075 Q53.37375 -67.99309749999999 53.37375 -69.26842374999998 Q53.37375 -70.54374999999999 52.7439075 -71.33484249999998 L46.424842500000004 -77.3314075 Q45.64842375 -77.96124999999999 44.51225625000001 -77.96124999999999 Q43.37625 -77.96124999999999 42.746407500000004 -77.3314075 L36.4273425 -71.33484249999998 Q35.7975 -70.51440249999999 35.7975 -69.23907624999998 Q35.7975 -67.96374999999999 36.4273425 -67.3339075 L42.746407500000004 -61.17609249999998 Z M106.36807875000001 -64.73874999999998 Q108.92905125 -64.73874999999998 110.74085625000001 -66.41284749999998 Q112.55250000000001 -68.08710624999999 112.55250000000001 -70.64807875 Q112.55250000000001 -73.20905124999999 110.7597225 -75.02085624999998 Q108.96710625 -76.83249999999998 106.40597249999999 -76.83249999999998 Q103.845 -76.83249999999998 102.151875 -75.03972249999998 Q100.45875000000001 -73.24710624999999 100.45875000000001 -70.68597249999998 Q100.45875000000001 -68.12499999999999 102.1328475 -66.43187499999999 Q103.80710625 -64.73874999999998 106.36807875000001 -64.73874999999998 Z M44.98875 24.110000000000014 Q42.73528125 24.110000000000014 41.20131 22.576190000000015 Q39.667500000000004 21.042218750000014 39.667500000000004 18.627500000000015 V15.241250000000015 Q39.667500000000004 11.693750000000016 41.521875 8.630000000000017 Q43.37625 5.566250000000018 46.92375 4.115000000000016 Q54.18 0.8900000000000148 61.75875 -0.8031249999999872 Q69.3375 -2.496249999999982 77.4 -2.496249999999982 Q85.4625 -2.496249999999982 93.04125 -0.8031249999999872 Q100.62 0.8900000000000148 108.03750000000001 4.115000000000016 Q111.42375 5.566250000000018 113.35875 8.630000000000017 Q115.29375 11.693750000000016 115.29375 15.241250000000015 V18.627500000000015 Q115.29375 21.042218750000014 113.67915375 22.576190000000015 Q112.06471875000001 24.110000000000014 109.81125 24.110000000000014 H44.98875 Z M77.4 -12.171249999999986 Q70.88775749999999 -12.171249999999986 66.56512875 -16.57450374999999 Q62.2425 -20.97775749999998 62.2425 -27.48999999999998 Q62.2425 -33.840992499999984 66.56512875 -38.24424624999999 Q70.88775749999999 -42.64749999999998 77.4 -42.64749999999998 Q83.91224249999999 -42.64749999999998 88.31549625 -38.24424624999999 Q92.71875 -33.840992499999984 92.71875 -27.48999999999998 Q92.71875 -20.97775749999998 88.31549625 -16.57450374999999 Q83.91224249999999 -12.171249999999986 77.4 -12.171249999999986 Z M50.31 -21.846249999999984 H29.50875 Q25.074375 -21.846249999999984 21.8896875 -25.03093749999998 Q18.705000000000002 -28.21562499999999 18.705000000000002 -32.64999999999999 V-82.96 Q18.705000000000002 -87.394375 21.8896875 -90.57906249999999 Q25.074375 -93.76374999999999 29.50875 -93.76374999999999 H125.29125 Q129.725625 -93.76374999999999 132.9103125 -90.57906249999999 Q136.095 -87.394375 136.095 -82.96 V-32.64999999999999 Q136.095 -28.21562499999999 132.9103125 -25.03093749999998 Q129.725625 -21.846249999999984 125.29125 -21.846249999999984 H104.65125 Q104.97375000000001 -23.13624999999999 105.29625 -24.66812499999999 Q105.61875 -26.19999999999999 105.61875 -27.48999999999998 Q105.61875 -39.09999999999998 97.314375 -47.32374999999999 Q89.01 -55.547499999999985 77.4 -55.547499999999985 Q65.79 -55.547499999999985 57.485625 -47.32374999999999 Q49.18125 -39.09999999999998 49.3425 -27.48999999999998 Q49.3425 -26.19999999999999 49.584375 -24.66812499999999 Q49.82625 -23.13624999999999 50.31 -21.846249999999984 Z"/></g><g id="Bold-M" transform="matrix(1 0 0 1 2281.8 1126)"><path d="M30.375 -60.10499999999999 Q31.488625 -58.85499999999999 33.3125 -58.85499999999999 Q35.136375 -58.85499999999999 36.375 -60.10499999999999 L40.625 -64.47999999999999 Q41.875 -65.62774999999999 41.875 -67.43449999999999 Q41.875 -69.24137499999999 40.625 -70.47999999999999 L36.375 -74.72999999999999 Q35.14775 -75.97999999999999 33.323875 -75.97999999999999 Q31.5 -75.97999999999999 30.375 -74.72999999999999 L26.0 -70.47999999999999 Q24.875 -69.21862499999999 24.875 -67.411875 Q24.875 -65.60499999999999 26.0 -64.47999999999999 L30.375 -60.10499999999999 Z M82.529375 -60.35499999999999 Q85.875 -60.35499999999999 88.1875 -62.69687499999999 Q90.5 -65.03887499999999 90.5 -68.38437499999999 Q90.5 -71.72999999999999 88.183875 -74.04249999999999 Q85.867625 -76.35499999999999 82.558875 -76.35499999999999 Q79.25 -76.35499999999999 76.875 -74.03887499999999 Q74.5 -71.722625 74.5 -68.41387499999999 Q74.5 -65.10499999999999 76.841875 -62.72999999999999 Q79.183875 -60.35499999999999 82.529375 -60.35499999999999 Z M30.625 26.64500000000001 Q27.175 26.64500000000001 24.65 24.20750000000001 Q22.125 21.77000000000001 22.125 18.14500000000001 V13.27000000000001 Q22.125 8.02000000000001 25.0 3.6450000000000102 Q27.875 -0.7299999999999898 32.625 -2.9799999999999898 Q39.125 -6.10499999999999 46.0 -7.60499999999999 Q52.875 -9.10499999999999 60.0 -9.10499999999999 Q67.125 -9.10499999999999 74.0 -7.60499999999999 Q80.875 -6.10499999999999 87.375 -2.9799999999999898 Q92.125 -0.7299999999999898 95.0 3.6450000000000102 Q97.875 8.02000000000001 97.875 13.27000000000001 V18.14500000000001 Q97.875 21.77000000000001 95.35 24.20750000000001 Q92.825 26.64500000000001 89.375 26.64500000000001 H30.625 Z M59.97225 -14.10499999999999 Q51.45175 -14.10499999999999 45.538375 -20.02024999999999 Q39.625 -25.935624999999987 39.625 -34.41937499999999 Q39.625 -42.903249999999986 45.566125 -48.87912499999999 Q51.507375 -54.85499999999999 60.02775 -54.85499999999999 Q68.54825 -54.85499999999999 74.461625 -48.87912499999999 Q80.375 -42.903249999999986 80.375 -34.41937499999999 Q80.375 -25.935624999999987 74.433875 -20.02024999999999 Q68.492625 -14.10499999999999 59.97225 -14.10499999999999 Z M35.875 -20.10499999999999 H21.25 Q14.109375 -20.10499999999999 9.17975 -25.122249999999987 Q4.25 -30.139374999999987 4.25 -37.10499999999999 V-79.60499999999999 Q4.25 -86.57062499999999 9.17975 -91.58774999999999 Q14.109375 -96.60499999999999 21.25 -96.60499999999999 H98.75 Q105.890625 -96.60499999999999 110.82025 -91.58774999999999 Q115.75 -86.57062499999999 115.75 -79.60499999999999 V-37.10499999999999 Q115.75 -30.139374999999987 110.82025 -25.122249999999987 Q105.890625 -20.10499999999999 98.75 -20.10499999999999 H84.125 Q86.375 -23.97999999999999 87.3125 -28.375874999999986 Q88.25 -32.77162499999999 87.75 -37.10499999999999 Q86.75 -47.85499999999999 78.90375 -55.10499999999999 Q71.057625 -62.35499999999999 60.02875 -62.35499999999999 Q49.0 -62.35499999999999 41.125 -55.10499999999999 Q33.25 -47.85499999999999 32.25 -37.10499999999999 Q31.75 -32.77162499999999 32.6875 -28.375874999999986 Q33.625 -23.97999999999999 35.875 -20.10499999999999 Z"/></g><g id="Semibold-M" transform="matrix(1 0 0 1 1985.97 1126)"><path d="M30.864125 -58.63774999999998 Q31.923375 -57.496374999999986 33.527375 -57.496374999999986 Q35.131375 -57.496374999999986 36.26625 -58.63774999999998 L41.385875 -63.773499999999984 Q42.527125 -64.866875 42.527125 -66.481 Q42.527125 -68.09525 41.385875 -69.23012499999999 L36.26625 -74.29525 Q35.14275 -75.4365 33.53875 -75.4365 Q31.93475 -75.4365 30.864125 -74.29525 L25.673875 -69.23012499999999 Q24.60325 -68.07249999999999 24.60325 -66.45837499999999 Q24.60325 -64.84412499999999 25.673875 -63.773499999999984 L30.864125 -58.63774999999998 Z M82.51025 -59.757249999999985 Q85.98375 -59.757249999999985 88.404875 -62.18862499999999 Q90.826125 -64.61999999999999 90.826125 -68.09349999999999 Q90.826125 -71.567 88.40925 -73.988125 Q85.992375 -76.40937499999998 82.539625 -76.40937499999998 Q79.087 -76.40937499999998 76.6305 -73.99249999999999 Q74.173875 -71.57562499999999 74.173875 -68.122875 Q74.173875 -64.67025 76.605375 -62.21374999999999 Q79.03675 -59.757249999999985 82.51025 -59.757249999999985 Z M30.35325 25.82987500000001 Q27.207625 25.82987500000001 24.938 23.60975000000001 Q22.6685 21.38962500000001 22.6685 18.14500000000001 V12.99825000000001 Q22.6685 7.85700000000001 25.461875 3.6178750000000086 Q28.255375 -0.6212499999999892 32.89675 -2.8169999999999895 Q39.342375 -5.833249999999989 46.135875 -7.3332499999999925 Q52.929375 -8.833249999999992 60.0 -8.833249999999992 Q67.070625 -8.833249999999992 73.864125 -7.3332499999999925 Q80.657625 -5.833249999999989 87.10325 -2.8169999999999895 Q91.744625 -0.6212499999999892 94.538125 3.6178750000000086 Q97.3315 7.85700000000001 97.3315 12.99825000000001 V18.14500000000001 Q97.3315 21.38962500000001 95.062 23.60975000000001 Q92.792375 25.82987500000001 89.64675 25.82987500000001 H30.35325 Z M59.98425 -13.833249999999992 Q51.7235 -13.833249999999992 45.946 -19.61187499999999 Q40.1685 -25.39049999999999 40.1685 -33.63062499999999 Q40.1685 -41.87062499999999 45.961625 -47.683499999999995 Q51.754875 -53.496374999999986 60.01575 -53.496374999999986 Q68.2765 -53.496374999999986 74.054 -47.683499999999995 Q79.8315 -41.87062499999999 79.8315 -33.63062499999999 Q79.8315 -25.39049999999999 74.038375 -19.61187499999999 Q68.245125 -13.833249999999992 59.98425 -13.833249999999992 Z M35.820625 -20.702749999999988 H20.3805 Q13.968125 -20.702749999999988 9.4895 -25.23087499999999 Q5.010875 -29.758999999999993 5.010875 -36.07249999999999 V-80.09412499999999 Q5.010875 -86.407625 9.4895 -90.93562499999999 Q13.968125 -95.46374999999999 20.3805 -95.46374999999999 H99.6195 Q106.031875 -95.46374999999999 110.5105 -90.93562499999999 Q114.989125 -86.407625 114.989125 -80.09412499999999 V-36.07249999999999 Q114.989125 -29.758999999999993 110.5105 -25.23087499999999 Q106.031875 -20.702749999999988 99.6195 -20.702749999999988 H84.179375 Q86.048875 -24.251749999999987 86.823375 -28.203749999999992 Q87.597875 -32.15574999999999 87.2065 -36.07249999999999 Q86.260875 -46.65937499999998 78.56525 -53.82787499999999 Q70.8695 -60.996374999999986 60.01625 -60.996374999999986 Q49.163 -60.996374999999986 41.451125 -53.82787499999999 Q33.739125 -46.65937499999998 32.7935 -36.07249999999999 Q32.402125 -32.15574999999999 33.176625 -28.203749999999992 Q33.951125 -24.251749999999987 35.820625 -20.702749999999988 Z"/></g><g id="Medium-M" transform="matrix(1 0 0 1 1689.91 1126)"><path d="M31.231 -57.53712499999999 Q32.2495 -56.477249999999984 33.688625 -56.477249999999984 Q35.12775 -56.477249999999984 36.18475 -57.53712499999999 L41.9565 -63.243624999999994 Q43.01625 -64.29624999999999 43.01625 -65.765875 Q43.01625 -67.23549999999999 41.9565 -68.29249999999999 L36.18475 -73.96912499999999 Q35.139125 -75.02887499999999 33.7 -75.02887499999999 Q32.260875 -75.02887499999999 31.231 -73.96912499999999 L25.429375 -68.29249999999999 Q24.3995 -67.21274999999999 24.3995 -65.74312499999999 Q24.3995 -64.27349999999998 25.429375 -63.243624999999994 L31.231 -57.53712499999999 Z M82.495875 -59.30874999999999 Q86.06525 -59.30874999999999 88.567875 -61.80737499999999 Q91.070625 -64.30587499999999 91.070625 -67.87525 Q91.070625 -71.44462499999999 88.57825 -73.947375 Q86.085875 -76.45012499999999 82.52525 -76.45012499999999 Q78.964625 -76.45012499999999 76.447 -73.95774999999999 Q73.929375 -71.46524999999998 73.929375 -67.90474999999999 Q73.929375 -64.34412499999999 76.427875 -61.826499999999996 Q78.9265 -59.30874999999999 82.495875 -59.30874999999999 Z M30.1495 25.21837500000001 Q27.232125 25.21837500000001 25.154125 23.16125000000001 Q23.076125 21.10425000000001 23.076125 18.14500000000001 V12.79450000000001 Q23.076125 7.734625000000012 25.808375 3.597500000000011 Q28.54075 -0.5397499999999908 33.1005 -2.6946249999999914 Q39.505375 -5.6294999999999895 46.23775 -7.1294999999999895 Q52.970125 -8.629499999999993 60.0 -8.629499999999993 Q67.029875 -8.629499999999993 73.76225 -7.1294999999999895 Q80.494625 -5.6294999999999895 86.8995 -2.6946249999999914 Q91.45925 -0.5397499999999908 94.191625 3.597500000000011 Q96.923875 7.734625000000012 96.923875 12.79450000000001 V18.14500000000001 Q96.923875 21.10425000000001 94.845875 23.16125000000001 Q92.767875 25.21837500000001 89.8505 25.21837500000001 H30.1495 Z M59.993375 -13.629499999999993 Q51.927375 -13.629499999999993 46.25175 -19.305499999999988 Q40.576125 -24.981624999999987 40.576125 -33.03887499999999 Q40.576125 -41.09612499999999 46.258375 -46.786749999999984 Q51.940625 -52.477249999999984 60.006625 -52.477249999999984 Q68.072625 -52.477249999999984 73.74825 -46.786749999999984 Q79.423875 -41.09612499999999 79.423875 -33.03887499999999 Q79.423875 -24.981624999999987 73.741625 -19.305499999999988 Q68.059375 -13.629499999999993 59.993375 -13.629499999999993 Z M35.779875 -21.15124999999999 H19.72825 Q13.862125 -21.15124999999999 9.72175 -25.31237499999999 Q5.5815 -29.47362499999999 5.5815 -35.29799999999999 V-80.46099999999998 Q5.5815 -86.28524999999999 9.72175 -90.44649999999999 Q13.862125 -94.60775 19.72825 -94.60775 H100.27175 Q106.137875 -94.60775 110.27825 -90.44649999999999 Q114.4185 -86.28524999999999 114.4185 -80.46099999999998 V-35.29799999999999 Q114.4185 -29.47362499999999 110.27825 -25.31237499999999 Q106.137875 -21.15124999999999 100.27175 -21.15124999999999 H84.220125 Q85.804375 -24.455499999999986 86.4565 -28.07462499999999 Q87.10875 -31.693749999999987 86.798875 -35.29799999999999 Q85.894 -45.762624999999986 78.31125 -52.86999999999999 Q70.7285 -59.977249999999984 60.006875 -59.977249999999984 Q49.285375 -59.977249999999984 41.695625 -52.86999999999999 Q34.106 -45.762624999999986 33.201125 -35.29799999999999 Q32.89125 -31.693749999999987 33.5435 -28.07462499999999 Q34.195625 -24.455499999999986 35.779875 -21.15124999999999 Z"/></g><g id="Regular-M" transform="matrix(1 0 0 1 1394.06 1126)"><path d="M31.5 -56.72999999999999 Q32.488625 -55.72999999999999 33.806875 -55.72999999999999 Q35.125 -55.72999999999999 36.125 -56.72999999999999 L42.375 -62.85499999999999 Q43.375 -63.87774999999999 43.375 -65.24137499999999 Q43.375 -66.60499999999999 42.375 -67.60499999999999 L36.125 -73.72999999999999 Q35.136375 -74.72999999999999 33.818125 -74.72999999999999 Q32.5 -74.72999999999999 31.5 -73.72999999999999 L25.25 -67.60499999999999 Q24.25 -66.58224999999999 24.25 -65.21862499999999 Q24.25 -63.85499999999999 25.25 -62.85499999999999 L31.5 -56.72999999999999 Z M82.48525 -58.97999999999999 Q86.125 -58.97999999999999 88.6875 -61.52774999999998 Q91.25 -64.07562499999999 91.25 -67.71524999999998 Q91.25 -71.35499999999999 88.70225 -73.91749999999999 Q86.154375 -76.47999999999999 82.51475 -76.47999999999999 Q78.875 -76.47999999999999 76.3125 -73.93225 Q73.75 -71.38437499999999 73.75 -67.74475 Q73.75 -64.10499999999999 76.29775 -61.54249999999999 Q78.845625 -58.97999999999999 82.48525 -58.97999999999999 Z M30.0 24.77000000000001 Q27.25 24.77000000000001 25.3125 22.83250000000001 Q23.375 20.89500000000001 23.375 18.14500000000001 V12.64500000000001 Q23.375 7.64500000000001 26.0625 3.5825000000000102 Q28.75 -0.47999999999998977 33.25 -2.6049999999999898 Q39.625 -5.47999999999999 46.3125 -6.97999999999999 Q53.0 -8.47999999999999 60.0 -8.47999999999999 Q67.0 -8.47999999999999 73.6875 -6.97999999999999 Q80.375 -5.47999999999999 86.75 -2.6049999999999898 Q91.25 -0.47999999999998977 93.9375 3.5825000000000102 Q96.625 7.64500000000001 96.625 12.64500000000001 V18.14500000000001 Q96.625 20.89500000000001 94.6875 22.83250000000001 Q92.75 24.77000000000001 90.0 24.77000000000001 H30.0 Z M60.0 -13.47999999999999 Q52.07675 -13.47999999999999 46.475875 -19.080874999999992 Q40.875 -24.681749999999987 40.875 -32.60499999999999 Q40.875 -40.528249999999986 46.475875 -46.12912499999999 Q52.07675 -51.72999999999999 60.0 -51.72999999999999 Q67.92325 -51.72999999999999 73.524125 -46.12912499999999 Q79.125 -40.528249999999986 79.125 -32.60499999999999 Q79.125 -24.681749999999987 73.524125 -19.080874999999992 Q67.92325 -13.47999999999999 60.0 -13.47999999999999 Z M35.75 -21.47999999999999 H19.25 Q13.784375 -21.47999999999999 9.89225 -25.372249999999987 Q6.0 -29.264374999999987 6.0 -34.72999999999999 V-80.72999999999999 Q6.0 -86.19562499999999 9.89225 -90.08774999999999 Q13.784375 -93.97999999999999 19.25 -93.97999999999999 H100.75 Q106.215625 -93.97999999999999 110.10775 -90.08774999999999 Q114.0 -86.19562499999999 114.0 -80.72999999999999 V-34.72999999999999 Q114.0 -29.264374999999987 110.10775 -25.372249999999987 Q106.215625 -21.47999999999999 100.75 -21.47999999999999 H84.25 Q85.625 -24.60499999999999 86.1875 -27.97999999999999 Q86.75 -31.35499999999999 86.5 -34.72999999999999 Q85.625 -45.10499999999999 78.125 -52.16749999999999 Q70.625 -59.22999999999999 60.0 -59.22999999999999 Q49.375 -59.22999999999999 41.875 -52.16749999999999 Q34.375 -45.10499999999999 33.5 -34.72999999999999 Q33.25 -31.35499999999999 33.8125 -27.97999999999999 Q34.375 -24.60499999999999 35.75 -21.47999999999999 Z"/></g><g id="Light-M" transform="matrix(1 0 0 1 1098.18 1126)"><path d="M31.692375 -56.58574999999999 Q32.632875 -55.63387499999999 33.830875 -55.63387499999999 Q35.028875 -55.63387499999999 35.98075 -56.58574999999999 L41.60575 -62.08574999999999 Q42.557625 -63.06037499999999 42.557625 -64.32787499999999 Q42.557625 -65.59525 41.60575 -66.54724999999999 L35.98075 -72.047125 Q35.04025 -72.99912499999999 33.84225 -72.99912499999999 Q32.64425 -72.99912499999999 31.692375 -72.047125 L26.067375 -66.54724999999999 Q25.1155 -65.57262499999999 25.1155 -64.30512499999999 Q25.1155 -63.03762499999999 26.067375 -62.08574999999999 L31.692375 -56.58574999999999 Z M82.48525 -58.30687499999999 Q85.596125 -58.30687499999999 87.798 -60.494125 Q89.999875 -62.68124999999999 89.999875 -65.79212499999998 Q89.999875 -68.902875 87.81275 -71.10475 Q85.6255 -73.30675 82.51475 -73.30675 Q79.403875 -73.30675 77.202 -71.11949999999999 Q75.000125 -68.93225 75.000125 -65.82149999999999 Q75.000125 -62.71062499999999 77.18725 -60.50874999999999 Q79.3745 -58.30687499999999 82.48525 -58.30687499999999 Z M32.019375 20.34662500000001 Q29.46175 20.34662500000001 27.6685 18.55337500000001 Q25.875125 16.76012500000001 25.875125 14.20237500000001 V9.95250000000001 Q25.875125 5.673750000000009 28.154 2.2122500000000116 Q30.432875 -1.2492499999999893 34.30775 -3.0377499999999884 Q40.4905 -5.768499999999989 46.865375 -7.22037499999999 Q53.240375 -8.672374999999988 60.0 -8.672374999999988 Q66.759625 -8.672374999999988 73.134625 -7.22037499999999 Q79.5095 -5.768499999999989 85.69225 -3.0377499999999884 Q89.567125 -1.2492499999999893 91.846 2.2122500000000116 Q94.124875 5.673750000000009 94.124875 9.95250000000001 V14.20237500000001 Q94.124875 16.76012500000001 92.3315 18.55337500000001 Q90.53825 20.34662500000001 87.980625 20.34662500000001 H32.019375 Z M60.0 -14.633874999999989 Q53.0865 -14.633874999999989 48.230875 -19.48962499999999 Q43.375125 -24.345249999999993 43.375125 -31.258749999999992 Q43.375125 -38.17224999999999 48.230875 -43.027874999999995 Q53.0865 -47.883624999999995 60.0 -47.883624999999995 Q66.9135 -47.883624999999995 71.769125 -43.027874999999995 Q76.624875 -38.17224999999999 76.624875 -31.258749999999992 Q76.624875 -24.345249999999993 71.769125 -19.48962499999999 Q66.9135 -14.633874999999989 60.0 -14.633874999999989 Z M36.903875 -22.056999999999988 H20.788625 Q15.6595 -22.056999999999988 12.079875 -25.636624999999988 Q8.500125 -29.216249999999988 8.500125 -34.34537499999999 V-77.26825 Q8.500125 -82.39724999999999 12.079875 -85.97687499999999 Q15.6595 -89.556625 20.788625 -89.556625 H99.211375 Q104.3405 -89.556625 107.920125 -85.97687499999999 Q111.499875 -82.39724999999999 111.499875 -77.26825 V-34.34537499999999 Q111.499875 -29.216249999999988 107.920125 -25.636624999999988 Q104.3405 -22.056999999999988 99.211375 -22.056999999999988 H83.096125 Q84.230625 -24.55687499999999 84.697 -27.30687499999999 Q85.163375 -30.05687499999999 85.0095 -32.80674999999999 Q84.374875 -42.748999999999995 77.2595 -49.547124999999994 Q70.14425 -56.345124999999996 60.0 -56.345124999999996 Q49.85575 -56.345124999999996 42.7405 -49.547124999999994 Q35.625125 -42.748999999999995 34.9905 -32.80674999999999 Q34.836625 -30.05687499999999 35.303 -27.30687499999999 Q35.769375 -24.55687499999999 36.903875 -22.056999999999988 Z"/></g><g id="Thin-M" transform="matrix(1 0 0 1 802.565 1126)"><path d="M31.884625 -56.44149999999999 Q32.777125 -55.53774999999999 33.854875 -55.53774999999999 Q34.93275 -55.53774999999999 35.8365 -56.44149999999999 L40.8365 -61.31649999999999 Q41.740375 -62.24312499999999 41.740375 -63.41449999999999 Q41.740375 -64.58574999999999 40.8365 -65.48962499999999 L35.8365 -70.36462499999999 Q34.944 -71.26849999999999 33.86625 -71.26849999999999 Q32.7885 -71.26849999999999 31.884625 -70.36462499999999 L26.884625 -65.48962499999999 Q25.98075 -64.56299999999999 25.98075 -63.39174999999999 Q25.98075 -62.22037499999999 26.884625 -61.31649999999999 L31.884625 -56.44149999999999 Z M82.48525 -57.63387499999999 Q85.067375 -57.63387499999999 86.908625 -59.460499999999996 Q88.75 -61.28712499999999 88.75 -63.869125 Q88.75 -66.45112499999999 86.923375 -68.29249999999999 Q85.09675 -70.13387499999999 82.51475 -70.13387499999999 Q79.932625 -70.13387499999999 78.091375 -68.30725 Q76.25 -66.48062499999999 76.25 -63.898624999999996 Q76.25 -61.31649999999999 78.076625 -59.47524999999999 Q79.90325 -57.63387499999999 82.48525 -57.63387499999999 Z M34.038375 15.92387500000001 Q31.673 15.92387500000001 30.024 14.27487500000001 Q28.375 12.62587500000001 28.375 10.26037500000001 V7.2603750000000105 Q28.375 3.702750000000009 30.245125 0.84212500000001 Q32.115375 -2.018499999999989 35.365375 -3.47037499999999 Q41.35575 -6.056874999999991 47.41825 -7.46074999999999 Q53.48075 -8.86462499999999 60.0 -8.86462499999999 Q66.51925 -8.86462499999999 72.58175 -7.46074999999999 Q78.64425 -6.056874999999991 84.634625 -3.47037499999999 Q87.884625 -2.018499999999989 89.754875 0.84212500000001 Q91.625 3.702750000000009 91.625 7.2603750000000105 V10.26037500000001 Q91.625 12.62587500000001 89.976 14.27487500000001 Q88.327 15.92387500000001 85.961625 15.92387500000001 H34.038375 Z M60.0 -15.787624999999991 Q54.096 -15.787624999999991 49.9855 -19.89824999999999 Q45.875 -24.008749999999992 45.875 -29.91274999999999 Q45.875 -35.81674999999999 49.9855 -39.92724999999999 Q54.096 -44.03774999999999 60.0 -44.03774999999999 Q65.904 -44.03774999999999 70.0145 -39.92724999999999 Q74.125 -35.81674999999999 74.125 -29.91274999999999 Q74.125 -24.008749999999992 70.0145 -19.89824999999999 Q65.904 -15.787624999999991 60.0 -15.787624999999991 Z M38.057625 -22.63387499999999 H22.326875 Q17.534375 -22.63387499999999 14.267125 -25.90099999999999 Q11.0 -29.168249999999986 11.0 -33.96074999999999 V-73.80699999999999 Q11.0 -78.59949999999999 14.267125 -81.86675 Q17.534375 -85.13387499999999 22.326875 -85.13387499999999 H97.673125 Q102.465625 -85.13387499999999 105.732875 -81.86675 Q109.0 -78.59949999999999 109.0 -73.80699999999999 V-33.96074999999999 Q109.0 -29.168249999999986 105.732875 -25.90099999999999 Q102.465625 -22.63387499999999 97.673125 -22.63387499999999 H81.942375 Q82.8365 -24.50887499999999 83.20675 -26.63387499999999 Q83.577 -28.75887499999999 83.51925 -30.88387499999999 Q83.125 -40.39349999999999 76.39425 -46.92712499999999 Q69.6635 -53.46074999999999 60.0 -53.46074999999999 Q50.3365 -53.46074999999999 43.60575 -46.92712499999999 Q36.875 -40.39349999999999 36.48075 -30.88387499999999 Q36.423 -28.75887499999999 36.79325 -26.63387499999999 Q37.1635 -24.50887499999999 38.057625 -22.63387499999999 Z"/></g><g id="Ultralight-M" transform="matrix(1 0 0 1 506.415 1126)"><path d="M32.0 -56.35499999999999 Q32.863625 -55.47999999999999 33.869375 -55.47999999999999 Q34.875 -55.47999999999999 35.75 -56.35499999999999 L40.375 -60.85499999999999 Q41.25 -61.75274999999999 41.25 -62.86637499999999 Q41.25 -63.97999999999999 40.375 -64.85499999999999 L35.75 -69.35499999999999 Q34.886375 -70.22999999999999 33.880625 -70.22999999999999 Q32.875 -70.22999999999999 32.0 -69.35499999999999 L27.375 -64.85499999999999 Q26.5 -63.95724999999999 26.5 -62.84362499999999 Q26.5 -61.72999999999999 27.375 -60.85499999999999 L32.0 -56.35499999999999 Z M82.48525 -57.22999999999999 Q84.75 -57.22999999999999 86.375 -58.84024999999998 Q88.0 -60.45062499999999 88.0 -62.71524999999998 Q88.0 -64.97999999999999 86.38975 -66.60499999999999 Q84.779375 -68.22999999999999 82.51475 -68.22999999999999 Q80.25 -68.22999999999999 78.625 -66.61975 Q77.0 -65.00937499999999 77.0 -62.744749999999996 Q77.0 -60.47999999999999 78.61025 -58.85499999999999 Q80.220625 -57.22999999999999 82.48525 -57.22999999999999 Z M35.25 13.27000000000001 Q33.0 13.27000000000001 31.4375 11.70750000000001 Q29.875 10.14500000000001 29.875 7.89500000000001 V5.64500000000001 Q29.875 2.5200000000000102 31.5 0.020000000000010232 Q33.125 -2.4799999999999898 36.0 -3.7299999999999898 Q41.875 -6.22999999999999 47.75 -7.60499999999999 Q53.625 -8.97999999999999 60.0 -8.97999999999999 Q66.375 -8.97999999999999 72.25 -7.60499999999999 Q78.125 -6.22999999999999 84.0 -3.7299999999999898 Q86.875 -2.4799999999999898 88.5 0.020000000000010232 Q90.125 2.5200000000000102 90.125 5.64500000000001 V7.89500000000001 Q90.125 10.14500000000001 88.5625 11.70750000000001 Q87.0 13.27000000000001 84.75 13.27000000000001 H35.25 Z M60.0 -16.47999999999999 Q54.70175 -16.47999999999999 51.038375 -20.143374999999992 Q47.375 -23.806749999999987 47.375 -29.10499999999999 Q47.375 -34.40324999999999 51.038375 -38.06662499999999 Q54.70175 -41.72999999999999 60.0 -41.72999999999999 Q65.29825 -41.72999999999999 68.961625 -38.06662499999999 Q72.625 -34.40324999999999 72.625 -29.10499999999999 Q72.625 -23.806749999999987 68.961625 -20.143374999999992 Q65.29825 -16.47999999999999 60.0 -16.47999999999999 Z M38.75 -22.97999999999999 H23.25 Q18.659375 -22.97999999999999 15.579625 -26.059749999999987 Q12.5 -29.139374999999987 12.5 -33.72999999999999 V-71.72999999999999 Q12.5 -76.32062499999999 15.579625 -79.40024999999999 Q18.659375 -82.47999999999999 23.25 -82.47999999999999 H96.75 Q101.340625 -82.47999999999999 104.42025 -79.40024999999999 Q107.5 -76.32062499999999 107.5 -71.72999999999999 V-33.72999999999999 Q107.5 -29.139374999999987 104.42025 -26.059749999999987 Q101.340625 -22.97999999999999 96.75 -22.97999999999999 H81.25 Q82.0 -24.47999999999999 82.3125 -26.22999999999999 Q82.625 -27.97999999999999 82.625 -29.72999999999999 Q82.375 -38.97999999999999 75.875 -45.35499999999999 Q69.375 -51.72999999999999 60.0 -51.72999999999999 Q50.625 -51.72999999999999 44.125 -45.35499999999999 Q37.625 -38.97999999999999 37.375 -29.72999999999999 Q37.375 -27.97999999999999 37.6875 -26.22999999999999 Q38.0 -24.47999999999999 38.75 -22.97999999999999 Z"/></g><g id="Bold-S" transform="matrix(1 0 0 1 2294.23 696)"><path d="M27.19584375 -55.17690624999999 Q28.000525125 -54.264624999999995 29.4395625 -54.264624999999995 Q30.878599875000003 -54.264624999999995 31.781906250000002 -55.17690624999999 L34.494093750000005 -57.987718749999985 Q35.406375000000004 -58.81932474999999 35.406375000000004 -60.244850499999984 Q35.406375000000004 -61.670474875 34.494093750000005 -62.573781249999996 L31.781906250000002 -65.28596875 Q30.887574750000002 -66.19824999999999 29.448537375 -66.19824999999999 Q28.009500000000003 -66.19824999999999 27.19584375 -65.28596875 L24.38503125 -62.573781249999996 Q23.571375 -61.65252512499998 23.571375 -60.22699937499999 Q23.571375 -58.80137499999999 24.38503125 -57.987718749999985 L27.19584375 -55.17690624999999 Z M66.299176875 -56.631624999999985 Q68.44575 -56.631624999999985 69.92512500000001 -58.134176874999994 Q71.4045 -59.636827374999996 71.4045 -61.78330187499999 Q71.4045 -63.929874999999996 69.92226487500001 -65.40924999999999 Q68.439931125 -66.88862499999999 66.322452375 -66.88862499999999 Q64.204875 -66.88862499999999 62.676187500000005 -65.40638987499999 Q61.1475 -63.92405612499999 61.1475 -61.80657737499999 Q61.1475 -59.68899999999999 62.650051875 -58.16031249999999 Q64.152702375 -56.631624999999985 66.299176875 -56.631624999999985 Z M27.713625 12.800375000000013 Q25.1592375 12.800375000000013 23.280431250000003 10.990606250000013 Q21.401625 9.180837500000013 21.401625 6.488375000000014 V2.0502500000000126 Q21.401625 -1.3289383749999875 23.1275625 -4.126830999999989 Q24.8535 -6.924624999999988 27.910875 -8.403999999999986 Q32.54625 -10.672374999999988 37.378875 -11.855874999999987 Q42.2115 -13.039374999999989 47.34 -13.039374999999989 Q52.4685 -13.039374999999989 57.301125 -11.855874999999987 Q62.133750000000006 -10.672374999999988 66.769125 -8.403999999999986 Q69.82650000000001 -6.924624999999988 71.5524375 -4.126830999999989 Q73.278375 -1.3289383749999875 73.278375 2.0502500000000126 V6.488375000000014 Q73.278375 9.180837500000013 71.39956875000001 10.990606250000013 Q69.5207625 12.800375000000013 66.966375 12.800375000000013 H27.713625 Z M47.298183 -17.773374999999987 Q41.38443075 -17.773374999999987 37.310527875000005 -21.868679499999985 Q33.236625000000004 -25.96408262499999 33.236625000000004 -31.848839124999984 Q33.236625000000004 -37.73369424999999 37.352344875 -41.856909624999986 Q41.468163375 -45.98012499999999 47.381817 -45.98012499999999 Q53.29556925 -45.98012499999999 57.369472125 -41.836987374999985 Q61.443375 -37.69384974999999 61.443375 -31.80899462499999 Q61.443375 -25.924238124999988 57.327655125 -21.84875724999999 Q53.211836625000004 -17.773374999999987 47.298183 -17.773374999999987 Z M30.57375 -26.45237499999999 H17.55525 Q12.246759375 -26.45237499999999 8.589053999999999 -30.17911787499999 Q4.93125 -33.90595937499999 4.93125 -39.07637499999999 V-70.241875 Q4.93125 -75.41229062499998 8.589053999999999 -79.13913212499999 Q12.246759375 -82.86587499999999 17.55525 -82.86587499999999 H77.12475 Q82.43324062500001 -82.86587499999999 86.090946 -79.13913212499999 Q89.74875 -75.41229062499998 89.74875 -70.241875 V-39.07637499999999 Q89.74875 -33.90595937499999 86.090946 -30.17911787499999 Q82.43324062500001 -26.45237499999999 77.12475 -26.45237499999999 H64.10625 Q65.28975 -29.50974999999999 65.43768750000001 -32.731532874999985 Q65.58562500000001 -35.95321712499999 64.59937500000001 -39.07637499999999 Q62.626875000000005 -44.303499999999985 58.01418375 -47.50881249999999 Q53.401591125 -50.71412499999999 47.36268375 -50.71412499999999 Q41.323875 -50.71412499999999 36.688500000000005 -47.50881249999999 Q32.053125 -44.303499999999985 30.080625 -39.07637499999999 Q29.094375000000003 -35.95321712499999 29.2423125 -32.731532874999985 Q29.39025 -29.50974999999999 30.57375 -26.45237499999999 Z"/></g><g id="Semibold-S" transform="matrix(1 0 0 1 1998.1 696)"><path d="M27.581763375 -54.01924599999998 Q28.343542875 -53.19266987499999 29.609098875 -53.19266987499999 Q30.874654875 -53.19266987499999 31.696102500000002 -54.01924599999998 L35.094424125 -57.430290249999985 Q35.920901625 -58.218994374999994 35.920901625 -59.492538999999994 Q35.920901625 -60.766182249999986 35.094424125 -61.58762987499999 L31.696102500000002 -64.942951 Q30.88362975 -65.76942849999999 29.61807375 -65.76942849999999 Q28.35251775 -65.76942849999999 27.581763375 -64.942951 L24.127718625 -61.58762987499999 Q23.35696425 -60.748232499999986 23.35696425 -59.47468787499999 Q23.35696425 -58.201044624999994 24.127718625 -57.430290249999985 L27.581763375 -54.01924599999998 Z M66.28408725 -56.16000024999998 Q68.53155375 -56.16000024999998 70.09663387500001 -57.73316762499999 Q71.66181262500001 -59.30633499999999 71.66181262500001 -61.55380149999999 Q71.66181262500001 -63.80126799999999 70.10008575 -65.366348125 Q68.538358875 -66.93152687499999 66.307264125 -66.93152687499999 Q64.076268 -66.93152687499999 62.483277 -65.3698 Q60.890187375 -63.80807312499999 60.890187375 -61.576978374999996 Q60.890187375 -59.34598224999999 62.463453375 -57.752991249999994 Q64.03662075 -56.16000024999998 66.28408725 -56.16000024999998 Z M27.499214250000005 12.157241375000014 Q25.184978625 12.157241375000014 23.507663250000004 10.518981500000013 Q21.8304465 8.880721625000014 21.8304465 6.488375000000014 V1.8358392500000118 Q21.8304465 -1.457545374999988 23.491981875 -4.148232624999984 Q25.153615875000003 -6.838821249999988 28.12528575 -8.275392999999987 Q32.717758875 -10.457964249999986 37.486080375 -11.641464249999988 Q42.254401875 -12.824964249999987 47.34 -12.824964249999987 Q52.42559812500001 -12.824964249999987 57.19391962500001 -11.641464249999988 Q61.962241125 -10.457964249999986 66.55471425 -8.275392999999987 Q69.526384125 -6.838821249999988 71.188018125 -4.148232624999984 Q72.84955350000001 -1.457545374999988 72.84955350000001 1.8358392500000118 V6.488375000000014 Q72.84955350000001 8.880721625000014 71.17233675 10.518981500000013 Q69.49502137500001 12.157241375000014 67.18078575 12.157241375000014 H27.499214250000005 Z M47.30765100000001 -17.55896424999999 Q41.598841500000006 -17.55896424999999 37.632144 -21.546471624999988 Q33.6654465 -25.533978999999988 33.6654465 -31.226515374999984 Q33.6654465 -36.91895312499999 37.664394375 -40.91356149999999 Q41.663440875 -44.908169874999984 47.372349 -44.908169874999984 Q53.0811585 -44.908169874999984 57.047856 -40.89363924999999 Q61.014553500000005 -36.879108624999986 61.014553500000005 -31.18667087499999 Q61.014553500000005 -25.494134499999987 57.015605625000006 -21.526549374999988 Q53.016559125 -17.55896424999999 47.30765100000001 -17.55896424999999 Z M30.530848125000002 -26.923999749999986 H16.869214500000002 Q12.135313125000001 -26.923999749999986 8.83344675 -30.264921624999985 Q5.531580375000001 -33.605843499999985 5.531580375000001 -38.26173249999999 V-70.62779462499999 Q5.531580375000001 -75.283683625 8.83344675 -78.624506875 Q12.135313125000001 -81.96542874999999 16.869214500000002 -81.96542874999999 H77.81078550000001 Q82.54468687500001 -81.96542874999999 85.84655325 -78.624506875 Q89.148419625 -75.283683625 89.148419625 -70.62779462499999 V-38.26173249999999 Q89.148419625 -33.605843499999985 85.84655325 -30.264921624999985 Q82.54468687500001 -26.923999749999986 77.81078550000001 -26.923999749999986 H64.149151875 Q65.032437375 -29.72416074999999 65.051767875 -32.59572624999999 Q65.071098375 -35.46729174999999 64.17055350000001 -38.26173249999999 Q62.240955375 -43.360151874999985 57.747107250000006 -46.50116087499999 Q53.25316050000001 -49.642169874999986 47.35282125 -49.642169874999986 Q41.452481999999996 -49.642169874999986 36.945812625 -46.50116087499999 Q32.439044625 -43.360151874999985 30.509446500000003 -38.26173249999999 Q29.608901625 -35.46729174999999 29.628232125000004 -32.59572624999999 Q29.647562625 -29.72416074999999 30.530848125000002 -26.923999749999986 Z"/></g><g id="Medium-S" transform="matrix(1 0 0 1 1701.85 696)"><path d="M27.871227750000003 -53.150852874999984 Q28.600855499999998 -52.38858024999999 29.736325125000004 -52.38858024999999 Q30.87179475 -52.38858024999999 31.631799 -53.150852874999984 L35.54464725 -57.01221887499999 Q36.30682125 -57.768771249999986 36.30682125 -58.928305374999994 Q36.30682125 -60.08783949999999 35.54464725 -60.847843749999996 L31.631799 -64.685638375 Q30.880769625000003 -65.44781237499998 29.745300000000004 -65.44781237499998 Q28.609830375 -65.44781237499998 27.871227750000003 -64.685638375 L23.934808125 -60.847843749999996 Q23.1962055 -60.06988974999999 23.1962055 -58.910355624999994 Q23.1962055 -57.75082149999999 23.934808125 -57.01221887499999 L27.871227750000003 -53.150852874999984 Z M66.272745375 -55.80613374999999 Q68.59585725000001 -55.80613374999999 70.225240875 -57.432361375 Q71.854723125 -59.05849037499999 71.854723125 -61.381602249999986 Q71.854723125 -63.70471412499998 70.23342675 -65.33419637499999 Q68.612130375 -66.96367862499999 66.29592225 -66.96367862499999 Q63.979714125 -66.96367862499999 62.33849550000001 -65.34238224999999 Q60.697276875 -63.72098724999998 60.697276875 -61.40487775 Q60.697276875 -59.088669624999994 62.323405875000006 -57.447451 Q63.949633500000004 -55.80613374999999 66.272745375 -55.80613374999999 Z M27.338455500000006 11.674767875000013 Q25.204309124999998 11.674767875000013 23.678185875 10.165115000000014 Q22.152062625000003 8.655560750000014 22.152062625000003 6.488375000000014 V1.6750805000000124 Q22.152062625000003 -1.554099249999986 23.765370375000003 -4.164308499999986 Q25.378776750000004 -6.774517749999987 28.2860445 -8.178839124999989 Q32.846365875000004 -10.297205499999986 37.56645975 -11.480705499999988 Q42.286553625 -12.664205499999987 47.34 -12.664205499999987 Q52.393446375 -12.664205499999987 57.11354025 -11.480705499999988 Q61.833634125 -10.297205499999986 66.3939555 -8.178839124999989 Q69.30122325 -6.774517749999987 70.914629625 -4.164308499999986 Q72.527937375 -1.554099249999986 72.527937375 1.6750805000000124 V6.488375000000014 Q72.527937375 8.655560750000014 71.00181412500001 10.165115000000014 Q69.475690875 11.674767875000013 67.3415445 11.674767875000013 H27.338455500000006 Z M47.314850625000005 -17.39820549999999 Q41.759698875 -17.39820549999999 37.87338075 -21.304741749999984 Q33.987062625 -25.211376624999986 33.987062625 -30.759624624999987 Q33.987062625 -36.30787262499999 37.898530125 -40.20602574999998 Q41.809997625 -44.10408024999998 47.365149375 -44.10408024999998 Q52.920301125 -44.10408024999998 56.806619250000004 -40.18610349999999 Q60.692937375 -36.26802812499999 60.692937375 -30.719780124999986 Q60.692937375 -25.171532124999985 56.781469875 -21.284819499999983 Q52.870002375000006 -17.39820549999999 47.314850625000005 -17.39820549999999 Z M30.498696374999998 -27.277866249999988 H16.35458925 Q12.051679125000001 -27.277866249999988 9.016692 -30.329225124999994 Q5.981803500000001 -33.38068262499999 5.981803500000001 -37.65065199999999 V-70.91725899999999 Q5.981803500000001 -75.18712975 9.016692 -78.23858725 Q12.051679125000001 -81.29004474999999 16.35458925 -81.29004474999999 H78.32541075 Q82.628320875 -81.29004474999999 85.663308 -78.23858725 Q88.6981965 -75.18712975 88.6981965 -70.91725899999999 V-37.65065199999999 Q88.6981965 -33.38068262499999 85.663308 -30.329225124999994 Q82.628320875 -27.277866249999988 78.32541075 -27.277866249999988 H64.181303625 Q64.839526875 -29.884919499999988 64.7623035 -32.49384662499999 Q64.68517875 -35.10277374999998 63.848937375 -37.65065199999999 Q61.951491000000004 -42.65261612499999 57.546701250000005 -45.74539749999999 Q53.1419115 -48.83808024999998 47.345424375 -48.83808024999998 Q41.549035875 -48.83808024999998 37.138723125 -45.74539749999999 Q32.728509 -42.65261612499999 30.831062624999998 -37.65065199999999 Q29.99482125 -35.10277374999998 29.9176965 -32.49384662499999 Q29.840473125000003 -29.884919499999988 30.498696374999998 -27.277866249999988 Z"/></g><g id="Regular-S" transform="matrix(1 0 0 1 1405.73 696)"><path d="M28.08346875 -52.51403124999999 Q28.789525125 -51.79899999999999 29.829624374999998 -51.79899999999999 Q30.869625000000003 -51.79899999999999 31.584656250000002 -52.51403124999999 L35.874843750000004 -56.70559374999999 Q36.589875 -57.43857474999999 36.589875 -58.51447487499999 Q36.589875 -59.590374999999995 35.874843750000004 -60.30540624999999 L31.584656250000002 -64.49696875 Q30.878599875000003 -65.21199999999999 29.838500625 -65.21199999999999 Q28.7985 -65.21199999999999 28.08346875 -64.49696875 L23.79328125 -60.30540624999999 Q23.07825 -59.572425249999995 23.07825 -58.49652512499999 Q23.07825 -57.42062499999999 23.79328125 -56.70559374999999 L28.08346875 -52.51403124999999 Z M66.26436224999999 -55.54674999999999 Q68.643 -55.54674999999999 70.319625 -57.211737249999985 Q71.99625 -58.87682312499999 71.99625 -61.25536224999999 Q71.99625 -63.633999999999986 70.33126275000001 -65.31062499999999 Q68.666176875 -66.98724999999999 66.28763775 -66.98724999999999 Q63.909000000000006 -66.98724999999999 62.232375000000005 -65.32226275 Q60.55575 -63.65717687499999 60.55575 -61.27863775 Q60.55575 -58.89999999999999 62.22073725 -57.22337499999999 Q63.885823125 -55.54674999999999 66.26436224999999 -55.54674999999999 Z M27.2205 11.321000000000014 Q25.2184125 11.321000000000014 23.80314375 9.905731250000013 Q22.387875 8.490462500000014 22.387875 6.488375000000014 V1.5571250000000134 Q22.387875 -1.624813374999988 23.965875 -4.176143499999988 Q25.543875 -6.727374999999988 28.404 -8.108124999999987 Q32.94075 -10.179249999999989 37.625437500000004 -11.362749999999988 Q42.310125 -12.546249999999986 47.34 -12.546249999999986 Q52.369875 -12.546249999999986 57.0545625 -11.362749999999988 Q61.739250000000006 -10.179249999999989 66.276 -8.108124999999987 Q69.136125 -6.727374999999988 70.71412500000001 -4.176143499999988 Q72.292125 -1.624813374999988 72.292125 1.5571250000000134 V6.488375000000014 Q72.292125 8.490462500000014 70.87685625 9.905731250000013 Q69.4615875 11.321000000000014 67.4595 11.321000000000014 H27.2205 Z M47.32007775 -17.280249999999988 Q41.87755575 -17.280249999999988 38.050215375 -21.127512624999987 Q34.222875 -24.974775249999986 34.222875 -30.41729724999999 Q34.222875 -35.859819249999994 38.070137625 -39.687159624999985 Q41.91740025 -43.51449999999999 47.359922250000004 -43.51449999999999 Q52.80244425 -43.51449999999999 56.629784625 -39.667237374999985 Q60.457125000000005 -35.81997474999999 60.457125000000005 -30.37745274999999 Q60.457125000000005 -24.934930749999985 56.609862375 -21.107590374999987 Q52.76259975 -17.280249999999988 47.32007775 -17.280249999999988 Z M30.475125000000002 -27.537249999999986 H15.977250000000002 Q11.990334375000002 -27.537249999999986 9.151117875 -30.376367874999985 Q6.312 -33.215584374999985 6.312 -37.202499999999986 V-71.1295 Q6.312 -75.11641562499999 9.151117875 -77.955632125 Q11.990334375000002 -80.79475 15.977250000000002 -80.79475 H78.70275000000001 Q82.689665625 -80.79475 85.528882125 -77.955632125 Q88.36800000000001 -75.11641562499999 88.36800000000001 -71.1295 V-37.202499999999986 Q88.36800000000001 -33.215584374999985 85.528882125 -30.376367874999985 Q82.689665625 -27.537249999999986 78.70275000000001 -27.537249999999986 H64.204875 Q64.69800000000001 -30.00287499999999 64.55006250000001 -32.419187499999985 Q64.402125 -34.83549999999999 63.613125000000004 -37.202499999999986 Q61.739250000000006 -42.13374999999999 57.399750000000004 -45.191124999999985 Q53.06025 -48.248499999999986 47.34 -48.248499999999986 Q41.61975 -48.248499999999986 37.28025 -45.191124999999985 Q32.94075 -42.13374999999999 31.066875000000003 -37.202499999999986 Q30.277875 -34.83549999999999 30.1299375 -32.419187499999985 Q29.982000000000003 -30.00287499999999 30.475125000000002 -27.537249999999986 Z"/></g><g id="Light-S" transform="matrix(1 0 0 1 1109.75 696)"><path d="M28.235252625 -52.400217999999995 Q28.903338375 -51.723157374999985 29.848560375 -51.723157374999985 Q30.793782375 -51.723157374999985 31.470843000000002 -52.400217999999995 L35.267905500000005 -56.09865549999999 Q35.944966125 -56.79366587499999 35.944966125 -57.793723374999985 Q35.944966125 -58.79368224999999 35.267905500000005 -59.47084149999999 L31.470843000000002 -63.169180374999996 Q30.802757250000003 -63.846339624999985 29.85753525 -63.846339624999985 Q28.91231325 -63.846339624999985 28.235252625 -63.169180374999996 L24.438190125 -59.47084149999999 Q23.761129500000003 -58.77583112499998 23.761129500000003 -57.775773624999985 Q23.761129500000003 -56.77571612499999 24.438190125 -56.09865549999999 L28.235252625 -52.400217999999995 Z M66.26436224999999 -55.015654375 Q68.225717625 -55.015654375 69.6178095 -56.39620712499999 Q71.00990137500001 -57.77666124999999 71.00990137500001 -59.738016624999986 Q71.00990137500001 -61.69927337499999 69.62944725 -63.091365249999996 Q68.2488945 -64.48355575 66.28763775 -64.48355575 Q64.326282375 -64.48355575 62.9341905 -63.10300299999999 Q61.542098625 -61.722450249999994 61.542098625 -59.76119349999999 Q61.542098625 -57.799838124999994 62.92255275000001 -56.40774624999999 Q64.3031055 -55.015654375 66.26436224999999 -55.015654375 Z M28.813786874999998 7.830957125000014 Q26.963483250000003 7.830957125000014 25.66202775 6.529501625000013 Q24.360473625 5.228046125000014 24.360473625 3.377643875000013 V-0.567257499999986 Q24.360473625 -3.1802282499999865 25.616068500000004 -5.257270749999986 Q26.871663375000004 -7.334313249999987 29.238564750000002 -8.449564749999986 Q33.6236295 -10.406876499999985 38.061655875 -11.552405874999987 Q42.499780875 -12.698033874999986 47.34 -12.698033874999986 Q52.180219125 -12.698033874999986 56.618344125 -11.552405874999987 Q61.05637050000001 -10.406876499999985 65.44143525 -8.449564749999986 Q67.80833662500001 -7.334313249999987 69.06393150000001 -5.257270749999986 Q70.31952637500001 -3.1802282499999865 70.31952637500001 -0.567257499999986 V3.377643875000013 Q70.31952637500001 5.228046125000014 69.01797225 6.529501625000013 Q67.71651675 7.830957125000014 65.866213125 7.830957125000014 H28.813786874999998 Z M47.32007775 -18.190657374999986 Q42.674248500000004 -18.190657374999986 39.434910375 -21.45001637499999 Q36.195473625 -24.709276749999987 36.195473625 -29.355105999999992 Q36.195473625 -34.00093524999999 39.454832625 -37.24027337499999 Q42.714093000000005 -40.47971012499999 47.359922250000004 -40.47971012499999 Q52.0057515 -40.47971012499999 55.245089625000006 -37.220351124999986 Q58.484526375 -33.96109074999999 58.484526375 -29.31526149999999 Q58.484526375 -24.669432249999993 55.225167375000005 -21.43009412499999 Q51.965907 -18.190657374999986 47.32007775 -18.190657374999986 Z M31.385532375 -27.992502999999985 H17.191225125 Q13.469808 -27.992502999999985 10.877252625 -30.58505837499999 Q8.284598625000001 -33.177613749999985 8.284598625000001 -36.89903087499999 V-68.39817925 Q8.284598625000001 -72.11949775 10.877252625 -74.712053125 Q13.469808 -77.304707125 17.191225125 -77.304707125 H77.488774875 Q81.210192 -77.304707125 83.80274737500001 -74.712053125 Q86.395401375 -72.11949775 86.395401375 -68.39817925 V-36.89903087499999 Q86.395401375 -33.177613749999985 83.80274737500001 -30.58505837499999 Q81.210192 -27.992502999999985 77.488774875 -27.992502999999985 H63.294467625 Q63.597838125 -29.96490437499999 63.374058000000005 -31.888091874999986 Q63.15027787500001 -33.81127937499999 62.437120500000006 -35.68505574999999 Q60.75290137500001 -40.274865999999996 56.716870500000006 -43.12364912499999 Q52.680938250000004 -45.97233362499999 47.34 -45.97233362499999 Q41.99906175 -45.97233362499999 37.9631295 -43.12364912499999 Q33.927098625 -40.274865999999996 32.2428795 -35.68505574999999 Q31.529722125 -33.81127937499999 31.305941999999998 -31.888091874999986 Q31.082161874999997 -29.96490437499999 31.385532375 -27.992502999999985 Z"/></g><g id="Thin-S" transform="matrix(1 0 0 1 814.015 696)"><path d="M28.386937875 -52.28640474999999 Q29.017151625 -51.647314749999985 29.867496375 -51.647314749999985 Q30.71793975 -51.647314749999985 31.357029750000002 -52.28640474999999 L34.66096725 -55.491717249999994 Q35.300155875 -56.148855624999996 35.300155875 -57.073070499999986 Q35.300155875 -57.99718674999998 34.66096725 -58.636375374999986 L31.357029750000002 -61.84168787499999 Q30.726816000000003 -62.480876499999994 29.87647125 -62.480876499999994 Q29.0261265 -62.480876499999994 28.386937875 -61.84168787499999 L25.083000375 -58.636375374999986 Q24.443811750000002 -57.97923699999998 24.443811750000002 -57.055120749999986 Q24.443811750000002 -56.130905874999996 25.083000375 -55.491717249999994 L28.386937875 -52.28640474999999 Z M66.26436224999999 -54.48465737499998 Q67.808533875 -54.48465737499998 68.916092625 -55.580676999999994 Q70.02375 -56.67669662499999 70.02375 -58.22076962499999 Q70.02375 -59.764842624999986 68.927730375 -60.87249999999999 Q67.83171075 -61.98015737499999 66.28763775 -61.98015737499999 Q64.743466125 -61.98015737499999 63.635907375 -60.884137749999994 Q62.52825 -59.78811812499998 62.52825 -58.244045125 Q62.52825 -56.699873499999995 63.62426962500001 -55.592314749999986 Q64.72028925000001 -54.48465737499998 66.26436224999999 -54.48465737499998 Z M30.406777875000003 4.341407375000013 Q28.7081595 4.341407375000013 27.520517249999997 3.153765125000012 Q26.332875 1.9661228750000141 26.332875 0.2674058750000139 V-2.6913441249999863 Q26.332875 -4.735248624999986 27.265966125000002 -6.338299374999988 Q28.199155875000002 -7.941251499999986 30.073030875 -8.790905874999986 Q34.30631175 -10.634404374999988 38.49787425 -11.742061749999987 Q42.68943675 -12.849719124999986 47.34 -12.849719124999986 Q51.99056325 -12.849719124999986 56.182125750000004 -11.742061749999987 Q60.37368825 -10.634404374999988 64.606969125 -8.790905874999986 Q66.480844125 -7.941251499999986 67.414033875 -6.338299374999988 Q68.347125 -4.735248624999986 68.347125 -2.6913441249999863 V0.2674058750000139 Q68.347125 1.9661228750000141 67.15948275 3.153765125000012 Q65.97184050000001 4.341407375000013 64.273222125 4.341407375000013 H30.406777875000003 Z M47.32007775 -19.10096612499999 Q43.470743999999996 -19.10096612499999 40.8193095 -21.772421499999986 Q38.167875 -24.443778249999987 38.167875 -28.293111999999986 Q38.167875 -32.14244574999999 40.83923175 -34.79388024999999 Q43.510588500000004 -37.44531474999999 47.359922250000004 -37.44531474999999 Q51.209255999999996 -37.44531474999999 53.860690500000004 -34.773957999999986 Q56.512125000000005 -32.10260124999999 56.512125000000005 -28.253267499999986 Q56.512125000000005 -24.403933749999993 53.84076825 -21.752499249999985 Q51.1694115 -19.10096612499999 47.32007775 -19.10096612499999 Z M32.295841125 -28.447657374999984 H18.404904375 Q14.949084375 -28.447657374999984 12.602992875000002 -30.793650249999985 Q10.257 -33.139741749999985 10.257 -36.59556174999999 V-65.66725299999999 Q10.257 -69.12307299999999 12.602992875000002 -71.46916449999999 Q14.949084375 -73.81515737499998 18.404904375 -73.81515737499998 H76.275095625 Q79.730915625 -73.81515737499998 82.077007125 -71.46916449999999 Q84.423 -69.12307299999999 84.423 -65.66725299999999 V-36.59556174999999 Q84.423 -33.139741749999985 82.077007125 -30.793650249999985 Q79.730915625 -28.447657374999984 76.275095625 -28.447657374999984 H62.384158875000004 Q62.497873500000004 -29.92703237499999 62.19825075 -31.357094874999987 Q61.898628 -32.787157374999985 61.26131325 -34.167907374999984 Q59.76675 -38.41637649999999 56.03418825 -41.056469124999985 Q52.301626500000005 -43.69656174999999 47.34 -43.69656174999999 Q42.3783735 -43.69656174999999 38.64581175 -41.056469124999985 Q34.913250000000005 -38.41637649999999 33.41868675 -34.167907374999984 Q32.781372000000005 -32.787157374999985 32.48174925 -31.357094874999987 Q32.1821265 -29.92703237499999 32.295841125 -28.447657374999984 Z"/></g><g id="Ultralight-S" transform="matrix(1 0 0 1 517.792 696)"><path d="M28.477968750000002 -52.21815624999999 Q29.085400125 -51.60174999999999 29.878936875 -51.60174999999999 Q30.672375000000002 -51.60174999999999 31.288781250000003 -52.21815624999999 L34.29684375 -55.12759374999999 Q34.913250000000005 -55.761949749999985 34.913250000000005 -56.64059987499999 Q34.913250000000005 -57.519249999999985 34.29684375 -58.13565624999998 L31.288781250000003 -61.04509374999999 Q30.681349875000002 -61.66149999999999 29.887813125000005 -61.66149999999999 Q29.094375000000003 -61.66149999999999 28.477968750000002 -61.04509374999999 L25.46990625 -58.13565624999998 Q24.8535 -57.501300249999986 24.8535 -56.62265012499999 Q24.8535 -55.743999999999986 25.46990625 -55.12759374999999 L28.477968750000002 -52.21815624999999 Z M66.26436224999999 -54.16599999999998 Q67.558125 -54.16599999999998 68.4950625 -55.09129974999999 Q69.432 -56.01669812499999 69.432 -57.31036224999998 Q69.432 -58.604124999999996 68.50670025000001 -59.541062499999995 Q67.58130187500001 -60.477999999999994 66.28763775 -60.477999999999994 Q64.993875 -60.477999999999994 64.0569375 -59.55270025 Q63.120000000000005 -58.627301874999986 63.120000000000005 -57.333637749999994 Q63.120000000000005 -56.039874999999995 64.04529975 -55.102937499999996 Q64.970698125 -54.16599999999998 66.26436224999999 -54.16599999999998 Z M31.362750000000002 2.247500000000013 Q29.7551625 2.247500000000013 28.635768750000004 1.1281062500000143 Q27.516375 0.008712500000012113 27.516375 -1.5988749999999872 V-3.9658749999999863 Q27.516375 -5.668438374999987 28.256062500000002 -6.986955999999989 Q28.99575 -8.305374999999987 30.57375 -8.995749999999987 Q34.716 -10.770999999999987 38.759625 -11.855874999999987 Q42.80325 -12.940749999999987 47.34 -12.940749999999987 Q51.87675 -12.940749999999987 55.920375 -11.855874999999987 Q59.964000000000006 -10.770999999999987 64.10625 -8.995749999999987 Q65.68425 -8.305374999999987 66.42393750000001 -6.986955999999989 Q67.163625 -5.668438374999987 67.163625 -3.9658749999999863 V-1.5988749999999872 Q67.163625 0.008712500000012113 66.04423125 1.1281062500000143 Q64.9248375 2.247500000000013 63.31725 2.247500000000013 H31.362750000000002 Z M47.32007775 -19.64724999999999 Q43.94868075 -19.64724999999999 41.650027875000006 -21.965825124999988 Q39.351375000000004 -24.284400249999983 39.351375000000004 -27.655797249999985 Q39.351375000000004 -31.027194249999994 41.669950125 -33.32584712499999 Q43.98852525 -35.62449999999999 47.359922250000004 -35.62449999999999 Q50.73131925 -35.62449999999999 53.029972125 -33.30592487499999 Q55.328625 -30.987349749999993 55.328625 -27.61595274999999 Q55.328625 -24.244555749999982 53.010049875 -21.945902874999987 Q50.69147475 -19.64724999999999 47.32007775 -19.64724999999999 Z M32.842125 -28.72074999999999 H19.13325 Q15.836709375 -28.72074999999999 13.638654000000002 -30.918805374999984 Q11.4405 -33.116959374999986 11.4405 -36.41349999999999 V-64.0285 Q11.4405 -67.32504062499999 13.638654000000002 -69.52319462499999 Q15.836709375 -71.72124999999998 19.13325 -71.72124999999998 H75.54675 Q78.843290625 -71.72124999999998 81.041444625 -69.52319462499999 Q83.2395 -67.32504062499999 83.2395 -64.0285 V-36.41349999999999 Q83.2395 -33.116959374999986 81.041444625 -30.918805374999984 Q78.843290625 -28.72074999999999 75.54675 -28.72074999999999 H61.837875000000004 Q61.837875000000004 -29.90424999999999 61.4926875 -31.038437499999986 Q61.1475 -32.17262499999999 60.55575 -33.257499999999986 Q59.175000000000004 -37.30112499999999 55.624500000000005 -39.81606249999999 Q52.074000000000005 -42.33099999999999 47.34 -42.33099999999999 Q42.606 -42.33099999999999 39.0555 -39.81606249999999 Q35.505 -37.30112499999999 34.12425 -33.257499999999986 Q33.5325 -32.17262499999999 33.187312500000004 -31.038437499999986 Q32.842125 -29.90424999999999 32.842125 -28.72074999999999 Z"/></g></g></svg>