<svg xmlns="http://www.w3.org/2000/svg" version="1.1" width="3300" height="2000"><g id="Notes"><style>
    text {
      font-family: monospace;
      text-anchor: middle;
    }
    text.emphasis {
      font-weight:bold;
    }
    text.lanchor {
      text-anchor: start;
    }
  </style><rect height="2200" id="artboard" fill="white" width="3300" x="0" y="0"/><line id="" style="fill:none;stroke:black;stroke-width:0.5;" x1="263" x2="3036" y1="292" y2="292"/><text class="lanchor emphasis" transform="matrix(1 0 0 1 263 322)">Weight/Scale Variations</text><text transform="matrix(1 0 0 1 559.711 322)">Ultralight</text><text transform="matrix(1 0 0 1 856.422 322)">Thin</text><text transform="matrix(1 0 0 1 1153.13 322)">Light</text><text transform="matrix(1 0 0 1 1449.84 322)">Regular</text><text transform="matrix(1 0 0 1 1746.56 322)">Medium</text><text transform="matrix(1 0 0 1 2043.27 322)">Semibold</text><text transform="matrix(1 0 0 1 2339.98 322)">Bold</text><text transform="matrix(1 0 0 1 2636.69 322)">Heavy</text><text transform="matrix(1 0 0 1 2933.4 322)">Black</text><text id="template-version" style="text-anchor: end;" transform="matrix(1 0 0 1 3036 1933)">Template v.1.0</text><text class="lanchor" transform="matrix(1 0 0 1 263 726)">Small</text><text class="lanchor" transform="matrix(1 0 0 1 263 1156)">Medium</text><text class="lanchor" transform="matrix(1 0 0 1 263 1586)">Large</text></g><g id="Guides"><g id="H-reference" style="fill:#27AAE1;stroke:none;" transform="matrix(1 0 0 1 339 696)"><path d="M 54.9316 0 L 57.666 0 L 30.5664 -70.459 L 28.0762 -70.459 L 0.976562 0 L 3.66211 0 L 12.9395 -24.4629 L 45.7031 -24.4629 Z M 29.1992 -67.0898 L 29.4434 -67.0898 L 44.8242 -26.709 L 13.8184 -26.709 Z"/></g><line id="Baseline-S" style="fill:none;stroke:#27AAE1;opacity:1;stroke-width:0.577;" x1="263" x2="3036" y1="696" y2="696"/><line id="Capline-S" style="fill:none;stroke:#27AAE1;opacity:1;stroke-width:0.577;" x1="263" x2="3036" y1="625.541" y2="625.541"/><g id="H-reference" style="fill:#27AAE1;stroke:none;" transform="matrix(1 0 0 1 339 1126)"><path d="M 54.9316 0 L 57.666 0 L 30.5664 -70.459 L 28.0762 -70.459 L 0.976562 0 L 3.66211 0 L 12.9395 -24.4629 L 45.7031 -24.4629 Z M 29.1992 -67.0898 L 29.4434 -67.0898 L 44.8242 -26.709 L 13.8184 -26.709 Z"/></g><line id="Baseline-M" style="fill:none;stroke:#27AAE1;opacity:1;stroke-width:0.577;" x1="263" x2="3036" y1="1126" y2="1126"/><line id="Capline-M" style="fill:none;stroke:#27AAE1;opacity:1;stroke-width:0.577;" x1="263" x2="3036" y1="1055.54" y2="1055.54"/><g id="H-reference" style="fill:#27AAE1;stroke:none;" transform="matrix(1 0 0 1 339 1556)"><path d="M 54.9316 0 L 57.666 0 L 30.5664 -70.459 L 28.0762 -70.459 L 0.976562 0 L 3.66211 0 L 12.9395 -24.4629 L 45.7031 -24.4629 Z M 29.1992 -67.0898 L 29.4434 -67.0898 L 44.8242 -26.709 L 13.8184 -26.709 Z"/></g><line id="Baseline-L" style="fill:none;stroke:#27AAE1;opacity:1;stroke-width:0.577;" x1="263" x2="3036" y1="1556" y2="1556"/><line id="Capline-L" style="fill:none;stroke:#27AAE1;opacity:1;stroke-width:0.577;" x1="263" x2="3036" y1="1485.54" y2="1485.54"/><rect height="119.336" id="left-margin" style="fill:darkred;stroke:none;opacity:0.4;" width="12.4512" x="1394.06" y="1030.79"/><rect height="119.336" id="right-margin" style="fill:darkgreen;stroke:none;opacity:0.4;" width="12.4512" x="1502.5112" y="1030.79"/><rect x="1406.5112" y="1045" width="96" height="96" fill="none" stroke="blue" stroke-dasharray="5"/><rect x="1394.06" y="1030.79" width="120.9024" height="119.336" fill="none" stroke="blue"/></g><g id="Symbols"><g id="Bold-L" transform="matrix(1 0 0 1 2266 1556)"><path d="M71.595 12.177500000000016 H43.5375 Q41.070375 12.177500000000016 39.4014375 13.785968750000013 Q37.7325 15.394598750000014 37.7325 18.010718750000017 Q37.7325 20.627000000000017 39.33290625 22.207250000000016 Q40.9333125 23.787500000000016 43.5375 23.787500000000016 H111.2625 Q113.729625 23.787500000000016 115.3985625 22.179031250000016 Q117.06750000000001 20.570401250000018 117.06750000000001 17.95428125000001 Q117.06750000000001 15.338000000000015 115.46709375 13.757750000000016 Q113.8666875 12.177500000000016 111.23154 12.177500000000016 H83.205 V-42.969999999999985 L90.46125 -35.874999999999986 Q92.43930375000001 -33.77874999999999 94.83644625000001 -33.77874999999999 Q97.23375 -33.77874999999999 99.33 -35.874999999999986 Q101.10375 -37.80999999999999 101.10375 -40.22874999999999 Q101.10375 -42.64749999999998 99.16875 -44.58249999999998 L82.88250000000001 -61.02999999999999 Q80.50777125 -63.28749999999998 77.341305 -63.28749999999998 Q74.175 -63.28749999999998 71.9175 -61.02999999999999 L55.63125 -44.58249999999998 Q53.535000000000004 -42.64749999999998 53.615625 -40.22874999999999 Q53.69625 -37.80999999999999 55.63125 -35.79437499999999 Q57.566250000000004 -33.77874999999999 60.024345000000004 -33.77874999999999 Q62.482601249999995 -33.77874999999999 64.5 -35.874999999999986 L71.595 -42.969999999999985 V12.177500000000016 Z M24.02625 -6.688749999999985 Q17.7294375 -6.688749999999985 13.299093749999999 -11.11909374999999 Q8.86875 -15.549437499999982 8.86875 -21.846249999999984 V-82.15374999999999 Q8.86875 -88.51715875 13.299093749999999 -92.99474874999999 Q17.7294375 -97.4725 24.02625 -97.4725 H130.77375 Q137.13715875 -97.4725 141.61474875 -92.99474874999999 Q146.0925 -88.51715875 146.0925 -82.15374999999999 V-21.846249999999984 Q146.0925 -15.549437499999982 141.61474875 -11.11909374999999 Q137.13715875 -6.688749999999985 130.77375 -6.688749999999985 H106.90875 Q103.7240625 -6.688749999999985 101.52703125000001 -8.893843749999988 Q99.33 -11.099098749999989 99.33 -14.295718749999985 Q99.33 -17.492499999999986 101.52703125000001 -19.669374999999988 Q103.7240625 -21.846249999999984 106.90875 -21.846249999999984 H130.77375 Q130.77375 -21.846249999999984 130.77375 -21.846249999999984 Q130.77375 -21.846249999999984 130.77375 -21.846249999999984 V-82.15374999999999 Q130.77375 -82.15374999999999 130.77375 -82.15374999999999 Q130.77375 -82.15374999999999 130.77375 -82.15374999999999 H24.02625 Q24.02625 -82.15374999999999 24.02625 -82.15374999999999 Q24.02625 -82.15374999999999 24.02625 -82.15374999999999 V-21.846249999999984 Q24.02625 -21.846249999999984 24.02625 -21.846249999999984 Q24.02625 -21.846249999999984 24.02625 -21.846249999999984 H47.89125 Q51.0759375 -21.846249999999984 53.272968750000004 -19.641156249999987 Q55.47 -17.435901249999986 55.47 -14.239281249999983 Q55.47 -11.042499999999983 53.272968750000004 -8.865624999999987 Q51.0759375 -6.688749999999985 47.89125 -6.688749999999985 H24.02625 Z"/></g><g id="Semibold-L" transform="matrix(1 0 0 1 1970.27 1556)"><path d="M72.01570124999999 12.598201250000017 H43.5375 Q41.24920125 12.598201250000017 39.701201250000004 14.115563750000018 Q38.15320125 15.632926250000015 38.15320125 18.010718750000017 Q38.15320125 20.388672500000016 39.66234 21.877816250000016 Q41.171640000000004 23.366798750000015 43.5375 23.366798750000015 H111.2625 Q113.55079875000001 23.366798750000015 115.09879875000001 21.849436250000014 Q116.64679875 20.332073750000013 116.64679875 17.95428125000001 Q116.64679875 15.576327500000016 115.13766000000001 14.087183750000012 Q113.62836 12.598201250000017 111.24492375 12.598201250000017 H82.78429874999999 V-42.33902874999998 L90.74166375 -34.47293124999999 Q92.560725 -32.586951249999984 94.82709375 -32.586951249999984 Q97.0934625 -32.586951249999984 98.9794425 -34.47293124999999 Q100.68304875 -36.26764374999999 100.68304875 -38.546267499999985 Q100.68304875 -40.82472999999999 98.88833625 -42.61960374999998 L81.971115 -59.627931249999975 Q79.99789875 -61.53487374999999 77.3667825 -61.53487374999999 Q74.7358275 -61.53487374999999 72.828885 -59.627931249999975 L55.911663749999995 -42.61960374999998 Q54.025683750000006 -40.82472999999999 54.071317500000006 -38.546267499999985 Q54.11695125 -36.26764374999999 55.911663749999995 -34.42729749999998 Q57.7065375 -32.586951249999984 60.0072525 -32.586951249999984 Q62.30812875 -32.586951249999984 64.1494425 -34.47293124999999 L72.01570124999999 -42.33902874999998 V12.598201250000017 Z M23.39527875 -8.44137624999999 Q18.153525000000002 -8.44137624999999 14.38753125 -12.207531249999988 Q10.62137625 -15.97352499999998 10.62137625 -21.21527874999998 V-82.78472124999999 Q10.62137625 -88.06404624999999 14.38753125 -91.85696875 Q18.153525000000002 -95.64973 23.39527875 -95.64973 H131.40472125 Q136.68404625 -95.64973 140.47696875 -91.85696875 Q144.26973 -88.06404624999999 144.26973 -82.78472124999999 V-21.21527874999998 Q144.26973 -15.97352499999998 140.47696875 -12.207531249999988 Q136.68404625 -8.44137624999999 131.40472125 -8.44137624999999 H105.29641125 Q102.6024075 -8.44137624999999 100.75593375 -10.296073749999984 Q98.90929874999999 -12.150609999999986 98.90929874999999 -14.856546249999987 Q98.90929874999999 -17.562643749999985 100.75593375 -19.388961249999987 Q102.6024075 -21.21527874999998 105.29641125 -21.21527874999998 H131.40472125 Q131.40472125 -21.21527874999998 131.40472125 -21.21527874999998 Q131.40472125 -21.21527874999998 131.40472125 -21.21527874999998 V-82.78472124999999 Q131.40472125 -82.78472124999999 131.40472125 -82.78472124999999 Q131.40472125 -82.78472124999999 131.40472125 -82.78472124999999 H23.39527875 Q23.39527875 -82.78472124999999 23.39527875 -82.78472124999999 Q23.39527875 -82.78472124999999 23.39527875 -82.78472124999999 V-21.21527874999998 Q23.39527875 -21.21527874999998 23.39527875 -21.21527874999998 Q23.39527875 -21.21527874999998 23.39527875 -21.21527874999998 H49.503588750000006 Q52.197592500000006 -21.21527874999998 54.04406625 -19.360742499999986 Q55.89070125 -17.506044999999986 55.89070125 -14.800108749999985 Q55.89070125 -12.094011249999987 54.04406625 -10.267693749999985 Q52.197592500000006 -8.44137624999999 49.503588750000006 -8.44137624999999 H23.39527875 Z"/></g><g id="Medium-L" transform="matrix(1 0 0 1 1674.31 1556)"><path d="M72.33110625 12.913606250000015 H43.5375 Q41.3832 12.913606250000015 39.92598375 14.362598750000014 Q38.46860625 15.811752500000019 38.46860625 18.010718750000017 Q38.46860625 20.209846250000012 39.90953625 21.630620000000015 Q41.350466250000004 23.051393750000017 43.5375 23.051393750000017 H111.2625 Q113.41680000000001 23.051393750000017 114.87401625000001 21.602401250000014 Q116.33139374999999 20.153247500000013 116.33139374999999 17.95428125000001 Q116.33139374999999 15.755153750000016 114.89046375000001 14.334380000000017 Q113.44953375 12.913606250000015 111.2550825 12.913606250000015 H82.46889375 V-41.865759999999995 L90.95193375000001 -33.42125874999999 Q92.6519925 -31.69298124999999 94.82016000000002 -31.69298124999999 Q96.9883275 -31.69298124999999 98.716605 -33.42125874999999 Q100.36764375 -35.11083624999999 100.36764375 -37.284163749999976 Q100.36764375 -39.457652499999995 98.67806625 -41.14722999999999 L81.28757625 -58.576258749999994 Q79.61541375 -60.220202499999985 77.38597125 -60.220202499999985 Q75.15652875 -60.220202499999985 73.51242375000001 -58.576258749999994 L56.121933750000004 -41.14722999999999 Q54.393817500000004 -39.457652499999995 54.41316750000001 -37.284163749999976 Q54.43235625 -35.11083624999999 56.121933750000004 -33.40190874999999 Q57.8116725 -31.69298124999999 59.9943525 -31.69298124999999 Q62.17719375000001 -31.69298124999999 63.886605 -33.42125874999999 L72.33110625 -41.865759999999995 V12.913606250000015 Z M22.92201 -9.756047499999987 Q18.47167125 -9.756047499999987 15.203778750000001 -13.023778749999984 Q11.9360475 -16.291671249999986 11.9360475 -20.742009999999986 V-83.25798999999998 Q11.9360475 -87.72413124999997 15.203778750000001 -91.00331125 Q18.47167125 -94.28265249999998 22.92201 -94.28265249999998 H131.87798999999998 Q136.34413125 -94.28265249999998 139.62331125 -91.00331125 Q142.9026525 -87.72413124999997 142.9026525 -83.25798999999998 V-20.742009999999986 Q142.9026525 -16.291671249999986 139.62331125 -13.023778749999984 Q136.34413125 -9.756047499999987 131.87798999999998 -9.756047499999987 H104.086875 Q101.76100500000001 -9.756047499999987 100.17736875 -11.347746249999979 Q98.59389374999999 -12.939444999999985 98.59389374999999 -15.277247499999987 Q98.59389374999999 -17.615211249999987 100.17736875 -19.178691249999986 Q101.76100500000001 -20.742009999999986 104.086875 -20.742009999999986 H131.87798999999998 Q131.87798999999998 -20.742009999999986 131.87798999999998 -20.742009999999986 Q131.87798999999998 -20.742009999999986 131.87798999999998 -20.742009999999986 V-83.25798999999998 Q131.87798999999998 -83.25798999999998 131.87798999999998 -83.25798999999998 Q131.87798999999998 -83.25798999999998 131.87798999999998 -83.25798999999998 H22.92201 Q22.92201 -83.25798999999998 22.92201 -83.25798999999998 Q22.92201 -83.25798999999998 22.92201 -83.25798999999998 V-20.742009999999986 Q22.92201 -20.742009999999986 22.92201 -20.742009999999986 Q22.92201 -20.742009999999986 22.92201 -20.742009999999986 H50.713125 Q53.038995 -20.742009999999986 54.622631250000005 -19.150311249999987 Q56.20610625 -17.558612499999988 56.20610625 -15.220648749999988 Q56.20610625 -12.882846249999986 54.622631250000005 -11.31936624999998 Q53.038995 -9.756047499999987 50.713125 -9.756047499999987 H22.92201 Z"/></g><g id="Regular-L" transform="matrix(1 0 0 1 1378.56 1556)"><path d="M72.5625 13.145000000000014 H43.5375 Q41.4815625 13.145000000000014 40.09078125 14.543843750000018 Q38.7 15.942848750000014 38.7 18.010718750000017 Q38.7 20.078750000000014 40.09078125 21.449375000000014 Q41.4815625 22.820000000000014 43.5375 22.820000000000014 H111.2625 Q113.3184375 22.820000000000014 114.70921875 21.421156250000013 Q116.10000000000001 20.022151250000014 116.10000000000001 17.95428125000001 Q116.10000000000001 15.886250000000015 114.70921875 14.515625000000014 Q113.3184375 13.145000000000014 111.2625 13.145000000000014 H82.2375 V-41.51874999999998 L91.10625 -32.64999999999999 Q92.71875 -31.03749999999998 94.815 -31.03749999999998 Q96.91125000000001 -31.03749999999998 98.52375 -32.64999999999999 Q100.13625 -34.26249999999999 100.13625 -36.358749999999986 Q100.13625 -38.454999999999984 98.52375 -40.06749999999998 L80.78625 -57.80499999999999 Q79.33500000000001 -59.25624999999998 77.4 -59.25624999999998 Q75.465 -59.25624999999998 74.01375 -57.80499999999999 L56.276250000000005 -40.06749999999998 Q54.66375 -38.454999999999984 54.66375 -36.358749999999986 Q54.66375 -34.26249999999999 56.276250000000005 -32.64999999999999 Q57.88875 -31.03749999999998 59.985 -31.03749999999998 Q62.081250000000004 -31.03749999999998 63.69375 -32.64999999999999 L72.5625 -41.51874999999998 V13.145000000000014 Z M22.575 -10.719999999999985 Q18.705000000000002 -10.719999999999985 15.8025 -13.622499999999988 Q12.9 -16.524999999999984 12.9 -20.39499999999999 V-83.60499999999999 Q12.9 -87.475 15.8025 -90.3775 Q18.705000000000002 -93.28 22.575 -93.28 H132.225 Q136.095 -93.28 138.9975 -90.3775 Q141.9 -87.475 141.9 -83.60499999999999 V-20.39499999999999 Q141.9 -16.524999999999984 138.9975 -13.622499999999988 Q136.095 -10.719999999999985 132.225 -10.719999999999985 H103.2 Q101.1440625 -10.719999999999985 99.75328125 -12.11884374999999 Q98.3625 -13.517848749999985 98.3625 -15.585718749999991 Q98.3625 -17.653749999999988 99.75328125 -19.024374999999985 Q101.1440625 -20.39499999999999 103.2 -20.39499999999999 H132.225 Q132.225 -20.39499999999999 132.225 -20.39499999999999 Q132.225 -20.39499999999999 132.225 -20.39499999999999 V-83.60499999999999 Q132.225 -83.60499999999999 132.225 -83.60499999999999 Q132.225 -83.60499999999999 132.225 -83.60499999999999 H22.575 Q22.575 -83.60499999999999 22.575 -83.60499999999999 Q22.575 -83.60499999999999 22.575 -83.60499999999999 V-20.39499999999999 Q22.575 -20.39499999999999 22.575 -20.39499999999999 Q22.575 -20.39499999999999 22.575 -20.39499999999999 H51.6 Q53.6559375 -20.39499999999999 55.046718750000004 -18.996156249999984 Q56.4375 -17.59715124999999 56.4375 -15.529281249999983 Q56.4375 -13.461249999999986 55.046718750000004 -12.090624999999989 Q53.6559375 -10.719999999999985 51.6 -10.719999999999985 H22.575 Z"/></g><g id="Light-L" transform="matrix(1 0 0 1 1082.77 1556)"><path d="M73.740915 11.532338750000015 H45.58424625 Q44.02915125 11.532338750000015 42.97715625 12.593363750000016 Q41.925161249999995 13.654550000000015 41.925161249999995 15.223028750000015 Q41.925161249999995 16.791507500000016 42.97715625 17.820927500000014 Q44.02915125 18.850508750000017 45.58424625 18.850508750000017 H109.21575375 Q110.77084875000001 18.850508750000017 111.82284375 17.789483750000016 Q112.87483875000001 16.728458750000016 112.87483875000001 15.159818750000017 Q112.87483875000001 13.591340000000017 111.82284375 12.561920000000011 Q110.77084875000001 11.532338750000015 109.21575375 11.532338750000015 H81.05908500000001 V-45.240238749999975 L91.85058 -34.51066374999998 Q93.02883375 -33.270328749999976 94.6289175 -33.270328749999976 Q96.22900125000001 -33.270328749999976 97.46933625 -34.51066374999998 Q98.70967125 -35.75099874999998 98.70967125 -37.32012249999998 Q98.70967125 -38.889246249999985 97.46933625 -40.12958124999999 L80.66224875 -56.87458749999999 Q79.26163125000001 -58.32583749999999 77.39435625 -58.32583749999999 Q75.52708125 -58.32583749999999 74.13775125000001 -56.87458749999999 L57.33066375 -40.12958124999999 Q56.15224875 -38.889246249999985 56.12128875 -37.32012249999998 Q56.09032875 -35.75099874999998 57.33066375 -34.51066374999998 Q58.57099875 -33.270328749999976 60.1401225 -33.270328749999976 Q61.709085 -33.270328749999976 62.94942 -34.51066374999998 L73.740915 -45.240238749999975 V11.532338750000015 Z M25.428157499999998 -13.573157499999986 Q21.63410625 -13.573157499999986 18.87963375 -16.32746874999998 Q16.12516125 -19.081941249999993 16.12516125 -22.875992499999995 V-80.7518425 Q16.12516125 -84.54589374999999 18.87963375 -87.30036625 Q21.63410625 -90.05483874999999 25.428157499999998 -90.05483874999999 H129.3718425 Q133.16589375 -90.05483874999999 135.92036625 -87.30036625 Q138.67483875000002 -84.54589374999999 138.67483875000002 -80.7518425 V-22.875992499999995 Q138.67483875000002 -19.081941249999993 135.92036625 -16.32746874999998 Q133.16589375 -13.573157499999986 129.3718425 -13.573157499999986 H101.58733875 Q100.03224375 -13.573157499999986 98.98024875 -14.634182499999987 Q97.92825375000001 -15.69520749999998 97.92825375000001 -17.263686249999985 Q97.92825375000001 -18.832164999999982 98.98024875 -19.86174624999998 Q100.03224375 -20.891166249999984 101.58733875 -20.891166249999984 H129.3718425 Q130.1161725 -20.891166249999984 130.73650125 -21.511494999999982 Q131.35666875 -22.131662499999976 131.35666875 -22.875992499999995 V-80.7518425 Q131.35666875 -81.49617249999999 130.73650125 -82.11650124999998 Q130.1161725 -82.73666874999999 129.3718425 -82.73666874999999 H25.428157499999998 Q24.6838275 -82.73666874999999 24.06349875 -82.11650124999998 Q23.44333125 -81.49617249999999 23.44333125 -80.7518425 V-22.875992499999995 Q23.44333125 -22.131662499999976 24.06349875 -21.511494999999982 Q24.6838275 -20.891166249999984 25.428157499999998 -20.891166249999984 H53.21266125 Q54.76775625 -20.891166249999984 55.819751249999996 -19.83014124999999 Q56.87174625 -18.769116249999982 56.87174625 -17.200637499999985 Q56.87174625 -15.632158749999988 55.819751249999996 -14.602577499999981 Q54.76775625 -13.573157499999986 53.21266125 -13.573157499999986 H25.428157499999998 Z"/></g><g id="Thin-L" transform="matrix(1 0 0 1 787.282 1556)"><path d="M74.91916875 9.920000000000016 H47.63067 Q46.576417500000005 9.920000000000016 45.86320875 10.643206250000016 Q45.15 11.366412500000013 45.15 12.435661250000013 Q45.15 13.504748750000015 45.86320875 14.193125000000016 Q46.576417500000005 14.881662500000015 47.63067 14.881662500000015 H107.16933 Q108.2235825 14.881662500000015 108.93679125 14.158295000000013 Q109.65 13.435088750000016 109.65 12.366001250000018 Q109.65 11.296913750000012 108.93679125 10.608376250000017 Q108.2235825 9.920000000000016 107.16933 9.920000000000016 H79.88083125 V-48.96108249999999 L92.59474875000001 -36.37116624999999 Q93.33891750000001 -35.50283499999999 94.442835 -35.50283499999999 Q95.54691375 -35.50283499999999 96.41508375000001 -36.37116624999999 Q97.283415 -37.239336249999994 97.283415 -38.28133374999999 Q97.283415 -39.32333124999998 96.41508375000001 -40.19150124999999 L80.5382475 -55.94449749999998 Q79.18842375 -57.395747499999985 77.3887125 -57.395747499999985 Q75.58900125000001 -57.395747499999985 74.2617525 -55.94449749999998 L58.38491625 -40.19150124999999 Q57.640586250000005 -39.32333124999998 57.578666250000005 -38.28133374999999 Q57.516585000000006 -37.239336249999994 58.38491625 -36.37116624999999 Q59.25308625 -35.50283499999999 60.29508375 -35.50283499999999 Q61.33708125 -35.50283499999999 62.20525125 -36.37116624999999 L74.91916875 -48.96108249999999 V9.920000000000016 Z M28.280669999999997 -16.42566999999999 Q24.56272875 -16.42566999999999 21.95628375 -19.032114999999983 Q19.35 -21.638398749999986 19.35 -25.356501249999994 V-77.89932999999999 Q19.35 -81.61727124999999 21.95628375 -84.22371624999998 Q24.56272875 -86.82999999999998 28.280669999999997 -86.82999999999998 H126.51933 Q130.23727125 -86.82999999999998 132.84371625 -84.22371624999998 Q135.45000000000002 -81.61727124999999 135.45000000000002 -77.89932999999999 V-25.356501249999994 Q135.45000000000002 -21.638398749999986 132.84371625 -19.032114999999983 Q130.23727125 -16.42566999999999 126.51933 -16.42566999999999 H99.97500000000001 Q98.9207475 -16.42566999999999 98.20753875 -17.149037499999984 Q97.49416875 -17.87224374999999 97.49416875 -18.94133124999999 Q97.49416875 -20.010418749999985 98.20753875 -20.698956249999988 Q98.9207475 -21.387332499999985 99.97500000000001 -21.387332499999985 H126.51933 Q128.0076675 -21.387332499999985 129.24816375 -22.627667499999987 Q130.48849875 -23.86800249999999 130.48849875 -25.356501249999994 V-77.89932999999999 Q130.48849875 -79.38766749999999 129.24816375 -80.62816374999998 Q128.0076675 -81.86849874999999 126.51933 -81.86849874999999 H28.280669999999997 Q26.7923325 -81.86849874999999 25.551836250000004 -80.62816374999998 Q24.311501250000003 -79.38766749999999 24.311501250000003 -77.89932999999999 V-25.356501249999994 Q24.311501250000003 -23.86800249999999 25.551836250000004 -22.627667499999987 Q26.7923325 -21.387332499999985 28.280669999999997 -21.387332499999985 H54.825 Q55.8792525 -21.387332499999985 56.59246125000001 -20.66412624999998 Q57.30583125 -19.940758749999986 57.30583125 -18.871671249999984 Q57.30583125 -17.80258374999999 56.59246125000001 -17.114207499999985 Q55.8792525 -16.42566999999999 54.825 -16.42566999999999 H28.280669999999997 Z"/></g><g id="Ultralight-L" transform="matrix(1 0 0 1 491.205 1556)"><path d="M75.62625 8.952500000000015 H48.85875 Q48.10490625 8.952500000000015 47.5948725 9.473015000000018 Q47.085 9.993530000000014 47.085 10.763015000000017 Q47.085 11.532500000000017 47.5948725 12.016250000000014 Q48.10490625 12.500000000000014 48.85875 12.500000000000014 H105.94125 Q106.69509375 12.500000000000014 107.2051275 11.979485000000015 Q107.715 11.458970000000019 107.715 10.689485000000012 Q107.715 9.920000000000016 107.2051275 9.436250000000015 Q106.69509375 8.952500000000015 105.94125 8.952500000000015 H79.17375 V-51.19374999999998 L93.04125 -37.48749999999998 Q93.525 -36.84249999999999 94.33125 -36.84249999999999 Q95.1375 -36.84249999999999 95.7825 -37.48749999999998 Q96.42750000000001 -38.13249999999999 96.42750000000001 -38.85812499999999 Q96.42750000000001 -39.58374999999998 95.7825 -40.22874999999999 L80.46375 -55.38624999999999 Q79.1444025 -56.83749999999999 77.38532625 -56.83749999999999 Q75.62625 -56.83749999999999 74.33625 -55.38624999999999 L59.0175 -40.22874999999999 Q58.533750000000005 -39.58374999999998 58.453125 -38.85812499999999 Q58.3725 -38.13249999999999 59.0175 -37.48749999999998 Q59.6625 -36.84249999999999 60.388125 -36.84249999999999 Q61.11375 -36.84249999999999 61.75875 -37.48749999999998 L75.62625 -51.19374999999998 V8.952500000000015 Z M29.9925 -18.13749999999999 Q26.32003125 -18.13749999999999 23.80259625 -20.654934999999988 Q21.285 -23.17253124999999 21.285 -26.844999999999985 V-76.18749999999999 Q21.285 -79.85996874999998 23.80259625 -82.37756499999999 Q26.32003125 -84.89499999999998 29.9925 -84.89499999999998 H124.8075 Q128.47996875 -84.89499999999998 130.997565 -82.37756499999999 Q133.51500000000001 -79.85996874999998 133.51500000000001 -76.18749999999999 V-26.844999999999985 Q133.51500000000001 -23.17253124999999 130.997565 -20.654934999999988 Q128.47996875 -18.13749999999999 124.8075 -18.13749999999999 H99.00750000000001 Q98.25365625 -18.13749999999999 97.74362250000001 -18.658014999999985 Q97.23375 -19.178529999999988 97.23375 -19.948014999999984 Q97.23375 -20.717499999999987 97.74362250000001 -21.201249999999987 Q98.25365625 -21.684999999999988 99.00750000000001 -21.684999999999988 H124.8075 Q126.7425 -21.684999999999988 128.355 -23.297499999999985 Q129.9675 -24.909999999999982 129.9675 -26.844999999999985 V-76.18749999999999 Q129.9675 -78.12249999999999 128.355 -79.73499999999999 Q126.7425 -81.34749999999998 124.8075 -81.34749999999998 H29.9925 Q28.0575 -81.34749999999998 26.445 -79.73499999999999 Q24.8325 -78.12249999999999 24.8325 -76.18749999999999 V-26.844999999999985 Q24.8325 -24.909999999999982 26.445 -23.297499999999985 Q28.0575 -21.684999999999988 29.9925 -21.684999999999988 H55.792500000000004 Q56.546343750000005 -21.684999999999988 57.0563775 -21.164484999999985 Q57.566250000000004 -20.64396999999998 57.566250000000004 -19.874484999999986 Q57.566250000000004 -19.104999999999983 57.0563775 -18.62124999999999 Q56.546343750000005 -18.13749999999999 55.792500000000004 -18.13749999999999 H29.9925 Z"/></g><g id="Bold-M" transform="matrix(1 0 0 1 2281.8 1126)"><path d="M54.0 -1.2299999999999898 H35.0 Q32.45 -1.2299999999999898 30.725 0.49500000000001165 Q29.0 2.2200000000000095 29.0 4.77000000000001 Q29.0 7.320000000000011 30.725 9.04500000000001 Q32.45 10.77000000000001 35.0 10.77000000000001 H85.0 Q87.55 10.77000000000001 89.275 9.04500000000001 Q91.0 7.320000000000011 91.0 4.77000000000001 Q91.0 2.2200000000000095 89.275 0.49500000000001165 Q87.55 -1.2299999999999898 85.0 -1.2299999999999898 H66.0 V-37.72999999999999 L68.75 -34.97999999999999 Q70.5 -33.22999999999999 73.0 -33.22999999999999 Q75.5 -33.22999999999999 77.25 -34.97999999999999 Q79.0 -36.72999999999999 78.9375 -39.16749999999999 Q78.875 -41.60499999999999 77.125 -43.35499999999999 L65.625 -54.97999999999999 Q63.2045 -57.35499999999999 59.97725 -57.35499999999999 Q56.75 -57.35499999999999 54.375 -54.97999999999999 L42.75 -43.35499999999999 Q41.0 -41.60499999999999 41.0 -39.16749999999999 Q41.0 -36.72999999999999 42.75 -34.97999999999999 Q44.5 -33.22999999999999 47.0 -33.22999999999999 Q49.5 -33.22999999999999 51.25 -34.97999999999999 L54.0 -37.72999999999999 V-1.2299999999999898 Z M21.5 -10.97999999999999 Q14.875 -10.97999999999999 10.3125 -15.54249999999999 Q5.75 -20.10499999999999 5.75 -26.72999999999999 V-68.72999999999999 Q5.75 -75.35499999999999 10.3125 -79.91749999999999 Q14.875 -84.47999999999999 21.5 -84.47999999999999 H98.5 Q105.125 -84.47999999999999 109.6875 -79.91749999999999 Q114.25 -75.35499999999999 114.25 -68.72999999999999 V-26.72999999999999 Q114.25 -20.10499999999999 109.6875 -15.54249999999999 Q105.125 -10.97999999999999 98.5 -10.97999999999999 H83.875 Q80.625 -10.97999999999999 78.3125 -13.29249999999999 Q76.0 -15.60499999999999 76.0 -18.85499999999999 Q76.0 -22.10499999999999 78.3125 -24.41749999999999 Q80.625 -26.72999999999999 83.875 -26.72999999999999 H98.5 Q98.5 -26.72999999999999 98.5 -26.72999999999999 Q98.5 -26.72999999999999 98.5 -26.72999999999999 V-68.72999999999999 Q98.5 -68.72999999999999 98.5 -68.72999999999999 Q98.5 -68.72999999999999 98.5 -68.72999999999999 H21.5 Q21.5 -68.72999999999999 21.5 -68.72999999999999 Q21.5 -68.72999999999999 21.5 -68.72999999999999 V-26.72999999999999 Q21.5 -26.72999999999999 21.5 -26.72999999999999 Q21.5 -26.72999999999999 21.5 -26.72999999999999 H36.125 Q39.375 -26.72999999999999 41.6875 -24.41749999999999 Q44.0 -22.10499999999999 44.0 -18.85499999999999 Q44.0 -15.60499999999999 41.6875 -13.29249999999999 Q39.375 -10.97999999999999 36.125 -10.97999999999999 H21.5 Z"/></g><g id="Semibold-M" transform="matrix(1 0 0 1 1985.97 1126)"><path d="M54.43475 -0.7952499999999887 H35.0 Q32.63475 -0.7952499999999887 31.03475 0.8047500000000092 Q29.43475 2.4047500000000106 29.43475 4.77000000000001 Q29.43475 7.13525000000001 31.03475 8.735250000000011 Q32.63475 10.335250000000011 35.0 10.335250000000011 H85.0 Q87.36525 10.335250000000011 88.96525 8.735250000000011 Q90.56525 7.13525000000001 90.56525 4.77000000000001 Q90.56525 2.4047500000000106 88.96525 0.8047500000000092 Q87.36525 -0.7952499999999887 85.0 -0.7952499999999887 H65.56525 V-37.07787499999999 L69.076125 -33.56699999999999 Q70.663 -31.980124999999987 73.0 -31.980124999999987 Q75.337 -31.980124999999987 76.923875 -33.56699999999999 Q78.510875 -35.15399999999999 78.475625 -37.45562499999999 Q78.44025 -39.757249999999985 76.85325 -41.34424999999999 L64.701125 -53.56699999999999 Q62.680875 -55.56162499999999 59.987125 -55.56162499999999 Q57.2935 -55.56162499999999 55.298875 -53.56699999999999 L43.076125 -41.34424999999999 Q41.489125 -39.757249999999985 41.489125 -37.45562499999999 Q41.489125 -35.15399999999999 43.076125 -33.56699999999999 Q44.663 -31.980124999999987 47.0 -31.980124999999987 Q49.337 -31.980124999999987 50.923875 -33.56699999999999 L54.43475 -37.07787499999999 V-0.7952499999999887 Z M20.847875 -12.827749999999988 Q15.30975 -12.827749999999988 11.45375 -16.68374999999999 Q7.59775 -20.53974999999999 7.59775 -26.07787499999999 V-69.38212499999999 Q7.59775 -74.92025 11.45375 -78.77624999999999 Q15.30975 -82.63224999999998 20.847875 -82.63224999999998 H99.152125 Q104.69025 -82.63224999999998 108.54625 -78.77624999999999 Q112.40225 -74.92025 112.40225 -69.38212499999999 V-26.07787499999999 Q112.40225 -20.53974999999999 108.54625 -16.68374999999999 Q104.69025 -12.827749999999988 99.152125 -12.827749999999988 H82.190375 Q79.429375 -12.827749999999988 77.497375 -14.75974999999999 Q75.56525 -16.69187499999999 75.56525 -19.452749999999988 Q75.56525 -22.21374999999999 77.497375 -24.145749999999992 Q79.429375 -26.07787499999999 82.190375 -26.07787499999999 H99.152125 Q99.152125 -26.07787499999999 99.152125 -26.07787499999999 Q99.152125 -26.07787499999999 99.152125 -26.07787499999999 V-69.38212499999999 Q99.152125 -69.38212499999999 99.152125 -69.38212499999999 Q99.152125 -69.38212499999999 99.152125 -69.38212499999999 H20.847875 Q20.847875 -69.38212499999999 20.847875 -69.38212499999999 Q20.847875 -69.38212499999999 20.847875 -69.38212499999999 V-26.07787499999999 Q20.847875 -26.07787499999999 20.847875 -26.07787499999999 Q20.847875 -26.07787499999999 20.847875 -26.07787499999999 H37.809625 Q40.570625 -26.07787499999999 42.502625 -24.145749999999992 Q44.43475 -22.21374999999999 44.43475 -19.452749999999988 Q44.43475 -16.69187499999999 42.502625 -14.75974999999999 Q40.570625 -12.827749999999988 37.809625 -12.827749999999988 H20.847875 Z"/></g><g id="Medium-M" transform="matrix(1 0 0 1 1689.91 1126)"><path d="M54.760875 -0.46912499999999113 H35.0 Q32.773375 -0.46912499999999113 31.267125 1.0371250000000103 Q29.760875 2.5433750000000117 29.760875 4.77000000000001 Q29.760875 6.996625000000009 31.267125 8.50287500000001 Q32.773375 10.00912500000001 35.0 10.00912500000001 H85.0 Q87.226625 10.00912500000001 88.732875 8.50287500000001 Q90.239125 6.996625000000009 90.239125 4.77000000000001 Q90.239125 2.5433750000000117 88.732875 1.0371250000000103 Q87.226625 -0.46912499999999113 85.0 -0.46912499999999113 H65.239125 V-36.58874999999999 L69.320625 -32.50724999999999 Q70.785375 -31.04249999999999 73.0 -31.04249999999999 Q75.214625 -31.04249999999999 76.679375 -32.50724999999999 Q78.144 -33.97187499999999 78.129125 -36.17162499999999 Q78.114125 -38.371374999999986 76.6495 -39.835999999999984 L64.008125 -52.507249999999985 Q62.288 -54.216374999999985 59.994625 -54.216374999999985 Q57.701125 -54.216374999999985 55.991875 -52.507249999999985 L43.320625 -39.835999999999984 Q41.856 -38.371374999999986 41.856 -36.17162499999999 Q41.856 -33.97187499999999 43.320625 -32.50724999999999 Q44.785375 -31.04249999999999 47.0 -31.04249999999999 Q49.214625 -31.04249999999999 50.679375 -32.50724999999999 L54.760875 -36.58874999999999 V-0.46912499999999113 Z M20.35875 -14.213624999999993 Q15.635875 -14.213624999999993 12.30975 -17.53974999999999 Q8.983625 -20.86587499999999 8.983625 -25.58874999999999 V-69.87124999999999 Q8.983625 -74.59412499999999 12.30975 -77.92025 Q15.635875 -81.24637499999999 20.35875 -81.24637499999999 H99.64125 Q104.364125 -81.24637499999999 107.69025 -77.92025 Q111.016375 -74.59412499999999 111.016375 -69.87124999999999 V-25.58874999999999 Q111.016375 -20.86587499999999 107.69025 -17.53974999999999 Q104.364125 -14.213624999999993 99.64125 -14.213624999999993 H80.926625 Q78.532625 -14.213624999999993 76.885875 -15.86037499999999 Q75.239125 -17.507124999999988 75.239125 -19.90124999999999 Q75.239125 -22.29524999999999 76.885875 -23.941999999999993 Q78.532625 -25.58874999999999 80.926625 -25.58874999999999 H99.64125 Q99.64125 -25.58874999999999 99.64125 -25.58874999999999 Q99.64125 -25.58874999999999 99.64125 -25.58874999999999 V-69.87124999999999 Q99.64125 -69.87124999999999 99.64125 -69.87124999999999 Q99.64125 -69.87124999999999 99.64125 -69.87124999999999 H20.35875 Q20.35875 -69.87124999999999 20.35875 -69.87124999999999 Q20.35875 -69.87124999999999 20.35875 -69.87124999999999 V-25.58874999999999 Q20.35875 -25.58874999999999 20.35875 -25.58874999999999 Q20.35875 -25.58874999999999 20.35875 -25.58874999999999 H39.073375 Q41.467375 -25.58874999999999 43.114125 -23.941999999999993 Q44.760875 -22.29524999999999 44.760875 -19.90124999999999 Q44.760875 -17.507124999999988 43.114125 -15.86037499999999 Q41.467375 -14.213624999999993 39.073375 -14.213624999999993 H20.35875 Z"/></g><g id="Regular-M" transform="matrix(1 0 0 1 1394.06 1126)"><path d="M55.0 -0.22999999999998977 H35.0 Q32.875 -0.22999999999998977 31.4375 1.2075000000000102 Q30.0 2.6450000000000102 30.0 4.77000000000001 Q30.0 6.89500000000001 31.4375 8.33250000000001 Q32.875 9.77000000000001 35.0 9.77000000000001 H85.0 Q87.125 9.77000000000001 88.5625 8.33250000000001 Q90.0 6.89500000000001 90.0 4.77000000000001 Q90.0 2.6450000000000102 88.5625 1.2075000000000102 Q87.125 -0.22999999999998977 85.0 -0.22999999999998977 H65.0 V-36.22999999999999 L69.5 -31.72999999999999 Q70.875 -30.35499999999999 73.0 -30.35499999999999 Q75.125 -30.35499999999999 76.5 -31.72999999999999 Q77.875 -33.10499999999999 77.875 -35.22999999999999 Q77.875 -37.35499999999999 76.5 -38.72999999999999 L63.5 -51.72999999999999 Q62.0 -53.22999999999999 60.0 -53.22999999999999 Q58.0 -53.22999999999999 56.5 -51.72999999999999 L43.5 -38.72999999999999 Q42.125 -37.35499999999999 42.125 -35.22999999999999 Q42.125 -33.10499999999999 43.5 -31.72999999999999 Q44.875 -30.35499999999999 47.0 -30.35499999999999 Q49.125 -30.35499999999999 50.5 -31.72999999999999 L55.0 -36.22999999999999 V-0.22999999999998977 Z M20.0 -15.22999999999999 Q15.875 -15.22999999999999 12.9375 -18.16749999999999 Q10.0 -21.10499999999999 10.0 -25.22999999999999 V-70.22999999999999 Q10.0 -74.35499999999999 12.9375 -77.29249999999999 Q15.875 -80.22999999999999 20.0 -80.22999999999999 H100.0 Q104.125 -80.22999999999999 107.0625 -77.29249999999999 Q110.0 -74.35499999999999 110.0 -70.22999999999999 V-25.22999999999999 Q110.0 -21.10499999999999 107.0625 -18.16749999999999 Q104.125 -15.22999999999999 100.0 -15.22999999999999 H80.0 Q77.875 -15.22999999999999 76.4375 -16.66749999999999 Q75.0 -18.10499999999999 75.0 -20.22999999999999 Q75.0 -22.35499999999999 76.4375 -23.79249999999999 Q77.875 -25.22999999999999 80.0 -25.22999999999999 H100.0 Q100.0 -25.22999999999999 100.0 -25.22999999999999 Q100.0 -25.22999999999999 100.0 -25.22999999999999 V-70.22999999999999 Q100.0 -70.22999999999999 100.0 -70.22999999999999 Q100.0 -70.22999999999999 100.0 -70.22999999999999 H20.0 Q20.0 -70.22999999999999 20.0 -70.22999999999999 Q20.0 -70.22999999999999 20.0 -70.22999999999999 V-25.22999999999999 Q20.0 -25.22999999999999 20.0 -25.22999999999999 Q20.0 -25.22999999999999 20.0 -25.22999999999999 H40.0 Q42.125 -25.22999999999999 43.5625 -23.79249999999999 Q45.0 -22.35499999999999 45.0 -20.22999999999999 Q45.0 -18.10499999999999 43.5625 -16.66749999999999 Q42.125 -15.22999999999999 40.0 -15.22999999999999 H20.0 Z"/></g><g id="Light-M" transform="matrix(1 0 0 1 1098.18 1126)"><path d="M56.250125 -0.8069999999999915 H36.250125 Q34.656375 -0.8069999999999915 33.57825 0.2716250000000109 Q32.500125 1.3502500000000097 32.500125 2.944625000000009 Q32.500125 4.539000000000009 33.57825 5.61600000000001 Q34.656375 6.6928750000000115 36.250125 6.6928750000000115 H83.749875 Q85.343625 6.6928750000000115 86.42175 5.614250000000009 Q87.499875 4.53562500000001 87.499875 2.941250000000011 Q87.499875 1.3468750000000114 86.42175 0.26987500000000963 Q85.343625 -0.8069999999999915 83.749875 -0.8069999999999915 H63.749875 V-40.172625 L70.3655 -33.55699999999999 Q71.403875 -32.51862499999999 72.976 -32.49462499999999 Q74.548 -32.47049999999999 75.6345 -33.55699999999999 Q76.721125 -34.64362499999999 76.721125 -36.19162499999999 Q76.721125 -37.73962499999999 75.6345 -38.82612499999999 L63.163375 -51.29724999999999 Q61.807625 -52.65299999999999 60.0 -52.65299999999999 Q58.192375 -52.65299999999999 56.836625 -51.29724999999999 L44.3655 -38.82612499999999 Q43.327 -37.78774999999999 43.303 -36.21562499999999 Q43.278875 -34.64362499999999 44.3655 -33.55699999999999 Q45.452 -32.47049999999999 47.0 -32.47049999999999 Q48.548 -32.47049999999999 49.6345 -33.55699999999999 L56.250125 -40.172625 V-0.8069999999999915 Z M21.538625 -17.730124999999987 Q17.750125 -17.730124999999987 15.125125 -20.355124999999987 Q12.500125 -22.980124999999987 12.500125 -26.768624999999993 V-68.691375 Q12.500125 -72.47987499999999 15.125125 -75.10487499999999 Q17.750125 -77.72987499999999 21.538625 -77.72987499999999 H98.461375 Q102.249875 -77.72987499999999 104.874875 -75.10487499999999 Q107.499875 -72.47987499999999 107.499875 -68.691375 V-26.768624999999993 Q107.499875 -22.980124999999987 104.874875 -20.355124999999987 Q102.249875 -17.730124999999987 98.461375 -17.730124999999987 H78.749875 Q77.15625 -17.730124999999987 76.078125 -18.80874999999999 Q75.0 -19.88737499999999 75.0 -21.48174999999999 Q75.0 -23.076249999999987 76.078125 -24.15312499999999 Q77.15625 -25.22999999999999 78.749875 -25.22999999999999 H98.461375 Q99.038375 -25.22999999999999 99.51925 -25.71074999999999 Q100.0 -26.191624999999988 100.0 -26.768624999999993 V-68.691375 Q100.0 -69.26837499999999 99.51925 -69.74924999999999 Q99.038375 -70.22999999999999 98.461375 -70.22999999999999 H21.538625 Q20.961625 -70.22999999999999 20.48075 -69.74924999999999 Q20.0 -69.26837499999999 20.0 -68.691375 V-26.768624999999993 Q20.0 -26.191624999999988 20.48075 -25.71074999999999 Q20.961625 -25.22999999999999 21.538625 -25.22999999999999 H41.250125 Q42.84375 -25.22999999999999 43.921875 -24.151374999999987 Q45.0 -23.07287499999999 45.0 -21.478374999999993 Q45.0 -19.883999999999993 43.921875 -18.807124999999992 Q42.84375 -17.730124999999987 41.250125 -17.730124999999987 H21.538625 Z"/></g><g id="Thin-M" transform="matrix(1 0 0 1 802.565 1126)"><path d="M57.5 -1.383874999999989 H37.5 Q36.4375 -1.383874999999989 35.71875 -0.6641249999999914 Q35.0 0.055625000000009805 35.0 1.1195000000000093 Q35.0 2.1835000000000093 35.71875 2.8998750000000086 Q36.4375 3.6162500000000115 37.5 3.6162500000000115 H82.5 Q83.5625 3.6162500000000115 84.28125 2.8965000000000103 Q85.0 2.176750000000009 85.0 1.112750000000009 Q85.0 0.04887500000000955 84.28125 -0.6674999999999898 Q83.5625 -1.383874999999989 82.5 -1.383874999999989 H62.5 V-44.11462499999999 L71.23075 -35.38387499999999 Q71.932625 -34.68187499999999 72.951875 -34.63387499999999 Q73.971125 -34.58574999999999 74.76925 -35.38387499999999 Q75.567375 -36.18187499999999 75.567375 -37.15312499999999 Q75.567375 -38.12424999999999 74.76925 -38.92224999999999 L62.826875 -50.86462499999999 Q61.615375 -52.07612499999999 60.0 -52.07612499999999 Q58.384625 -52.07612499999999 57.173125 -50.86462499999999 L45.23075 -38.92224999999999 Q44.528875 -38.22037499999999 44.48075 -37.20112499999999 Q44.432625 -36.18187499999999 45.23075 -35.38387499999999 Q46.028875 -34.58574999999999 47.0 -34.58574999999999 Q47.971125 -34.58574999999999 48.76925 -35.38387499999999 L57.5 -44.11462499999999 V-1.383874999999989 Z M23.076875 -20.22999999999999 Q19.625 -20.22999999999999 17.3125 -22.54249999999999 Q15.0 -24.85499999999999 15.0 -28.30687499999999 V-67.15312499999999 Q15.0 -70.60499999999999 17.3125 -72.91749999999999 Q19.625 -75.22999999999999 23.076875 -75.22999999999999 H96.923125 Q100.375 -75.22999999999999 102.6875 -72.91749999999999 Q105.0 -70.60499999999999 105.0 -67.15312499999999 V-28.30687499999999 Q105.0 -24.85499999999999 102.6875 -22.54249999999999 Q100.375 -20.22999999999999 96.923125 -20.22999999999999 H77.5 Q76.4375 -20.22999999999999 75.71875 -20.949749999999987 Q75.0 -21.669374999999988 75.0 -22.733374999999988 Q75.0 -23.79724999999999 75.71875 -24.51362499999999 Q76.4375 -25.22999999999999 77.5 -25.22999999999999 H96.923125 Q98.076875 -25.22999999999999 99.0385 -26.19149999999999 Q100.0 -27.15312499999999 100.0 -28.30687499999999 V-67.15312499999999 Q100.0 -68.30687499999999 99.0385 -69.26849999999999 Q98.076875 -70.22999999999999 96.923125 -70.22999999999999 H23.076875 Q21.923125 -70.22999999999999 20.9615 -69.26849999999999 Q20.0 -68.30687499999999 20.0 -67.15312499999999 V-28.30687499999999 Q20.0 -27.15312499999999 20.9615 -26.19149999999999 Q21.923125 -25.22999999999999 23.076875 -25.22999999999999 H42.5 Q43.5625 -25.22999999999999 44.28125 -24.510249999999992 Q45.0 -23.790499999999987 45.0 -22.72662499999999 Q45.0 -21.66262499999999 44.28125 -20.94637499999999 Q43.5625 -20.22999999999999 42.5 -20.22999999999999 H23.076875 Z"/></g><g id="Ultralight-M" transform="matrix(1 0 0 1 506.415 1126)"><path d="M58.25 -1.7299999999999898 H38.25 Q37.50625 -1.7299999999999898 37.003125 -1.2256249999999902 Q36.5 -0.7212499999999906 36.5 0.024375000000009805 Q36.5 0.7700000000000102 37.003125 1.2700000000000102 Q37.50625 1.7700000000000102 38.25 1.7700000000000102 H81.75 Q82.49375 1.7700000000000102 82.996875 1.2656250000000107 Q83.5 0.7612500000000111 83.5 0.015625000000010658 Q83.5 -0.7299999999999898 82.996875 -1.2299999999999898 Q82.49375 -1.7299999999999898 81.75 -1.7299999999999898 H61.75 V-46.47999999999999 L71.75 -36.47999999999999 Q72.25 -35.97999999999999 72.9375 -35.91749999999999 Q73.625 -35.85499999999999 74.25 -36.47999999999999 Q74.875 -37.10499999999999 74.875 -37.72999999999999 Q74.875 -38.35499999999999 74.25 -38.97999999999999 L62.625 -50.60499999999999 Q61.5 -51.72999999999999 60.0 -51.72999999999999 Q58.5 -51.72999999999999 57.375 -50.60499999999999 L45.75 -38.97999999999999 Q45.25 -38.47999999999999 45.1875 -37.79249999999999 Q45.125 -37.10499999999999 45.75 -36.47999999999999 Q46.375 -35.85499999999999 47.0 -35.85499999999999 Q47.625 -35.85499999999999 48.25 -36.47999999999999 L58.25 -46.47999999999999 V-1.7299999999999898 Z M24.0 -21.72999999999999 Q20.75 -21.72999999999999 18.625 -23.85499999999999 Q16.5 -25.97999999999999 16.5 -29.22999999999999 V-66.22999999999999 Q16.5 -69.47999999999999 18.625 -71.60499999999999 Q20.75 -73.72999999999999 24.0 -73.72999999999999 H96.0 Q99.25 -73.72999999999999 101.375 -71.60499999999999 Q103.5 -69.47999999999999 103.5 -66.22999999999999 V-29.22999999999999 Q103.5 -25.97999999999999 101.375 -23.85499999999999 Q99.25 -21.72999999999999 96.0 -21.72999999999999 H76.75 Q76.00625 -21.72999999999999 75.503125 -22.234374999999993 Q75.0 -22.73874999999999 75.0 -23.484374999999993 Q75.0 -24.22999999999999 75.503125 -24.72999999999999 Q76.00625 -25.22999999999999 76.75 -25.22999999999999 H96.0 Q97.5 -25.22999999999999 98.75 -26.47999999999999 Q100.0 -27.72999999999999 100.0 -29.22999999999999 V-66.22999999999999 Q100.0 -67.72999999999999 98.75 -68.97999999999999 Q97.5 -70.22999999999999 96.0 -70.22999999999999 H24.0 Q22.5 -70.22999999999999 21.25 -68.97999999999999 Q20.0 -67.72999999999999 20.0 -66.22999999999999 V-29.22999999999999 Q20.0 -27.72999999999999 21.25 -26.47999999999999 Q22.5 -25.22999999999999 24.0 -25.22999999999999 H43.25 Q43.99375 -25.22999999999999 44.496875 -24.725624999999987 Q45.0 -24.22124999999999 45.0 -23.475624999999987 Q45.0 -22.72999999999999 44.496875 -22.22999999999999 Q43.99375 -21.72999999999999 43.25 -21.72999999999999 H24.0 Z"/></g><g id="Bold-S" transform="matrix(1 0 0 1 2294.23 696)"><path d="M43.0005 -9.981999999999989 H29.614227375000002 Q27.772800000000004 -9.981999999999989 26.5104 -8.740409874999987 Q25.248 -7.498721124999989 25.248 -5.663309874999989 Q25.248 -3.8277999999999857 26.49481725 -2.565399999999988 Q27.741733125000003 -1.3029999999999866 29.58493575 -1.3029999999999866 H65.063997375 Q66.9072 -1.3029999999999866 68.1696 -2.5445901249999867 Q69.432 -3.7862788749999865 69.432 -5.621690124999986 Q69.432 -7.457199999999986 68.18439375 -8.719599999999986 Q66.93678750000001 -9.981999999999989 65.0925 -9.981999999999989 H51.679500000000004 V-37.49837499999999 L53.652 -35.525874999999985 Q55.03275 -34.145124999999986 56.709375 -34.145124999999986 Q58.386 -34.145124999999986 59.76675 -35.525874999999985 Q61.1475 -36.90662499999999 61.0981875 -38.583249999999985 Q61.048875 -40.25987499999999 59.668125 -41.640624999999986 L51.56489775 -49.840110249999995 Q49.767062625 -51.60174999999999 47.370080625 -51.60174999999999 Q44.973 -51.60174999999999 43.20110325 -49.829853249999985 L34.913250000000005 -41.54199999999999 Q33.5325 -40.16124999999999 33.5818125 -38.533937499999986 Q33.631125000000004 -36.90662499999999 35.011875 -35.525874999999985 Q36.392625 -34.145124999999986 38.069250000000004 -34.145124999999986 Q39.745875000000005 -34.145124999999986 41.126625000000004 -35.525874999999985 L43.0005 -37.39974999999999 V-9.981999999999989 Z M17.7525 -17.67474999999999 Q12.8508375 -17.67474999999999 9.48279375 -21.042793749999987 Q6.11475 -24.410837499999992 6.11475 -29.312499999999986 V-60.08349999999999 Q6.11475 -64.9851625 9.48279375 -68.35320624999999 Q12.8508375 -71.72124999999998 17.7525 -71.72124999999998 H76.92750000000001 Q81.82916250000001 -71.72124999999998 85.19720625000001 -68.35320624999999 Q88.56525 -64.9851625 88.56525 -60.08349999999999 V-29.312499999999986 Q88.56525 -24.410837499999992 85.19720625000001 -21.042793749999987 Q81.82916250000001 -17.67474999999999 76.92750000000001 -17.67474999999999 H64.59937500000001 Q62.20278750000001 -17.67474999999999 60.49164375 -19.37987762499999 Q58.7805 -21.085103874999987 58.7805 -23.47281512499999 Q58.7805 -25.860624999999985 60.49164375 -27.586562499999985 Q62.20278750000001 -29.312499999999986 64.59937500000001 -29.312499999999986 H76.92750000000001 Q76.92750000000001 -29.312499999999986 76.92750000000001 -29.312499999999986 Q76.92750000000001 -29.312499999999986 76.92750000000001 -29.312499999999986 V-60.08349999999999 Q76.92750000000001 -60.08349999999999 76.92750000000001 -60.08349999999999 Q76.92750000000001 -60.08349999999999 76.92750000000001 -60.08349999999999 H17.7525 Q17.7525 -60.08349999999999 17.7525 -60.08349999999999 Q17.7525 -60.08349999999999 17.7525 -60.08349999999999 V-29.312499999999986 Q17.7525 -29.312499999999986 17.7525 -29.312499999999986 Q17.7525 -29.312499999999986 17.7525 -29.312499999999986 H30.080625 Q32.4772125 -29.312499999999986 34.18835625 -27.60737237499999 Q35.8995 -25.902146124999987 35.8995 -23.514434874999992 Q35.8995 -21.12662499999999 34.18835625 -19.40068749999999 Q32.4772125 -17.67474999999999 30.080625 -17.67474999999999 H17.7525 Z"/></g><g id="Semibold-S" transform="matrix(1 0 0 1 1998.1 696)"><path d="M43.343517750000004 -9.638982249999987 H29.614227375000002 Q27.918567749999998 -9.638982249999987 26.754792750000004 -8.495918499999988 Q25.591017750000002 -7.352953374999988 25.591017750000002 -5.663309874999989 Q25.591017750000002 -3.9735677499999866 26.739308625 -2.8097927499999855 Q27.887500875 -1.646017749999988 29.58493575 -1.646017749999988 H65.063997375 Q66.76143225 -1.646017749999988 67.92520725 -2.7890814999999876 Q69.08898225 -3.9320466249999875 69.08898225 -5.621690124999986 Q69.08898225 -7.311432249999989 67.940001 -8.47520724999999 Q66.79101975 -9.638982249999987 65.0925 -9.638982249999987 H51.33648225000001 V-36.98384837499999 L53.909312625000005 -34.41101799999999 Q55.161357 -33.15897362499999 56.709375 -33.15897362499999 Q58.25739300000001 -33.15897362499999 59.509437375 -34.41101799999999 Q60.761580375 -35.66316099999999 60.733768125 -37.23258062499999 Q60.70585725000001 -38.802000249999985 59.453714250000004 -40.05414324999999 L50.835960375 -48.72525324999998 Q49.3539225 -50.18677712499999 47.377872 -50.18677712499999 Q45.401821500000004 -50.18677712499999 43.930040625000004 -48.71509487499999 L35.170562625 -39.95551824999999 Q33.918419625000006 -38.703375249999986 33.967732125000005 -37.18326812499999 Q34.017044625000004 -35.66316099999999 35.269187625 -34.41101799999999 Q36.521232 -33.15897362499999 38.069250000000004 -33.15897362499999 Q39.617268 -33.15897362499999 40.86931237500001 -34.41101799999999 L43.343517750000004 -36.88522337499999 V-9.638982249999987 Z M17.237973375 -19.132624749999987 Q13.19385525 -19.132624749999987 10.38324 -21.94323999999998 Q7.57262475 -24.753855249999987 7.57262475 -28.79797337499999 V-60.59802662499999 Q7.57262475 -64.64214474999999 10.38324 -67.45276 Q13.19385525 -70.26337524999998 17.237973375 -70.26337524999998 H77.442026625 Q81.48614475000001 -70.26337524999998 84.29676 -67.45276 Q87.10737525 -64.64214474999999 87.10737525 -60.59802662499999 V-28.79797337499999 Q87.10737525 -24.753855249999987 84.29676 -21.94323999999998 Q81.48614475000001 -19.132624749999987 77.442026625 -19.132624749999987 H63.270205875 Q61.259439375 -19.132624749999987 59.848510125 -20.53763649999999 Q58.43748225000001 -21.94264824999999 58.43748225000001 -23.944538499999986 Q58.43748225000001 -25.94642874999999 59.848510125 -27.372151749999993 Q61.259439375 -28.79797337499999 63.270205875 -28.79797337499999 H77.442026625 Q77.442026625 -28.79797337499999 77.442026625 -28.79797337499999 Q77.442026625 -28.79797337499999 77.442026625 -28.79797337499999 V-60.59802662499999 Q77.442026625 -60.59802662499999 77.442026625 -60.59802662499999 Q77.442026625 -60.59802662499999 77.442026625 -60.59802662499999 H17.237973375 Q17.237973375 -60.59802662499999 17.237973375 -60.59802662499999 Q17.237973375 -60.59802662499999 17.237973375 -60.59802662499999 V-28.79797337499999 Q17.237973375 -28.79797337499999 17.237973375 -28.79797337499999 Q17.237973375 -28.79797337499999 17.237973375 -28.79797337499999 H31.409794124999998 Q33.420560625 -28.79797337499999 34.831489875 -27.392961624999984 Q36.242517750000005 -25.98794987499999 36.242517750000005 -23.98605962499999 Q36.242517750000005 -21.984169374999986 34.831489875 -20.55834774999999 Q33.420560625 -19.132624749999987 31.409794124999998 -19.132624749999987 H17.237973375 Z"/></g><g id="Medium-S" transform="matrix(1 0 0 1 1701.85 696)"><path d="M43.600830375 -9.38166962499999 H29.614227375000002 Q28.027942875 -9.38166962499999 26.938136625000002 -8.312673249999989 Q25.848330375 -7.243578249999988 25.848330375 -5.663309874999989 Q25.848330375 -4.08294287499999 26.922553875 -2.9931366249999876 Q27.996876000000004 -1.9033303749999853 29.58493575 -1.9033303749999853 H65.063997375 Q66.652057125 -1.9033303749999853 67.74186337500001 -2.9723267499999864 Q68.831669625 -4.041421749999987 68.831669625 -5.621690124999986 Q68.831669625 -7.202057124999985 67.756657125 -8.291863374999988 Q66.681644625 -9.38166962499999 65.0925 -9.38166962499999 H51.079169625000006 V-36.59792874999999 L54.10222312500001 -33.57487524999999 Q55.25791087500001 -32.419187499999985 56.709375 -32.419187499999985 Q58.160839125 -32.419187499999985 59.316526874999994 -33.57487524999999 Q60.47211600000001 -34.73046437499999 60.460379625 -36.21950462499999 Q60.448544625000004 -37.70854487499999 59.292955500000005 -38.864133999999986 L50.28918337500001 -47.889011874999994 Q49.043944125 -49.125374874999984 47.383690875 -49.125374874999984 Q45.723437625 -49.125374874999984 44.476817625 -47.878853499999984 L35.363473125 -38.76550899999999 Q34.207884 -37.60991987499999 34.257196500000006 -36.17019212499999 Q34.306509000000005 -34.73046437499999 35.462098125000004 -33.57487524999999 Q36.617785875 -32.419187499999985 38.069250000000004 -32.419187499999985 Q39.520714125 -32.419187499999985 40.676401875 -33.57487524999999 L43.600830375 -36.49930374999999 V-9.38166962499999 Z M16.85205375 -20.22608012499999 Q13.451167875000001 -20.22608012499999 11.058624 -22.61862399999999 Q8.666080125 -25.01116787499999 8.666080125 -28.41205374999999 V-60.98394624999999 Q8.666080125 -64.38483212499999 11.058624 -66.77737599999999 Q13.451167875000001 -69.16991987499999 16.85205375 -69.16991987499999 H77.82794625 Q81.22883212500001 -69.16991987499999 83.621376 -66.77737599999999 Q86.013919875 -64.38483212499999 86.013919875 -60.98394624999999 V-28.41205374999999 Q86.013919875 -25.01116787499999 83.621376 -22.61862399999999 Q81.22883212500001 -20.22608012499999 77.82794625 -20.22608012499999 H62.273107125 Q60.551903625 -20.22608012499999 59.36603662500001 -21.406029624999988 Q58.180169625000005 -22.585880499999988 58.180169625000005 -24.29830637499999 Q58.180169625000005 -26.01073224999999 59.36603662500001 -27.211392999999994 Q60.551903625 -28.41205374999999 62.273107125 -28.41205374999999 H77.82794625 Q77.82794625 -28.41205374999999 77.82794625 -28.41205374999999 Q77.82794625 -28.41205374999999 77.82794625 -28.41205374999999 V-60.98394624999999 Q77.82794625 -60.98394624999999 77.82794625 -60.98394624999999 Q77.82794625 -60.98394624999999 77.82794625 -60.98394624999999 H16.85205375 Q16.85205375 -60.98394624999999 16.85205375 -60.98394624999999 Q16.85205375 -60.98394624999999 16.85205375 -60.98394624999999 V-28.41205374999999 Q16.85205375 -28.41205374999999 16.85205375 -28.41205374999999 Q16.85205375 -28.41205374999999 16.85205375 -28.41205374999999 H32.406892875 Q34.128096375 -28.41205374999999 35.313963375 -27.232104249999992 Q36.499830375 -26.052253374999985 36.499830375 -24.339827499999984 Q36.499830375 -22.627401624999983 35.313963375 -21.426740874999986 Q34.128096375 -20.22608012499999 32.406892875 -20.22608012499999 H16.85205375 Z"/></g><g id="Regular-S" transform="matrix(1 0 0 1 1405.73 696)"><path d="M43.789500000000004 -9.192999999999987 H29.614227375000002 Q28.108125 -9.192999999999987 27.0725625 -8.178247374999987 Q26.037000000000003 -7.163396124999988 26.037000000000003 -5.663309874999989 Q26.037000000000003 -4.163124999999987 27.05697975 -3.1275624999999874 Q28.077058125 -2.0919999999999863 29.58493575 -2.0919999999999863 H65.063997375 Q66.571875 -2.0919999999999863 67.6074375 -3.106752624999986 Q68.643 -4.1216038749999875 68.643 -5.621690124999986 Q68.643 -7.121874999999989 67.62223125 -8.157437499999986 Q66.6014625 -9.192999999999987 65.0925 -9.192999999999987 H50.8905 V-36.31487499999999 L54.243750000000006 -32.96162499999999 Q55.328625 -31.876749999999987 56.709375 -31.876749999999987 Q58.090125 -31.876749999999987 59.175000000000004 -32.96162499999999 Q60.259875 -34.04649999999999 60.259875 -35.476562499999986 Q60.259875 -36.90662499999999 59.175000000000004 -37.99149999999999 L49.888272750000006 -47.275860249999994 Q48.816712125 -48.34712499999999 47.38793175 -48.34712499999999 Q45.959250000000004 -48.34712499999999 44.877728250000004 -47.26560324999999 L35.505 -37.89287499999999 Q34.420125 -36.807999999999986 34.469437500000005 -35.42724999999999 Q34.518750000000004 -34.04649999999999 35.603625 -32.96162499999999 Q36.688500000000005 -31.876749999999987 38.069250000000004 -31.876749999999987 Q39.45 -31.876749999999987 40.534875 -32.96162499999999 L43.789500000000004 -36.21624999999999 V-9.192999999999987 Z M16.569 -21.027999999999984 Q13.639837500000002 -21.027999999999984 11.553918750000001 -23.11391874999999 Q9.468 -25.199837499999987 9.468 -28.12899999999999 V-61.266999999999996 Q9.468 -64.1961625 11.553918750000001 -66.28208124999999 Q13.639837500000002 -68.368 16.569 -68.368 H78.111 Q81.04016250000001 -68.368 83.12608125000001 -66.28208124999999 Q85.212 -64.1961625 85.212 -61.266999999999996 V-28.12899999999999 Q85.212 -25.199837499999987 83.12608125000001 -23.11391874999999 Q81.04016250000001 -21.027999999999984 78.111 -21.027999999999984 H61.542 Q60.033037500000006 -21.027999999999984 59.012268750000004 -22.042752624999984 Q57.9915 -23.05760387499999 57.9915 -24.557690124999986 Q57.9915 -26.05787499999999 59.012268750000004 -27.093437499999986 Q60.033037500000006 -28.12899999999999 61.542 -28.12899999999999 H78.111 Q78.111 -28.12899999999999 78.111 -28.12899999999999 Q78.111 -28.12899999999999 78.111 -28.12899999999999 V-61.266999999999996 Q78.111 -61.266999999999996 78.111 -61.266999999999996 Q78.111 -61.266999999999996 78.111 -61.266999999999996 H16.569 Q16.569 -61.266999999999996 16.569 -61.266999999999996 Q16.569 -61.266999999999996 16.569 -61.266999999999996 V-28.12899999999999 Q16.569 -28.12899999999999 16.569 -28.12899999999999 Q16.569 -28.12899999999999 16.569 -28.12899999999999 H33.138 Q34.6469625 -28.12899999999999 35.66773125 -27.11424737499999 Q36.688500000000005 -26.099396124999984 36.688500000000005 -24.59930987499999 Q36.688500000000005 -23.099124999999987 35.66773125 -22.06356249999999 Q34.6469625 -21.027999999999984 33.138 -21.027999999999984 H16.569 Z"/></g><g id="Light-S" transform="matrix(1 0 0 1 1109.75 696)"><path d="M44.775848625 -9.64825299999999 H30.600576 Q29.513629875 -9.64825299999999 28.761614249999997 -8.916652749999987 Q28.009598625 -8.184953874999987 28.009598625 -7.103432124999987 Q28.009598625 -6.02200899999999 28.746130125 -5.270880999999989 Q29.482563 -4.519851624999987 30.57118575 -4.519851624999987 H64.07764875000001 Q65.166370125 -4.519851624999987 65.91838575 -5.251451874999987 Q66.67040137500001 -5.983052124999986 66.67040137500001 -7.06457387499999 Q66.67040137500001 -8.146095624999987 65.93317950000001 -8.897223624999988 Q65.195957625 -9.64825299999999 64.10615137500001 -9.64825299999999 H49.904151375000005 V-39.425606124999995 L54.9266295 -34.40312799999999 Q55.745907375 -33.58385012499999 56.690439000000005 -33.56491412499999 Q57.634872 -33.545879499999984 58.492120500000006 -34.40312799999999 Q59.349467625 -35.26047512499999 59.349467625 -36.235284624999984 Q59.349467625 -37.21009412499999 58.492120500000006 -38.06734262499999 L49.622675625 -46.934420499999995 Q48.66492825 -47.89187199999999 47.38793175 -47.89187199999999 Q46.111033875000004 -47.89187199999999 45.143325374999996 -46.924262124999984 L36.1878795 -37.96871762499999 Q35.368503 -37.149439749999985 35.3988795 -36.20490812499999 Q35.429157375 -35.26047512499999 36.2865045 -34.40312799999999 Q37.143753 -33.545879499999984 38.069250000000004 -33.545879499999984 Q38.994747000000004 -33.545879499999984 39.8519955 -34.40312799999999 L44.775848625 -39.326981124999996 V-9.64825299999999 Z M17.782975125 -23.000598624999988 Q15.119311125 -23.000598624999988 13.279954875000001 -24.83995487499999 Q11.440598625000002 -26.679311124999984 11.440598625000002 -29.342975124999988 V-60.05302487499999 Q11.440598625000002 -62.71668887499999 13.279954875000001 -64.556045125 Q15.119311125 -66.39540137499999 17.782975125 -66.39540137499999 H76.897024875 Q79.560688875 -66.39540137499999 81.400045125 -64.556045125 Q83.239401375 -62.71668887499999 83.239401375 -60.05302487499999 V-29.342975124999988 Q83.239401375 -26.679311124999984 81.400045125 -24.83995487499999 Q79.560688875 -23.000598624999988 76.897024875 -23.000598624999988 H60.555651375000004 Q59.46594375000001 -23.000598624999988 58.728721875000005 -23.732297499999987 Q57.9915 -24.463897749999987 57.9915 -25.545419499999987 Q57.9915 -26.626941249999987 58.728721875000005 -27.37797062499999 Q59.46594375000001 -28.12899999999999 60.555651375000004 -28.12899999999999 H76.897024875 Q77.352277875 -28.12899999999999 77.73168825 -28.50831174999999 Q78.111 -28.88772212499999 78.111 -29.342975124999988 V-60.05302487499999 Q78.111 -60.50827787499999 77.73168825 -60.88768824999998 Q77.352277875 -61.266999999999996 76.897024875 -61.266999999999996 H17.782975125 Q17.327722125 -61.266999999999996 16.948311750000002 -60.88768824999998 Q16.569 -60.50827787499999 16.569 -60.05302487499999 V-29.342975124999988 Q16.569 -28.88772212499999 16.948311750000002 -28.50831174999999 Q17.327722125 -28.12899999999999 17.782975125 -28.12899999999999 H34.124348624999996 Q35.214056250000006 -28.12899999999999 35.951278125 -27.397399749999984 Q36.688500000000005 -26.665799499999984 36.688500000000005 -25.584277749999984 Q36.688500000000005 -24.50275599999999 35.951278125 -23.75172662499999 Q35.214056250000006 -23.000598624999988 34.124348624999996 -23.000598624999988 H17.782975125 Z"/></g><g id="Thin-S" transform="matrix(1 0 0 1 814.015 696)"><path d="M45.762 -10.103407374999986 H31.586727375000002 Q30.918937500000002 -10.103407374999986 30.450468750000002 -9.654860874999986 Q29.982000000000003 -9.206412999999987 29.982000000000003 -8.543455749999985 Q29.982000000000003 -7.880498499999987 30.434886 -7.413903624999989 Q30.887870625 -6.947308749999987 31.55743575 -6.947308749999987 H63.091497375 Q63.7610625 -6.947308749999987 64.22953125000001 -7.395855249999986 Q64.69800000000001 -7.8443031249999855 64.69800000000001 -8.507260374999987 Q64.69800000000001 -9.170217624999989 64.244325 -9.636812499999987 Q63.79065 -10.103407374999986 63.120000000000005 -10.103407374999986 H48.918 V-42.53584412499999 L55.60931175 -35.844532374999986 Q56.163091125 -35.29065437499999 56.671404375 -35.25278237499999 Q57.179717625 -35.21481174999999 57.80943825 -35.844532374999986 Q58.439158875000004 -36.47415437499999 58.439158875000004 -36.99390812499999 Q58.439158875000004 -37.51356324999999 57.80943825 -38.14318524999999 L49.357177125 -46.593079374999995 Q48.513243 -47.43671762499999 47.38793175 -47.43671762499999 Q46.262719125000004 -47.43671762499999 45.408823875 -46.582822374999985 L36.87056175 -38.04456024999999 Q36.316782375 -37.49078087499999 36.32812425 -36.98246762499999 Q36.339466125 -36.47415437499999 36.96918675 -35.844532374999986 Q37.598907375 -35.21481174999999 38.069250000000004 -35.21481174999999 Q38.539592625000004 -35.21481174999999 39.16931325 -35.844532374999986 L45.762 -42.43721912499999 V-10.103407374999986 Z M18.996654375000002 -24.972999999999985 Q16.5985875 -24.972999999999985 15.00579375 -26.565793749999983 Q13.413 -28.15858749999999 13.413 -30.556654374999987 V-58.83934562499999 Q13.413 -61.23741249999999 15.00579375 -62.83020624999999 Q16.5985875 -64.42299999999999 18.996654375000002 -64.42299999999999 H75.683345625 Q78.08141250000001 -64.42299999999999 79.67420625000001 -62.83020624999999 Q81.26700000000001 -61.23741249999999 81.26700000000001 -58.83934562499999 V-30.556654374999987 Q81.26700000000001 -28.15858749999999 79.67420625000001 -26.565793749999983 Q78.08141250000001 -24.972999999999985 75.683345625 -24.972999999999985 H59.569500000000005 Q58.89885000000001 -24.972999999999985 58.445175000000006 -25.42144787499999 Q57.9915 -25.86989574999999 57.9915 -26.53285299999999 Q57.9915 -27.195810249999987 58.445175000000006 -27.662405124999985 Q58.89885000000001 -28.12899999999999 59.569500000000005 -28.12899999999999 H75.683345625 Q76.593654375 -28.12899999999999 77.3523765 -28.88762349999999 Q78.111 -29.646345624999988 78.111 -30.556654374999987 V-58.83934562499999 Q78.111 -59.74965437499999 77.3523765 -60.50837649999998 Q76.593654375 -61.266999999999996 75.683345625 -61.266999999999996 H18.996654375000002 Q18.086345625 -61.266999999999996 17.3276235 -60.50837649999998 Q16.569 -59.74965437499999 16.569 -58.83934562499999 V-30.556654374999987 Q16.569 -29.646345624999988 17.3276235 -28.88762349999999 Q18.086345625 -28.12899999999999 18.996654375000002 -28.12899999999999 H35.1105 Q35.781150000000004 -28.12899999999999 36.234825 -27.680552124999984 Q36.688500000000005 -27.232005624999985 36.688500000000005 -26.569048374999987 Q36.688500000000005 -25.90609112499999 36.234825 -25.43959487499999 Q35.781150000000004 -24.972999999999985 35.1105 -24.972999999999985 H18.996654375000002 Z"/></g><g id="Ultralight-S" transform="matrix(1 0 0 1 517.792 696)"><path d="M46.353750000000005 -10.376499999999986 H32.178477375 Q31.76218125 -10.376499999999986 31.463840625 -10.097884374999989 Q31.1655 -9.819367374999988 31.1655 -9.40750937499999 Q31.1655 -8.995749999999987 31.448257875000003 -8.699874999999988 Q31.731114375000004 -8.403999999999986 32.14918575 -8.403999999999986 H62.499747375000005 Q62.91781875000001 -8.403999999999986 63.216159375000004 -8.682615624999986 Q63.514500000000005 -8.961132624999987 63.514500000000005 -9.372990624999986 Q63.514500000000005 -9.784749999999988 63.230953125000006 -10.080624999999987 Q62.94740625 -10.376499999999986 62.52825 -10.376499999999986 H48.32625 V-44.40212499999999 L56.019000000000005 -36.70937499999999 Q56.4135 -36.31487499999999 56.6600625 -36.26556249999999 Q56.906625000000005 -36.21624999999999 57.399750000000004 -36.70937499999999 Q57.892875000000004 -37.202499999999986 57.892875000000004 -37.44906249999999 Q57.892875000000004 -37.695624999999986 57.399750000000004 -38.18874999999999 L49.19789775 -46.388235249999994 Q48.422212125 -47.16362499999999 47.38793175 -47.16362499999999 Q46.353750000000005 -47.16362499999999 45.56810325 -46.37797824999999 L37.28025 -38.090124999999986 Q36.88575 -37.695624999999986 36.88575 -37.44906249999999 Q36.88575 -37.202499999999986 37.378875 -36.70937499999999 Q37.872 -36.21624999999999 38.069250000000004 -36.21624999999999 Q38.2665 -36.21624999999999 38.759625 -36.70937499999999 L46.353750000000005 -44.303499999999985 V-10.376499999999986 Z M19.725 -26.156499999999987 Q17.4862125 -26.156499999999987 16.04135625 -27.601356249999988 Q14.5965 -29.04621249999999 14.5965 -31.28499999999999 V-58.11099999999999 Q14.5965 -60.34978749999999 16.04135625 -61.79464374999999 Q17.4862125 -63.23949999999999 19.725 -63.23949999999999 H74.955 Q77.19378750000001 -63.23949999999999 78.63864375 -61.79464374999999 Q80.0835 -60.34978749999999 80.0835 -58.11099999999999 V-31.28499999999999 Q80.0835 -29.04621249999999 78.63864375 -27.601356249999988 Q77.19378750000001 -26.156499999999987 74.955 -26.156499999999987 H58.97775 Q58.55859375 -26.156499999999987 58.275046875 -26.435115624999987 Q57.9915 -26.71363262499999 57.9915 -27.125490624999983 Q57.9915 -27.537249999999986 58.275046875 -27.83312499999999 Q58.55859375 -28.12899999999999 58.97775 -28.12899999999999 H74.955 Q76.13850000000001 -28.12899999999999 77.12475 -29.11524999999999 Q78.111 -30.101499999999987 78.111 -31.28499999999999 V-58.11099999999999 Q78.111 -59.294499999999985 77.12475 -60.28074999999998 Q76.13850000000001 -61.266999999999996 74.955 -61.266999999999996 H19.725 Q18.5415 -61.266999999999996 17.55525 -60.28074999999998 Q16.569 -59.294499999999985 16.569 -58.11099999999999 V-31.28499999999999 Q16.569 -30.101499999999987 17.55525 -29.11524999999999 Q18.5415 -28.12899999999999 19.725 -28.12899999999999 H35.70225 Q36.12140625 -28.12899999999999 36.404953125 -27.85038437499999 Q36.688500000000005 -27.57186737499999 36.688500000000005 -27.160009374999987 Q36.688500000000005 -26.748249999999985 36.404953125 -26.45237499999999 Q36.12140625 -26.156499999999987 35.70225 -26.156499999999987 H19.725 Z"/></g></g></svg>