<svg xmlns="http://www.w3.org/2000/svg" version="1.1" width="3300" height="2000"><g id="Notes"><style>
    text {
      font-family: monospace;
      text-anchor: middle;
    }
    text.emphasis {
      font-weight:bold;
    }
    text.lanchor {
      text-anchor: start;
    }
  </style><rect height="2200" id="artboard" fill="white" width="3300" x="0" y="0"/><line id="" style="fill:none;stroke:black;stroke-width:0.5;" x1="263" x2="3036" y1="292" y2="292"/><text class="lanchor emphasis" transform="matrix(1 0 0 1 263 322)">Weight/Scale Variations</text><text transform="matrix(1 0 0 1 559.711 322)">Ultralight</text><text transform="matrix(1 0 0 1 856.422 322)">Thin</text><text transform="matrix(1 0 0 1 1153.13 322)">Light</text><text transform="matrix(1 0 0 1 1449.84 322)">Regular</text><text transform="matrix(1 0 0 1 1746.56 322)">Medium</text><text transform="matrix(1 0 0 1 2043.27 322)">Semibold</text><text transform="matrix(1 0 0 1 2339.98 322)">Bold</text><text transform="matrix(1 0 0 1 2636.69 322)">Heavy</text><text transform="matrix(1 0 0 1 2933.4 322)">Black</text><text id="template-version" style="text-anchor: end;" transform="matrix(1 0 0 1 3036 1933)">Template v.1.0</text><text class="lanchor" transform="matrix(1 0 0 1 263 726)">Small</text><text class="lanchor" transform="matrix(1 0 0 1 263 1156)">Medium</text><text class="lanchor" transform="matrix(1 0 0 1 263 1586)">Large</text></g><g id="Guides"><g id="H-reference" style="fill:#27AAE1;stroke:none;" transform="matrix(1 0 0 1 339 696)"><path d="M 54.9316 0 L 57.666 0 L 30.5664 -70.459 L 28.0762 -70.459 L 0.976562 0 L 3.66211 0 L 12.9395 -24.4629 L 45.7031 -24.4629 Z M 29.1992 -67.0898 L 29.4434 -67.0898 L 44.8242 -26.709 L 13.8184 -26.709 Z"/></g><line id="Baseline-S" style="fill:none;stroke:#27AAE1;opacity:1;stroke-width:0.577;" x1="263" x2="3036" y1="696" y2="696"/><line id="Capline-S" style="fill:none;stroke:#27AAE1;opacity:1;stroke-width:0.577;" x1="263" x2="3036" y1="625.541" y2="625.541"/><g id="H-reference" style="fill:#27AAE1;stroke:none;" transform="matrix(1 0 0 1 339 1126)"><path d="M 54.9316 0 L 57.666 0 L 30.5664 -70.459 L 28.0762 -70.459 L 0.976562 0 L 3.66211 0 L 12.9395 -24.4629 L 45.7031 -24.4629 Z M 29.1992 -67.0898 L 29.4434 -67.0898 L 44.8242 -26.709 L 13.8184 -26.709 Z"/></g><line id="Baseline-M" style="fill:none;stroke:#27AAE1;opacity:1;stroke-width:0.577;" x1="263" x2="3036" y1="1126" y2="1126"/><line id="Capline-M" style="fill:none;stroke:#27AAE1;opacity:1;stroke-width:0.577;" x1="263" x2="3036" y1="1055.54" y2="1055.54"/><g id="H-reference" style="fill:#27AAE1;stroke:none;" transform="matrix(1 0 0 1 339 1556)"><path d="M 54.9316 0 L 57.666 0 L 30.5664 -70.459 L 28.0762 -70.459 L 0.976562 0 L 3.66211 0 L 12.9395 -24.4629 L 45.7031 -24.4629 Z M 29.1992 -67.0898 L 29.4434 -67.0898 L 44.8242 -26.709 L 13.8184 -26.709 Z"/></g><line id="Baseline-L" style="fill:none;stroke:#27AAE1;opacity:1;stroke-width:0.577;" x1="263" x2="3036" y1="1556" y2="1556"/><line id="Capline-L" style="fill:none;stroke:#27AAE1;opacity:1;stroke-width:0.577;" x1="263" x2="3036" y1="1485.54" y2="1485.54"/><rect height="119.336" id="left-margin" style="fill:darkred;stroke:none;opacity:0.4;" width="12.4512" x="1394.06" y="1030.79"/><rect height="119.336" id="right-margin" style="fill:darkgreen;stroke:none;opacity:0.4;" width="12.4512" x="1502.5112" y="1030.79"/><rect x="1406.5112" y="1045" width="96" height="96" fill="none" stroke="blue" stroke-dasharray="5"/><rect x="1394.06" y="1030.79" width="120.9024" height="119.336" fill="none" stroke="blue"/></g><g id="Symbols"><g id="Bold-L" transform="matrix(1 0 0 1 2266 1556)"><path d="M24.509999999999998 19.756249999999994 Q18.22125 19.756249999999994 13.948125000000001 15.483125000000001 Q9.675 11.210000000000008 9.675 5.08250000000001 V-38.938749999999985 Q9.675 -42.0025 11.851875 -44.17937499999999 Q14.028749999999999 -46.35624999999999 17.0925 -46.35624999999999 Q20.15625 -46.35624999999999 22.333125 -44.17937499999999 Q24.509999999999998 -42.0025 24.509999999999998 -38.938749999999985 V5.08250000000001 Q24.509999999999998 5.08250000000001 24.509999999999998 5.08250000000001 Q24.509999999999998 5.08250000000001 24.509999999999998 5.08250000000001 H130.45125000000002 Q130.45125000000002 5.08250000000001 130.45125000000002 5.08250000000001 Q130.45125000000002 5.08250000000001 130.45125000000002 5.08250000000001 V-75.38125 Q130.45125000000002 -75.38125 130.45125000000002 -75.38125 Q130.45125000000002 -75.38125 130.45125000000002 -75.38125 H74.65875 Q71.595 -75.38125 69.418125 -77.47749999999999 Q67.24125000000001 -79.57374999999999 67.24125000000001 -82.79875 Q67.24125000000001 -86.02374999999999 69.418125 -88.12 Q71.595 -90.21625 74.65875 -90.21625 H130.45125000000002 Q136.57875 -90.21625 141.013125 -85.781875 Q145.44750000000002 -81.3475 145.44750000000002 -75.38125 V5.08250000000001 Q145.44750000000002 11.210000000000008 141.013125 15.483125000000001 Q136.57875 19.756249999999994 130.45125000000002 19.756249999999994 H24.509999999999998 Z M89.97749999999999 -26.844999999999985  108.52125 -8.301249999999982 Q110.29500000000002 -6.3662499999999795 112.71375000000002 -6.3662499999999795 Q115.13250000000001 -6.3662499999999795 117.22875 -8.301249999999982 Q119.0025 -10.236249999999998 119.0025 -12.735624999999985 Q119.0025 -15.235 117.22875 -17.169999999999987 L98.685 -35.552499999999995 H109.97250000000001 Q112.5525 -35.552499999999995 114.40687500000001 -37.406875 Q116.26124999999999 -39.26124999999999 116.26124999999999 -41.84125 Q116.26124999999999 -44.42125 114.40687500000001 -46.27562499999999 Q112.5525 -48.129999999999995 109.97250000000001 -48.129999999999995 H84.97875 Q81.91499999999999 -48.129999999999995 79.81875000000001 -45.8725 Q77.72250000000001 -43.614999999999995 77.72250000000001 -40.55124999999998 V-15.718749999999986 Q77.72250000000001 -13.138749999999987 79.49625 -11.284374999999997 Q81.27 -9.429999999999993 83.85000000000001 -9.429999999999993 Q86.43 -9.429999999999993 88.20375000000001 -11.284374999999997 Q89.97749999999999 -13.138749999999987 89.97749999999999 -15.718749999999986 V-26.844999999999985 Z M17.0925 -55.5475 Q14.028749999999999 -55.5475 11.851875 -57.724375 Q9.675 -59.90124999999999 9.675 -62.964999999999996 V-82.79875 Q9.675 -85.8625 11.851875 -88.12 Q14.028749999999999 -90.3775 17.0925 -90.3775 H50.6325 Q53.69625 -90.3775 55.873125 -88.12 Q58.050000000000004 -85.8625 58.050000000000004 -82.79875 V-62.964999999999996 Q58.050000000000004 -59.90124999999999 55.873125 -57.724375 Q53.69625 -55.5475 50.6325 -55.5475 H17.0925 Z"/></g><g id="Semibold-L" transform="matrix(1 0 0 1 1970.27 1556)"><path d="M23.865000000000002 17.982500000000016 Q18.705 17.982500000000016 15.076875 14.354375000000005 Q11.44875 10.726250000000007 11.44875 5.566249999999997 V-38.13249999999999 Q11.44875 -40.71249999999999 13.222499999999998 -42.48625 Q14.996250000000002 -44.25999999999999 17.57625 -44.25999999999999 Q20.15625 -44.25999999999999 22.010625 -42.48625 Q23.865000000000002 -40.71249999999999 23.865000000000002 -38.13249999999999 V5.566249999999997 Q23.865000000000002 5.566249999999997 23.865000000000002 5.566249999999997 Q23.865000000000002 5.566249999999997 23.865000000000002 5.566249999999997 H131.09625 Q131.09625 5.566249999999997 131.09625 5.566249999999997 Q131.09625 5.566249999999997 131.09625 5.566249999999997 V-76.02625 Q131.09625 -76.02625 131.09625 -76.02625 Q131.09625 -76.02625 131.09625 -76.02625 H75.1425 Q72.40125 -76.02625 70.6275 -77.79999999999998 Q68.85375 -79.57374999999999 68.85375 -82.15375 Q68.85375 -84.895 70.6275 -86.66874999999999 Q72.40125 -88.4425 75.1425 -88.4425 H131.09625 Q136.095 -88.4425 139.80375 -84.73374999999999 Q143.51250000000002 -81.02499999999999 143.51250000000002 -76.02625 V5.566249999999997 Q143.51250000000002 10.726250000000007 139.80375 14.354375000000005 Q136.095 17.982500000000016 131.09625 17.982500000000016 H23.865000000000002 Z M89.17125 -28.457499999999982  108.84375 -8.784999999999982 Q110.45625 -7.172499999999985 112.63312499999999 -7.172499999999985 Q114.81 -7.172499999999985 116.58375 -8.946249999999992 Q118.19624999999999 -10.558750000000003 118.19624999999999 -12.816249999999997 Q118.19624999999999 -15.07374999999999 116.58375 -16.847499999999997 L96.91125000000001 -36.35875 H109.65 Q112.06875000000001 -36.35875 113.68125 -37.97125 Q115.29375 -39.583749999999995 115.29375 -42.0025 Q115.29375 -44.25999999999999 113.68125 -45.8725 Q112.06875000000001 -47.485 109.65 -47.485 H84.33375 Q81.75375000000001 -47.485 79.98 -45.630624999999995 Q78.20625 -43.77624999999999 78.20625 -41.19624999999999 V-15.879999999999995 Q78.20625 -13.622499999999988 79.81875000000001 -12.009999999999991 Q81.43125 -10.397499999999994 83.68875 -10.397499999999994 Q85.94624999999999 -10.397499999999994 87.55875 -12.009999999999991 Q89.17125 -13.622499999999988 89.17125 -15.879999999999995 V-28.457499999999982 Z M17.57625 -53.61249999999999 Q14.996250000000002 -53.61249999999999 13.222499999999998 -55.38625 Q11.44875 -57.16 11.44875 -59.74 V-82.315 Q11.44875 -84.73374999999999 13.222499999999998 -86.58812499999999 Q14.996250000000002 -88.4425 17.57625 -88.4425 H53.37375 Q55.95375000000001 -88.4425 57.7275 -86.58812499999999 Q59.50125 -84.73374999999999 59.50125 -82.315 V-59.74 Q59.50125 -57.16 57.7275 -55.38625 Q55.95375000000001 -53.61249999999999 53.37375 -53.61249999999999 H17.57625 Z"/></g><g id="Medium-L" transform="matrix(1 0 0 1 1674.31 1556)"><path d="M23.38125 16.692500000000024 Q19.027500000000003 16.692500000000024 15.883125 13.548125000000013 Q12.738750000000001 10.403750000000002 12.738750000000001 6.049999999999997 V-37.64874999999999 Q12.738750000000001 -39.74499999999999 14.270624999999999 -41.27687499999999 Q15.802500000000002 -42.80875 18.06 -42.80875 Q20.3175 -42.80875 21.849375000000002 -41.27687499999999 Q23.38125 -39.74499999999999 23.38125 -37.64874999999999 V6.049999999999997 Q23.38125 6.049999999999997 23.38125 6.049999999999997 Q23.38125 6.049999999999997 23.38125 6.049999999999997 H131.57999999999998 Q131.57999999999998 6.049999999999997 131.57999999999998 6.049999999999997 Q131.57999999999998 6.049999999999997 131.57999999999998 6.049999999999997 V-76.50999999999999 Q131.57999999999998 -76.50999999999999 131.57999999999998 -76.50999999999999 Q131.57999999999998 -76.50999999999999 131.57999999999998 -76.50999999999999 H75.465 Q73.2075 -76.50999999999999 71.595 -78.041875 Q69.9825 -79.57374999999999 69.9825 -81.83125 Q69.9825 -84.08875 71.595 -85.62062499999999 Q73.2075 -87.15249999999999 75.465 -87.15249999999999 H131.57999999999998 Q135.7725 -87.15249999999999 138.9975 -83.9275 Q142.2225 -80.70249999999999 142.2225 -76.50999999999999 V6.049999999999997 Q142.2225 10.403750000000002 138.9975 13.548125000000013 Q135.7725 16.692500000000024 131.57999999999998 16.692500000000024 H23.38125 Z M88.6875 -29.908749999999998  109.16625 -9.268749999999997 Q110.61749999999999 -7.8174999999999955 112.63312499999999 -7.8174999999999955 Q114.64874999999999 -7.8174999999999955 116.10000000000001 -9.429999999999993 Q117.7125 -10.881249999999994 117.7125 -12.896874999999994 Q117.7125 -14.912499999999994 116.10000000000001 -16.52499999999999 L95.62125 -37.00375 H109.48875000000001 Q111.58500000000001 -37.00375 113.03625 -38.455 Q114.4875 -39.906249999999986 114.4875 -42.0025 Q114.4875 -44.098749999999995 113.03625 -45.55 Q111.58500000000001 -47.001249999999985 109.48875000000001 -47.001249999999985 H83.85000000000001 Q81.5925 -47.001249999999985 80.14125000000001 -45.469375 Q78.69 -43.937499999999986 78.69 -41.67999999999999 V-16.2025 Q78.69 -13.944999999999993 80.060625 -12.574375000000003 Q81.43125 -11.20375 83.68875 -11.20375 Q85.78500000000001 -11.20375 87.23625 -12.574375000000003 Q88.6875 -13.944999999999993 88.6875 -16.2025 V-29.908749999999998 Z M18.06 -52.161249999999995 Q15.802500000000002 -52.161249999999995 14.270624999999999 -53.693124999999995 Q12.738750000000001 -55.224999999999994 12.738750000000001 -57.48249999999999 V-81.83125 Q12.738750000000001 -83.9275 14.270624999999999 -85.53999999999999 Q15.802500000000002 -87.15249999999999 18.06 -87.15249999999999 H55.47 Q57.7275 -87.15249999999999 59.259375 -85.53999999999999 Q60.791250000000005 -83.9275 60.791250000000005 -81.83125 V-57.48249999999999 Q60.791250000000005 -55.224999999999994 59.259375 -53.693124999999995 Q57.7275 -52.161249999999995 55.47 -52.161249999999995 H18.06 Z"/></g><g id="Regular-L" transform="matrix(1 0 0 1 1378.56 1556)"><path d="M23.058750000000003 15.563749999999999 Q19.35 15.563749999999999 16.528125 12.822500000000005 Q13.70625 10.081249999999997 13.70625 6.372500000000002 V-37.16499999999999 Q13.70625 -39.099999999999994 15.076875 -40.470625 Q16.447499999999998 -41.84125 18.3825 -41.84125 Q20.3175 -41.84125 21.688125 -40.470625 Q23.058750000000003 -39.099999999999994 23.058750000000003 -37.16499999999999 V6.372500000000002 Q23.058750000000003 6.372500000000002 23.058750000000003 6.372500000000002 Q23.058750000000003 6.372500000000002 23.058750000000003 6.372500000000002 H131.9025 Q131.9025 6.372500000000002 131.9025 6.372500000000002 Q131.9025 6.372500000000002 131.9025 6.372500000000002 V-76.99374999999999 Q131.9025 -76.99374999999999 131.9025 -76.99374999999999 Q131.9025 -76.99374999999999 131.9025 -76.99374999999999 H75.62625 Q73.69125000000001 -76.99374999999999 72.320625 -78.28375 Q70.95 -79.57374999999999 70.95 -81.50874999999999 Q70.95 -83.60499999999999 72.320625 -84.895 Q73.69125000000001 -86.185 75.62625 -86.185 H131.9025 Q135.45000000000002 -86.185 138.3525 -83.363125 Q141.255 -80.54124999999999 141.255 -76.99374999999999 V6.372500000000002 Q141.255 10.081249999999997 138.3525 12.822500000000005 Q135.45000000000002 15.563749999999999 131.9025 15.563749999999999 H23.058750000000003 Z M88.20375000000001 -30.876249999999985  109.3275 -9.752499999999998 Q110.77875 -8.301249999999982 112.5525 -8.301249999999982 Q114.32625000000002 -8.301249999999982 115.93875000000001 -9.752499999999998 Q117.22875 -11.20375 117.22875 -13.05812499999999 Q117.22875 -14.912499999999994 115.93875000000001 -16.363749999999982 L94.65375 -37.4875 H109.3275 Q111.2625 -37.4875 112.63312499999999 -38.7775 Q114.00375000000001 -40.067499999999995 114.00375000000001 -42.16374999999999 Q114.00375000000001 -44.098749999999995 112.63312499999999 -45.469375 Q111.2625 -46.84 109.3275 -46.84 H83.5275 Q81.5925 -46.84 80.3025 -45.469375 Q79.0125 -44.098749999999995 79.0125 -42.16374999999999 V-16.363749999999982 Q79.0125 -14.267499999999998 80.3025 -12.977499999999992 Q81.5925 -11.687499999999986 83.5275 -11.687499999999986 Q85.62375 -11.687499999999986 86.91375 -12.977499999999992 Q88.20375000000001 -14.267499999999998 88.20375000000001 -16.363749999999982 V-30.876249999999985 Z M18.3825 -51.03249999999999 Q16.447499999999998 -51.03249999999999 15.076875 -52.40312499999999 Q13.70625 -53.77374999999999 13.70625 -55.70875 V-81.50874999999999 Q13.70625 -83.44375 15.076875 -84.814375 Q16.447499999999998 -86.185 18.3825 -86.185 H57.082499999999996 Q59.017500000000005 -86.185 60.38812500000001 -84.814375 Q61.75875 -83.44375 61.75875 -81.50874999999999 V-55.70875 Q61.75875 -53.77374999999999 60.38812500000001 -52.40312499999999 Q59.017500000000005 -51.03249999999999 57.082499999999996 -51.03249999999999 H18.3825 Z"/></g><g id="Light-L" transform="matrix(1 0 0 1 1082.77 1556)"><path d="M25.63875 12.66125000000001 Q22.09125 12.66125000000001 19.35 10.000625 Q16.60875 7.340000000000018 16.60875 3.6312499999999943 V-37.4875 Q16.60875 -38.938749999999985 17.656875 -39.986875 Q18.705 -41.035 20.15625 -41.035 Q21.6075 -41.035 22.655625 -39.986875 Q23.70375 -38.938749999999985 23.70375 -37.4875 V3.6312499999999943 Q23.70375 4.4375 24.268125 5.0018750000000125 Q24.8325 5.566249999999997 25.63875 5.566249999999997 H129.16125 Q129.9675 5.566249999999997 130.6125 5.0018750000000125 Q131.25750000000002 4.4375 131.25750000000002 3.6312499999999943 V-74.2525 Q131.25750000000002 -75.05875 130.6125 -75.62312499999999 Q129.9675 -76.1875 129.16125 -76.1875 H75.30375000000001 Q73.69125000000001 -76.1875 72.72375000000001 -77.155 Q71.75625000000001 -78.1225 71.75625000000001 -79.735 Q71.75625000000001 -81.18625 72.72375000000001 -82.234375 Q73.69125000000001 -83.2825 75.30375000000001 -83.2825 H129.16125 Q132.70875 -83.2825 135.45000000000002 -80.54124999999999 Q138.19125 -77.79999999999998 138.19125 -74.2525 V3.6312499999999943 Q138.19125 7.340000000000018 135.45000000000002 10.000625 Q132.70875 12.66125000000001 129.16125 12.66125000000001 H25.63875 Z M85.4625 -34.907499999999985  109.97250000000001 -10.397499999999994 Q110.94 -9.429999999999993 112.39125000000001 -9.429999999999993 Q113.84249999999999 -9.429999999999993 114.97125 -10.558750000000003 Q116.10000000000001 -11.52624999999999 116.10000000000001 -12.977499999999992 Q116.10000000000001 -14.428749999999994 114.97125 -15.55749999999999 L90.3 -40.067499999999995 H107.715 Q109.3275 -40.067499999999995 110.29500000000002 -41.035 Q111.2625 -42.0025 111.2625 -43.614999999999995 Q111.2625 -45.22749999999999 110.29500000000002 -46.19499999999999 Q109.3275 -47.162499999999994 107.715 -47.162499999999994 H82.8825 Q80.9475 -47.162499999999994 79.6575 -45.8725 Q78.3675 -44.582499999999996 78.3675 -42.647499999999994 V-17.814999999999998 Q78.3675 -16.2025 79.415625 -15.235 Q80.46375 -14.267499999999998 81.91499999999999 -14.267499999999998 Q83.5275 -14.267499999999998 84.495 -15.235 Q85.4625 -16.2025 85.4625 -17.814999999999998 V-34.907499999999985 Z M21.285 -52.48375 Q19.188750000000002 -52.48375 17.89875 -53.77374999999999 Q16.60875 -55.06374999999999 16.60875 -57.16 V-78.60624999999999 Q16.60875 -80.54124999999999 17.89875 -81.83125 Q19.188750000000002 -83.12124999999999 21.285 -83.12124999999999 H55.63125 Q57.566250000000004 -83.12124999999999 58.85625 -81.83125 Q60.146249999999995 -80.54124999999999 60.146249999999995 -78.60624999999999 V-57.16 Q60.146249999999995 -55.06374999999999 58.85625 -53.77374999999999 Q57.566250000000004 -52.48375 55.63125 -52.48375 H21.285 Z"/></g><g id="Thin-L" transform="matrix(1 0 0 1 787.282 1556)"><path d="M28.380000000000003 9.75875000000002 Q24.8325 9.75875000000002 22.171875 7.178750000000008 Q19.51125 4.59875000000001 19.51125 0.8900000000000148 V-37.81 Q19.51125 -38.7775 20.236875 -39.503125 Q20.962500000000002 -40.22874999999999 22.09125 -40.22874999999999 Q23.058750000000003 -40.22874999999999 23.70375 -39.503125 Q24.34875 -38.7775 24.34875 -37.81 V0.8900000000000148 Q24.34875 2.6637500000000074 25.477500000000003 3.792500000000018 Q26.60625 4.921250000000015 28.380000000000003 4.921250000000015 H126.58125 Q128.19375 4.921250000000015 129.32250000000002 3.792500000000018 Q130.45125000000002 2.6637500000000074 130.45125000000002 0.8900000000000148 V-71.51124999999999 Q130.45125000000002 -73.12375 129.32250000000002 -74.2525 Q128.19375 -75.38125 126.58125 -75.38125 H74.98125 Q73.85249999999999 -75.38125 73.126875 -76.02625 Q72.40125 -76.67124999999999 72.40125 -77.79999999999998 Q72.40125 -78.92875 73.126875 -79.57374999999999 Q73.85249999999999 -80.21875 74.98125 -80.21875 H126.58125 Q129.9675 -80.21875 132.628125 -77.63874999999999 Q135.28875000000002 -75.05875 135.28875000000002 -71.51124999999999 V0.8900000000000148 Q135.28875000000002 4.59875000000001 132.628125 7.178750000000008 Q129.9675 9.75875000000002 126.58125 9.75875000000002 H28.380000000000003 Z M82.8825 -39.099999999999994  110.61749999999999 -11.20375 Q111.2625 -10.558750000000003 112.31062500000002 -10.478124999999991 Q113.35875 -10.397499999999994 114.32625000000002 -11.364999999999995 Q114.97125 -12.009999999999991 114.97125 -12.977499999999992 Q114.97125 -13.944999999999993 114.32625000000002 -14.751249999999985 L86.1075 -42.80875 H106.10249999999999 Q107.23125 -42.80875 107.95687500000001 -43.45375 Q108.68250000000002 -44.098749999999995 108.68250000000002 -45.22749999999999 Q108.68250000000002 -46.19499999999999 107.95687500000001 -46.92062499999999 Q107.23125 -47.646249999999995 106.10249999999999 -47.646249999999995 H82.2375 Q80.3025 -47.646249999999995 79.093125 -46.35624999999999 Q77.88374999999999 -45.06625 77.88374999999999 -43.131249999999994 V-19.26625 Q77.88374999999999 -18.13749999999999 78.52875 -17.57312499999999 Q79.17375 -17.008749999999992 80.3025 -17.008749999999992 Q81.43125 -17.008749999999992 82.15687500000001 -17.57312499999999 Q82.8825 -18.13749999999999 82.8825 -19.26625 V-39.099999999999994 Z M24.02625 -53.934999999999995 Q22.09125 -53.934999999999995 20.80125 -55.224999999999994 Q19.51125 -56.515 19.51125 -58.44999999999999 V-75.865 Q19.51125 -77.63874999999999 20.80125 -78.92875 Q22.09125 -80.21875 24.02625 -80.21875 H54.34125000000001 Q56.114999999999995 -80.21875 57.405 -78.92875 Q58.695 -77.63874999999999 58.695 -75.865 V-58.44999999999999 Q58.695 -56.515 57.405 -55.224999999999994 Q56.114999999999995 -53.934999999999995 54.34125000000001 -53.934999999999995 H24.02625 Z"/></g><g id="Ultralight-L" transform="matrix(1 0 0 1 491.205 1556)"><path d="M29.992500000000003 7.984999999999999 Q26.444999999999997 7.984999999999999 23.865000000000002 5.405000000000015 Q21.285 2.825000000000003 21.285 -0.7224999999999824 V-38.13249999999999 Q21.285 -38.7775 21.76875 -39.26124999999999 Q22.2525 -39.74499999999999 23.058750000000003 -39.74499999999999 Q23.865000000000002 -39.74499999999999 24.34875 -39.26124999999999 Q24.8325 -38.7775 24.8325 -38.13249999999999 V-0.7224999999999824 Q24.8325 1.5349999999999966 26.28375 2.9862500000000125 Q27.735 4.4375 29.992500000000003 4.4375 H124.96875 Q127.065 4.4375 128.596875 2.9862500000000125 Q130.12875 1.5349999999999966 130.12875 -0.7224999999999824 V-69.89874999999999 Q130.12875 -71.995 128.596875 -73.52687499999999 Q127.065 -75.05875 124.96875 -75.05875 H74.82 Q73.85249999999999 -75.05875 73.36875 -75.46187499999999 Q72.885 -75.865 72.885 -76.67124999999999 Q72.885 -77.63874999999999 73.36875 -78.1225 Q73.85249999999999 -78.60624999999999 74.82 -78.60624999999999 H124.96875 Q128.355 -78.60624999999999 131.015625 -75.94562499999999 Q133.67625 -73.285 133.67625 -69.89874999999999 V-0.7224999999999824 Q133.67625 2.825000000000003 131.015625 5.405000000000015 Q128.355 7.984999999999999 124.96875 7.984999999999999 H29.992500000000003 Z M81.27 -41.67999999999999  111.10125000000001 -11.687499999999986 Q111.58500000000001 -11.20375 112.31062500000002 -11.20375 Q113.03625 -11.20375 113.84249999999999 -11.848749999999995 Q114.32625000000002 -12.332499999999982 114.32625000000002 -12.977499999999992 Q114.32625000000002 -13.622499999999988 113.84249999999999 -14.428749999999994 L83.5275 -44.42125 H105.135 Q105.94125000000001 -44.42125 106.505625 -44.824375 Q107.07000000000001 -45.22749999999999 107.07000000000001 -46.03375 Q107.07000000000001 -47.001249999999985 106.505625 -47.485 Q105.94125000000001 -47.968749999999986 105.135 -47.968749999999986 H81.91499999999999 Q79.98 -47.968749999999986 78.85125 -46.678749999999994 Q77.72250000000001 -45.38874999999999 77.72250000000001 -43.45375 V-20.23375 Q77.72250000000001 -19.427499999999995 78.12562500000001 -19.024374999999992 Q78.52875 -18.621250000000003 79.33500000000001 -18.621250000000003 Q80.3025 -18.621250000000003 80.78625000000001 -19.024374999999992 Q81.27 -19.427499999999995 81.27 -20.23375 V-41.67999999999999 Z M25.8 -54.902499999999996 Q23.70375 -54.902499999999996 22.494374999999998 -56.111875 Q21.285 -57.32125 21.285 -59.4175 V-74.2525 Q21.285 -76.02625 22.494374999999998 -77.235625 Q23.70375 -78.445 25.8 -78.445 H53.535000000000004 Q55.308749999999996 -78.445 56.518125 -77.235625 Q57.7275 -76.02625 57.7275 -74.2525 V-59.4175 Q57.7275 -57.32125 56.518125 -56.111875 Q55.308749999999996 -54.902499999999996 53.535000000000004 -54.902499999999996 H25.8 Z"/></g><g id="Bold-M" transform="matrix(1 0 0 1 2281.8 1126)"><path d="M22.125 8.02000000000001 Q15.75 8.02000000000001 11.375 3.6450000000000102 Q7.0 -0.7299999999999898 7.0 -7.10499999999999 V-37.47999999999999 Q7.0 -40.47999999999999 9.25 -42.72999999999999 Q11.5 -44.97999999999999 14.625 -44.97999999999999 Q17.625 -44.97999999999999 19.875 -42.72999999999999 Q22.125 -40.47999999999999 22.125 -37.47999999999999 V-7.10499999999999 Q22.125 -7.10499999999999 22.125 -7.10499999999999 Q22.125 -7.10499999999999 22.125 -7.10499999999999 H98.0 Q98.0 -7.10499999999999 98.0 -7.10499999999999 Q98.0 -7.10499999999999 98.0 -7.10499999999999 V-63.22999999999999 Q98.0 -63.22999999999999 98.0 -63.22999999999999 Q98.0 -63.22999999999999 98.0 -63.22999999999999 H58.75 Q55.625 -63.22999999999999 53.375 -65.47999999999999 Q51.125 -67.72999999999999 51.125 -70.72999999999999 Q51.125 -73.85499999999999 53.375 -76.10499999999999 Q55.625 -78.35499999999999 58.75 -78.35499999999999 H98.0 Q104.25 -78.35499999999999 108.69 -73.91999999999999 Q113.125 -69.47999999999999 113.125 -63.22999999999999 V-7.10499999999999 Q113.125 -0.7299999999999898 108.69 3.6450000000000102 Q104.25 8.02000000000001 98.0 8.02000000000001 H22.125 Z M71.875 -24.47999999999999  81.5 -14.85499999999999 Q83.5 -12.97999999999999 85.94 -12.97999999999999 Q88.375 -12.97999999999999 90.375 -14.97999999999999 Q92.25 -16.85499999999999 92.25 -19.35499999999999 Q92.25 -21.85499999999999 90.375 -23.85499999999999 L80.625 -33.47999999999999 H85.875 Q88.5 -33.47999999999999 90.375 -35.35499999999999 Q92.25 -37.22999999999999 92.25 -39.72999999999999 Q92.25 -42.35499999999999 90.375 -44.22999999999999 Q88.5 -46.10499999999999 85.875 -46.10499999999999 H66.75 Q63.75 -46.10499999999999 61.5 -43.85499999999999 Q59.25 -41.60499999999999 59.25 -38.47999999999999 V-19.35499999999999 Q59.25 -16.85499999999999 61.125 -14.97999999999999 Q63.0 -13.10499999999999 65.5 -13.10499999999999 Q68.125 -13.10499999999999 70.0 -14.97999999999999 Q71.875 -16.85499999999999 71.875 -19.35499999999999 V-24.47999999999999 Z M14.625 -54.35499999999999 Q11.5 -54.35499999999999 9.25 -56.60499999999999 Q7.0 -58.85499999999999 7.0 -61.97999999999999 V-70.85499999999999 Q7.0 -73.85499999999999 9.25 -76.10499999999999 Q11.5 -78.35499999999999 14.625 -78.35499999999999 H34.25 Q37.25 -78.35499999999999 39.5 -76.10499999999999 Q41.75 -73.85499999999999 41.75 -70.85499999999999 V-61.97999999999999 Q41.75 -58.85499999999999 39.5 -56.60499999999999 Q37.25 -54.35499999999999 34.25 -54.35499999999999 H14.625 Z"/></g><g id="Semibold-M" transform="matrix(1 0 0 1 1985.97 1126)"><path d="M21.5 6.14500000000001 Q16.25 6.14500000000001 12.565 2.460000000000008 Q8.875 -1.2299999999999898 8.875 -6.47999999999999 V-36.60499999999999 Q8.875 -39.22999999999999 10.75 -41.10499999999999 Q12.625 -42.97999999999999 15.125 -42.97999999999999 Q17.75 -42.97999999999999 19.625 -41.10499999999999 Q21.5 -39.22999999999999 21.5 -36.60499999999999 V-6.47999999999999 Q21.5 -6.47999999999999 21.5 -6.47999999999999 Q21.5 -6.47999999999999 21.5 -6.47999999999999 H98.625 Q98.625 -6.47999999999999 98.625 -6.47999999999999 Q98.625 -6.47999999999999 98.625 -6.47999999999999 V-63.85499999999999 Q98.625 -63.85499999999999 98.625 -63.85499999999999 Q98.625 -63.85499999999999 98.625 -63.85499999999999 H59.125 Q56.5 -63.85499999999999 54.625 -65.72999999999999 Q52.75 -67.60499999999999 52.75 -70.22999999999999 Q52.75 -72.72999999999999 54.625 -74.60499999999999 Q56.5 -76.47999999999999 59.125 -76.47999999999999 H98.625 Q103.875 -76.47999999999999 107.56500000000001 -72.79499999999999 Q111.25 -69.10499999999999 111.25 -63.85499999999999 V-6.47999999999999 Q111.25 -1.2299999999999898 107.56500000000001 2.460000000000008 Q103.875 6.14500000000001 98.625 6.14500000000001 H21.5 Z M71.0 -26.35499999999999  81.875 -15.47999999999999 Q83.625 -13.85499999999999 85.815 -13.85499999999999 Q88.0 -13.85499999999999 89.75 -15.60499999999999 Q91.375 -17.22999999999999 91.375 -19.47999999999999 Q91.375 -21.72999999999999 89.75 -23.47999999999999 L78.875 -34.22999999999999 H85.625 Q87.875 -34.22999999999999 89.565 -35.91999999999999 Q91.25 -37.60499999999999 91.25 -39.85499999999999 Q91.25 -42.22999999999999 89.565 -43.85499999999999 Q87.875 -45.47999999999999 85.625 -45.47999999999999 H66.125 Q63.5 -45.47999999999999 61.625 -43.60499999999999 Q59.75 -41.72999999999999 59.75 -39.22999999999999 V-19.72999999999999 Q59.75 -17.35499999999999 61.44 -15.72999999999999 Q63.125 -14.10499999999999 65.375 -14.10499999999999 Q67.625 -14.10499999999999 69.315 -15.72999999999999 Q71.0 -17.35499999999999 71.0 -19.72999999999999 V-26.35499999999999 Z M15.125 -52.35499999999999 Q12.625 -52.35499999999999 10.75 -54.22999999999999 Q8.875 -56.10499999999999 8.875 -58.60499999999999 V-70.22999999999999 Q8.875 -72.72999999999999 10.75 -74.60499999999999 Q12.625 -76.47999999999999 15.125 -76.47999999999999 H37.125 Q39.75 -76.47999999999999 41.559999999999995 -74.60499999999999 Q43.375 -72.72999999999999 43.375 -70.22999999999999 V-58.60499999999999 Q43.375 -56.10499999999999 41.559999999999995 -54.22999999999999 Q39.75 -52.35499999999999 37.125 -52.35499999999999 H15.125 Z"/></g><g id="Medium-M" transform="matrix(1 0 0 1 1689.91 1126)"><path d="M21.0 4.64500000000001 Q16.5 4.64500000000001 13.375 1.5200000000000102 Q10.25 -1.6049999999999898 10.25 -6.10499999999999 V-36.10499999999999 Q10.25 -38.35499999999999 11.815 -39.919999999999995 Q13.375 -41.47999999999999 15.625 -41.47999999999999 Q17.875 -41.47999999999999 19.439999999999998 -39.919999999999995 Q21.0 -38.35499999999999 21.0 -36.10499999999999 V-6.10499999999999 Q21.0 -6.10499999999999 21.0 -6.10499999999999 Q21.0 -6.10499999999999 21.0 -6.10499999999999 H99.125 Q99.125 -6.10499999999999 99.125 -6.10499999999999 Q99.125 -6.10499999999999 99.125 -6.10499999999999 V-64.35499999999999 Q99.125 -64.35499999999999 99.125 -64.35499999999999 Q99.125 -64.35499999999999 99.125 -64.35499999999999 H59.5 Q57.25 -64.35499999999999 55.69 -65.97999999999999 Q54.125 -67.60499999999999 54.125 -69.72999999999999 Q54.125 -71.97999999999999 55.69 -73.54499999999999 Q57.25 -75.10499999999999 59.5 -75.10499999999999 H99.125 Q103.5 -75.10499999999999 106.69 -71.97999999999999 Q109.875 -68.85499999999999 109.875 -64.35499999999999 V-6.10499999999999 Q109.875 -1.6049999999999898 106.69 1.5200000000000102 Q103.5 4.64500000000001 99.125 4.64500000000001 H21.0 Z M70.375 -27.72999999999999  82.125 -15.97999999999999 Q83.75 -14.47999999999999 85.75 -14.47999999999999 Q87.75 -14.47999999999999 89.25 -16.10499999999999 Q90.875 -17.60499999999999 90.875 -19.60499999999999 Q90.875 -21.60499999999999 89.25 -23.22999999999999 L77.5 -34.97999999999999 H85.375 Q87.5 -34.97999999999999 89.0 -36.47999999999999 Q90.5 -37.97999999999999 90.5 -39.97999999999999 Q90.5 -42.10499999999999 89.0 -43.60499999999999 Q87.5 -45.10499999999999 85.375 -45.10499999999999 H65.625 Q63.375 -45.10499999999999 61.815 -43.54499999999999 Q60.25 -41.97999999999999 60.25 -39.72999999999999 V-19.97999999999999 Q60.25 -17.85499999999999 61.75 -16.35499999999999 Q63.25 -14.85499999999999 65.25 -14.85499999999999 Q67.375 -14.85499999999999 68.875 -16.35499999999999 Q70.375 -17.85499999999999 70.375 -19.97999999999999 V-27.72999999999999 Z M15.625 -50.85499999999999 Q13.375 -50.85499999999999 11.815 -52.419999999999995 Q10.25 -53.97999999999999 10.25 -56.22999999999999 V-69.72999999999999 Q10.25 -71.97999999999999 11.815 -73.54499999999999 Q13.375 -75.10499999999999 15.625 -75.10499999999999 H39.375 Q41.5 -75.10499999999999 43.125 -73.54499999999999 Q44.75 -71.97999999999999 44.75 -69.72999999999999 V-56.22999999999999 Q44.75 -53.97999999999999 43.125 -52.419999999999995 Q41.5 -50.85499999999999 39.375 -50.85499999999999 H15.625 Z"/></g><g id="Regular-M" transform="matrix(1 0 0 1 1394.06 1126)"><path d="M20.625 3.6450000000000102 Q16.75 3.6450000000000102 14.0 0.8950000000000102 Q11.25 -1.8549999999999898 11.25 -5.72999999999999 V-35.72999999999999 Q11.25 -37.60499999999999 12.625 -38.97999999999999 Q14.0 -40.35499999999999 16.0 -40.35499999999999 Q17.875 -40.35499999999999 19.25 -38.97999999999999 Q20.625 -37.60499999999999 20.625 -35.72999999999999 V-5.72999999999999 Q20.625 -5.72999999999999 20.625 -5.72999999999999 Q20.625 -5.72999999999999 20.625 -5.72999999999999 H99.5 Q99.5 -5.72999999999999 99.5 -5.72999999999999 Q99.5 -5.72999999999999 99.5 -5.72999999999999 V-64.85499999999999 Q99.5 -64.85499999999999 99.5 -64.85499999999999 Q99.5 -64.85499999999999 99.5 -64.85499999999999 H59.75 Q57.75 -64.85499999999999 56.375 -66.22999999999999 Q55.0 -67.60499999999999 55.0 -69.47999999999999 Q55.0 -71.47999999999999 56.375 -72.85499999999999 Q57.75 -74.22999999999999 59.75 -74.22999999999999 H99.5 Q103.25 -74.22999999999999 106.065 -71.41999999999999 Q108.875 -68.60499999999999 108.875 -64.85499999999999 V-5.72999999999999 Q108.875 -1.8549999999999898 106.065 0.8950000000000102 Q103.25 3.6450000000000102 99.5 3.6450000000000102 H20.625 Z M70.0 -28.72999999999999  82.375 -16.35499999999999 Q83.875 -14.97999999999999 85.69000000000001 -14.97999999999999 Q87.5 -14.97999999999999 89.0 -16.47999999999999 Q90.375 -17.85499999999999 90.375 -19.72999999999999 Q90.375 -21.60499999999999 89.0 -23.10499999999999 L76.5 -35.47999999999999 H85.25 Q87.25 -35.47999999999999 88.625 -36.85499999999999 Q90.0 -38.22999999999999 90.0 -40.10499999999999 Q90.0 -42.10499999999999 88.625 -43.47999999999999 Q87.25 -44.85499999999999 85.25 -44.85499999999999 H65.25 Q63.375 -44.85499999999999 62.0 -43.47999999999999 Q60.625 -42.10499999999999 60.625 -40.10499999999999 V-20.10499999999999 Q60.625 -18.22999999999999 62.0 -16.85499999999999 Q63.375 -15.47999999999999 65.25 -15.47999999999999 Q67.25 -15.47999999999999 68.625 -16.85499999999999 Q70.0 -18.22999999999999 70.0 -20.10499999999999 V-28.72999999999999 Z M16.0 -49.72999999999999 Q14.0 -49.72999999999999 12.625 -51.10499999999999 Q11.25 -52.47999999999999 11.25 -54.47999999999999 V-69.47999999999999 Q11.25 -71.35499999999999 12.625 -72.72999999999999 Q14.0 -74.10499999999999 16.0 -74.10499999999999 H41.0 Q42.875 -74.10499999999999 44.25 -72.72999999999999 Q45.625 -71.35499999999999 45.625 -69.47999999999999 V-54.47999999999999 Q45.625 -52.47999999999999 44.25 -51.10499999999999 Q42.875 -49.72999999999999 41.0 -49.72999999999999 H16.0 Z"/></g><g id="Light-M" transform="matrix(1 0 0 1 1098.18 1126)"><path d="M22.0 1.3950000000000102 Q18.5 1.3950000000000102 16.0 -1.1049999999999898 Q13.5 -3.6049999999999898 13.5 -7.22999999999999 V-36.22999999999999 Q13.5 -37.72999999999999 14.565 -38.72999999999999 Q15.625 -39.72999999999999 17.0 -39.72999999999999 Q18.5 -39.72999999999999 19.5 -38.72999999999999 Q20.5 -37.72999999999999 20.5 -36.22999999999999 V-7.22999999999999 Q20.5 -6.47999999999999 20.939999999999998 -6.0449999999999875 Q21.375 -5.60499999999999 22.0 -5.60499999999999 H98.0 Q98.625 -5.60499999999999 99.06 -6.0449999999999875 Q99.5 -6.47999999999999 99.5 -7.22999999999999 V-63.35499999999999 Q99.5 -63.97999999999999 99.06 -64.41999999999999 Q98.625 -64.85499999999999 98.0 -64.85499999999999 H59.125 Q57.625 -64.85499999999999 56.625 -65.85499999999999 Q55.625 -66.85499999999999 55.625 -68.35499999999999 Q55.625 -69.85499999999999 56.625 -70.85499999999999 Q57.625 -71.85499999999999 59.125 -71.85499999999999 H98.0 Q101.625 -71.85499999999999 104.06 -69.35499999999999 Q106.5 -66.85499999999999 106.5 -63.35499999999999 V-7.22999999999999 Q106.5 -3.6049999999999898 104.06 -1.1049999999999898 Q101.625 1.3950000000000102 98.0 1.3950000000000102 H22.0 Z M67.375 -32.85499999999999  83.625 -16.72999999999999 Q84.625 -15.72999999999999 86.06 -15.72999999999999 Q87.5 -15.72999999999999 88.5 -16.72999999999999 Q89.625 -17.85499999999999 89.625 -19.22999999999999 Q89.625 -20.60499999999999 88.5 -21.72999999999999 L72.25 -37.85499999999999 H83.875 Q85.375 -37.85499999999999 86.375 -38.91999999999999 Q87.375 -39.97999999999999 87.375 -41.35499999999999 Q87.375 -42.85499999999999 86.375 -43.85499999999999 Q85.375 -44.85499999999999 83.875 -44.85499999999999 H64.625 Q62.875 -44.85499999999999 61.625 -43.60499999999999 Q60.375 -42.35499999999999 60.375 -40.60499999999999 V-21.35499999999999 Q60.375 -19.97999999999999 61.44 -18.919999999999987 Q62.5 -17.85499999999999 63.875 -17.85499999999999 Q65.375 -17.85499999999999 66.375 -18.919999999999987 Q67.375 -19.97999999999999 67.375 -21.35499999999999 V-32.85499999999999 Z M17.75 -50.22999999999999 Q16.0 -50.22999999999999 14.75 -51.47999999999999 Q13.5 -52.72999999999999 13.5 -54.47999999999999 V-67.60499999999999 Q13.5 -69.35499999999999 14.75 -70.60499999999999 Q16.0 -71.85499999999999 17.75 -71.85499999999999 H40.875 Q42.625 -71.85499999999999 43.875 -70.60499999999999 Q45.125 -69.35499999999999 45.125 -67.60499999999999 V-54.47999999999999 Q45.125 -52.72999999999999 43.875 -51.47999999999999 Q42.625 -50.22999999999999 40.875 -50.22999999999999 H17.75 Z"/></g><g id="Thin-M" transform="matrix(1 0 0 1 802.565 1126)"><path d="M23.5 -0.9799999999999898 Q20.25 -0.9799999999999898 18.0 -3.164999999999992 Q15.75 -5.35499999999999 15.75 -8.60499999999999 V-36.85499999999999 Q15.75 -37.85499999999999 16.439999999999998 -38.47999999999999 Q17.125 -39.10499999999999 18.125 -39.10499999999999 Q19.0 -39.10499999999999 19.69 -38.47999999999999 Q20.375 -37.85499999999999 20.375 -36.85499999999999 V-8.60499999999999 Q20.375 -7.22999999999999 21.25 -6.35499999999999 Q22.125 -5.47999999999999 23.5 -5.47999999999999 H96.625 Q97.875 -5.47999999999999 98.75 -6.35499999999999 Q99.625 -7.22999999999999 99.625 -8.60499999999999 V-61.85499999999999 Q99.625 -63.22999999999999 98.75 -64.10499999999999 Q97.875 -64.97999999999999 96.625 -64.97999999999999 H58.5 Q57.5 -64.97999999999999 56.815 -65.66999999999999 Q56.125 -66.35499999999999 56.125 -67.22999999999999 Q56.125 -68.22999999999999 56.815 -68.91999999999999 Q57.5 -69.60499999999999 58.5 -69.60499999999999 H96.625 Q99.875 -69.60499999999999 102.065 -67.35499999999999 Q104.25 -65.10499999999999 104.25 -61.85499999999999 V-8.60499999999999 Q104.25 -5.35499999999999 102.065 -3.164999999999992 Q99.875 -0.9799999999999898 96.625 -0.9799999999999898 H23.5 Z M64.875 -37.10499999999999  84.875 -17.10499999999999 Q85.5 -16.47999999999999 86.44 -16.419999999999987 Q87.375 -16.35499999999999 88.125 -17.10499999999999 Q88.875 -17.85499999999999 88.875 -18.72999999999999 Q88.875 -19.60499999999999 88.125 -20.35499999999999 L68.0 -40.35499999999999 H82.5 Q83.5 -40.35499999999999 84.185 -41.04499999999999 Q84.875 -41.72999999999999 84.875 -42.60499999999999 Q84.875 -43.60499999999999 84.185 -44.289999999999985 Q83.5 -44.97999999999999 82.5 -44.97999999999999 H64.125 Q62.5 -44.97999999999999 61.375 -43.85499999999999 Q60.25 -42.72999999999999 60.25 -41.10499999999999 V-22.60499999999999 Q60.25 -21.72999999999999 60.940000000000005 -21.044999999999987 Q61.625 -20.35499999999999 62.5 -20.35499999999999 Q63.5 -20.35499999999999 64.19 -21.044999999999987 Q64.875 -21.72999999999999 64.875 -22.60499999999999 V-37.10499999999999 Z M19.625 -50.72999999999999 Q18.0 -50.72999999999999 16.875 -51.789999999999985 Q15.75 -52.85499999999999 15.75 -54.60499999999999 V-65.72999999999999 Q15.75 -67.35499999999999 16.875 -68.41999999999999 Q18.0 -69.47999999999999 19.625 -69.47999999999999 H40.75 Q42.375 -69.47999999999999 43.5 -68.41999999999999 Q44.625 -67.35499999999999 44.625 -65.72999999999999 V-54.60499999999999 Q44.625 -52.85499999999999 43.5 -51.789999999999985 Q42.375 -50.72999999999999 40.75 -50.72999999999999 H19.625 Z"/></g><g id="Ultralight-M" transform="matrix(1 0 0 1 506.415 1126)"><path d="M24.375 -2.3549999999999898 Q21.25 -2.3549999999999898 19.19 -4.414999999999992 Q17.125 -6.47999999999999 17.125 -9.47999999999999 V-37.22999999999999 Q17.125 -37.85499999999999 17.625 -38.35499999999999 Q18.125 -38.85499999999999 18.75 -38.85499999999999 Q19.375 -38.85499999999999 19.875 -38.35499999999999 Q20.375 -37.85499999999999 20.375 -37.22999999999999 V-9.47999999999999 Q20.375 -7.72999999999999 21.5 -6.60499999999999 Q22.625 -5.47999999999999 24.375 -5.47999999999999 H95.75 Q97.5 -5.47999999999999 98.625 -6.60499999999999 Q99.75 -7.72999999999999 99.75 -9.47999999999999 V-61.10499999999999 Q99.75 -62.72999999999999 98.625 -63.91999999999999 Q97.5 -65.10499999999999 95.75 -65.10499999999999 H58.125 Q57.5 -65.10499999999999 57.0 -65.54499999999999 Q56.5 -65.97999999999999 56.5 -66.60499999999999 Q56.5 -67.35499999999999 57.0 -67.79499999999999 Q57.5 -68.22999999999999 58.125 -68.22999999999999 H95.75 Q98.75 -68.22999999999999 100.875 -66.16999999999999 Q103.0 -64.10499999999999 103.0 -61.10499999999999 V-9.47999999999999 Q103.0 -6.47999999999999 100.875 -4.414999999999992 Q98.75 -2.3549999999999898 95.75 -2.3549999999999898 H24.375 Z M63.375 -39.60499999999999  85.625 -17.35499999999999 Q86.125 -16.85499999999999 86.75 -16.85499999999999 Q87.375 -16.85499999999999 88.0 -17.35499999999999 Q88.5 -17.85499999999999 88.5 -18.47999999999999 Q88.5 -19.10499999999999 88.0 -19.60499999999999 L65.5 -41.85499999999999 H81.75 Q82.5 -41.85499999999999 82.935 -42.29499999999999 Q83.375 -42.72999999999999 83.375 -43.47999999999999 Q83.375 -44.10499999999999 82.935 -44.60499999999999 Q82.5 -45.10499999999999 81.75 -45.10499999999999 H63.75 Q62.25 -45.10499999999999 61.25 -44.04499999999999 Q60.25 -42.97999999999999 60.25 -41.47999999999999 V-23.47999999999999 Q60.25 -22.72999999999999 60.69 -22.294999999999987 Q61.125 -21.85499999999999 61.75 -21.85499999999999 Q62.5 -21.85499999999999 62.94 -22.294999999999987 Q63.375 -22.72999999999999 63.375 -23.47999999999999 V-39.60499999999999 Z M20.75 -50.97999999999999 Q19.25 -50.97999999999999 18.189999999999998 -52.04499999999999 Q17.125 -53.10499999999999 17.125 -54.60499999999999 V-64.60499999999999 Q17.125 -66.10499999999999 18.189999999999998 -67.16999999999999 Q19.25 -68.22999999999999 20.75 -68.22999999999999 H40.75 Q42.25 -68.22999999999999 43.315 -67.16999999999999 Q44.375 -66.10499999999999 44.375 -64.60499999999999 V-54.60499999999999 Q44.375 -53.10499999999999 43.315 -52.04499999999999 Q42.25 -50.97999999999999 40.75 -50.97999999999999 H20.75 Z"/></g><g id="Bold-S" transform="matrix(1 0 0 1 2294.23 696)"><path d="M18.244836 -4.260171999999983 Q13.510836000000001 -4.260171999999983 10.305918 -7.465089999999989 Q7.101 -10.670007999999996 7.101 -15.40400799999999 V-35.821749999999994 Q7.101 -37.98992199999999 8.776836000000001 -39.670491999999996 Q10.452672000000002 -41.34632799999999 12.625577999999999 -41.34632799999999 Q14.893163999999999 -41.34632799999999 16.569 -39.670491999999996 Q18.244836 -37.98992199999999 18.244836 -35.821749999999994 V-15.40400799999999 Q18.244836 -15.40400799999999 18.244836 -15.40400799999999 Q18.244836 -15.40400799999999 18.244836 -15.40400799999999 H76.53457800000001 Q76.53457800000001 -15.40400799999999 76.53457800000001 -15.40400799999999 Q76.53457800000001 -15.40400799999999 76.53457800000001 -15.40400799999999 V-54.95657799999999 Q76.53457800000001 -54.95657799999999 76.53457800000001 -54.95657799999999 Q76.53457800000001 -54.95657799999999 76.53457800000001 -54.95657799999999 H47.538828 Q45.266507999999995 -54.95657799999999 43.590672 -56.58033999999999 Q41.914835999999994 -58.20883599999999 41.914835999999994 -60.47642199999999 Q41.914835999999994 -62.744007999999994 43.590672 -64.424578 Q45.266507999999995 -66.100414 47.538828 -66.100414 H76.53457800000001 Q81.16916400000001 -66.100414 84.42142199999999 -62.84342199999999 Q87.678414 -59.59116399999999 87.678414 -54.857164 V-15.40400799999999 Q87.678414 -10.670007999999996 84.42142199999999 -7.465089999999989 Q81.16916400000001 -4.260171999999983 76.53457800000001 -4.260171999999983 H18.244836 Z M60.652007999999995 -24.971421999999997  65.584836 -20.043327999999995 Q67.06657799999999 -18.660999999999994 68.84182799999999 -18.708339999999993 Q70.61707799999999 -18.760413999999997 72.09408599999999 -20.237421999999995 Q73.476414 -21.619749999999996 73.476414 -23.394999999999996 Q73.476414 -25.170249999999996 72.09408599999999 -26.651991999999993 L67.06657799999999 -31.48067199999999 H68.150664 Q70.025328 -31.48067199999999 71.402922 -32.815659999999994 Q72.78525 -34.145914 72.78525 -36.02057799999999 Q72.78525 -37.89050799999999 71.402922 -39.27283599999999 Q70.025328 -40.655164 68.150664 -40.655164 H57.006828 Q54.734508 -40.655164 53.110746 -38.979327999999995 Q51.48225 -37.303492 51.48225 -35.03117199999999 V-23.88733599999999 Q51.48225 -22.012671999999995 52.812504000000004 -20.68241799999999 Q54.147492 -19.352163999999995 56.017422 -19.352163999999995 Q57.892086 -19.352163999999995 59.274414 -20.68241799999999 Q60.652007999999995 -22.012671999999995 60.652007999999995 -23.88733599999999 V-24.971421999999997 Z M12.724992 -47.95499199999999 Q10.452672000000002 -47.95499199999999 8.776836000000001 -49.630827999999994 Q7.101 -51.306664 7.101 -53.57424999999999 V-60.575835999999995 Q7.101 -62.744007999999994 8.776836000000001 -64.424578 Q10.452672000000002 -66.100414 12.724992 -66.100414 H29.786327999999997 Q31.9545 -66.100414 33.630336 -64.424578 Q35.306172000000004 -62.744007999999994 35.306172000000004 -60.575835999999995 V-53.57424999999999 Q35.306172000000004 -51.306664 33.630336 -49.630827999999994 Q31.9545 -47.95499199999999 29.786327999999997 -47.95499199999999 H12.724992 Z"/></g><g id="Semibold-S" transform="matrix(1 0 0 1 1998.1 696)"><path d="M17.7525 -5.741913999999994 Q13.908492 -5.741913999999994 11.24325 -8.402421999999987 Q8.578008 -11.067663999999994 8.578008 -14.911671999999996 V-35.13058599999999 Q8.578008 -37.00525 9.912996 -38.38757799999999 Q11.24325 -39.76517199999999 13.117913999999999 -39.76517199999999 Q14.992578 -39.76517199999999 16.370172 -38.38757799999999 Q17.7525 -37.00525 17.7525 -35.13058599999999 V-14.911671999999996 Q17.7525 -14.911671999999996 17.7525 -14.911671999999996 Q17.7525 -14.911671999999996 17.7525 -14.911671999999996 H77.026914 Q77.026914 -14.911671999999996 77.026914 -14.911671999999996 Q77.026914 -14.911671999999996 77.026914 -14.911671999999996 V-55.44891399999999 Q77.026914 -55.44891399999999 77.026914 -55.44891399999999 Q77.026914 -55.44891399999999 77.026914 -55.44891399999999 H47.832336 Q45.957672 -55.44891399999999 44.580078 -56.82650799999999 Q43.19775 -58.20883599999999 43.19775 -59.98408599999999 Q43.19775 -61.85874999999999 44.580078 -63.24107799999999 Q45.957672 -64.61867199999999 47.832336 -64.61867199999999 H77.026914 Q80.870922 -64.61867199999999 83.536164 -61.958164 Q86.19667199999999 -59.29292199999999 86.19667199999999 -55.44891399999999 V-14.911671999999996 Q86.19667199999999 -11.067663999999994 83.536164 -8.402421999999987 Q80.870922 -5.741913999999994 77.026914 -5.741913999999994 H17.7525 Z M59.965578 -26.453163999999994  65.883078 -20.535663999999997 Q67.165992 -19.352163999999995 68.742414 -19.399503999999993 Q70.31883599999999 -19.45157799999999 71.60175 -20.734491999999996 Q72.78525 -21.917991999999998 72.78525 -23.494414 Q72.78525 -25.070835999999993 71.60175 -26.35374999999999 L65.68425 -32.072421999999996 H67.951836 Q69.53299200000001 -32.072421999999996 70.76383200000001 -33.30799599999999 Q71.994672 -34.53883599999999 71.994672 -36.119991999999996 Q71.994672 -37.79582799999999 70.76383200000001 -38.979327999999995 Q69.53299200000001 -40.16282799999999 67.951836 -40.16282799999999 H56.514492000000004 Q54.639828 -40.16282799999999 53.2575 -38.827839999999995 Q51.875172 -37.49758599999999 51.875172 -35.622921999999996 V-24.185577999999992 Q51.875172 -22.50500799999999 53.058672 -21.321507999999987 Q54.242172000000004 -20.138007999999992 55.918008 -20.138007999999992 Q57.499164 -20.138007999999992 58.730004 -21.321507999999987 Q59.965578 -22.50500799999999 59.965578 -24.185577999999992 V-26.453163999999994 Z M13.117913999999999 -46.373836 Q11.24325 -46.373836 9.912996 -47.75616399999999 Q8.578008 -49.13849199999999 8.578008 -50.90900799999999 V-60.083499999999994 Q8.578008 -61.958164 9.912996 -63.28841799999999 Q11.24325 -64.61867199999999 13.117913999999999 -64.61867199999999 H32.053914 Q33.928578 -64.61867199999999 35.258832000000005 -63.28841799999999 Q36.589086 -61.958164 36.589086 -60.083499999999994 V-50.90900799999999 Q36.589086 -49.13849199999999 35.258832000000005 -47.75616399999999 Q33.928578 -46.373836 32.053914 -46.373836 H13.117913999999999 Z"/></g><g id="Medium-S" transform="matrix(1 0 0 1 1701.85 696)"><path d="M17.359578 -6.9254140000000035 Q14.102586 -6.9254140000000035 11.88234 -9.145659999999992 Q9.666827999999999 -11.361171999999996 9.666827999999999 -14.618163999999993 V-34.737663999999995 Q9.666827999999999 -36.31408599999999 10.798254 -37.45024599999999 Q11.934414 -38.581672 13.510836000000001 -38.581672 Q15.091992000000001 -38.581672 16.223418 -37.45024599999999 Q17.359578 -36.31408599999999 17.359578 -34.737663999999995 V-14.618163999999993 Q17.359578 -14.618163999999993 17.359578 -14.618163999999993 Q17.359578 -14.618163999999993 17.359578 -14.618163999999993 H77.41983599999999 Q77.41983599999999 -14.618163999999993 77.41983599999999 -14.618163999999993 Q77.41983599999999 -14.618163999999993 77.41983599999999 -14.618163999999993 V-55.841835999999994 Q77.41983599999999 -55.841835999999994 77.41983599999999 -55.841835999999994 Q77.41983599999999 -55.841835999999994 77.41983599999999 -55.841835999999994 H48.130578 Q46.549422 -55.841835999999994 45.417995999999995 -56.97799599999999 Q44.281836 -58.109421999999995 44.281836 -59.69057799999999 Q44.281836 -61.266999999999996 45.417995999999995 -62.40315999999999 Q46.549422 -63.53458599999999 48.130578 -63.53458599999999 H77.41983599999999 Q80.577414 -63.53458599999999 82.845 -61.31433999999999 Q85.112586 -59.098828 85.112586 -55.841835999999994 V-14.518749999999997 Q85.112586 -11.361171999999996 82.845 -9.145659999999992 Q80.577414 -6.9254140000000035 77.41983599999999 -6.9254140000000035 H17.359578 Z M59.468508 -27.537249999999993  66.077172 -20.92858599999999 Q67.260672 -19.844499999999996 68.69033999999999 -19.891839999999995 Q70.120008 -19.943914 71.208828 -21.127413999999995 Q72.39232799999999 -22.211499999999994 72.39232799999999 -23.641167999999993 Q72.39232799999999 -25.070835999999993 71.208828 -26.154921999999992 L64.600164 -32.66417199999999 H67.753008 Q69.23475 -32.66417199999999 70.31883599999999 -33.700917999999994 Q71.402922 -34.737663999999995 71.402922 -36.21467199999999 Q71.402922 -37.696414 70.31883599999999 -38.780499999999996 Q69.23475 -39.86458599999999 67.753008 -39.86458599999999 H56.116836 Q54.540414000000006 -39.86458599999999 53.404254 -38.73315999999999 Q52.272828 -37.596999999999994 52.272828 -36.02057799999999 V-24.379671999999992 Q52.272828 -22.902663999999994 53.30484 -21.818577999999995 Q54.341586 -20.734491999999996 55.823328 -20.734491999999996 Q57.300335999999994 -20.734491999999996 58.384422 -21.818577999999995 Q59.468508 -22.902663999999994 59.468508 -24.379671999999992 V-27.537249999999993 Z M13.510836000000001 -45.190335999999995 Q11.934414 -45.190335999999995 10.798254 -46.32649599999999 Q9.666827999999999 -47.457921999999996 9.666827999999999 -49.03907799999999 V-59.69057799999999 Q9.666827999999999 -61.266999999999996 10.798254 -62.40315999999999 Q11.934414 -63.53458599999999 13.510836000000001 -63.53458599999999 H33.829164 Q35.405586 -63.53458599999999 36.541746 -62.40315999999999 Q37.673172 -61.266999999999996 37.673172 -59.69057799999999 V-49.03907799999999 Q37.673172 -47.457921999999996 36.541746 -46.32649599999999 Q35.405586 -45.190335999999995 33.829164 -45.190335999999995 H13.510836000000001 Z"/></g><g id="Regular-S" transform="matrix(1 0 0 1 1405.73 696)"><path d="M17.061336 -7.715992 Q14.301414 -7.715992 12.379410000000002 -9.637995999999987 Q10.452672000000002 -11.559999999999988 10.452672000000002 -14.319921999999991 V-34.43942199999999 Q10.452672000000002 -35.72233599999999 11.442077999999999 -36.70700799999999 Q12.42675 -37.696414 13.709664 -37.696414 Q15.091992000000001 -37.696414 16.076664 -36.70700799999999 Q17.061336 -35.72233599999999 17.061336 -34.43942199999999 V-14.319921999999991 Q17.061336 -14.319921999999991 17.061336 -14.319921999999991 Q17.061336 -14.319921999999991 17.061336 -14.319921999999991 H77.718078 Q77.718078 -14.319921999999991 77.718078 -14.319921999999991 Q77.718078 -14.319921999999991 77.718078 -14.319921999999991 V-56.23949199999999 Q77.718078 -56.23949199999999 77.718078 -56.23949199999999 Q77.718078 -56.23949199999999 77.718078 -56.23949199999999 H48.324672 Q46.947078 -56.23949199999999 45.957672 -57.17209 Q44.973 -58.109421999999995 44.973 -59.491749999999996 Q44.973 -60.874078 45.957672 -61.85874999999999 Q46.947078 -62.84342199999999 48.324672 -62.84342199999999 H77.718078 Q80.378586 -62.84342199999999 82.352664 -60.874078 Q84.32200800000001 -58.89999999999999 84.32200800000001 -56.14007799999999 V-14.319921999999991 Q84.32200800000001 -11.559999999999988 82.352664 -9.637995999999987 Q80.378586 -7.715992 77.718078 -7.715992 H17.061336 Z M59.175 -28.32782799999999  66.276 -21.22682799999999 Q67.360086 -20.237421999999995 68.643 -20.289495999999993 Q69.925914 -20.33683599999999 71.01 -21.420921999999997 Q71.994672 -22.410327999999993 71.994672 -23.68850799999999 Q71.994672 -24.971421999999997 71.01 -26.05550799999999 L63.809585999999996 -33.06182799999999 H67.658328 Q69.035922 -33.06182799999999 70.025328 -33.999159999999996 Q71.01 -34.936491999999994 71.01 -36.31408599999999 Q71.01 -37.696414 70.025328 -38.681085999999986 Q69.035922 -39.670491999999996 67.658328 -39.670491999999996 H55.823328 Q54.441 -39.670491999999996 53.503668 -38.681085999999986 Q52.56633599999999 -37.696414 52.56633599999999 -36.31408599999999 V-24.479085999999988 Q52.56633599999999 -23.101491999999993 53.503668 -22.164159999999995 Q54.441 -21.22682799999999 55.823328 -21.22682799999999 Q57.200922 -21.22682799999999 58.190328 -22.164159999999995 Q59.175 -23.101491999999993 59.175 -24.479085999999988 V-28.32782799999999 Z M13.809078 -44.305077999999995 Q12.42675 -44.305077999999995 11.442077999999999 -45.28974999999999 Q10.452672000000002 -46.274421999999994 10.452672000000002 -47.656749999999995 V-59.491749999999996 Q10.452672000000002 -60.774663999999994 11.442077999999999 -61.75933599999999 Q12.42675 -62.744007999999994 13.809078 -62.744007999999994 H35.112078 Q36.394992 -62.744007999999994 37.379664 -61.75933599999999 Q38.364335999999994 -60.774663999999994 38.364335999999994 -59.491749999999996 V-47.656749999999995 Q38.364335999999994 -46.274421999999994 37.379664 -45.28974999999999 Q36.394992 -44.305077999999995 35.112078 -44.305077999999995 H13.809078 Z"/></g><g id="Light-S" transform="matrix(1 0 0 1 1109.75 696)"><path d="M18.145422 -9.486507999999986 Q15.679008 -9.486507999999986 13.955832 -11.214417999999995 Q12.227922000000001 -12.94232799999999 12.227922000000001 -15.503422 V-34.83707799999999 Q12.227922000000001 -35.821749999999994 12.919086 -36.512913999999995 Q13.61025 -37.204077999999996 14.594922 -37.204077999999996 Q15.584328 -37.204077999999996 16.275492 -36.512913999999995 Q16.961922 -35.821749999999994 16.961922 -34.83707799999999 V-15.503422 Q16.961922 -14.911671999999996 17.307504 -14.566089999999988 Q17.653086000000002 -14.220507999999995 18.145422 -14.220507999999995 H76.53457800000001 Q77.026914 -14.220507999999995 77.37249600000001 -14.566089999999988 Q77.718078 -14.911671999999996 77.718078 -15.503422 V-55.05599199999999 Q77.718078 -55.54832799999999 77.37249600000001 -55.89390999999999 Q77.026914 -56.23949199999999 76.53457800000001 -56.23949199999999 H47.832336 Q46.847664 -56.23949199999999 46.1565 -56.92592199999999 Q45.46533599999999 -57.61708599999999 45.46533599999999 -58.60649199999999 Q45.46533599999999 -59.59116399999999 46.1565 -60.28232799999999 Q46.847664 -60.97349199999999 47.832336 -60.97349199999999 H76.53457800000001 Q79.000992 -60.97349199999999 80.72416799999999 -59.245582 Q82.452078 -57.51767199999999 82.452078 -55.05599199999999 V-15.40400799999999 Q82.452078 -12.94232799999999 80.72416799999999 -11.214417999999995 Q79.000992 -9.486507999999986 76.53457800000001 -9.486507999999986 H18.145422 Z M57.101507999999995 -31.580085999999987  67.260672 -21.520335999999986 Q67.951836 -20.829171999999993 68.936508 -20.88124599999999 Q69.925914 -20.92858599999999 70.61707799999999 -21.619749999999996 Q71.402922 -22.410327999999993 71.402922 -23.295585999999993 Q71.402922 -24.185577999999992 70.61707799999999 -24.971421999999997 L60.457914 -34.936491999999994 H66.569508 Q67.558914 -34.936491999999994 68.250078 -35.622921999999996 Q68.936508 -36.31408599999999 68.936508 -37.303492 Q68.936508 -38.288163999999995 68.250078 -38.979327999999995 Q67.558914 -39.670491999999996 66.569508 -39.670491999999996 H55.330992 Q54.147492 -39.670491999999996 53.2575 -38.827839999999995 Q52.367507999999994 -37.98992199999999 52.367507999999994 -36.70700799999999 V-25.468491999999998 Q52.367507999999994 -24.479085999999988 53.058672 -23.787921999999995 Q53.749835999999995 -23.101491999999993 54.734508 -23.101491999999993 Q55.723914 -23.101491999999993 56.415078 -23.787921999999995 Q57.101507999999995 -24.479085999999988 57.101507999999995 -25.468491999999998 V-31.580085999999987 Z M15.186672000000002 -44.69799999999999 Q14.003172000000001 -44.69799999999999 13.117913999999999 -45.53591799999999 Q12.227922000000001 -46.373836 12.227922000000001 -47.656749999999995 V-58.010008 Q12.227922000000001 -59.193507999999994 13.117913999999999 -60.083499999999994 Q14.003172000000001 -60.97349199999999 15.186672000000002 -60.97349199999999 H35.012664 Q36.196163999999996 -60.97349199999999 37.081422 -60.083499999999994 Q37.971414 -59.193507999999994 37.971414 -58.010008 V-47.656749999999995 Q37.971414 -46.373836 37.081422 -45.53591799999999 Q36.196163999999996 -44.69799999999999 35.012664 -44.69799999999999 H15.186672000000002 Z"/></g><g id="Thin-S" transform="matrix(1 0 0 1 814.015 696)"><path d="M19.328922000000002 -11.361171999999996 Q17.061336 -11.361171999999996 15.532254 -12.842913999999993 Q14.003172000000001 -14.319921999999991 14.003172000000001 -16.587507999999985 V-35.329414 Q14.003172000000001 -35.921164 14.448168 -36.31408599999999 Q14.893163999999999 -36.70700799999999 15.484914 -36.70700799999999 Q15.97725 -36.70700799999999 16.422245999999998 -36.31408599999999 Q16.862508 -35.921164 16.862508 -35.329414 V-16.587507999999985 Q16.862508 -15.503422 17.553672000000002 -14.816991999999999 Q18.244836 -14.125827999999998 19.328922000000002 -14.125827999999998 H75.450492 Q76.435164 -14.125827999999998 77.126328 -14.816991999999999 Q77.81749199999999 -15.503422 77.81749199999999 -16.587507999999985 V-53.872491999999994 Q77.81749199999999 -54.95657799999999 77.126328 -55.643007999999995 Q76.435164 -56.334171999999995 75.450492 -56.334171999999995 H47.34 Q46.74825 -56.334171999999995 46.303254 -56.73182799999999 Q45.862992000000006 -57.12474999999999 45.862992000000006 -57.716499999999996 Q45.862992000000006 -58.308249999999994 46.303254 -58.75324599999999 Q46.74825 -59.193507999999994 47.34 -59.193507999999994 H75.450492 Q77.61866400000001 -59.193507999999994 79.14774600000001 -57.66915999999999 Q80.676828 -56.14007799999999 80.676828 -53.872491999999994 V-16.587507999999985 Q80.676828 -14.319921999999991 79.14774600000001 -12.842913999999993 Q77.61866400000001 -11.361171999999996 75.450492 -11.361171999999996 H19.328922000000002 Z M55.132164 -34.936491999999994  68.250078 -21.818577999999995 Q68.643 -21.420921999999997 69.23475 -21.420921999999997 Q69.8265 -21.420921999999997 70.31883599999999 -21.917991999999998 Q70.811172 -22.410327999999993 70.811172 -22.950003999999993 Q70.811172 -23.494414 70.31883599999999 -23.88733599999999 L57.101507999999995 -36.90583599999999 H65.485422 Q66.176586 -36.90583599999999 66.569508 -37.303492 Q66.967164 -37.696414 66.967164 -38.288163999999995 Q66.967164 -38.879914 66.569508 -39.324909999999996 Q66.176586 -39.76517199999999 65.485422 -39.76517199999999 H54.933336 Q53.749835999999995 -39.76517199999999 53.011332 -39.026667999999994 Q52.272828 -38.288163999999995 52.272828 -37.104664 V-26.453163999999994 Q52.272828 -25.861413999999996 52.66575 -25.468491999999998 Q53.058672 -25.070835999999993 53.650422 -25.070835999999993 Q54.242172000000004 -25.070835999999993 54.687168 -25.468491999999998 Q55.132164 -25.861413999999996 55.132164 -26.453163999999994 V-34.936491999999994 Z M16.668414 -45.09092199999999 Q15.584328 -45.09092199999999 14.79375 -45.83416 Q14.003172000000001 -46.572663999999996 14.003172000000001 -47.75616399999999 V-56.532999999999994 Q14.003172000000001 -57.61708599999999 14.79375 -58.35558999999999 Q15.584328 -59.098828 16.668414 -59.098828 H34.91325 Q35.997336 -59.098828 36.787914 -58.35558999999999 Q37.578492 -57.61708599999999 37.578492 -56.532999999999994 V-47.75616399999999 Q37.578492 -46.572663999999996 36.787914 -45.83416 Q35.997336 -45.09092199999999 34.91325 -45.09092199999999 H16.668414 Z"/></g><g id="Ultralight-S" transform="matrix(1 0 0 1 517.792 696)"><path d="M20.020086 -12.449991999999995 Q17.851914 -12.449991999999995 16.469586 -13.827585999999997 Q15.091992000000001 -15.209913999999998 15.091992000000001 -17.278672 V-35.622921999999996 Q15.091992000000001 -35.921164 15.33816 -36.21467199999999 Q15.584328 -36.512913999999995 15.97725 -36.512913999999995 Q16.275492 -36.512913999999995 16.569 -36.21467199999999 Q16.862508 -35.921164 16.862508 -35.622921999999996 V-17.278672 Q16.862508 -15.901077999999998 17.7525 -15.011085999999992 Q18.642492 -14.125827999999998 20.020086 -14.125827999999998 H74.759328 Q76.136922 -14.125827999999998 77.026914 -15.011085999999992 Q77.912172 -15.901077999999998 77.912172 -17.278672 V-53.27600799999999 Q77.912172 -54.558921999999995 77.026914 -55.49625399999999 Q76.136922 -56.43358599999999 74.759328 -56.43358599999999 H47.046492 Q46.648835999999996 -56.43358599999999 46.402668 -56.632414 Q46.1565 -56.82650799999999 46.1565 -57.22416399999999 Q46.1565 -57.61708599999999 46.402668 -57.86325399999999 Q46.648835999999996 -58.109421999999995 47.046492 -58.109421999999995 H74.759328 Q76.828086 -58.109421999999995 78.25775399999999 -56.73182799999999 Q79.687422 -55.34949999999999 79.687422 -53.18132799999999 V-17.278672 Q79.687422 -15.209913999999998 78.25775399999999 -13.827585999999997 Q76.828086 -12.449991999999995 74.759328 -12.449991999999995 H20.020086 Z M53.948664 -36.90583599999999  68.84182799999999 -22.012671999999995 Q69.135336 -21.719164 69.480918 -21.766503999999998 Q69.8265 -21.818577999999995 70.219422 -22.11208599999999 Q70.51766400000001 -22.410327999999993 70.51766400000001 -22.70383599999999 Q70.51766400000001 -23.00207799999999 70.219422 -23.295585999999993 L55.132164 -38.08933599999999 H64.893672 Q65.291328 -38.08933599999999 65.53749599999999 -38.33550399999999 Q65.783664 -38.581672 65.783664 -38.879914 Q65.783664 -39.27283599999999 65.53749599999999 -39.57107799999999 Q65.291328 -39.86458599999999 64.893672 -39.86458599999999 H54.639828 Q53.551007999999996 -39.86458599999999 52.911918 -39.126082 Q52.272828 -38.38757799999999 52.272828 -37.398171999999995 V-27.144327999999994 Q52.272828 -26.746671999999997 52.466922000000004 -26.500504 Q52.66575 -26.254335999999988 53.058672 -26.254335999999988 Q53.456328 -26.254335999999988 53.702496 -26.500504 Q53.948664 -26.746671999999997 53.948664 -27.144327999999994 V-36.90583599999999 Z M17.553672000000002 -45.28974999999999 Q16.469586 -45.28974999999999 15.778422 -45.98091399999999 Q15.091992000000001 -46.67207799999999 15.091992000000001 -47.75616399999999 V-55.643007999999995 Q15.091992000000001 -56.632414 15.778422 -57.37091799999999 Q16.469586 -58.109421999999995 17.553672000000002 -58.109421999999995 H34.91325 Q35.897922 -58.109421999999995 36.64116 -57.37091799999999 Q37.379664 -56.632414 37.379664 -55.643007999999995 V-47.75616399999999 Q37.379664 -46.67207799999999 36.64116 -45.98091399999999 Q35.897922 -45.28974999999999 34.91325 -45.28974999999999 H17.553672000000002 Z"/></g></g></svg>