<svg xmlns="http://www.w3.org/2000/svg" version="1.1" width="3300" height="2000"><g id="Notes"><style>
    text {
      font-family: monospace;
      text-anchor: middle;
    }
    text.emphasis {
      font-weight:bold;
    }
    text.lanchor {
      text-anchor: start;
    }
  </style><rect height="2200" id="artboard" fill="white" width="3300" x="0" y="0"/><line id="" style="fill:none;stroke:black;stroke-width:0.5;" x1="263" x2="3036" y1="292" y2="292"/><text class="lanchor emphasis" transform="matrix(1 0 0 1 263 322)">Weight/Scale Variations</text><text transform="matrix(1 0 0 1 559.711 322)">Ultralight</text><text transform="matrix(1 0 0 1 856.422 322)">Thin</text><text transform="matrix(1 0 0 1 1153.13 322)">Light</text><text transform="matrix(1 0 0 1 1449.84 322)">Regular</text><text transform="matrix(1 0 0 1 1746.56 322)">Medium</text><text transform="matrix(1 0 0 1 2043.27 322)">Semibold</text><text transform="matrix(1 0 0 1 2339.98 322)">Bold</text><text transform="matrix(1 0 0 1 2636.69 322)">Heavy</text><text transform="matrix(1 0 0 1 2933.4 322)">Black</text><text id="template-version" style="text-anchor: end;" transform="matrix(1 0 0 1 3036 1933)">Template v.1.0</text><text class="lanchor" transform="matrix(1 0 0 1 263 726)">Small</text><text class="lanchor" transform="matrix(1 0 0 1 263 1156)">Medium</text><text class="lanchor" transform="matrix(1 0 0 1 263 1586)">Large</text></g><g id="Guides"><g id="H-reference" style="fill:#27AAE1;stroke:none;" transform="matrix(1 0 0 1 339 696)"><path d="M 54.9316 0 L 57.666 0 L 30.5664 -70.459 L 28.0762 -70.459 L 0.976562 0 L 3.66211 0 L 12.9395 -24.4629 L 45.7031 -24.4629 Z M 29.1992 -67.0898 L 29.4434 -67.0898 L 44.8242 -26.709 L 13.8184 -26.709 Z"/></g><line id="Baseline-S" style="fill:none;stroke:#27AAE1;opacity:1;stroke-width:0.577;" x1="263" x2="3036" y1="696" y2="696"/><line id="Capline-S" style="fill:none;stroke:#27AAE1;opacity:1;stroke-width:0.577;" x1="263" x2="3036" y1="625.541" y2="625.541"/><g id="H-reference" style="fill:#27AAE1;stroke:none;" transform="matrix(1 0 0 1 339 1126)"><path d="M 54.9316 0 L 57.666 0 L 30.5664 -70.459 L 28.0762 -70.459 L 0.976562 0 L 3.66211 0 L 12.9395 -24.4629 L 45.7031 -24.4629 Z M 29.1992 -67.0898 L 29.4434 -67.0898 L 44.8242 -26.709 L 13.8184 -26.709 Z"/></g><line id="Baseline-M" style="fill:none;stroke:#27AAE1;opacity:1;stroke-width:0.577;" x1="263" x2="3036" y1="1126" y2="1126"/><line id="Capline-M" style="fill:none;stroke:#27AAE1;opacity:1;stroke-width:0.577;" x1="263" x2="3036" y1="1055.54" y2="1055.54"/><g id="H-reference" style="fill:#27AAE1;stroke:none;" transform="matrix(1 0 0 1 339 1556)"><path d="M 54.9316 0 L 57.666 0 L 30.5664 -70.459 L 28.0762 -70.459 L 0.976562 0 L 3.66211 0 L 12.9395 -24.4629 L 45.7031 -24.4629 Z M 29.1992 -67.0898 L 29.4434 -67.0898 L 44.8242 -26.709 L 13.8184 -26.709 Z"/></g><line id="Baseline-L" style="fill:none;stroke:#27AAE1;opacity:1;stroke-width:0.577;" x1="263" x2="3036" y1="1556" y2="1556"/><line id="Capline-L" style="fill:none;stroke:#27AAE1;opacity:1;stroke-width:0.577;" x1="263" x2="3036" y1="1485.54" y2="1485.54"/><rect height="119.336" id="left-margin" style="fill:darkred;stroke:none;opacity:0.4;" width="12.4512" x="1394.06" y="1030.79"/><rect height="119.336" id="right-margin" style="fill:darkgreen;stroke:none;opacity:0.4;" width="12.4512" x="1502.5112" y="1030.79"/><rect x="1406.5112" y="1045" width="96" height="96" fill="none" stroke="blue" stroke-dasharray="5"/><rect x="1394.06" y="1030.79" width="120.9024" height="119.336" fill="none" stroke="blue"/></g><g id="Symbols"><g id="Bold-L" transform="matrix(1 0 0 1 2266 1556)"><path d="M8.86875 20.401250000000015 V-91.02249999999998 H146.0925 V20.401250000000015 H8.86875 Z M24.02625 5.243750000000013 H130.77375 V-75.70374999999999 H24.02625 V5.243750000000013 Z M35.31375 -6.043749999999989 H119.48625 V-15.718749999999986 H35.31375 V-6.043749999999989 Z M35.31375 -30.392499999999984 H119.48625 V-40.06749999999998 H35.31375 V-30.392499999999984 Z M35.31375 -54.741249999999994 H93.36375 V-64.41624999999999 H35.31375 V-54.741249999999994 Z"/></g><g id="Semibold-L" transform="matrix(1 0 0 1 1970.27 1556)"><path d="M10.62137625 18.648623750000016 V-89.19972999999999 H144.26973 V18.648623750000016 H10.62137625 Z M23.39527875 5.8747212500000145 H131.40472125 V-76.33472124999999 H23.39527875 V5.8747212500000145 Z M34.68277875 -5.412778749999987 H120.11722125 V-15.087778749999984 H34.68277875 V-5.412778749999987 Z M34.68277875 -30.392499999999984 H120.11722125 V-40.06749999999998 H34.68277875 V-30.392499999999984 Z M34.68277875 -55.372221249999996 H93.99472125 V-65.04722124999999 H34.68277875 V-55.372221249999996 Z"/></g><g id="Medium-L" transform="matrix(1 0 0 1 1674.31 1556)"><path d="M11.9360475 17.333952500000017 V-87.8326525 H142.9026525 V17.333952500000017 H11.9360475 Z M22.92201 6.347990000000017 H131.87798999999998 V-76.80798999999998 H22.92201 V6.347990000000017 Z M34.20951 -4.939509999999984 H120.59049 V-14.614509999999981 H34.20951 V-4.939509999999984 Z M34.20951 -30.392499999999984 H120.59049 V-40.06749999999998 H34.20951 V-30.392499999999984 Z M34.20951 -55.845489999999984 H94.46799 V-65.52048999999998 H34.20951 V-55.845489999999984 Z"/></g><g id="Regular-L" transform="matrix(1 0 0 1 1378.56 1556)"><path d="M12.9 16.370000000000015 V-86.82999999999998 H141.9 V16.370000000000015 H12.9 Z M22.575 6.6950000000000145 H132.225 V-77.15499999999999 H22.575 V6.6950000000000145 Z M33.862500000000004 -4.592499999999987 H120.9375 V-14.267499999999984 H33.862500000000004 V-4.592499999999987 Z M33.862500000000004 -30.392499999999984 H120.9375 V-40.06749999999998 H33.862500000000004 V-30.392499999999984 Z M33.862500000000004 -56.19249999999998 H94.815 V-65.86749999999999 H33.862500000000004 V-56.19249999999998 Z"/></g><g id="Light-L" transform="matrix(1 0 0 1 1082.77 1556)"><path d="M16.12516125 13.144838750000016 V-83.60483874999998 H138.67483875000002 V13.144838750000016 H16.12516125 Z M23.44333125 5.826668750000017 H131.35666875 V-76.28666874999999 H23.44333125 V5.826668750000017 Z M35.785245 -7.755741249999986 H119.01475500000001 V-15.073749999999983 H35.785245 V-7.755741249999986 Z M35.785245 -31.570914999999985 H119.01475500000001 V-38.889084999999994 H35.785245 V-31.570914999999985 Z M35.785245 -55.38624999999999 H93.69850500000001 V-62.704258749999994 H35.785245 V-55.38624999999999 Z"/></g><g id="Thin-L" transform="matrix(1 0 0 1 787.282 1556)"><path d="M19.35 9.920000000000016 V-80.37999999999998 H135.45000000000002 V9.920000000000016 H19.35 Z M24.311501250000003 4.958498750000011 H130.48849875 V-75.41849874999998 H24.311501250000003 V4.958498750000011 Z M37.7076675 -10.918498749999983 H117.0923325 V-15.879999999999988 H37.7076675 V-10.918498749999983 Z M37.7076675 -32.74916874999998 H117.0923325 V-37.710831249999984 H37.7076675 V-32.74916874999998 Z M37.7076675 -54.579999999999984 H92.5823325 V-59.54150124999998 H37.7076675 V-54.579999999999984 Z"/></g><g id="Ultralight-L" transform="matrix(1 0 0 1 491.205 1556)"><path d="M21.285 7.985000000000014 V-78.445 H133.51500000000001 V7.985000000000014 H21.285 Z M24.8325 4.437500000000014 H129.9675 V-74.8975 H24.8325 V4.437500000000014 Z M38.86125 -12.816249999999982 H115.93875 V-16.36374999999999 H38.86125 V-12.816249999999982 Z M38.86125 -33.45624999999998 H115.93875 V-37.00374999999998 H38.86125 V-33.45624999999998 Z M38.86125 -54.09624999999998 H91.91250000000001 V-57.64374999999998 H38.86125 V-54.09624999999998 Z"/></g><g id="Bold-M" transform="matrix(1 0 0 1 2281.8 1126)"><path d="M5.75 9.02000000000001 V-79.47999999999999 H114.25 V9.02000000000001 H5.75 Z M21.5 -6.72999999999999 H98.5 V-63.72999999999999 H21.5 V-6.72999999999999 Z M26.5 -11.72999999999999 H93.5 V-21.72999999999999 H26.5 V-11.72999999999999 Z M26.5 -30.22999999999999 H93.5 V-40.22999999999999 H26.5 V-30.22999999999999 Z M26.5 -48.72999999999999 H73.5 V-58.72999999999999 H26.5 V-48.72999999999999 Z"/></g><g id="Semibold-M" transform="matrix(1 0 0 1 1985.97 1126)"><path d="M7.59775 7.172250000000009 V-77.63224999999998 H112.40225 V7.172250000000009 H7.59775 Z M20.847875 -6.077874999999988 H99.152125 V-64.38212499999999 H20.847875 V-6.077874999999988 Z M25.847875 -11.077874999999992 H94.152125 V-21.07787499999999 H25.847875 V-11.077874999999992 Z M25.847875 -30.22999999999999 H94.152125 V-40.22999999999999 H25.847875 V-30.22999999999999 Z M25.847875 -49.38212499999999 H74.152125 V-59.38212499999999 H25.847875 V-49.38212499999999 Z"/></g><g id="Medium-M" transform="matrix(1 0 0 1 1689.91 1126)"><path d="M8.983625 5.78637500000001 V-76.24637499999999 H111.016375 V5.78637500000001 H8.983625 Z M20.35875 -5.58874999999999 H99.64125 V-64.87124999999999 H20.35875 V-5.58874999999999 Z M25.35875 -10.58874999999999 H94.64125 V-20.58874999999999 H25.35875 V-10.58874999999999 Z M25.35875 -30.22999999999999 H94.64125 V-40.22999999999999 H25.35875 V-30.22999999999999 Z M25.35875 -49.87124999999999 H74.64125 V-59.87124999999999 H25.35875 V-49.87124999999999 Z"/></g><g id="Regular-M" transform="matrix(1 0 0 1 1394.06 1126)"><path d="M10.0 4.77000000000001 V-75.22999999999999 H110.0 V4.77000000000001 H10.0 Z M20.0 -5.22999999999999 H100.0 V-65.22999999999999 H20.0 V-5.22999999999999 Z M25.0 -10.22999999999999 H95.0 V-20.22999999999999 H25.0 V-10.22999999999999 Z M25.0 -30.22999999999999 H95.0 V-40.22999999999999 H25.0 V-30.22999999999999 Z M25.0 -50.22999999999999 H75.0 V-60.22999999999999 H25.0 V-50.22999999999999 Z"/></g><g id="Light-M" transform="matrix(1 0 0 1 1098.18 1126)"><path d="M12.500125 2.2698750000000096 V-72.72987499999999 H107.499875 V2.2698750000000096 H12.500125 Z M20.0 -5.22999999999999 H100.0 V-65.22999999999999 H20.0 V-5.22999999999999 Z M26.827 -13.018624999999993 H93.173 V-20.51849999999999 H26.827 V-13.018624999999993 Z M26.827 -31.480124999999987 H93.173 V-38.97987499999999 H26.827 V-31.480124999999987 Z M26.827 -49.94149999999999 H73.749875 V-57.441374999999994 H26.827 V-49.94149999999999 Z"/></g><g id="Thin-M" transform="matrix(1 0 0 1 802.565 1126)"><path d="M15.0 -0.22999999999998977 V-70.22999999999999 H105.0 V-0.22999999999998977 H15.0 Z M20.0 -5.22999999999999 H100.0 V-65.22999999999999 H20.0 V-5.22999999999999 Z M28.653875 -15.806874999999991 H91.346125 V-20.80687499999999 H28.653875 V-15.806874999999991 Z M28.653875 -32.72999999999999 H91.346125 V-37.72999999999999 H28.653875 V-32.72999999999999 Z M28.653875 -49.65312499999999 H72.5 V-54.65312499999999 H28.653875 V-49.65312499999999 Z"/></g><g id="Ultralight-M" transform="matrix(1 0 0 1 506.415 1126)"><path d="M16.5 -1.7299999999999898 V-68.72999999999999 H103.5 V-1.7299999999999898 H16.5 Z M20.0 -5.22999999999999 H100.0 V-65.22999999999999 H20.0 V-5.22999999999999 Z M29.75 -17.47999999999999 H90.25 V-20.97999999999999 H29.75 V-17.47999999999999 Z M29.75 -33.47999999999999 H90.25 V-36.97999999999999 H29.75 V-33.47999999999999 Z M29.75 -49.47999999999999 H71.75 V-52.97999999999999 H29.75 V-49.47999999999999 Z"/></g><g id="Bold-S" transform="matrix(1 0 0 1 2294.23 696)"><path d="M6.11475 -3.472749999999987 V-66.98724999999999 H88.56525 V-3.472749999999987 H6.11475 Z M17.7525 -15.110499999999988 H76.92750000000001 V-55.34949999999999 H17.7525 V-15.110499999999988 Z M22.4865 -19.84449999999999 H72.1935 V-26.94549999999999 H22.4865 V-19.84449999999999 Z M22.4865 -31.67949999999999 H72.1935 V-38.78049999999999 H22.4865 V-31.67949999999999 Z M22.4865 -43.51449999999999 H57.9915 V-50.61549999999999 H22.4865 V-43.51449999999999 Z"/></g><g id="Semibold-S" transform="matrix(1 0 0 1 1998.1 696)"><path d="M7.57262475 -4.930624749999989 V-65.52937524999999 H87.10737525 V-4.930624749999989 H7.57262475 Z M17.237973375 -14.59597337499999 H77.442026625 V-55.864026624999994 H17.237973375 V-14.59597337499999 Z M21.971973375 -19.32997337499999 H72.708026625 V-26.430973374999986 H21.971973375 V-19.32997337499999 Z M21.971973375 -31.67949999999999 H72.708026625 V-38.78049999999999 H21.971973375 V-31.67949999999999 Z M21.971973375 -44.029026624999986 H58.506026625000004 V-51.130026624999985 H21.971973375 V-44.029026624999986 Z"/></g><g id="Medium-S" transform="matrix(1 0 0 1 1701.85 696)"><path d="M8.666080125 -6.024080124999987 V-64.43591987499998 H86.013919875 V-6.024080124999987 H8.666080125 Z M16.85205375 -14.21005374999999 H77.82794625 V-56.249946249999994 H16.85205375 V-14.21005374999999 Z M21.58605375 -18.944053749999988 H73.09394625 V-26.045053749999987 H21.58605375 V-18.944053749999988 Z M21.58605375 -31.67949999999999 H73.09394625 V-38.78049999999999 H21.58605375 V-31.67949999999999 Z M21.58605375 -44.414946249999986 H58.891946250000004 V-51.51594624999999 H21.58605375 V-44.414946249999986 Z"/></g><g id="Regular-S" transform="matrix(1 0 0 1 1405.73 696)"><path d="M9.468 -6.825999999999986 V-63.633999999999986 H85.212 V-6.825999999999986 H9.468 Z M16.569 -13.926999999999989 H78.111 V-56.53299999999999 H16.569 V-13.926999999999989 Z M21.303 -18.660999999999987 H73.37700000000001 V-25.761999999999986 H21.303 V-18.660999999999987 Z M21.303 -31.67949999999999 H73.37700000000001 V-38.78049999999999 H21.303 V-31.67949999999999 Z M21.303 -44.697999999999986 H59.175000000000004 V-51.79899999999999 H21.303 V-44.697999999999986 Z"/></g><g id="Light-S" transform="matrix(1 0 0 1 1109.75 696)"><path d="M11.440598625000002 -8.798598624999986 V-61.661401375 H83.239401375 V-8.798598624999986 H11.440598625000002 Z M16.569 -13.926999999999989 H78.111 V-56.53299999999999 H16.569 V-13.926999999999989 Z M22.744503 -20.86122512499999 H71.935497 V-25.989626499999986 H22.744503 V-20.86122512499999 Z M22.744503 -32.66584862499999 H71.935497 V-37.79415137499999 H22.744503 V-32.66584862499999 Z M22.744503 -44.47037349999999 H58.188651375000006 V-49.59877487499999 H22.744503 V-44.47037349999999 Z"/></g><g id="Thin-S" transform="matrix(1 0 0 1 814.015 696)"><path d="M13.413 -10.770999999999987 V-59.68899999999999 H81.26700000000001 V-10.770999999999987 H13.413 Z M16.569 -13.926999999999989 H78.111 V-56.53299999999999 H16.569 V-13.926999999999989 Z M24.185907375 -23.061154374999987 H70.49409262500001 V-26.217154374999986 H24.185907375 V-23.061154374999987 Z M24.185907375 -33.65199999999999 H70.49409262500001 V-36.807999999999986 H24.185907375 V-33.65199999999999 Z M24.185907375 -44.24284562499999 H57.2025 V-47.398845624999986 H24.185907375 V-44.24284562499999 Z"/></g><g id="Ultralight-S" transform="matrix(1 0 0 1 517.792 696)"><path d="M14.5965 -11.954499999999989 V-58.505499999999984 H80.0835 V-11.954499999999989 H14.5965 Z M16.569 -13.926999999999989 H78.111 V-56.53299999999999 H16.569 V-13.926999999999989 Z M25.05075 -24.381249999999987 H69.62925 V-26.35374999999999 H25.05075 V-24.381249999999987 Z M25.05075 -34.24374999999999 H69.62925 V-36.21624999999999 H25.05075 V-34.24374999999999 Z M25.05075 -44.10624999999999 H56.61075 V-46.07874999999999 H25.05075 V-44.10624999999999 Z"/></g></g></svg>