<svg xmlns="http://www.w3.org/2000/svg" version="1.1" width="3300" height="2000"><g id="Notes"><style>
    text {
      font-family: monospace;
      text-anchor: middle;
    }
    text.emphasis {
      font-weight:bold;
    }
    text.lanchor {
      text-anchor: start;
    }
  </style><rect height="2200" id="artboard" fill="white" width="3300" x="0" y="0"/><line id="" style="fill:none;stroke:black;stroke-width:0.5;" x1="263" x2="3036" y1="292" y2="292"/><text class="lanchor emphasis" transform="matrix(1 0 0 1 263 322)">Weight/Scale Variations</text><text transform="matrix(1 0 0 1 559.711 322)">Ultralight</text><text transform="matrix(1 0 0 1 856.422 322)">Thin</text><text transform="matrix(1 0 0 1 1153.13 322)">Light</text><text transform="matrix(1 0 0 1 1449.84 322)">Regular</text><text transform="matrix(1 0 0 1 1746.56 322)">Medium</text><text transform="matrix(1 0 0 1 2043.27 322)">Semibold</text><text transform="matrix(1 0 0 1 2339.98 322)">Bold</text><text transform="matrix(1 0 0 1 2636.69 322)">Heavy</text><text transform="matrix(1 0 0 1 2933.4 322)">Black</text><text id="template-version" style="text-anchor: end;" transform="matrix(1 0 0 1 3036 1933)">Template v.1.0</text><text class="lanchor" transform="matrix(1 0 0 1 263 726)">Small</text><text class="lanchor" transform="matrix(1 0 0 1 263 1156)">Medium</text><text class="lanchor" transform="matrix(1 0 0 1 263 1586)">Large</text></g><g id="Guides"><g id="H-reference" style="fill:#27AAE1;stroke:none;" transform="matrix(1 0 0 1 339 696)"><path d="M 54.9316 0 L 57.666 0 L 30.5664 -70.459 L 28.0762 -70.459 L 0.976562 0 L 3.66211 0 L 12.9395 -24.4629 L 45.7031 -24.4629 Z M 29.1992 -67.0898 L 29.4434 -67.0898 L 44.8242 -26.709 L 13.8184 -26.709 Z"/></g><line id="Baseline-S" style="fill:none;stroke:#27AAE1;opacity:1;stroke-width:0.577;" x1="263" x2="3036" y1="696" y2="696"/><line id="Capline-S" style="fill:none;stroke:#27AAE1;opacity:1;stroke-width:0.577;" x1="263" x2="3036" y1="625.541" y2="625.541"/><g id="H-reference" style="fill:#27AAE1;stroke:none;" transform="matrix(1 0 0 1 339 1126)"><path d="M 54.9316 0 L 57.666 0 L 30.5664 -70.459 L 28.0762 -70.459 L 0.976562 0 L 3.66211 0 L 12.9395 -24.4629 L 45.7031 -24.4629 Z M 29.1992 -67.0898 L 29.4434 -67.0898 L 44.8242 -26.709 L 13.8184 -26.709 Z"/></g><line id="Baseline-M" style="fill:none;stroke:#27AAE1;opacity:1;stroke-width:0.577;" x1="263" x2="3036" y1="1126" y2="1126"/><line id="Capline-M" style="fill:none;stroke:#27AAE1;opacity:1;stroke-width:0.577;" x1="263" x2="3036" y1="1055.54" y2="1055.54"/><g id="H-reference" style="fill:#27AAE1;stroke:none;" transform="matrix(1 0 0 1 339 1556)"><path d="M 54.9316 0 L 57.666 0 L 30.5664 -70.459 L 28.0762 -70.459 L 0.976562 0 L 3.66211 0 L 12.9395 -24.4629 L 45.7031 -24.4629 Z M 29.1992 -67.0898 L 29.4434 -67.0898 L 44.8242 -26.709 L 13.8184 -26.709 Z"/></g><line id="Baseline-L" style="fill:none;stroke:#27AAE1;opacity:1;stroke-width:0.577;" x1="263" x2="3036" y1="1556" y2="1556"/><line id="Capline-L" style="fill:none;stroke:#27AAE1;opacity:1;stroke-width:0.577;" x1="263" x2="3036" y1="1485.54" y2="1485.54"/><rect height="119.336" id="left-margin" style="fill:darkred;stroke:none;opacity:0.4;" width="12.4512" x="1394.06" y="1030.79"/><rect height="119.336" id="right-margin" style="fill:darkgreen;stroke:none;opacity:0.4;" width="12.4512" x="1502.5112" y="1030.79"/><rect x="1406.5112" y="1045" width="96" height="96" fill="none" stroke="blue" stroke-dasharray="5"/><rect x="1394.06" y="1030.79" width="120.9024" height="119.336" fill="none" stroke="blue"/></g><g id="Symbols"><g id="Bold-L" transform="matrix(1 0 0 1 2266 1556)"><path d="M25.96125 18.466250000000016 Q19.995 18.466250000000016 15.641250000000001 14.031875000000014 Q11.2875 9.597500000000018 11.2875 3.792500000000018 V-72.96249999999999 Q11.2875 -77.79999999999998 14.109375 -81.66999999999999 Q16.931250000000002 -85.53999999999999 21.285 -86.99124999999998 H24.8325 L27.4125 -84.57249999999999 V-68.76999999999998 L8.22375 -87.95874999999998 Q6.45 -89.57124999999999 6.45 -91.90937499999998 Q6.45 -94.24749999999997 8.22375 -96.02124999999998 Q9.675 -97.63374999999999 12.09375 -97.553125 Q14.512500000000001 -97.4725 15.963750000000001 -96.02124999999998 L139.80375 27.657500000000013 Q141.09375 29.431250000000016 141.255 31.769375000000018 Q141.41625 34.107500000000016 139.6425 35.397500000000015 Q138.19125 37.171250000000015 135.7725 37.171250000000015 Q133.35375 37.171250000000015 131.9025 35.397500000000015 L114.81 18.466250000000016 H25.96125 Z M142.38375 14.596250000000015  116.10000000000001 -11.526249999999983 V-48.61374999999998 Q116.10000000000001 -52.16124999999998 113.03625000000001 -53.61249999999998 Q109.9725 -55.063749999999985 107.07000000000001 -52.96749999999999 L92.71875 -41.51874999999998 L91.2675 -42.969999999999985 V-53.45124999999999 Q91.2675 -56.514999999999986 89.251875 -58.69187499999998 Q87.23625 -60.86874999999999 84.01125 -60.86874999999999 H66.91875 L38.055 -89.89374999999998 H131.9025 Q137.7075 -89.89374999999998 142.2225 -85.37874999999998 Q146.7375 -80.86374999999998 146.7375 -75.05874999999999 V3.792500000000018 Q146.7375 7.340000000000018 145.689375 10.242500000000014 Q144.64125 13.145000000000014 142.38375 14.596250000000015 Z M49.3425 -11.203749999999985 H85.30125 L41.925000000000004 -54.579999999999984 V-18.62124999999999 Q41.925000000000004 -15.396249999999988 43.940625000000004 -13.299999999999983 Q45.956250000000004 -11.203749999999985 49.3425 -11.203749999999985 Z"/></g><g id="Semibold-L" transform="matrix(1 0 0 1 1970.27 1556)"><path d="M25.330278749999998 17.975566250000014 Q19.92485625 17.975566250000014 15.92166375 13.926740000000017 Q11.91847125 9.877913750000019 11.91847125 4.563597500000014 V-73.73359749999999 Q11.91847125 -78.43097124999998 14.915625 -82.09070125 Q17.91277875 -85.75026999999999 22.26652875 -86.78098 H25.81402875 L28.46401125 -84.2219425 V-67.92875874999999 L7.8731925 -88.51957749999997 Q6.02946 -90.20222124999998 6.02946 -92.57533749999999 Q6.02946 -94.94861499999999 7.8731925 -96.7923475 Q9.46473 -98.47499124999999 11.88348 -98.42935749999998 Q14.30223 -98.38388499999999 15.89360625 -96.7923475 L140.5748475 27.797787500000016 Q142.07527875 29.641520000000014 142.16638500000002 31.979645000000016 Q142.25749125000002 34.31777000000002 140.48374125 35.748057500000016 Q138.89236499999998 37.59179000000002 136.473615 37.59179000000002 Q134.054865 37.59179000000002 132.4633275 35.748057500000016 L114.52958625 17.975566250000014 H25.330278749999998 Z M142.38375 15.016951250000016  117.5722125 -9.633497499999983 V-50.36637624999999 Q117.5722125 -53.56331874999999 114.75372374999999 -54.94442499999998 Q111.93539625 -56.32569249999999 109.31331000000002 -54.36956875 L92.78889375 -41.098048749999975 L91.968615 -41.918488749999995 V-54.85331875 Q91.968615 -57.63665499999999 90.09311625 -59.60325999999999 Q88.21777875 -61.56986499999998 85.343175 -61.56986499999998 H65.72695125 L38.055 -89.3329225 H133.024155 Q138.33847125 -89.3329225 142.43277 -85.23846249999998 Q146.52723 -81.14416374999999 146.52723 -75.8298475 V4.563597500000014 Q146.52723 8.111097500000014 145.479105 10.908462500000013 Q144.43098 13.705827500000016 142.38375 15.016951250000016 Z M47.730161249999995 -10.432652499999989 H86.28277875 L40.94347125 -55.771798749999974 V-17.219181249999984 Q40.94347125 -14.274594999999984 42.81897 -12.353623749999983 Q44.6943075 -10.432652499999989 47.730161249999995 -10.432652499999989 Z"/></g><g id="Medium-L" transform="matrix(1 0 0 1 1674.31 1556)"><path d="M24.85701 17.607432500000016 Q19.872288750000003 17.607432500000016 16.13193375 13.847888750000017 Q12.39174 10.088183750000013 12.39174 5.142162500000019 V-74.31216249999999 Q12.39174 -78.90423999999999 15.520312500000001 -82.40610625 Q18.648885 -85.90813374999999 23.002634999999998 -86.62311624999998 H26.550134999999997 L29.25284625 -83.959105 V-67.29778749999998 L7.610355 -88.94027874999998 Q5.71389375 -90.67548999999997 5.71389375 -93.07488999999998 Q5.71389375 -95.47445124999999 7.610355 -97.3709125 Q9.30686625 -99.10596249999998 11.72561625 -99.08677374999999 Q14.144366250000001 -99.06742374999999 15.841038750000001 -97.3709125 L141.1534125 27.902922500000017 Q142.811385 29.79938375000002 142.84992375 32.137508750000016 Q142.8884625 34.475633750000014 141.1147125 36.01089500000002 Q139.41820125 37.907356250000014 136.99945125000002 37.907356250000014 Q134.58070125 37.907356250000014 132.88402875 36.01089500000002 L114.31931625 17.607432500000016 H24.85701 Z M142.38375 15.332356250000014  118.6764525 -8.213691249999982 V-51.68104749999999 Q118.6764525 -54.61499124999999 116.04211124999999 -55.943529999999996 Q113.40777 -57.27222999999999 110.99611499999999 -55.42124124999998 L92.84146125 -40.78264374999998 L92.49445125000001 -41.12965374999999 V-55.90499124999998 Q92.49445125000001 -58.47805749999998 90.7240875 -60.286798749999974 Q88.95388500000001 -62.09570124999999 86.34228 -62.09570124999999 H64.83298125 L38.055 -88.91222124999999 H133.8655575 Q138.81174 -88.91222124999999 142.59063375 -85.13332749999998 Q146.36936625 -81.35443374999998 146.36936625 -76.40841249999998 V5.142162500000019 Q146.36936625 8.689662500000018 145.32124125 11.408015000000017 Q144.27311625000002 14.126528750000013 142.38375 15.332356250000014 Z M46.520625 -9.854087499999984 H87.01888500000001 L40.207365 -56.665768749999984 V-16.16750874999999 Q40.207365 -13.43319249999999 41.977567500000006 -11.643639999999984 Q43.747769999999996 -9.854087499999984 46.520625 -9.854087499999984 Z"/></g><g id="Regular-L" transform="matrix(1 0 0 1 1378.56 1556)"><path d="M24.51 17.337500000000016 Q19.833750000000002 17.337500000000016 16.28625 13.790000000000013 Q12.73875 10.242500000000014 12.73875 5.566250000000018 V-74.73624999999998 Q12.73875 -79.25124999999998 15.963750000000001 -82.63749999999999 Q19.18875 -86.02374999999998 23.5425 -86.5075 H27.09 L29.83125 -83.76624999999999 V-66.835 L7.4175 -89.24875 Q5.4825 -91.02249999999998 5.4825 -93.44125 Q5.4825 -95.85999999999999 7.4175 -97.79499999999999 Q9.19125 -99.56875 11.61 -99.56875 Q14.02875 -99.56875 15.8025 -97.79499999999999 L141.57750000000001 27.980000000000015 Q143.35125 29.915000000000013 143.35125 32.25312500000001 Q143.35125 34.59125000000002 141.57750000000001 36.203750000000014 Q139.80375 38.138750000000016 137.385 38.138750000000016 Q134.96625 38.138750000000016 133.1925 36.203750000000014 L114.165 17.337500000000016 H24.51 Z M142.38375 15.563750000000017  119.48625 -7.172499999999985 V-52.64499999999998 Q119.48625 -55.38624999999999 116.986875 -56.67624999999998 Q114.4875 -57.96624999999999 112.23 -56.19249999999998 L92.88 -40.55124999999998 V-56.67624999999998 Q92.88 -59.094999999999985 91.186875 -60.788124999999994 Q89.49375 -62.48124999999999 87.075 -62.48124999999999 H64.1775 L38.055 -88.60374999999999 H134.48250000000002 Q139.15875 -88.60374999999999 142.70625 -85.05624999999999 Q146.25375 -81.50874999999999 146.25375 -76.83249999999998 V5.566250000000018 Q146.25375 9.113750000000017 145.205625 11.774375000000013 Q144.1575 14.435000000000016 142.38375 15.563750000000017 Z M45.63375 -9.429999999999986 H87.55875 L39.667500000000004 -57.32124999999999 V-15.396249999999988 Q39.667500000000004 -12.816249999999982 41.360625 -11.123124999999987 Q43.05375 -9.429999999999986 45.63375 -9.429999999999986 Z"/></g><g id="Light-L" transform="matrix(1 0 0 1 1082.77 1556)"><path d="M26.866830000000004 14.484342500000018 Q22.252661250000003 14.484342500000018 18.86028375 11.091965000000016 Q15.467745 7.699587500000014 15.467745 3.0852575000000186 V-72.6274225 Q15.467745 -77.08034124999999 18.4757025 -80.31163 Q21.48366 -83.5427575 25.6513275 -84.0265075 H28.206495 L30.575580000000002 -81.6574225 V-68.07549624999999 L10.2706575 -88.38041874999999 Q8.7078225 -89.78200375 8.67670125 -91.7045875 Q8.64574125 -93.62717125 10.2706575 -95.25208749999999 Q11.7341625 -96.71559249999999 13.62578625 -96.71559249999999 Q15.51724875 -96.71559249999999 16.980915000000003 -95.25208749999999 L139.22067 26.987667500000015 Q140.622255 28.550502500000015 140.65321500000002 30.42342125000002 Q140.684175 32.296340000000015 139.22067 33.598756250000015 Q137.75700375 35.22367250000001 135.86538000000002 35.22367250000001 Q133.9739175 35.22367250000001 132.51025125 33.598756250000015 L113.35875 14.484342500000018 H26.866830000000004 Z M139.22050875000002 12.400508750000018  116.32300875000001 -10.335741249999991 V-51.094419999999985 Q116.32300875000001 -53.77358874999999 113.91667500000001 -55.032628749999986 Q111.51034125000001 -56.291668749999985 109.31492250000001 -54.57983874999999 L91.51550250000001 -40.117003749999995 V-54.93958749999999 Q91.51550250000001 -57.296256249999985 89.8842975 -58.92746124999999 Q88.25325375 -60.558505 85.896585 -60.558505 H66.100245 L41.15616 -85.56451 H131.25733875 Q135.8715075 -85.56451 139.26388500000002 -82.17213249999999 Q142.65642375000002 -78.779755 142.65642375000002 -74.165425 V3.0852575000000186 Q142.65642375000002 6.2605925000000155 141.70134000000002 8.766256250000012 Q140.74625625000002 11.271758750000018 139.22050875000002 12.400508750000018 Z M47.68049625 -11.04266124999998 H87.930915 L41.90032875 -57.07308624999999 V-16.822828749999985 Q41.90032875 -14.304748749999987 43.53153375 -12.673704999999984 Q45.1625775 -11.04266124999998 47.68049625 -11.04266124999998 Z"/></g><g id="Thin-L" transform="matrix(1 0 0 1 787.282 1556)"><path d="M29.22349875 11.631830000000019 Q24.67125 11.631830000000019 21.43383375 8.394413750000012 Q18.196417500000003 5.15699750000001 18.196417500000003 0.604748750000013 V-70.51891749999999 Q18.196417500000003 -74.90991624999998 20.9873325 -77.98608249999998 Q23.77808625 -81.06224874999998 27.7598325 -81.54599874999998 H29.3226675 L31.31974875 -79.54891749999999 V-69.31583124999999 L13.12317 -87.51224875 Q11.932500000000001 -88.54166874999999 11.870418749999999 -89.96824749999999 Q11.80849875 -91.39466499999997 13.12317 -92.7094975 Q14.2767525 -93.86308 15.641250000000001 -93.86308 Q17.00558625 -93.86308 18.15916875 -92.7094975 L136.86400125 25.995335000000015 Q137.8935825 27.186166250000014 137.95566375 28.594040000000017 Q138.01758375 30.001913750000014 136.86400125 30.994085000000013 Q135.71058 32.308917500000014 134.3460825 32.308917500000014 Q132.981585 32.308917500000014 131.82816375 30.994085000000013 L112.55250000000001 11.631830000000019 H29.22349875 Z M136.05775125 9.237751250000017  113.16025125 -13.498498749999982 V-49.544001249999994 Q113.16025125 -52.16124999999998 110.84695875 -53.38916874999998 Q108.53366625 -54.61724874999999 106.40016750000001 -52.96749999999999 L90.15116625 -39.682918749999985 V-53.20324749999999 Q90.15116625 -55.497834999999995 88.5820425 -57.06695874999998 Q87.01291875 -58.636082499999986 84.71833125 -58.636082499999986 H68.0226675 L44.256836250000006 -82.52591499999998 H128.0325 Q132.58474875 -82.52591499999998 135.822165 -79.28849874999999 Q139.05958125 -76.05108249999999 139.05958125 -71.49883374999999 V0.604748750000013 Q139.05958125 3.4080800000000195 138.19753875 5.758621250000019 Q137.33549625 8.109001250000013 136.05775125 9.237751250000017 Z M49.72692000000001 -12.654999999999987 H88.30291875 L44.132835 -56.82508374999999 V-18.249084999999987 Q44.132835 -15.793086249999988 45.70195875 -14.224123749999983 Q47.2710825 -12.654999999999987 49.72692000000001 -12.654999999999987 Z"/></g><g id="Ultralight-L" transform="matrix(1 0 0 1 491.205 1556)"><path d="M30.6375 9.920000000000016 Q26.122500000000002 9.920000000000016 22.978125000000002 6.775625000000012 Q19.833750000000002 3.6312500000000156 19.833750000000002 -0.8837499999999849 V-69.25374999999998 Q19.833750000000002 -73.60749999999999 22.494375 -76.59062499999999 Q25.155 -79.57374999999999 29.025000000000002 -80.05749999999999 H29.9925 L31.76625 -78.28374999999998 V-70.05999999999999 L14.835 -86.99124999999998 Q13.8675 -87.79749999999999 13.786875 -88.92624999999998 Q13.70625 -90.05499999999998 14.835 -91.18374999999997 Q15.8025 -92.15124999999998 16.850625 -92.15124999999998 Q17.89875 -92.15124999999998 18.86625 -91.18374999999997 L135.45000000000002 25.400000000000016 Q136.25625 26.367500000000014 136.336875 27.496250000000018 Q136.4175 28.625000000000014 135.45000000000002 29.431250000000016 Q134.48250000000002 30.560000000000016 133.43437500000002 30.560000000000016 Q132.38625 30.560000000000016 131.41875000000002 29.431250000000016 L112.06875000000001 9.920000000000016 H30.6375 Z M134.16 7.340000000000018  111.2625 -15.396249999999988 V-48.61374999999998 Q111.2625 -51.19374999999998 109.00500000000001 -52.40312499999999 Q106.7475 -53.61249999999998 104.65125 -51.999999999999986 L89.3325 -39.422499999999985 V-52.16124999999998 Q89.3325 -54.41874999999999 87.800625 -55.95062499999999 Q86.26875 -57.48249999999999 84.01125 -57.48249999999999 H69.17625 L46.1175 -80.70249999999999 H126.0975 Q130.6125 -80.70249999999999 133.756875 -77.55812499999999 Q136.90125 -74.41375 136.90125 -69.89874999999999 V-0.8837499999999849 Q136.90125 1.6962500000000134 136.095 3.9537500000000136 Q135.28875 6.211250000000014 134.16 7.340000000000018 Z M50.955 -13.622499999999988 H88.52625 L45.472500000000004 -56.67624999999998 V-19.104999999999983 Q45.472500000000004 -16.686249999999987 47.004375 -15.154374999999987 Q48.53625 -13.622499999999988 50.955 -13.622499999999988 Z"/></g><g id="Bold-M" transform="matrix(1 0 0 1 2281.8 1126)"><path d="M21.5 10.52000000000001 Q14.375 10.52000000000001 9.4375 5.52000000000001 Q4.5 0.5200000000000102 4.5 -6.47999999999999 V-63.97999999999999 Q4.5 -69.60499999999999 7.6875 -73.97999999999999 Q10.875 -78.35499999999999 15.875 -80.10499999999999 L20.375 -75.72999999999999 V-57.22999999999999 L3.75 -73.85499999999999 Q1.75 -75.85499999999999 1.75 -78.47999999999999 Q1.75 -81.10499999999999 3.75 -83.10499999999999 Q5.625 -85.10499999999999 8.3125 -85.04249999999999 Q11.0 -84.97999999999999 12.875 -83.10499999999999 L108.0 11.89500000000001 Q109.875 13.89500000000001 109.875 16.52000000000001 Q109.875 19.14500000000001 107.875 21.02000000000001 Q106.0 23.02000000000001 103.3125 23.02000000000001 Q100.625 23.02000000000001 98.75 21.02000000000001 L88.0 10.52000000000001 H21.5 Z M114.0 1.1450000000000102  91.625 -21.22999999999999 V-42.85499999999999 Q91.625 -46.85499999999999 88.0 -48.60499999999999 Q84.375 -50.35499999999999 81.25 -47.85499999999999 L72.25 -40.72999999999999 L70.75 -42.22999999999999 V-47.72999999999999 Q70.75 -51.22999999999999 68.3125 -53.72999999999999 Q65.875 -56.22999999999999 62.25 -56.22999999999999 H56.75 L32.125 -80.97999999999999 H99.125 Q106.125 -80.97999999999999 111.125 -75.97999999999999 Q116.125 -70.97999999999999 116.125 -63.97999999999999 V-6.47999999999999 Q116.125 -4.47999999999999 115.6875 -2.4799999999999898 Q115.25 -0.47999999999998977 114.0 1.1450000000000102 Z M37.5 -14.35499999999999 H63.25 L29.0 -48.60499999999999 V-22.85499999999999 Q29.0 -19.35499999999999 31.4375 -16.85499999999999 Q33.875 -14.35499999999999 37.5 -14.35499999999999 Z"/></g><g id="Semibold-M" transform="matrix(1 0 0 1 1985.97 1126)"><path d="M20.847875 9.65050000000001 Q14.429375 9.65050000000001 9.95375 5.139625000000009 Q5.47825 0.6287500000000108 5.47825 -5.719124999999991 V-64.74087499999999 Q5.47825 -70.14849999999998 8.774375 -74.22449999999999 Q12.070625 -78.300625 17.01625 -79.5615 L21.461875 -75.1865 V-56.57787499999999 L3.695625 -74.34412499999999 Q1.695625 -76.34412499999999 1.695625 -78.99624999999999 Q1.695625 -81.64849999999998 3.695625 -83.64849999999998 Q5.625 -85.64849999999998 8.3125 -85.613125 Q11.0 -85.57775 12.929375 -83.64849999999998 L108.5435 11.89500000000001 Q110.47275 13.89500000000001 110.47275 16.52000000000001 Q110.47275 19.14500000000001 108.47275 21.07437500000001 Q106.5435 23.07437500000001 103.856 23.07437500000001 Q101.1685 23.07437500000001 99.239125 21.07437500000001 L87.619625 9.65050000000001 H20.847875 Z M113.619625 1.3623750000000108  92.76625 -19.490999999999993 V-44.702749999999995 Q92.76625 -48.32225 89.4945 -49.936374999999984 Q86.22275 -51.550625 83.369375 -49.26799999999999 L72.14125 -40.295249999999996 L71.2935 -41.14312499999998 V-49.08862499999999 Q71.2935 -52.26249999999999 69.073375 -54.51799999999999 Q66.85325 -56.773499999999984 63.608625 -56.773499999999984 H55.554375 L32.288 -80.11049999999999 H100.1575 Q106.505375 -80.11049999999999 111.01625 -75.59962499999999 Q115.52725 -71.08874999999999 115.52725 -64.74087499999999 V-5.719124999999991 Q115.52725 -3.827874999999988 115.08975 -1.9637499999999903 Q114.65225 -0.09962499999998897 113.619625 1.3623750000000108 Z M35.924 -13.757249999999992 H64.2825 L28.239125 -49.800625 V-21.441999999999993 Q28.239125 -18.26812499999999 30.45925 -16.012624999999993 Q32.679375 -13.757249999999992 35.924 -13.757249999999992 Z"/></g><g id="Medium-M" transform="matrix(1 0 0 1 1689.91 1126)"><path d="M20.35875 8.99825000000001 Q14.470125 8.99825000000001 10.341 4.854250000000011 Q6.212 0.7102500000000092 6.212 -5.148499999999991 V-65.3115 Q6.212 -70.556125 9.589625 -74.40799999999999 Q12.967375 -78.259875 17.87225 -79.15387499999999 L22.277125 -74.77887499999999 V-56.08874999999999 L3.654875 -74.71099999999998 Q1.654875 -76.71099999999998 1.654875 -79.38349999999998 Q1.654875 -82.056125 3.654875 -84.056125 Q5.625 -86.056125 8.3125 -86.041125 Q11.0 -86.02624999999999 12.970125 -84.056125 L108.951125 11.89500000000001 Q110.92125 13.89500000000001 110.92125 16.52000000000001 Q110.92125 19.14500000000001 108.92125 21.11512500000001 Q106.951125 23.11512500000001 104.263625 23.11512500000001 Q101.576125 23.11512500000001 99.606 21.11512500000001 L87.33425 8.99825000000001 H20.35875 Z M113.33425 1.525375000000011  93.62225 -18.186499999999988 V-46.08862499999999 Q93.62225 -49.42287499999999 90.6155 -50.935124999999985 Q87.608625 -52.447374999999994 84.95925 -50.327749999999995 L72.05975 -39.96912499999999 L71.701125 -40.32787499999999 V-50.107749999999996 Q71.701125 -53.03699999999999 69.644 -55.10912499999999 Q67.587 -57.181124999999994 64.62775 -57.181124999999994 H54.657625 L32.410375 -79.45824999999999 H100.932 Q106.79075 -79.45824999999999 110.93475 -75.31424999999999 Q115.07875 -71.17025 115.07875 -65.3115 V-5.148499999999991 Q115.07875 -3.3387499999999903 114.64125 -1.5764999999999887 Q114.20375 0.1857500000000094 113.33425 1.525375000000011 Z M34.741875 -13.30874999999999 H65.057 L27.6685 -50.697374999999994 V-20.382249999999992 Q27.6685 -17.45287499999999 29.7255 -15.380874999999989 Q31.782625 -13.30874999999999 34.741875 -13.30874999999999 Z"/></g><g id="Regular-M" transform="matrix(1 0 0 1 1394.06 1126)"><path d="M20.0 8.52000000000001 Q14.5 8.52000000000001 10.625 4.64500000000001 Q6.75 0.7700000000000102 6.75 -4.72999999999999 V-65.72999999999999 Q6.75 -70.85499999999999 10.1875 -74.54249999999999 Q13.625 -78.22999999999999 18.5 -78.85499999999999 L22.875 -74.47999999999999 V-55.72999999999999 L3.625 -74.97999999999999 Q1.625 -76.97999999999999 1.625 -79.66749999999999 Q1.625 -82.35499999999999 3.625 -84.35499999999999 Q5.625 -86.35499999999999 8.3125 -86.35499999999999 Q11.0 -86.35499999999999 13.0 -84.35499999999999 L109.25 11.89500000000001 Q111.25 13.89500000000001 111.25 16.52000000000001 Q111.25 19.14500000000001 109.25 21.14500000000001 Q107.25 23.14500000000001 104.5625 23.14500000000001 Q101.875 23.14500000000001 99.875 21.14500000000001 L87.125 8.52000000000001 H20.0 Z M113.125 1.6450000000000102  94.25 -17.22999999999999 V-47.10499999999999 Q94.25 -50.22999999999999 91.4375 -51.66749999999999 Q88.625 -53.10499999999999 86.125 -51.10499999999999 L72.0 -39.72999999999999 V-50.85499999999999 Q72.0 -53.60499999999999 70.0625 -55.54249999999999 Q68.125 -57.47999999999999 65.375 -57.47999999999999 H54.0 L32.5 -78.97999999999999 H101.5 Q107.0 -78.97999999999999 110.875 -75.10499999999999 Q114.75 -71.22999999999999 114.75 -65.72999999999999 V-4.72999999999999 Q114.75 -2.9799999999999898 114.3125 -1.2924999999999898 Q113.875 0.39500000000001023 113.125 1.6450000000000102 Z M33.875 -12.97999999999999 H65.625 L27.25 -51.35499999999999 V-19.60499999999999 Q27.25 -16.85499999999999 29.1875 -14.91749999999999 Q31.125 -12.97999999999999 33.875 -12.97999999999999 Z"/></g><g id="Light-M" transform="matrix(1 0 0 1 1098.18 1126)"><path d="M21.538625 6.01987500000001 Q16.375125 6.01987500000001 12.812625 2.4573750000000096 Q9.250125 -1.1051249999999904 9.250125 -6.2686249999999895 V-64.191375 Q9.250125 -68.97987499999999 12.351125 -72.35487499999999 Q15.452 -75.72987499999999 19.84625 -76.35487499999999 L23.5 -72.701 V-57.412874999999985 L5.932875 -74.97999999999999 Q4.269375 -76.64337499999999 4.245375 -78.77799999999999 Q4.221375 -80.91262499999999 5.932875 -82.62412499999999 Q7.644375 -84.335625 9.754875 -84.335625 Q11.8655 -84.335625 13.577 -82.62412499999999 L107.999875 11.79887500000001 Q109.663375 13.46225000000001 109.663375 15.55837500000001 Q109.663375 17.65450000000001 107.999875 19.31787500000001 Q106.288375 21.02950000000001 104.177875 21.02950000000001 Q102.067375 21.02950000000001 100.35575 19.31787500000001 L87.028875 6.01987500000001 H21.538625 Z M110.480625 0.20262500000001182  91.942125 -18.38387499999999 V-46.28762499999999 Q91.942125 -49.17224999999999 89.322 -50.53762499999999 Q86.70175 -51.90299999999999 84.394125 -49.99912499999999 L71.23075 -39.34537499999999 V-49.89337499999999 Q71.23075 -52.45112499999999 69.4375 -54.24437499999999 Q67.64425 -56.03762499999999 65.0865 -56.03762499999999 H54.2885 L33.84625 -76.47987499999999 H99.961375 Q105.124875 -76.47987499999999 108.687375 -72.91737499999999 Q112.249875 -69.35487499999999 112.249875 -64.191375 V-6.2686249999999895 Q112.249875 -4.422374999999988 111.76425 -2.710874999999991 Q111.278625 -0.9993749999999899 110.480625 0.20262500000001182 Z M35.702 -14.518624999999993 H66.4905 L29.557875 -51.45112499999999 V-20.66274999999999 Q29.557875 -18.105124999999987 31.351125 -16.311874999999986 Q33.144375 -14.518624999999993 35.702 -14.518624999999993 Z"/></g><g id="Thin-M" transform="matrix(1 0 0 1 802.565 1126)"><path d="M23.076875 3.5200000000000102 Q18.25 3.5200000000000102 15.0 0.27000000000001023 Q11.75 -2.9799999999999898 11.75 -7.806874999999991 V-62.65312499999999 Q11.75 -67.10499999999999 14.514375 -70.16749999999999 Q17.278875 -73.22999999999999 21.19225 -73.85499999999999 L24.125 -70.92237499999999 V-59.09537499999999 L8.240375 -74.97999999999999 Q6.913375 -76.30687499999999 6.865375 -77.88862499999999 Q6.81725 -79.47037499999999 8.240375 -80.89349999999999 Q9.6635 -82.31662499999999 11.197125 -82.31662499999999 Q12.73075 -82.31662499999999 14.153875 -80.89349999999999 L106.75 11.70275000000001 Q108.077 13.02962500000001 108.077 14.59687500000001 Q108.077 16.16425000000001 106.75 17.49112500000001 Q105.326875 18.91425000000001 103.79325 18.91425000000001 Q102.259625 18.91425000000001 100.8365 17.49112500000001 L86.93275 3.5200000000000102 H23.076875 Z M107.836625 -1.2396249999999895  89.634625 -19.53762499999999 V-45.47037499999999 Q89.634625 -48.11462499999999 87.20675 -49.40787499999999 Q84.778875 -50.70112499999999 82.6635 -48.89349999999999 L70.4615 -38.96074999999999 V-48.93187499999999 Q70.4615 -51.29737499999999 68.8125 -52.94637499999999 Q67.1635 -54.59537499999999 64.798125 -54.59537499999999 H54.576875 L35.19225 -73.97999999999999 H98.423125 Q103.25 -73.97999999999999 106.5 -70.72999999999999 Q109.75 -67.47999999999999 109.75 -62.65312499999999 V-7.806874999999991 Q109.75 -5.8646249999999895 109.216375 -4.128999999999991 Q108.68275 -2.393499999999989 107.836625 -1.2396249999999895 Z M37.528875 -16.05687499999999 H67.35575 L31.865375 -51.54724999999999 V-21.72037499999999 Q31.865375 -19.35499999999999 33.514375 -17.70599999999999 Q35.163375 -16.05687499999999 37.528875 -16.05687499999999 Z"/></g><g id="Ultralight-M" transform="matrix(1 0 0 1 506.415 1126)"><path d="M24.0 2.0200000000000102 Q19.375 2.0200000000000102 16.3125 -1.0424999999999898 Q13.25 -4.10499999999999 13.25 -8.72999999999999 V-61.72999999999999 Q13.25 -65.97999999999999 15.8125 -68.85499999999999 Q18.375 -71.72999999999999 22.0 -72.35499999999999 L24.5 -69.85499999999999 V-60.10499999999999 L9.625 -74.97999999999999 Q8.5 -76.10499999999999 8.4375 -77.35499999999999 Q8.375 -78.60499999999999 9.625 -79.85499999999999 Q10.875 -81.10499999999999 12.0625 -81.10499999999999 Q13.25 -81.10499999999999 14.5 -79.85499999999999 L106.0 11.64500000000001 Q107.125 12.77000000000001 107.125 14.02000000000001 Q107.125 15.27000000000001 106.0 16.39500000000001 Q104.75 17.64500000000001 103.5625 17.64500000000001 Q102.375 17.64500000000001 101.125 16.39500000000001 L86.875 2.0200000000000102 H24.0 Z M106.25 -2.1049999999999898  88.25 -20.22999999999999 V-44.97999999999999 Q88.25 -47.47999999999999 85.9375 -48.72999999999999 Q83.625 -49.97999999999999 81.625 -48.22999999999999 L70.0 -38.72999999999999 V-48.35499999999999 Q70.0 -50.60499999999999 68.4375 -52.16749999999999 Q66.875 -53.72999999999999 64.625 -53.72999999999999 H54.75 L36.0 -72.47999999999999 H97.5 Q102.125 -72.47999999999999 105.1875 -69.41749999999999 Q108.25 -66.35499999999999 108.25 -61.72999999999999 V-8.72999999999999 Q108.25 -6.72999999999999 107.6875 -4.97999999999999 Q107.125 -3.2299999999999898 106.25 -2.1049999999999898 Z M38.625 -16.97999999999999 H67.875 L33.25 -51.60499999999999 V-22.35499999999999 Q33.25 -20.10499999999999 34.8125 -18.54249999999999 Q36.375 -16.97999999999999 38.625 -16.97999999999999 Z"/></g><g id="Bold-S" transform="matrix(1 0 0 1 2294.23 696)"><path d="M17.7525 -2.2892499999999867 Q12.525375 -2.2892499999999867 8.8269375 -5.987687499999986 Q5.1285 -9.686124999999986 5.1285 -14.913249999999987 V-55.54674999999999 Q5.1285 -59.590374999999995 7.446187500000001 -62.844999999999985 Q9.763875 -66.09962499999999 13.314375 -67.480375 L16.864875 -66.39549999999998 V-53.081124999999986 L5.621625 -64.32437499999999 Q4.14225 -65.80375 4.092937500000001 -67.579 Q4.0436250000000005 -69.35425 5.523000000000001 -70.93225 Q7.002375000000001 -72.51024999999998 8.87625 -72.46093749999999 Q10.750125 -72.41162499999999 12.2295 -70.93225 L83.338125 0.07775000000001242 Q84.81750000000001 1.6557500000000136 84.76818750000001 3.4803125000000126 Q84.718875 5.304875000000013 83.2395 6.685625000000013 Q81.760125 8.263625000000014 79.9355625 8.263625000000014 Q78.111 8.263625000000014 76.631625 6.685625000000013 L67.65675 -2.2892499999999867 H17.7525 Z M87.57900000000001 -7.713624999999986  70.319625 -24.972999999999985 V-40.16124999999999 Q70.319625 -43.11999999999999 67.65675 -44.45143749999999 Q64.993875 -45.78287499999999 62.626875000000005 -43.810374999999986 L56.61075 -38.78049999999999 L55.42725 -39.96399999999999 V-44.10624999999999 Q55.42725 -46.67049999999999 53.6026875 -48.54437499999999 Q51.778125 -50.418249999999986 49.11525 -50.418249999999986 H44.973 L25.642500000000002 -69.255625 L77.420625 -68.17074999999998 Q82.549125 -68.17074999999998 86.296875 -64.42299999999999 Q90.04462500000001 -60.67524999999999 90.04462500000001 -55.54674999999999 V-14.913249999999987 Q90.04462500000001 -12.940749999999987 89.452875 -10.968249999999987 Q88.861125 -8.995749999999987 87.57900000000001 -7.713624999999986 Z M31.954500000000003 -20.33762499999999 H49.707 L25.642500000000002 -44.50074999999999 V-26.649624999999986 Q25.642500000000002 -24.085374999999985 27.4670625 -22.211499999999987 Q29.291625 -20.33762499999999 31.954500000000003 -20.33762499999999 Z"/></g><g id="Semibold-S" transform="matrix(1 0 0 1 1998.1 696)"><path d="M17.237973375 -2.975285499999986 Q12.568276875 -2.975285499999986 9.23425875 -6.287803374999989 Q5.90033925 -9.600321249999986 5.90033925 -14.312919624999989 V-56.14708037499999 Q5.90033925 -60.01919649999998 8.303731875 -63.037910499999995 Q10.707223125 -66.05672312499999 14.21482125 -67.0515535 L17.722419375 -65.9666785 V-52.566598374999984 L5.578723125 -64.71029462499999 Q4.099348125 -66.189669625 4.050035625 -67.98632124999999 Q4.000723125 -69.78307149999999 5.480098125 -71.36107149999998 Q7.002375000000001 -72.93907149999998 8.87625 -72.911160625 Q10.750125 -72.88324974999999 12.272401875 -71.36107149999998 L83.7669465 0.07775000000001242 Q85.28912475000001 1.6557500000000136 85.23981225000001 3.4803125000000126 Q85.19049975 5.304875000000013 83.71112475000001 6.728526875000013 Q82.1889465 8.306526875000014 80.364384 8.306526875000014 Q78.5398215 8.306526875000014 77.017544625 6.728526875000013 L67.356634125 -2.975285499999986 H17.237973375 Z M87.278884125 -7.5421161249999855  71.22007125 -23.600928999999994 V-41.61912474999999 Q71.22007125 -44.27766025 68.83591050000001 -45.50189237499998 Q66.45174975 -46.726223125 64.299061875 -44.92523199999999 L56.52494625 -38.437482249999995 L55.8560715 -39.10645562499998 V-45.17820512499999 Q55.8560715 -47.48514249999999 54.203017875 -49.16610699999999 Q52.54996425 -50.847071499999984 50.187205125000006 -50.847071499999984 H44.029651875 L25.771106999999997 -68.56958949999999 L78.2352675 -67.48471449999998 Q82.849240875 -67.48471449999998 86.21107125 -64.12288412499998 Q89.57300025 -60.76105374999999 89.57300025 -56.14708037499999 V-14.312919624999989 Q89.57300025 -12.426223374999985 88.98125025 -10.560928749999988 Q88.38950025 -8.695634124999987 87.278884125 -7.5421161249999855 Z M30.711036 -19.86600024999999 H50.5216425 L25.042169625000003 -45.444098125 V-25.534767999999993 Q25.042169625000003 -23.22783062499999 26.695223249999998 -21.546866124999987 Q28.348276875 -19.86600024999999 30.711036 -19.86600024999999 Z"/></g><g id="Medium-S" transform="matrix(1 0 0 1 1701.85 696)"><path d="M16.85205375 -3.4899107499999875 Q12.600428625 -3.4899107499999875 9.539799 -6.512964249999985 Q6.479268 -9.536017749999989 6.479268 -13.862696499999988 V-56.597303499999995 Q6.479268 -60.340812625 8.946964125000001 -63.18269199999999 Q11.414758875 -66.024571375 14.890205250000001 -66.72993737499999 L18.365651625 -65.64506237499998 V-52.180678749999984 L5.546571375 -64.99975899999998 Q4.067196375 -66.47913399999999 4.017883875 -68.29186149999998 Q3.968571375 -70.104687625 5.447946375 -71.682687625 Q7.002375000000001 -73.26068762499999 8.87625 -73.248852625 Q10.750125 -73.23711624999999 12.304553625 -71.682687625 L84.08856262500001 0.07775000000001242 Q85.64299125000001 1.6557500000000136 85.59367875000001 3.4803125000000126 Q85.54436625000001 5.304875000000013 84.06499125 6.760678625000014 Q82.510562625 8.338678625000014 80.686000125 8.338678625000014 Q78.86143762500001 8.338678625000014 77.307009 6.760678625000014 L67.13147325 -3.4899107499999875 H16.85205375 Z M87.05372325 -7.413509124999987  71.89545525 -22.571678499999983 V-42.71258012499999 Q71.89545525 -45.14605337499999 69.7203795 -46.28990612499999 Q67.54520512500001 -47.433758874999995 65.55347325 -45.761374749999995 L56.46064275 -38.18016962499999 L56.177687625000004 -38.46322337499999 V-45.982294749999994 Q56.177687625000004 -48.09622299999999 54.65324100000001 -49.63250462499999 Q53.128893000000005 -51.16868762499999 50.99129475000001 -51.16868762499999 H43.322116125 L25.867660875000002 -68.05496425 L78.846348 -66.97008924999999 Q83.07440175 -66.97008924999999 86.14676775 -63.897723249999984 Q89.21913375 -60.825357249999996 89.21913375 -56.597303499999995 V-13.862696499999988 Q89.21913375 -12.040303749999989 88.62738375 -10.255388499999988 Q88.03563375 -8.470473249999987 87.05372325 -7.413509124999987 Z M29.778339375 -19.512133749999986 H51.132723000000006 L24.591946500000002 -46.151633874999995 V-24.698625249999992 Q24.591946500000002 -22.58459837499999 26.1162945 -21.04841537499999 Q27.640741125000005 -19.512133749999986 29.778339375 -19.512133749999986 Z"/></g><g id="Regular-S" transform="matrix(1 0 0 1 1405.73 696)"><path d="M16.569 -3.867249999999988 Q12.624 -3.867249999999988 9.763875 -6.678062499999989 Q6.9037500000000005 -9.488874999999986 6.9037500000000005 -13.532499999999988 V-56.927499999999995 Q6.9037500000000005 -60.57662499999999 9.4186875 -63.28881249999999 Q11.933625000000001 -66.00099999999999 15.3855 -66.494125 L18.837375 -65.40924999999999 V-51.89762499999999 L5.523000000000001 -65.21199999999999 Q4.0436250000000005 -66.691375 3.9943125000000004 -68.51593749999999 Q3.9450000000000003 -70.34049999999999 5.424375 -71.9185 Q7.002375000000001 -73.49649999999998 8.87625 -73.49649999999998 Q10.750125 -73.49649999999998 12.328125 -71.9185 L84.324375 0.07775000000001242 Q85.902375 1.6557500000000136 85.85306250000001 3.4803125000000126 Q85.80375000000001 5.304875000000013 84.324375 6.784250000000013 Q82.746375 8.362250000000014 80.9218125 8.362250000000014 Q79.09725 8.362250000000014 77.51925 6.784250000000013 L66.966375 -3.867249999999988 H16.569 Z M86.888625 -7.3191249999999854  72.39075 -21.816999999999986 V-43.51449999999999 Q72.39075 -45.78287499999999 70.3689375 -46.86774999999999 Q68.347125 -47.95262499999999 66.47325000000001 -46.37462499999999 L56.4135 -37.99149999999999 V-46.57187499999999 Q56.4135 -48.54437499999999 54.9834375 -49.974437499999986 Q53.553375 -51.40449999999999 51.580875 -51.40449999999999 H42.80325 L25.938375 -67.67762499999999 L79.2945 -66.59275 Q83.2395 -66.59275 86.099625 -63.732624999999985 Q88.95975 -60.87249999999999 88.95975 -56.927499999999995 V-13.532499999999988 Q88.95975 -11.757249999999988 88.36800000000001 -10.031312499999988 Q87.77625 -8.305374999999987 86.888625 -7.3191249999999854 Z M29.094375000000003 -19.25274999999999 H51.580875 L24.261750000000003 -46.67049999999999 V-24.085374999999985 Q24.261750000000003 -22.11287499999999 25.6918125 -20.68281249999999 Q27.121875000000003 -19.25274999999999 29.094375000000003 -19.25274999999999 Z"/></g><g id="Light-S" transform="matrix(1 0 0 1 1109.75 696)"><path d="M17.782975125 -5.839848624999988 Q14.103473625000001 -5.839848624999988 11.489911125 -8.404098624999989 Q8.876348625 -10.968348624999987 8.876348625 -14.74647512499999 V-55.71352487499999 Q8.876348625 -59.097151374999996 11.125787625000001 -61.562776375 Q13.375128000000002 -64.02840137499999 16.447691250000002 -64.521526375 L19.3305 -64.005619 V-53.22541337499999 L7.343913375 -65.21199999999999 Q6.130036875 -66.425777875 6.061788375000001 -67.814122 Q5.993539875000001 -69.20246612499999 7.2452883749999994 -70.55283962499999 Q8.595661875000001 -71.903213125 10.014283875 -71.903213125 Q11.433004500000001 -71.903213125 12.783378000000003 -70.55283962499999 L83.33802637500001 0.001907375000012479 Q84.65052787500001 1.3143102500000126 84.60121537500001 2.721590375000014 Q84.55190287500001 4.128870500000013 83.33802637500001 5.342648375000013 Q81.98765287500001 6.693120500000013 80.61834337500001 6.693120500000013 Q79.24903387500001 6.693120500000013 77.89856175 5.342648375000013 L66.890532375 -5.839848624999988 H17.782975125 Z M84.80221312500001 -8.457158874999987  70.56983662500001 -22.727407374999984 V-42.86959112499999 Q70.56983662500001 -44.94831024999999 68.699808 -45.97627862499999 Q66.82968075000001 -47.00424699999999 65.107589625 -45.50208962499999 L55.80656175 -37.68803087499999 V-45.81315287499999 Q55.80656175 -47.63396762499999 54.4903125 -48.95021687499999 Q53.17406325 -50.266466124999994 51.35324850000001 -50.266466124999994 H43.0308765 L27.00056625 -65.70502637499999 L78.08052487500001 -64.62015137499999 Q81.76002637500001 -64.62015137499999 84.37358887500001 -62.00658887499999 Q86.98715137500001 -59.39302637499999 86.98715137500001 -55.71352487499999 V-14.74647512499999 Q86.98715137500001 -12.895283874999986 86.35743075 -11.15041037499999 Q85.727710125 -9.405536874999989 84.80221312500001 -8.457158874999987 Z M30.535878 -20.46672512499999 H52.2637545 L26.082663375000003 -46.74634262499999 V-24.91993974999999 Q26.082663375000003 -23.099223624999986 27.398912625000005 -21.782974374999988 Q28.715161875 -20.46672512499999 30.535878 -20.46672512499999 Z"/></g><g id="Thin-S" transform="matrix(1 0 0 1 814.015 696)"><path d="M18.996654375000002 -7.812249999999988 Q15.58275 -7.812249999999988 13.21575 -10.129937499999986 Q10.84875 -12.447624999999988 10.84875 -15.960154374999988 V-54.49984562499999 Q10.84875 -57.617874999999984 12.832591875000002 -59.83693749999999 Q14.816532375 -62.05599999999998 17.50968525 -62.54912499999999 L19.823625 -62.60228387499998 V-54.55290587499999 L9.164530875 -65.21199999999999 Q8.216152875 -66.16027937499999 8.128968375000001 -67.112405125 Q8.04168525 -68.06453087499999 9.065905875 -69.18737649999998 Q10.188652875 -70.31022212499998 11.152219125 -70.31022212499998 Q12.11568675 -70.31022212499998 13.238532375 -69.18737649999998 L82.351875 -0.07393524999998569 Q83.398878 0.972969125000013 83.3495655 1.9629668750000135 Q83.300253 2.953063250000012 82.351875 3.901342625000014 Q81.22902937500001 5.024188250000013 80.31487425 5.024188250000013 Q79.40071912500001 5.024188250000013 78.2778735 3.901342625000014 L66.81468975 -7.812249999999988 H18.996654375000002 Z M82.716097125 -9.595094124999989  68.749219125 -23.63771612499999 V-42.224780874999986 Q68.749219125 -44.113844124999986 67.03087575 -45.08490587499999 Q65.312532375 -46.05596762499999 63.742126500000005 -44.62975149999999 L55.1996235 -37.38456174999999 V-45.05452937499999 Q55.1996235 -46.72365887499999 53.9971875 -47.92609487499999 Q52.794751500000004 -49.12853087499999 51.125720625 -49.12853087499999 H43.258404375000005 L28.06256025 -63.732624999999985 L76.866845625 -62.64774999999999 Q80.28075 -62.64774999999999 82.64775 -60.28074999999998 Q85.01475 -57.91374999999999 85.01475 -54.49984562499999 V-15.960154374999988 Q85.01475 -14.033219124999988 84.34715737500001 -12.269310999999988 Q83.67956475 -10.505501499999987 82.716097125 -9.595094124999989 Z M31.977282375 -21.680404374999988 H52.946436750000004 L27.903280875 -46.82218524999999 V-25.75440587499999 Q27.903280875 -24.085374999999985 29.105716875000002 -22.882938999999986 Q30.308152875000005 -21.680404374999988 31.977282375 -21.680404374999988 Z"/></g><g id="Ultralight-S" transform="matrix(1 0 0 1 517.792 696)"><path d="M19.725 -8.995749999999987 Q16.470375 -8.995749999999987 14.251312500000001 -11.165499999999987 Q12.032250000000001 -13.335249999999988 12.032250000000001 -16.688499999999987 V-53.77149999999999 Q12.032250000000001 -56.730249999999984 13.8568125 -58.80137499999999 Q15.681375000000001 -60.87249999999999 18.147000000000002 -61.365624999999994 L20.119500000000002 -61.76012499999999 V-55.34949999999999 L10.257 -65.21199999999999 Q9.468 -66.00099999999999 9.369375 -66.691375 Q9.27075 -67.38175 10.158375000000001 -68.368 Q11.144625000000001 -69.35425 11.835 -69.35425 Q12.525375 -69.35425 13.511625 -68.368 L81.760125 -0.11949999999998617 Q82.64775 0.7681250000000137 82.5984375 1.5078125000000124 Q82.549125 2.247500000000013 81.760125 3.0365000000000126 Q80.773875 4.022750000000013 80.1328125 4.022750000000013 Q79.49175000000001 4.022750000000013 78.5055 3.0365000000000126 L66.769125 -8.995749999999987 H19.725 Z M81.46425 -10.277874999999987  67.65675 -24.18399999999999 V-41.83787499999999 Q67.65675 -43.61312499999999 66.0294375 -44.55006249999999 Q64.402125 -45.48699999999999 62.92275 -44.10624999999999 L54.8355 -37.202499999999986 V-44.59937499999999 Q54.8355 -46.17737499999999 53.7013125 -47.31156249999999 Q52.567125000000004 -48.44574999999999 50.989125 -48.44574999999999 H43.395 L28.699875000000002 -62.54912499999999 L76.13850000000001 -61.46424999999999 Q79.393125 -61.46424999999999 81.6121875 -59.245187499999986 Q83.83125 -57.02612499999999 83.83125 -53.77149999999999 V-16.688499999999987 Q83.83125 -14.715999999999987 83.14087500000001 -12.940749999999987 Q82.4505 -11.165499999999987 81.46425 -10.277874999999987 Z M32.842125 -22.40874999999999 H53.356125000000006 L28.99575 -46.86774999999999 V-26.255124999999985 Q28.99575 -24.67712499999999 30.1299375 -23.542937499999987 Q31.264125 -22.40874999999999 32.842125 -22.40874999999999 Z"/></g></g></svg>