<svg xmlns="http://www.w3.org/2000/svg" version="1.1" width="3300" height="2000"><g id="Notes"><style>
    text {
      font-family: monospace;
      text-anchor: middle;
    }
    text.emphasis {
      font-weight:bold;
    }
    text.lanchor {
      text-anchor: start;
    }
  </style><rect height="2200" id="artboard" fill="white" width="3300" x="0" y="0"/><line id="" style="fill:none;stroke:black;stroke-width:0.5;" x1="263" x2="3036" y1="292" y2="292"/><text class="lanchor emphasis" transform="matrix(1 0 0 1 263 322)">Weight/Scale Variations</text><text transform="matrix(1 0 0 1 559.711 322)">Ultralight</text><text transform="matrix(1 0 0 1 856.422 322)">Thin</text><text transform="matrix(1 0 0 1 1153.13 322)">Light</text><text transform="matrix(1 0 0 1 1449.84 322)">Regular</text><text transform="matrix(1 0 0 1 1746.56 322)">Medium</text><text transform="matrix(1 0 0 1 2043.27 322)">Semibold</text><text transform="matrix(1 0 0 1 2339.98 322)">Bold</text><text transform="matrix(1 0 0 1 2636.69 322)">Heavy</text><text transform="matrix(1 0 0 1 2933.4 322)">Black</text><text id="template-version" style="text-anchor: end;" transform="matrix(1 0 0 1 3036 1933)">Template v.1.0</text><text class="lanchor" transform="matrix(1 0 0 1 263 726)">Small</text><text class="lanchor" transform="matrix(1 0 0 1 263 1156)">Medium</text><text class="lanchor" transform="matrix(1 0 0 1 263 1586)">Large</text></g><g id="Guides"><g id="H-reference" style="fill:#27AAE1;stroke:none;" transform="matrix(1 0 0 1 339 696)"><path d="M 54.9316 0 L 57.666 0 L 30.5664 -70.459 L 28.0762 -70.459 L 0.976562 0 L 3.66211 0 L 12.9395 -24.4629 L 45.7031 -24.4629 Z M 29.1992 -67.0898 L 29.4434 -67.0898 L 44.8242 -26.709 L 13.8184 -26.709 Z"/></g><line id="Baseline-S" style="fill:none;stroke:#27AAE1;opacity:1;stroke-width:0.577;" x1="263" x2="3036" y1="696" y2="696"/><line id="Capline-S" style="fill:none;stroke:#27AAE1;opacity:1;stroke-width:0.577;" x1="263" x2="3036" y1="625.541" y2="625.541"/><g id="H-reference" style="fill:#27AAE1;stroke:none;" transform="matrix(1 0 0 1 339 1126)"><path d="M 54.9316 0 L 57.666 0 L 30.5664 -70.459 L 28.0762 -70.459 L 0.976562 0 L 3.66211 0 L 12.9395 -24.4629 L 45.7031 -24.4629 Z M 29.1992 -67.0898 L 29.4434 -67.0898 L 44.8242 -26.709 L 13.8184 -26.709 Z"/></g><line id="Baseline-M" style="fill:none;stroke:#27AAE1;opacity:1;stroke-width:0.577;" x1="263" x2="3036" y1="1126" y2="1126"/><line id="Capline-M" style="fill:none;stroke:#27AAE1;opacity:1;stroke-width:0.577;" x1="263" x2="3036" y1="1055.54" y2="1055.54"/><g id="H-reference" style="fill:#27AAE1;stroke:none;" transform="matrix(1 0 0 1 339 1556)"><path d="M 54.9316 0 L 57.666 0 L 30.5664 -70.459 L 28.0762 -70.459 L 0.976562 0 L 3.66211 0 L 12.9395 -24.4629 L 45.7031 -24.4629 Z M 29.1992 -67.0898 L 29.4434 -67.0898 L 44.8242 -26.709 L 13.8184 -26.709 Z"/></g><line id="Baseline-L" style="fill:none;stroke:#27AAE1;opacity:1;stroke-width:0.577;" x1="263" x2="3036" y1="1556" y2="1556"/><line id="Capline-L" style="fill:none;stroke:#27AAE1;opacity:1;stroke-width:0.577;" x1="263" x2="3036" y1="1485.54" y2="1485.54"/><rect height="119.336" id="left-margin" style="fill:darkred;stroke:none;opacity:0.4;" width="12.4512" x="1394.06" y="1030.79"/><rect height="119.336" id="right-margin" style="fill:darkgreen;stroke:none;opacity:0.4;" width="12.4512" x="1502.5112" y="1030.79"/><rect x="1406.5112" y="1045" width="96" height="96" fill="none" stroke="blue" stroke-dasharray="5"/><rect x="1394.06" y="1030.79" width="120.9024" height="119.336" fill="none" stroke="blue"/></g><g id="Symbols"><g id="Bold-L" transform="matrix(1 0 0 1 2266 1556)"><path d="M72.24 -16.52499999999999 H82.8825 V-29.747500000000002 H96.105 V-40.39 H82.8825 V-53.77374999999999 H72.24 V-40.39 H58.85625 V-29.747500000000002 H72.24 V-16.52499999999999 Z M19.188750000000002 13.467500000000015 V-1.3674999999999926 H34.185 V-46.84 Q34.185 -61.67499999999999 42.811875 -73.52687499999999 Q51.43875 -85.37875 65.95125 -88.92625 V-92.79624999999999 Q65.95125 -97.63374999999999 69.25687500000001 -100.77812499999999 Q72.5625 -103.9225 77.4 -103.9225 Q82.07625 -103.9225 85.4625 -100.77812499999999 Q88.84875000000001 -97.63374999999999 88.84875000000001 -92.79624999999999 V-88.92625 Q103.52250000000001 -85.53999999999999 112.31062500000002 -73.688125 Q121.09875 -61.83624999999999 121.09875 -46.84 V-1.3674999999999926 H135.7725 V13.467500000000015 H19.188750000000002 Z M77.56125 32.817500000000024 Q71.9175 32.817500000000024 67.64437500000001 28.705625000000026 Q63.371249999999996 24.59375 63.371249999999996 18.78875000000002 H91.59 Q91.59 24.755000000000024 87.39750000000001 28.786250000000024 Q83.205 32.817500000000024 77.56125 32.817500000000024 Z M48.85875 -1.3674999999999926 H106.26375000000002 V-46.84 Q106.26375000000002 -58.772499999999994 97.87875000000001 -67.1575 Q89.49375 -75.54249999999999 77.56125 -75.54249999999999 Q65.62875000000001 -75.54249999999999 57.24375 -67.1575 Q48.85875 -58.772499999999994 48.85875 -46.84 V-1.3674999999999926 Z"/></g><g id="Semibold-L" transform="matrix(1 0 0 1 1970.27 1556)"><path d="M71.9175 -16.363749999999982 H83.04375 V-29.586249999999993 H96.26625000000001 V-40.71249999999999 H83.04375 V-53.934999999999995 H71.9175 V-40.71249999999999 H58.695 V-29.586249999999993 H71.9175 V-16.363749999999982 Z M21.446250000000003 12.01625 V-1.528749999999988 H35.7975 V-47.80749999999999 Q35.7975 -62.15874999999999 44.1825 -73.52687499999999 Q52.5675 -84.895 66.435 -88.4425 V-92.63499999999999 Q66.435 -97.14999999999999 69.66000000000001 -100.13312499999999 Q72.885 -103.11625 77.4 -103.11625 Q81.91499999999999 -103.11625 85.14 -100.13312499999999 Q88.365 -97.14999999999999 88.365 -92.63499999999999 V-88.4425 Q102.39375 -85.05624999999999 110.859375 -73.60749999999999 Q119.325 -62.15874999999999 119.325 -47.80749999999999 V-1.528749999999988 H133.515 V12.01625 H21.446250000000003 Z M77.4 32.172500000000014 Q71.9175 32.172500000000014 67.64437500000001 28.060625000000016 Q63.371249999999996 23.948750000000018 63.371249999999996 18.305000000000007 H91.42875000000001 Q91.42875000000001 24.110000000000014 87.316875 28.141250000000014 Q83.205 32.172500000000014 77.4 32.172500000000014 Z M49.3425 -1.528749999999988 H105.77999999999999 V-47.80749999999999 Q105.77999999999999 -59.57875 97.55625 -67.88312499999999 Q89.3325 -76.1875 77.56125 -76.1875 Q65.78999999999999 -76.1875 57.566250000000004 -67.88312499999999 Q49.3425 -59.57875 49.3425 -47.80749999999999 V-1.528749999999988 Z"/></g><g id="Medium-L" transform="matrix(1 0 0 1 1674.31 1556)"><path d="M71.75625000000001 -16.2025 H83.205 V-29.424999999999997 H96.4275 V-40.87374999999999 H83.205 V-54.09625 H71.75625000000001 V-40.87374999999999 H58.53375 V-29.424999999999997 H71.75625000000001 V-16.2025 Z M23.058750000000003 10.887500000000003 V-1.6899999999999977 H37.0875 V-48.613749999999996 Q37.0875 -62.64249999999999 45.230625 -73.60749999999999 Q53.37375 -84.57249999999999 66.91875 -87.95875 V-92.47375 Q66.91875 -96.82749999999999 69.9825 -99.64937499999999 Q73.04625 -102.47125 77.4 -102.47125 Q81.75375000000001 -102.47125 84.81750000000001 -99.64937499999999 Q87.88125000000001 -96.82749999999999 87.88125000000001 -92.47375 V-87.95875 Q101.42625 -84.73374999999999 109.730625 -73.688125 Q118.03500000000001 -62.64249999999999 118.03500000000001 -48.613749999999996 V-1.6899999999999977 H131.74125 V10.887500000000003 H23.058750000000003 Z M77.4 31.68875 Q71.75625000000001 31.68875 67.64437500000001 27.576875 Q63.5325 23.465000000000003 63.5325 17.82125000000002 H91.2675 Q91.2675 23.62625 87.23625 27.6575 Q83.205 31.68875 77.4 31.68875 Z M49.665 -1.6899999999999977 H105.45750000000001 V-48.613749999999996 Q105.45750000000001 -60.223749999999995 97.395 -68.44749999999999 Q89.3325 -76.67124999999999 77.56125 -76.67124999999999 Q65.78999999999999 -76.67124999999999 57.7275 -68.44749999999999 Q49.665 -60.223749999999995 49.665 -48.613749999999996 V-1.6899999999999977 Z"/></g><g id="Regular-L" transform="matrix(1 0 0 1 1378.56 1556)"><path d="M71.595 -16.2025 H83.36625000000001 V-29.263749999999987 H96.4275 V-41.035 H83.36625000000001 V-54.09625 H71.595 V-41.035 H58.53375 V-29.263749999999987 H71.595 V-16.2025 Z M24.34875 10.081249999999997 V-1.6899999999999977 H38.05500000000001 V-49.0975 Q38.05500000000001 -62.803749999999994 46.036875 -73.60749999999999 Q54.018750000000004 -84.41125 67.24125000000001 -87.63624999999999 V-92.3125 Q67.24125000000001 -96.505 70.224375 -99.24624999999999 Q73.2075 -101.9875 77.4 -101.9875 Q81.5925 -101.9875 84.575625 -99.24624999999999 Q87.55875 -96.505 87.55875 -92.3125 V-87.63624999999999 Q100.78125 -84.41125 108.924375 -73.60749999999999 Q117.0675 -62.803749999999994 117.0675 -49.0975 V-1.6899999999999977 H130.45125000000002 V10.081249999999997 H24.34875 Z M77.4 31.366250000000008 Q71.75625000000001 31.366250000000008 67.64437500000001 27.25437500000001 Q63.5325 23.142500000000013 63.5325 17.49875 H91.2675 Q91.2675 23.303750000000008 87.155625 27.335000000000008 Q83.04375 31.366250000000008 77.4 31.366250000000008 Z M49.82625 -1.6899999999999977 H105.29625 V-49.0975 Q105.29625 -60.70749999999999 97.23375 -68.850625 Q89.17125 -76.99374999999999 77.56125 -76.99374999999999 Q65.95125 -76.99374999999999 57.88875 -68.850625 Q49.82625 -60.70749999999999 49.82625 -49.0975 V-1.6899999999999977 Z"/></g><g id="Light-L" transform="matrix(1 0 0 1 1082.77 1556)"><path d="M72.72375000000001 -16.686249999999987 H82.2375 V-29.586249999999993 H95.1375 V-39.099999999999994 H82.2375 V-51.99999999999999 H72.72375000000001 V-39.099999999999994 H59.823750000000004 V-29.586249999999993 H72.72375000000001 V-16.686249999999987 Z M25.961250000000003 9.275000000000006 V-0.2387499999999818 H39.50625 V-48.129999999999995 Q39.50625 -61.513749999999995 47.56875 -71.995 Q55.63125 -82.47625 68.69250000000001 -85.37875 V-90.05499999999999 Q68.69250000000001 -93.76374999999999 71.191875 -96.10187499999999 Q73.69125000000001 -98.44 77.4 -98.44 Q81.10875 -98.44 83.608125 -96.10187499999999 Q86.1075 -93.76374999999999 86.1075 -90.05499999999999 V-85.37875 Q99.16875 -82.47625 107.3925 -71.995 Q115.61625000000001 -61.513749999999995 115.61625000000001 -48.129999999999995 V-0.2387499999999818 H128.83875 V9.275000000000006 H25.961250000000003 Z M77.4 30.076250000000016 Q72.40125 30.076250000000016 68.611875 26.448125000000005 Q64.8225 22.82000000000002 64.8225 17.49875 H89.97749999999999 Q89.97749999999999 22.82000000000002 86.349375 26.448125000000005 Q82.72125 30.076250000000016 77.4 30.076250000000016 Z M48.85875 -0.2387499999999818 H106.10249999999999 V-48.129999999999995 Q106.10249999999999 -60.06249999999999 97.798125 -68.44749999999999 Q89.49375 -76.8325 77.56125 -76.8325 Q65.4675 -76.8325 57.16312500000001 -68.44749999999999 Q48.85875 -60.06249999999999 48.85875 -48.129999999999995 V-0.2387499999999818 Z"/></g><g id="Thin-L" transform="matrix(1 0 0 1 787.282 1556)"><path d="M74.01375 -17.331249999999997 H80.9475 V-30.069999999999993 H93.68625 V-37.00375 H80.9475 V-49.903749999999995 H74.01375 V-37.00375 H61.275 V-30.069999999999993 H74.01375 V-17.331249999999997 Z M27.573750000000004 8.307500000000005 V1.2124999999999915 H40.957499999999996 V-47.162499999999994 Q40.957499999999996 -60.223749999999995 49.019999999999996 -70.301875 Q57.082499999999996 -80.38 70.14375 -83.12124999999999 V-87.7975 Q70.14375 -90.86125 72.159375 -92.79624999999999 Q74.175 -94.73124999999999 77.4 -94.73124999999999 Q80.625 -94.73124999999999 82.640625 -92.79624999999999 Q84.65625 -90.86125 84.65625 -87.7975 V-83.12124999999999 Q97.7175 -80.38 105.94125000000001 -70.301875 Q114.16499999999999 -60.223749999999995 114.16499999999999 -47.162499999999994 V1.2124999999999915 H127.22625000000001 V8.307500000000005 H27.573750000000004 Z M77.4 28.94749999999999 Q72.885 28.94749999999999 69.418125 25.641875 Q65.95125 22.336250000000007 65.95125 17.49875 H88.84875000000001 Q88.84875000000001 22.497500000000002 85.543125 25.722499999999997 Q82.2375 28.94749999999999 77.4 28.94749999999999 Z M47.89125 1.2124999999999915 H107.07000000000001 V-47.162499999999994 Q107.07000000000001 -59.4175 98.443125 -68.044375 Q89.81625000000001 -76.67124999999999 77.4 -76.67124999999999 Q65.145 -76.67124999999999 56.518125 -68.044375 Q47.89125 -59.4175 47.89125 -47.162499999999994 V1.2124999999999915 Z"/></g><g id="Ultralight-L" transform="matrix(1 0 0 1 491.205 1556)"><path d="M74.65875 -17.653749999999988 H80.3025 V-30.23124999999999 H92.88000000000001 V-35.874999999999986 H80.3025 V-48.613749999999996 H74.65875 V-35.874999999999986 H62.081250000000004 V-30.23124999999999 H74.65875 V-17.653749999999988 Z M28.541249999999998 7.823750000000018 V2.180000000000007 H41.76375 V-46.5175 Q41.76375 -59.4175 49.906875 -69.334375 Q58.050000000000004 -79.25125 70.95 -81.83125 V-86.34625 Q70.95 -89.24875 72.72375000000001 -90.941875 Q74.4975 -92.63499999999999 77.4 -92.63499999999999 Q80.3025 -92.63499999999999 82.07625 -90.941875 Q83.85000000000001 -89.24875 83.85000000000001 -86.34625 V-81.83125 Q96.75 -79.25125 104.97375 -69.334375 Q113.1975 -59.4175 113.1975 -46.5175 V2.180000000000007 H126.25874999999999 V7.823750000000018 H28.541249999999998 Z M77.4 28.141250000000014 Q73.04625 28.141250000000014 69.901875 25.077500000000015 Q66.7575 22.013750000000016 66.7575 17.49875 H88.0425 Q88.0425 22.17500000000001 84.97875 25.158125000000013 Q81.91499999999999 28.141250000000014 77.4 28.141250000000014 Z M47.4075 2.180000000000007 H107.55375000000001 V-46.5175 Q107.55375000000001 -59.09499999999999 98.765625 -67.8025 Q89.97749999999999 -76.50999999999999 77.4 -76.50999999999999 Q64.8225 -76.50999999999999 56.114999999999995 -67.8025 Q47.4075 -59.09499999999999 47.4075 -46.5175 V2.180000000000007 Z"/></g><g id="Bold-M" transform="matrix(1 0 0 1 2281.8 1126)"><path d="M53.625 -18.97999999999999 H66.375 V-28.35499999999999 H75.75 V-41.10499999999999 H66.375 V-50.47999999999999 H53.625 V-41.10499999999999 H44.25 V-28.35499999999999 H53.625 V-18.97999999999999 Z M12.0 3.5200000000000102 V-13.47999999999999 H23.375 V-42.72999999999999 Q23.375 -54.85499999999999 30.375 -64.60499999999999 Q37.375 -74.35499999999999 49.0 -77.47999999999999 V-80.22999999999999 Q49.0 -84.85499999999999 52.190000000000005 -88.04499999999999 Q55.375 -91.22999999999999 60.0 -91.22999999999999 Q64.625 -91.22999999999999 67.81 -88.04499999999999 Q71.0 -84.85499999999999 71.0 -80.22999999999999 V-77.47999999999999 Q82.75 -74.47999999999999 89.69 -64.66999999999999 Q96.625 -54.85499999999999 96.625 -42.72999999999999 V-13.47999999999999 H108.125 V3.5200000000000102 H12.0 Z M60.125 20.27000000000001 Q55.125 20.27000000000001 51.559999999999995 16.77000000000001 Q48.0 13.27000000000001 48.0 8.27000000000001 H72.125 Q72.125 13.27000000000001 68.625 16.77000000000001 Q65.125 20.27000000000001 60.125 20.27000000000001 Z M40.375 -13.47999999999999 H79.625 V-42.72999999999999 Q79.625 -50.85499999999999 73.875 -56.54499999999999 Q68.125 -62.22999999999999 60.0 -62.22999999999999 Q51.875 -62.22999999999999 46.125 -56.54499999999999 Q40.375 -50.85499999999999 40.375 -42.72999999999999 V-13.47999999999999 Z"/></g><g id="Semibold-M" transform="matrix(1 0 0 1 1985.97 1126)"><path d="M53.5 -18.97999999999999 H66.5 V-28.35499999999999 H75.75 V-41.22999999999999 H66.5 V-50.60499999999999 H53.5 V-41.22999999999999 H44.25 V-28.35499999999999 H53.5 V-18.97999999999999 Z M14.5 2.0200000000000102 V-13.35499999999999 H25.375 V-43.72999999999999 Q25.375 -55.22999999999999 32.06 -64.47999999999999 Q38.75 -73.72999999999999 49.75 -76.72999999999999 V-79.85499999999999 Q49.75 -84.10499999999999 52.75 -87.10499999999999 Q55.75 -90.10499999999999 60.0 -90.10499999999999 Q64.25 -90.10499999999999 67.25 -87.10499999999999 Q70.25 -84.10499999999999 70.25 -79.85499999999999 V-76.72999999999999 Q81.375 -73.85499999999999 88.0 -64.60499999999999 Q94.625 -55.35499999999999 94.625 -43.72999999999999 V-13.35499999999999 H105.625 V2.0200000000000102 H14.5 Z M60.125 19.27000000000001 Q55.125 19.27000000000001 51.69 15.830000000000013 Q48.25 12.39500000000001 48.25 7.52000000000001 H71.875 Q71.875 12.39500000000001 68.375 15.830000000000013 Q64.875 19.27000000000001 60.125 19.27000000000001 Z M40.75 -13.35499999999999 H79.25 V-43.72999999999999 Q79.25 -51.72999999999999 73.625 -57.35499999999999 Q68.0 -62.97999999999999 60.0 -62.97999999999999 Q52.0 -62.97999999999999 46.375 -57.35499999999999 Q40.75 -51.72999999999999 40.75 -43.72999999999999 V-13.35499999999999 Z"/></g><g id="Medium-M" transform="matrix(1 0 0 1 1689.91 1126)"><path d="M53.375 -18.97999999999999 H66.625 V-28.22999999999999 H75.875 V-41.35499999999999 H66.625 V-50.72999999999999 H53.375 V-41.35499999999999 H44.125 V-28.22999999999999 H53.375 V-18.97999999999999 Z M16.375 0.8950000000000102 V-13.22999999999999 H26.75 V-44.47999999999999 Q26.75 -55.60499999999999 33.25 -64.47999999999999 Q39.75 -73.35499999999999 50.375 -76.22999999999999 V-79.60499999999999 Q50.375 -83.60499999999999 53.19 -86.41999999999999 Q56.0 -89.22999999999999 60.0 -89.22999999999999 Q64.0 -89.22999999999999 66.815 -86.41999999999999 Q69.625 -83.60499999999999 69.625 -79.60499999999999 V-76.22999999999999 Q80.25 -73.35499999999999 86.75 -64.47999999999999 Q93.25 -55.60499999999999 93.25 -44.47999999999999 V-13.22999999999999 H103.625 V0.8950000000000102 H16.375 Z M60.0 18.52000000000001 Q55.25 18.52000000000001 51.815 15.14500000000001 Q48.375 11.77000000000001 48.375 6.89500000000001 H71.625 Q71.625 11.77000000000001 68.25 15.14500000000001 Q64.875 18.52000000000001 60.0 18.52000000000001 Z M41.0 -13.22999999999999 H79.0 V-44.47999999999999 Q79.0 -52.47999999999999 73.5 -58.04499999999999 Q68.0 -63.60499999999999 60.0 -63.60499999999999 Q52.0 -63.60499999999999 46.5 -58.04499999999999 Q41.0 -52.47999999999999 41.0 -44.47999999999999 V-13.22999999999999 Z"/></g><g id="Regular-M" transform="matrix(1 0 0 1 1394.06 1126)"><path d="M53.375 -18.97999999999999 H66.625 V-28.22999999999999 H75.875 V-41.47999999999999 H66.625 V-50.72999999999999 H53.375 V-41.47999999999999 H44.125 V-28.22999999999999 H53.375 V-18.97999999999999 Z M17.75 0.020000000000010232 V-13.22999999999999 H27.875 V-45.10499999999999 Q27.875 -55.85499999999999 34.19 -64.41999999999999 Q40.5 -72.97999999999999 50.75 -75.85499999999999 V-79.35499999999999 Q50.75 -83.22999999999999 53.440000000000005 -85.91999999999999 Q56.125 -88.60499999999999 60.0 -88.60499999999999 Q63.875 -88.60499999999999 66.56 -85.91999999999999 Q69.25 -83.22999999999999 69.25 -79.35499999999999 V-75.85499999999999 Q79.5 -72.97999999999999 85.815 -64.41999999999999 Q92.125 -55.85499999999999 92.125 -45.10499999999999 V-13.22999999999999 H102.25 V0.020000000000010232 H17.75 Z M60.0 18.02000000000001 Q55.25 18.02000000000001 51.875 14.64500000000001 Q48.5 11.27000000000001 48.5 6.52000000000001 H71.5 Q71.5 11.27000000000001 68.125 14.64500000000001 Q64.75 18.02000000000001 60.0 18.02000000000001 Z M41.125 -13.22999999999999 H78.875 V-45.10499999999999 Q78.875 -52.97999999999999 73.375 -58.47999999999999 Q67.875 -63.97999999999999 60.0 -63.97999999999999 Q52.125 -63.97999999999999 46.625 -58.47999999999999 Q41.125 -52.97999999999999 41.125 -45.10499999999999 V-13.22999999999999 Z"/></g><g id="Light-M" transform="matrix(1 0 0 1 1098.18 1126)"><path d="M54.625 -19.60499999999999 H65.375 V-28.85499999999999 H74.625 V-39.60499999999999 H65.375 V-48.85499999999999 H54.625 V-39.60499999999999 H45.375 V-28.85499999999999 H54.625 V-19.60499999999999 Z M19.0 -0.6049999999999898 V-11.35499999999999 H29.125 V-44.47999999999999 Q29.125 -55.10499999999999 35.5 -63.41999999999999 Q41.875 -71.72999999999999 52.0 -74.35499999999999 V-77.85499999999999 Q52.0 -81.22999999999999 54.315 -83.54499999999999 Q56.625 -85.85499999999999 60.0 -85.85499999999999 Q63.375 -85.85499999999999 65.69 -83.54499999999999 Q68.0 -81.22999999999999 68.0 -77.85499999999999 V-74.35499999999999 Q78.125 -71.72999999999999 84.5 -63.41999999999999 Q90.875 -55.10499999999999 90.875 -44.47999999999999 V-11.35499999999999 H101.0 V-0.6049999999999898 H19.0 Z M60.0 17.02000000000001 Q55.625 17.02000000000001 52.56 13.955000000000013 Q49.5 10.89500000000001 49.5 6.52000000000001 H70.5 Q70.5 10.89500000000001 67.44 13.955000000000013 Q64.375 17.02000000000001 60.0 17.02000000000001 Z M39.875 -11.35499999999999 H80.125 V-44.47999999999999 Q80.125 -52.97999999999999 74.315 -58.79499999999999 Q68.5 -64.60499999999999 60.0 -64.60499999999999 Q51.5 -64.60499999999999 45.69 -58.79499999999999 Q39.875 -52.97999999999999 39.875 -44.47999999999999 V-11.35499999999999 Z"/></g><g id="Thin-M" transform="matrix(1 0 0 1 802.565 1126)"><path d="M55.875 -20.35499999999999 H64.125 V-29.60499999999999 H73.375 V-37.85499999999999 H64.125 V-47.10499999999999 H55.875 V-37.85499999999999 H46.625 V-29.60499999999999 H55.875 V-20.35499999999999 Z M20.25 -1.3549999999999898 V-9.60499999999999 H30.375 V-43.97999999999999 Q30.375 -54.35499999999999 36.815000000000005 -62.41999999999999 Q43.25 -70.47999999999999 53.25 -72.72999999999999 V-76.22999999999999 Q53.25 -79.22999999999999 55.19 -81.10499999999999 Q57.125 -82.97999999999999 60.0 -82.97999999999999 Q62.875 -82.97999999999999 64.815 -81.10499999999999 Q66.75 -79.22999999999999 66.75 -76.22999999999999 V-72.72999999999999 Q76.75 -70.47999999999999 83.19000000000001 -62.41999999999999 Q89.625 -54.35499999999999 89.625 -43.97999999999999 V-9.60499999999999 H99.75 V-1.3549999999999898 H20.25 Z M60.0 16.14500000000001 Q56.125 16.14500000000001 53.25 13.39500000000001 Q50.375 10.64500000000001 50.375 6.52000000000001 H69.625 Q69.625 10.64500000000001 66.875 13.39500000000001 Q64.125 16.14500000000001 60.0 16.14500000000001 Z M38.625 -9.60499999999999 H81.375 V-43.97999999999999 Q81.375 -52.97999999999999 75.19 -59.16999999999999 Q69.0 -65.35499999999999 60.0 -65.35499999999999 Q51.0 -65.35499999999999 44.815 -59.16999999999999 Q38.625 -52.97999999999999 38.625 -43.97999999999999 V-9.60499999999999 Z"/></g><g id="Ultralight-M" transform="matrix(1 0 0 1 506.415 1126)"><path d="M56.625 -20.72999999999999 H63.375 V-29.97999999999999 H72.625 V-36.72999999999999 H63.375 V-45.97999999999999 H56.625 V-36.72999999999999 H47.375 V-29.97999999999999 H56.625 V-20.72999999999999 Z M21.0 -1.7299999999999898 V-8.47999999999999 H31.125 V-43.60499999999999 Q31.125 -53.85499999999999 37.565 -61.79499999999999 Q44.0 -69.72999999999999 54.0 -71.85499999999999 V-75.35499999999999 Q54.0 -77.97999999999999 55.69 -79.66999999999999 Q57.375 -81.35499999999999 60.0 -81.35499999999999 Q62.625 -81.35499999999999 64.315 -79.66999999999999 Q66.0 -77.97999999999999 66.0 -75.35499999999999 V-71.85499999999999 Q76.0 -69.72999999999999 82.44 -61.79499999999999 Q88.875 -53.85499999999999 88.875 -43.60499999999999 V-8.47999999999999 H99.0 V-1.7299999999999898 H21.0 Z M60.0 15.52000000000001 Q56.375 15.52000000000001 53.69 12.955000000000013 Q51.0 10.39500000000001 51.0 6.52000000000001 H69.0 Q69.0 10.39500000000001 66.44 12.955000000000013 Q63.875 15.52000000000001 60.0 15.52000000000001 Z M37.875 -8.47999999999999 H82.125 V-43.60499999999999 Q82.125 -52.97999999999999 75.75 -59.35499999999999 Q69.375 -65.72999999999999 60.0 -65.72999999999999 Q50.625 -65.72999999999999 44.25 -59.35499999999999 Q37.875 -52.97999999999999 37.875 -43.60499999999999 V-8.47999999999999 Z"/></g><g id="Bold-S" transform="matrix(1 0 0 1 2294.23 696)"><path d="M42.705414000000005 -22.410327999999993 H51.974585999999995 V-30.202492 H59.76675 V-39.471664 H51.974585999999995 V-47.26382799999999 H42.705414000000005 V-39.471664 H34.91325 V-30.202492 H42.705414000000005 V-22.410327999999993 Z M12.625577999999999 -6.234249999999989 V-18.859827999999993 H18.443664 V-37.98992199999999 Q18.443664 -47.855577999999994 24.309089999999998 -55.74242199999999 Q30.17925 -63.63399999999999 39.846078 -65.707492 V-70.34207799999999 Q39.846078 -73.49492199999999 42.01425 -75.66782799999999 Q44.182422 -77.836 47.34 -77.836 Q50.497578 -77.836 52.66575 -75.66782799999999 Q54.833922 -73.49492199999999 54.833922 -70.34207799999999 V-65.707492 Q64.600164 -63.733413999999996 70.41825 -55.841835999999994 Q76.236336 -47.95499199999999 76.236336 -37.98992199999999 V-18.859827999999993 H82.153836 V-6.234249999999989 H12.625577999999999 Z M47.439414000000006 6.98307800000002 Q43.7895 6.98307800000002 41.223672 4.41725000000001 Q38.662577999999996 1.8514219999999995 38.662577999999996 -1.699078 H56.116836 Q56.116836 1.9508360000000096 53.551007999999996 4.464590000000015 Q50.989914000000006 6.98307800000002 47.439414000000006 6.98307800000002 Z M31.064508 -18.859827999999993 H63.615492 V-37.98992199999999 Q63.615492 -44.797413999999996 58.881492 -49.47933999999999 Q54.147492 -54.166 47.34 -54.166 Q40.532508 -54.166 35.798508 -49.47933999999999 Q31.064508 -44.797413999999996 31.064508 -37.98992199999999 V-18.859827999999993 Z"/></g><g id="Semibold-S" transform="matrix(1 0 0 1 1998.1 696)"><path d="M42.606 -22.410327999999993 H52.074 V-30.202492 H59.76675 V-39.57107799999999 H52.074 V-47.35850799999999 H42.606 V-39.57107799999999 H34.91325 V-30.202492 H42.606 V-22.410327999999993 Z M14.594922 -7.417749999999998 V-18.760413999999997 H20.020086 V-38.780499999999996 Q20.020086 -48.149086 25.644078 -55.643007999999995 Q31.263336 -63.14166399999999 40.437827999999996 -65.111008 V-70.043836 Q40.437827999999996 -72.903172 42.459246 -74.92459 Q44.480664000000004 -76.94600799999999 47.34 -76.94600799999999 Q50.199335999999995 -76.94600799999999 52.220754 -74.92459 Q54.242172000000004 -72.903172 54.242172000000004 -70.043836 V-65.111008 Q63.516078 -63.24107799999999 69.087996 -55.794495999999995 Q74.659914 -48.347913999999996 74.659914 -38.780499999999996 V-18.760413999999997 H80.18449199999999 V-7.417749999999998 H14.594922 Z M47.34 6.19250000000001 Q43.7895 6.19250000000001 41.323085999999996 3.678746000000018 Q38.856672 1.164991999999998 38.856672 -2.2908280000000047 H55.918008 Q55.918008 1.2596719999999948 53.404254 3.7260860000000093 Q50.8905 6.19250000000001 47.34 6.19250000000001 Z M31.36275 -18.760413999999997 H63.31725 V-38.780499999999996 Q63.31725 -45.48857799999999 58.682664 -50.123163999999996 Q54.048078 -54.757749999999994 47.34 -54.757749999999994 Q40.631922 -54.757749999999994 35.997336 -50.123163999999996 Q31.36275 -45.48857799999999 31.36275 -38.780499999999996 V-18.760413999999997 Z"/></g><g id="Medium-S" transform="matrix(1 0 0 1 1701.85 696)"><path d="M42.506586 -22.410327999999993 H52.173414 V-30.10307799999999 H59.866164000000005 V-39.670491999999996 H52.173414 V-47.457921999999996 H42.506586 V-39.670491999999996 H34.813836 V-30.10307799999999 H42.506586 V-22.410327999999993 Z M16.076664 -8.303007999999991 V-18.660999999999994 H21.104172000000002 V-39.372249999999994 Q21.104172000000002 -48.44732799999999 26.58141 -55.643007999999995 Q32.053914 -62.84342199999999 40.930164000000005 -64.718086 V-69.84500799999999 Q40.930164000000005 -72.51025 42.804828 -74.384914 Q44.679492 -76.25957799999999 47.34 -76.25957799999999 Q50.000507999999996 -76.25957799999999 51.875172 -74.384914 Q53.749835999999995 -72.51025 53.749835999999995 -69.84500799999999 V-64.718086 Q62.626085999999994 -62.84342199999999 68.09859 -55.695082 Q73.575828 -48.542007999999996 73.575828 -39.372249999999994 V-18.660999999999994 H78.603336 V-8.303007999999991 H16.076664 Z M47.34 5.600750000000005 Q43.88891400000001 5.600750000000005 41.4225 3.1343360000000047 Q38.956086 0.6679220000000043 38.956086 -2.7831639999999993 H55.723914 Q55.723914 0.7673360000000002 53.2575 3.186409999999995 Q50.79108599999999 5.600750000000005 47.34 5.600750000000005 Z M31.561578 -18.660999999999994 H63.118422 V-39.372249999999994 Q63.118422 -46.080327999999994 58.58325 -50.66283999999999 Q54.048078 -55.250085999999996 47.34 -55.250085999999996 Q40.631922 -55.250085999999996 36.09675 -50.66283999999999 Q31.561578 -46.080327999999994 31.561578 -39.372249999999994 V-18.660999999999994 Z"/></g><g id="Regular-S" transform="matrix(1 0 0 1 1405.73 696)"><path d="M42.506586 -22.410327999999993 H52.173414 V-30.10307799999999 H59.866164000000005 V-39.76517199999999 H52.173414 V-47.457921999999996 H42.506586 V-39.76517199999999 H34.813836 V-30.10307799999999 H42.506586 V-22.410327999999993 Z M17.16075 -8.994171999999992 V-18.660999999999994 H21.994163999999998 V-39.86458599999999 Q21.994163999999998 -48.64142199999999 27.319914 -55.59566799999999 Q32.645664 -62.549913999999994 41.223672 -64.424578 V-69.650914 Q41.223672 -72.212008 42.998922 -73.991992 Q44.774172 -75.762508 47.34 -75.762508 Q49.905828 -75.762508 51.681078 -73.991992 Q53.456328 -72.212008 53.456328 -69.650914 V-64.424578 Q62.034335999999996 -62.549913999999994 67.360086 -55.643007999999995 Q72.685836 -48.740835999999994 72.685836 -39.86458599999999 V-18.660999999999994 H77.51925 V-8.994171999999992 H17.16075 Z M47.34 5.2078280000000206 Q43.88891400000001 5.2078280000000206 41.46984 2.7887539999999973 Q39.0555 0.3744140000000158 39.0555 -3.076671999999988 H55.6245 Q55.6245 0.3744140000000158 53.21016 2.7887539999999973 Q50.79108599999999 5.2078280000000206 47.34 5.2078280000000206 Z M31.660992 -18.660999999999994 H63.019008 V-39.86458599999999 Q63.019008 -46.47324999999999 58.483836 -51.008421999999996 Q53.948664 -55.54832799999999 47.34 -55.54832799999999 Q40.731336 -55.54832799999999 36.196163999999996 -51.008421999999996 Q31.660992 -46.47324999999999 31.660992 -39.86458599999999 V-18.660999999999994 Z"/></g><g id="Light-S" transform="matrix(1 0 0 1 1109.75 696)"><path d="M43.495992 -22.902663999999994 H51.184008 V-30.595413999999998 H58.881492 V-38.288163999999995 H51.184008 V-45.98091399999999 H43.495992 V-38.288163999999995 H35.798508 V-30.595413999999998 H43.495992 V-22.902663999999994 Z M18.145422 -9.486507999999986 V-17.18399199999999 H22.978836 V-39.372249999999994 Q22.978836 -48.049671999999994 28.35666 -54.80508999999999 Q33.72975 -61.560508 42.213077999999996 -63.24107799999999 V-68.46741399999999 Q42.213077999999996 -70.63558599999999 43.690085999999994 -72.11732799999999 Q45.171828 -73.594336 47.34 -73.594336 Q49.508172 -73.594336 50.989914000000006 -72.11732799999999 Q52.466922000000004 -70.63558599999999 52.466922000000004 -68.46741399999999 V-63.24107799999999 Q60.95025 -61.560508 66.32334 -54.857164 Q71.701164 -48.149086 71.701164 -39.372249999999994 V-17.18399199999999 H76.53457800000001 V-9.486507999999986 H18.145422 Z M47.34 4.41725000000001 Q44.182422 4.41725000000001 42.01425 2.2490780000000115 Q39.846078 0.07617199999999968 39.846078 -3.076671999999988 H54.833922 Q54.833922 0.07617199999999968 52.66575 2.2490780000000115 Q50.497578 4.41725000000001 47.34 4.41725000000001 Z M30.671586 -17.18399199999999 H64.008414 V-39.372249999999994 Q64.008414 -46.47324999999999 59.222339999999996 -51.25458999999999 Q54.441 -56.04066399999999 47.34 -56.04066399999999 Q40.239 -56.04066399999999 35.457660000000004 -51.25458999999999 Q30.671586 -46.47324999999999 30.671586 -39.372249999999994 V-17.18399199999999 Z"/></g><g id="Thin-S" transform="matrix(1 0 0 1 814.015 696)"><path d="M44.480664000000004 -23.494414 H50.199335999999995 V-31.187163999999996 H57.892086 V-36.90583599999999 H50.199335999999995 V-44.59858599999999 H44.480664000000004 V-36.90583599999999 H36.787914 V-31.187163999999996 H44.480664000000004 V-23.494414 Z M19.134828 -10.08299199999999 V-15.801664000000002 H23.963508 V-38.979327999999995 Q23.963508 -47.35850799999999 29.388672 -53.96717199999999 Q34.813836 -60.575835999999995 43.19775 -61.958164 V-67.18449999999999 Q43.19775 -69.059164 44.38125 -70.19058999999999 Q45.56475 -71.32674999999999 47.34 -71.32674999999999 Q49.11525 -71.32674999999999 50.29875 -70.19058999999999 Q51.48225 -69.059164 51.48225 -67.18449999999999 V-61.958164 Q59.866164000000005 -60.575835999999995 65.291328 -54.066585999999994 Q70.716492 -47.55733599999999 70.716492 -38.979327999999995 V-15.801664000000002 H75.545172 V-10.08299199999999 H19.134828 Z M47.34 3.7260860000000093 Q44.580078 3.7260860000000093 42.55866 1.7520080000000178 Q40.532508 -0.21733599999998887 40.532508 -3.076671999999988 H54.147492 Q54.147492 -0.11792199999999298 52.173414 1.8040820000000082 Q50.199335999999995 3.7260860000000093 47.34 3.7260860000000093 Z M29.686913999999998 -15.801664000000002 H64.99308599999999 V-38.979327999999995 Q64.99308599999999 -46.47324999999999 59.913504 -51.552831999999995 Q54.833922 -56.632414 47.34 -56.632414 Q39.846078 -56.632414 34.766496000000004 -51.552831999999995 Q29.686913999999998 -46.47324999999999 29.686913999999998 -38.979327999999995 V-15.801664000000002 Z"/></g><g id="Ultralight-S" transform="matrix(1 0 0 1 517.792 696)"><path d="M45.072414 -23.787921999999995 H49.607586 V-31.48067199999999 H57.300335999999994 V-36.02057799999999 H49.607586 V-43.71332799999999 H45.072414 V-36.02057799999999 H37.379664 V-31.48067199999999 H45.072414 V-23.787921999999995 Z M19.726578 -10.376499999999993 V-14.911671999999996 H24.559991999999998 V-38.681085999999986 Q24.559991999999998 -47.06499999999999 29.980422 -53.526909999999994 Q35.405586 -59.98408599999999 43.7895 -61.266999999999996 V-66.493336 Q43.7895 -68.07449199999999 44.774172 -69.059164 Q45.763578 -70.043836 47.34 -70.043836 Q48.916422 -70.043836 49.905828 -69.059164 Q50.8905 -68.07449199999999 50.8905 -66.493336 V-61.266999999999996 Q59.274414 -59.98408599999999 64.699578 -53.57424999999999 Q70.120008 -47.164413999999994 70.120008 -38.681085999999986 V-14.911671999999996 H74.953422 V-10.376499999999993 H19.726578 Z M47.34 3.2337500000000006 Q44.774172 3.2337500000000006 42.899508 1.4585000000000008 Q41.029578 -0.316749999999999 41.029578 -3.076671999999988 H53.650422 Q53.650422 -0.316749999999999 51.875172 1.4585000000000008 Q50.099922 3.2337500000000006 47.34 3.2337500000000006 Z M29.095164 -14.911671999999996 H65.584836 V-38.681085999999986 Q65.584836 -46.47324999999999 60.3585 -51.699586 Q55.132164 -56.92592199999999 47.34 -56.92592199999999 Q39.547836 -56.92592199999999 34.3215 -51.699586 Q29.095164 -46.47324999999999 29.095164 -38.681085999999986 V-14.911671999999996 Z"/></g></g></svg>