<svg xmlns="http://www.w3.org/2000/svg" version="1.1" width="3300" height="2000"><g id="Notes"><style>
    text {
      font-family: monospace;
      text-anchor: middle;
    }
    text.emphasis {
      font-weight:bold;
    }
    text.lanchor {
      text-anchor: start;
    }
  </style><rect height="2200" id="artboard" fill="white" width="3300" x="0" y="0"/><line id="" style="fill:none;stroke:black;stroke-width:0.5;" x1="263" x2="3036" y1="292" y2="292"/><text class="lanchor emphasis" transform="matrix(1 0 0 1 263 322)">Weight/Scale Variations</text><text transform="matrix(1 0 0 1 559.711 322)">Ultralight</text><text transform="matrix(1 0 0 1 856.422 322)">Thin</text><text transform="matrix(1 0 0 1 1153.13 322)">Light</text><text transform="matrix(1 0 0 1 1449.84 322)">Regular</text><text transform="matrix(1 0 0 1 1746.56 322)">Medium</text><text transform="matrix(1 0 0 1 2043.27 322)">Semibold</text><text transform="matrix(1 0 0 1 2339.98 322)">Bold</text><text transform="matrix(1 0 0 1 2636.69 322)">Heavy</text><text transform="matrix(1 0 0 1 2933.4 322)">Black</text><text id="template-version" style="text-anchor: end;" transform="matrix(1 0 0 1 3036 1933)">Template v.1.0</text><text class="lanchor" transform="matrix(1 0 0 1 263 726)">Small</text><text class="lanchor" transform="matrix(1 0 0 1 263 1156)">Medium</text><text class="lanchor" transform="matrix(1 0 0 1 263 1586)">Large</text></g><g id="Guides"><g id="H-reference" style="fill:#27AAE1;stroke:none;" transform="matrix(1 0 0 1 339 696)"><path d="M 54.9316 0 L 57.666 0 L 30.5664 -70.459 L 28.0762 -70.459 L 0.976562 0 L 3.66211 0 L 12.9395 -24.4629 L 45.7031 -24.4629 Z M 29.1992 -67.0898 L 29.4434 -67.0898 L 44.8242 -26.709 L 13.8184 -26.709 Z"/></g><line id="Baseline-S" style="fill:none;stroke:#27AAE1;opacity:1;stroke-width:0.577;" x1="263" x2="3036" y1="696" y2="696"/><line id="Capline-S" style="fill:none;stroke:#27AAE1;opacity:1;stroke-width:0.577;" x1="263" x2="3036" y1="625.541" y2="625.541"/><g id="H-reference" style="fill:#27AAE1;stroke:none;" transform="matrix(1 0 0 1 339 1126)"><path d="M 54.9316 0 L 57.666 0 L 30.5664 -70.459 L 28.0762 -70.459 L 0.976562 0 L 3.66211 0 L 12.9395 -24.4629 L 45.7031 -24.4629 Z M 29.1992 -67.0898 L 29.4434 -67.0898 L 44.8242 -26.709 L 13.8184 -26.709 Z"/></g><line id="Baseline-M" style="fill:none;stroke:#27AAE1;opacity:1;stroke-width:0.577;" x1="263" x2="3036" y1="1126" y2="1126"/><line id="Capline-M" style="fill:none;stroke:#27AAE1;opacity:1;stroke-width:0.577;" x1="263" x2="3036" y1="1055.54" y2="1055.54"/><g id="H-reference" style="fill:#27AAE1;stroke:none;" transform="matrix(1 0 0 1 339 1556)"><path d="M 54.9316 0 L 57.666 0 L 30.5664 -70.459 L 28.0762 -70.459 L 0.976562 0 L 3.66211 0 L 12.9395 -24.4629 L 45.7031 -24.4629 Z M 29.1992 -67.0898 L 29.4434 -67.0898 L 44.8242 -26.709 L 13.8184 -26.709 Z"/></g><line id="Baseline-L" style="fill:none;stroke:#27AAE1;opacity:1;stroke-width:0.577;" x1="263" x2="3036" y1="1556" y2="1556"/><line id="Capline-L" style="fill:none;stroke:#27AAE1;opacity:1;stroke-width:0.577;" x1="263" x2="3036" y1="1485.54" y2="1485.54"/><rect height="119.336" id="left-margin" style="fill:darkred;stroke:none;opacity:0.4;" width="12.4512" x="1394.06" y="1030.79"/><rect height="119.336" id="right-margin" style="fill:darkgreen;stroke:none;opacity:0.4;" width="12.4512" x="1502.5112" y="1030.79"/><rect x="1406.5112" y="1045" width="96" height="96" fill="none" stroke="blue" stroke-dasharray="5"/><rect x="1394.06" y="1030.79" width="120.9024" height="119.336" fill="none" stroke="blue"/></g><g id="Symbols"><g id="Bold-L" transform="matrix(1 0 0 1 2266 1556)"><path d="M10.481250000000001 26.20625000000001 V-96.98875 H133.515 V-73.92999999999999 H144.48 V-62.964999999999996 H133.515 V-40.71249999999999 H144.48 V-29.586249999999993 H133.515 V-7.49499999999999 H144.48 V3.470000000000013 H133.515 V26.20625000000001 H10.481250000000001 Z M25.31625 11.532500000000013 H118.67999999999999 V-82.15375 H25.31625 V11.532500000000013 Z M33.05625 3.470000000000013 H73.85249999999999 V-28.779999999999987 H33.05625 V3.470000000000013 Z M78.69 -50.709999999999994 H110.45625 V-73.92999999999999 H78.69 V-50.709999999999994 Z M33.05625 -33.61749999999999 H73.85249999999999 V-73.92999999999999 H33.05625 V-33.61749999999999 Z M78.69 3.470000000000013 H110.45625 V-45.8725 H78.69 V3.470000000000013 Z"/></g><g id="Semibold-L" transform="matrix(1 0 0 1 1970.27 1556)"><path d="M10.6425 25.722499999999997 V-96.505 H133.03125 V-73.92999999999999 H144.31875 V-62.64249999999999 H133.03125 V-40.87374999999999 H144.31875 V-29.586249999999993 H133.03125 V-7.8174999999999955 H144.31875 V3.470000000000013 H133.03125 V25.722499999999997 H10.6425 Z M24.1875 12.338750000000005 H119.48625 V-83.12124999999999 H24.1875 V12.338750000000005 Z M33.05625 3.470000000000013 H73.85249999999999 V-28.779999999999987 H33.05625 V3.470000000000013 Z M78.69 -50.709999999999994 H110.45625 V-73.92999999999999 H78.69 V-50.709999999999994 Z M33.05625 -33.61749999999999 H73.85249999999999 V-73.92999999999999 H33.05625 V-33.61749999999999 Z M78.69 3.470000000000013 H110.45625 V-45.8725 H78.69 V3.470000000000013 Z"/></g><g id="Medium-L" transform="matrix(1 0 0 1 1674.31 1556)"><path d="M10.80375 25.400000000000006 V-96.1825 H132.5475 V-73.92999999999999 H144.15750000000003 V-62.31999999999999 H132.5475 V-41.035 H144.15750000000003 V-29.424999999999997 H132.5475 V-8.14 H144.15750000000003 V3.470000000000013 H132.5475 V25.400000000000006 H10.80375 Z M23.38125 12.983750000000015 H119.97000000000001 V-83.76625 H23.38125 V12.983750000000015 Z M33.05625 3.470000000000013 H73.85249999999999 V-28.779999999999987 H33.05625 V3.470000000000013 Z M78.69 -50.709999999999994 H110.45625 V-73.92999999999999 H78.69 V-50.709999999999994 Z M33.05625 -33.61749999999999 H73.85249999999999 V-73.92999999999999 H33.05625 V-33.61749999999999 Z M78.69 3.470000000000013 H110.45625 V-45.8725 H78.69 V3.470000000000013 Z"/></g><g id="Regular-L" transform="matrix(1 0 0 1 1378.56 1556)"><path d="M10.965 25.23875000000001 V-96.02125 H132.225 V-73.92999999999999 H143.99625 V-62.15874999999999 H132.225 V-41.19624999999999 H143.99625 V-29.424999999999997 H132.225 V-8.301249999999982 H143.99625 V3.470000000000013 H132.225 V25.23875000000001 H10.965 Z M22.73625 13.467500000000015 H120.45375000000001 V-84.25 H22.73625 V13.467500000000015 Z M33.05625 3.470000000000013 H73.85249999999999 V-28.779999999999987 H33.05625 V3.470000000000013 Z M78.69 -50.709999999999994 H110.45625 V-73.92999999999999 H78.69 V-50.709999999999994 Z M33.05625 -33.61749999999999 H73.85249999999999 V-73.92999999999999 H33.05625 V-33.61749999999999 Z M78.69 3.470000000000013 H110.45625 V-45.8725 H78.69 V3.470000000000013 Z"/></g><g id="Light-L" transform="matrix(1 0 0 1 1082.77 1556)"><path d="M14.512500000000001 22.013750000000016 V-92.79624999999999 H129.32250000000002 V-69.73749999999998 H140.44875 V-60.223749999999995 H129.32250000000002 V-40.067499999999995 H140.44875 V-30.553749999999994 H129.32250000000002 V-10.236249999999998 H140.44875 V-0.7224999999999824 H129.32250000000002 V22.013750000000016 H14.512500000000001 Z M23.865000000000002 12.66125000000001 H119.97000000000001 V-83.44375 H23.865000000000002 V12.66125000000001 Z M37.57125 -0.7224999999999824 H73.04625 V-28.13499999999999 H37.57125 V-0.7224999999999824 Z M79.49625 -50.709999999999994 H106.58624999999999 V-69.73749999999998 H79.49625 V-50.709999999999994 Z M37.57125 -34.74625 H73.04625 V-69.73749999999998 H37.57125 V-34.74625 Z M79.49625 -0.7224999999999824 H106.58624999999999 V-44.098749999999995 H79.49625 V-0.7224999999999824 Z"/></g><g id="Thin-L" transform="matrix(1 0 0 1 787.282 1556)"><path d="M18.06 18.78875000000002 V-89.57124999999999 H126.42000000000002 V-65.54499999999999 H136.90125 V-58.44999999999999 H126.42000000000002 V-38.7775 H136.90125 V-31.843749999999986 H126.42000000000002 V-12.009999999999991 H136.90125 V-4.914999999999992 H126.42000000000002 V18.78875000000002 H18.06 Z M25.155 11.693749999999994 H119.325 V-82.47625 H25.155 V11.693749999999994 Z M42.08625000000001 -4.914999999999992 H72.07875000000001 V-27.489999999999995 H42.08625000000001 V-4.914999999999992 Z M80.3025 -50.54874999999999 H102.71625 V-65.54499999999999 H80.3025 V-50.54874999999999 Z M42.08625000000001 -35.71374999999999 H72.07875000000001 V-65.54499999999999 H42.08625000000001 V-35.71374999999999 Z M80.3025 -4.914999999999992 H102.71625 V-42.32499999999999 H80.3025 V-4.914999999999992 Z"/></g><g id="Ultralight-L" transform="matrix(1 0 0 1 491.205 1556)"><path d="M20.15625 16.85374999999999 V-87.63624999999999 H124.64625 V-62.964999999999996 H134.805 V-57.32125 H124.64625 V-38.13249999999999 H134.805 V-32.48874999999998 H124.64625 V-13.138749999999987 H134.805 V-7.49499999999999 H124.64625 V16.85374999999999 H20.15625 Z M25.8 11.210000000000008 H119.0025 V-81.99249999999999 H25.8 V11.210000000000008 Z M44.8275 -7.49499999999999 H71.595 V-27.16749999999999 H44.8275 V-7.49499999999999 Z M80.78625000000001 -50.54874999999999 H100.29750000000001 V-62.964999999999996 H80.78625000000001 V-50.54874999999999 Z M44.8275 -36.35875 H71.595 V-62.964999999999996 H44.8275 V-36.35875 Z M80.78625000000001 -7.49499999999999 H100.29750000000001 V-41.35749999999999 H80.78625000000001 V-7.49499999999999 Z"/></g><g id="Bold-M" transform="matrix(1 0 0 1 2281.8 1126)"><path d="M2.75 15.52000000000001 V-86.10499999999999 H104.125 V-60.22999999999999 H117.25 V-47.10499999999999 H104.125 V-41.85499999999999 H117.25 V-28.60499999999999 H104.125 V-23.35499999999999 H117.25 V-10.22999999999999 H104.125 V15.52000000000001 H2.75 Z M19.75 -1.4799999999999898 H87.125 V-69.10499999999999 H19.75 V-1.4799999999999898 Z M28.5 -10.22999999999999 H53.5 V-30.22999999999999 H28.5 V-10.22999999999999 Z M58.5 -45.22999999999999 H78.5 V-60.22999999999999 H58.5 V-45.22999999999999 Z M28.5 -35.22999999999999 H53.5 V-60.22999999999999 H28.5 V-35.22999999999999 Z M58.5 -10.22999999999999 H78.5 V-40.22999999999999 H58.5 V-10.22999999999999 Z"/></g><g id="Semibold-M" transform="matrix(1 0 0 1 1985.97 1126)"><path d="M3.5 14.64500000000001 V-85.35499999999999 H103.375 V-60.22999999999999 H116.5 V-47.10499999999999 H103.375 V-41.85499999999999 H116.5 V-28.60499999999999 H103.375 V-23.35499999999999 H116.5 V-10.22999999999999 H103.375 V14.64500000000001 H3.5 Z M18.875 -0.6049999999999898 H88.0 V-69.97999999999999 H18.875 V-0.6049999999999898 Z M28.625 -10.22999999999999 H53.625 V-30.22999999999999 H28.625 V-10.22999999999999 Z M58.625 -45.22999999999999 H78.625 V-60.22999999999999 H58.625 V-45.22999999999999 Z M28.625 -35.22999999999999 H53.625 V-60.22999999999999 H28.625 V-35.22999999999999 Z M58.625 -10.22999999999999 H78.625 V-40.22999999999999 H58.625 V-10.22999999999999 Z"/></g><g id="Medium-M" transform="matrix(1 0 0 1 1689.91 1126)"><path d="M4.0 14.14500000000001 V-84.72999999999999 H102.75 V-60.22999999999999 H116.0 V-46.97999999999999 H102.75 V-41.97999999999999 H116.0 V-28.72999999999999 H102.75 V-23.47999999999999 H116.0 V-10.22999999999999 H102.75 V14.14500000000001 H4.0 Z M18.125 -0.10499999999998977 H88.625 V-70.60499999999999 H18.125 V-0.10499999999998977 Z M28.75 -10.22999999999999 H53.75 V-30.22999999999999 H28.75 V-10.22999999999999 Z M58.75 -45.22999999999999 H78.75 V-60.22999999999999 H58.75 V-45.22999999999999 Z M28.75 -35.22999999999999 H53.75 V-60.22999999999999 H28.75 V-35.22999999999999 Z M58.75 -10.22999999999999 H78.75 V-40.22999999999999 H58.75 V-10.22999999999999 Z"/></g><g id="Regular-M" transform="matrix(1 0 0 1 1394.06 1126)"><path d="M4.375 13.64500000000001 V-84.35499999999999 H102.375 V-60.22999999999999 H115.625 V-46.97999999999999 H102.375 V-41.97999999999999 H115.625 V-28.72999999999999 H102.375 V-23.47999999999999 H115.625 V-10.22999999999999 H102.375 V13.64500000000001 H4.375 Z M17.625 0.39500000000001023 H89.125 V-71.10499999999999 H17.625 V0.39500000000001023 Z M28.75 -10.22999999999999 H53.75 V-30.22999999999999 H28.75 V-10.22999999999999 Z M58.75 -45.22999999999999 H78.75 V-60.22999999999999 H58.75 V-45.22999999999999 Z M28.75 -35.22999999999999 H53.75 V-60.22999999999999 H28.75 V-35.22999999999999 Z M58.75 -10.22999999999999 H78.75 V-40.22999999999999 H58.75 V-10.22999999999999 Z"/></g><g id="Light-M" transform="matrix(1 0 0 1 1098.18 1126)"><path d="M7.5 11.14500000000001 V-81.85499999999999 H100.5 V-58.35499999999999 H112.5 V-47.60499999999999 H100.5 V-40.72999999999999 H112.5 V-29.97999999999999 H100.5 V-22.85499999999999 H112.5 V-12.10499999999999 H100.5 V11.14500000000001 H7.5 Z M18.25 0.39500000000001023 H89.75 V-71.10499999999999 H18.25 V0.39500000000001023 Z M31.25 -12.10499999999999 H53.875 V-29.72999999999999 H31.25 V-12.10499999999999 Z M59.75 -45.72999999999999 H77.375 V-58.35499999999999 H59.75 V-45.72999999999999 Z M31.25 -35.72999999999999 H53.875 V-58.35499999999999 H31.25 V-35.72999999999999 Z M59.75 -12.10499999999999 H77.375 V-39.72999999999999 H59.75 V-12.10499999999999 Z"/></g><g id="Thin-M" transform="matrix(1 0 0 1 802.565 1126)"><path d="M10.5 8.64500000000001 V-79.35499999999999 H98.5 V-56.35499999999999 H109.5 V-48.10499999999999 H98.5 V-39.47999999999999 H109.5 V-31.22999999999999 H98.5 V-22.35499999999999 H109.5 V-14.10499999999999 H98.5 V8.64500000000001 H10.5 Z M18.75 0.39500000000001023 H90.25 V-71.10499999999999 H18.75 V0.39500000000001023 Z M33.75 -14.10499999999999 H54.0 V-29.22999999999999 H33.75 V-14.10499999999999 Z M60.875 -46.22999999999999 H76.0 V-56.35499999999999 H60.875 V-46.22999999999999 Z M33.75 -36.22999999999999 H54.0 V-56.35499999999999 H33.75 V-36.22999999999999 Z M60.875 -14.10499999999999 H76.0 V-39.22999999999999 H60.875 V-14.10499999999999 Z"/></g><g id="Ultralight-M" transform="matrix(1 0 0 1 506.415 1126)"><path d="M12.375 7.14500000000001 V-77.85499999999999 H97.375 V-55.22999999999999 H107.625 V-48.47999999999999 H97.375 V-38.72999999999999 H107.625 V-31.97999999999999 H97.375 V-21.97999999999999 H107.625 V-15.22999999999999 H97.375 V7.14500000000001 H12.375 Z M19.125 0.39500000000001023 H90.625 V-71.10499999999999 H19.125 V0.39500000000001023 Z M35.25 -15.22999999999999 H54.0 V-28.97999999999999 H35.25 V-15.22999999999999 Z M61.5 -46.47999999999999 H75.25 V-55.22999999999999 H61.5 V-46.47999999999999 Z M35.25 -36.47999999999999 H54.0 V-55.22999999999999 H35.25 V-36.47999999999999 Z M61.5 -15.22999999999999 H75.25 V-38.97999999999999 H61.5 V-15.22999999999999 Z"/></g><g id="Bold-S" transform="matrix(1 0 0 1 2294.23 696)"><path d="M1.974078 4.810171999999994 V-75.369586 H81.955008 V-54.166 H92.70592199999999 V-43.41508599999999 H81.955008 V-40.655164 H92.70592199999999 V-29.804835999999987 H81.955008 V-27.044914 H92.70592199999999 V-16.293999999999997 H81.955008 V4.810171999999994 H1.974078 Z M15.778422 -8.994171999999992 H68.150664 V-61.560508 H15.778422 V-8.994171999999992 Z M23.07825 -16.293999999999997 H41.815422 V-31.385991999999995 H23.07825 V-16.293999999999997 Z M45.957672 -42.82333599999999 H60.95025 V-54.166 H45.957672 V-42.82333599999999 Z M23.07825 -35.52350799999999 H41.815422 V-54.166 H23.07825 V-35.52350799999999 Z M45.957672 -16.293999999999997 H60.95025 V-38.681085999999986 H45.957672 V-16.293999999999997 Z"/></g><g id="Semibold-S" transform="matrix(1 0 0 1 1998.1 696)"><path d="M2.565828 4.119008000000008 V-74.777836 H81.367992 V-54.166 H92.114172 V-43.41508599999999 H81.367992 V-40.655164 H92.114172 V-29.804835999999987 H81.367992 V-27.044914 H92.114172 V-16.293999999999997 H81.367992 V4.119008000000008 H2.565828 Z M15.091992000000001 -8.303007999999991 H68.84182799999999 V-62.251672 H15.091992000000001 V-8.303007999999991 Z M23.177664 -16.293999999999997 H41.914835999999994 V-31.385991999999995 H23.177664 V-16.293999999999997 Z M46.057086 -42.82333599999999 H61.04966400000001 V-54.166 H46.057086 V-42.82333599999999 Z M23.177664 -35.52350799999999 H41.914835999999994 V-54.166 H23.177664 V-35.52350799999999 Z M46.057086 -16.293999999999997 H61.04966400000001 V-38.681085999999986 H46.057086 V-16.293999999999997 Z"/></g><g id="Medium-S" transform="matrix(1 0 0 1 1701.85 696)"><path d="M2.95875 3.7260860000000093 V-74.2855 H80.870922 V-54.166 H91.72125 V-43.31567199999999 H80.870922 V-40.754577999999995 H91.72125 V-29.90424999999999 H80.870922 V-27.144327999999994 H91.72125 V-16.293999999999997 H80.870922 V3.7260860000000093 H2.95875 Z M14.495508 -7.910085999999993 H69.334164 V-62.744007999999994 H14.495508 V-7.910085999999993 Z M23.277078 -16.293999999999997 H42.01425 V-31.385991999999995 H23.277078 V-16.293999999999997 Z M46.1565 -42.82333599999999 H61.149077999999996 V-54.166 H46.1565 V-42.82333599999999 Z M23.277078 -35.52350799999999 H42.01425 V-54.166 H23.277078 V-35.52350799999999 Z M46.1565 -16.293999999999997 H61.149077999999996 V-38.681085999999986 H46.1565 V-16.293999999999997 Z"/></g><g id="Regular-S" transform="matrix(1 0 0 1 1405.73 696)"><path d="M3.256992 3.3331640000000107 V-73.991992 H80.577414 V-54.166 H91.42300800000001 V-43.31567199999999 H80.577414 V-40.754577999999995 H91.42300800000001 V-29.90424999999999 H80.577414 V-27.144327999999994 H91.42300800000001 V-16.293999999999997 H80.577414 V3.3331640000000107 H3.256992 Z M14.102586 -7.517163999999994 H69.727086 V-63.14166399999999 H14.102586 V-7.517163999999994 Z M23.277078 -16.293999999999997 H42.01425 V-31.385991999999995 H23.277078 V-16.293999999999997 Z M46.1565 -42.82333599999999 H61.149077999999996 V-54.166 H46.1565 V-42.82333599999999 Z M23.277078 -35.52350799999999 H42.01425 V-54.166 H23.277078 V-35.52350799999999 Z M46.1565 -16.293999999999997 H61.149077999999996 V-38.681085999999986 H46.1565 V-16.293999999999997 Z"/></g><g id="Light-S" transform="matrix(1 0 0 1 1109.75 696)"><path d="M5.718672 1.359086000000005 V-72.01791399999999 H79.095672 V-52.68899199999999 H88.96132800000001 V-43.808007999999994 H79.095672 V-39.76517199999999 H88.96132800000001 V-30.888921999999994 H79.095672 V-26.651991999999993 H88.96132800000001 V-17.771007999999995 H79.095672 V1.359086000000005 H5.718672 Z M14.594922 -7.517163999999994 H70.219422 V-63.14166399999999 H14.594922 V-7.517163999999994 Z M25.246422 -17.771007999999995 H42.11366400000001 V-30.98833599999999 H25.246422 V-17.771007999999995 Z M46.947078 -43.220991999999995 H60.064992000000004 V-52.68899199999999 H46.947078 V-43.220991999999995 Z M25.246422 -35.921164 H42.11366400000001 V-52.68899199999999 H25.246422 V-35.921164 Z M46.947078 -17.771007999999995 H60.064992000000004 V-38.288163999999995 H46.947078 V-17.771007999999995 Z"/></g><g id="Thin-S" transform="matrix(1 0 0 1 814.015 696)"><path d="M8.085672 -0.6149919999999867 V-70.043836 H77.51925 V-51.10783599999999 H86.594328 V-44.205664 H77.51925 V-38.780499999999996 H86.594328 V-31.87832799999999 H77.51925 V-26.254335999999988 H86.594328 V-19.352163999999995 H77.51925 V-0.6149919999999867 H8.085672 Z M14.992578 -7.517163999999994 H70.61707799999999 V-63.14166399999999 H14.992578 V-7.517163999999994 Z M27.2205 -19.352163999999995 H42.213077999999996 V-30.595413999999998 H27.2205 V-19.352163999999995 Z M47.832336 -43.613913999999994 H58.976172 V-51.10783599999999 H47.832336 V-43.613913999999994 Z M27.2205 -36.31408599999999 H42.213077999999996 V-51.10783599999999 H27.2205 V-36.31408599999999 Z M47.832336 -19.352163999999995 H58.976172 V-37.89050799999999 H47.832336 V-19.352163999999995 Z"/></g><g id="Ultralight-S" transform="matrix(1 0 0 1 517.792 696)"><path d="M9.567414 -1.7984919999999818 V-68.86033599999999 H76.63399199999999 V-50.22257799999999 H85.112586 V-44.499171999999994 H76.63399199999999 V-38.18874999999999 H85.112586 V-32.470077999999994 H76.63399199999999 V-25.960827999999992 H85.112586 V-20.237421999999995 H76.63399199999999 V-1.7984919999999818 H9.567414 Z M15.286086000000001 -7.517163999999994 H70.910586 V-63.14166399999999 H15.286086000000001 V-7.517163999999994 Z M28.404 -20.237421999999995 H42.213077999999996 V-30.396585999999992 H28.404 V-20.237421999999995 Z M48.324672 -43.808007999999994 H58.384422 V-50.22257799999999 H48.324672 V-43.808007999999994 Z M28.404 -36.512913999999995 H42.213077999999996 V-50.22257799999999 H28.404 V-36.512913999999995 Z M48.324672 -20.237421999999995 H58.384422 V-37.696414 H48.324672 V-20.237421999999995 Z"/></g></g></svg>