<svg xmlns="http://www.w3.org/2000/svg" version="1.1" width="3300" height="2000"><g id="Notes"><style>
    text {
      font-family: monospace;
      text-anchor: middle;
    }
    text.emphasis {
      font-weight:bold;
    }
    text.lanchor {
      text-anchor: start;
    }
  </style><rect height="2200" id="artboard" fill="white" width="3300" x="0" y="0"/><line id="" style="fill:none;stroke:black;stroke-width:0.5;" x1="263" x2="3036" y1="292" y2="292"/><text class="lanchor emphasis" transform="matrix(1 0 0 1 263 322)">Weight/Scale Variations</text><text transform="matrix(1 0 0 1 559.711 322)">Ultralight</text><text transform="matrix(1 0 0 1 856.422 322)">Thin</text><text transform="matrix(1 0 0 1 1153.13 322)">Light</text><text transform="matrix(1 0 0 1 1449.84 322)">Regular</text><text transform="matrix(1 0 0 1 1746.56 322)">Medium</text><text transform="matrix(1 0 0 1 2043.27 322)">Semibold</text><text transform="matrix(1 0 0 1 2339.98 322)">Bold</text><text transform="matrix(1 0 0 1 2636.69 322)">Heavy</text><text transform="matrix(1 0 0 1 2933.4 322)">Black</text><text id="template-version" style="text-anchor: end;" transform="matrix(1 0 0 1 3036 1933)">Template v.1.0</text><text class="lanchor" transform="matrix(1 0 0 1 263 726)">Small</text><text class="lanchor" transform="matrix(1 0 0 1 263 1156)">Medium</text><text class="lanchor" transform="matrix(1 0 0 1 263 1586)">Large</text></g><g id="Guides"><g id="H-reference" style="fill:#27AAE1;stroke:none;" transform="matrix(1 0 0 1 339 696)"><path d="M 54.9316 0 L 57.666 0 L 30.5664 -70.459 L 28.0762 -70.459 L 0.976562 0 L 3.66211 0 L 12.9395 -24.4629 L 45.7031 -24.4629 Z M 29.1992 -67.0898 L 29.4434 -67.0898 L 44.8242 -26.709 L 13.8184 -26.709 Z"/></g><line id="Baseline-S" style="fill:none;stroke:#27AAE1;opacity:1;stroke-width:0.577;" x1="263" x2="3036" y1="696" y2="696"/><line id="Capline-S" style="fill:none;stroke:#27AAE1;opacity:1;stroke-width:0.577;" x1="263" x2="3036" y1="625.541" y2="625.541"/><g id="H-reference" style="fill:#27AAE1;stroke:none;" transform="matrix(1 0 0 1 339 1126)"><path d="M 54.9316 0 L 57.666 0 L 30.5664 -70.459 L 28.0762 -70.459 L 0.976562 0 L 3.66211 0 L 12.9395 -24.4629 L 45.7031 -24.4629 Z M 29.1992 -67.0898 L 29.4434 -67.0898 L 44.8242 -26.709 L 13.8184 -26.709 Z"/></g><line id="Baseline-M" style="fill:none;stroke:#27AAE1;opacity:1;stroke-width:0.577;" x1="263" x2="3036" y1="1126" y2="1126"/><line id="Capline-M" style="fill:none;stroke:#27AAE1;opacity:1;stroke-width:0.577;" x1="263" x2="3036" y1="1055.54" y2="1055.54"/><g id="H-reference" style="fill:#27AAE1;stroke:none;" transform="matrix(1 0 0 1 339 1556)"><path d="M 54.9316 0 L 57.666 0 L 30.5664 -70.459 L 28.0762 -70.459 L 0.976562 0 L 3.66211 0 L 12.9395 -24.4629 L 45.7031 -24.4629 Z M 29.1992 -67.0898 L 29.4434 -67.0898 L 44.8242 -26.709 L 13.8184 -26.709 Z"/></g><line id="Baseline-L" style="fill:none;stroke:#27AAE1;opacity:1;stroke-width:0.577;" x1="263" x2="3036" y1="1556" y2="1556"/><line id="Capline-L" style="fill:none;stroke:#27AAE1;opacity:1;stroke-width:0.577;" x1="263" x2="3036" y1="1485.54" y2="1485.54"/><rect height="119.336" id="left-margin" style="fill:darkred;stroke:none;opacity:0.4;" width="12.4512" x="1394.06" y="1030.79"/><rect height="119.336" id="right-margin" style="fill:darkgreen;stroke:none;opacity:0.4;" width="12.4512" x="1502.5112" y="1030.79"/><rect x="1406.5112" y="1045" width="96" height="96" fill="none" stroke="blue" stroke-dasharray="5"/><rect x="1394.06" y="1030.79" width="120.9024" height="119.336" fill="none" stroke="blue"/></g><g id="Symbols"><g id="Bold-L" transform="matrix(1 0 0 1 2266 1556)"><path d="M24.34875 19.917500000000018 Q18.3825 19.917500000000018 14.028749999999999 15.483125000000001 Q9.675 11.048750000000013 9.675 5.243750000000006 V-75.70375 Q9.675 -81.50874999999999 14.028749999999999 -86.02374999999999 Q18.3825 -90.53875 24.34875 -90.53875 H105.135 Q111.2625 -90.53875 115.61625000000001 -86.02374999999999 Q119.97000000000001 -81.50874999999999 119.97000000000001 -75.70375 V-42.16374999999999 L145.28625 -67.47999999999999 V-2.9799999999999898 L119.97000000000001 -28.29625 V5.243750000000006 Q119.97000000000001 11.048750000000013 115.61625000000001 15.483125000000001 Q111.2625 19.917500000000018 105.135 19.917500000000018 H24.34875 Z M24.34875 5.243750000000006 H105.135 Q105.135 5.243750000000006 105.135 5.243750000000006 Q105.135 5.243750000000006 105.135 5.243750000000006 V-75.70375 Q105.135 -75.70375 105.135 -75.70375 Q105.135 -75.70375 105.135 -75.70375 H24.34875 Q24.34875 -75.70375 24.34875 -75.70375 Q24.34875 -75.70375 24.34875 -75.70375 V5.243750000000006 Q24.34875 5.243750000000006 24.34875 5.243750000000006 Q24.34875 5.243750000000006 24.34875 5.243750000000006 Z"/></g><g id="Semibold-L" transform="matrix(1 0 0 1 1970.27 1556)"><path d="M22.8975 19.433750000000003 Q17.57625 19.433750000000003 13.545000000000002 15.321875000000006 Q9.513750000000002 11.210000000000008 9.513750000000002 6.049999999999997 V-76.50999999999999 Q9.513750000000002 -81.83125 13.545000000000002 -85.943125 Q17.57625 -90.05499999999999 22.8975 -90.05499999999999 H105.29625 Q110.77875 -90.05499999999999 114.81 -85.943125 Q118.84125 -81.83125 118.84125 -76.50999999999999 V-42.969999999999985 L145.28625 -69.41499999999999 V-1.0449999999999875 L118.84125 -27.489999999999995 V6.049999999999997 Q118.84125 11.210000000000008 114.81 15.321875000000006 Q110.77875 19.433750000000003 105.29625 19.433750000000003 H22.8975 Z M22.8975 6.049999999999997 H105.29625 Q105.29625 6.049999999999997 105.29625 6.049999999999997 Q105.29625 6.049999999999997 105.29625 6.049999999999997 V-76.50999999999999 Q105.29625 -76.50999999999999 105.29625 -76.50999999999999 Q105.29625 -76.50999999999999 105.29625 -76.50999999999999 H22.8975 Q22.8975 -76.50999999999999 22.8975 -76.50999999999999 Q22.8975 -76.50999999999999 22.8975 -76.50999999999999 V6.049999999999997 Q22.8975 6.049999999999997 22.8975 6.049999999999997 Q22.8975 6.049999999999997 22.8975 6.049999999999997 Z"/></g><g id="Medium-L" transform="matrix(1 0 0 1 1674.31 1556)"><path d="M21.93 19.111250000000013 Q16.931250000000002 19.111250000000013 13.141875 15.321875000000006 Q9.3525 11.532500000000013 9.3525 6.533750000000012 V-76.99374999999999 Q9.3525 -81.99249999999999 13.141875 -85.781875 Q16.931250000000002 -89.57124999999999 21.93 -89.57124999999999 H105.45750000000001 Q110.45625 -89.57124999999999 114.24562499999999 -85.781875 Q118.03500000000001 -81.99249999999999 118.03500000000001 -76.99374999999999 V-43.45375 L145.44750000000002 -70.86625 V0.40625 L118.03500000000001 -27.006249999999994 V6.533750000000012 Q118.03500000000001 11.532500000000013 114.24562499999999 15.321875000000006 Q110.45625 19.111250000000013 105.45750000000001 19.111250000000013 H21.93 Z M21.93 6.533750000000012 H105.45750000000001 Q105.45750000000001 6.533750000000012 105.45750000000001 6.533750000000012 Q105.45750000000001 6.533750000000012 105.45750000000001 6.533750000000012 V-76.99374999999999 Q105.45750000000001 -76.99374999999999 105.45750000000001 -76.99374999999999 Q105.45750000000001 -76.99374999999999 105.45750000000001 -76.99374999999999 H21.93 Q21.93 -76.99374999999999 21.93 -76.99374999999999 Q21.93 -76.99374999999999 21.93 -76.99374999999999 V6.533750000000012 Q21.93 6.533750000000012 21.93 6.533750000000012 Q21.93 6.533750000000012 21.93 6.533750000000012 Z"/></g><g id="Regular-L" transform="matrix(1 0 0 1 1378.56 1556)"><path d="M21.12375 18.78875000000002 Q16.447499999999998 18.78875000000002 12.9 15.241250000000008 Q9.3525 11.693749999999994 9.3525 7.0175000000000125 V-77.47749999999999 Q9.3525 -82.15375 12.9 -85.70124999999999 Q16.447499999999998 -89.24875 21.12375 -89.24875 H105.61875 Q110.29500000000002 -89.24875 113.84249999999999 -85.70124999999999 Q117.39 -82.15375 117.39 -77.47749999999999 V-43.937499999999986 L145.44750000000002 -71.995 V1.5349999999999966 L117.39 -26.522499999999994 V7.0175000000000125 Q117.39 11.693749999999994 113.84249999999999 15.241250000000008 Q110.29500000000002 18.78875000000002 105.61875 18.78875000000002 H21.12375 Z M21.12375 7.0175000000000125 H105.61875 Q105.61875 7.0175000000000125 105.61875 7.0175000000000125 Q105.61875 7.0175000000000125 105.61875 7.0175000000000125 V-77.47749999999999 Q105.61875 -77.47749999999999 105.61875 -77.47749999999999 Q105.61875 -77.47749999999999 105.61875 -77.47749999999999 H21.12375 Q21.12375 -77.47749999999999 21.12375 -77.47749999999999 Q21.12375 -77.47749999999999 21.12375 -77.47749999999999 V7.0175000000000125 Q21.12375 7.0175000000000125 21.12375 7.0175000000000125 Q21.12375 7.0175000000000125 21.12375 7.0175000000000125 Z"/></g><g id="Light-L" transform="matrix(1 0 0 1 1082.77 1556)"><path d="M25.477500000000003 15.563749999999999 Q20.962500000000002 15.563749999999999 17.57625 12.177500000000023 Q14.190000000000001 8.791250000000005 14.190000000000001 4.115000000000023 V-74.57499999999999 Q14.190000000000001 -79.25125 17.57625 -82.63749999999999 Q20.962500000000002 -86.02374999999999 25.477500000000003 -86.02374999999999 H104.32875000000001 Q108.84375 -86.02374999999999 112.31062500000002 -82.63749999999999 Q115.7775 -79.25125 115.7775 -74.57499999999999 V-42.16374999999999 L140.61 -67.1575 V-3.4637499999999903 L115.7775 -28.457499999999982 V4.115000000000023 Q115.7775 8.791250000000005 112.31062500000002 12.177500000000023 Q108.84375 15.563749999999999 104.32875000000001 15.563749999999999 H25.477500000000003 Z M25.477500000000003 6.211250000000007 H104.32875000000001 Q105.135 6.211250000000007 105.699375 5.646874999999994 Q106.26375000000002 5.08250000000001 106.26375000000002 4.115000000000023 V-74.57499999999999 Q106.26375000000002 -75.54249999999999 105.699375 -76.106875 Q105.135 -76.67124999999999 104.32875000000001 -76.67124999999999 H25.477500000000003 Q24.67125 -76.67124999999999 24.106875 -76.106875 Q23.5425 -75.54249999999999 23.5425 -74.57499999999999 V4.115000000000023 Q23.5425 5.08250000000001 24.106875 5.646874999999994 Q24.67125 6.211250000000007 25.477500000000003 6.211250000000007 Z"/></g><g id="Thin-L" transform="matrix(1 0 0 1 787.282 1556)"><path d="M29.992500000000003 12.338750000000005 Q25.477500000000003 12.338750000000005 22.171875 9.033125000000013 Q18.86625 5.7275000000000205 18.86625 1.3737500000000153 V-71.83375 Q18.86625 -76.1875 22.171875 -79.49312499999999 Q25.477500000000003 -82.79875 29.992500000000003 -82.79875 H103.03875000000001 Q107.55375000000001 -82.79875 110.77875 -79.49312499999999 Q114.00375000000001 -76.1875 114.00375000000001 -71.83375 V-40.39 L135.93375 -62.15874999999999 V-8.462500000000006 L114.00375000000001 -30.23124999999999 V1.3737500000000153 Q114.00375000000001 5.7275000000000205 110.77875 9.033125000000013 Q107.55375000000001 12.338750000000005 103.03875000000001 12.338750000000005 H29.992500000000003 Z M29.992500000000003 5.243750000000006 H103.03875000000001 Q104.8125 5.243750000000006 105.86062500000001 4.115000000000023 Q106.90875 2.9862500000000125 106.90875 1.3737500000000153 V-71.83375 Q106.90875 -73.44624999999999 105.86062500000001 -74.57499999999999 Q104.8125 -75.70375 103.03875000000001 -75.70375 H29.992500000000003 Q28.21875 -75.70375 27.090000000000003 -74.57499999999999 Q25.961250000000003 -73.44624999999999 25.961250000000003 -71.83375 V1.3737500000000153 Q25.961250000000003 2.9862500000000125 27.090000000000003 4.115000000000023 Q28.21875 5.243750000000006 29.992500000000003 5.243750000000006 Z"/></g><g id="Ultralight-L" transform="matrix(1 0 0 1 491.205 1556)"><path d="M32.5725 10.403750000000002 Q28.21875 10.403750000000002 24.993750000000002 7.178750000000008 Q21.76875 3.9537499999999994 21.76875 -0.4000000000000057 V-70.06 Q21.76875 -74.57499999999999 24.993750000000002 -77.719375 Q28.21875 -80.86375 32.5725 -80.86375 H102.2325 Q106.7475 -80.86375 109.89187500000001 -77.719375 Q113.03625 -74.57499999999999 113.03625 -70.06 V-39.26124999999999 L133.03125 -59.256249999999994 V-11.364999999999995 L113.03625 -31.36 V-0.4000000000000057 Q113.03625 3.9537499999999994 109.89187500000001 7.178750000000008 Q106.7475 10.403750000000002 102.2325 10.403750000000002 H32.5725 Z M32.5725 4.760000000000005 H102.2325 Q104.49 4.760000000000005 105.94125000000001 3.3087500000000176 Q107.3925 1.8575000000000017 107.3925 -0.4000000000000057 V-70.06 Q107.3925 -72.3175 105.94125000000001 -73.76874999999998 Q104.49 -75.22 102.2325 -75.22 H32.5725 Q30.315 -75.22 28.86375 -73.76874999999998 Q27.4125 -72.3175 27.4125 -70.06 V-0.4000000000000057 Q27.4125 1.8575000000000017 28.86375 3.3087500000000176 Q30.315 4.760000000000005 32.5725 4.760000000000005 Z"/></g><g id="Bold-M" transform="matrix(1 0 0 1 2281.8 1126)"><path d="M20.625 10.52000000000001 Q13.5 10.52000000000001 8.565000000000001 5.52000000000001 Q3.625 0.5200000000000102 3.625 -6.47999999999999 V-63.97999999999999 Q3.625 -70.97999999999999 8.565000000000001 -75.97999999999999 Q13.5 -80.97999999999999 20.625 -80.97999999999999 H78.0 Q85.125 -80.97999999999999 90.06500000000001 -75.97999999999999 Q95.0 -70.97999999999999 95.0 -63.97999999999999 V-43.60499999999999 L116.375 -64.97999999999999 V-5.47999999999999 L95.0 -26.85499999999999 V-6.47999999999999 Q95.0 0.5200000000000102 90.06500000000001 5.52000000000001 Q85.125 10.52000000000001 78.0 10.52000000000001 H20.625 Z M20.625 -6.47999999999999 H78.0 Q78.0 -6.47999999999999 78.0 -6.47999999999999 Q78.0 -6.47999999999999 78.0 -6.47999999999999 V-63.97999999999999 Q78.0 -63.97999999999999 78.0 -63.97999999999999 Q78.0 -63.97999999999999 78.0 -63.97999999999999 H20.625 Q20.625 -63.97999999999999 20.625 -63.97999999999999 Q20.625 -63.97999999999999 20.625 -63.97999999999999 V-6.47999999999999 Q20.625 -6.47999999999999 20.625 -6.47999999999999 Q20.625 -6.47999999999999 20.625 -6.47999999999999 Z"/></g><g id="Semibold-M" transform="matrix(1 0 0 1 1985.97 1126)"><path d="M19.375 9.64500000000001 Q13.0 9.64500000000001 8.5 5.14500000000001 Q4.0 0.6450000000000102 4.0 -5.72999999999999 V-64.72999999999999 Q4.0 -71.10499999999999 8.5 -75.60499999999999 Q13.0 -80.10499999999999 19.375 -80.10499999999999 H78.375 Q84.75 -80.10499999999999 89.25 -75.60499999999999 Q93.75 -71.10499999999999 93.75 -64.72999999999999 V-44.22999999999999 L116.0 -66.47999999999999 V-3.9799999999999898 L93.75 -26.22999999999999 V-5.72999999999999 Q93.75 0.6450000000000102 89.25 5.14500000000001 Q84.75 9.64500000000001 78.375 9.64500000000001 H19.375 Z M19.375 -5.72999999999999 H78.375 Q78.375 -5.72999999999999 78.375 -5.72999999999999 Q78.375 -5.72999999999999 78.375 -5.72999999999999 V-64.72999999999999 Q78.375 -64.72999999999999 78.375 -64.72999999999999 Q78.375 -64.72999999999999 78.375 -64.72999999999999 H19.375 Q19.375 -64.72999999999999 19.375 -64.72999999999999 Q19.375 -64.72999999999999 19.375 -64.72999999999999 V-5.72999999999999 Q19.375 -5.72999999999999 19.375 -5.72999999999999 Q19.375 -5.72999999999999 19.375 -5.72999999999999 Z"/></g><g id="Medium-M" transform="matrix(1 0 0 1 1689.91 1126)"><path d="M18.5 9.02000000000001 Q12.625 9.02000000000001 8.44 4.835000000000022 Q4.25 0.6450000000000102 4.25 -5.10499999999999 V-65.35499999999999 Q4.25 -71.10499999999999 8.44 -75.29499999999999 Q12.625 -79.47999999999999 18.5 -79.47999999999999 H78.625 Q84.375 -79.47999999999999 88.56 -75.29499999999999 Q92.75 -71.10499999999999 92.75 -65.35499999999999 V-44.60499999999999 L115.75 -67.60499999999999 V-2.8549999999999898 L92.75 -25.85499999999999 V-5.10499999999999 Q92.75 0.6450000000000102 88.56 4.835000000000022 Q84.375 9.02000000000001 78.625 9.02000000000001 H18.5 Z M18.5 -5.10499999999999 H78.625 Q78.625 -5.10499999999999 78.625 -5.10499999999999 Q78.625 -5.10499999999999 78.625 -5.10499999999999 V-65.35499999999999 Q78.625 -65.35499999999999 78.625 -65.35499999999999 Q78.625 -65.35499999999999 78.625 -65.35499999999999 H18.5 Q18.5 -65.35499999999999 18.5 -65.35499999999999 Q18.5 -65.35499999999999 18.5 -65.35499999999999 V-5.10499999999999 Q18.5 -5.10499999999999 18.5 -5.10499999999999 Q18.5 -5.10499999999999 18.5 -5.10499999999999 Z"/></g><g id="Regular-M" transform="matrix(1 0 0 1 1394.06 1126)"><path d="M17.75 8.52000000000001 Q12.25 8.52000000000001 8.375 4.64500000000001 Q4.5 0.7700000000000102 4.5 -4.72999999999999 V-65.72999999999999 Q4.5 -71.22999999999999 8.375 -75.10499999999999 Q12.25 -78.97999999999999 17.75 -78.97999999999999 H78.75 Q84.25 -78.97999999999999 88.125 -75.10499999999999 Q92.0 -71.22999999999999 92.0 -65.72999999999999 V-44.97999999999999 L115.5 -68.47999999999999 V-1.9799999999999898 L92.0 -25.47999999999999 V-4.72999999999999 Q92.0 0.7700000000000102 88.125 4.64500000000001 Q84.25 8.52000000000001 78.75 8.52000000000001 H17.75 Z M17.75 -4.72999999999999 H78.75 Q78.75 -4.72999999999999 78.75 -4.72999999999999 Q78.75 -4.72999999999999 78.75 -4.72999999999999 V-65.72999999999999 Q78.75 -65.72999999999999 78.75 -65.72999999999999 Q78.75 -65.72999999999999 78.75 -65.72999999999999 H17.75 Q17.75 -65.72999999999999 17.75 -65.72999999999999 Q17.75 -65.72999999999999 17.75 -65.72999999999999 V-4.72999999999999 Q17.75 -4.72999999999999 17.75 -4.72999999999999 Q17.75 -4.72999999999999 17.75 -4.72999999999999 Z"/></g><g id="Light-M" transform="matrix(1 0 0 1 1098.18 1126)"><path d="M20.5 6.02000000000001 Q15.375 6.02000000000001 11.815 2.460000000000008 Q8.25 -1.1049999999999898 8.25 -6.22999999999999 V-64.22999999999999 Q8.25 -69.35499999999999 11.815 -72.91499999999999 Q15.375 -76.47999999999999 20.5 -76.47999999999999 H78.375 Q83.5 -76.47999999999999 87.125 -72.91499999999999 Q90.75 -69.35499999999999 90.75 -64.22999999999999 V-43.10499999999999 L111.75 -64.10499999999999 V-6.35499999999999 L90.75 -27.35499999999999 V-6.22999999999999 Q90.75 -1.1049999999999898 87.125 2.460000000000008 Q83.5 6.02000000000001 78.375 6.02000000000001 H20.5 Z M20.5 -4.72999999999999 H78.375 Q79.125 -4.72999999999999 79.565 -5.164999999999978 Q80.0 -5.60499999999999 80.0 -6.22999999999999 V-64.22999999999999 Q80.0 -64.85499999999999 79.565 -65.29499999999999 Q79.125 -65.72999999999999 78.375 -65.72999999999999 H20.5 Q19.875 -65.72999999999999 19.439999999999998 -65.29499999999999 Q19.0 -64.85499999999999 19.0 -64.22999999999999 V-6.22999999999999 Q19.0 -5.60499999999999 19.439999999999998 -5.164999999999978 Q19.875 -4.72999999999999 20.5 -4.72999999999999 Z"/></g><g id="Thin-M" transform="matrix(1 0 0 1 802.565 1126)"><path d="M23.25 3.5200000000000102 Q18.5 3.5200000000000102 15.19 0.27000000000001023 Q11.875 -2.9799999999999898 11.875 -7.85499999999999 V-62.60499999999999 Q11.875 -67.47999999999999 15.19 -70.72999999999999 Q18.5 -73.97999999999999 23.25 -73.97999999999999 H78.125 Q82.875 -73.97999999999999 86.125 -70.72999999999999 Q89.375 -67.47999999999999 89.375 -62.60499999999999 V-41.10499999999999 L108.125 -59.85499999999999 V-10.60499999999999 L89.375 -29.35499999999999 V-7.85499999999999 Q89.375 -2.9799999999999898 86.125 0.27000000000001023 Q82.875 3.5200000000000102 78.125 3.5200000000000102 H23.25 Z M23.25 -4.72999999999999 H78.125 Q79.375 -4.72999999999999 80.25 -5.60499999999999 Q81.125 -6.47999999999999 81.125 -7.85499999999999 V-62.60499999999999 Q81.125 -63.97999999999999 80.25 -64.85499999999999 Q79.375 -65.72999999999999 78.125 -65.72999999999999 H23.25 Q21.875 -65.72999999999999 21.0 -64.85499999999999 Q20.125 -63.97999999999999 20.125 -62.60499999999999 V-7.85499999999999 Q20.125 -6.47999999999999 21.0 -5.60499999999999 Q21.875 -4.72999999999999 23.25 -4.72999999999999 Z"/></g><g id="Ultralight-M" transform="matrix(1 0 0 1 506.415 1126)"><path d="M24.875 2.0200000000000102 Q20.25 2.0200000000000102 17.19 -1.0449999999999875 Q14.125 -4.10499999999999 14.125 -8.72999999999999 V-61.72999999999999 Q14.125 -66.35499999999999 17.19 -69.41999999999999 Q20.25 -72.47999999999999 24.875 -72.47999999999999 H77.875 Q82.5 -72.47999999999999 85.565 -69.41999999999999 Q88.625 -66.35499999999999 88.625 -61.72999999999999 V-39.97999999999999 L105.875 -57.22999999999999 V-13.22999999999999 L88.625 -30.47999999999999 V-8.72999999999999 Q88.625 -4.10499999999999 85.565 -1.0449999999999875 Q82.5 2.0200000000000102 77.875 2.0200000000000102 H24.875 Z M24.875 -4.72999999999999 H77.875 Q79.625 -4.72999999999999 80.75 -5.85499999999999 Q81.875 -6.97999999999999 81.875 -8.72999999999999 V-61.72999999999999 Q81.875 -63.47999999999999 80.75 -64.60499999999999 Q79.625 -65.72999999999999 77.875 -65.72999999999999 H24.875 Q23.125 -65.72999999999999 22.0 -64.60499999999999 Q20.875 -63.47999999999999 20.875 -61.72999999999999 V-8.72999999999999 Q20.875 -6.97999999999999 22.0 -5.85499999999999 Q23.125 -4.72999999999999 24.875 -4.72999999999999 Z"/></g><g id="Bold-S" transform="matrix(1 0 0 1 2294.23 696)"><path d="M21.795336 -2.2908280000000047 Q16.569 -2.2908280000000047 12.871746 -6.035421999999983 Q9.174491999999999 -9.784749999999988 9.174491999999999 -14.911671999999996 V-55.54832799999999 Q9.174491999999999 -60.67524999999999 12.871746 -64.424578 Q16.569 -68.16917199999999 21.795336 -68.16917199999999 H62.332578 Q67.658328 -68.16917199999999 71.303508 -64.424578 Q74.953422 -60.67524999999999 74.953422 -55.54832799999999 V-40.655164 L90.239508 -55.94125 V-14.518749999999997 L74.953422 -29.804835999999987 V-14.911671999999996 Q74.953422 -9.784749999999988 71.303508 -6.035421999999983 Q67.658328 -2.2908280000000047 62.332578 -2.2908280000000047 H21.795336 Z M21.795336 -14.911671999999996 H62.332578 Q62.332578 -14.911671999999996 62.332578 -14.911671999999996 Q62.332578 -14.911671999999996 62.332578 -14.911671999999996 V-55.54832799999999 Q62.332578 -55.54832799999999 62.332578 -55.54832799999999 Q62.332578 -55.54832799999999 62.332578 -55.54832799999999 H21.795336 Q21.795336 -55.54832799999999 21.795336 -55.54832799999999 Q21.795336 -55.54832799999999 21.795336 -55.54832799999999 V-14.911671999999996 Q21.795336 -14.911671999999996 21.795336 -14.911671999999996 Q21.795336 -14.911671999999996 21.795336 -14.911671999999996 Z"/></g><g id="Semibold-S" transform="matrix(1 0 0 1 1998.1 696)"><path d="M20.810664 -2.981991999999991 Q16.176078 -2.981991999999991 12.819672 -6.333663999999999 Q9.468 -9.685335999999992 9.468 -14.319921999999991 V-56.14007799999999 Q9.468 -60.774663999999994 12.819672 -64.126336 Q16.176078 -67.47800799999999 20.810664 -67.47800799999999 H62.626085999999994 Q67.360086 -67.47800799999999 70.664418 -64.126336 Q73.96875 -60.774663999999994 73.96875 -56.14007799999999 V-41.147499999999994 L89.946 -57.12474999999999 V-13.335249999999988 L73.96875 -29.312499999999993 V-14.319921999999991 Q73.96875 -9.685335999999992 70.664418 -6.333663999999999 Q67.360086 -2.981991999999991 62.626085999999994 -2.981991999999991 H20.810664 Z M20.810664 -14.319921999999991 H62.626085999999994 Q62.626085999999994 -14.319921999999991 62.626085999999994 -14.319921999999991 Q62.626085999999994 -14.319921999999991 62.626085999999994 -14.319921999999991 V-56.14007799999999 Q62.626085999999994 -56.14007799999999 62.626085999999994 -56.14007799999999 Q62.626085999999994 -56.14007799999999 62.626085999999994 -56.14007799999999 H20.810664 Q20.810664 -56.14007799999999 20.810664 -56.14007799999999 Q20.810664 -56.14007799999999 20.810664 -56.14007799999999 V-14.319921999999991 Q20.810664 -14.319921999999991 20.810664 -14.319921999999991 Q20.810664 -14.319921999999991 20.810664 -14.319921999999991 Z"/></g><g id="Medium-S" transform="matrix(1 0 0 1 1701.85 696)"><path d="M20.1195 -3.474328 Q15.877836 -3.474328 12.772332 -6.579831999999996 Q9.666827999999999 -9.685335999999992 9.666827999999999 -13.827585999999997 V-56.632414 Q9.666827999999999 -60.874078 12.772332 -63.92750799999999 Q15.877836 -66.985672 20.1195 -66.985672 H62.82491400000001 Q67.06657799999999 -66.985672 70.120008 -63.92750799999999 Q73.178172 -60.874078 73.178172 -56.632414 V-41.44100799999999 L89.74717199999999 -58.010008 V-12.449991999999995 L73.178172 -29.018991999999997 V-13.827585999999997 Q73.178172 -9.685335999999992 70.120008 -6.579831999999996 Q67.06657799999999 -3.474328 62.82491400000001 -3.474328 H20.1195 Z M20.1195 -13.827585999999997 H62.82491400000001 Q62.82491400000001 -13.827585999999997 62.82491400000001 -13.827585999999997 Q62.82491400000001 -13.827585999999997 62.82491400000001 -13.827585999999997 V-56.632414 Q62.82491400000001 -56.632414 62.82491400000001 -56.632414 Q62.82491400000001 -56.632414 62.82491400000001 -56.632414 H20.1195 Q20.1195 -56.632414 20.1195 -56.632414 Q20.1195 -56.632414 20.1195 -56.632414 V-13.827585999999997 Q20.1195 -13.827585999999997 20.1195 -13.827585999999997 Q20.1195 -13.827585999999997 20.1195 -13.827585999999997 Z"/></g><g id="Regular-S" transform="matrix(1 0 0 1 1405.73 696)"><path d="M19.52775 -3.8672499999999985 Q15.584328 -3.8672499999999985 12.724992 -6.726585999999983 Q9.860922 -9.585921999999997 9.860922 -13.534077999999994 V-56.92592199999999 Q9.860922 -60.874078 12.724992 -63.733413999999996 Q15.584328 -66.59275 19.52775 -66.59275 H62.924327999999996 Q66.86775 -66.59275 69.727086 -63.733413999999996 Q72.586422 -60.874078 72.586422 -56.92592199999999 V-41.73924999999999 L89.55307800000001 -58.70117199999999 V-11.758827999999994 L72.586422 -28.720749999999995 V-13.534077999999994 Q72.586422 -9.585921999999997 69.727086 -6.726585999999983 Q66.86775 -3.8672499999999985 62.924327999999996 -3.8672499999999985 H19.52775 Z M19.52775 -13.534077999999994 H62.924327999999996 Q62.924327999999996 -13.534077999999994 62.924327999999996 -13.534077999999994 Q62.924327999999996 -13.534077999999994 62.924327999999996 -13.534077999999994 V-56.92592199999999 Q62.924327999999996 -56.92592199999999 62.924327999999996 -56.92592199999999 Q62.924327999999996 -56.92592199999999 62.924327999999996 -56.92592199999999 H19.52775 Q19.52775 -56.92592199999999 19.52775 -56.92592199999999 Q19.52775 -56.92592199999999 19.52775 -56.92592199999999 V-13.534077999999994 Q19.52775 -13.534077999999994 19.52775 -13.534077999999994 Q19.52775 -13.534077999999994 19.52775 -13.534077999999994 Z"/></g><g id="Light-S" transform="matrix(1 0 0 1 1109.75 696)"><path d="M21.695922 -5.841328000000004 Q18.046008 -5.841328000000004 15.432839999999999 -8.454495999999992 Q12.819672 -11.067663999999994 12.819672 -14.717577999999989 V-55.74242199999999 Q12.819672 -59.39233599999999 15.432839999999999 -62.00550399999999 Q18.046008 -64.61867199999999 21.695922 -64.61867199999999 H62.626085999999994 Q66.375414 -64.61867199999999 68.98858200000001 -62.00550399999999 Q71.60175 -59.39233599999999 71.60175 -55.74242199999999 V-40.25750799999999 L86.594328 -55.250085999999996 V-15.209913999999998 L71.60175 -30.202492 V-14.717577999999989 Q71.60175 -11.067663999999994 68.98858200000001 -8.454495999999992 Q66.375414 -5.841328000000004 62.626085999999994 -5.841328000000004 H21.695922 Z M21.695922 -13.534077999999994 H62.626085999999994 Q63.217836 -13.534077999999994 63.563418 -13.879660000000001 Q63.909 -14.220507999999995 63.909 -14.717577999999989 V-55.74242199999999 Q63.909 -56.23949199999999 63.563418 -56.58033999999999 Q63.217836 -56.92592199999999 62.626085999999994 -56.92592199999999 H21.695922 Q21.203586 -56.92592199999999 20.858003999999998 -56.58033999999999 Q20.512422 -56.23949199999999 20.512422 -55.74242199999999 V-14.717577999999989 Q20.512422 -14.220507999999995 20.858003999999998 -13.879660000000001 Q21.203586 -13.534077999999994 21.695922 -13.534077999999994 Z"/></g><g id="Thin-S" transform="matrix(1 0 0 1 814.015 696)"><path d="M23.868828 -7.810671999999997 Q20.512422 -7.810671999999997 18.098081999999998 -10.177672000000001 Q15.679008 -12.544671999999991 15.679008 -16.000491999999994 V-54.459508 Q15.679008 -57.91532799999999 18.098081999999998 -60.28232799999999 Q20.512422 -62.649328 23.868828 -62.649328 H62.431992 Q65.883078 -62.649328 68.198004 -60.28232799999999 Q70.51766400000001 -57.91532799999999 70.51766400000001 -54.459508 V-38.681085999999986 L83.73499199999999 -51.89841399999999 V-18.56158599999999 L70.51766400000001 -31.778914 V-16.000491999999994 Q70.51766400000001 -12.544671999999991 68.198004 -10.177672000000001 Q65.883078 -7.810671999999997 62.431992 -7.810671999999997 H23.868828 Z M23.868828 -13.534077999999994 H62.431992 Q63.416664000000004 -13.534077999999994 64.107828 -14.220507999999995 Q64.798992 -14.911671999999996 64.798992 -16.000491999999994 V-54.459508 Q64.798992 -55.54832799999999 64.107828 -56.234758 Q63.416664000000004 -56.92592199999999 62.431992 -56.92592199999999 H23.868828 Q22.780008000000002 -56.92592199999999 22.093578 -56.234758 Q21.402414 -55.54832799999999 21.402414 -54.459508 V-16.000491999999994 Q21.402414 -14.911671999999996 22.093578 -14.220507999999995 Q22.780008000000002 -13.534077999999994 23.868828 -13.534077999999994 Z"/></g><g id="Ultralight-S" transform="matrix(1 0 0 1 517.792 696)"><path d="M25.147008 -8.994171999999992 Q21.89475 -8.994171999999992 19.674504 -11.214417999999995 Q17.458992000000002 -13.434663999999998 17.458992000000002 -16.686921999999996 V-53.77307799999999 Q17.458992000000002 -57.025335999999996 19.674504 -59.245582 Q21.89475 -61.46582799999999 25.147008 -61.46582799999999 H62.233164 Q65.485422 -61.46582799999999 67.705668 -59.245582 Q69.925914 -57.025335999999996 69.925914 -53.77307799999999 V-37.79582799999999 L81.955008 -49.824921999999994 V-20.635077999999993 L69.925914 -32.66417199999999 V-16.686921999999996 Q69.925914 -13.434663999999998 67.705668 -11.214417999999995 Q65.485422 -8.994171999999992 62.233164 -8.994171999999992 H25.147008 Z M25.147008 -13.534077999999994 H62.233164 Q63.615492 -13.534077999999994 64.50075 -14.419335999999987 Q65.386008 -15.309327999999994 65.386008 -16.686921999999996 V-53.77307799999999 Q65.386008 -55.15067199999999 64.50075 -56.04066399999999 Q63.615492 -56.92592199999999 62.233164 -56.92592199999999 H25.147008 Q23.769414 -56.92592199999999 22.879422 -56.04066399999999 Q21.994163999999998 -55.15067199999999 21.994163999999998 -53.77307799999999 V-16.686921999999996 Q21.994163999999998 -15.309327999999994 22.879422 -14.419335999999987 Q23.769414 -13.534077999999994 25.147008 -13.534077999999994 Z"/></g></g></svg>