<svg xmlns="http://www.w3.org/2000/svg" version="1.1" width="3300" height="2000"><g id="Notes"><style>
    text {
      font-family: monospace;
      text-anchor: middle;
    }
    text.emphasis {
      font-weight:bold;
    }
    text.lanchor {
      text-anchor: start;
    }
  </style><rect height="2200" id="artboard" fill="white" width="3300" x="0" y="0"/><line id="" style="fill:none;stroke:black;stroke-width:0.5;" x1="263" x2="3036" y1="292" y2="292"/><text class="lanchor emphasis" transform="matrix(1 0 0 1 263 322)">Weight/Scale Variations</text><text transform="matrix(1 0 0 1 559.711 322)">Ultralight</text><text transform="matrix(1 0 0 1 856.422 322)">Thin</text><text transform="matrix(1 0 0 1 1153.13 322)">Light</text><text transform="matrix(1 0 0 1 1449.84 322)">Regular</text><text transform="matrix(1 0 0 1 1746.56 322)">Medium</text><text transform="matrix(1 0 0 1 2043.27 322)">Semibold</text><text transform="matrix(1 0 0 1 2339.98 322)">Bold</text><text transform="matrix(1 0 0 1 2636.69 322)">Heavy</text><text transform="matrix(1 0 0 1 2933.4 322)">Black</text><text id="template-version" style="text-anchor: end;" transform="matrix(1 0 0 1 3036 1933)">Template v.1.0</text><text class="lanchor" transform="matrix(1 0 0 1 263 726)">Small</text><text class="lanchor" transform="matrix(1 0 0 1 263 1156)">Medium</text><text class="lanchor" transform="matrix(1 0 0 1 263 1586)">Large</text></g><g id="Guides"><g id="H-reference" style="fill:#27AAE1;stroke:none;" transform="matrix(1 0 0 1 339 696)"><path d="M 54.9316 0 L 57.666 0 L 30.5664 -70.459 L 28.0762 -70.459 L 0.976562 0 L 3.66211 0 L 12.9395 -24.4629 L 45.7031 -24.4629 Z M 29.1992 -67.0898 L 29.4434 -67.0898 L 44.8242 -26.709 L 13.8184 -26.709 Z"/></g><line id="Baseline-S" style="fill:none;stroke:#27AAE1;opacity:1;stroke-width:0.577;" x1="263" x2="3036" y1="696" y2="696"/><line id="Capline-S" style="fill:none;stroke:#27AAE1;opacity:1;stroke-width:0.577;" x1="263" x2="3036" y1="625.541" y2="625.541"/><g id="H-reference" style="fill:#27AAE1;stroke:none;" transform="matrix(1 0 0 1 339 1126)"><path d="M 54.9316 0 L 57.666 0 L 30.5664 -70.459 L 28.0762 -70.459 L 0.976562 0 L 3.66211 0 L 12.9395 -24.4629 L 45.7031 -24.4629 Z M 29.1992 -67.0898 L 29.4434 -67.0898 L 44.8242 -26.709 L 13.8184 -26.709 Z"/></g><line id="Baseline-M" style="fill:none;stroke:#27AAE1;opacity:1;stroke-width:0.577;" x1="263" x2="3036" y1="1126" y2="1126"/><line id="Capline-M" style="fill:none;stroke:#27AAE1;opacity:1;stroke-width:0.577;" x1="263" x2="3036" y1="1055.54" y2="1055.54"/><g id="H-reference" style="fill:#27AAE1;stroke:none;" transform="matrix(1 0 0 1 339 1556)"><path d="M 54.9316 0 L 57.666 0 L 30.5664 -70.459 L 28.0762 -70.459 L 0.976562 0 L 3.66211 0 L 12.9395 -24.4629 L 45.7031 -24.4629 Z M 29.1992 -67.0898 L 29.4434 -67.0898 L 44.8242 -26.709 L 13.8184 -26.709 Z"/></g><line id="Baseline-L" style="fill:none;stroke:#27AAE1;opacity:1;stroke-width:0.577;" x1="263" x2="3036" y1="1556" y2="1556"/><line id="Capline-L" style="fill:none;stroke:#27AAE1;opacity:1;stroke-width:0.577;" x1="263" x2="3036" y1="1485.54" y2="1485.54"/><rect height="119.336" id="left-margin" style="fill:darkred;stroke:none;opacity:0.4;" width="12.4512" x="1394.06" y="1030.79"/><rect height="119.336" id="right-margin" style="fill:darkgreen;stroke:none;opacity:0.4;" width="12.4512" x="1502.5112" y="1030.79"/><rect x="1406.5112" y="1045" width="96" height="96" fill="none" stroke="blue" stroke-dasharray="5"/><rect x="1394.06" y="1030.79" width="120.9024" height="119.336" fill="none" stroke="blue"/></g><g id="Symbols"><g id="Bold-L" transform="matrix(1 0 0 1 2266 1556)"><path d="M30.15375 26.045000000000016 Q23.865000000000002 26.045000000000016 19.51125 21.771874999999994 Q15.1575 17.49875 15.1575 11.210000000000008 V-81.83125 Q15.1575 -87.95875 19.51125 -92.393125 Q23.865000000000002 -96.82749999999999 30.15375 -96.82749999999999 H90.6225 V-64.255 H105.61875 V-49.25875 H138.03 V11.210000000000008 Q138.03 17.49875 133.59562499999998 21.771874999999994 Q129.16125 26.045000000000016 123.19500000000001 26.045000000000016 H30.15375 Z M38.53875 -3.625 H114.81 L91.91250000000001 -33.94 L71.595 -7.333749999999995 L56.59875 -27.006249999999994 L38.53875 -3.625 Z M114.00375000000001 -57.64374999999999 V-72.3175 H99.16875 V-83.44375 H113.84249999999999 V-98.44 H124.96875 V-83.60499999999999 H139.80375 V-72.47874999999999 H125.13 V-57.64374999999999 H114.00375000000001 Z"/></g><g id="Semibold-L" transform="matrix(1 0 0 1 1970.27 1556)"><path d="M29.669999999999998 24.27125000000001 Q24.67125 24.27125000000001 20.962500000000002 20.643125000000026 Q17.25375 17.015000000000015 17.25375 11.855000000000018 V-82.47625 Q17.25375 -87.63624999999999 20.962500000000002 -91.264375 Q24.67125 -94.8925 29.669999999999998 -94.8925 H92.5575 V-64.89999999999999 H106.58624999999999 V-50.871249999999996 H136.4175 V11.855000000000018 Q136.4175 17.015000000000015 132.789375 20.643125000000026 Q129.16125 24.27125000000001 124.16250000000001 24.27125000000001 H29.669999999999998 Z M38.861250000000005 -3.625 H114.97125 L92.23500000000001 -33.94 L71.9175 -7.333749999999995 L56.92124999999999 -27.006249999999994 L38.861250000000005 -3.625 Z M113.35875 -57.64374999999999 V-71.51124999999999 H99.33 V-81.83125 H113.35875 V-96.02125 H123.67875000000001 V-81.99249999999999 H137.7075 V-71.6725 H123.67875000000001 V-57.64374999999999 H113.35875 Z"/></g><g id="Medium-L" transform="matrix(1 0 0 1 1674.31 1556)"><path d="M29.508750000000003 22.98124999999999 Q25.155 22.98124999999999 22.010625 19.83687500000002 Q18.86625 16.692500000000024 18.86625 12.338750000000005 V-82.96 Q18.86625 -87.31375 22.010625 -90.458125 Q25.155 -93.60249999999999 29.508750000000003 -93.60249999999999 H94.17 V-65.54499999999999 H107.55375000000001 V-52.161249999999995 H135.45000000000002 V12.338750000000005 Q135.45000000000002 16.692500000000024 132.225 19.83687500000002 Q129.0 22.98124999999999 124.80750000000002 22.98124999999999 H29.508750000000003 Z M39.0225 -3.625 H115.29375 L92.39625 -33.94 L72.07875000000001 -7.333749999999995 L57.082499999999996 -27.006249999999994 L39.0225 -3.625 Z M113.03625 -57.64374999999999 V-71.0275 H99.6525 V-80.70249999999999 H113.03625 V-94.08624999999999 H122.71124999999999 V-80.70249999999999 H136.095 V-71.0275 H122.71124999999999 V-57.64374999999999 H113.03625 Z"/></g><g id="Regular-L" transform="matrix(1 0 0 1 1378.56 1556)"><path d="M29.3475 22.013750000000016 Q25.63875 22.013750000000016 22.816875 19.19187500000001 Q19.995 16.370000000000005 19.995 12.66125000000001 V-83.2825 Q19.995 -86.99125 22.816875 -89.813125 Q25.63875 -92.63499999999999 29.3475 -92.63499999999999 H95.1375 V-66.02875 H108.19874999999999 V-52.967499999999994 H134.64375 V12.66125000000001 Q134.64375 16.370000000000005 131.821875 19.19187500000001 Q129.0 22.013750000000016 125.29125 22.013750000000016 H29.3475 Z M39.18375 -3.625 H115.455 L92.5575 -33.94 L72.24 -7.333749999999995 L57.24375 -27.006249999999994 L39.18375 -3.625 Z M112.71375000000002 -57.64374999999999 V-70.54374999999999 H99.81375 V-79.89625 H112.71375000000002 V-92.79624999999999 H122.06625000000001 V-79.89625 H134.96625 V-70.54374999999999 H122.06625000000001 V-57.64374999999999 H112.71375000000002 Z"/></g><g id="Light-L" transform="matrix(1 0 0 1 1082.77 1556)"><path d="M30.798750000000002 19.111250000000013 Q27.090000000000003 19.111250000000013 24.429375 16.370000000000005 Q21.76875 13.628749999999997 21.76875 10.081249999999997 V-80.54124999999999 Q21.76875 -84.25 24.429375 -86.910625 Q27.090000000000003 -89.57124999999999 30.798750000000002 -89.57124999999999 H92.71875 V-64.57749999999999 H105.61875 V-51.677499999999995 H130.45125000000002 V10.081249999999997 Q130.45125000000002 13.628749999999997 127.71000000000001 16.370000000000005 Q124.96875 19.111250000000013 121.42125 19.111250000000013 H30.798750000000002 Z M42.57 -5.0762499999999875 H110.13374999999999 L89.81625000000001 -32.004999999999995 L70.95 -7.65625 L57.7275 -24.426249999999982 L42.57 -5.0762499999999875 Z M113.1975 -59.256249999999994 V-72.15625 H100.13625 V-79.25125 H113.1975 V-92.3125 H120.29249999999999 V-79.25125 H133.1925 V-72.15625 H120.29249999999999 V-59.256249999999994 H113.1975 Z"/></g><g id="Thin-L" transform="matrix(1 0 0 1 787.282 1556)"><path d="M32.25 16.20875000000001 Q28.7025 16.20875000000001 26.1225 13.548125000000013 Q23.5425 10.887500000000003 23.5425 7.340000000000018 V-77.79999999999998 Q23.5425 -81.50874999999999 26.1225 -84.08875 Q28.7025 -86.66874999999999 32.25 -86.66874999999999 H90.13875 V-63.287499999999994 H103.03875000000001 V-50.38749999999999 H126.25874999999999 V7.340000000000018 Q126.25874999999999 10.887500000000003 123.67875000000001 13.548125000000013 Q121.09875 16.20875000000001 117.55125000000001 16.20875000000001 H32.25 Z M45.956250000000004 -6.527500000000003 H104.8125 L87.075 -29.908749999999998 L69.82124999999999 -8.14 L58.21125000000001 -22.007499999999993 L45.956250000000004 -6.527500000000003 Z M113.52000000000001 -60.86874999999999 V-73.92999999999999 H100.62 V-78.76749999999998 H113.52000000000001 V-91.66749999999999 H118.51875 V-78.76749999999998 H131.41875000000002 V-73.92999999999999 H118.51875 V-60.86874999999999 H113.52000000000001 Z"/></g><g id="Ultralight-L" transform="matrix(1 0 0 1 491.205 1556)"><path d="M33.2175 14.435000000000002 Q29.669999999999998 14.435000000000002 27.090000000000003 11.855000000000018 Q24.509999999999998 9.275000000000006 24.509999999999998 5.7275000000000205 V-76.1875 Q24.509999999999998 -79.735 27.090000000000003 -82.315 Q29.669999999999998 -84.895 33.2175 -84.895 H88.6875 V-62.64249999999999 H101.5875 V-49.58124999999999 H123.84 V5.7275000000000205 Q123.84 9.275000000000006 121.26 11.855000000000018 Q118.67999999999999 14.435000000000002 115.13250000000001 14.435000000000002 H33.2175 Z M48.0525 -7.333749999999995 H101.5875 L85.4625 -28.779999999999987 L69.015 -8.462500000000006 L58.53375 -20.55624999999999 L48.0525 -7.333749999999995 Z M113.84249999999999 -61.83624999999999 V-74.8975 H100.94250000000001 V-78.445 H113.84249999999999 V-91.345 H117.39 V-78.445 H130.29 V-74.8975 H117.39 V-61.83624999999999 H113.84249999999999 Z"/></g><g id="Bold-M" transform="matrix(1 0 0 1 2281.8 1126)"><path d="M26.125 12.77000000000001 Q19.75 12.77000000000001 15.375 8.39500000000001 Q11.0 4.02000000000001 11.0 -2.3549999999999898 V-68.22999999999999 Q11.0 -74.60499999999999 15.375 -78.97999999999999 Q19.75 -83.35499999999999 26.125 -83.35499999999999 H65.625 V-53.72999999999999 H77.5 V-41.85499999999999 H107.125 V-2.3549999999999898 Q107.125 4.02000000000001 102.75 8.39500000000001 Q98.375 12.77000000000001 92.0 12.77000000000001 H26.125 Z M30.0 -10.60499999999999 H88.125 L70.0 -34.72999999999999 L55.25 -15.10499999999999 L44.25 -29.60499999999999 L30.0 -10.60499999999999 Z M86.0 -50.35499999999999 V-62.10499999999999 H74.125 V-73.47999999999999 H85.875 V-85.22999999999999 H97.25 V-73.47999999999999 H109.0 V-62.22999999999999 H97.25 V-50.35499999999999 H86.0 Z"/></g><g id="Semibold-M" transform="matrix(1 0 0 1 1985.97 1126)"><path d="M25.75 10.89500000000001 Q20.5 10.89500000000001 16.815 7.210000000000008 Q13.125 3.5200000000000102 13.125 -1.7299999999999898 V-68.85499999999999 Q13.125 -74.10499999999999 16.815 -77.79499999999999 Q20.5 -81.47999999999999 25.75 -81.47999999999999 H67.625 V-54.47999999999999 H78.625 V-43.47999999999999 H105.625 V-1.7299999999999898 Q105.625 3.5200000000000102 101.94000000000001 7.210000000000008 Q98.25 10.89500000000001 93.0 10.89500000000001 H25.75 Z M30.375 -10.60499999999999 H88.5 L70.375 -34.72999999999999 L55.625 -15.10499999999999 L44.625 -29.60499999999999 L30.375 -10.60499999999999 Z M85.375 -50.35499999999999 V-61.22999999999999 H74.5 V-71.72999999999999 H85.375 V-82.72999999999999 H95.875 V-71.85499999999999 H106.875 V-61.35499999999999 H95.875 V-50.35499999999999 H85.375 Z"/></g><g id="Medium-M" transform="matrix(1 0 0 1 1689.91 1126)"><path d="M25.5 9.52000000000001 Q21.125 9.52000000000001 17.94 6.39500000000001 Q14.75 3.2700000000000102 14.75 -1.2299999999999898 V-69.35499999999999 Q14.75 -73.85499999999999 17.94 -76.97999999999999 Q21.125 -80.10499999999999 25.5 -80.10499999999999 H69.125 V-55.10499999999999 H79.375 V-44.72999999999999 H104.5 V-1.2299999999999898 Q104.5 3.2700000000000102 101.31500000000001 6.39500000000001 Q98.125 9.52000000000001 93.75 9.52000000000001 H25.5 Z M30.625 -10.60499999999999 H88.75 L70.625 -34.72999999999999 L55.875 -15.10499999999999 L44.875 -29.60499999999999 L30.625 -10.60499999999999 Z M85.0 -50.35499999999999 V-60.72999999999999 H74.75 V-70.47999999999999 H85.0 V-80.85499999999999 H94.875 V-70.47999999999999 H105.25 V-60.72999999999999 H94.875 V-50.35499999999999 H85.0 Z"/></g><g id="Regular-M" transform="matrix(1 0 0 1 1394.06 1126)"><path d="M25.375 8.52000000000001 Q21.5 8.52000000000001 18.75 5.77000000000001 Q16.0 3.0200000000000102 16.0 -0.8549999999999898 V-69.72999999999999 Q16.0 -73.60499999999999 18.75 -76.35499999999999 Q21.5 -79.10499999999999 25.375 -79.10499999999999 H70.25 V-55.60499999999999 H80.125 V-45.72999999999999 H103.625 V-0.8549999999999898 Q103.625 3.0200000000000102 100.875 5.77000000000001 Q98.125 8.52000000000001 94.25 8.52000000000001 H25.375 Z M30.75 -10.60499999999999 H88.875 L70.75 -34.72999999999999 L56.0 -15.10499999999999 L45.0 -29.60499999999999 L30.75 -10.60499999999999 Z M84.75 -50.35499999999999 V-60.22999999999999 H74.875 V-69.60499999999999 H84.75 V-79.47999999999999 H94.125 V-69.60499999999999 H104.0 V-60.22999999999999 H94.125 V-50.35499999999999 H84.75 Z"/></g><g id="Light-M" transform="matrix(1 0 0 1 1098.18 1126)"><path d="M25.875 6.27000000000001 Q22.375 6.27000000000001 19.875 3.7700000000000102 Q17.375 1.2700000000000102 17.375 -2.2299999999999898 V-68.35499999999999 Q17.375 -71.85499999999999 19.875 -74.35499999999999 Q22.375 -76.85499999999999 25.875 -76.85499999999999 H69.25 V-55.47999999999999 H79.125 V-45.60499999999999 H100.375 V-2.2299999999999898 Q100.375 1.2700000000000102 97.94 3.7700000000000102 Q95.5 6.27000000000001 91.875 6.27000000000001 H25.875 Z M33.375 -11.72999999999999 H84.75 L68.875 -32.97999999999999 L55.0 -14.97999999999999 L45.25 -27.35499999999999 L33.375 -11.72999999999999 Z M85.75 -52.22999999999999 V-62.10499999999999 H75.875 V-69.10499999999999 H85.75 V-79.10499999999999 H92.75 V-69.10499999999999 H102.625 V-62.10499999999999 H92.75 V-52.22999999999999 H85.75 Z"/></g><g id="Thin-M" transform="matrix(1 0 0 1 802.565 1126)"><path d="M26.375 4.02000000000001 Q23.125 4.02000000000001 20.939999999999998 1.7700000000000102 Q18.75 -0.47999999999998977 18.75 -3.7299999999999898 V-66.85499999999999 Q18.75 -70.10499999999999 20.939999999999998 -72.29499999999999 Q23.125 -74.47999999999999 26.375 -74.47999999999999 H68.25 V-55.47999999999999 H78.125 V-45.60499999999999 H97.25 V-3.7299999999999898 Q97.25 -0.47999999999998977 95.0 1.7700000000000102 Q92.75 4.02000000000001 89.5 4.02000000000001 H26.375 Z M36.0 -12.97999999999999 H80.625 L66.875 -31.22999999999999 L54.0 -14.97999999999999 L45.375 -25.22999999999999 L36.0 -12.97999999999999 Z M86.75 -54.10499999999999 V-64.10499999999999 H76.875 V-68.72999999999999 H86.75 V-78.60499999999999 H91.375 V-68.72999999999999 H101.25 V-64.10499999999999 H91.375 V-54.10499999999999 H86.75 Z"/></g><g id="Ultralight-M" transform="matrix(1 0 0 1 506.415 1126)"><path d="M26.625 2.6450000000000102 Q23.625 2.6450000000000102 21.560000000000002 0.585000000000008 Q19.5 -1.4799999999999898 19.5 -4.47999999999999 V-65.97999999999999 Q19.5 -68.97999999999999 21.560000000000002 -71.10499999999999 Q23.625 -73.22999999999999 26.75 -73.22999999999999 H67.625 V-55.47999999999999 H77.625 V-45.47999999999999 H95.375 V-4.60499999999999 Q95.375 -1.4799999999999898 93.25 0.585000000000008 Q91.125 2.6450000000000102 88.125 2.6450000000000102 H26.625 Z M37.625 -13.72999999999999 H78.25 L65.75 -30.22999999999999 L53.375 -14.97999999999999 L45.5 -23.97999999999999 L37.625 -13.72999999999999 Z M87.375 -55.35499999999999 V-65.22999999999999 H77.5 V-68.47999999999999 H87.375 V-78.35499999999999 H90.625 V-68.47999999999999 H100.5 V-65.22999999999999 H90.625 V-55.35499999999999 H87.375 Z"/></g><g id="Bold-S" transform="matrix(1 0 0 1 2294.23 696)"><path d="M22.192992 0.2750000000000057 Q17.553672000000002 0.2750000000000057 14.301414 -2.981991999999991 Q11.044422 -6.234249999999989 11.044422 -10.868835999999988 V-59.69057799999999 Q11.044422 -64.325164 14.301414 -67.577422 Q17.553672000000002 -70.834414 22.192992 -70.834414 H48.622914 V-45.881499999999996 H59.567922 V-37.303492 H82.153836 V-10.868835999999988 Q82.153836 -6.234249999999989 78.901578 -2.981991999999991 Q75.64458599999999 0.2750000000000057 71.01 0.2750000000000057 H22.192992 Z M26.037 -16.587507999999985 H67.165992 L53.456328 -34.83707799999999 L42.998922 -20.92858599999999 L36.09675 -30.003664 L26.037 -16.587507999999985 Z M67.06657799999999 -47.164413999999994 V-55.643007999999995 H58.483836 V-63.83282799999999 H66.967164 V-72.311422 H75.15225 V-63.83282799999999 H83.63557800000001 V-55.74242199999999 H75.15225 V-47.164413999999994 H67.06657799999999 Z"/></g><g id="Semibold-S" transform="matrix(1 0 0 1 1998.1 696)"><path d="M21.89475 -1.2020079999999922 Q18.145422 -1.2020079999999922 15.432839999999999 -3.914590000000004 Q12.724992 -6.627171999999987 12.724992 -10.376499999999993 V-60.182914 Q12.724992 -63.92750799999999 15.432839999999999 -66.64008999999999 Q18.145422 -69.352672 21.89475 -69.352672 H50.199335999999995 V-46.47324999999999 H60.457914 V-38.581672 H80.97033599999999 V-10.277085999999983 Q80.97033599999999 -6.627171999999987 78.25775399999999 -3.914590000000004 Q75.545172 -1.2020079999999922 71.800578 -1.2020079999999922 H21.89475 Z M26.330508000000002 -16.587507999999985 H67.4595 L53.749835999999995 -34.83707799999999 L43.297164 -20.92858599999999 L36.394992 -30.003664 L26.330508000000002 -16.587507999999985 Z M66.569508 -47.164413999999994 V-54.95657799999999 H58.782078 V-62.45049999999999 H66.569508 V-70.34207799999999 H74.06816400000001 V-62.549913999999994 H81.955008 V-55.05599199999999 H74.06816400000001 V-47.164413999999994 H66.569508 Z"/></g><g id="Medium-S" transform="matrix(1 0 0 1 1701.85 696)"><path d="M21.695922 -2.2908280000000047 Q18.642492 -2.2908280000000047 16.322832 -4.558413999999999 Q14.003172000000001 -6.825999999999993 14.003172000000001 -9.983577999999994 V-60.575835999999995 Q14.003172000000001 -63.733413999999996 16.322832 -66.00099999999999 Q18.642492 -68.268586 21.695922 -68.268586 H51.382836 V-46.965585999999995 H61.04966400000001 V-39.57107799999999 H80.08507800000001 V-9.983577999999994 Q80.08507800000001 -6.825999999999993 77.765418 -4.558413999999999 Q75.450492 -2.2908280000000047 72.39232799999999 -2.2908280000000047 H21.695922 Z M26.529336 -16.587507999999985 H67.658328 L53.948664 -34.83707799999999 L43.495992 -20.92858599999999 L36.589086 -30.003664 L26.529336 -16.587507999999985 Z M66.276 -47.164413999999994 V-54.558921999999995 H58.976172 V-61.46582799999999 H66.276 V-68.86033599999999 H73.277586 V-61.46582799999999 H80.676828 V-54.558921999999995 H73.277586 V-47.164413999999994 H66.276 Z"/></g><g id="Regular-S" transform="matrix(1 0 0 1 1405.73 696)"><path d="M21.596508 -3.076671999999988 Q18.936 -3.076671999999988 16.961922 -5.050749999999994 Q14.992578 -7.024827999999999 14.992578 -9.685335999999992 V-60.874078 Q14.992578 -63.53458599999999 16.961922 -65.508664 Q18.936 -67.47800799999999 21.596508 -67.47800799999999 H52.272828 V-47.35850799999999 H61.641414000000005 V-40.356922 H79.39391400000001 V-9.685335999999992 Q79.39391400000001 -7.024827999999999 77.41983599999999 -5.050749999999994 Q75.450492 -3.076671999999988 72.78525 -3.076671999999988 H21.596508 Z M26.62875 -16.587507999999985 H67.753008 L54.048078 -34.83707799999999 L43.590672 -20.92858599999999 L36.6885 -30.003664 L26.62875 -16.587507999999985 Z M66.077172 -47.164413999999994 V-54.166 H59.075585999999994 V-60.774663999999994 H66.077172 V-67.77624999999999 H72.685836 V-60.774663999999994 H79.687422 V-54.166 H72.685836 V-47.164413999999994 H66.077172 Z"/></g><g id="Light-S" transform="matrix(1 0 0 1 1109.75 696)"><path d="M21.994163999999998 -4.851921999999988 Q19.627164 -4.851921999999988 17.851914 -6.627171999999987 Q16.076664 -8.402421999999987 16.076664 -10.769421999999992 V-59.78999199999999 Q16.076664 -62.15699199999999 17.851914 -63.92750799999999 Q19.627164 -65.707492 21.994163999999998 -65.707492 H51.48225 V-47.26382799999999 H60.850835999999994 V-40.25750799999999 H76.828086 V-10.769421999999992 Q76.828086 -8.402421999999987 75.10491 -6.627171999999987 Q73.377 -4.851921999999988 70.910586 -4.851921999999988 H21.994163999999998 Z M28.697508000000003 -17.477499999999992 H64.50075 L52.56633599999999 -33.45474999999999 L42.804828 -20.829171999999993 L36.887328 -28.228413999999994 L28.697508000000003 -17.477499999999992 Z M66.86775 -48.64142199999999 V-55.643007999999995 H59.866164000000005 V-60.37700799999999 H66.86775 V-67.47800799999999 H71.60175 V-60.37700799999999 H78.603336 V-55.643007999999995 H71.60175 V-48.64142199999999 H66.86775 Z"/></g><g id="Thin-S" transform="matrix(1 0 0 1 814.015 696)"><path d="M22.387086 -6.627171999999987 Q20.218913999999998 -6.627171999999987 18.689832 -8.208327999999995 Q17.16075 -9.784749999999988 17.16075 -11.952922000000001 V-58.60649199999999 Q17.16075 -60.774663999999994 18.689832 -62.30374599999999 Q20.218913999999998 -63.83282799999999 22.387086 -63.83282799999999 H50.691672000000004 V-47.26382799999999 H60.064992000000004 V-40.25750799999999 H74.361672 V-11.85350799999999 Q74.361672 -9.784749999999988 72.78525 -8.208327999999995 Q71.208828 -6.627171999999987 69.035922 -6.627171999999987 H22.387086 Z M30.771 -18.462171999999995 H61.248492000000006 L50.989914000000006 -32.072421999999996 L42.01425 -20.829171999999993 L36.982008 -26.55257799999999 L30.771 -18.462171999999995 Z M67.658328 -50.123163999999996 V-57.22416399999999 H60.652007999999995 V-60.083499999999994 H67.658328 V-67.08508599999999 H70.51766400000001 V-60.083499999999994 H77.51925 V-57.22416399999999 H70.51766400000001 V-50.123163999999996 H67.658328 Z"/></g><g id="Ultralight-S" transform="matrix(1 0 0 1 517.792 696)"><path d="M22.585914 -7.715992 Q20.611836 -7.715992 19.182167999999997 -9.145659999999992 Q17.7525 -10.575327999999999 17.7525 -12.544671999999991 V-57.91532799999999 Q17.7525 -59.884671999999995 19.182167999999997 -61.36641399999999 Q20.611836 -62.84342199999999 22.585914 -62.84342199999999 H50.199335999999995 V-47.26382799999999 H59.667336 V-40.16282799999999 H72.884664 V-12.544671999999991 Q72.884664 -10.575327999999999 71.402922 -9.145659999999992 Q69.925914 -7.715992 67.951836 -7.715992 H22.585914 Z M32.053914 -19.053921999999993 H59.373827999999996 L50.099922 -31.28657799999999 L41.521914 -20.829171999999993 L37.081422 -25.563171999999994 L32.053914 -19.053921999999993 Z M68.150664 -51.10783599999999 V-58.109421999999995 H61.149077999999996 V-59.884671999999995 H68.150664 V-66.890992 H69.925914 V-59.884671999999995 H76.9275 V-58.109421999999995 H69.925914 V-51.10783599999999 H68.150664 Z"/></g></g></svg>