<svg xmlns="http://www.w3.org/2000/svg" version="1.1" width="3300" height="2000"><g id="Notes"><style>
    text {
      font-family: monospace;
      text-anchor: middle;
    }
    text.emphasis {
      font-weight:bold;
    }
    text.lanchor {
      text-anchor: start;
    }
  </style><rect height="2200" id="artboard" fill="white" width="3300" x="0" y="0"/><line id="" style="fill:none;stroke:black;stroke-width:0.5;" x1="263" x2="3036" y1="292" y2="292"/><text class="lanchor emphasis" transform="matrix(1 0 0 1 263 322)">Weight/Scale Variations</text><text transform="matrix(1 0 0 1 559.711 322)">Ultralight</text><text transform="matrix(1 0 0 1 856.422 322)">Thin</text><text transform="matrix(1 0 0 1 1153.13 322)">Light</text><text transform="matrix(1 0 0 1 1449.84 322)">Regular</text><text transform="matrix(1 0 0 1 1746.56 322)">Medium</text><text transform="matrix(1 0 0 1 2043.27 322)">Semibold</text><text transform="matrix(1 0 0 1 2339.98 322)">Bold</text><text transform="matrix(1 0 0 1 2636.69 322)">Heavy</text><text transform="matrix(1 0 0 1 2933.4 322)">Black</text><text id="template-version" style="text-anchor: end;" transform="matrix(1 0 0 1 3036 1933)">Template v.1.0</text><text class="lanchor" transform="matrix(1 0 0 1 263 726)">Small</text><text class="lanchor" transform="matrix(1 0 0 1 263 1156)">Medium</text><text class="lanchor" transform="matrix(1 0 0 1 263 1586)">Large</text></g><g id="Guides"><g id="H-reference" style="fill:#27AAE1;stroke:none;" transform="matrix(1 0 0 1 339 696)"><path d="M 54.9316 0 L 57.666 0 L 30.5664 -70.459 L 28.0762 -70.459 L 0.976562 0 L 3.66211 0 L 12.9395 -24.4629 L 45.7031 -24.4629 Z M 29.1992 -67.0898 L 29.4434 -67.0898 L 44.8242 -26.709 L 13.8184 -26.709 Z"/></g><line id="Baseline-S" style="fill:none;stroke:#27AAE1;opacity:1;stroke-width:0.577;" x1="263" x2="3036" y1="696" y2="696"/><line id="Capline-S" style="fill:none;stroke:#27AAE1;opacity:1;stroke-width:0.577;" x1="263" x2="3036" y1="625.541" y2="625.541"/><g id="H-reference" style="fill:#27AAE1;stroke:none;" transform="matrix(1 0 0 1 339 1126)"><path d="M 54.9316 0 L 57.666 0 L 30.5664 -70.459 L 28.0762 -70.459 L 0.976562 0 L 3.66211 0 L 12.9395 -24.4629 L 45.7031 -24.4629 Z M 29.1992 -67.0898 L 29.4434 -67.0898 L 44.8242 -26.709 L 13.8184 -26.709 Z"/></g><line id="Baseline-M" style="fill:none;stroke:#27AAE1;opacity:1;stroke-width:0.577;" x1="263" x2="3036" y1="1126" y2="1126"/><line id="Capline-M" style="fill:none;stroke:#27AAE1;opacity:1;stroke-width:0.577;" x1="263" x2="3036" y1="1055.54" y2="1055.54"/><g id="H-reference" style="fill:#27AAE1;stroke:none;" transform="matrix(1 0 0 1 339 1556)"><path d="M 54.9316 0 L 57.666 0 L 30.5664 -70.459 L 28.0762 -70.459 L 0.976562 0 L 3.66211 0 L 12.9395 -24.4629 L 45.7031 -24.4629 Z M 29.1992 -67.0898 L 29.4434 -67.0898 L 44.8242 -26.709 L 13.8184 -26.709 Z"/></g><line id="Baseline-L" style="fill:none;stroke:#27AAE1;opacity:1;stroke-width:0.577;" x1="263" x2="3036" y1="1556" y2="1556"/><line id="Capline-L" style="fill:none;stroke:#27AAE1;opacity:1;stroke-width:0.577;" x1="263" x2="3036" y1="1485.54" y2="1485.54"/><rect height="119.336" id="left-margin" style="fill:darkred;stroke:none;opacity:0.4;" width="12.4512" x="1394.06" y="1030.79"/><rect height="119.336" id="right-margin" style="fill:darkgreen;stroke:none;opacity:0.4;" width="12.4512" x="1502.5112" y="1030.79"/><rect x="1406.5112" y="1045" width="96" height="96" fill="none" stroke="blue" stroke-dasharray="5"/><rect x="1394.06" y="1030.79" width="120.9024" height="119.336" fill="none" stroke="blue"/></g><g id="Symbols"><g id="Bold-L" transform="matrix(1 0 0 1 2266 1556)"><path d="M83.85000000000001 39.42875000000001 Q78.045 39.42875000000001 74.09437500000001 35.39750000000001 Q70.14375 31.366250000000008 70.14375 25.56125 V10.081249999999997 Q52.88999999999999 7.501250000000013 41.521875 -5.559999999999988 Q30.15375 -18.621250000000003 30.15375 -36.51999999999998 V-94.8925 Q30.15375 -101.18124999999999 34.346250000000005 -105.454375 Q38.53875 -109.72749999999999 44.988749999999996 -109.72749999999999 H110.13374999999999 Q116.10000000000001 -109.72749999999999 120.45375000000001 -105.454375 Q124.80750000000002 -101.18124999999999 124.80750000000002 -94.8925 V-36.51999999999998 Q124.80750000000002 -18.621250000000003 113.35875 -5.559999999999988 Q101.91000000000001 7.501250000000013 84.81750000000001 10.081249999999997 V24.59375 Q84.81750000000001 24.59375 84.81750000000001 24.59375 Q84.81750000000001 24.59375 84.81750000000001 24.59375 H125.13 V39.42875000000001 H83.85000000000001 Z M88.365 -30.876249999999985 H110.45625 Q110.77875 -32.16624999999999 111.020625 -33.61749999999999 Q111.2625 -35.068749999999994 111.2625 -36.51999999999998 V-43.937499999999986 H85.4625 V-56.192499999999995 H111.2625 V-69.25375 H74.175 V-81.50874999999999 H111.2625 V-96.1825 Q111.2625 -96.1825 111.2625 -96.1825 Q111.2625 -96.1825 111.2625 -96.1825 H43.698750000000004 Q43.698750000000004 -96.1825 43.698750000000004 -96.1825 Q43.698750000000004 -96.1825 43.698750000000004 -96.1825 V-43.77624999999999 H54.018750000000004 Q59.017500000000005 -43.77624999999999 62.968125 -42.969999999999985 Q66.91875 -42.16374999999999 70.78875 -40.067499999999995 Q75.62625 -36.19749999999999 79.576875 -33.536874999999995 Q83.5275 -30.876249999999985 88.365 -30.876249999999985 Z M77.4 -2.8187500000000085 Q86.43 -2.8187500000000085 93.84750000000001 -7.0918749999999875 Q101.265 -11.364999999999995 105.77999999999999 -18.621250000000003 H88.365 Q83.68875 -18.621250000000003 80.14125000000001 -19.508124999999993 Q76.59375 -20.394999999999982 72.5625 -22.33 Q67.4025 -26.038749999999993 63.21000000000001 -28.779999999999987 Q59.017500000000005 -31.521249999999995 54.018750000000004 -31.521249999999995 H44.1825 Q46.11750000000001 -19.10499999999999 55.47 -10.961874999999992 Q64.8225 -2.8187500000000085 77.4 -2.8187500000000085 Z"/></g><g id="Semibold-L" transform="matrix(1 0 0 1 1970.27 1556)"><path d="M83.85000000000001 37.81625 Q78.52875 37.81625 74.900625 34.107500000000016 Q71.27250000000001 30.398750000000007 71.27250000000001 25.077500000000015 V9.75875000000002 Q54.018750000000004 7.501250000000013 42.57 -5.398749999999993 Q31.121250000000003 -18.29875 31.121250000000003 -36.036249999999995 V-95.69874999999999 Q31.121250000000003 -100.85875 34.66875 -104.486875 Q38.21625 -108.115 43.5375 -108.115 H111.42375 Q116.42250000000001 -108.115 120.05062500000001 -104.486875 Q123.67875000000001 -100.85875 123.67875000000001 -95.69874999999999 V-36.036249999999995 Q123.67875000000001 -18.29875 112.22999999999999 -5.398749999999993 Q100.78125 7.501250000000013 83.68875 9.75875000000002 V25.23875000000001 Q83.68875 25.23875000000001 83.68875 25.23875000000001 Q83.68875 25.23875000000001 83.68875 25.23875000000001 H124.00125000000001 V37.81625 H83.85000000000001 Z M89.3325 -29.263749999999987 H111.10125000000001 Q111.58500000000001 -30.715000000000003 111.82687499999999 -32.48874999999998 Q112.06875000000001 -34.26249999999999 112.06875000000001 -35.874999999999986 V-43.77624999999999 H84.81750000000001 V-54.741249999999994 H112.06875000000001 V-69.25375 H75.62625 V-80.21875 H112.06875000000001 V-96.34375 Q112.06875000000001 -96.34375 112.06875000000001 -96.34375 Q112.06875000000001 -96.34375 112.06875000000001 -96.34375 H42.892500000000005 Q42.892500000000005 -96.34375 42.892500000000005 -96.34375 Q42.892500000000005 -96.34375 42.892500000000005 -96.34375 V-42.16374999999999 H56.114999999999995 Q61.275 -42.16374999999999 65.30625 -41.035 Q69.3375 -39.906249999999986 73.04625 -37.4875 Q77.4 -33.77875 81.10875 -31.521249999999995 Q84.81750000000001 -29.263749999999987 89.3325 -29.263749999999987 Z M77.4 -1.3674999999999926 Q86.7525 -1.3674999999999926 94.573125 -5.963124999999977 Q102.39375 -10.558750000000003 106.90875 -18.13749999999999 H89.3325 Q84.65625 -18.13749999999999 80.866875 -19.26625 Q77.0775 -20.394999999999982 73.2075 -22.813749999999985 Q68.53125 -26.36125 64.66125000000001 -28.699375000000003 Q60.791250000000005 -31.037499999999994 56.114999999999995 -31.037499999999994 H43.215 Q44.988749999999996 -18.29875 54.66375 -9.833124999999995 Q64.33875 -1.3674999999999926 77.4 -1.3674999999999926 Z"/></g><g id="Medium-L" transform="matrix(1 0 0 1 1674.31 1556)"><path d="M83.85000000000001 36.36500000000001 Q79.0125 36.36500000000001 75.545625 32.97874999999999 Q72.07875000000001 29.5925 72.07875000000001 24.755000000000024 V9.597499999999997 Q54.986250000000005 7.662499999999994 43.456875 -5.156874999999985 Q31.927500000000002 -17.976249999999993 31.927500000000002 -35.552499999999995 V-96.34375 Q31.927500000000002 -100.69749999999999 34.99125 -103.84187499999999 Q38.05500000000001 -106.98625 42.57 -106.98625 H112.39125000000001 Q116.74500000000002 -106.98625 119.889375 -103.84187499999999 Q123.03375 -100.69749999999999 123.03375 -96.34375 V-35.552499999999995 Q123.03375 -17.976249999999993 111.42375 -5.156874999999985 Q99.81375 7.662499999999994 82.72125 9.597499999999997 V25.88375000000002 Q82.72125 25.88375000000002 82.72125 25.88375000000002 Q82.72125 25.88375000000002 82.72125 25.88375000000002 H123.03375 V36.36500000000001 H83.85000000000001 Z M90.13875 -27.973749999999995 H111.74625 Q112.06875000000001 -29.747500000000002 112.39125000000001 -31.68249999999999 Q112.71375000000002 -33.61749999999999 112.71375000000002 -35.552499999999995 V-43.614999999999995 H84.33375 V-53.61249999999999 H112.71375000000002 V-69.25375 H76.75500000000001 V-79.25125 H112.71375000000002 V-96.66624999999999 Q112.71375000000002 -96.66624999999999 112.71375000000002 -96.66624999999999 Q112.71375000000002 -96.66624999999999 112.71375000000002 -96.66624999999999 H42.2475 Q42.2475 -96.66624999999999 42.2475 -96.66624999999999 Q42.2475 -96.66624999999999 42.2475 -96.66624999999999 V-40.87374999999999 H57.7275 Q62.8875 -40.87374999999999 67.08 -39.583749999999995 Q71.27250000000001 -38.29374999999999 74.65875 -35.71374999999999 Q78.85125 -32.004999999999995 82.39875 -29.989374999999995 Q85.94624999999999 -27.973749999999995 90.13875 -27.973749999999995 Z M77.4 -0.4000000000000057 Q87.23625 -0.4000000000000057 95.218125 -5.156874999999985 Q103.2 -9.913749999999993 107.87625000000001 -17.976249999999993 H90.13875 Q85.30125 -17.976249999999993 81.35062500000001 -19.185624999999987 Q77.4 -20.394999999999982 73.69125000000001 -23.13624999999999 Q69.3375 -26.683750000000003 65.62875000000001 -28.779999999999987 Q61.92 -30.876249999999985 57.7275 -30.876249999999985 H42.57 Q44.34375 -17.814999999999998 54.18000000000001 -9.107499999999987 Q64.01625 -0.4000000000000057 77.4 -0.4000000000000057 Z"/></g><g id="Regular-L" transform="matrix(1 0 0 1 1378.56 1556)"><path d="M83.85000000000001 35.39750000000001 Q79.33500000000001 35.39750000000001 76.11000000000001 32.172500000000014 Q72.885 28.94749999999999 72.885 24.432500000000005 V9.436250000000015 Q55.63125 7.662499999999994 44.10187500000001 -5.0762499999999875 Q32.5725 -17.814999999999998 32.5725 -35.22999999999999 V-96.82749999999999 Q32.5725 -100.53625 35.233125 -103.2775 Q37.893750000000004 -106.01875 41.76375 -106.01875 H113.1975 Q116.90625 -106.01875 119.64750000000001 -103.2775 Q122.38875000000002 -100.53625 122.38875000000002 -96.82749999999999 V-35.22999999999999 Q122.38875000000002 -17.814999999999998 110.77875 -5.0762499999999875 Q99.16875 7.662499999999994 82.07625 9.436250000000015 V26.20625000000001 Q82.07625 26.20625000000001 82.07625 26.20625000000001 Q82.07625 26.20625000000001 82.07625 26.20625000000001 H122.38875000000002 V35.39750000000001 H83.85000000000001 Z M90.78375 -27.006249999999994 H112.06875000000001 Q112.5525 -28.941249999999997 112.875 -31.037499999999994 Q113.1975 -33.13374999999999 113.1975 -35.22999999999999 V-43.614999999999995 H84.17250000000001 V-52.80624999999999 H113.1975 V-69.41499999999999 H77.72250000000001 V-78.60624999999999 H113.1975 V-96.82749999999999 Q113.1975 -96.82749999999999 113.1975 -96.82749999999999 Q113.1975 -96.82749999999999 113.1975 -96.82749999999999 H41.76375 Q41.76375 -96.82749999999999 41.76375 -96.82749999999999 Q41.76375 -96.82749999999999 41.76375 -96.82749999999999 V-39.906249999999986 H58.85625 Q64.1775 -39.906249999999986 68.37 -38.53562499999998 Q72.5625 -37.16499999999999 75.94875 -34.26249999999999 Q79.81875000000001 -30.715000000000003 83.285625 -28.860624999999985 Q86.7525 -27.006249999999994 90.78375 -27.006249999999994 Z M77.4 0.40625 Q87.39750000000001 0.40625 95.701875 -4.592499999999987 Q104.00625000000001 -9.591249999999988 108.68250000000002 -17.814999999999998 H90.78375 Q85.94624999999999 -17.814999999999998 81.83437500000001 -19.185624999999987 Q77.72250000000001 -20.55624999999999 74.175 -23.458749999999995 Q70.14375 -27.006249999999994 66.515625 -28.860624999999985 Q62.8875 -30.715000000000003 58.85625 -30.715000000000003 H42.08625000000001 Q43.86 -17.331249999999997 53.776875000000004 -8.462500000000006 Q63.69375 0.40625 77.4 0.40625 Z"/></g><g id="Light-L" transform="matrix(1 0 0 1 1082.77 1556)"><path d="M83.85000000000001 30.560000000000002 Q79.6575 30.560000000000002 76.75500000000001 27.738124999999997 Q73.85249999999999 24.91624999999999 73.85249999999999 20.723750000000024 V6.372500000000002 Q57.7275 4.921250000000015 46.681875 -6.930624999999992 Q35.636250000000004 -18.782499999999985 35.636250000000004 -35.22999999999999 V-93.76374999999999 Q35.636250000000004 -97.4725 38.296875 -100.21374999999999 Q40.957499999999996 -102.955 44.66625 -102.955 H110.13374999999999 Q113.84249999999999 -102.955 116.58375 -100.21374999999999 Q119.325 -97.4725 119.325 -93.76374999999999 V-35.22999999999999 Q119.325 -18.782499999999985 108.19874999999999 -6.930624999999992 Q97.0725 4.921250000000015 80.9475 6.372500000000002 V21.53 Q80.9475 22.497500000000002 81.511875 23.061875000000015 Q82.07625 23.62625 83.04375 23.62625 H119.64750000000001 V30.560000000000002 H83.85000000000001 Z M90.13875 -25.877499999999998 H110.77875 Q111.42375 -28.13499999999999 111.82687499999999 -30.473124999999982 Q112.22999999999999 -32.81124999999999 112.22999999999999 -35.22999999999999 V-44.582499999999996 H85.62375 V-51.677499999999995 H112.22999999999999 V-70.3825 H79.17375 V-77.47749999999999 H112.22999999999999 V-93.76374999999999 Q112.22999999999999 -94.73124999999999 111.665625 -95.295625 Q111.10125000000001 -95.86 110.13374999999999 -95.86 H44.66625 Q43.86 -95.86 43.295625 -95.295625 Q42.73125 -94.73124999999999 42.73125 -93.76374999999999 V-38.7775 H59.98500000000001 Q64.98375 -38.7775 69.015 -37.24562499999999 Q73.04625 -35.71374999999999 76.11000000000001 -32.81124999999999 Q79.49625 -29.424999999999997 82.8825 -27.65124999999999 Q86.26875 -25.877499999999998 90.13875 -25.877499999999998 Z M77.4 -0.5612499999999869 Q87.39750000000001 -0.5612499999999869 95.540625 -5.559999999999988 Q103.68375 -10.558750000000003 108.19874999999999 -18.782499999999985 H90.13875 Q85.4625 -18.782499999999985 81.511875 -20.314375 Q77.56125 -21.846249999999998 74.33625 -24.909999999999997 Q70.95 -28.13499999999999 67.4025 -29.908749999999998 Q63.855000000000004 -31.68249999999999 59.98500000000001 -31.68249999999999 H42.73125 Q44.1825 -18.459999999999994 54.018750000000004 -9.51062499999999 Q63.855000000000004 -0.5612499999999869 77.4 -0.5612499999999869 Z"/></g><g id="Thin-L" transform="matrix(1 0 0 1 787.282 1556)"><path d="M83.85000000000001 25.88375000000002 Q80.14125000000001 25.88375000000002 77.56125 23.303750000000008 Q74.98125 20.723750000000024 74.98125 17.015000000000015 V3.3087500000000176 Q59.6625 2.3412500000000023 49.261875 -8.704374999999985 Q38.861250000000005 -19.749999999999986 38.861250000000005 -35.22999999999999 V-90.86125 Q38.861250000000005 -94.57 41.44125 -97.14999999999999 Q44.02125 -99.72999999999999 47.730000000000004 -99.72999999999999 H107.23125 Q110.94 -99.72999999999999 113.52000000000001 -97.14999999999999 Q116.10000000000001 -94.57 116.10000000000001 -90.86125 V-35.22999999999999 Q116.10000000000001 -19.911249999999995 105.61875 -8.784999999999982 Q95.1375 2.3412500000000023 79.98 3.3087500000000176 V17.015000000000015 Q79.98 18.627500000000026 81.028125 19.756249999999994 Q82.07625 20.88499999999999 83.85000000000001 20.88499999999999 H116.90625 V25.88375000000002 H83.85000000000001 Z M89.49375 -24.909999999999997 H109.48875000000001 Q110.29500000000002 -27.32875 110.77875 -29.908749999999998 Q111.2625 -32.48874999999998 111.2625 -35.22999999999999 V-45.71124999999999 H87.23625 V-50.709999999999994 H111.2625 V-71.51124999999999 H80.78625000000001 V-76.50999999999999 H111.2625 V-90.86125 Q111.2625 -92.63499999999999 110.13374999999999 -93.76374999999999 Q109.005 -94.8925 107.23125 -94.8925 H47.730000000000004 Q45.956250000000004 -94.8925 44.8275 -93.76374999999999 Q43.698750000000004 -92.63499999999999 43.698750000000004 -90.86125 V-37.81 H61.275 Q65.78999999999999 -37.81 69.579375 -36.11687499999999 Q73.36875 -34.42375 76.27125 -31.36 Q79.17375 -28.13499999999999 82.56 -26.522499999999994 Q85.94624999999999 -24.909999999999997 89.49375 -24.909999999999997 Z M77.4 -1.528749999999988 Q87.23625 -1.528749999999988 95.29875 -6.608124999999987 Q103.36125 -11.687499999999986 107.715 -19.911249999999995 H89.49375 Q85.14 -19.911249999999995 81.35062500000001 -21.523749999999993 Q77.56125 -23.13624999999999 74.65875 -26.36125 Q71.75625000000001 -29.424999999999997 68.289375 -31.118124999999992 Q64.8225 -32.81124999999999 61.275 -32.81124999999999 H43.5375 Q44.66625 -19.427499999999995 54.34125000000001 -10.478124999999991 Q64.01625 -1.528749999999988 77.4 -1.528749999999988 Z"/></g><g id="Ultralight-L" transform="matrix(1 0 0 1 491.205 1556)"><path d="M83.85000000000001 22.82000000000002 Q80.3025 22.82000000000002 78.045 20.5625 Q75.78750000000001 18.305000000000007 75.78750000000001 14.757500000000007 V1.3737500000000153 Q60.9525 0.5675000000000097 50.874375 -9.913749999999993 Q40.79625 -20.394999999999982 40.79625 -35.22999999999999 V-89.24875 Q40.79625 -92.63499999999999 43.295625 -95.295625 Q45.795 -97.95625 49.503750000000004 -97.95625 H105.61875 Q109.005 -97.95625 111.665625 -95.295625 Q114.32625000000002 -92.63499999999999 114.32625000000002 -89.24875 V-35.22999999999999 Q114.32625000000002 -20.55624999999999 104.16749999999999 -9.994374999999991 Q94.00874999999999 0.5675000000000097 79.33500000000001 1.3737500000000153 V14.112499999999997 Q79.33500000000001 16.370000000000005 80.78625000000001 17.82125000000002 Q82.2375 19.272500000000008 84.495 19.272500000000008 H115.29375 V22.82000000000002 H83.85000000000001 Z M89.17125 -24.265 H108.68250000000002 Q109.65 -26.844999999999985 110.21437499999999 -29.586249999999993 Q110.77875 -32.3275 110.77875 -35.22999999999999 V-46.5175 H88.20375000000001 V-50.065 H110.77875 V-72.3175 H81.75375000000001 V-75.865 H110.77875 V-89.24875 Q110.77875 -91.345 109.246875 -92.876875 Q107.715 -94.40875 105.61875 -94.40875 H49.503750000000004 Q47.24625 -94.40875 45.795 -92.876875 Q44.34375 -91.345 44.34375 -89.24875 V-37.16499999999999 H61.92 Q66.435 -37.16499999999999 70.063125 -35.39125 Q73.69125000000001 -33.61749999999999 76.4325 -30.553749999999994 Q79.0125 -27.32875 82.318125 -25.796874999999986 Q85.62375 -24.265 89.17125 -24.265 Z M77.4 -2.1737499999999983 Q87.23625 -2.1737499999999983 95.218125 -7.333749999999995 Q103.2 -12.493749999999991 107.3925 -20.717499999999987 H89.17125 Q84.97875 -20.717499999999987 81.27 -22.410624999999982 Q77.56125 -24.10374999999999 74.82 -27.32875 Q72.24 -30.23124999999999 68.85375 -31.924374999999998 Q65.4675 -33.61749999999999 61.92 -33.61749999999999 H44.02125 Q44.988749999999996 -20.23375 54.5025 -11.20375 Q64.01625 -2.1737499999999983 77.4 -2.1737499999999983 Z"/></g><g id="Bold-M" transform="matrix(1 0 0 1 2281.8 1126)"><path d="M65.0 23.52000000000001 Q59.75 23.52000000000001 56.125 19.89500000000001 Q52.5 16.27000000000001 52.5 11.02000000000001 V-0.10499999999998977 Q39.75 -2.8549999999999898 31.314999999999998 -12.85499999999999 Q22.875 -22.85499999999999 22.875 -36.47999999999999 V-78.60499999999999 Q22.875 -84.85499999999999 27.25 -89.29499999999999 Q31.625 -93.72999999999999 38.0 -93.72999999999999 H82.125 Q88.375 -93.72999999999999 92.81 -89.29499999999999 Q97.25 -84.85499999999999 97.25 -78.60499999999999 V-36.47999999999999 Q97.25 -22.85499999999999 88.75 -12.85499999999999 Q80.25 -2.8549999999999898 67.625 -0.10499999999998977 V8.39500000000001 Q67.625 8.39500000000001 67.625 8.39500000000001 Q67.625 8.39500000000001 67.625 8.39500000000001 H97.625 V23.52000000000001 H65.0 Z M66.875 -33.97999999999999 H83.125 Q83.25 -34.60499999999999 83.315 -35.22999999999999 Q83.375 -35.85499999999999 83.375 -36.47999999999999 V-40.85499999999999 H66.625 V-53.47999999999999 H83.375 V-60.35499999999999 H56.625 V-72.97999999999999 H83.375 V-79.85499999999999 Q83.375 -79.85499999999999 83.375 -79.85499999999999 Q83.375 -79.85499999999999 83.375 -79.85499999999999 H36.75 Q36.75 -79.85499999999999 36.75 -79.85499999999999 Q36.75 -79.85499999999999 36.75 -79.85499999999999 V-43.97999999999999 H42.5 Q46.5 -43.97999999999999 49.690000000000005 -43.10499999999999 Q52.875 -42.22999999999999 55.875 -39.97999999999999 Q58.5 -37.97999999999999 60.75 -35.97999999999999 Q63.0 -33.97999999999999 66.875 -33.97999999999999 Z M60.0 -13.22999999999999 Q65.375 -13.22999999999999 69.875 -15.419999999999987 Q74.375 -17.60499999999999 77.625 -21.35499999999999 H66.875 Q63.0 -21.35499999999999 60.065 -22.35499999999999 Q57.125 -23.35499999999999 54.0 -25.35499999999999 Q51.375 -27.35499999999999 48.94 -29.35499999999999 Q46.5 -31.35499999999999 42.5 -31.35499999999999 H37.25 Q39.125 -23.60499999999999 45.44 -18.419999999999987 Q51.75 -13.22999999999999 60.0 -13.22999999999999 Z"/></g><g id="Semibold-M" transform="matrix(1 0 0 1 1985.97 1126)"><path d="M65.0 21.77000000000001 Q60.25 21.77000000000001 56.94 18.455 Q53.625 15.14500000000001 53.625 10.52000000000001 V-0.47999999999998977 Q41.0 -2.7299999999999898 32.440000000000005 -12.60499999999999 Q23.875 -22.47999999999999 23.875 -35.97999999999999 V-79.35499999999999 Q23.875 -84.72999999999999 27.564999999999998 -88.35499999999999 Q31.25 -91.97999999999999 36.5 -91.97999999999999 H83.5 Q88.75 -91.97999999999999 92.44 -88.35499999999999 Q96.125 -84.72999999999999 96.125 -79.35499999999999 V-35.97999999999999 Q96.125 -22.47999999999999 87.56500000000001 -12.60499999999999 Q79.0 -2.7299999999999898 66.375 -0.47999999999998977 V9.14500000000001 Q66.375 9.14500000000001 66.375 9.14500000000001 Q66.375 9.14500000000001 66.375 9.14500000000001 H96.375 V21.77000000000001 H65.0 Z M68.0 -32.22999999999999 H83.875 Q84.0 -33.10499999999999 84.06 -34.04499999999999 Q84.125 -34.97999999999999 84.125 -35.97999999999999 V-40.72999999999999 H66.0 V-51.85499999999999 H84.125 V-60.35499999999999 H58.25 V-71.60499999999999 H84.125 V-80.10499999999999 Q84.125 -80.10499999999999 84.125 -80.10499999999999 Q84.125 -80.10499999999999 84.125 -80.10499999999999 H35.875 Q35.875 -80.10499999999999 35.875 -80.10499999999999 Q35.875 -80.10499999999999 35.875 -80.10499999999999 V-42.22999999999999 H44.625 Q48.75 -42.22999999999999 52.0 -41.04499999999999 Q55.25 -39.85499999999999 58.25 -37.35499999999999 Q60.375 -35.47999999999999 62.44 -33.85499999999999 Q64.5 -32.22999999999999 68.0 -32.22999999999999 Z M60.0 -11.72999999999999 Q65.875 -11.72999999999999 70.69 -14.22999999999999 Q75.5 -16.72999999999999 78.875 -20.97999999999999 H68.0 Q63.875 -20.97999999999999 60.75 -22.164999999999992 Q57.625 -23.35499999999999 54.75 -25.85499999999999 Q52.625 -27.72999999999999 50.44 -29.35499999999999 Q48.25 -30.97999999999999 44.625 -30.97999999999999 H36.375 Q38.125 -22.72999999999999 44.690000000000005 -17.22999999999999 Q51.25 -11.72999999999999 60.0 -11.72999999999999 Z"/></g><g id="Medium-M" transform="matrix(1 0 0 1 1689.91 1126)"><path d="M65.0 20.39500000000001 Q60.75 20.39500000000001 57.69 17.39500000000001 Q54.625 14.39500000000001 54.625 10.02000000000001 V-0.7299999999999898 Q41.875 -2.6049999999999898 33.31 -12.419999999999987 Q24.75 -22.22999999999999 24.75 -35.47999999999999 V-80.10499999999999 Q24.75 -84.47999999999999 27.875 -87.66999999999999 Q31.0 -90.85499999999999 35.5 -90.85499999999999 H84.5 Q89.0 -90.85499999999999 92.125 -87.66999999999999 Q95.25 -84.47999999999999 95.25 -80.10499999999999 V-35.47999999999999 Q95.25 -22.22999999999999 86.685 -12.419999999999987 Q78.125 -2.6049999999999898 65.375 -0.7299999999999898 V9.64500000000001 Q65.375 9.64500000000001 65.375 9.64500000000001 Q65.375 9.64500000000001 65.375 9.64500000000001 H95.375 V20.39500000000001 H65.0 Z M68.75 -30.85499999999999 H84.375 Q84.625 -31.97999999999999 84.75 -33.16999999999999 Q84.875 -34.35499999999999 84.875 -35.47999999999999 V-40.60499999999999 H65.625 V-50.72999999999999 H84.875 V-60.47999999999999 H59.375 V-70.60499999999999 H84.875 V-80.35499999999999 Q84.875 -80.35499999999999 84.875 -80.35499999999999 Q84.875 -80.35499999999999 84.875 -80.35499999999999 H35.125 Q35.125 -80.35499999999999 35.125 -80.35499999999999 Q35.125 -80.35499999999999 35.125 -80.35499999999999 V-40.85499999999999 H46.25 Q50.5 -40.85499999999999 53.815 -39.54499999999999 Q57.125 -38.22999999999999 60.0 -35.35499999999999 Q61.75 -33.60499999999999 63.69 -32.22999999999999 Q65.625 -30.85499999999999 68.75 -30.85499999999999 Z M60.0 -10.72999999999999 Q66.125 -10.72999999999999 71.315 -13.420000000000002 Q76.5 -16.10499999999999 79.875 -20.72999999999999 H68.75 Q64.625 -20.72999999999999 61.315 -22.10499999999999 Q58.0 -23.47999999999999 55.25 -26.22999999999999 Q53.5 -27.97999999999999 51.5 -29.35499999999999 Q49.5 -30.72999999999999 46.25 -30.72999999999999 H35.625 Q37.375 -22.10499999999999 44.19 -16.419999999999987 Q51.0 -10.72999999999999 60.0 -10.72999999999999 Z"/></g><g id="Regular-M" transform="matrix(1 0 0 1 1394.06 1126)"><path d="M65.0 19.39500000000001 Q61.0 19.39500000000001 58.19 16.585000000000008 Q55.375 13.77000000000001 55.375 9.77000000000001 V-0.8549999999999898 Q42.5 -2.6049999999999898 33.935 -12.294999999999987 Q25.375 -21.97999999999999 25.375 -35.22999999999999 V-80.60499999999999 Q25.375 -84.35499999999999 28.125 -87.16999999999999 Q30.875 -89.97999999999999 34.75 -89.97999999999999 H85.375 Q89.125 -89.97999999999999 91.935 -87.16999999999999 Q94.75 -84.35499999999999 94.75 -80.60499999999999 V-35.22999999999999 Q94.75 -21.97999999999999 86.125 -12.294999999999987 Q77.5 -2.6049999999999898 64.75 -0.8549999999999898 V10.02000000000001 Q64.75 10.02000000000001 64.75 10.02000000000001 Q64.75 10.02000000000001 64.75 10.02000000000001 H94.75 V19.39500000000001 H65.0 Z M69.375 -29.97999999999999 H84.75 Q85.0 -31.22999999999999 85.19 -32.54499999999999 Q85.375 -33.85499999999999 85.375 -35.22999999999999 V-40.60499999999999 H65.375 V-49.97999999999999 H85.375 V-60.60499999999999 H60.375 V-69.97999999999999 H85.375 V-80.60499999999999 Q85.375 -80.60499999999999 85.375 -80.60499999999999 Q85.375 -80.60499999999999 85.375 -80.60499999999999 H34.75 Q34.75 -80.60499999999999 34.75 -80.60499999999999 Q34.75 -80.60499999999999 34.75 -80.60499999999999 V-39.97999999999999 H47.5 Q51.875 -39.97999999999999 55.25 -38.47999999999999 Q58.625 -36.97999999999999 61.25 -33.97999999999999 Q62.75 -32.35499999999999 64.565 -31.169999999999987 Q66.375 -29.97999999999999 69.375 -29.97999999999999 Z M60.0 -9.97999999999999 Q66.5 -9.97999999999999 71.875 -12.85499999999999 Q77.25 -15.72999999999999 80.625 -20.60499999999999 H69.375 Q65.125 -20.60499999999999 61.75 -22.10499999999999 Q58.375 -23.60499999999999 55.625 -26.60499999999999 Q54.125 -28.22999999999999 52.315 -29.419999999999987 Q50.5 -30.60499999999999 47.5 -30.60499999999999 H35.125 Q36.875 -21.72999999999999 43.81 -15.85499999999999 Q50.75 -9.97999999999999 60.0 -9.97999999999999 Z"/></g><g id="Light-M" transform="matrix(1 0 0 1 1098.18 1126)"><path d="M65.0 15.64500000000001 Q61.5 15.64500000000001 59.0 13.210000000000008 Q56.5 10.77000000000001 56.5 7.27000000000001 V-3.2299999999999898 Q44.25 -4.47999999999999 36.0 -13.60499999999999 Q27.75 -22.72999999999999 27.75 -35.22999999999999 V-78.97999999999999 Q27.75 -82.47999999999999 30.25 -84.97999999999999 Q32.75 -87.47999999999999 36.25 -87.47999999999999 H83.75 Q87.25 -87.47999999999999 89.75 -84.97999999999999 Q92.25 -82.47999999999999 92.25 -78.97999999999999 V-35.22999999999999 Q92.25 -22.72999999999999 84.0 -13.60499999999999 Q75.75 -4.47999999999999 63.5 -3.2299999999999898 V7.14500000000001 Q63.5 7.89500000000001 63.94 8.330000000000013 Q64.375 8.77000000000001 65.0 8.77000000000001 H92.5 V15.64500000000001 H65.0 Z M69.25 -28.72999999999999 H84.375 Q84.75 -30.35499999999999 85.0 -31.919999999999987 Q85.25 -33.47999999999999 85.25 -35.22999999999999 V-41.72999999999999 H66.5 V-48.72999999999999 H85.25 V-61.72999999999999 H61.5 V-68.72999999999999 H85.25 V-78.97999999999999 Q85.25 -79.60499999999999 84.81 -80.04499999999999 Q84.375 -80.47999999999999 83.75 -80.47999999999999 H36.25 Q35.625 -80.47999999999999 35.185 -80.04499999999999 Q34.75 -79.60499999999999 34.75 -78.97999999999999 V-38.72999999999999 H47.75 Q51.75 -38.72999999999999 54.94 -37.29499999999999 Q58.125 -35.85499999999999 60.5 -32.97999999999999 Q62.125 -31.10499999999999 64.19 -29.919999999999987 Q66.25 -28.72999999999999 69.25 -28.72999999999999 Z M60.0 -9.97999999999999 Q66.75 -9.97999999999999 72.375 -13.164999999999992 Q78.0 -16.35499999999999 81.375 -21.72999999999999 H69.25 Q65.25 -21.72999999999999 62.065 -23.169999999999987 Q58.875 -24.60499999999999 56.5 -27.47999999999999 Q54.875 -29.35499999999999 52.809999999999995 -30.539999999999992 Q50.75 -31.72999999999999 47.75 -31.72999999999999 H35.0 Q36.25 -22.47999999999999 43.315 -16.22999999999999 Q50.375 -9.97999999999999 60.0 -9.97999999999999 Z"/></g><g id="Thin-M" transform="matrix(1 0 0 1 802.565 1126)"><path d="M65.0 12.02000000000001 Q61.875 12.02000000000001 59.815 9.89500000000001 Q57.75 7.77000000000001 57.75 4.64500000000001 V-5.60499999999999 Q46.125 -6.47999999999999 38.19 -14.919999999999987 Q30.25 -23.35499999999999 30.25 -35.22999999999999 V-77.35499999999999 Q30.25 -80.60499999999999 32.440000000000005 -82.85499999999999 Q34.625 -85.10499999999999 37.875 -85.10499999999999 H82.125 Q85.375 -85.10499999999999 87.625 -82.85499999999999 Q89.875 -80.60499999999999 89.875 -77.35499999999999 V-35.22999999999999 Q89.875 -23.47999999999999 81.875 -14.97999999999999 Q73.875 -6.47999999999999 62.375 -5.60499999999999 V4.27000000000001 Q62.375 5.64500000000001 63.25 6.52000000000001 Q64.125 7.39500000000001 65.375 7.39500000000001 H90.375 V12.02000000000001 H65.0 Z M69.125 -27.60499999999999 H84.0 Q84.5 -29.35499999999999 84.875 -31.294999999999987 Q85.25 -33.22999999999999 85.25 -35.22999999999999 V-42.97999999999999 H67.75 V-47.60499999999999 H85.25 V-62.97999999999999 H62.75 V-67.60499999999999 H85.25 V-77.35499999999999 Q85.25 -78.72999999999999 84.375 -79.60499999999999 Q83.5 -80.47999999999999 82.125 -80.47999999999999 H37.875 Q36.5 -80.47999999999999 35.69 -79.60499999999999 Q34.875 -78.72999999999999 34.875 -77.35499999999999 V-37.60499999999999 H48.0 Q51.625 -37.60499999999999 54.625 -36.22999999999999 Q57.625 -34.85499999999999 59.75 -32.10499999999999 Q61.5 -29.97999999999999 63.75 -28.794999999999987 Q66.0 -27.60499999999999 69.125 -27.60499999999999 Z M60.0 -10.10499999999999 Q67.125 -10.10499999999999 72.94 -13.60499999999999 Q78.75 -17.10499999999999 82.0 -22.97999999999999 H69.125 Q65.5 -22.97999999999999 62.5 -24.289999999999992 Q59.5 -25.60499999999999 57.25 -28.35499999999999 Q55.625 -30.47999999999999 53.375 -31.72999999999999 Q51.125 -32.97999999999999 48.0 -32.97999999999999 H34.875 Q35.75 -23.22999999999999 42.94 -16.669999999999987 Q50.125 -10.10499999999999 60.0 -10.10499999999999 Z"/></g><g id="Ultralight-M" transform="matrix(1 0 0 1 506.415 1126)"><path d="M65.0 9.64500000000001 Q62.25 9.64500000000001 60.375 7.77000000000001 Q58.5 5.89500000000001 58.5 3.1450000000000102 V-6.97999999999999 Q47.25 -7.60499999999999 39.5 -15.72999999999999 Q31.75 -23.85499999999999 31.75 -35.22999999999999 V-76.47999999999999 Q31.75 -79.35499999999999 33.815 -81.47999999999999 Q35.875 -83.60499999999999 38.875 -83.60499999999999 H81.25 Q84.125 -83.60499999999999 86.25 -81.47999999999999 Q88.375 -79.35499999999999 88.375 -76.47999999999999 V-35.22999999999999 Q88.375 -23.85499999999999 80.625 -15.72999999999999 Q72.875 -7.60499999999999 61.625 -6.97999999999999 V2.5200000000000102 Q61.625 4.27000000000001 62.75 5.39500000000001 Q63.875 6.52000000000001 65.625 6.52000000000001 H89.125 V9.64500000000001 H65.0 Z M69.125 -26.85499999999999 H83.75 Q84.375 -28.85499999999999 84.81 -30.97999999999999 Q85.25 -33.10499999999999 85.25 -35.22999999999999 V-43.72999999999999 H68.5 V-46.85499999999999 H85.25 V-63.72999999999999 H63.5 V-66.85499999999999 H85.25 V-76.47999999999999 Q85.25 -78.10499999999999 84.06 -79.29499999999999 Q82.875 -80.47999999999999 81.25 -80.47999999999999 H38.875 Q37.125 -80.47999999999999 36.0 -79.29499999999999 Q34.875 -78.10499999999999 34.875 -76.47999999999999 V-36.85499999999999 H48.125 Q51.625 -36.85499999999999 54.5 -35.539999999999985 Q57.375 -34.22999999999999 59.375 -31.60499999999999 Q61.125 -29.35499999999999 63.565 -28.10499999999999 Q66.0 -26.85499999999999 69.125 -26.85499999999999 Z M60.0 -10.10499999999999 Q67.375 -10.10499999999999 73.25 -13.85499999999999 Q79.125 -17.60499999999999 82.5 -23.72999999999999 H69.125 Q65.625 -23.72999999999999 62.75 -25.044999999999987 Q59.875 -26.35499999999999 57.875 -28.97999999999999 Q56.125 -31.10499999999999 53.69 -32.419999999999995 Q51.25 -33.72999999999999 48.125 -33.72999999999999 H34.875 Q35.5 -23.72999999999999 42.69 -16.919999999999987 Q49.875 -10.10499999999999 60.0 -10.10499999999999 Z"/></g><g id="Bold-S" transform="matrix(1 0 0 1 2294.23 696)"><path d="M50.8905 10.33475 Q47.046492 10.33475 44.42859 7.721582000000012 Q41.815422 5.1084140000000104 41.815422 1.2596719999999948 V-8.994171999999992 Q32.347422 -11.16707799999999 25.98966 -18.56158599999999 Q19.627164 -25.960827999999992 19.627164 -36.21467199999999 V-69.452086 Q19.627164 -74.086672 22.832082000000003 -77.34366399999999 Q26.037 -80.59592199999999 30.771 -80.59592199999999 H64.008414 Q68.643 -80.59592199999999 71.899992 -77.34366399999999 Q75.15225 -74.086672 75.15225 -69.452086 V-36.21467199999999 Q75.15225 -25.960827999999992 68.742414 -18.56158599999999 Q62.332578 -11.16707799999999 52.963992000000005 -8.994171999999992 V-0.8090859999999935 Q52.963992000000005 -0.8090859999999935 52.963992000000005 -0.8090859999999935 Q52.963992000000005 -0.8090859999999935 52.963992000000005 -0.8090859999999935 H75.450492 V10.33475 H50.8905 Z M51.184008 -33.45474999999999 H64.600164 Q64.798992 -34.046499999999995 64.893672 -34.785003999999994 Q64.99308599999999 -35.52350799999999 64.99308599999999 -36.21467199999999 V-42.82333599999999 H53.356914 V-51.99782799999999 H64.99308599999999 V-56.632414 H44.679492 V-65.802172 H64.99308599999999 V-70.441492 Q64.99308599999999 -70.441492 64.99308599999999 -70.441492 Q64.99308599999999 -70.441492 64.99308599999999 -70.441492 H29.786327999999997 Q29.786327999999997 -70.441492 29.786327999999997 -70.441492 Q29.786327999999997 -70.441492 29.786327999999997 -70.441492 V-42.92274999999999 H32.347422 Q35.703828 -42.92274999999999 38.217582 -41.93807799999999 Q40.731336 -40.948671999999995 42.705414000000005 -38.581672 Q44.679492 -36.80642199999999 46.402668 -35.13058599999999 Q48.130578 -33.45474999999999 51.184008 -33.45474999999999 Z M47.34 -18.660999999999994 Q51.283422 -18.660999999999994 54.540414000000006 -20.190081999999997 Q57.792672 -21.719164 60.259085999999996 -24.284991999999995 H51.184008 Q47.93175 -24.284991999999995 45.61209 -25.369077999999995 Q43.297164 -26.453163999999994 41.223672 -28.621335999999992 Q39.254328 -30.396585999999992 37.379664 -32.072421999999996 Q35.505 -33.752992 32.347422 -33.752992 H29.881008 Q30.870414 -27.338421999999994 35.798508 -23.00207799999999 Q40.731336 -18.660999999999994 47.34 -18.660999999999994 Z"/></g><g id="Semibold-S" transform="matrix(1 0 0 1 1998.1 696)"><path d="M50.8905 8.952421999999999 Q47.538828 8.952421999999999 45.119754 6.585421999999994 Q42.705414000000005 4.218422000000004 42.705414000000005 0.8667500000000103 V-9.292413999999994 Q33.336828 -11.067663999999994 26.874917999999997 -18.367492 Q20.413008 -25.66258599999999 20.413008 -35.821749999999994 V-70.043836 Q20.413008 -73.89257799999999 23.07825 -76.553086 Q25.743492 -79.218328 29.5875 -79.218328 H65.0925 Q68.936508 -79.218328 71.60175 -76.553086 Q74.266992 -73.89257799999999 74.266992 -70.043836 V-35.821749999999994 Q74.266992 -25.66258599999999 67.805082 -18.367492 Q61.343172 -11.067663999999994 51.974585999999995 -9.292413999999994 V-0.21733599999998887 Q51.974585999999995 -0.21733599999998887 51.974585999999995 -0.21733599999998887 Q51.974585999999995 -0.21733599999998887 51.974585999999995 -0.21733599999998887 H74.461086 V8.952421999999999 H50.8905 Z M52.074 -32.072421999999996 H65.191914 Q65.386008 -32.86299999999999 65.485422 -33.847671999999996 Q65.584836 -34.83707799999999 65.584836 -35.821749999999994 V-42.723921999999995 H52.864578 V-50.71491399999999 H65.584836 V-56.632414 H45.957672 V-64.718086 H65.584836 V-70.63558599999999 Q65.584836 -70.63558599999999 65.584836 -70.63558599999999 Q65.584836 -70.63558599999999 65.584836 -70.63558599999999 H29.095164 Q29.095164 -70.63558599999999 29.095164 -70.63558599999999 Q29.095164 -70.63558599999999 29.095164 -70.63558599999999 V-41.54042199999999 H34.027992 Q37.479078 -41.54042199999999 40.040172 -40.30958199999999 Q42.606 -39.07400799999999 44.580078 -36.512913999999995 Q46.1565 -34.83707799999999 47.732922 -33.45474999999999 Q49.314078 -32.072421999999996 52.074 -32.072421999999996 Z M47.34 -17.477499999999992 Q51.581664 -17.477499999999992 55.132164 -19.252749999999992 Q58.682664 -21.02799999999999 61.248492000000006 -23.986749999999994 H52.074 Q48.622914 -23.986749999999994 46.1565 -25.217589999999994 Q43.690085999999994 -26.453163999999994 41.815422 -29.018991999999997 Q40.239 -30.694827999999994 38.563164 -32.072421999999996 Q36.887328 -33.45474999999999 34.027992 -33.45474999999999 H29.194578 Q30.079836 -26.651991999999993 35.206758 -22.064745999999992 Q40.338414 -17.477499999999992 47.34 -17.477499999999992 Z"/></g><g id="Medium-S" transform="matrix(1 0 0 1 1701.85 696)"><path d="M50.8905 7.868335999999999 Q47.832336 7.868335999999999 45.66416400000001 5.700164000000015 Q43.495992 3.5319920000000025 43.495992 0.4738280000000117 V-9.486507999999986 Q34.027992 -10.968249999999998 27.566082 -18.216003999999998 Q21.104172000000002 -25.468491999999998 21.104172000000002 -35.428827999999996 V-70.63558599999999 Q21.104172000000002 -73.79316399999999 23.324417999999998 -76.06075 Q25.544664 -78.328336 28.796922000000002 -78.328336 H65.883078 Q69.135336 -78.328336 71.355582 -76.06075 Q73.575828 -73.79316399999999 73.575828 -70.63558599999999 V-35.428827999999996 Q73.575828 -25.468491999999998 67.113918 -18.216003999999998 Q60.652007999999995 -10.968249999999998 51.184008 -9.486507999999986 V0.1755860000000098 Q51.184008 0.1755860000000098 51.184008 0.1755860000000098 Q51.184008 0.1755860000000098 51.184008 0.1755860000000098 H73.670508 V7.868335999999999 H50.8905 Z M52.66575 -30.98833599999999 H65.584836 Q65.883078 -31.973007999999993 66.029832 -33.15650799999999 Q66.176586 -34.34000799999999 66.176586 -35.428827999999996 V-42.62450799999999 H52.56633599999999 V-49.824921999999994 H66.176586 V-56.73182799999999 H46.847664 V-63.92750799999999 H66.176586 V-70.834414 Q66.176586 -70.834414 66.176586 -70.834414 Q66.176586 -70.834414 66.176586 -70.834414 H28.503414 Q28.503414 -70.834414 28.503414 -70.834414 Q28.503414 -70.834414 28.503414 -70.834414 V-40.456335999999986 H35.306172000000004 Q38.856672 -40.456335999999986 41.46984 -39.126082 Q44.083008 -37.79582799999999 45.957672 -34.936491999999994 Q47.24058599999999 -33.35533599999999 48.722328 -32.17183599999999 Q50.199335999999995 -30.98833599999999 52.66575 -30.98833599999999 Z M47.34 -16.686921999999996 Q51.875172 -16.686921999999996 55.671839999999996 -18.613659999999996 Q59.468508 -20.535663999999997 62.034335999999996 -23.787921999999995 H52.66575 Q49.214664000000006 -23.787921999999995 46.601496 -25.170249999999996 Q43.988327999999996 -26.55257799999999 42.213077999999996 -29.312499999999993 Q40.930164000000005 -30.888921999999994 39.401082 -32.072421999999996 Q37.872 -33.25592199999999 35.306172000000004 -33.25592199999999 H28.602828 Q29.488086 -26.154921999999992 34.813836 -21.420921999999997 Q40.139585999999994 -16.686921999999996 47.34 -16.686921999999996 Z"/></g><g id="Regular-S" transform="matrix(1 0 0 1 1405.73 696)"><path d="M50.8905 7.082492000000002 Q48.031164000000004 7.082492000000002 46.057086 5.1084140000000104 Q44.083008 3.1343360000000047 44.083008 0.2750000000000057 V-9.585921999999997 Q34.520328 -10.968249999999998 28.058418 -18.116589999999988 Q21.596508 -25.269664 21.596508 -35.22999999999999 V-71.02850799999999 Q21.596508 -73.69375 23.523246 -75.66782799999999 Q25.44525 -77.63717199999999 28.205172 -77.63717199999999 H66.569508 Q69.23475 -77.63717199999999 71.208828 -75.66782799999999 Q73.178172 -73.69375 73.178172 -71.02850799999999 V-35.22999999999999 Q73.178172 -25.269664 66.668922 -18.116589999999988 Q60.159672 -10.968249999999998 50.691672000000004 -9.585921999999997 V0.4738280000000117 Q50.691672000000004 0.4738280000000117 50.691672000000004 0.4738280000000117 Q50.691672000000004 0.4738280000000117 50.691672000000004 0.4738280000000117 H73.178172 V7.082492000000002 H50.8905 Z M53.158086 -30.297171999999996 H65.883078 Q66.176586 -31.385991999999995 66.375414 -32.66417199999999 Q66.569508 -33.94708599999999 66.569508 -35.22999999999999 V-42.62450799999999 H52.367507999999994 V-49.233171999999996 H66.569508 V-56.82650799999999 H47.633508 V-63.435171999999994 H66.569508 V-71.02850799999999 Q66.569508 -71.02850799999999 66.569508 -71.02850799999999 Q66.569508 -71.02850799999999 66.569508 -71.02850799999999 H28.205172 Q28.205172 -71.02850799999999 28.205172 -71.02850799999999 Q28.205172 -71.02850799999999 28.205172 -71.02850799999999 V-39.76517199999999 H36.295578 Q39.945492 -39.76517199999999 42.606 -38.288163999999995 Q45.266507999999995 -36.80642199999999 46.947078 -33.847671999999996 Q48.031164000000004 -32.370664 49.413492000000005 -31.33391799999999 Q50.79108599999999 -30.297171999999996 53.158086 -30.297171999999996 Z M47.34 -16.09517199999999 Q52.074 -16.09517199999999 56.069495999999994 -18.168663999999993 Q60.064992000000004 -20.237421999999995 62.626085999999994 -23.68850799999999 H53.158086 Q49.607586 -23.68850799999999 46.947078 -25.170249999999996 Q44.281836 -26.651991999999993 42.506586 -29.60600799999999 Q41.4225 -31.087749999999993 40.040172 -32.12449599999999 Q38.662577999999996 -33.15650799999999 36.295578 -33.15650799999999 H28.205172 Q29.095164 -25.861413999999996 34.520328 -20.980659999999993 Q39.945492 -16.09517199999999 47.34 -16.09517199999999 Z"/></g><g id="Light-S" transform="matrix(1 0 0 1 1109.75 696)"><path d="M50.8905 4.119008000000008 Q48.424085999999996 4.119008000000008 46.70091 2.443172000000004 Q44.973 0.7673360000000002 44.973 -1.699078 V-11.460585999999992 Q35.897922 -12.449991999999995 29.686913999999998 -19.15333599999999 Q23.471172 -25.861413999999996 23.471172 -35.22999999999999 V-69.750328 Q23.471172 -72.212008 25.199082 -73.93991799999999 Q26.926992 -75.66782799999999 29.388672 -75.66782799999999 H65.291328 Q67.753008 -75.66782799999999 69.480918 -73.93991799999999 Q71.208828 -72.212008 71.208828 -69.750328 V-35.22999999999999 Q71.208828 -25.861413999999996 64.99308599999999 -19.15333599999999 Q58.782078 -12.449991999999995 49.707 -11.460585999999992 V-1.7984919999999818 Q49.707 -1.2020079999999922 50.052582 -0.8611599999999839 Q50.398164 -0.515578000000005 50.8905 -0.515578000000005 H71.402922 V4.119008000000008 H50.8905 Z M53.058672 -29.312499999999993 H65.584836 Q65.98249200000001 -30.694827999999994 66.22866 -32.17183599999999 Q66.474828 -33.653577999999996 66.474828 -35.22999999999999 V-43.51449999999999 H53.2575 V-48.24849999999999 H66.474828 V-57.716499999999996 H48.5235 V-62.45049999999999 H66.474828 V-69.750328 Q66.474828 -70.24266399999999 66.129246 -70.588246 Q65.783664 -70.93382799999999 65.291328 -70.93382799999999 H29.388672 Q28.896336 -70.93382799999999 28.550753999999998 -70.588246 Q28.205172 -70.24266399999999 28.205172 -69.750328 V-38.780499999999996 H36.489672 Q39.846078 -38.780499999999996 42.359832000000004 -37.350832 Q44.873585999999996 -35.921164 46.355328 -33.06182799999999 Q47.538828 -31.385991999999995 49.11525 -30.349245999999994 Q50.691672000000004 -29.312499999999993 53.058672 -29.312499999999993 Z M47.34 -16.09517199999999 Q52.367507999999994 -16.09517199999999 56.514492000000004 -18.41483199999999 Q60.652007999999995 -20.734491999999996 63.217836 -24.57849999999999 H53.058672 Q49.707 -24.57849999999999 47.193245999999995 -26.00816799999999 Q44.679492 -27.43783599999999 43.19775 -30.297171999999996 Q42.01425 -31.973007999999993 40.437827999999996 -33.009753999999994 Q38.856672 -34.046499999999995 36.489672 -34.046499999999995 H28.110491999999997 Q28.602828 -26.453163999999994 34.122672 -21.27416799999999 Q39.64725 -16.09517199999999 47.34 -16.09517199999999 Z"/></g><g id="Thin-S" transform="matrix(1 0 0 1 814.015 696)"><path d="M50.8905 1.2596719999999948 Q48.817007999999994 1.2596719999999948 47.38734 -0.1699959999999976 Q45.957672 -1.5996640000000042 45.957672 -3.7678359999999884 V-13.335249999999988 Q37.379664 -14.026414000000003 31.41009 -20.190081999999997 Q25.44525 -26.35374999999999 25.44525 -35.22999999999999 V-68.46741399999999 Q25.44525 -70.63558599999999 26.974332 -72.212008 Q28.503414 -73.79316399999999 30.671586 -73.79316399999999 H64.008414 Q66.176586 -73.79316399999999 67.753008 -72.212008 Q69.334164 -70.63558599999999 69.334164 -68.46741399999999 V-35.22999999999999 Q69.334164 -26.453163999999994 63.31725 -20.237421999999995 Q57.300335999999994 -14.026414000000003 48.817007999999994 -13.335249999999988 V-4.0660780000000045 Q48.817007999999994 -2.981991999999991 49.508172 -2.2908280000000047 Q50.199335999999995 -1.5996640000000042 51.184008 -1.5996640000000042 H69.727086 V1.2596719999999948 H50.8905 Z M52.963992000000005 -28.422507999999993 H65.291328 Q65.783664 -29.90424999999999 66.129246 -31.67949999999999 Q66.474828 -33.45474999999999 66.474828 -35.22999999999999 V-44.499171999999994 H54.242172000000004 V-47.35850799999999 H66.474828 V-58.70117199999999 H49.508172 V-61.560508 H66.474828 V-68.46741399999999 Q66.474828 -69.55149999999999 65.783664 -70.24266399999999 Q65.0925 -70.93382799999999 64.008414 -70.93382799999999 H30.671586 Q29.5875 -70.93382799999999 28.948410000000003 -70.24266399999999 Q28.304586 -69.55149999999999 28.304586 -68.46741399999999 V-37.89050799999999 H36.6885 Q39.746664 -37.89050799999999 42.11366400000001 -36.512913999999995 Q44.480664000000004 -35.13058599999999 45.763578 -32.370664 Q47.046492 -30.495999999999995 48.817007999999994 -29.459253999999994 Q50.596992 -28.422507999999993 52.963992000000005 -28.422507999999993 Z M47.34 -16.194585999999987 Q52.66575 -16.194585999999987 56.954754 -18.760413999999997 Q61.248492000000006 -21.321507999999987 63.710172 -25.563171999999994 H52.963992000000005 Q49.905828 -25.563171999999994 47.538828 -26.898159999999997 Q45.171828 -28.228413999999994 43.7895 -30.98833599999999 Q42.606 -32.86299999999999 40.83075 -33.94708599999999 Q39.0555 -35.03117199999999 36.6885 -35.03117199999999 H28.011077999999998 Q28.205172 -27.044914 33.829164 -21.619749999999996 Q39.448422 -16.194585999999987 47.34 -16.194585999999987 Z"/></g><g id="Ultralight-S" transform="matrix(1 0 0 1 517.792 696)"><path d="M50.8905 -0.6149919999999867 Q49.01583599999999 -0.6149919999999867 47.784996 -1.8458320000000015 Q46.549422 -3.076671999999988 46.549422 -4.9513359999999835 V-14.419335999999987 Q38.264922 -14.911671999999996 32.446836 -20.829171999999993 Q26.62875 -26.746671999999997 26.62875 -35.22999999999999 V-67.77624999999999 Q26.62875 -69.750328 28.011077999999998 -71.17999599999999 Q29.388672 -72.609664 31.462163999999998 -72.609664 H63.31725 Q65.291328 -72.609664 66.720996 -71.17999599999999 Q68.150664 -69.750328 68.150664 -67.77624999999999 V-35.22999999999999 Q68.150664 -26.746671999999997 62.332578 -20.829171999999993 Q56.514492000000004 -14.911671999999996 48.229992 -14.419335999999987 V-5.443671999999992 Q48.229992 -4.0660780000000045 49.11525 -3.1760859999999838 Q50.000507999999996 -2.2908280000000047 51.382836 -2.2908280000000047 H68.742414 V-0.6149919999999867 H50.8905 Z M52.963992000000005 -27.835491999999995 H65.0925 Q65.68425 -29.511327999999992 66.077172 -31.433331999999993 Q66.474828 -33.35533599999999 66.474828 -35.22999999999999 V-45.09092199999999 H54.833922 V-46.771491999999995 H66.474828 V-59.29292199999999 H50.099922 V-60.97349199999999 H66.474828 V-67.77624999999999 Q66.474828 -69.059164 65.53749599999999 -69.996496 Q64.600164 -70.93382799999999 63.31725 -70.93382799999999 H31.462163999999998 Q30.079836 -70.93382799999999 29.194578 -69.996496 Q28.304586 -69.059164 28.304586 -67.77624999999999 V-37.303492 H36.787914 Q39.746664 -37.303492 42.01425 -35.968503999999996 Q44.281836 -34.63824999999999 45.46533599999999 -31.973007999999993 Q46.74825 -30.003664 48.622914 -28.919577999999994 Q50.497578 -27.835491999999995 52.963992000000005 -27.835491999999995 Z M47.34 -16.194585999999987 Q52.765164000000006 -16.194585999999987 57.153582 -18.95450799999999 Q61.542 -21.719164 64.107828 -26.154921999999992 H52.963992000000005 Q50.000507999999996 -26.154921999999992 47.732922 -27.489909999999995 Q45.46533599999999 -28.820164 44.281836 -31.48067199999999 Q42.998922 -33.35533599999999 41.128992000000004 -34.49149599999999 Q39.254328 -35.622921999999996 36.787914 -35.622921999999996 H28.011077999999998 Q28.011077999999998 -27.43783599999999 33.630336 -21.818577999999995 Q39.254328 -16.194585999999987 47.34 -16.194585999999987 Z"/></g></g></svg>