<svg xmlns="http://www.w3.org/2000/svg" version="1.1" width="3300" height="2000"><g id="Notes"><style>
    text {
      font-family: monospace;
      text-anchor: middle;
    }
    text.emphasis {
      font-weight:bold;
    }
    text.lanchor {
      text-anchor: start;
    }
  </style><rect height="2200" id="artboard" fill="white" width="3300" x="0" y="0"/><line id="" style="fill:none;stroke:black;stroke-width:0.5;" x1="263" x2="3036" y1="292" y2="292"/><text class="lanchor emphasis" transform="matrix(1 0 0 1 263 322)">Weight/Scale Variations</text><text transform="matrix(1 0 0 1 559.711 322)">Ultralight</text><text transform="matrix(1 0 0 1 856.422 322)">Thin</text><text transform="matrix(1 0 0 1 1153.13 322)">Light</text><text transform="matrix(1 0 0 1 1449.84 322)">Regular</text><text transform="matrix(1 0 0 1 1746.56 322)">Medium</text><text transform="matrix(1 0 0 1 2043.27 322)">Semibold</text><text transform="matrix(1 0 0 1 2339.98 322)">Bold</text><text transform="matrix(1 0 0 1 2636.69 322)">Heavy</text><text transform="matrix(1 0 0 1 2933.4 322)">Black</text><text id="template-version" style="text-anchor: end;" transform="matrix(1 0 0 1 3036 1933)">Template v.1.0</text><text class="lanchor" transform="matrix(1 0 0 1 263 726)">Small</text><text class="lanchor" transform="matrix(1 0 0 1 263 1156)">Medium</text><text class="lanchor" transform="matrix(1 0 0 1 263 1586)">Large</text></g><g id="Guides"><g id="H-reference" style="fill:#27AAE1;stroke:none;" transform="matrix(1 0 0 1 339 696)"><path d="M 54.9316 0 L 57.666 0 L 30.5664 -70.459 L 28.0762 -70.459 L 0.976562 0 L 3.66211 0 L 12.9395 -24.4629 L 45.7031 -24.4629 Z M 29.1992 -67.0898 L 29.4434 -67.0898 L 44.8242 -26.709 L 13.8184 -26.709 Z"/></g><line id="Baseline-S" style="fill:none;stroke:#27AAE1;opacity:1;stroke-width:0.577;" x1="263" x2="3036" y1="696" y2="696"/><line id="Capline-S" style="fill:none;stroke:#27AAE1;opacity:1;stroke-width:0.577;" x1="263" x2="3036" y1="625.541" y2="625.541"/><g id="H-reference" style="fill:#27AAE1;stroke:none;" transform="matrix(1 0 0 1 339 1126)"><path d="M 54.9316 0 L 57.666 0 L 30.5664 -70.459 L 28.0762 -70.459 L 0.976562 0 L 3.66211 0 L 12.9395 -24.4629 L 45.7031 -24.4629 Z M 29.1992 -67.0898 L 29.4434 -67.0898 L 44.8242 -26.709 L 13.8184 -26.709 Z"/></g><line id="Baseline-M" style="fill:none;stroke:#27AAE1;opacity:1;stroke-width:0.577;" x1="263" x2="3036" y1="1126" y2="1126"/><line id="Capline-M" style="fill:none;stroke:#27AAE1;opacity:1;stroke-width:0.577;" x1="263" x2="3036" y1="1055.54" y2="1055.54"/><g id="H-reference" style="fill:#27AAE1;stroke:none;" transform="matrix(1 0 0 1 339 1556)"><path d="M 54.9316 0 L 57.666 0 L 30.5664 -70.459 L 28.0762 -70.459 L 0.976562 0 L 3.66211 0 L 12.9395 -24.4629 L 45.7031 -24.4629 Z M 29.1992 -67.0898 L 29.4434 -67.0898 L 44.8242 -26.709 L 13.8184 -26.709 Z"/></g><line id="Baseline-L" style="fill:none;stroke:#27AAE1;opacity:1;stroke-width:0.577;" x1="263" x2="3036" y1="1556" y2="1556"/><line id="Capline-L" style="fill:none;stroke:#27AAE1;opacity:1;stroke-width:0.577;" x1="263" x2="3036" y1="1485.54" y2="1485.54"/><rect height="119.336" id="left-margin" style="fill:darkred;stroke:none;opacity:0.4;" width="12.4512" x="1394.06" y="1030.79"/><rect height="119.336" id="right-margin" style="fill:darkgreen;stroke:none;opacity:0.4;" width="12.4512" x="1502.5112" y="1030.79"/><rect x="1406.5112" y="1045" width="96" height="96" fill="none" stroke="blue" stroke-dasharray="5"/><rect x="1394.06" y="1030.79" width="120.9024" height="119.336" fill="none" stroke="blue"/></g><g id="Symbols"><g id="Bold-L" transform="matrix(1 0 0 1 2266 1556)"><path d="M70.14375 9.920000000000002 V-42.0025 H37.0875 Q33.37875 -42.0025 31.121250000000003 -44.985624999999985 Q28.86375 -47.968749999999986 29.992500000000003 -51.677499999999995 L43.05375 -93.925 Q44.505 -98.60125 48.53625 -101.50375 Q52.5675 -104.40625 57.24375 -104.40625 H97.55625 Q102.2325 -104.40625 106.26375000000002 -101.50375 Q110.29500000000002 -98.60125 111.90750000000001 -93.925 L124.96875 -51.677499999999995 Q125.93625 -47.968749999999986 123.67875000000001 -44.985624999999985 Q121.42125 -42.0025 117.7125 -42.0025 H84.81750000000001 V9.920000000000002 H70.14375 Z M46.923750000000005 -56.83749999999999 H107.87625000000001 L97.7175 -89.73249999999999 Q97.7175 -89.73249999999999 97.7175 -89.73249999999999 Q97.7175 -89.73249999999999 97.7175 -89.73249999999999 H57.082499999999996 Q57.082499999999996 -89.73249999999999 57.082499999999996 -89.73249999999999 Q57.082499999999996 -89.73249999999999 57.082499999999996 -89.73249999999999 L46.923750000000005 -56.83749999999999 Z M50.79375 34.43000000000001 V19.595 H104.16749999999999 V34.43000000000001 H50.79375 Z"/></g><g id="Semibold-L" transform="matrix(1 0 0 1 1970.27 1556)"><path d="M70.78875 9.436250000000015 V-41.51875 H36.926249999999996 Q33.54 -41.51875 31.44375 -44.17937499999999 Q29.3475 -46.84 30.47625 -50.226249999999986 L43.698750000000004 -93.28 Q45.15 -97.4725 48.778125 -100.13312499999999 Q52.40625 -102.79374999999999 56.760000000000005 -102.79374999999999 H98.03999999999999 Q102.39375 -102.79374999999999 106.02187500000001 -100.13312499999999 Q109.65 -97.4725 111.2625 -93.28 L124.48500000000001 -50.226249999999986 Q125.4525 -46.84 123.35625 -44.17937499999999 Q121.26 -41.51875 117.87375 -41.51875 H84.17250000000001 V9.436250000000015 H70.78875 Z M45.795 -54.902499999999996 H109.005 L98.20125 -89.41 Q98.20125 -89.41 98.20125 -89.41 Q98.20125 -89.41 98.20125 -89.41 H56.59875 Q56.59875 -89.41 56.59875 -89.41 Q56.59875 -89.41 56.59875 -89.41 L45.795 -54.902499999999996 Z M51.43875 32.65625 V19.111250000000013 H103.52250000000001 V32.65625 H51.43875 Z"/></g><g id="Medium-L" transform="matrix(1 0 0 1 1674.31 1556)"><path d="M71.27250000000001 9.11375000000001 V-41.035 H36.765 Q33.54 -41.035 31.605000000000004 -43.614999999999995 Q29.669999999999998 -46.19499999999999 30.798750000000002 -49.0975 L44.34375 -92.79624999999999 Q45.4725 -96.66624999999999 48.85875 -99.16562499999999 Q52.245 -101.66499999999999 56.27625 -101.66499999999999 H98.52375 Q102.555 -101.66499999999999 105.94125000000001 -99.16562499999999 Q109.3275 -96.66624999999999 110.61749999999999 -92.79624999999999 L124.16250000000001 -49.0975 Q125.13 -46.19499999999999 123.19500000000001 -43.614999999999995 Q121.26 -41.035 118.03500000000001 -41.035 H83.68875 V9.11375000000001 H71.27250000000001 Z M45.15 -53.45124999999999 H109.65 L98.685 -89.24875 Q98.685 -89.24875 98.685 -89.24875 Q98.685 -89.24875 98.685 -89.24875 H56.114999999999995 Q56.114999999999995 -89.24875 56.114999999999995 -89.24875 Q56.114999999999995 -89.24875 56.114999999999995 -89.24875 L45.15 -53.45124999999999 Z M51.92250000000001 31.205000000000013 V18.78875000000002 H103.03875000000001 V31.205000000000013 H51.92250000000001 Z"/></g><g id="Regular-L" transform="matrix(1 0 0 1 1378.56 1556)"><path d="M71.595 8.791250000000005 V-40.71249999999999 H36.60375 Q33.70125 -40.71249999999999 31.846875 -43.131249999999994 Q29.992500000000003 -45.55 30.96 -48.29124999999999 L44.66625 -92.47375 Q45.795 -96.1825 48.939375000000005 -98.520625 Q52.083749999999995 -100.85875 55.95375000000001 -100.85875 H98.84625 Q102.71625 -100.85875 105.86062500000001 -98.520625 Q109.005 -96.1825 110.29500000000002 -92.47375 L123.84 -48.29124999999999 Q124.80750000000002 -45.55 122.953125 -43.131249999999994 Q121.09875 -40.71249999999999 118.19624999999999 -40.71249999999999 H83.36625000000001 V8.791250000000005 H71.595 Z M44.505 -52.48375 H110.29500000000002 L99.00750000000001 -89.08749999999999 Q99.00750000000001 -89.08749999999999 99.00750000000001 -89.08749999999999 Q99.00750000000001 -89.08749999999999 99.00750000000001 -89.08749999999999 H55.792500000000004 Q55.792500000000004 -89.08749999999999 55.792500000000004 -89.08749999999999 Q55.792500000000004 -89.08749999999999 55.792500000000004 -89.08749999999999 L44.505 -52.48375 Z M52.245 30.23750000000001 V18.466250000000002 H102.71625 V30.23750000000001 H52.245 Z"/></g><g id="Light-L" transform="matrix(1 0 0 1 1082.77 1556)"><path d="M72.72375000000001 8.791250000000005 V-40.71249999999999 H40.635 Q37.893750000000004 -40.71249999999999 36.12 -43.050625 Q34.346250000000005 -45.38874999999999 35.31375 -47.968749999999986 L47.085 -86.34625 Q48.21375 -89.89375 51.2775 -92.15125 Q54.34125000000001 -94.40875 58.050000000000004 -94.40875 H96.75 Q100.45875 -94.40875 103.52250000000001 -92.15125 Q106.58624999999999 -89.89375 107.87625000000001 -86.34625 L119.48625 -47.968749999999986 Q120.45375000000001 -45.38874999999999 118.67999999999999 -43.050625 Q116.90625 -40.71249999999999 114.16499999999999 -40.71249999999999 H82.2375 V8.791250000000005 H72.72375000000001 Z M45.63375 -50.065 H109.16625 L98.84625 -83.60499999999999 Q98.52375 -84.25 98.03999999999999 -84.65312499999999 Q97.55625 -85.05624999999999 96.91125000000001 -85.05624999999999 H57.88875 Q57.24375 -85.05624999999999 56.760000000000005 -84.65312499999999 Q56.27625 -84.25 56.114999999999995 -83.60499999999999 L45.63375 -50.065 Z M53.37375 27.01249999999999 V17.659999999999997 H101.5875 V27.01249999999999 H53.37375 Z"/></g><g id="Thin-L" transform="matrix(1 0 0 1 787.282 1556)"><path d="M74.01375 8.791250000000005 V-40.71249999999999 H44.8275 Q42.08625000000001 -40.71249999999999 40.393125000000005 -42.969999999999985 Q38.7 -45.22749999999999 39.50625 -47.80749999999999 L49.665 -80.0575 Q50.79375 -83.44375 53.69625 -85.70124999999999 Q56.59875 -87.95875 60.146249999999995 -87.95875 H94.65375 Q98.20125 -87.95875 101.10375 -85.70124999999999 Q104.00625000000001 -83.44375 105.29625 -80.0575 L115.29375 -47.80749999999999 Q116.10000000000001 -45.22749999999999 114.40687500000001 -42.969999999999985 Q112.71375000000002 -40.71249999999999 109.97250000000001 -40.71249999999999 H80.9475 V8.791250000000005 H74.01375 Z M46.923750000000005 -47.80749999999999 H107.87625000000001 L98.685 -78.1225 Q98.20125 -79.25125 97.153125 -80.0575 Q96.105 -80.86375 94.815 -80.86375 H60.146249999999995 Q58.695 -80.86375 57.646875 -80.0575 Q56.59875 -79.25125 56.27625 -78.1225 L46.923750000000005 -47.80749999999999 Z M54.66375 23.787499999999994 V16.692500000000024 H100.29750000000001 V23.787499999999994 H54.66375 Z"/></g><g id="Ultralight-L" transform="matrix(1 0 0 1 491.205 1556)"><path d="M74.65875 8.791250000000005 V-40.71249999999999 H47.24625 Q44.66625 -40.71249999999999 42.973124999999996 -42.88937499999999 Q41.28 -45.06625 42.08625000000001 -47.646249999999995 L51.11625 -76.34875 Q52.245 -79.735 55.066874999999996 -81.911875 Q57.88875 -84.08875 61.43625 -84.08875 H93.36375 Q96.91125000000001 -84.08875 99.733125 -81.911875 Q102.555 -79.735 103.84500000000001 -76.34875 L112.71375000000002 -47.646249999999995 Q113.52000000000001 -45.06625 111.82687499999999 -42.88937499999999 Q110.13374999999999 -40.71249999999999 107.55375000000001 -40.71249999999999 H80.3025 V8.791250000000005 H74.65875 Z M47.56875 -46.35624999999999 H107.23125 L98.52375 -74.73624999999998 Q97.87875000000001 -76.34875 96.508125 -77.396875 Q95.1375 -78.445 93.525 -78.445 H61.43625 Q59.6625 -78.445 58.291875 -77.396875 Q56.92124999999999 -76.34875 56.4375 -74.73624999999998 L47.56875 -46.35624999999999 Z M55.308749999999996 21.85250000000002 V16.20875000000001 H99.6525 V21.85250000000002 H55.308749999999996 Z"/></g><g id="Bold-M" transform="matrix(1 0 0 1 2281.8 1126)"><path d="M51.5 -0.9799999999999898 V-39.60499999999999 H30.5 Q26.125 -39.60499999999999 23.625 -43.039999999999985 Q21.125 -46.47999999999999 22.375 -50.72999999999999 L31.125 -78.85499999999999 Q32.75 -84.22999999999999 37.25 -87.54499999999999 Q41.75 -90.85499999999999 47.375 -90.85499999999999 H72.625 Q78.25 -90.85499999999999 82.75 -87.54499999999999 Q87.25 -84.22999999999999 88.875 -78.85499999999999 L97.625 -50.72999999999999 Q98.875 -46.47999999999999 96.375 -43.039999999999985 Q93.875 -39.60499999999999 89.5 -39.60499999999999 H68.5 V-0.9799999999999898 H51.5 Z M42.0 -56.60499999999999 H78.0 L72.625 -73.85499999999999 Q72.625 -73.85499999999999 72.625 -73.85499999999999 Q72.625 -73.85499999999999 72.625 -73.85499999999999 H47.375 Q47.375 -73.85499999999999 47.375 -73.85499999999999 Q47.375 -73.85499999999999 47.375 -73.85499999999999 L42.0 -56.60499999999999 Z M36.5 21.02000000000001 V4.02000000000001 H83.5 V21.02000000000001 H36.5 Z"/></g><g id="Semibold-M" transform="matrix(1 0 0 1 1985.97 1126)"><path d="M52.375 -1.3549999999999898 V-39.22999999999999 H30.25 Q26.375 -39.22999999999999 24.125 -42.29499999999999 Q21.875 -45.35499999999999 23.0 -49.22999999999999 L32.0 -78.22999999999999 Q33.5 -83.10499999999999 37.565 -86.10499999999999 Q41.625 -89.10499999999999 46.625 -89.10499999999999 H73.375 Q78.375 -89.10499999999999 82.44 -86.10499999999999 Q86.5 -83.10499999999999 88.0 -78.22999999999999 L97.0 -49.22999999999999 Q98.125 -45.35499999999999 95.875 -42.29499999999999 Q93.625 -39.22999999999999 89.75 -39.22999999999999 H67.625 V-1.3549999999999898 H52.375 Z M40.75 -54.47999999999999 H79.25 L73.375 -73.72999999999999 Q73.375 -73.72999999999999 73.375 -73.72999999999999 Q73.375 -73.72999999999999 73.375 -73.72999999999999 H46.625 Q46.625 -73.72999999999999 46.625 -73.72999999999999 Q46.625 -73.72999999999999 46.625 -73.72999999999999 L40.75 -54.47999999999999 Z M37.375 19.02000000000001 V3.6450000000000102 H82.625 V19.02000000000001 H37.375 Z"/></g><g id="Medium-M" transform="matrix(1 0 0 1 1689.91 1126)"><path d="M52.875 -1.6049999999999898 V-38.85499999999999 H30.125 Q26.5 -38.85499999999999 24.439999999999998 -41.72999999999999 Q22.375 -44.60499999999999 23.375 -48.10499999999999 L32.625 -77.85499999999999 Q34.125 -82.22999999999999 37.81 -85.04499999999999 Q41.5 -87.85499999999999 46.125 -87.85499999999999 H73.875 Q78.5 -87.85499999999999 82.19 -85.04499999999999 Q85.875 -82.22999999999999 87.375 -77.85499999999999 L96.625 -48.10499999999999 Q97.625 -44.60499999999999 95.565 -41.72999999999999 Q93.5 -38.85499999999999 89.875 -38.85499999999999 H67.125 V-1.6049999999999898 H52.875 Z M39.75 -52.97999999999999 H80.25 L73.875 -73.60499999999999 Q73.875 -73.60499999999999 73.875 -73.60499999999999 Q73.875 -73.60499999999999 73.875 -73.60499999999999 H46.125 Q46.125 -73.60499999999999 46.125 -73.60499999999999 Q46.125 -73.60499999999999 46.125 -73.60499999999999 L39.75 -52.97999999999999 Z M37.875 17.52000000000001 V3.3950000000000102 H82.125 V17.52000000000001 H37.875 Z"/></g><g id="Regular-M" transform="matrix(1 0 0 1 1394.06 1126)"><path d="M53.375 -1.8549999999999898 V-38.60499999999999 H30.0 Q26.625 -38.60499999999999 24.689999999999998 -41.29499999999999 Q22.75 -43.97999999999999 23.75 -47.22999999999999 L33.125 -77.47999999999999 Q34.5 -81.60499999999999 37.94 -84.22999999999999 Q41.375 -86.85499999999999 45.75 -86.85499999999999 H74.25 Q78.625 -86.85499999999999 82.065 -84.22999999999999 Q85.5 -81.60499999999999 86.875 -77.47999999999999 L96.25 -47.22999999999999 Q97.25 -43.97999999999999 95.31 -41.29499999999999 Q93.375 -38.60499999999999 90.0 -38.60499999999999 H66.625 V-1.8549999999999898 H53.375 Z M39.0 -51.85499999999999 H81.0 L74.25 -73.60499999999999 Q74.25 -73.60499999999999 74.25 -73.60499999999999 Q74.25 -73.60499999999999 74.25 -73.60499999999999 H45.75 Q45.75 -73.60499999999999 45.75 -73.60499999999999 Q45.75 -73.60499999999999 45.75 -73.60499999999999 L39.0 -51.85499999999999 Z M38.375 16.39500000000001 V3.1450000000000102 H81.625 V16.39500000000001 H38.375 Z"/></g><g id="Light-M" transform="matrix(1 0 0 1 1098.18 1126)"><path d="M54.625 -1.8549999999999898 V-38.60499999999999 H32.75 Q29.625 -38.60499999999999 27.810000000000002 -41.10499999999999 Q26.0 -43.60499999999999 26.875 -46.60499999999999 L35.25 -73.10499999999999 Q36.5 -76.97999999999999 39.69 -79.41999999999999 Q42.875 -81.85499999999999 46.875 -81.85499999999999 H73.125 Q77.125 -81.85499999999999 80.31 -79.41999999999999 Q83.5 -76.97999999999999 84.75 -73.10499999999999 L93.125 -46.60499999999999 Q94.0 -43.60499999999999 92.19 -41.10499999999999 Q90.375 -38.60499999999999 87.25 -38.60499999999999 H65.375 V-1.8549999999999898 H54.625 Z M39.0 -49.35499999999999 H81.0 L74.625 -69.97999999999999 Q74.5 -70.47999999999999 74.06 -70.79499999999999 Q73.625 -71.10499999999999 73.125 -71.10499999999999 H46.875 Q46.375 -71.10499999999999 45.940000000000005 -70.79499999999999 Q45.5 -70.47999999999999 45.375 -69.97999999999999 L39.0 -49.35499999999999 Z M39.625 13.89500000000001 V3.1450000000000102 H80.375 V13.89500000000001 H39.625 Z"/></g><g id="Thin-M" transform="matrix(1 0 0 1 802.565 1126)"><path d="M55.875 -1.8549999999999898 V-38.60499999999999 H35.5 Q32.625 -38.60499999999999 30.939999999999998 -40.97999999999999 Q29.25 -43.35499999999999 30.125 -45.97999999999999 L37.25 -68.85499999999999 Q38.5 -72.35499999999999 41.375 -74.60499999999999 Q44.25 -76.85499999999999 48.0 -76.85499999999999 H72.0 Q75.75 -76.85499999999999 78.625 -74.60499999999999 Q81.5 -72.35499999999999 82.75 -68.85499999999999 L89.875 -45.97999999999999 Q90.75 -43.35499999999999 89.06 -40.97999999999999 Q87.375 -38.60499999999999 84.5 -38.60499999999999 H64.125 V-1.8549999999999898 H55.875 Z M39.0 -46.85499999999999 H81.0 L74.875 -66.35499999999999 Q74.625 -67.35499999999999 73.815 -67.97999999999999 Q73.0 -68.60499999999999 72.0 -68.60499999999999 H48.0 Q47.0 -68.60499999999999 46.19 -67.97999999999999 Q45.375 -67.35499999999999 45.125 -66.35499999999999 L39.0 -46.85499999999999 Z M40.875 11.39500000000001 V3.1450000000000102 H79.125 V11.39500000000001 H40.875 Z"/></g><g id="Ultralight-M" transform="matrix(1 0 0 1 506.415 1126)"><path d="M56.625 -1.8549999999999898 V-38.60499999999999 H37.125 Q34.375 -38.60499999999999 32.75 -40.85499999999999 Q31.125 -43.10499999999999 32.0 -45.60499999999999 L38.5 -66.22999999999999 Q39.625 -69.60499999999999 42.375 -71.72999999999999 Q45.125 -73.85499999999999 48.75 -73.85499999999999 H71.25 Q74.875 -73.85499999999999 77.625 -71.72999999999999 Q80.375 -69.60499999999999 81.5 -66.22999999999999 L88.0 -45.60499999999999 Q88.875 -43.10499999999999 87.25 -40.85499999999999 Q85.625 -38.60499999999999 82.875 -38.60499999999999 H63.375 V-1.8549999999999898 H56.625 Z M39.0 -45.35499999999999 H81.0 L75.125 -64.22999999999999 Q74.75 -65.47999999999999 73.69 -66.29499999999999 Q72.625 -67.10499999999999 71.25 -67.10499999999999 H48.75 Q47.375 -67.10499999999999 46.31 -66.29499999999999 Q45.25 -65.47999999999999 44.875 -64.22999999999999 L39.0 -45.35499999999999 Z M41.625 9.89500000000001 V3.1450000000000102 H78.375 V9.89500000000001 H41.625 Z"/></g><g id="Bold-S" transform="matrix(1 0 0 1 2294.23 696)"><path d="M41.029578 -7.417749999999998 V-39.471664 H26.429922 Q22.585914 -39.471664 20.413008 -42.477754 Q18.244836 -45.48857799999999 19.229508000000003 -49.13849199999999 L24.654672 -68.46741399999999 Q25.838172 -72.51025 29.241918 -75.02400399999999 Q32.645664 -77.542492 36.887328 -77.542492 H57.792672 Q62.034335999999996 -77.542492 65.43808200000001 -75.02400399999999 Q68.84182799999999 -72.51025 70.025328 -68.46741399999999 L75.450492 -49.13849199999999 Q76.435164 -45.48857799999999 74.266992 -42.477754 Q72.09408599999999 -39.471664 68.250078 -39.471664 H53.650422 V-7.417749999999998 H41.029578 Z M33.336828 -52.092507999999995 H61.343172 L57.792672 -64.91691399999999 Q57.792672 -64.91691399999999 57.792672 -64.91691399999999 Q57.792672 -64.91691399999999 57.792672 -64.91691399999999 H36.787914 Q36.787914 -64.91691399999999 36.787914 -64.91691399999999 Q36.787914 -64.91691399999999 36.787914 -64.91691399999999 L33.336828 -52.092507999999995 Z M30.378078 7.574828000000011 V-5.050749999999994 H64.301922 V7.574828000000011 H30.378078 Z"/></g><g id="Semibold-S" transform="matrix(1 0 0 1 1998.1 696)"><path d="M41.716007999999995 -7.715992 V-39.173421999999995 H26.235827999999998 Q22.780008000000002 -39.173421999999995 20.810664 -41.88600399999999 Q18.836586 -44.59858599999999 19.726578 -47.95499199999999 L25.345836000000002 -67.975078 Q26.429922 -71.62499199999999 29.488086 -73.89257799999999 Q32.54625 -76.160164 36.295578 -76.160164 H58.384422 Q62.13375 -76.160164 65.191914 -73.89257799999999 Q68.250078 -71.62499199999999 69.334164 -67.975078 L74.953422 -47.95499199999999 Q75.84341400000001 -44.59858599999999 73.86933599999999 -41.88600399999999 Q71.899992 -39.173421999999995 68.444172 -39.173421999999995 H52.963992000000005 V-7.715992 H41.716007999999995 Z M32.347422 -50.41667199999999 H62.332578 L58.384422 -64.8175 Q58.384422 -64.8175 58.384422 -64.8175 Q58.384422 -64.8175 58.384422 -64.8175 H36.196163999999996 Q36.196163999999996 -64.8175 36.196163999999996 -64.8175 Q36.196163999999996 -64.8175 36.196163999999996 -64.8175 L32.347422 -50.41667199999999 Z M31.064508 5.993672000000004 V-5.348991999999981 H63.615492 V5.993672000000004 H31.064508 Z"/></g><g id="Medium-S" transform="matrix(1 0 0 1 1701.85 696)"><path d="M42.11366400000001 -7.910085999999993 V-38.879914 H26.136414 Q22.879422 -38.879914 21.056832000000004 -41.39366799999999 Q19.229508000000003 -43.907422 20.020086 -47.06499999999999 L25.838172 -67.676836 Q26.926992 -70.93382799999999 29.686913999999998 -73.05466 Q32.446836 -75.17549199999999 35.897922 -75.17549199999999 H58.782078 Q62.233164 -75.17549199999999 64.99308599999999 -73.05466 Q67.753008 -70.93382799999999 68.84182799999999 -67.676836 L74.659914 -47.06499999999999 Q75.450492 -43.907422 73.62316799999999 -41.39366799999999 Q71.800578 -38.879914 68.54358599999999 -38.879914 H52.56633599999999 V-7.910085999999993 H42.11366400000001 Z M31.561578 -49.233171999999996 H63.118422 L58.782078 -64.718086 Q58.782078 -64.718086 58.782078 -64.718086 Q58.782078 -64.718086 58.782078 -64.718086 H35.798508 Q35.798508 -64.718086 35.798508 -64.718086 Q35.798508 -64.718086 35.798508 -64.718086 L31.561578 -49.233171999999996 Z M31.462163999999998 4.810171999999994 V-5.543085999999988 H63.217836 V4.810171999999994 H31.462163999999998 Z"/></g><g id="Regular-S" transform="matrix(1 0 0 1 1405.73 696)"><path d="M42.506586 -8.108913999999999 V-38.681085999999986 H26.037 Q22.978836 -38.681085999999986 21.255660000000002 -41.100159999999995 Q19.52775 -43.51449999999999 20.318327999999998 -46.373836 L26.235827999999998 -67.38332799999999 Q27.2205 -70.441492 29.786327999999997 -72.41083599999999 Q32.347422 -74.384914 35.604414 -74.384914 H59.075585999999994 Q62.332578 -74.384914 64.893672 -72.41083599999999 Q67.4595 -70.441492 68.444172 -67.38332799999999 L74.361672 -46.373836 Q75.15225 -43.51449999999999 73.42434 -41.100159999999995 Q71.701164 -38.681085999999986 68.643 -38.681085999999986 H52.173414 V-8.108913999999999 H42.506586 Z M30.969828 -48.347913999999996 H63.710172 L59.075585999999994 -64.718086 Q59.075585999999994 -64.718086 59.075585999999994 -64.718086 Q59.075585999999994 -64.718086 59.075585999999994 -64.718086 H35.505 Q35.505 -64.718086 35.505 -64.718086 Q35.505 -64.718086 35.505 -64.718086 L30.969828 -48.347913999999996 Z M31.855086 3.9249140000000153 V-5.741913999999994 H62.82491400000001 V3.9249140000000153 H31.855086 Z"/></g><g id="Light-S" transform="matrix(1 0 0 1 1109.75 696)"><path d="M43.495992 -8.108913999999999 V-38.681085999999986 H28.205172 Q25.345836000000002 -38.681085999999986 23.71734 -40.948671999999995 Q22.093578 -43.220991999999995 22.780008000000002 -45.881499999999996 L27.911664 -63.92750799999999 Q28.796922000000002 -66.79157799999999 31.163922 -68.61416799999999 Q33.530922000000004 -70.441492 36.489672 -70.441492 H58.190328 Q61.149077999999996 -70.441492 63.516078 -68.61416799999999 Q65.883078 -66.79157799999999 66.76833599999999 -63.92750799999999 L71.899992 -45.881499999999996 Q72.586422 -43.220991999999995 70.96266 -40.948671999999995 Q69.334164 -38.681085999999986 66.474828 -38.681085999999986 H51.184008 V-8.108913999999999 H43.495992 Z M30.969828 -46.373836 H63.710172 L59.373827999999996 -61.85874999999999 Q59.274414 -62.251672 58.928832 -62.49784 Q58.58325 -62.744007999999994 58.190328 -62.744007999999994 H36.394992 Q35.997336 -62.744007999999994 35.651754 -62.49784 Q35.306172000000004 -62.251672 35.211492 -61.85874999999999 L30.969828 -46.373836 Z M32.844491999999995 1.9508360000000096 V-5.741913999999994 H61.835508 V1.9508360000000096 H32.844491999999995 Z"/></g><g id="Thin-S" transform="matrix(1 0 0 1 814.015 696)"><path d="M44.480664000000004 -8.108913999999999 V-38.681085999999986 H30.378078 Q27.613422 -38.681085999999986 26.136414 -40.80191799999999 Q24.654672 -42.92274999999999 25.345836000000002 -45.389163999999994 L29.488086 -60.575835999999995 Q30.378078 -63.14166399999999 32.49891 -64.8175 Q34.615008 -66.493336 37.379664 -66.493336 H57.300335999999994 Q60.064992000000004 -66.493336 62.18109 -64.8175 Q64.301922 -63.14166399999999 65.191914 -60.575835999999995 L69.334164 -45.389163999999994 Q70.025328 -42.92274999999999 68.54358599999999 -40.80191799999999 Q67.06657799999999 -38.681085999999986 64.301922 -38.681085999999986 H50.199335999999995 V-8.108913999999999 H44.480664000000004 Z M30.969828 -44.404492 H63.710172 L59.567922 -58.999413999999994 Q59.373827999999996 -59.78999199999999 58.730004 -60.28232799999999 Q58.090914000000005 -60.774663999999994 57.300335999999994 -60.774663999999994 H37.28025 Q36.489672 -60.774663999999994 35.850582 -60.28232799999999 Q35.211492 -59.78999199999999 35.012664 -58.999413999999994 L30.969828 -44.404492 Z M33.829164 -0.018507999999997082 V-5.741913999999994 H60.850835999999994 V-0.018507999999997082 H33.829164 Z"/></g><g id="Ultralight-S" transform="matrix(1 0 0 1 517.792 696)"><path d="M45.072414 -8.108913999999999 V-38.681085999999986 H31.660992 Q29.095164 -38.681085999999986 27.613422 -40.754577999999995 Q26.136414 -42.82333599999999 26.827578 -45.09092199999999 L30.477491999999998 -58.50707799999999 Q31.263336 -60.97349199999999 33.284754 -62.549913999999994 Q35.306172000000004 -64.126336 37.971414 -64.126336 H56.708586 Q59.373827999999996 -64.126336 61.395246 -62.549913999999994 Q63.416664000000004 -60.97349199999999 64.202508 -58.50707799999999 L67.852422 -45.09092199999999 Q68.54358599999999 -42.82333599999999 67.06657799999999 -40.754577999999995 Q65.584836 -38.681085999999986 63.019008 -38.681085999999986 H49.607586 V-8.108913999999999 H45.072414 Z M30.969828 -43.220991999999995 H63.710172 L59.76675 -57.323578 Q59.468508 -58.308249999999994 58.63059 -58.94734 Q57.792672 -59.59116399999999 56.708586 -59.59116399999999 H37.872 Q36.787914 -59.59116399999999 35.949996 -58.94734 Q35.112078 -58.308249999999994 34.813836 -57.323578 L30.969828 -43.220991999999995 Z M34.420913999999996 -1.2020079999999922 V-5.741913999999994 H60.259085999999996 V-1.2020079999999922 H34.420913999999996 Z"/></g></g></svg>