<svg xmlns="http://www.w3.org/2000/svg" version="1.1" width="3300" height="2000"><g id="Notes"><style>
    text {
      font-family: monospace;
      text-anchor: middle;
    }
    text.emphasis {
      font-weight:bold;
    }
    text.lanchor {
      text-anchor: start;
    }
  </style><rect height="2200" id="artboard" fill="white" width="3300" x="0" y="0"/><line id="" style="fill:none;stroke:black;stroke-width:0.5;" x1="263" x2="3036" y1="292" y2="292"/><text class="lanchor emphasis" transform="matrix(1 0 0 1 263 322)">Weight/Scale Variations</text><text transform="matrix(1 0 0 1 559.711 322)">Ultralight</text><text transform="matrix(1 0 0 1 856.422 322)">Thin</text><text transform="matrix(1 0 0 1 1153.13 322)">Light</text><text transform="matrix(1 0 0 1 1449.84 322)">Regular</text><text transform="matrix(1 0 0 1 1746.56 322)">Medium</text><text transform="matrix(1 0 0 1 2043.27 322)">Semibold</text><text transform="matrix(1 0 0 1 2339.98 322)">Bold</text><text transform="matrix(1 0 0 1 2636.69 322)">Heavy</text><text transform="matrix(1 0 0 1 2933.4 322)">Black</text><text id="template-version" style="text-anchor: end;" transform="matrix(1 0 0 1 3036 1933)">Template v.1.0</text><text class="lanchor" transform="matrix(1 0 0 1 263 726)">Small</text><text class="lanchor" transform="matrix(1 0 0 1 263 1156)">Medium</text><text class="lanchor" transform="matrix(1 0 0 1 263 1586)">Large</text></g><g id="Guides"><g id="H-reference" style="fill:#27AAE1;stroke:none;" transform="matrix(1 0 0 1 339 696)"><path d="M 54.9316 0 L 57.666 0 L 30.5664 -70.459 L 28.0762 -70.459 L 0.976562 0 L 3.66211 0 L 12.9395 -24.4629 L 45.7031 -24.4629 Z M 29.1992 -67.0898 L 29.4434 -67.0898 L 44.8242 -26.709 L 13.8184 -26.709 Z"/></g><line id="Baseline-S" style="fill:none;stroke:#27AAE1;opacity:1;stroke-width:0.577;" x1="263" x2="3036" y1="696" y2="696"/><line id="Capline-S" style="fill:none;stroke:#27AAE1;opacity:1;stroke-width:0.577;" x1="263" x2="3036" y1="625.541" y2="625.541"/><g id="H-reference" style="fill:#27AAE1;stroke:none;" transform="matrix(1 0 0 1 339 1126)"><path d="M 54.9316 0 L 57.666 0 L 30.5664 -70.459 L 28.0762 -70.459 L 0.976562 0 L 3.66211 0 L 12.9395 -24.4629 L 45.7031 -24.4629 Z M 29.1992 -67.0898 L 29.4434 -67.0898 L 44.8242 -26.709 L 13.8184 -26.709 Z"/></g><line id="Baseline-M" style="fill:none;stroke:#27AAE1;opacity:1;stroke-width:0.577;" x1="263" x2="3036" y1="1126" y2="1126"/><line id="Capline-M" style="fill:none;stroke:#27AAE1;opacity:1;stroke-width:0.577;" x1="263" x2="3036" y1="1055.54" y2="1055.54"/><g id="H-reference" style="fill:#27AAE1;stroke:none;" transform="matrix(1 0 0 1 339 1556)"><path d="M 54.9316 0 L 57.666 0 L 30.5664 -70.459 L 28.0762 -70.459 L 0.976562 0 L 3.66211 0 L 12.9395 -24.4629 L 45.7031 -24.4629 Z M 29.1992 -67.0898 L 29.4434 -67.0898 L 44.8242 -26.709 L 13.8184 -26.709 Z"/></g><line id="Baseline-L" style="fill:none;stroke:#27AAE1;opacity:1;stroke-width:0.577;" x1="263" x2="3036" y1="1556" y2="1556"/><line id="Capline-L" style="fill:none;stroke:#27AAE1;opacity:1;stroke-width:0.577;" x1="263" x2="3036" y1="1485.54" y2="1485.54"/><rect height="119.336" id="left-margin" style="fill:darkred;stroke:none;opacity:0.4;" width="12.4512" x="1394.06" y="1030.79"/><rect height="119.336" id="right-margin" style="fill:darkgreen;stroke:none;opacity:0.4;" width="12.4512" x="1502.5112" y="1030.79"/><rect x="1406.5112" y="1045" width="96" height="96" fill="none" stroke="blue" stroke-dasharray="5"/><rect x="1394.06" y="1030.79" width="120.9024" height="119.336" fill="none" stroke="blue"/></g><g id="Symbols"><g id="Bold-L" transform="matrix(1 0 0 1 2266 1556)"><path d="M43.5375 -15.396249999999995 Q45.15 -15.396249999999995 46.27875 -16.52499999999999 Q47.4075 -17.653749999999988 47.4075 -19.427499999999995 V-29.908749999999998 H63.855000000000004 V-19.427499999999995 Q63.855000000000004 -17.653749999999988 64.903125 -16.52499999999999 Q65.95125 -15.396249999999995 67.72500000000001 -15.396249999999995 Q69.3375 -15.396249999999995 70.546875 -16.52499999999999 Q71.75625000000001 -17.653749999999988 71.75625000000001 -19.427499999999995 V-51.03249999999999 Q71.75625000000001 -52.80624999999999 70.546875 -53.934999999999995 Q69.3375 -55.06374999999999 67.56375 -55.06374999999999 Q65.95125 -55.06374999999999 64.903125 -53.934999999999995 Q63.855000000000004 -52.80624999999999 63.855000000000004 -51.03249999999999 V-37.81 H47.4075 V-51.03249999999999 Q47.4075 -52.80624999999999 46.27875 -53.934999999999995 Q45.15 -55.06374999999999 43.5375 -55.06374999999999 Q41.76375 -55.06374999999999 40.635 -53.934999999999995 Q39.50625 -52.80624999999999 39.50625 -51.03249999999999 V-19.427499999999995 Q39.50625 -17.653749999999988 40.635 -16.52499999999999 Q41.76375 -15.396249999999995 43.5375 -15.396249999999995 Z M87.075 -15.396249999999995 H107.715 Q110.61749999999999 -15.396249999999995 113.03625 -17.814999999999998 Q115.455 -20.23375 115.455 -23.13624999999999 V-47.32374999999999 Q115.455 -50.226249999999986 113.03625 -52.64499999999999 Q110.61749999999999 -55.06374999999999 107.715 -55.06374999999999 H87.075 Q85.62375 -55.06374999999999 84.414375 -53.85437499999999 Q83.205 -52.64499999999999 83.205 -51.193749999999994 V-19.26625 Q83.205 -17.814999999999998 84.414375 -16.605625000000003 Q85.62375 -15.396249999999995 87.075 -15.396249999999995 Z M91.2675 -23.458749999999995 V-47.001249999999985 H107.3925 Q107.3925 -47.001249999999985 107.3925 -47.001249999999985 Q107.3925 -47.001249999999985 107.3925 -47.001249999999985 V-23.458749999999995 Q107.3925 -23.458749999999995 107.3925 -23.458749999999995 Q107.3925 -23.458749999999995 107.3925 -23.458749999999995 H91.2675 Z M24.02625 19.917500000000018 Q18.06 19.917500000000018 13.70625 15.563749999999999 Q9.3525 11.210000000000008 9.3525 5.243750000000006 V-75.70375 Q9.3525 -81.83125 13.70625 -86.185 Q18.06 -90.53875 24.02625 -90.53875 H130.77375 Q136.90125 -90.53875 141.255 -86.185 Q145.60875 -81.83125 145.60875 -75.70375 V5.243750000000006 Q145.60875 11.210000000000008 141.255 15.563749999999999 Q136.90125 19.917500000000018 130.77375 19.917500000000018 H24.02625 Z M24.02625 5.243750000000006 H130.77375 Q130.77375 5.243750000000006 130.77375 5.243750000000006 Q130.77375 5.243750000000006 130.77375 5.243750000000006 V-75.70375 Q130.77375 -75.70375 130.77375 -75.70375 Q130.77375 -75.70375 130.77375 -75.70375 H24.02625 Q24.02625 -75.70375 24.02625 -75.70375 Q24.02625 -75.70375 24.02625 -75.70375 V5.243750000000006 Q24.02625 5.243750000000006 24.02625 5.243750000000006 Q24.02625 5.243750000000006 24.02625 5.243750000000006 Z"/></g><g id="Semibold-L" transform="matrix(1 0 0 1 1970.27 1556)"><path d="M43.215 -15.396249999999995 Q44.8275 -15.396249999999995 45.956250000000004 -16.52499999999999 Q47.085 -17.653749999999988 47.085 -19.26625 V-29.908749999999998 H63.5325 V-19.427499999999995 Q63.5325 -17.653749999999988 64.580625 -16.52499999999999 Q65.62875000000001 -15.396249999999995 67.4025 -15.396249999999995 Q69.17625 -15.396249999999995 70.305 -16.52499999999999 Q71.43375 -17.653749999999988 71.43375 -19.26625 V-51.193749999999994 Q71.43375 -52.80624999999999 70.224375 -53.934999999999995 Q69.015 -55.06374999999999 67.4025 -55.06374999999999 Q65.62875000000001 -55.06374999999999 64.580625 -53.934999999999995 Q63.5325 -52.80624999999999 63.5325 -51.193749999999994 V-37.81 H47.085 V-51.193749999999994 Q47.085 -52.80624999999999 45.956250000000004 -53.934999999999995 Q44.8275 -55.06374999999999 43.05375 -55.06374999999999 Q41.28 -55.06374999999999 40.15125 -53.934999999999995 Q39.0225 -52.80624999999999 39.0225 -51.193749999999994 V-19.26625 Q39.0225 -17.653749999999988 40.231875 -16.52499999999999 Q41.44125 -15.396249999999995 43.215 -15.396249999999995 Z M86.91375 -15.396249999999995 H107.23125 Q110.61749999999999 -15.396249999999995 113.1975 -17.976249999999993 Q115.7775 -20.55624999999999 115.7775 -23.942499999999995 V-46.5175 Q115.7775 -49.903749999999995 113.1975 -52.48375 Q110.61749999999999 -55.06374999999999 107.23125 -55.06374999999999 H86.91375 Q85.62375 -55.06374999999999 84.495 -54.01562499999999 Q83.36625000000001 -52.967499999999994 83.36625000000001 -51.677499999999995 V-18.782499999999985 Q83.36625000000001 -17.492499999999993 84.495 -16.444374999999994 Q85.62375 -15.396249999999995 86.91375 -15.396249999999995 Z M91.42875000000001 -23.458749999999995 V-47.001249999999985 H107.715 Q107.715 -47.001249999999985 107.715 -47.001249999999985 Q107.715 -47.001249999999985 107.715 -47.001249999999985 V-23.458749999999995 Q107.715 -23.458749999999995 107.715 -23.458749999999995 Q107.715 -23.458749999999995 107.715 -23.458749999999995 H91.42875000000001 Z M23.38125 19.272500000000008 Q18.06 19.272500000000008 14.028749999999999 15.241250000000008 Q9.9975 11.210000000000008 9.9975 5.7275000000000205 V-76.1875 Q9.9975 -81.66999999999999 14.028749999999999 -85.70124999999999 Q18.06 -89.73249999999999 23.38125 -89.73249999999999 H131.41875000000002 Q136.90125 -89.73249999999999 140.9325 -85.70124999999999 Q144.96375 -81.66999999999999 144.96375 -76.1875 V5.7275000000000205 Q144.96375 11.210000000000008 140.9325 15.241250000000008 Q136.90125 19.272500000000008 131.41875000000002 19.272500000000008 H23.38125 Z M23.38125 5.7275000000000205 H131.41875000000002 Q131.41875000000002 5.7275000000000205 131.41875000000002 5.7275000000000205 Q131.41875000000002 5.7275000000000205 131.41875000000002 5.7275000000000205 V-76.1875 Q131.41875000000002 -76.1875 131.41875000000002 -76.1875 Q131.41875000000002 -76.1875 131.41875000000002 -76.1875 H23.38125 Q23.38125 -76.1875 23.38125 -76.1875 Q23.38125 -76.1875 23.38125 -76.1875 V5.7275000000000205 Q23.38125 5.7275000000000205 23.38125 5.7275000000000205 Q23.38125 5.7275000000000205 23.38125 5.7275000000000205 Z"/></g><g id="Medium-L" transform="matrix(1 0 0 1 1674.31 1556)"><path d="M42.892500000000005 -15.235 Q44.505 -15.235 45.63375 -16.363749999999982 Q46.7625 -17.492499999999993 46.7625 -19.26625 V-29.747500000000002 H63.21000000000001 V-19.26625 Q63.21000000000001 -17.492499999999993 64.33875 -16.363749999999982 Q65.4675 -15.235 67.24125000000001 -15.235 Q69.015 -15.235 70.14375 -16.363749999999982 Q71.27250000000001 -17.492499999999993 71.27250000000001 -19.26625 V-51.193749999999994 Q71.27250000000001 -52.967499999999994 70.063125 -54.09625 Q68.85375 -55.224999999999994 67.24125000000001 -55.224999999999994 Q65.4675 -55.224999999999994 64.33875 -54.09625 Q63.21000000000001 -52.967499999999994 63.21000000000001 -51.193749999999994 V-37.81 H46.7625 V-51.193749999999994 Q46.7625 -52.967499999999994 45.63375 -54.09625 Q44.505 -55.224999999999994 42.73125 -55.224999999999994 Q40.957499999999996 -55.224999999999994 39.82875 -54.09625 Q38.7 -52.967499999999994 38.7 -51.193749999999994 V-19.26625 Q38.7 -17.492499999999993 39.909375000000004 -16.363749999999982 Q41.11875 -15.235 42.892500000000005 -15.235 Z M86.7525 -15.235 H106.90875 Q110.45625 -15.235 113.278125 -18.05687499999999 Q116.10000000000001 -20.878749999999997 116.10000000000001 -24.426249999999982 V-46.03375 Q116.10000000000001 -49.58124999999999 113.278125 -52.40312499999999 Q110.45625 -55.224999999999994 106.90875 -55.224999999999994 H86.7525 Q85.4625 -55.224999999999994 84.495 -54.257499999999986 Q83.5275 -53.29 83.5275 -51.99999999999999 V-18.459999999999994 Q83.5275 -17.169999999999987 84.495 -16.2025 Q85.4625 -15.235 86.7525 -15.235 Z M91.59 -23.2975 V-47.162499999999994 H108.03750000000001 Q108.03750000000001 -47.162499999999994 108.03750000000001 -47.162499999999994 Q108.03750000000001 -47.162499999999994 108.03750000000001 -47.162499999999994 V-23.2975 Q108.03750000000001 -23.2975 108.03750000000001 -23.2975 Q108.03750000000001 -23.2975 108.03750000000001 -23.2975 H91.59 Z M22.8975 18.627500000000026 Q17.89875 18.627500000000026 14.190000000000001 14.918750000000003 Q10.481250000000001 11.210000000000008 10.481250000000001 6.211250000000007 V-76.67124999999999 Q10.481250000000001 -81.66999999999999 14.190000000000001 -85.459375 Q17.89875 -89.24875 22.8975 -89.24875 H131.9025 Q136.90125 -89.24875 140.61 -85.459375 Q144.31875 -81.66999999999999 144.31875 -76.67124999999999 V6.211250000000007 Q144.31875 11.210000000000008 140.61 14.918750000000003 Q136.90125 18.627500000000026 131.9025 18.627500000000026 H22.8975 Z M22.8975 6.211250000000007 H131.9025 Q131.9025 6.211250000000007 131.9025 6.211250000000007 Q131.9025 6.211250000000007 131.9025 6.211250000000007 V-76.67124999999999 Q131.9025 -76.67124999999999 131.9025 -76.67124999999999 Q131.9025 -76.67124999999999 131.9025 -76.67124999999999 H22.8975 Q22.8975 -76.67124999999999 22.8975 -76.67124999999999 Q22.8975 -76.67124999999999 22.8975 -76.67124999999999 V6.211250000000007 Q22.8975 6.211250000000007 22.8975 6.211250000000007 Q22.8975 6.211250000000007 22.8975 6.211250000000007 Z"/></g><g id="Regular-L" transform="matrix(1 0 0 1 1378.56 1556)"><path d="M42.57 -15.235 Q44.34375 -15.235 45.4725 -16.363749999999982 Q46.60125 -17.492499999999993 46.60125 -19.26625 V-29.747500000000002 H63.048750000000005 V-19.26625 Q63.048750000000005 -17.492499999999993 64.1775 -16.363749999999982 Q65.30625 -15.235 67.08 -15.235 Q68.85375 -15.235 69.9825 -16.363749999999982 Q71.11125 -17.492499999999993 71.11125 -19.26625 V-51.193749999999994 Q71.11125 -52.967499999999994 69.9825 -54.09625 Q68.85375 -55.224999999999994 67.08 -55.224999999999994 Q65.30625 -55.224999999999994 64.1775 -54.09625 Q63.048750000000005 -52.967499999999994 63.048750000000005 -51.193749999999994 V-37.81 H46.60125 V-51.193749999999994 Q46.60125 -52.967499999999994 45.4725 -54.09625 Q44.34375 -55.224999999999994 42.57 -55.224999999999994 Q40.79625 -55.224999999999994 39.667500000000004 -54.09625 Q38.53875 -52.967499999999994 38.53875 -51.193749999999994 V-19.26625 Q38.53875 -17.492499999999993 39.667500000000004 -16.363749999999982 Q40.79625 -15.235 42.57 -15.235 Z M86.59125 -15.235 H106.58624999999999 Q110.45625 -15.235 113.35875 -18.13749999999999 Q116.26124999999999 -21.039999999999992 116.26124999999999 -24.909999999999997 V-45.55 Q116.26124999999999 -49.41999999999999 113.35875 -52.3225 Q110.45625 -55.224999999999994 106.58624999999999 -55.224999999999994 H86.59125 Q85.4625 -55.224999999999994 84.575625 -54.338125 Q83.68875 -53.45124999999999 83.68875 -52.3225 V-18.13749999999999 Q83.68875 -17.008749999999992 84.575625 -16.12187499999999 Q85.4625 -15.235 86.59125 -15.235 Z M91.75125 -23.2975 V-47.162499999999994 H108.19874999999999 Q108.19874999999999 -47.162499999999994 108.19874999999999 -47.162499999999994 Q108.19874999999999 -47.162499999999994 108.19874999999999 -47.162499999999994 V-23.2975 Q108.19874999999999 -23.2975 108.19874999999999 -23.2975 Q108.19874999999999 -23.2975 108.19874999999999 -23.2975 H91.75125 Z M22.575 18.305000000000007 Q17.89875 18.305000000000007 14.35125 14.757500000000007 Q10.80375 11.210000000000008 10.80375 6.533750000000012 V-76.99374999999999 Q10.80375 -81.66999999999999 14.35125 -85.2175 Q17.89875 -88.76499999999999 22.575 -88.76499999999999 H132.225 Q136.90125 -88.76499999999999 140.44875 -85.2175 Q143.99625 -81.66999999999999 143.99625 -76.99374999999999 V6.533750000000012 Q143.99625 11.210000000000008 140.44875 14.757500000000007 Q136.90125 18.305000000000007 132.225 18.305000000000007 H22.575 Z M22.575 6.533750000000012 H132.225 Q132.225 6.533750000000012 132.225 6.533750000000012 Q132.225 6.533750000000012 132.225 6.533750000000012 V-76.99374999999999 Q132.225 -76.99374999999999 132.225 -76.99374999999999 Q132.225 -76.99374999999999 132.225 -76.99374999999999 H22.575 Q22.575 -76.99374999999999 22.575 -76.99374999999999 Q22.575 -76.99374999999999 22.575 -76.99374999999999 V6.533750000000012 Q22.575 6.533750000000012 22.575 6.533750000000012 Q22.575 6.533750000000012 22.575 6.533750000000012 Z"/></g><g id="Light-L" transform="matrix(1 0 0 1 1082.77 1556)"><path d="M43.86 -16.363749999999982 Q45.31125 -16.363749999999982 46.11750000000001 -17.250625 Q46.923750000000005 -18.13749999999999 46.923750000000005 -19.58874999999999 V-30.553749999999994 H64.66125000000001 V-19.58874999999999 Q64.66125000000001 -18.13749999999999 65.548125 -17.250625 Q66.435 -16.363749999999982 67.88625 -16.363749999999982 Q69.3375 -16.363749999999982 70.224375 -17.250625 Q71.11125 -18.13749999999999 71.11125 -19.58874999999999 V-50.871249999999996 Q71.11125 -52.3225 70.14375 -53.209374999999994 Q69.17625 -54.09625 67.88625 -54.09625 Q66.435 -54.09625 65.548125 -53.209374999999994 Q64.66125000000001 -52.3225 64.66125000000001 -50.871249999999996 V-37.00375 H46.923750000000005 V-50.871249999999996 Q46.923750000000005 -52.3225 46.036875 -53.209374999999994 Q45.15 -54.09625 43.698750000000004 -54.09625 Q42.408750000000005 -54.09625 41.44125 -53.209374999999994 Q40.47375 -52.3225 40.47375 -50.871249999999996 V-19.58874999999999 Q40.47375 -18.13749999999999 41.44125 -17.250625 Q42.408750000000005 -16.363749999999982 43.86 -16.363749999999982 Z M86.59125 -16.363749999999982 H104.8125 Q108.68250000000002 -16.363749999999982 111.50437500000001 -19.185624999999987 Q114.32625000000002 -22.007499999999993 114.32625000000002 -25.877499999999998 V-44.582499999999996 Q114.32625000000002 -48.4525 111.50437500000001 -51.274375 Q108.68250000000002 -54.09625 104.8125 -54.09625 H86.59125 Q85.4625 -54.09625 84.575625 -53.209374999999994 Q83.68875 -52.3225 83.68875 -51.193749999999994 V-19.26625 Q83.68875 -18.13749999999999 84.575625 -17.250625 Q85.4625 -16.363749999999982 86.59125 -16.363749999999982 Z M90.13875 -22.813749999999985 V-47.646249999999995 H106.7475 Q107.07000000000001 -47.646249999999995 107.3925 -47.32374999999999 Q107.715 -47.001249999999985 107.715 -46.678749999999994 V-23.781249999999986 Q107.715 -23.458749999999995 107.3925 -23.13624999999999 Q107.07000000000001 -22.813749999999985 106.7475 -22.813749999999985 H90.13875 Z M25.477500000000003 15.080000000000013 Q20.80125 15.080000000000013 17.415000000000003 11.693749999999994 Q14.028749999999999 8.307500000000005 14.028749999999999 3.6312499999999943 V-74.09125 Q14.028749999999999 -78.76749999999998 17.415000000000003 -82.15375 Q20.80125 -85.53999999999999 25.477500000000003 -85.53999999999999 H129.32250000000002 Q133.99875 -85.53999999999999 137.38500000000002 -82.15375 Q140.77125 -78.76749999999998 140.77125 -74.09125 V3.6312499999999943 Q140.77125 8.307500000000005 137.38500000000002 11.693749999999994 Q133.99875 15.080000000000013 129.32250000000002 15.080000000000013 H25.477500000000003 Z M25.477500000000003 5.7275000000000205 H129.32250000000002 Q130.29 5.7275000000000205 130.854375 5.163125000000008 Q131.41875000000002 4.59875000000001 131.41875000000002 3.6312499999999943 V-74.09125 Q131.41875000000002 -75.05875 130.854375 -75.62312499999999 Q130.29 -76.1875 129.32250000000002 -76.1875 H25.477500000000003 Q24.509999999999998 -76.1875 23.945625 -75.62312499999999 Q23.38125 -75.05875 23.38125 -74.09125 V3.6312499999999943 Q23.38125 4.59875000000001 23.945625 5.163125000000008 Q24.509999999999998 5.7275000000000205 25.477500000000003 5.7275000000000205 Z"/></g><g id="Thin-L" transform="matrix(1 0 0 1 787.282 1556)"><path d="M45.15 -17.492499999999993 Q46.11750000000001 -17.492499999999993 46.7625 -18.218125 Q47.4075 -18.943749999999994 47.4075 -19.911249999999995 V-31.36 H66.27375 V-20.07249999999999 Q66.27375 -18.943749999999994 66.91875 -18.218125 Q67.56375 -17.492499999999993 68.69250000000001 -17.492499999999993 Q69.82124999999999 -17.492499999999993 70.46625 -18.218125 Q71.11125 -18.943749999999994 71.11125 -20.07249999999999 V-50.38749999999999 Q71.11125 -51.51625 70.385625 -52.241874999999986 Q69.66000000000001 -52.967499999999994 68.69250000000001 -52.967499999999994 Q67.56375 -52.967499999999994 66.91875 -52.241874999999986 Q66.27375 -51.51625 66.27375 -50.38749999999999 V-36.19749999999999 H47.4075 V-50.38749999999999 Q47.4075 -51.51625 46.7625 -52.241874999999986 Q46.11750000000001 -52.967499999999994 44.988749999999996 -52.967499999999994 Q43.86 -52.967499999999994 43.215 -52.241874999999986 Q42.57 -51.51625 42.57 -50.38749999999999 V-19.911249999999995 Q42.57 -18.943749999999994 43.295625 -18.218125 Q44.02125 -17.492499999999993 45.15 -17.492499999999993 Z M86.59125 -17.492499999999993 H103.03875000000001 Q106.7475 -17.492499999999993 109.48875000000001 -20.23375 Q112.22999999999999 -22.974999999999994 112.22999999999999 -26.844999999999985 V-43.614999999999995 Q112.22999999999999 -47.485 109.48875000000001 -50.226249999999986 Q106.7475 -52.967499999999994 103.03875000000001 -52.967499999999994 H86.59125 Q85.4625 -52.967499999999994 84.575625 -52.161249999999995 Q83.68875 -51.355 83.68875 -50.065 V-20.394999999999982 Q83.68875 -19.10499999999999 84.575625 -18.29875 Q85.4625 -17.492499999999993 86.59125 -17.492499999999993 Z M88.6875 -22.491249999999994 V-47.968749999999986 H105.29625 Q106.10249999999999 -47.968749999999986 106.7475 -47.40437499999999 Q107.3925 -46.84 107.3925 -46.03375 V-24.426249999999982 Q107.3925 -23.61999999999999 106.7475 -23.055624999999992 Q106.10249999999999 -22.491249999999994 105.29625 -22.491249999999994 H88.6875 Z M28.21875 11.855000000000018 Q23.865000000000002 11.855000000000018 20.559375 8.549375000000012 Q17.25375 5.243750000000006 17.25375 0.8900000000000148 V-71.35 Q17.25375 -75.70375 20.559375 -79.00937499999999 Q23.865000000000002 -82.315 28.21875 -82.315 H126.58125 Q131.09625 -82.315 134.32125 -79.00937499999999 Q137.54625 -75.70375 137.54625 -71.35 V0.8900000000000148 Q137.54625 5.243750000000006 134.32125 8.549375000000012 Q131.09625 11.855000000000018 126.58125 11.855000000000018 H28.21875 Z M28.21875 4.760000000000005 H126.58125 Q128.19375 4.760000000000005 129.32250000000002 3.6312499999999943 Q130.45125000000002 2.502500000000012 130.45125000000002 0.8900000000000148 V-71.35 Q130.45125000000002 -72.96249999999999 129.32250000000002 -74.09125 Q128.19375 -75.22 126.58125 -75.22 H28.21875 Q26.60625 -75.22 25.477500000000003 -74.09125 Q24.34875 -72.96249999999999 24.34875 -71.35 V0.8900000000000148 Q24.34875 2.502500000000012 25.477500000000003 3.6312499999999943 Q26.60625 4.760000000000005 28.21875 4.760000000000005 Z"/></g><g id="Ultralight-L" transform="matrix(1 0 0 1 491.205 1556)"><path d="M45.795 -18.13749999999999 Q46.60125 -18.13749999999999 47.165625 -18.701874999999987 Q47.730000000000004 -19.26625 47.730000000000004 -20.23375 V-31.68249999999999 H67.08 V-20.23375 Q67.08 -19.26625 67.64437500000001 -18.701874999999987 Q68.20875 -18.13749999999999 69.17625 -18.13749999999999 Q69.9825 -18.13749999999999 70.546875 -18.701874999999987 Q71.11125 -19.26625 71.11125 -20.23375 V-50.226249999999986 Q71.11125 -51.193749999999994 70.546875 -51.75812499999999 Q69.9825 -52.3225 69.015 -52.3225 Q68.20875 -52.3225 67.64437500000001 -51.75812499999999 Q67.08 -51.193749999999994 67.08 -50.226249999999986 V-35.71374999999999 H47.730000000000004 V-50.226249999999986 Q47.730000000000004 -51.193749999999994 47.165625 -51.75812499999999 Q46.60125 -52.3225 45.63375 -52.3225 Q44.8275 -52.3225 44.263125 -51.75812499999999 Q43.698750000000004 -51.193749999999994 43.698750000000004 -50.226249999999986 V-20.23375 Q43.698750000000004 -19.26625 44.263125 -18.701874999999987 Q44.8275 -18.13749999999999 45.795 -18.13749999999999 Z M86.59125 -18.13749999999999 H101.91000000000001 Q105.61875 -18.13749999999999 108.36000000000001 -20.878749999999997 Q111.10125000000001 -23.61999999999999 111.10125000000001 -27.32875 V-43.131249999999994 Q111.10125000000001 -46.84 108.36000000000001 -49.58124999999999 Q105.61875 -52.3225 101.91000000000001 -52.3225 H86.59125 Q85.30125 -52.3225 84.495 -51.51625 Q83.68875 -50.709999999999994 83.68875 -49.41999999999999 V-21.039999999999992 Q83.68875 -19.749999999999986 84.495 -18.943749999999994 Q85.30125 -18.13749999999999 86.59125 -18.13749999999999 Z M87.72 -22.16874999999999 V-48.29124999999999 H104.49 Q105.45750000000001 -48.29124999999999 106.26375000000002 -47.485 Q107.07000000000001 -46.678749999999994 107.07000000000001 -45.71124999999999 V-24.748749999999987 Q107.07000000000001 -23.781249999999986 106.26375000000002 -22.974999999999994 Q105.45750000000001 -22.16874999999999 104.49 -22.16874999999999 H87.72 Z M29.992500000000003 9.920000000000002 Q25.63875 9.920000000000002 22.41375 6.695000000000007 Q19.188750000000002 3.470000000000013 19.188750000000002 -0.883749999999992 V-69.57624999999999 Q19.188750000000002 -74.09125 22.41375 -77.235625 Q25.63875 -80.38 29.992500000000003 -80.38 H124.80750000000002 Q129.16125 -80.38 132.38625 -77.235625 Q135.61124999999998 -74.09125 135.61124999999998 -69.57624999999999 V-0.883749999999992 Q135.61124999999998 3.470000000000013 132.38625 6.695000000000007 Q129.16125 9.920000000000002 124.80750000000002 9.920000000000002 H29.992500000000003 Z M29.992500000000003 4.2762500000000045 H124.80750000000002 Q127.065 4.2762500000000045 128.51625 2.825000000000003 Q129.9675 1.3737500000000153 129.9675 -0.883749999999992 V-69.57624999999999 Q129.9675 -71.83375 128.51625 -73.285 Q127.065 -74.73624999999998 124.80750000000002 -74.73624999999998 H29.992500000000003 Q27.735 -74.73624999999998 26.28375 -73.285 Q24.8325 -71.83375 24.8325 -69.57624999999999 V-0.883749999999992 Q24.8325 1.3737500000000153 26.28375 2.825000000000003 Q27.735 4.2762500000000045 29.992500000000003 4.2762500000000045 Z"/></g><g id="Bold-M" transform="matrix(1 0 0 1 2281.8 1126)"><path d="M34.375 -20.10499999999999 Q36.0 -20.10499999999999 37.06 -21.169999999999987 Q38.125 -22.22999999999999 38.125 -23.85499999999999 V-30.22999999999999 H48.375 V-23.85499999999999 Q48.375 -22.22999999999999 49.44 -21.169999999999987 Q50.5 -20.10499999999999 52.125 -20.10499999999999 Q53.75 -20.10499999999999 54.815 -21.169999999999987 Q55.875 -22.22999999999999 55.875 -23.85499999999999 V-46.60499999999999 Q55.875 -48.22999999999999 54.815 -49.289999999999985 Q53.75 -50.35499999999999 52.125 -50.35499999999999 Q50.5 -50.35499999999999 49.44 -49.289999999999985 Q48.375 -48.22999999999999 48.375 -46.60499999999999 V-37.72999999999999 H38.125 V-46.60499999999999 Q38.125 -48.22999999999999 37.06 -49.289999999999985 Q36.0 -50.35499999999999 34.375 -50.35499999999999 Q32.75 -50.35499999999999 31.69 -49.289999999999985 Q30.625 -48.22999999999999 30.625 -46.60499999999999 V-23.85499999999999 Q30.625 -22.22999999999999 31.69 -21.169999999999987 Q32.75 -20.10499999999999 34.375 -20.10499999999999 Z M68.5 -20.10499999999999 H83.375 Q85.875 -20.10499999999999 87.625 -21.919999999999987 Q89.375 -23.72999999999999 89.375 -26.10499999999999 V-44.35499999999999 Q89.375 -46.85499999999999 87.625 -48.60499999999999 Q85.875 -50.35499999999999 83.375 -50.35499999999999 H68.5 Q66.625 -50.35499999999999 65.375 -49.10499999999999 Q64.125 -47.85499999999999 64.125 -45.97999999999999 V-24.47999999999999 Q64.125 -22.60499999999999 65.375 -21.35499999999999 Q66.625 -20.10499999999999 68.5 -20.10499999999999 Z M71.625 -27.60499999999999 V-42.85499999999999 H81.875 Q81.875 -42.85499999999999 81.875 -42.85499999999999 Q81.875 -42.85499999999999 81.875 -42.85499999999999 V-27.60499999999999 Q81.875 -27.60499999999999 81.875 -27.60499999999999 Q81.875 -27.60499999999999 81.875 -27.60499999999999 H71.625 Z M21.5 10.14500000000001 Q14.375 10.14500000000001 9.435 5.2050000000000125 Q4.5 0.27000000000001023 4.5 -6.85499999999999 V-63.60499999999999 Q4.5 -70.72999999999999 9.435 -75.66999999999999 Q14.375 -80.60499999999999 21.5 -80.60499999999999 H98.5 Q105.625 -80.60499999999999 110.565 -75.66999999999999 Q115.5 -70.72999999999999 115.5 -63.60499999999999 V-6.85499999999999 Q115.5 0.27000000000001023 110.565 5.2050000000000125 Q105.625 10.14500000000001 98.5 10.14500000000001 H21.5 Z M21.5 -6.85499999999999 H98.5 Q98.5 -6.85499999999999 98.5 -6.85499999999999 Q98.5 -6.85499999999999 98.5 -6.85499999999999 V-63.60499999999999 Q98.5 -63.60499999999999 98.5 -63.60499999999999 Q98.5 -63.60499999999999 98.5 -63.60499999999999 H21.5 Q21.5 -63.60499999999999 21.5 -63.60499999999999 Q21.5 -63.60499999999999 21.5 -63.60499999999999 V-6.85499999999999 Q21.5 -6.85499999999999 21.5 -6.85499999999999 Q21.5 -6.85499999999999 21.5 -6.85499999999999 Z"/></g><g id="Semibold-M" transform="matrix(1 0 0 1 1985.97 1126)"><path d="M34.0 -20.10499999999999 Q35.625 -20.10499999999999 36.69 -21.10499999999999 Q37.75 -22.10499999999999 37.75 -23.72999999999999 V-30.22999999999999 H48.125 V-23.85499999999999 Q48.125 -22.10499999999999 49.19 -21.10499999999999 Q50.25 -20.10499999999999 51.875 -20.10499999999999 Q53.5 -20.10499999999999 54.565 -21.10499999999999 Q55.625 -22.10499999999999 55.625 -23.85499999999999 V-46.60499999999999 Q55.625 -48.35499999999999 54.565 -49.35499999999999 Q53.5 -50.35499999999999 51.875 -50.35499999999999 Q50.25 -50.35499999999999 49.19 -49.35499999999999 Q48.125 -48.35499999999999 48.125 -46.60499999999999 V-37.72999999999999 H37.75 V-46.60499999999999 Q37.75 -48.35499999999999 36.69 -49.35499999999999 Q35.625 -50.35499999999999 34.0 -50.35499999999999 Q32.375 -50.35499999999999 31.314999999999998 -49.35499999999999 Q30.25 -48.35499999999999 30.25 -46.60499999999999 V-23.72999999999999 Q30.25 -22.10499999999999 31.314999999999998 -21.10499999999999 Q32.375 -20.10499999999999 34.0 -20.10499999999999 Z M68.25 -20.10499999999999 H83.125 Q85.875 -20.10499999999999 87.81 -22.044999999999987 Q89.75 -23.97999999999999 89.75 -26.72999999999999 V-43.72999999999999 Q89.75 -46.47999999999999 87.81 -48.41499999999999 Q85.875 -50.35499999999999 83.125 -50.35499999999999 H68.25 Q66.625 -50.35499999999999 65.5 -49.289999999999985 Q64.375 -48.22999999999999 64.375 -46.47999999999999 V-23.97999999999999 Q64.375 -22.22999999999999 65.5 -21.169999999999987 Q66.625 -20.10499999999999 68.25 -20.10499999999999 Z M71.875 -27.60499999999999 V-42.85499999999999 H82.25 Q82.25 -42.85499999999999 82.25 -42.85499999999999 Q82.25 -42.85499999999999 82.25 -42.85499999999999 V-27.60499999999999 Q82.25 -27.60499999999999 82.25 -27.60499999999999 Q82.25 -27.60499999999999 82.25 -27.60499999999999 H71.875 Z M20.875 9.14500000000001 Q14.375 9.14500000000001 9.94 4.64500000000001 Q5.5 0.14500000000001023 5.5 -6.22999999999999 V-64.22999999999999 Q5.5 -70.60499999999999 9.94 -75.10499999999999 Q14.375 -79.60499999999999 20.875 -79.60499999999999 H99.125 Q105.625 -79.60499999999999 110.06500000000001 -75.10499999999999 Q114.5 -70.60499999999999 114.5 -64.22999999999999 V-6.22999999999999 Q114.5 0.14500000000001023 110.06500000000001 4.64500000000001 Q105.625 9.14500000000001 99.125 9.14500000000001 H20.875 Z M20.875 -6.22999999999999 H99.125 Q99.125 -6.22999999999999 99.125 -6.22999999999999 Q99.125 -6.22999999999999 99.125 -6.22999999999999 V-64.22999999999999 Q99.125 -64.22999999999999 99.125 -64.22999999999999 Q99.125 -64.22999999999999 99.125 -64.22999999999999 H20.875 Q20.875 -64.22999999999999 20.875 -64.22999999999999 Q20.875 -64.22999999999999 20.875 -64.22999999999999 V-6.22999999999999 Q20.875 -6.22999999999999 20.875 -6.22999999999999 Q20.875 -6.22999999999999 20.875 -6.22999999999999 Z"/></g><g id="Medium-M" transform="matrix(1 0 0 1 1689.91 1126)"><path d="M33.75 -19.97999999999999 Q35.375 -19.97999999999999 36.435 -21.044999999999987 Q37.5 -22.10499999999999 37.5 -23.72999999999999 V-30.22999999999999 H47.875 V-23.85499999999999 Q47.875 -22.10499999999999 48.94 -21.044999999999987 Q50.0 -19.97999999999999 51.625 -19.97999999999999 Q53.25 -19.97999999999999 54.315 -21.044999999999987 Q55.375 -22.10499999999999 55.375 -23.72999999999999 V-46.72999999999999 Q55.375 -48.35499999999999 54.315 -49.41999999999999 Q53.25 -50.47999999999999 51.625 -50.47999999999999 Q50.0 -50.47999999999999 48.94 -49.41999999999999 Q47.875 -48.35499999999999 47.875 -46.72999999999999 V-37.72999999999999 H37.5 V-46.72999999999999 Q37.5 -48.35499999999999 36.435 -49.41999999999999 Q35.375 -50.47999999999999 33.75 -50.47999999999999 Q32.125 -50.47999999999999 31.065 -49.41999999999999 Q30.0 -48.35499999999999 30.0 -46.72999999999999 V-23.72999999999999 Q30.0 -22.10499999999999 31.065 -21.044999999999987 Q32.125 -19.97999999999999 33.75 -19.97999999999999 Z M68.125 -19.97999999999999 H82.875 Q85.875 -19.97999999999999 87.935 -22.044999999999987 Q90.0 -24.10499999999999 90.0 -27.10499999999999 V-43.35499999999999 Q90.0 -46.35499999999999 87.935 -48.41999999999999 Q85.875 -50.47999999999999 82.875 -50.47999999999999 H68.125 Q66.625 -50.47999999999999 65.625 -49.47999999999999 Q64.625 -48.47999999999999 64.625 -46.97999999999999 V-23.47999999999999 Q64.625 -21.97999999999999 65.625 -20.97999999999999 Q66.625 -19.97999999999999 68.125 -19.97999999999999 Z M72.125 -27.47999999999999 V-42.97999999999999 H82.5 Q82.5 -42.97999999999999 82.5 -42.97999999999999 Q82.5 -42.97999999999999 82.5 -42.97999999999999 V-27.47999999999999 Q82.5 -27.47999999999999 82.5 -27.47999999999999 Q82.5 -27.47999999999999 82.5 -27.47999999999999 H72.125 Z M20.375 8.39500000000001 Q14.5 8.39500000000001 10.375 4.210000000000022 Q6.25 0.020000000000010232 6.25 -5.85499999999999 V-64.60499999999999 Q6.25 -70.47999999999999 10.375 -74.66999999999999 Q14.5 -78.85499999999999 20.375 -78.85499999999999 H99.625 Q105.5 -78.85499999999999 109.625 -74.66999999999999 Q113.75 -70.47999999999999 113.75 -64.60499999999999 V-5.85499999999999 Q113.75 0.020000000000010232 109.625 4.210000000000022 Q105.5 8.39500000000001 99.625 8.39500000000001 H20.375 Z M20.375 -5.85499999999999 H99.625 Q99.625 -5.85499999999999 99.625 -5.85499999999999 Q99.625 -5.85499999999999 99.625 -5.85499999999999 V-64.60499999999999 Q99.625 -64.60499999999999 99.625 -64.60499999999999 Q99.625 -64.60499999999999 99.625 -64.60499999999999 H20.375 Q20.375 -64.60499999999999 20.375 -64.60499999999999 Q20.375 -64.60499999999999 20.375 -64.60499999999999 V-5.85499999999999 Q20.375 -5.85499999999999 20.375 -5.85499999999999 Q20.375 -5.85499999999999 20.375 -5.85499999999999 Z"/></g><g id="Regular-M" transform="matrix(1 0 0 1 1394.06 1126)"><path d="M33.5 -19.97999999999999 Q35.125 -19.97999999999999 36.190000000000005 -21.044999999999987 Q37.25 -22.10499999999999 37.25 -23.72999999999999 V-30.22999999999999 H47.75 V-23.72999999999999 Q47.75 -22.10499999999999 48.815 -21.044999999999987 Q49.875 -19.97999999999999 51.5 -19.97999999999999 Q53.125 -19.97999999999999 54.19 -21.044999999999987 Q55.25 -22.10499999999999 55.25 -23.72999999999999 V-46.72999999999999 Q55.25 -48.35499999999999 54.19 -49.41999999999999 Q53.125 -50.47999999999999 51.5 -50.47999999999999 Q49.875 -50.47999999999999 48.815 -49.41999999999999 Q47.75 -48.35499999999999 47.75 -46.72999999999999 V-37.72999999999999 H37.25 V-46.72999999999999 Q37.25 -48.35499999999999 36.190000000000005 -49.41999999999999 Q35.125 -50.47999999999999 33.5 -50.47999999999999 Q31.875 -50.47999999999999 30.81 -49.41999999999999 Q29.75 -48.35499999999999 29.75 -46.72999999999999 V-23.72999999999999 Q29.75 -22.10499999999999 30.81 -21.044999999999987 Q31.875 -19.97999999999999 33.5 -19.97999999999999 Z M68.0 -19.97999999999999 H82.75 Q86.0 -19.97999999999999 88.125 -22.169999999999987 Q90.25 -24.35499999999999 90.25 -27.47999999999999 V-42.97999999999999 Q90.25 -46.22999999999999 88.125 -48.35499999999999 Q86.0 -50.47999999999999 82.75 -50.47999999999999 H68.0 Q66.625 -50.47999999999999 65.69 -49.54499999999999 Q64.75 -48.60499999999999 64.75 -47.22999999999999 V-23.22999999999999 Q64.75 -21.85499999999999 65.69 -20.919999999999987 Q66.625 -19.97999999999999 68.0 -19.97999999999999 Z M72.25 -27.47999999999999 V-42.97999999999999 H82.75 Q82.75 -42.97999999999999 82.75 -42.97999999999999 Q82.75 -42.97999999999999 82.75 -42.97999999999999 V-27.47999999999999 Q82.75 -27.47999999999999 82.75 -27.47999999999999 Q82.75 -27.47999999999999 82.75 -27.47999999999999 H72.25 Z M20.0 7.77000000000001 Q14.5 7.77000000000001 10.625 3.8950000000000102 Q6.75 0.020000000000010232 6.75 -5.47999999999999 V-64.97999999999999 Q6.75 -70.47999999999999 10.625 -74.35499999999999 Q14.5 -78.22999999999999 20.0 -78.22999999999999 H100.0 Q105.5 -78.22999999999999 109.375 -74.35499999999999 Q113.25 -70.47999999999999 113.25 -64.97999999999999 V-5.47999999999999 Q113.25 0.020000000000010232 109.375 3.8950000000000102 Q105.5 7.77000000000001 100.0 7.77000000000001 H20.0 Z M20.0 -5.47999999999999 H100.0 Q100.0 -5.47999999999999 100.0 -5.47999999999999 Q100.0 -5.47999999999999 100.0 -5.47999999999999 V-64.97999999999999 Q100.0 -64.97999999999999 100.0 -64.97999999999999 Q100.0 -64.97999999999999 100.0 -64.97999999999999 H20.0 Q20.0 -64.97999999999999 20.0 -64.97999999999999 Q20.0 -64.97999999999999 20.0 -64.97999999999999 V-5.47999999999999 Q20.0 -5.47999999999999 20.0 -5.47999999999999 Q20.0 -5.47999999999999 20.0 -5.47999999999999 Z"/></g><g id="Light-M" transform="matrix(1 0 0 1 1098.18 1126)"><path d="M34.25 -20.72999999999999 Q35.5 -20.72999999999999 36.375 -21.60499999999999 Q37.25 -22.47999999999999 37.25 -23.72999999999999 V-30.97999999999999 H49.25 V-23.72999999999999 Q49.25 -22.47999999999999 50.125 -21.60499999999999 Q51.0 -20.72999999999999 52.25 -20.72999999999999 Q53.5 -20.72999999999999 54.375 -21.60499999999999 Q55.25 -22.47999999999999 55.25 -23.72999999999999 V-46.72999999999999 Q55.25 -47.97999999999999 54.375 -48.85499999999999 Q53.5 -49.72999999999999 52.25 -49.72999999999999 Q51.0 -49.72999999999999 50.125 -48.85499999999999 Q49.25 -47.97999999999999 49.25 -46.72999999999999 V-36.97999999999999 H37.25 V-46.72999999999999 Q37.25 -47.97999999999999 36.375 -48.85499999999999 Q35.5 -49.72999999999999 34.25 -49.72999999999999 Q33.0 -49.72999999999999 32.125 -48.85499999999999 Q31.25 -47.97999999999999 31.25 -46.72999999999999 V-23.72999999999999 Q31.25 -22.47999999999999 32.125 -21.60499999999999 Q33.0 -20.72999999999999 34.25 -20.72999999999999 Z M67.75 -20.72999999999999 H81.0 Q84.25 -20.72999999999999 86.5 -22.97999999999999 Q88.75 -25.22999999999999 88.75 -28.47999999999999 V-41.97999999999999 Q88.75 -45.22999999999999 86.5 -47.47999999999999 Q84.25 -49.72999999999999 81.0 -49.72999999999999 H67.75 Q66.5 -49.72999999999999 65.625 -48.85499999999999 Q64.75 -47.97999999999999 64.75 -46.60499999999999 V-23.85499999999999 Q64.75 -22.47999999999999 65.625 -21.60499999999999 Q66.5 -20.72999999999999 67.75 -20.72999999999999 Z M70.75 -26.72999999999999 V-43.72999999999999 H82.0 Q82.25 -43.72999999999999 82.5 -43.47999999999999 Q82.75 -43.22999999999999 82.75 -42.97999999999999 V-27.47999999999999 Q82.75 -27.22999999999999 82.5 -26.97999999999999 Q82.25 -26.72999999999999 82.0 -26.72999999999999 H70.75 Z M21.5 5.27000000000001 Q16.375 5.27000000000001 12.809999999999999 1.7100000000000222 Q9.25 -1.8549999999999898 9.25 -6.97999999999999 V-63.47999999999999 Q9.25 -68.60499999999999 12.809999999999999 -72.16999999999999 Q16.375 -75.72999999999999 21.5 -75.72999999999999 H98.5 Q103.625 -75.72999999999999 107.19 -72.16999999999999 Q110.75 -68.60499999999999 110.75 -63.47999999999999 V-6.97999999999999 Q110.75 -1.8549999999999898 107.19 1.7100000000000222 Q103.625 5.27000000000001 98.5 5.27000000000001 H21.5 Z M21.5 -5.47999999999999 H98.5 Q99.125 -5.47999999999999 99.565 -5.920000000000002 Q100.0 -6.35499999999999 100.0 -6.97999999999999 V-63.47999999999999 Q100.0 -64.10499999999999 99.565 -64.54499999999999 Q99.125 -64.97999999999999 98.5 -64.97999999999999 H21.5 Q20.875 -64.97999999999999 20.44 -64.54499999999999 Q20.0 -64.10499999999999 20.0 -63.47999999999999 V-6.97999999999999 Q20.0 -6.35499999999999 20.44 -5.920000000000002 Q20.875 -5.47999999999999 21.5 -5.47999999999999 Z"/></g><g id="Thin-M" transform="matrix(1 0 0 1 802.565 1126)"><path d="M35.0 -21.47999999999999 Q36.0 -21.47999999999999 36.625 -22.10499999999999 Q37.25 -22.72999999999999 37.25 -23.72999999999999 V-31.72999999999999 H50.875 V-23.72999999999999 Q50.875 -22.72999999999999 51.5 -22.10499999999999 Q52.125 -21.47999999999999 53.0 -21.47999999999999 Q54.0 -21.47999999999999 54.625 -22.10499999999999 Q55.25 -22.72999999999999 55.25 -23.72999999999999 V-46.72999999999999 Q55.25 -47.72999999999999 54.625 -48.35499999999999 Q54.0 -48.97999999999999 53.0 -48.97999999999999 Q52.125 -48.97999999999999 51.5 -48.35499999999999 Q50.875 -47.72999999999999 50.875 -46.72999999999999 V-36.22999999999999 H37.25 V-46.72999999999999 Q37.25 -47.72999999999999 36.625 -48.35499999999999 Q36.0 -48.97999999999999 35.0 -48.97999999999999 Q34.125 -48.97999999999999 33.5 -48.35499999999999 Q32.875 -47.72999999999999 32.875 -46.72999999999999 V-23.72999999999999 Q32.875 -22.72999999999999 33.5 -22.10499999999999 Q34.125 -21.47999999999999 35.0 -21.47999999999999 Z M67.625 -21.47999999999999 H79.25 Q82.625 -21.47999999999999 84.875 -23.794999999999987 Q87.125 -26.10499999999999 87.125 -29.35499999999999 V-41.10499999999999 Q87.125 -44.35499999999999 84.875 -46.66999999999999 Q82.625 -48.97999999999999 79.25 -48.97999999999999 H67.625 Q66.375 -48.97999999999999 65.565 -48.16999999999999 Q64.75 -47.35499999999999 64.75 -46.10499999999999 V-24.35499999999999 Q64.75 -23.10499999999999 65.565 -22.294999999999987 Q66.375 -21.47999999999999 67.625 -21.47999999999999 Z M69.125 -25.97999999999999 V-44.47999999999999 H81.25 Q81.75 -44.47999999999999 82.25 -44.04499999999999 Q82.75 -43.60499999999999 82.75 -42.97999999999999 V-27.47999999999999 Q82.75 -26.85499999999999 82.25 -26.419999999999987 Q81.75 -25.97999999999999 81.25 -25.97999999999999 H69.125 Z M23.125 2.7700000000000102 Q18.25 2.7700000000000102 15.0 -0.47999999999998977 Q11.75 -3.7299999999999898 11.75 -8.60499999999999 V-61.85499999999999 Q11.75 -66.72999999999999 15.0 -69.97999999999999 Q18.25 -73.22999999999999 23.125 -73.22999999999999 H96.875 Q101.75 -73.22999999999999 105.0 -69.97999999999999 Q108.25 -66.72999999999999 108.25 -61.85499999999999 V-8.60499999999999 Q108.25 -3.7299999999999898 105.0 -0.47999999999998977 Q101.75 2.7700000000000102 96.875 2.7700000000000102 H23.125 Z M23.125 -5.47999999999999 H96.875 Q98.25 -5.47999999999999 99.125 -6.35499999999999 Q100.0 -7.22999999999999 100.0 -8.60499999999999 V-61.85499999999999 Q100.0 -63.22999999999999 99.125 -64.10499999999999 Q98.25 -64.97999999999999 96.875 -64.97999999999999 H23.125 Q21.75 -64.97999999999999 20.875 -64.10499999999999 Q20.0 -63.22999999999999 20.0 -61.85499999999999 V-8.60499999999999 Q20.0 -7.22999999999999 20.875 -6.35499999999999 Q21.75 -5.47999999999999 23.125 -5.47999999999999 Z"/></g><g id="Ultralight-M" transform="matrix(1 0 0 1 506.415 1126)"><path d="M35.5 -21.97999999999999 Q36.25 -21.97999999999999 36.75 -22.47999999999999 Q37.25 -22.97999999999999 37.25 -23.72999999999999 V-32.22999999999999 H51.75 V-23.72999999999999 Q51.75 -22.97999999999999 52.25 -22.47999999999999 Q52.75 -21.97999999999999 53.5 -21.97999999999999 Q54.25 -21.97999999999999 54.75 -22.47999999999999 Q55.25 -22.97999999999999 55.25 -23.72999999999999 V-46.72999999999999 Q55.25 -47.47999999999999 54.75 -47.97999999999999 Q54.25 -48.47999999999999 53.5 -48.47999999999999 Q52.75 -48.47999999999999 52.25 -47.97999999999999 Q51.75 -47.47999999999999 51.75 -46.72999999999999 V-35.72999999999999 H37.25 V-46.72999999999999 Q37.25 -47.47999999999999 36.75 -47.97999999999999 Q36.25 -48.47999999999999 35.5 -48.47999999999999 Q34.75 -48.47999999999999 34.25 -47.97999999999999 Q33.75 -47.47999999999999 33.75 -46.72999999999999 V-23.72999999999999 Q33.75 -22.97999999999999 34.25 -22.47999999999999 Q34.75 -21.97999999999999 35.5 -21.97999999999999 Z M67.5 -21.97999999999999 H78.25 Q81.625 -21.97999999999999 83.94 -24.35499999999999 Q86.25 -26.72999999999999 86.25 -29.97999999999999 V-40.47999999999999 Q86.25 -43.85499999999999 83.94 -46.169999999999995 Q81.625 -48.47999999999999 78.25 -48.47999999999999 H67.5 Q66.25 -48.47999999999999 65.5 -47.72999999999999 Q64.75 -46.97999999999999 64.75 -45.72999999999999 V-24.72999999999999 Q64.75 -23.47999999999999 65.5 -22.72999999999999 Q66.25 -21.97999999999999 67.5 -21.97999999999999 Z M68.25 -25.47999999999999 V-44.97999999999999 H80.75 Q81.5 -44.97999999999999 82.125 -44.35499999999999 Q82.75 -43.72999999999999 82.75 -42.97999999999999 V-27.47999999999999 Q82.75 -26.72999999999999 82.125 -26.10499999999999 Q81.5 -25.47999999999999 80.75 -25.47999999999999 H68.25 Z M24.0 1.2700000000000102 Q19.375 1.2700000000000102 16.314999999999998 -1.789999999999992 Q13.25 -4.85499999999999 13.25 -9.47999999999999 V-60.97999999999999 Q13.25 -65.60499999999999 16.314999999999998 -68.66999999999999 Q19.375 -71.72999999999999 24.0 -71.72999999999999 H96.0 Q100.625 -71.72999999999999 103.69 -68.66999999999999 Q106.75 -65.60499999999999 106.75 -60.97999999999999 V-9.47999999999999 Q106.75 -4.85499999999999 103.69 -1.789999999999992 Q100.625 1.2700000000000102 96.0 1.2700000000000102 H24.0 Z M24.0 -5.47999999999999 H96.0 Q97.75 -5.47999999999999 98.875 -6.60499999999999 Q100.0 -7.72999999999999 100.0 -9.47999999999999 V-60.97999999999999 Q100.0 -62.72999999999999 98.875 -63.85499999999999 Q97.75 -64.97999999999999 96.0 -64.97999999999999 H24.0 Q22.25 -64.97999999999999 21.125 -63.85499999999999 Q20.0 -62.72999999999999 20.0 -60.97999999999999 V-9.47999999999999 Q20.0 -7.72999999999999 21.125 -6.60499999999999 Q22.25 -5.47999999999999 24.0 -5.47999999999999 Z"/></g><g id="Bold-S" transform="matrix(1 0 0 1 2294.23 696)"><path d="M27.319914 -23.394999999999996 Q28.602828 -23.394999999999996 29.488086 -24.23291799999999 Q30.378078 -25.070835999999993 30.378078 -26.453163999999994 V-31.187163999999996 H38.070828 V-26.453163999999994 Q38.070828 -25.070835999999993 38.956086 -24.23291799999999 Q39.846078 -23.394999999999996 41.128992000000004 -23.394999999999996 Q42.407172 -23.394999999999996 43.297164 -24.23291799999999 Q44.182422 -25.070835999999993 44.182422 -26.453163999999994 V-44.00683599999999 Q44.182422 -45.28974999999999 43.297164 -46.17500799999999 Q42.407172 -47.06499999999999 41.128992000000004 -47.06499999999999 Q39.846078 -47.06499999999999 38.956086 -46.227081999999996 Q38.070828 -45.389163999999994 38.070828 -44.00683599999999 V-37.303492 H30.378078 V-44.00683599999999 Q30.378078 -45.28974999999999 29.488086 -46.17500799999999 Q28.602828 -47.06499999999999 27.319914 -47.06499999999999 Q26.037 -47.06499999999999 25.147008 -46.227081999999996 Q24.26175 -45.389163999999994 24.26175 -44.00683599999999 V-26.35374999999999 Q24.26175 -25.170249999999996 25.147008 -24.284991999999995 Q26.037 -23.394999999999996 27.319914 -23.394999999999996 Z M54.147492 -23.394999999999996 H64.301922 Q66.76833599999999 -23.394999999999996 68.59566 -25.217589999999994 Q70.41825 -27.044914 70.41825 -29.60600799999999 V-40.853992 Q70.41825 -43.51449999999999 68.59566 -45.28974999999999 Q66.76833599999999 -47.06499999999999 64.301922 -47.06499999999999 H54.147492 Q52.56633599999999 -47.06499999999999 51.52959 -46.02825399999999 Q50.497578 -44.991507999999996 50.497578 -43.41508599999999 V-27.044914 Q50.497578 -25.468491999999998 51.52959 -24.43174599999999 Q52.56633599999999 -23.394999999999996 54.147492 -23.394999999999996 Z M56.609172 -29.511327999999992 V-40.948671999999995 H64.301922 Q64.301922 -40.948671999999995 64.301922 -40.948671999999995 Q64.301922 -40.948671999999995 64.301922 -40.948671999999995 V-29.511327999999992 Q64.301922 -29.511327999999992 64.301922 -29.511327999999992 Q64.301922 -29.511327999999992 64.301922 -29.511327999999992 H56.609172 Z M17.359578 0.5685080000000085 Q11.541492000000002 0.5685080000000085 7.545996000000001 -3.422253999999981 Q3.5505 -7.417749999999998 3.5505 -13.235835999999992 V-57.22416399999999 Q3.5505 -63.042249999999996 7.545996000000001 -67.037746 Q11.541492000000002 -71.02850799999999 17.359578 -71.02850799999999 H77.320422 Q83.138508 -71.02850799999999 87.13400399999999 -67.037746 Q91.1295 -63.042249999999996 91.1295 -57.22416399999999 V-13.235835999999992 Q91.1295 -7.417749999999998 87.13400399999999 -3.422253999999981 Q83.138508 0.5685080000000085 77.320422 0.5685080000000085 H17.359578 Z M17.359578 -13.235835999999992 H77.320422 Q77.320422 -13.235835999999992 77.320422 -13.235835999999992 Q77.320422 -13.235835999999992 77.320422 -13.235835999999992 V-57.22416399999999 Q77.320422 -57.22416399999999 77.320422 -57.22416399999999 Q77.320422 -57.22416399999999 77.320422 -57.22416399999999 H17.359578 Q17.359578 -57.22416399999999 17.359578 -57.22416399999999 Q17.359578 -57.22416399999999 17.359578 -57.22416399999999 V-13.235835999999992 Q17.359578 -13.235835999999992 17.359578 -13.235835999999992 Q17.359578 -13.235835999999992 17.359578 -13.235835999999992 Z"/></g><g id="Semibold-S" transform="matrix(1 0 0 1 1998.1 696)"><path d="M27.021672000000002 -23.394999999999996 Q28.304586 -23.394999999999996 29.194578 -24.23291799999999 Q30.079836 -25.070835999999993 30.079836 -26.35374999999999 V-31.187163999999996 H37.872 V-26.453163999999994 Q37.872 -25.070835999999993 38.709917999999995 -24.23291799999999 Q39.547836 -23.394999999999996 40.930164000000005 -23.394999999999996 Q42.213077999999996 -23.394999999999996 43.098335999999996 -24.23291799999999 Q43.988327999999996 -25.070835999999993 43.988327999999996 -26.453163999999994 V-44.106249999999996 Q43.988327999999996 -45.389163999999994 43.098335999999996 -46.227081999999996 Q42.213077999999996 -47.06499999999999 40.930164000000005 -47.06499999999999 Q39.547836 -47.06499999999999 38.709917999999995 -46.227081999999996 Q37.872 -45.389163999999994 37.872 -44.00683599999999 V-37.303492 H30.079836 V-44.106249999999996 Q30.079836 -45.389163999999994 29.194578 -46.227081999999996 Q28.304586 -47.06499999999999 27.021672000000002 -47.06499999999999 Q25.743492 -47.06499999999999 24.8535 -46.227081999999996 Q23.963508 -45.389163999999994 23.963508 -44.00683599999999 V-26.35374999999999 Q23.963508 -25.070835999999993 24.8535 -24.23291799999999 Q25.743492 -23.394999999999996 27.021672000000002 -23.394999999999996 Z M53.948664 -23.394999999999996 H64.107828 Q66.86775 -23.394999999999996 68.789754 -25.317003999999997 Q70.716492 -27.23900799999999 70.716492 -30.10307799999999 V-40.356922 Q70.716492 -43.220991999999995 68.789754 -45.142996 Q66.86775 -47.06499999999999 64.107828 -47.06499999999999 H53.948664 Q52.56633599999999 -47.06499999999999 51.629004 -46.12766799999999 Q50.691672000000004 -45.190335999999995 50.691672000000004 -43.808007999999994 V-26.651991999999993 Q50.691672000000004 -25.269664 51.629004 -24.332331999999994 Q52.56633599999999 -23.394999999999996 53.948664 -23.394999999999996 Z M56.808 -29.511327999999992 V-40.948671999999995 H64.600164 Q64.600164 -40.948671999999995 64.600164 -40.948671999999995 Q64.600164 -40.948671999999995 64.600164 -40.948671999999995 V-29.511327999999992 Q64.600164 -29.511327999999992 64.600164 -29.511327999999992 Q64.600164 -29.511327999999992 64.600164 -29.511327999999992 H56.808 Z M16.862508 -0.21733599999998887 Q11.636172 -0.21733599999998887 7.986258 -3.8672499999999985 Q4.341078 -7.517163999999994 4.341078 -12.743499999999997 V-57.716499999999996 Q4.341078 -62.94283599999999 7.986258 -66.59275 Q11.636172 -70.24266399999999 16.862508 -70.24266399999999 H77.81749199999999 Q83.043828 -70.24266399999999 86.689008 -66.59275 Q90.338922 -62.94283599999999 90.338922 -57.716499999999996 V-12.743499999999997 Q90.338922 -7.517163999999994 86.689008 -3.8672499999999985 Q83.043828 -0.21733599999998887 77.81749199999999 -0.21733599999998887 H16.862508 Z M16.862508 -12.743499999999997 H77.81749199999999 Q77.81749199999999 -12.743499999999997 77.81749199999999 -12.743499999999997 Q77.81749199999999 -12.743499999999997 77.81749199999999 -12.743499999999997 V-57.716499999999996 Q77.81749199999999 -57.716499999999996 77.81749199999999 -57.716499999999996 Q77.81749199999999 -57.716499999999996 77.81749199999999 -57.716499999999996 H16.862508 Q16.862508 -57.716499999999996 16.862508 -57.716499999999996 Q16.862508 -57.716499999999996 16.862508 -57.716499999999996 V-12.743499999999997 Q16.862508 -12.743499999999997 16.862508 -12.743499999999997 Q16.862508 -12.743499999999997 16.862508 -12.743499999999997 Z"/></g><g id="Medium-S" transform="matrix(1 0 0 1 1701.85 696)"><path d="M26.827578 -23.295585999999993 Q28.110491999999997 -23.295585999999993 28.99575 -24.185577999999992 Q29.881008 -25.070835999999993 29.881008 -26.35374999999999 V-31.187163999999996 H37.673172 V-26.453163999999994 Q37.673172 -25.070835999999993 38.563164 -24.185577999999992 Q39.448422 -23.295585999999993 40.731336 -23.295585999999993 Q42.11366400000001 -23.295585999999993 42.951582 -24.185577999999992 Q43.7895 -25.070835999999993 43.7895 -26.35374999999999 V-44.106249999999996 Q43.7895 -45.389163999999994 42.951582 -46.274421999999994 Q42.11366400000001 -47.164413999999994 40.731336 -47.164413999999994 Q39.448422 -47.164413999999994 38.563164 -46.274421999999994 Q37.673172 -45.389163999999994 37.673172 -44.106249999999996 V-37.303492 H29.881008 V-44.106249999999996 Q29.881008 -45.389163999999994 28.99575 -46.274421999999994 Q28.110491999999997 -47.164413999999994 26.827578 -47.164413999999994 Q25.44525 -47.164413999999994 24.607332000000003 -46.274421999999994 Q23.769414 -45.389163999999994 23.769414 -44.106249999999996 V-26.35374999999999 Q23.769414 -25.070835999999993 24.607332000000003 -24.185577999999992 Q25.44525 -23.295585999999993 26.827578 -23.295585999999993 Z M53.84925 -23.295585999999993 H63.909 Q66.86775 -23.295585999999993 68.889168 -25.369077999999995 Q70.910586 -27.43783599999999 70.910586 -30.396585999999992 V-40.063413999999995 Q70.910586 -43.12157799999999 68.889168 -45.142996 Q66.86775 -47.164413999999994 63.909 -47.164413999999994 H53.84925 Q52.56633599999999 -47.164413999999994 51.728418 -46.274421999999994 Q50.8905 -45.389163999999994 50.8905 -44.205664 V-26.254335999999988 Q50.8905 -25.070835999999993 51.728418 -24.185577999999992 Q52.56633599999999 -23.295585999999993 53.84925 -23.295585999999993 Z M57.006828 -29.411913999999996 V-41.04808599999999 H64.798992 Q64.798992 -41.04808599999999 64.798992 -41.04808599999999 Q64.798992 -41.04808599999999 64.798992 -41.04808599999999 V-29.411913999999996 Q64.798992 -29.411913999999996 64.798992 -29.411913999999996 Q64.798992 -29.411913999999996 64.798992 -29.411913999999996 H57.006828 Z M16.469586 -0.8090859999999935 Q11.636172 -0.8090859999999935 8.2845 -4.212831999999992 Q4.932828 -7.61657799999999 4.932828 -12.449991999999995 V-58.010008 Q4.932828 -62.84342199999999 8.2845 -66.24716799999999 Q11.636172 -69.650914 16.469586 -69.650914 H78.210414 Q83.043828 -69.650914 86.3955 -66.24716799999999 Q89.74717199999999 -62.84342199999999 89.74717199999999 -58.010008 V-12.449991999999995 Q89.74717199999999 -7.61657799999999 86.3955 -4.212831999999992 Q83.043828 -0.8090859999999935 78.210414 -0.8090859999999935 H16.469586 Z M16.469586 -12.449991999999995 H78.210414 Q78.210414 -12.449991999999995 78.210414 -12.449991999999995 Q78.210414 -12.449991999999995 78.210414 -12.449991999999995 V-58.010008 Q78.210414 -58.010008 78.210414 -58.010008 Q78.210414 -58.010008 78.210414 -58.010008 H16.469586 Q16.469586 -58.010008 16.469586 -58.010008 Q16.469586 -58.010008 16.469586 -58.010008 V-12.449991999999995 Q16.469586 -12.449991999999995 16.469586 -12.449991999999995 Q16.469586 -12.449991999999995 16.469586 -12.449991999999995 Z"/></g><g id="Regular-S" transform="matrix(1 0 0 1 1405.73 696)"><path d="M26.62875 -23.295585999999993 Q27.911664 -23.295585999999993 28.796922000000002 -24.185577999999992 Q29.686913999999998 -25.070835999999993 29.686913999999998 -26.35374999999999 V-31.187163999999996 H37.578492 V-26.35374999999999 Q37.578492 -25.070835999999993 38.46375 -24.185577999999992 Q39.349008 -23.295585999999993 40.631922 -23.295585999999993 Q41.914835999999994 -23.295585999999993 42.804828 -24.185577999999992 Q43.690085999999994 -25.070835999999993 43.690085999999994 -26.35374999999999 V-44.106249999999996 Q43.690085999999994 -45.389163999999994 42.804828 -46.274421999999994 Q41.914835999999994 -47.164413999999994 40.631922 -47.164413999999994 Q39.349008 -47.164413999999994 38.46375 -46.274421999999994 Q37.578492 -45.389163999999994 37.578492 -44.106249999999996 V-37.303492 H29.686913999999998 V-44.106249999999996 Q29.686913999999998 -45.389163999999994 28.796922000000002 -46.274421999999994 Q27.911664 -47.164413999999994 26.62875 -47.164413999999994 Q25.345836000000002 -47.164413999999994 24.460577999999998 -46.274421999999994 Q23.570586 -45.389163999999994 23.570586 -44.106249999999996 V-26.35374999999999 Q23.570586 -25.070835999999993 24.460577999999998 -24.185577999999992 Q25.345836000000002 -23.295585999999993 26.62875 -23.295585999999993 Z M53.749835999999995 -23.295585999999993 H63.809585999999996 Q66.86775 -23.295585999999993 68.98858200000001 -25.416417999999993 Q71.109414 -27.537249999999993 71.109414 -30.694827999999994 V-39.76517199999999 Q71.109414 -43.022164 68.98858200000001 -45.09092199999999 Q66.86775 -47.164413999999994 63.809585999999996 -47.164413999999994 H53.749835999999995 Q52.56633599999999 -47.164413999999994 51.780492 -46.373836 Q50.989914000000006 -45.58799199999999 50.989914000000006 -44.404492 V-26.05550799999999 Q50.989914000000006 -24.872007999999994 51.780492 -24.086163999999997 Q52.56633599999999 -23.295585999999993 53.749835999999995 -23.295585999999993 Z M57.101507999999995 -29.411913999999996 V-41.04808599999999 H64.99308599999999 Q64.99308599999999 -41.04808599999999 64.99308599999999 -41.04808599999999 Q64.99308599999999 -41.04808599999999 64.99308599999999 -41.04808599999999 V-29.411913999999996 Q64.99308599999999 -29.411913999999996 64.99308599999999 -29.411913999999996 Q64.99308599999999 -29.411913999999996 64.99308599999999 -29.411913999999996 H57.101507999999995 Z M16.176078 -1.301421999999988 Q11.735586 -1.301421999999988 8.530668 -4.5063399999999945 Q5.32575 -7.715992 5.32575 -12.151749999999993 V-58.308249999999994 Q5.32575 -62.744007999999994 8.530668 -65.95366 Q11.735586 -69.15857799999999 16.176078 -69.15857799999999 H78.50392199999999 Q82.94441400000001 -69.15857799999999 86.149332 -65.95366 Q89.35425 -62.744007999999994 89.35425 -58.308249999999994 V-12.151749999999993 Q89.35425 -7.715992 86.149332 -4.5063399999999945 Q82.94441400000001 -1.301421999999988 78.50392199999999 -1.301421999999988 H16.176078 Z M16.176078 -12.151749999999993 H78.50392199999999 Q78.50392199999999 -12.151749999999993 78.50392199999999 -12.151749999999993 Q78.50392199999999 -12.151749999999993 78.50392199999999 -12.151749999999993 V-58.308249999999994 Q78.50392199999999 -58.308249999999994 78.50392199999999 -58.308249999999994 Q78.50392199999999 -58.308249999999994 78.50392199999999 -58.308249999999994 H16.176078 Q16.176078 -58.308249999999994 16.176078 -58.308249999999994 Q16.176078 -58.308249999999994 16.176078 -58.308249999999994 V-12.151749999999993 Q16.176078 -12.151749999999993 16.176078 -12.151749999999993 Q16.176078 -12.151749999999993 16.176078 -12.151749999999993 Z"/></g><g id="Light-S" transform="matrix(1 0 0 1 1109.75 696)"><path d="M27.2205 -23.88733599999999 Q28.304586 -23.88733599999999 28.99575 -24.57849999999999 Q29.686913999999998 -25.269664 29.686913999999998 -26.35374999999999 V-31.778914 H38.761992 V-26.35374999999999 Q38.761992 -25.269664 39.448422 -24.57849999999999 Q40.139585999999994 -23.88733599999999 41.223672 -23.88733599999999 Q42.312492000000006 -23.88733599999999 42.998922 -24.57849999999999 Q43.690085999999994 -25.269664 43.690085999999994 -26.35374999999999 V-44.106249999999996 Q43.690085999999994 -45.09092199999999 42.998922 -45.83416 Q42.312492000000006 -46.572663999999996 41.223672 -46.572663999999996 Q40.139585999999994 -46.572663999999996 39.448422 -45.881499999999996 Q38.761992 -45.190335999999995 38.761992 -44.106249999999996 V-36.70700799999999 H29.686913999999998 V-44.106249999999996 Q29.686913999999998 -45.09092199999999 28.99575 -45.83416 Q28.304586 -46.572663999999996 27.2205 -46.572663999999996 Q26.136414 -46.572663999999996 25.44525 -45.881499999999996 Q24.754086 -45.190335999999995 24.754086 -44.106249999999996 V-26.35374999999999 Q24.754086 -25.369077999999995 25.44525 -24.62583999999999 Q26.136414 -23.88733599999999 27.2205 -23.88733599999999 Z M53.551007999999996 -23.88733599999999 H62.431992 Q65.584836 -23.88733599999999 67.753008 -26.05550799999999 Q69.925914 -28.228413999999994 69.925914 -31.48067199999999 V-38.979327999999995 Q69.925914 -42.23158599999999 67.753008 -44.404492 Q65.584836 -46.572663999999996 62.431992 -46.572663999999996 H53.551007999999996 Q52.466922000000004 -46.572663999999996 51.728418 -45.83416 Q50.989914000000006 -45.09092199999999 50.989914000000006 -43.907422 V-26.55257799999999 Q50.989914000000006 -25.369077999999995 51.728418 -24.62583999999999 Q52.466922000000004 -23.88733599999999 53.551007999999996 -23.88733599999999 Z M55.918008 -28.820164 V-41.63983599999999 H64.401336 Q64.600164 -41.63983599999999 64.798992 -41.44100799999999 Q64.99308599999999 -41.246914 64.99308599999999 -41.04808599999999 V-29.411913999999996 Q64.99308599999999 -29.21308599999999 64.798992 -29.018991999999997 Q64.600164 -28.820164 64.401336 -28.820164 H55.918008 Z M17.359578 -3.275499999999994 Q13.217327999999998 -3.275499999999994 10.258578 -6.234249999999989 Q7.299828 -9.192999999999998 7.299828 -13.335249999999988 V-57.12474999999999 Q7.299828 -61.266999999999996 10.258578 -64.22574999999999 Q13.217327999999998 -67.18449999999999 17.359578 -67.18449999999999 H77.320422 Q81.462672 -67.18449999999999 84.42142199999999 -64.22574999999999 Q87.38017199999999 -61.266999999999996 87.38017199999999 -57.12474999999999 V-13.335249999999988 Q87.38017199999999 -9.192999999999998 84.42142199999999 -6.234249999999989 Q81.462672 -3.275499999999994 77.320422 -3.275499999999994 H17.359578 Z M17.359578 -12.151749999999993 H77.320422 Q77.81749199999999 -12.151749999999993 78.15834000000001 -12.497332 Q78.50392199999999 -12.842913999999993 78.50392199999999 -13.335249999999988 V-57.12474999999999 Q78.50392199999999 -57.61708599999999 78.15834000000001 -57.962667999999994 Q77.81749199999999 -58.308249999999994 77.320422 -58.308249999999994 H17.359578 Q16.862508 -58.308249999999994 16.52166 -57.962667999999994 Q16.176078 -57.61708599999999 16.176078 -57.12474999999999 V-13.335249999999988 Q16.176078 -12.842913999999993 16.52166 -12.497332 Q16.862508 -12.151749999999993 17.359578 -12.151749999999993 Z"/></g><g id="Thin-S" transform="matrix(1 0 0 1 814.015 696)"><path d="M27.81225 -24.479085999999988 Q28.602828 -24.479085999999988 29.142504 -25.023495999999987 Q29.686913999999998 -25.563171999999994 29.686913999999998 -26.35374999999999 V-32.370664 H40.040172 V-26.35374999999999 Q40.040172 -25.563171999999994 40.532508 -25.023495999999987 Q41.029578 -24.479085999999988 41.815422 -24.479085999999988 Q42.606 -24.479085999999988 43.15041 -25.023495999999987 Q43.690085999999994 -25.563171999999994 43.690085999999994 -26.35374999999999 V-44.106249999999996 Q43.690085999999994 -44.89682799999999 43.15041 -45.43650399999999 Q42.606 -45.98091399999999 41.815422 -45.98091399999999 Q41.029578 -45.98091399999999 40.532508 -45.43650399999999 Q40.040172 -44.89682799999999 40.040172 -44.106249999999996 V-36.119991999999996 H29.686913999999998 V-44.106249999999996 Q29.686913999999998 -44.89682799999999 29.142504 -45.43650399999999 Q28.602828 -45.98091399999999 27.81225 -45.98091399999999 Q27.021672000000002 -45.98091399999999 26.529336 -45.43650399999999 Q26.037 -44.89682799999999 26.037 -44.106249999999996 V-26.35374999999999 Q26.037 -25.563171999999994 26.529336 -25.023495999999987 Q27.021672000000002 -24.479085999999988 27.81225 -24.479085999999988 Z M53.456328 -24.479085999999988 H61.04966400000001 Q64.301922 -24.479085999999988 66.474828 -26.746671999999997 Q68.643 -29.018991999999997 68.643 -32.17183599999999 V-38.288163999999995 Q68.643 -41.54042199999999 66.474828 -43.76066799999999 Q64.301922 -45.98091399999999 61.04966400000001 -45.98091399999999 H53.456328 Q52.367507999999994 -45.98091399999999 51.681078 -45.28974999999999 Q50.989914000000006 -44.59858599999999 50.989914000000006 -43.51449999999999 V-26.945499999999996 Q50.989914000000006 -25.861413999999996 51.681078 -25.170249999999996 Q52.367507999999994 -24.479085999999988 53.456328 -24.479085999999988 Z M54.639828 -28.228413999999994 V-42.23158599999999 H63.809585999999996 Q64.202508 -42.23158599999999 64.600164 -41.88600399999999 Q64.99308599999999 -41.54042199999999 64.99308599999999 -41.04808599999999 V-29.411913999999996 Q64.99308599999999 -28.919577999999994 64.600164 -28.573995999999994 Q64.202508 -28.228413999999994 63.809585999999996 -28.228413999999994 H54.639828 Z M18.642492 -5.249578 Q14.694336 -5.249578 11.981754 -7.962159999999997 Q9.269172 -10.670007999999996 9.269172 -14.618163999999993 V-55.841835999999994 Q9.269172 -59.78999199999999 11.981754 -62.49784 Q14.694336 -65.210422 18.642492 -65.210422 H76.037508 Q79.985664 -65.210422 82.69824600000001 -62.49784 Q85.41082800000001 -59.78999199999999 85.41082800000001 -55.841835999999994 V-14.618163999999993 Q85.41082800000001 -10.670007999999996 82.69824600000001 -7.962159999999997 Q79.985664 -5.249578 76.037508 -5.249578 H18.642492 Z M18.642492 -12.151749999999993 H76.037508 Q77.126328 -12.151749999999993 77.81749199999999 -12.842913999999993 Q78.50392199999999 -13.534077999999994 78.50392199999999 -14.618163999999993 V-55.841835999999994 Q78.50392199999999 -56.92592199999999 77.81749199999999 -57.61708599999999 Q77.126328 -58.308249999999994 76.037508 -58.308249999999994 H18.642492 Q17.553672000000002 -58.308249999999994 16.862508 -57.61708599999999 Q16.176078 -56.92592199999999 16.176078 -55.841835999999994 V-14.618163999999993 Q16.176078 -13.534077999999994 16.862508 -12.842913999999993 Q17.553672000000002 -12.151749999999993 18.642492 -12.151749999999993 Z"/></g><g id="Ultralight-S" transform="matrix(1 0 0 1 517.792 696)"><path d="M28.205172 -24.872007999999994 Q28.796922000000002 -24.872007999999994 29.241918 -25.317003999999997 Q29.686913999999998 -25.761999999999993 29.686913999999998 -26.35374999999999 V-32.76358599999999 H40.731336 V-26.35374999999999 Q40.731336 -25.761999999999993 41.176332 -25.317003999999997 Q41.621328 -24.872007999999994 42.213077999999996 -24.872007999999994 Q42.804828 -24.872007999999994 43.24509 -25.317003999999997 Q43.690085999999994 -25.761999999999993 43.690085999999994 -26.35374999999999 V-44.106249999999996 Q43.690085999999994 -44.69799999999999 43.24509 -45.142996 Q42.804828 -45.58799199999999 42.213077999999996 -45.58799199999999 Q41.621328 -45.58799199999999 41.176332 -45.142996 Q40.731336 -44.69799999999999 40.731336 -44.106249999999996 V-35.72233599999999 H29.686913999999998 V-44.106249999999996 Q29.686913999999998 -44.69799999999999 29.241918 -45.142996 Q28.796922000000002 -45.58799199999999 28.205172 -45.58799199999999 Q27.613422 -45.58799199999999 27.17316 -45.142996 Q26.728164 -44.69799999999999 26.728164 -44.106249999999996 V-26.35374999999999 Q26.728164 -25.761999999999993 27.17316 -25.317003999999997 Q27.613422 -24.872007999999994 28.205172 -24.872007999999994 Z M53.356914 -24.872007999999994 H60.259085999999996 Q63.416664000000004 -24.872007999999994 65.68425 -27.144327999999994 Q67.951836 -29.411913999999996 67.951836 -32.66417199999999 V-37.79582799999999 Q67.951836 -41.147499999999994 65.68425 -43.36774599999999 Q63.416664000000004 -45.58799199999999 60.259085999999996 -45.58799199999999 H53.356914 Q52.272828 -45.58799199999999 51.629004 -44.94416799999999 Q50.989914000000006 -44.305077999999995 50.989914000000006 -43.220991999999995 V-27.23900799999999 Q50.989914000000006 -26.154921999999992 51.629004 -25.515831999999996 Q52.272828 -24.872007999999994 53.356914 -24.872007999999994 Z M53.948664 -27.835491999999995 V-42.62450799999999 H63.416664000000004 Q64.008414 -42.62450799999999 64.50075 -42.132172 Q64.99308599999999 -41.63983599999999 64.99308599999999 -41.04808599999999 V-29.411913999999996 Q64.99308599999999 -28.820164 64.50075 -28.32782799999999 Q64.008414 -27.835491999999995 63.416664000000004 -27.835491999999995 H53.948664 Z M19.328922000000002 -6.433077999999995 Q15.584328 -6.433077999999995 13.0185 -8.994171999999992 Q10.452672000000002 -11.559999999999988 10.452672000000002 -15.309327999999994 V-55.15067199999999 Q10.452672000000002 -58.89999999999999 13.0185 -61.46582799999999 Q15.584328 -64.026922 19.328922000000002 -64.026922 H75.351078 Q79.095672 -64.026922 81.6615 -61.46582799999999 Q84.22732800000001 -58.89999999999999 84.22732800000001 -55.15067199999999 V-15.309327999999994 Q84.22732800000001 -11.559999999999988 81.6615 -8.994171999999992 Q79.095672 -6.433077999999995 75.351078 -6.433077999999995 H19.328922000000002 Z M19.328922000000002 -12.151749999999993 H75.351078 Q76.72867199999999 -12.151749999999993 77.61866400000001 -13.037007999999986 Q78.50392199999999 -13.926999999999992 78.50392199999999 -15.309327999999994 V-55.15067199999999 Q78.50392199999999 -56.532999999999994 77.61866400000001 -57.422991999999994 Q76.72867199999999 -58.308249999999994 75.351078 -58.308249999999994 H19.328922000000002 Q17.951328 -58.308249999999994 17.061336 -57.422991999999994 Q16.176078 -56.532999999999994 16.176078 -55.15067199999999 V-15.309327999999994 Q16.176078 -13.926999999999992 17.061336 -13.037007999999986 Q17.951328 -12.151749999999993 19.328922000000002 -12.151749999999993 Z"/></g></g></svg>