<svg xmlns="http://www.w3.org/2000/svg" version="1.1" width="3300" height="2000"><g id="Notes"><style>
    text {
      font-family: monospace;
      text-anchor: middle;
    }
    text.emphasis {
      font-weight:bold;
    }
    text.lanchor {
      text-anchor: start;
    }
  </style><rect height="2200" id="artboard" fill="white" width="3300" x="0" y="0"/><line id="" style="fill:none;stroke:black;stroke-width:0.5;" x1="263" x2="3036" y1="292" y2="292"/><text class="lanchor emphasis" transform="matrix(1 0 0 1 263 322)">Weight/Scale Variations</text><text transform="matrix(1 0 0 1 559.711 322)">Ultralight</text><text transform="matrix(1 0 0 1 856.422 322)">Thin</text><text transform="matrix(1 0 0 1 1153.13 322)">Light</text><text transform="matrix(1 0 0 1 1449.84 322)">Regular</text><text transform="matrix(1 0 0 1 1746.56 322)">Medium</text><text transform="matrix(1 0 0 1 2043.27 322)">Semibold</text><text transform="matrix(1 0 0 1 2339.98 322)">Bold</text><text transform="matrix(1 0 0 1 2636.69 322)">Heavy</text><text transform="matrix(1 0 0 1 2933.4 322)">Black</text><text id="template-version" style="text-anchor: end;" transform="matrix(1 0 0 1 3036 1933)">Template v.1.0</text><text class="lanchor" transform="matrix(1 0 0 1 263 726)">Small</text><text class="lanchor" transform="matrix(1 0 0 1 263 1156)">Medium</text><text class="lanchor" transform="matrix(1 0 0 1 263 1586)">Large</text></g><g id="Guides"><g id="H-reference" style="fill:#27AAE1;stroke:none;" transform="matrix(1 0 0 1 339 696)"><path d="M 54.9316 0 L 57.666 0 L 30.5664 -70.459 L 28.0762 -70.459 L 0.976562 0 L 3.66211 0 L 12.9395 -24.4629 L 45.7031 -24.4629 Z M 29.1992 -67.0898 L 29.4434 -67.0898 L 44.8242 -26.709 L 13.8184 -26.709 Z"/></g><line id="Baseline-S" style="fill:none;stroke:#27AAE1;opacity:1;stroke-width:0.577;" x1="263" x2="3036" y1="696" y2="696"/><line id="Capline-S" style="fill:none;stroke:#27AAE1;opacity:1;stroke-width:0.577;" x1="263" x2="3036" y1="625.541" y2="625.541"/><g id="H-reference" style="fill:#27AAE1;stroke:none;" transform="matrix(1 0 0 1 339 1126)"><path d="M 54.9316 0 L 57.666 0 L 30.5664 -70.459 L 28.0762 -70.459 L 0.976562 0 L 3.66211 0 L 12.9395 -24.4629 L 45.7031 -24.4629 Z M 29.1992 -67.0898 L 29.4434 -67.0898 L 44.8242 -26.709 L 13.8184 -26.709 Z"/></g><line id="Baseline-M" style="fill:none;stroke:#27AAE1;opacity:1;stroke-width:0.577;" x1="263" x2="3036" y1="1126" y2="1126"/><line id="Capline-M" style="fill:none;stroke:#27AAE1;opacity:1;stroke-width:0.577;" x1="263" x2="3036" y1="1055.54" y2="1055.54"/><g id="H-reference" style="fill:#27AAE1;stroke:none;" transform="matrix(1 0 0 1 339 1556)"><path d="M 54.9316 0 L 57.666 0 L 30.5664 -70.459 L 28.0762 -70.459 L 0.976562 0 L 3.66211 0 L 12.9395 -24.4629 L 45.7031 -24.4629 Z M 29.1992 -67.0898 L 29.4434 -67.0898 L 44.8242 -26.709 L 13.8184 -26.709 Z"/></g><line id="Baseline-L" style="fill:none;stroke:#27AAE1;opacity:1;stroke-width:0.577;" x1="263" x2="3036" y1="1556" y2="1556"/><line id="Capline-L" style="fill:none;stroke:#27AAE1;opacity:1;stroke-width:0.577;" x1="263" x2="3036" y1="1485.54" y2="1485.54"/><rect height="119.336" id="left-margin" style="fill:darkred;stroke:none;opacity:0.4;" width="12.4512" x="1394.06" y="1030.79"/><rect height="119.336" id="right-margin" style="fill:darkgreen;stroke:none;opacity:0.4;" width="12.4512" x="1502.5112" y="1030.79"/><rect x="1406.5112" y="1045" width="96" height="96" fill="none" stroke="blue" stroke-dasharray="5"/><rect x="1394.06" y="1030.79" width="120.9024" height="119.336" fill="none" stroke="blue"/></g><g id="Symbols"><g id="Bold-L" transform="matrix(1 0 0 1 2266 1556)"><path d="M24.02625 -38.938749999999985 H130.77375 V-61.35249999999999 H24.02625 V-38.938749999999985 Z M125.13 28.141250000000014 V10.565000000000012 H107.55375000000001 V-0.4000000000000057 H125.13 V-17.976249999999993 H136.095 V-0.4000000000000057 H153.67125 V10.565000000000012 H136.095 V28.141250000000014 H125.13 Z M24.02625 20.401250000000005 Q17.7375 20.401250000000005 13.303125 15.966875000000016 Q8.86875 11.532500000000013 8.86875 5.243750000000006 V-75.70375 Q8.86875 -81.99249999999999 13.303125 -86.5075 Q17.7375 -91.0225 24.02625 -91.0225 H130.77375 Q137.0625 -91.0225 141.5775 -86.5075 Q146.0925 -81.99249999999999 146.0925 -75.70375 V-27.65124999999999 H125.13 Q113.84249999999999 -27.65124999999999 105.86062500000001 -19.669375000000002 Q97.87875000000001 -11.687499999999986 97.87875000000001 -0.4000000000000057 V20.401250000000005 H24.02625 Z"/></g><g id="Semibold-L" transform="matrix(1 0 0 1 1970.27 1556)"><path d="M23.38125 -38.7775 H131.41875000000002 V-61.19125 H23.38125 V-38.7775 Z M125.4525 28.625 V10.242500000000007 H107.07000000000001 V-0.07750000000000057 H125.4525 V-18.459999999999994 H135.7725 V-0.07750000000000057 H154.155 V10.242500000000007 H135.7725 V28.625 H125.4525 Z M23.38125 18.627500000000026 Q18.22125 18.627500000000026 14.431875 14.838125000000005 Q10.6425 11.048750000000013 10.6425 5.888750000000002 V-76.34875 Q10.6425 -81.66999999999999 14.431875 -85.459375 Q18.22125 -89.24875 23.38125 -89.24875 H131.41875000000002 Q136.74 -89.24875 140.52937500000002 -85.459375 Q144.31875 -81.66999999999999 144.31875 -76.34875 V-28.13499999999999 H125.4525 Q113.84249999999999 -28.13499999999999 105.61875 -19.911249999999995 Q97.395 -11.687499999999986 97.395 -0.07750000000000057 V18.627500000000026 H23.38125 Z"/></g><g id="Medium-L" transform="matrix(1 0 0 1 1674.31 1556)"><path d="M22.8975 -38.616249999999994 H131.9025 V-61.029999999999994 H22.8975 V-38.616249999999994 Z M125.61375000000001 28.94749999999999 V10.081249999999997 H106.7475 V0.0837500000000233 H125.61375000000001 V-18.782499999999985 H135.61124999999998 V0.0837500000000233 H154.4775 V10.081249999999997 H135.61124999999998 V28.94749999999999 H125.61375000000001 Z M22.8975 17.337500000000006 Q18.54375 17.337500000000006 15.238125 14.031875 Q11.932500000000001 10.726250000000007 11.932500000000001 6.372500000000002 V-76.8325 Q11.932500000000001 -81.3475 15.238125 -84.57249999999999 Q18.54375 -87.7975 22.8975 -87.7975 H131.9025 Q136.4175 -87.7975 139.64249999999998 -84.57249999999999 Q142.8675 -81.3475 142.8675 -76.8325 V-28.457499999999982 H125.61375000000001 Q113.68125 -28.457499999999982 105.376875 -20.15312499999999 Q97.0725 -11.848749999999995 97.0725 0.0837500000000233 V17.337500000000006 H22.8975 Z"/></g><g id="Regular-L" transform="matrix(1 0 0 1 1378.56 1556)"><path d="M22.575 -38.616249999999994 H132.225 V-61.029999999999994 H22.575 V-38.616249999999994 Z M125.775 29.27000000000001 V9.920000000000002 H106.425 V0.24500000000000455 H125.775 V-19.10499999999999 H135.45000000000002 V0.24500000000000455 H154.8 V9.920000000000002 H135.45000000000002 V29.27000000000001 H125.775 Z M22.575 16.370000000000005 Q18.705 16.370000000000005 15.802500000000002 13.467500000000015 Q12.9 10.565000000000012 12.9 6.695000000000007 V-77.155 Q12.9 -81.02499999999999 15.802500000000002 -83.9275 Q18.705 -86.83 22.575 -86.83 H132.225 Q136.095 -86.83 138.9975 -83.9275 Q141.9 -81.02499999999999 141.9 -77.155 V-28.779999999999987 H125.775 Q113.68125 -28.779999999999987 105.215625 -20.314375 Q96.75 -11.848749999999995 96.75 0.24500000000000455 V16.370000000000005 H22.575 Z"/></g><g id="Light-L" transform="matrix(1 0 0 1 1082.77 1556)"><path d="M23.38125 -40.22874999999999 H131.41875000000002 V-58.44999999999999 H23.38125 V-40.22874999999999 Z M126.58125 27.6575 V8.307500000000005 H107.23125 V1.0512500000000102 H126.58125 V-18.29875 H133.8375 V1.0512500000000102 H153.1875 V8.307500000000005 H133.8375 V27.6575 H126.58125 Z M25.477500000000003 13.14500000000001 Q21.6075 13.14500000000001 18.86625 10.403750000000002 Q16.125 7.662499999999994 16.125 3.792500000000018 V-74.2525 Q16.125 -78.1225 18.86625 -80.86375 Q21.6075 -83.60499999999999 25.477500000000003 -83.60499999999999 H129.32250000000002 Q133.1925 -83.60499999999999 135.93375 -80.86375 Q138.675 -78.1225 138.675 -74.2525 V-28.941249999999997 H126.58125 Q114.16499999999999 -28.941249999999997 105.376875 -20.15312499999999 Q96.58875 -11.364999999999995 96.58875 1.0512500000000102 V13.14500000000001 H25.477500000000003 Z"/></g><g id="Thin-L" transform="matrix(1 0 0 1 787.282 1556)"><path d="M24.34875 -42.0025 H130.45125000000002 V-55.86999999999999 H24.34875 V-42.0025 Z M127.22625000000001 26.045000000000016 V6.695000000000007 H107.87625000000001 V1.6962500000000205 H127.22625000000001 V-17.653749999999988 H132.225 V1.6962500000000205 H151.57500000000002 V6.695000000000007 H132.225 V26.045000000000016 H127.22625000000001 Z M28.21875 9.920000000000002 Q24.509999999999998 9.920000000000002 21.93 7.340000000000018 Q19.35 4.760000000000005 19.35 1.0512500000000102 V-71.51124999999999 Q19.35 -75.22 21.93 -77.79999999999998 Q24.509999999999998 -80.38 28.21875 -80.38 H126.58125 Q130.29 -80.38 132.87 -77.79999999999998 Q135.45000000000002 -75.22 135.45000000000002 -71.51124999999999 V-29.102499999999992 H127.22625000000001 Q114.4875 -29.102499999999992 105.45750000000001 -20.07249999999999 Q96.4275 -11.04249999999999 96.4275 1.6962500000000205 V9.920000000000002 H28.21875 Z"/></g><g id="Ultralight-L" transform="matrix(1 0 0 1 491.205 1556)"><path d="M24.8325 -42.969999999999985 H129.9675 V-54.257499999999986 H24.8325 V-42.969999999999985 Z M127.71000000000001 25.077500000000015 V5.7275000000000205 H108.36000000000001 V2.180000000000007 H127.71000000000001 V-17.169999999999987 H131.25750000000002 V2.180000000000007 H150.60750000000002 V5.7275000000000205 H131.25750000000002 V25.077500000000015 H127.71000000000001 Z M29.992500000000003 7.984999999999999 Q26.28375 7.984999999999999 23.784375 5.485625000000013 Q21.285 2.9862500000000125 21.285 -0.7224999999999824 V-69.73749999999998 Q21.285 -73.44624999999999 23.784375 -75.94562499999999 Q26.28375 -78.445 29.992500000000003 -78.445 H124.80750000000002 Q128.51625 -78.445 131.015625 -75.94562499999999 Q133.515 -73.44624999999999 133.515 -69.73749999999998 V-29.102499999999992 H127.71000000000001 Q114.64874999999999 -29.102499999999992 105.53812500000001 -19.991874999999993 Q96.4275 -10.881249999999994 96.4275 2.180000000000007 V7.984999999999999 H29.992500000000003 Z"/></g><g id="Bold-M" transform="matrix(1 0 0 1 2281.8 1126)"><path d="M21.5 -35.60499999999999 H98.5 V-55.60499999999999 H21.5 V-35.60499999999999 Z M94.375 13.64500000000001 V0.39500000000001023 H81.125 V-10.85499999999999 H94.375 V-24.10499999999999 H105.625 V-10.85499999999999 H118.875 V0.39500000000001023 H105.625 V13.64500000000001 H94.375 Z M21.5 9.02000000000001 Q14.875 9.02000000000001 10.309999999999999 4.460000000000008 Q5.75 -0.10499999999998977 5.75 -6.72999999999999 V-63.72999999999999 Q5.75 -70.35499999999999 10.309999999999999 -74.91999999999999 Q14.875 -79.47999999999999 21.5 -79.47999999999999 H98.5 Q105.125 -79.47999999999999 109.69 -74.91999999999999 Q114.25 -70.35499999999999 114.25 -63.72999999999999 V-34.10499999999999 H94.375 Q84.75 -34.10499999999999 77.94 -27.294999999999987 Q71.125 -20.47999999999999 71.125 -10.85499999999999 V9.02000000000001 H21.5 Z"/></g><g id="Semibold-M" transform="matrix(1 0 0 1 1985.97 1126)"><path d="M20.875 -35.47999999999999 H99.125 V-55.47999999999999 H20.875 V-35.47999999999999 Z M94.625 14.14500000000001 V0.14500000000001023 H80.625 V-10.60499999999999 H94.625 V-24.60499999999999 H105.375 V-10.60499999999999 H119.375 V0.14500000000001023 H105.375 V14.14500000000001 H94.625 Z M20.875 7.14500000000001 Q15.25 7.14500000000001 11.44 3.3300000000000125 Q7.625 -0.47999999999998977 7.625 -6.10499999999999 V-64.35499999999999 Q7.625 -69.97999999999999 11.44 -73.79499999999999 Q15.25 -77.60499999999999 20.875 -77.60499999999999 H99.125 Q104.75 -77.60499999999999 108.565 -73.79499999999999 Q112.375 -69.97999999999999 112.375 -64.35499999999999 V-34.60499999999999 H94.625 Q84.625 -34.60499999999999 77.625 -27.60499999999999 Q70.625 -20.60499999999999 70.625 -10.60499999999999 V7.14500000000001 H20.875 Z"/></g><g id="Medium-M" transform="matrix(1 0 0 1 1689.91 1126)"><path d="M20.375 -35.35499999999999 H99.625 V-55.35499999999999 H20.375 V-35.35499999999999 Z M94.875 14.52000000000001 V-0.10499999999998977 H80.25 V-10.35499999999999 H94.875 V-24.97999999999999 H105.125 V-10.35499999999999 H119.75 V-0.10499999999998977 H105.125 V14.52000000000001 H94.875 Z M20.375 5.77000000000001 Q15.625 5.77000000000001 12.31 2.460000000000008 Q9.0 -0.8549999999999898 9.0 -5.60499999999999 V-64.85499999999999 Q9.0 -69.60499999999999 12.31 -72.91999999999999 Q15.625 -76.22999999999999 20.375 -76.22999999999999 H99.625 Q104.375 -76.22999999999999 107.69 -72.91999999999999 Q111.0 -69.60499999999999 111.0 -64.85499999999999 V-34.97999999999999 H94.875 Q84.625 -34.97999999999999 77.44 -27.794999999999987 Q70.25 -20.60499999999999 70.25 -10.35499999999999 V5.77000000000001 H20.375 Z"/></g><g id="Regular-M" transform="matrix(1 0 0 1 1394.06 1126)"><path d="M20.0 -35.22999999999999 H100.0 V-55.22999999999999 H20.0 V-35.22999999999999 Z M95.0 14.77000000000001 V-0.22999999999998977 H80.0 V-10.22999999999999 H95.0 V-25.22999999999999 H105.0 V-10.22999999999999 H120.0 V-0.22999999999998977 H105.0 V14.77000000000001 H95.0 Z M20.0 4.77000000000001 Q15.875 4.77000000000001 12.940000000000001 1.835000000000008 Q10.0 -1.1049999999999898 10.0 -5.22999999999999 V-65.22999999999999 Q10.0 -69.35499999999999 12.940000000000001 -72.28999999999999 Q15.875 -75.22999999999999 20.0 -75.22999999999999 H100.0 Q104.125 -75.22999999999999 107.065 -72.28999999999999 Q110.0 -69.35499999999999 110.0 -65.22999999999999 V-35.22999999999999 H95.0 Q84.625 -35.22999999999999 77.315 -27.919999999999987 Q70.0 -20.60499999999999 70.0 -10.22999999999999 V4.77000000000001 H20.0 Z"/></g><g id="Light-M" transform="matrix(1 0 0 1 1098.18 1126)"><path d="M20.0 -37.22999999999999 H100.0 V-53.22999999999999 H20.0 V-37.22999999999999 Z M96.25 13.52000000000001 V-1.4799999999999898 H81.25 V-8.97999999999999 H96.25 V-23.97999999999999 H103.75 V-8.97999999999999 H118.75 V-1.4799999999999898 H103.75 V13.52000000000001 H96.25 Z M21.5 2.2700000000000102 Q17.75 2.2700000000000102 15.125 -0.35499999999998977 Q12.5 -2.9799999999999898 12.5 -6.72999999999999 V-63.72999999999999 Q12.5 -67.47999999999999 15.125 -70.10499999999999 Q17.75 -72.72999999999999 21.5 -72.72999999999999 H98.5 Q102.25 -72.72999999999999 104.875 -70.10499999999999 Q107.5 -67.47999999999999 107.5 -63.72999999999999 V-33.97999999999999 H96.25 Q85.875 -33.97999999999999 78.565 -26.669999999999987 Q71.25 -19.35499999999999 71.25 -8.97999999999999 V2.2700000000000102 H21.5 Z"/></g><g id="Thin-M" transform="matrix(1 0 0 1 802.565 1126)"><path d="M20.0 -39.22999999999999 H100.0 V-51.22999999999999 H20.0 V-39.22999999999999 Z M97.5 12.27000000000001 V-2.7299999999999898 H82.5 V-7.72999999999999 H97.5 V-22.72999999999999 H102.5 V-7.72999999999999 H117.5 V-2.7299999999999898 H102.5 V12.27000000000001 H97.5 Z M23.125 -0.22999999999998977 Q19.625 -0.22999999999998977 17.315 -2.539999999999992 Q15.0 -4.85499999999999 15.0 -8.35499999999999 V-62.10499999999999 Q15.0 -65.60499999999999 17.315 -67.91499999999999 Q19.625 -70.22999999999999 23.125 -70.22999999999999 H96.875 Q100.375 -70.22999999999999 102.69 -67.91499999999999 Q105.0 -65.60499999999999 105.0 -62.10499999999999 V-32.72999999999999 H97.5 Q87.125 -32.72999999999999 79.815 -25.419999999999987 Q72.5 -18.10499999999999 72.5 -7.72999999999999 V-0.22999999999998977 H23.125 Z"/></g><g id="Ultralight-M" transform="matrix(1 0 0 1 506.415 1126)"><path d="M20.0 -40.47999999999999 H100.0 V-49.97999999999999 H20.0 V-40.47999999999999 Z M98.25 11.52000000000001 V-3.4799999999999898 H83.25 V-6.97999999999999 H98.25 V-21.97999999999999 H101.75 V-6.97999999999999 H116.75 V-3.4799999999999898 H101.75 V11.52000000000001 H98.25 Z M24.0 -1.7299999999999898 Q20.75 -1.7299999999999898 18.625 -3.8549999999999898 Q16.5 -5.97999999999999 16.5 -9.22999999999999 V-61.22999999999999 Q16.5 -64.47999999999999 18.625 -66.60499999999999 Q20.75 -68.72999999999999 24.0 -68.72999999999999 H96.0 Q99.25 -68.72999999999999 101.375 -66.60499999999999 Q103.5 -64.47999999999999 103.5 -61.22999999999999 V-31.97999999999999 H98.25 Q87.875 -31.97999999999999 80.565 -24.669999999999987 Q73.25 -17.35499999999999 73.25 -6.97999999999999 V-1.7299999999999898 H24.0 Z"/></g><g id="Bold-S" transform="matrix(1 0 0 1 2294.23 696)"><path d="M17.7525 -35.52350799999999 H76.9275 V-49.725508 H17.7525 V-35.52350799999999 Z M75.251664 1.7520080000000178 V-8.700664000000003 H64.798992 V-16.78633599999999 H75.251664 V-27.23900799999999 H83.337336 V-16.78633599999999 H93.790008 V-8.700664000000003 H83.337336 V1.7520080000000178 H75.251664 Z M17.7525 -3.474328 Q12.919086 -3.474328 9.515339999999998 -6.825999999999993 Q6.116328 -10.177672000000001 6.116328 -15.110499999999988 V-55.34949999999999 Q6.116328 -60.28232799999999 9.515339999999998 -63.63399999999999 Q12.919086 -66.985672 17.7525 -66.985672 H76.9275 Q81.760914 -66.985672 85.16466 -63.63399999999999 Q88.563672 -60.28232799999999 88.563672 -55.34949999999999 V-34.34000799999999 H74.361672 Q67.06657799999999 -34.34000799999999 62.379917999999996 -29.16574599999999 Q57.697992 -23.986749999999994 57.697992 -16.985163999999997 V-3.474328 H17.7525 Z"/></g><g id="Semibold-S" transform="matrix(1 0 0 1 1998.1 696)"><path d="M17.260164 -35.428827999999996 H77.41983599999999 V-49.630827999999994 H17.260164 V-35.428827999999996 Z M75.450492 2.1496640000000156 V-8.899491999999995 H64.401336 V-16.587507999999985 H75.450492 V-27.636663999999996 H83.138508 V-16.587507999999985 H94.187664 V-8.899491999999995 H83.138508 V2.1496640000000156 H75.450492 Z M17.260164 -4.9513359999999835 Q13.217327999999998 -4.9513359999999835 10.405332 -7.763331999999991 Q7.593336000000001 -10.575327999999999 7.593336000000001 -14.618163999999993 V-55.94125 Q7.593336000000001 -59.98408599999999 10.405332 -62.744007999999994 Q13.217327999999998 -65.508664 17.260164 -65.508664 H77.41983599999999 Q81.462672 -65.508664 84.27466799999999 -62.69666799999999 Q87.086664 -59.884671999999995 87.086664 -55.841835999999994 V-34.737663999999995 H74.5605 Q66.967164 -34.737663999999995 62.13375 -29.411913999999996 Q57.300335999999994 -24.086163999999997 57.300335999999994 -16.78633599999999 V-4.9513359999999835 H17.260164 Z"/></g><g id="Medium-S" transform="matrix(1 0 0 1 1701.85 696)"><path d="M16.862508 -35.329414 H77.81749199999999 V-49.53141399999999 H16.862508 V-35.329414 Z M75.64458599999999 2.443172000000004 V-9.093585999999988 H64.107828 V-16.393413999999993 H75.64458599999999 V-27.930171999999992 H82.94441400000001 V-16.393413999999993 H94.48117199999999 V-9.093585999999988 H82.94441400000001 V2.443172000000004 H75.64458599999999 Z M16.862508 -6.035421999999983 Q13.510836000000001 -6.035421999999983 11.096496 -8.402421999999987 Q8.677422 -10.769421999999992 8.677422 -14.220507999999995 V-56.23949199999999 Q8.677422 -59.69057799999999 11.096496 -62.05757799999999 Q13.510836000000001 -64.424578 16.862508 -64.424578 H77.81749199999999 Q81.16916400000001 -64.424578 83.58350399999999 -62.05757799999999 Q86.00257800000001 -59.69057799999999 86.00257800000001 -56.23949199999999 V-35.03117199999999 H74.759328 Q66.967164 -35.03117199999999 61.986996 -29.55866799999999 Q57.006828 -24.086163999999997 57.006828 -16.587507999999985 V-6.035421999999983 H16.862508 Z"/></g><g id="Regular-S" transform="matrix(1 0 0 1 1405.73 696)"><path d="M16.569 -35.22999999999999 H78.111 V-49.431999999999995 H16.569 V-35.22999999999999 Z M75.744 2.64200000000001 V-9.192999999999998 H63.909 V-16.293999999999997 H75.744 V-28.12899999999999 H82.845 V-16.293999999999997 H94.68 V-9.192999999999998 H82.845 V2.64200000000001 H75.744 Z M16.569 -6.825999999999993 Q13.709664 -6.825999999999993 11.588832 -8.899491999999995 Q9.468 -10.968249999999998 9.468 -13.926999999999992 V-56.532999999999994 Q9.468 -59.491749999999996 11.588832 -61.560508 Q13.709664 -63.63399999999999 16.569 -63.63399999999999 H78.111 Q80.97033599999999 -63.63399999999999 83.091168 -61.560508 Q85.212 -59.491749999999996 85.212 -56.532999999999994 V-35.22999999999999 H74.854008 Q66.967164 -35.22999999999999 61.887582 -29.658081999999993 Q56.808 -24.086163999999997 56.808 -16.49282799999999 V-6.825999999999993 H16.569 Z"/></g><g id="Light-S" transform="matrix(1 0 0 1 1109.75 696)"><path d="M16.569 -36.80642199999999 H78.111 V-47.855577999999994 H16.569 V-36.80642199999999 Z M76.72867199999999 1.657328000000021 V-10.177672000000001 H64.893672 V-15.309327999999994 H76.72867199999999 V-27.144327999999994 H81.86032800000001 V-15.309327999999994 H93.695328 V-10.177672000000001 H81.86032800000001 V1.657328000000021 H76.72867199999999 Z M17.7525 -8.800078 Q15.186672000000002 -8.800078 13.312007999999999 -10.62266799999999 Q11.442077999999999 -12.449991999999995 11.442077999999999 -15.110499999999988 V-55.34949999999999 Q11.442077999999999 -58.010008 13.312007999999999 -59.837331999999996 Q15.186672000000002 -61.659921999999995 17.7525 -61.659921999999995 H76.9275 Q79.493328 -61.659921999999995 81.367992 -59.837331999999996 Q83.237922 -58.010008 83.237922 -55.34949999999999 V-34.24532799999999 H75.84341400000001 Q67.951836 -34.24532799999999 62.872254000000005 -28.673409999999997 Q57.792672 -23.101491999999993 57.792672 -15.503422 V-8.800078 H17.7525 Z"/></g><g id="Thin-S" transform="matrix(1 0 0 1 814.015 696)"><path d="M16.569 -38.38757799999999 H78.111 V-46.274421999999994 H16.569 V-38.38757799999999 Z M77.718078 0.6679220000000043 V-11.16707799999999 H65.883078 V-14.319921999999991 H77.718078 V-26.154921999999992 H80.870922 V-14.319921999999991 H92.70592199999999 V-11.16707799999999 H80.870922 V0.6679220000000043 H77.718078 Z M19.035414 -10.769421999999992 Q16.668414 -10.769421999999992 15.039918 -12.350577999999999 Q13.411422 -13.926999999999992 13.411422 -16.393413999999993 V-54.166 Q13.411422 -56.532999999999994 15.039918 -58.109421999999995 Q16.668414 -59.69057799999999 19.035414 -59.69057799999999 H75.64458599999999 Q78.011586 -59.69057799999999 79.640082 -58.109421999999995 Q81.268578 -56.532999999999994 81.268578 -54.066585999999994 V-33.25592199999999 H76.828086 Q68.936508 -33.25592199999999 63.86166 -27.684003999999995 Q58.782078 -22.11208599999999 58.782078 -14.518749999999997 V-10.769421999999992 H19.035414 Z"/></g><g id="Ultralight-S" transform="matrix(1 0 0 1 517.792 696)"><path d="M16.569 -39.372249999999994 H78.111 V-45.28974999999999 H16.569 V-39.372249999999994 Z M78.30982800000001 0.07617199999999968 V-11.758827999999994 H66.474828 V-13.728172 H78.30982800000001 V-25.563171999999994 H80.27917199999999 V-13.728172 H92.114172 V-11.758827999999994 H80.27917199999999 V0.07617199999999968 H78.30982800000001 Z M19.726578 -11.952922000000001 Q17.553672000000002 -11.952922000000001 16.076664 -13.382589999999993 Q14.594922 -14.816991999999999 14.594922 -17.084577999999993 V-53.37542199999999 Q14.594922 -55.643007999999995 16.076664 -57.07740999999999 Q17.553672000000002 -58.50707799999999 19.726578 -58.50707799999999 H74.953422 Q77.126328 -58.50707799999999 78.603336 -57.07740999999999 Q80.08507800000001 -55.643007999999995 80.08507800000001 -53.37542199999999 V-32.66417199999999 H77.41983599999999 Q69.53299200000001 -32.66417199999999 64.45341 -27.092253999999997 Q59.373827999999996 -21.520335999999986 59.373827999999996 -13.926999999999992 V-11.952922000000001 H19.726578 Z"/></g></g></svg>