<svg xmlns="http://www.w3.org/2000/svg" version="1.1" width="3300" height="2000"><g id="Notes"><style>
    text {
      font-family: monospace;
      text-anchor: middle;
    }
    text.emphasis {
      font-weight:bold;
    }
    text.lanchor {
      text-anchor: start;
    }
  </style><rect height="2200" id="artboard" fill="white" width="3300" x="0" y="0"/><line id="" style="fill:none;stroke:black;stroke-width:0.5;" x1="263" x2="3036" y1="292" y2="292"/><text class="lanchor emphasis" transform="matrix(1 0 0 1 263 322)">Weight/Scale Variations</text><text transform="matrix(1 0 0 1 559.711 322)">Ultralight</text><text transform="matrix(1 0 0 1 856.422 322)">Thin</text><text transform="matrix(1 0 0 1 1153.13 322)">Light</text><text transform="matrix(1 0 0 1 1449.84 322)">Regular</text><text transform="matrix(1 0 0 1 1746.56 322)">Medium</text><text transform="matrix(1 0 0 1 2043.27 322)">Semibold</text><text transform="matrix(1 0 0 1 2339.98 322)">Bold</text><text transform="matrix(1 0 0 1 2636.69 322)">Heavy</text><text transform="matrix(1 0 0 1 2933.4 322)">Black</text><text id="template-version" style="text-anchor: end;" transform="matrix(1 0 0 1 3036 1933)">Template v.1.0</text><text class="lanchor" transform="matrix(1 0 0 1 263 726)">Small</text><text class="lanchor" transform="matrix(1 0 0 1 263 1156)">Medium</text><text class="lanchor" transform="matrix(1 0 0 1 263 1586)">Large</text></g><g id="Guides"><g id="H-reference" style="fill:#27AAE1;stroke:none;" transform="matrix(1 0 0 1 339 696)"><path d="M 54.9316 0 L 57.666 0 L 30.5664 -70.459 L 28.0762 -70.459 L 0.976562 0 L 3.66211 0 L 12.9395 -24.4629 L 45.7031 -24.4629 Z M 29.1992 -67.0898 L 29.4434 -67.0898 L 44.8242 -26.709 L 13.8184 -26.709 Z"/></g><line id="Baseline-S" style="fill:none;stroke:#27AAE1;opacity:1;stroke-width:0.577;" x1="263" x2="3036" y1="696" y2="696"/><line id="Capline-S" style="fill:none;stroke:#27AAE1;opacity:1;stroke-width:0.577;" x1="263" x2="3036" y1="625.541" y2="625.541"/><g id="H-reference" style="fill:#27AAE1;stroke:none;" transform="matrix(1 0 0 1 339 1126)"><path d="M 54.9316 0 L 57.666 0 L 30.5664 -70.459 L 28.0762 -70.459 L 0.976562 0 L 3.66211 0 L 12.9395 -24.4629 L 45.7031 -24.4629 Z M 29.1992 -67.0898 L 29.4434 -67.0898 L 44.8242 -26.709 L 13.8184 -26.709 Z"/></g><line id="Baseline-M" style="fill:none;stroke:#27AAE1;opacity:1;stroke-width:0.577;" x1="263" x2="3036" y1="1126" y2="1126"/><line id="Capline-M" style="fill:none;stroke:#27AAE1;opacity:1;stroke-width:0.577;" x1="263" x2="3036" y1="1055.54" y2="1055.54"/><g id="H-reference" style="fill:#27AAE1;stroke:none;" transform="matrix(1 0 0 1 339 1556)"><path d="M 54.9316 0 L 57.666 0 L 30.5664 -70.459 L 28.0762 -70.459 L 0.976562 0 L 3.66211 0 L 12.9395 -24.4629 L 45.7031 -24.4629 Z M 29.1992 -67.0898 L 29.4434 -67.0898 L 44.8242 -26.709 L 13.8184 -26.709 Z"/></g><line id="Baseline-L" style="fill:none;stroke:#27AAE1;opacity:1;stroke-width:0.577;" x1="263" x2="3036" y1="1556" y2="1556"/><line id="Capline-L" style="fill:none;stroke:#27AAE1;opacity:1;stroke-width:0.577;" x1="263" x2="3036" y1="1485.54" y2="1485.54"/><rect height="119.336" id="left-margin" style="fill:darkred;stroke:none;opacity:0.4;" width="12.4512" x="1394.06" y="1030.79"/><rect height="119.336" id="right-margin" style="fill:darkgreen;stroke:none;opacity:0.4;" width="12.4512" x="1502.5112" y="1030.79"/><rect x="1406.5112" y="1045" width="96" height="96" fill="none" stroke="blue" stroke-dasharray="5"/><rect x="1394.06" y="1030.79" width="120.9024" height="119.336" fill="none" stroke="blue"/></g><g id="Symbols"><g id="Bold-L" transform="matrix(1 0 0 1 2266 1556)"><path d="M115.53562500000001 4.921250000000015 H148.0275 V19.675625000000014 H100.62 L115.53562500000001 4.921250000000015 Z M24.67125 19.675625000000014  1.45125 -4.028124999999989  93.8475 -102.06812499999998  144.8025 -48.85562499999999  79.6575 19.675625000000014 H24.67125 Z M73.8525 4.921250000000015  124.565625 -49.74249999999999  93.8475 -82.07312499999999  22.41375 -4.028124999999989  30.96 4.921250000000015 H73.8525 Z"/></g><g id="Semibold-L" transform="matrix(1 0 0 1 1970.27 1556)"><path d="M112.66134375 5.5522212500000165 H145.15321875 V17.922998750000016 H100.19929875 L112.66134375 5.5522212500000165 Z M26.63414625 17.922998750000016  5.236916249999999 -4.028124999999989  94.6185975 -99.89495875  143.26014375 -48.99591249999999  80.14818375 17.922998750000016 H26.63414625 Z M75.3247125 5.5522212500000165  126.52852125 -49.88278749999999  94.758885 -83.26492374999998  22.69416375 -4.098268749999988  32.01151125 5.5522212500000165 H75.3247125 Z"/></g><g id="Medium-L" transform="matrix(1 0 0 1 1674.31 1556)"><path d="M110.50543125 6.025490000000019 H142.99730625 V16.608327500000016 H99.88389375 L110.50543125 6.025490000000019 Z M28.10652 16.608327500000016  8.076528750000001 -4.028124999999989  95.1971625 -98.26472124999998  142.10333625 -49.10104749999999  80.5163175 16.608327500000016 H28.10652 Z M76.42895250000001 6.025490000000019  128.00089499999999 -49.987922499999996  95.44242375 -84.15889374999998  22.904433750000003 -4.1508362499999905  32.800346250000004 6.025490000000019 H76.42895250000001 Z"/></g><g id="Regular-L" transform="matrix(1 0 0 1 1378.56 1556)"><path d="M108.924375 6.3725000000000165 H141.41625 V15.644375000000014 H99.6525 L108.924375 6.3725000000000165 Z M29.18625 15.644375000000014  10.15875 -4.028124999999989  95.62125 -97.06937499999998  141.255 -49.17812499999998  80.78625 15.644375000000014 H29.18625 Z M77.23875 6.3725000000000165  129.080625 -50.06499999999998  95.94375000000001 -84.81437499999998  23.05875 -4.189374999999984  33.378750000000004 6.3725000000000165 H77.23875 Z"/></g><g id="Light-L" transform="matrix(1 0 0 1 1082.77 1556)"><path d="M107.83900125000001 5.628170000000011 H139.61750625000002 V12.698176250000017 H100.768995 L107.83900125000001 5.628170000000011 Z M28.93808625 12.698176250000017  12.01941375 -4.679413749999981  94.00858875 -93.06876249999999  136.35509625 -49.02300249999999  78.3052575 12.698176250000017 H28.93808625 Z M75.56416875000001 5.628170000000011  127.12692000000001 -49.63075374999998  94.33108875 -83.66691999999999  21.81825375 -4.902583749999984  32.13825375 5.628170000000011 H75.56416875000001 Z"/></g><g id="Thin-L" transform="matrix(1 0 0 1 787.282 1556)"><path d="M106.75378875 4.8840012500000185 H137.819085 V9.752622500000015 H101.88516750000001 L106.75378875 4.8840012500000185 Z M28.69008375 9.752622500000015  13.87991625 -5.330541249999982  92.39625000000001 -89.06895624999999  131.45599875 -48.86804124999999  75.82474875 9.752622500000015 H28.69008375 Z M73.88974875 4.8840012500000185  125.17337625 -49.196668749999986  92.71875 -82.51962624999999  20.57791875 -5.6157924999999835  30.897918750000002 4.8840012500000185 H73.88974875 Z"/></g><g id="Ultralight-L" transform="matrix(1 0 0 1 491.205 1556)"><path d="M106.1025 4.437500000000014 H136.74 V7.985000000000014 H102.555 L106.1025 4.437500000000014 Z M28.54125 7.985000000000014  14.99625 -5.7212499999999835  91.42875000000001 -86.66874999999999  128.51625 -48.77499999999999  74.33625 7.985000000000014 H28.54125 Z M72.885 4.437500000000014  124.00125 -48.93624999999999  91.75125 -81.83124999999998  19.833750000000002 -6.043749999999989  30.153750000000002 4.437500000000014 H72.885 Z"/></g><g id="Bold-M" transform="matrix(1 0 0 1 2281.8 1126)"><path d="M92.375 -7.22999999999999 H115.75 V7.89500000000001 H77.25 L92.375 -7.22999999999999 Z M19.5 7.89500000000001  -1.75 -13.35499999999999  72.625 -88.22999999999999  115.875 -44.97999999999999  63.375 7.89500000000001 H19.5 Z M57.0 -7.22999999999999  94.5 -45.10499999999999  72.625 -66.97999999999999  19.5 -13.35499999999999  25.75 -7.22999999999999 H57.0 Z"/></g><g id="Semibold-M" transform="matrix(1 0 0 1 1985.97 1126)"><path d="M89.440375 -6.577874999999988 H112.815375 V6.047250000000009 H76.81525 L89.440375 -6.577874999999988 Z M21.565125 6.047250000000009  2.16275 -13.35499999999999  73.440125 -86.00187499999998  114.299 -45.14299999999999  63.864125 6.047250000000009 H21.565125 Z M58.521625 -6.577874999999988  96.51075 -45.26799999999999  73.548875 -68.22987499999999  19.826125 -13.46374999999999  26.836875 -6.577874999999988 H58.521625 Z"/></g><g id="Medium-M" transform="matrix(1 0 0 1 1689.91 1126)"><path d="M87.239125 -6.08874999999999 H110.614125 V4.66137500000001 H76.489125 L87.239125 -6.08874999999999 Z M23.114125 4.66137500000001  5.09775 -13.35499999999999  74.051625 -84.33062499999998  113.116875 -45.26537499999999  64.231 4.66137500000001 H23.114125 Z M59.663 -6.08874999999999  98.019 -45.39037499999999  74.241875 -69.16749999999999  20.070625 -13.545249999999989  27.652125 -6.08874999999999 H59.663 Z"/></g><g id="Regular-M" transform="matrix(1 0 0 1 1394.06 1126)"><path d="M85.625 -5.72999999999999 H109.0 V3.6450000000000102 H76.25 L85.625 -5.72999999999999 Z M24.25 3.6450000000000102  7.25 -13.35499999999999  74.5 -83.10499999999999  112.25 -45.35499999999999  64.5 3.6450000000000102 H24.25 Z M60.5 -5.72999999999999  99.125 -45.47999999999999  74.75 -69.85499999999999  20.25 -13.60499999999999  28.25 -5.72999999999999 H60.5 Z"/></g><g id="Light-M" transform="matrix(1 0 0 1 1098.18 1126)"><path d="M84.399 -5.633874999999989 H107.65375 V1.361125000000012 H77.403875 L84.399 -5.633874999999989 Z M23.673 1.361125000000012  9.029 -13.28287499999999  73.057625 -79.8115  107.49 -45.37899999999999  61.999875 1.361125000000012 H23.673 Z M59.0095 -5.633874999999989  97.75475 -45.47999999999999  73.307625 -69.92712499999999  18.663375 -13.53287499999999  26.663375 -5.633874999999989 H59.0095 Z"/></g><g id="Thin-M" transform="matrix(1 0 0 1 802.565 1126)"><path d="M83.173125 -5.537749999999988 H106.30775 V-0.9222499999999911 H78.557625 L83.173125 -5.537749999999988 Z M23.096125 -0.9222499999999911  10.807625 -13.21074999999999  71.615375 -76.51849999999999  102.730875 -45.40312499999999  59.5 -0.9222499999999911 H23.096125 Z M57.51925 -5.537749999999988  96.384625 -45.47999999999999  71.865375 -69.99924999999999  17.077 -13.46074999999999  25.077 -5.537749999999988 H57.51925 Z"/></g><g id="Ultralight-M" transform="matrix(1 0 0 1 506.415 1126)"><path d="M82.4375 -5.47999999999999 H105.5 V-2.2924999999999898 H79.25 L82.4375 -5.47999999999999 Z M22.75 -2.2924999999999898  11.875 -13.16749999999999  70.75 -74.54249999999999  99.875 -45.41749999999999  58.0 -2.2924999999999898 H22.75 Z M56.625 -5.47999999999999  95.5625 -45.47999999999999  71.0 -70.04249999999999  16.125 -13.41749999999999  24.125 -5.47999999999999 H56.625 Z"/></g><g id="Bold-S" transform="matrix(1 0 0 1 2294.23 696)"><path d="M71.108625 -15.504999999999988 H89.74875 V-4.360374999999987 H59.964000000000006 L71.108625 -15.504999999999988 Z M19.823625 -4.360374999999987  0.3945 -23.78949999999999  57.2025 -79.0195  89.650125 -46.57187499999999  46.74825 -4.360374999999987 H19.823625 Z M42.112875 -15.504999999999988  73.7715 -46.67049999999999  57.005250000000004 -63.43674999999999  16.174500000000002 -23.592249999999986  24.360375 -15.504999999999988 H42.112875 Z"/></g><g id="Semibold-S" transform="matrix(1 0 0 1 1998.1 696)"><path d="M68.79320587500001 -14.99047337499999 H87.43333087500001 V-5.818249749999989 H59.620982250000004 L68.79320587500001 -14.99047337499999 Z M21.453008625 -5.818249749999989  3.48165975 -23.78949999999999  57.845633625 -77.26150937499999  88.40666100000001 -46.70048199999999  47.134169625000006 -5.818249749999989 H21.453008625 Z M43.313437125 -14.99047337499999  75.35798175000001 -46.799106999999985  57.734187375 -64.422901375  16.431812625000003 -23.67805374999999  25.217919375 -14.99047337499999 H43.313437125 Z"/></g><g id="Medium-S" transform="matrix(1 0 0 1 1701.85 696)"><path d="M67.056419625 -14.604553749999987 H85.696544625 V-6.911705124999987 H59.36366962500001 L67.056419625 -14.604553749999987 Z M22.675169625000002 -6.911705124999987  5.7973747499999995 -23.78949999999999  58.328107125 -75.94289312499998  87.473964375 -46.79703587499999  47.423634 -6.911705124999987 H22.675169625000002 Z M44.213982 -14.604553749999987  76.54799100000001 -46.89566087499999  58.280964374999996 -65.16268749999999  16.624723125 -23.742357249999984  25.861151624999998 -14.604553749999987 H44.213982 Z"/></g><g id="Regular-S" transform="matrix(1 0 0 1 1405.73 696)"><path d="M65.782875 -14.321499999999986 H84.423 V-7.713624999999986 H59.175000000000004 L65.782875 -14.321499999999986 Z M23.571375 -7.713624999999986  7.495500000000001 -23.78949999999999  58.681875000000005 -74.97587499999999  86.79 -46.86774999999999  47.635875 -7.713624999999986 H23.571375 Z M44.874375 -14.321499999999986  77.420625 -46.96637499999999  58.681875000000005 -65.705125  16.76625 -23.78949999999999  26.332875 -14.321499999999986 H44.874375 Z"/></g><g id="Light-S" transform="matrix(1 0 0 1 1109.75 696)"><path d="M64.815561 -14.245657374999986 H83.36080875 V-9.515602374999986 H60.085407375 L64.815561 -14.245657374999986 Z M23.116122 -9.515602374999986  8.899131 -23.732593374999986  57.54384112500001 -72.3773035  83.03436 -46.88668599999999  45.663276375 -9.515602374999986 H23.116122 Z M43.6983705 -14.245657374999986  76.33949775 -46.96637499999999  57.54384112500001 -65.76203162499999  15.514402875 -23.732593374999986  25.081027875 -14.245657374999986 H43.6983705 Z"/></g><g id="Thin-S" transform="matrix(1 0 0 1 814.015 696)"><path d="M63.848345625 -14.169814749999986 H82.29881475 V-11.317185249999987 H60.995716125 L63.848345625 -14.169814749999986 Z M22.660967625 -11.317185249999987  10.302466125 -23.67568674999999  56.405905875 -69.77912649999999  79.279410375 -46.90572062499999  43.690875000000005 -11.317185249999987 H22.660967625 Z M42.522563250000005 -14.169814749999986  75.258469125 -46.96637499999999  56.405905875 -65.81893824999999  14.262753000000002 -23.67568674999999  23.829378000000002 -14.169814749999986 H42.522563250000005 Z"/></g><g id="Ultralight-S" transform="matrix(1 0 0 1 517.792 696)"><path d="M63.2679375 -14.124249999999986 H81.6615 V-12.398312499999989 H61.542 L63.2679375 -14.124249999999986 Z M22.387875 -12.398312499999989  11.144625000000001 -23.641562499999985  55.723125 -68.22006249999998  77.02612500000001 -46.917062499999986  42.507375 -12.398312499999989 H22.387875 Z M41.817 -14.124249999999986  74.6098125 -46.96637499999999  55.723125 -65.8530625  13.511625 -23.641562499999985  23.07825 -14.124249999999986 H41.817 Z"/></g></g></svg>