<svg xmlns="http://www.w3.org/2000/svg" version="1.1" width="3300" height="2000"><g id="Notes"><style>
    text {
      font-family: monospace;
      text-anchor: middle;
    }
    text.emphasis {
      font-weight:bold;
    }
    text.lanchor {
      text-anchor: start;
    }
  </style><rect height="2200" id="artboard" fill="white" width="3300" x="0" y="0"/><line id="" style="fill:none;stroke:black;stroke-width:0.5;" x1="263" x2="3036" y1="292" y2="292"/><text class="lanchor emphasis" transform="matrix(1 0 0 1 263 322)">Weight/Scale Variations</text><text transform="matrix(1 0 0 1 559.711 322)">Ultralight</text><text transform="matrix(1 0 0 1 856.422 322)">Thin</text><text transform="matrix(1 0 0 1 1153.13 322)">Light</text><text transform="matrix(1 0 0 1 1449.84 322)">Regular</text><text transform="matrix(1 0 0 1 1746.56 322)">Medium</text><text transform="matrix(1 0 0 1 2043.27 322)">Semibold</text><text transform="matrix(1 0 0 1 2339.98 322)">Bold</text><text transform="matrix(1 0 0 1 2636.69 322)">Heavy</text><text transform="matrix(1 0 0 1 2933.4 322)">Black</text><text id="template-version" style="text-anchor: end;" transform="matrix(1 0 0 1 3036 1933)">Template v.1.0</text><text class="lanchor" transform="matrix(1 0 0 1 263 726)">Small</text><text class="lanchor" transform="matrix(1 0 0 1 263 1156)">Medium</text><text class="lanchor" transform="matrix(1 0 0 1 263 1586)">Large</text></g><g id="Guides"><g id="H-reference" style="fill:#27AAE1;stroke:none;" transform="matrix(1 0 0 1 339 696)"><path d="M 54.9316 0 L 57.666 0 L 30.5664 -70.459 L 28.0762 -70.459 L 0.976562 0 L 3.66211 0 L 12.9395 -24.4629 L 45.7031 -24.4629 Z M 29.1992 -67.0898 L 29.4434 -67.0898 L 44.8242 -26.709 L 13.8184 -26.709 Z"/></g><line id="Baseline-S" style="fill:none;stroke:#27AAE1;opacity:1;stroke-width:0.577;" x1="263" x2="3036" y1="696" y2="696"/><line id="Capline-S" style="fill:none;stroke:#27AAE1;opacity:1;stroke-width:0.577;" x1="263" x2="3036" y1="625.541" y2="625.541"/><g id="H-reference" style="fill:#27AAE1;stroke:none;" transform="matrix(1 0 0 1 339 1126)"><path d="M 54.9316 0 L 57.666 0 L 30.5664 -70.459 L 28.0762 -70.459 L 0.976562 0 L 3.66211 0 L 12.9395 -24.4629 L 45.7031 -24.4629 Z M 29.1992 -67.0898 L 29.4434 -67.0898 L 44.8242 -26.709 L 13.8184 -26.709 Z"/></g><line id="Baseline-M" style="fill:none;stroke:#27AAE1;opacity:1;stroke-width:0.577;" x1="263" x2="3036" y1="1126" y2="1126"/><line id="Capline-M" style="fill:none;stroke:#27AAE1;opacity:1;stroke-width:0.577;" x1="263" x2="3036" y1="1055.54" y2="1055.54"/><g id="H-reference" style="fill:#27AAE1;stroke:none;" transform="matrix(1 0 0 1 339 1556)"><path d="M 54.9316 0 L 57.666 0 L 30.5664 -70.459 L 28.0762 -70.459 L 0.976562 0 L 3.66211 0 L 12.9395 -24.4629 L 45.7031 -24.4629 Z M 29.1992 -67.0898 L 29.4434 -67.0898 L 44.8242 -26.709 L 13.8184 -26.709 Z"/></g><line id="Baseline-L" style="fill:none;stroke:#27AAE1;opacity:1;stroke-width:0.577;" x1="263" x2="3036" y1="1556" y2="1556"/><line id="Capline-L" style="fill:none;stroke:#27AAE1;opacity:1;stroke-width:0.577;" x1="263" x2="3036" y1="1485.54" y2="1485.54"/><rect height="119.336" id="left-margin" style="fill:darkred;stroke:none;opacity:0.4;" width="12.4512" x="1394.06" y="1030.79"/><rect height="119.336" id="right-margin" style="fill:darkgreen;stroke:none;opacity:0.4;" width="12.4512" x="1502.5112" y="1030.79"/><rect x="1406.5112" y="1045" width="96" height="96" fill="none" stroke="blue" stroke-dasharray="5"/><rect x="1394.06" y="1030.79" width="120.9024" height="119.336" fill="none" stroke="blue"/></g><g id="Symbols"><g id="Bold-L" transform="matrix(1 0 0 1 2266 1556)"><path d="M35.636250000000004 -7.333749999999995 H93.36375 V-11.52624999999999 Q93.36375 -22.33 83.205 -25.393749999999997 Q73.04625 -28.457499999999982 64.5 -28.457499999999982 Q55.95375000000001 -28.457499999999982 45.795 -25.393749999999997 Q35.636250000000004 -22.33 35.636250000000004 -11.52624999999999 V-7.333749999999995 Z M64.5 -37.32624999999999 Q70.6275 -37.32624999999999 74.4975 -41.19624999999999 Q78.3675 -45.06625 78.3675 -51.193749999999994 Q78.3675 -57.32125 74.4975 -61.11062499999999 Q70.6275 -64.89999999999999 64.5 -64.89999999999999 Q58.37250000000001 -64.89999999999999 54.5025 -61.11062499999999 Q50.6325 -57.32125 50.6325 -51.193749999999994 Q50.6325 -45.06625 54.5025 -41.19624999999999 Q58.37250000000001 -37.32624999999999 64.5 -37.32624999999999 Z M8.86875 20.401250000000005 V-91.0225 H120.29249999999999 V-42.48625 L146.0925 -68.28625 V-2.1737499999999983 L120.29249999999999 -27.973749999999995 V20.401250000000005 H8.86875 Z M24.02625 5.243750000000006 H104.97375 V-75.70375 H24.02625 V5.243750000000006 Z"/></g><g id="Semibold-L" transform="matrix(1 0 0 1 1970.27 1556)"><path d="M36.4425 -8.14 H92.5575 V-12.009999999999991 Q92.5575 -22.491249999999994 82.72125 -25.474374999999995 Q72.885 -28.457499999999982 64.5 -28.457499999999982 Q56.114999999999995 -28.457499999999982 46.27875 -25.474374999999995 Q36.4425 -22.491249999999994 36.4425 -12.009999999999991 V-8.14 Z M64.5 -37.32624999999999 Q70.46625 -37.32624999999999 74.175 -41.115624999999994 Q77.88374999999999 -44.90499999999999 77.88374999999999 -50.709999999999994 Q77.88374999999999 -56.67624999999999 74.175 -60.385 Q70.46625 -64.09375 64.5 -64.09375 Q58.53375 -64.09375 54.825 -60.385 Q51.11625 -56.67624999999999 51.11625 -50.709999999999994 Q51.11625 -44.90499999999999 54.825 -41.115624999999994 Q58.53375 -37.32624999999999 64.5 -37.32624999999999 Z M10.6425 18.627500000000026 V-89.24875 H118.51875 V-42.48625 L144.31875 -68.28625 V-2.1737499999999983 L118.51875 -27.973749999999995 V18.627500000000026 H10.6425 Z M23.38125 5.888750000000002 H105.61875 V-76.34875 H23.38125 V5.888750000000002 Z"/></g><g id="Medium-L" transform="matrix(1 0 0 1 1674.31 1556)"><path d="M36.926249999999996 -8.623749999999987 H92.07375 V-12.332499999999982 Q92.07375 -22.652500000000003 82.39875 -25.554999999999993 Q72.72375000000001 -28.457499999999982 64.5 -28.457499999999982 Q56.27625 -28.457499999999982 46.60125 -25.554999999999993 Q36.926249999999996 -22.652500000000003 36.926249999999996 -12.332499999999982 V-8.623749999999987 Z M64.5 -37.32624999999999 Q70.305 -37.32624999999999 73.933125 -41.035 Q77.56125 -44.74374999999999 77.56125 -50.38749999999999 Q77.56125 -56.192499999999995 73.933125 -59.90124999999999 Q70.305 -63.61 64.5 -63.61 Q58.695 -63.61 55.066874999999996 -59.90124999999999 Q51.43875 -56.192499999999995 51.43875 -50.38749999999999 Q51.43875 -44.74374999999999 55.066874999999996 -41.035 Q58.695 -37.32624999999999 64.5 -37.32624999999999 Z M11.932500000000001 17.337500000000006 V-87.7975 H117.0675 V-42.48625 L142.8675 -68.28625 V-2.1737499999999983 L117.0675 -27.973749999999995 V17.337500000000006 H11.932500000000001 Z M22.8975 6.372500000000002 H106.10249999999999 V-76.8325 H22.8975 V6.372500000000002 Z"/></g><g id="Regular-L" transform="matrix(1 0 0 1 1378.56 1556)"><path d="M37.41 -9.107499999999987 H91.59 V-12.493749999999991 Q91.59 -22.652500000000003 82.07625 -25.554999999999993 Q72.5625 -28.457499999999982 64.5 -28.457499999999982 Q56.4375 -28.457499999999982 46.923750000000005 -25.554999999999993 Q37.41 -22.652500000000003 37.41 -12.493749999999991 V-9.107499999999987 Z M64.5 -37.32624999999999 Q70.14375 -37.32624999999999 73.77187500000001 -40.954374999999985 Q77.4 -44.582499999999996 77.4 -50.226249999999986 Q77.4 -55.86999999999999 73.77187500000001 -59.49812499999999 Q70.14375 -63.12624999999999 64.5 -63.12624999999999 Q58.85625 -63.12624999999999 55.228125 -59.49812499999999 Q51.6 -55.86999999999999 51.6 -50.226249999999986 Q51.6 -44.582499999999996 55.228125 -40.954374999999985 Q58.85625 -37.32624999999999 64.5 -37.32624999999999 Z M12.9 16.370000000000005 V-86.83 H116.10000000000001 V-42.48625 L141.9 -68.28625 V-2.1737499999999983 L116.10000000000001 -27.973749999999995 V16.370000000000005 H12.9 Z M22.575 6.695000000000007 H106.425 V-77.155 H22.575 V6.695000000000007 Z"/></g><g id="Light-L" transform="matrix(1 0 0 1 1082.77 1556)"><path d="M41.6025 -11.364999999999995 H90.46125 V-13.622499999999988 Q90.46125 -22.491249999999994 81.673125 -24.990624999999994 Q72.885 -27.489999999999995 66.1125 -27.489999999999995 Q59.17875000000001 -27.489999999999995 50.390625 -24.990624999999994 Q41.6025 -22.491249999999994 41.6025 -13.622499999999988 V-11.364999999999995 Z M66.1125 -37.81 Q70.95 -37.81 74.175 -40.954374999999985 Q77.4 -44.098749999999995 77.4 -49.0975 Q77.4 -53.934999999999995 74.175 -57.16 Q70.95 -60.385 66.1125 -60.385 Q61.113749999999996 -60.385 57.96937500000001 -57.16 Q54.825 -53.934999999999995 54.825 -49.0975 Q54.825 -44.098749999999995 57.96937500000001 -40.954374999999985 Q61.113749999999996 -37.81 66.1125 -37.81 Z M17.7375 13.14500000000001 V-83.60499999999999 H114.4875 V-40.71249999999999 L137.0625 -63.44875 V-7.172499999999985 L114.4875 -29.908749999999998 V13.14500000000001 H17.7375 Z M24.993750000000002 5.888750000000002 H107.07000000000001 V-76.34875 H24.993750000000002 V5.888750000000002 Z"/></g><g id="Thin-L" transform="matrix(1 0 0 1 787.282 1556)"><path d="M45.795 -13.622499999999988 H89.49375 V-14.751249999999985 Q89.49375 -22.33 81.35062500000001 -24.426249999999982 Q73.2075 -26.522499999999994 67.56375 -26.522499999999994 Q62.081250000000004 -26.522499999999994 53.93812500000001 -24.426249999999982 Q45.795 -22.33 45.795 -14.751249999999985 V-13.622499999999988 Z M67.56375 -38.13249999999999 Q71.75625000000001 -38.13249999999999 74.4975 -40.954374999999985 Q77.23875 -43.77624999999999 77.23875 -47.80749999999999 Q77.23875 -51.99999999999999 74.4975 -54.741249999999994 Q71.75625000000001 -57.48249999999999 67.56375 -57.48249999999999 Q63.371249999999996 -57.48249999999999 60.63 -54.741249999999994 Q57.88875 -51.99999999999999 57.88875 -47.80749999999999 Q57.88875 -43.77624999999999 60.63 -40.954374999999985 Q63.371249999999996 -38.13249999999999 67.56375 -38.13249999999999 Z M22.41375 9.920000000000002 V-80.38 H112.71375000000002 V-38.938749999999985 L132.38625 -58.44999999999999 V-12.17125 L112.71375000000002 -31.68249999999999 V9.920000000000002 H22.41375 Z M27.4125 4.921250000000015 H107.715 V-75.38125 H27.4125 V4.921250000000015 Z"/></g><g id="Ultralight-L" transform="matrix(1 0 0 1 491.205 1556)"><path d="M48.21375 -15.07374999999999 H88.84875000000001 V-15.396249999999995 Q88.84875000000001 -22.16874999999999 81.10875 -24.10374999999999 Q73.36875 -26.038749999999993 68.53125 -26.038749999999993 Q63.69375 -26.038749999999993 55.95375000000001 -24.10374999999999 Q48.21375 -22.16874999999999 48.21375 -15.396249999999995 V-15.07374999999999 Z M68.53125 -38.455 Q72.24 -38.455 74.73937500000001 -40.954374999999985 Q77.23875 -43.45375 77.23875 -47.162499999999994 Q77.23875 -50.871249999999996 74.73937500000001 -53.370625 Q72.24 -55.86999999999999 68.53125 -55.86999999999999 Q64.8225 -55.86999999999999 62.323125 -53.370625 Q59.823750000000004 -50.871249999999996 59.823750000000004 -47.162499999999994 Q59.823750000000004 -43.45375 62.323125 -40.954374999999985 Q64.8225 -38.455 68.53125 -38.455 Z M25.31625 7.984999999999999 V-78.445 H111.74625 V-37.81 L129.48375 -55.5475 V-15.07374999999999 L111.74625 -32.81124999999999 V7.984999999999999 H25.31625 Z M28.86375 4.4375 H108.19874999999999 V-74.8975 H28.86375 V4.4375 Z"/></g><g id="Bold-M" transform="matrix(1 0 0 1 2281.8 1126)"><path d="M28.125 -13.35499999999999 H71.875 V-16.97999999999999 Q71.875 -24.85499999999999 64.125 -27.544999999999987 Q56.375 -30.22999999999999 50.0 -30.22999999999999 Q43.625 -30.22999999999999 35.875 -27.544999999999987 Q28.125 -24.85499999999999 28.125 -16.97999999999999 V-13.35499999999999 Z M50.0 -35.22999999999999 Q54.625 -35.22999999999999 57.809999999999995 -38.41499999999999 Q61.0 -41.60499999999999 61.0 -46.22999999999999 Q61.0 -50.85499999999999 57.809999999999995 -53.97999999999999 Q54.625 -57.10499999999999 50.0 -57.10499999999999 Q45.375 -57.10499999999999 42.190000000000005 -53.97999999999999 Q39.0 -50.85499999999999 39.0 -46.22999999999999 Q39.0 -41.60499999999999 42.190000000000005 -38.41499999999999 Q45.375 -35.22999999999999 50.0 -35.22999999999999 Z M5.75 9.02000000000001 V-79.47999999999999 H94.25 V-42.72999999999999 L114.25 -62.72999999999999 V-7.72999999999999 L94.25 -27.72999999999999 V9.02000000000001 H5.75 Z M21.5 -6.72999999999999 H78.5 V-63.72999999999999 H21.5 V-6.72999999999999 Z"/></g><g id="Semibold-M" transform="matrix(1 0 0 1 1985.97 1126)"><path d="M29.0 -14.22999999999999 H71.0 V-17.35499999999999 Q71.0 -25.10499999999999 63.565 -27.669999999999987 Q56.125 -30.22999999999999 50.0 -30.22999999999999 Q43.875 -30.22999999999999 36.44 -27.669999999999987 Q29.0 -25.10499999999999 29.0 -17.35499999999999 V-14.22999999999999 Z M50.0 -35.22999999999999 Q54.375 -35.22999999999999 57.5 -38.29499999999999 Q60.625 -41.35499999999999 60.625 -45.85499999999999 Q60.625 -50.22999999999999 57.5 -53.22999999999999 Q54.375 -56.22999999999999 50.0 -56.22999999999999 Q45.625 -56.22999999999999 42.5 -53.22999999999999 Q39.375 -50.22999999999999 39.375 -45.85499999999999 Q39.375 -41.35499999999999 42.5 -38.29499999999999 Q45.625 -35.22999999999999 50.0 -35.22999999999999 Z M7.625 7.14500000000001 V-77.60499999999999 H92.375 V-42.72999999999999 L112.375 -62.72999999999999 V-7.72999999999999 L92.375 -27.72999999999999 V7.14500000000001 H7.625 Z M20.875 -6.10499999999999 H79.125 V-64.35499999999999 H20.875 V-6.10499999999999 Z"/></g><g id="Medium-M" transform="matrix(1 0 0 1 1689.91 1126)"><path d="M29.5 -14.72999999999999 H70.5 V-17.72999999999999 Q70.5 -25.22999999999999 63.25 -27.72999999999999 Q56.0 -30.22999999999999 50.0 -30.22999999999999 Q44.0 -30.22999999999999 36.75 -27.72999999999999 Q29.5 -25.22999999999999 29.5 -17.72999999999999 V-14.72999999999999 Z M50.0 -35.22999999999999 Q54.25 -35.22999999999999 57.25 -38.22999999999999 Q60.25 -41.22999999999999 60.25 -45.47999999999999 Q60.25 -49.72999999999999 57.25 -52.72999999999999 Q54.25 -55.72999999999999 50.0 -55.72999999999999 Q45.75 -55.72999999999999 42.75 -52.72999999999999 Q39.75 -49.72999999999999 39.75 -45.47999999999999 Q39.75 -41.22999999999999 42.75 -38.22999999999999 Q45.75 -35.22999999999999 50.0 -35.22999999999999 Z M9.0 5.77000000000001 V-76.22999999999999 H91.0 V-42.72999999999999 L111.0 -62.72999999999999 V-7.72999999999999 L91.0 -27.72999999999999 V5.77000000000001 H9.0 Z M20.375 -5.60499999999999 H79.625 V-64.85499999999999 H20.375 V-5.60499999999999 Z"/></g><g id="Regular-M" transform="matrix(1 0 0 1 1394.06 1126)"><path d="M30.0 -15.22999999999999 H70.0 V-17.97999999999999 Q70.0 -25.35499999999999 62.94 -27.789999999999992 Q55.875 -30.22999999999999 50.0 -30.22999999999999 Q44.125 -30.22999999999999 37.065 -27.789999999999992 Q30.0 -25.35499999999999 30.0 -17.97999999999999 V-15.22999999999999 Z M50.0 -35.22999999999999 Q54.125 -35.22999999999999 57.065 -38.16999999999999 Q60.0 -41.10499999999999 60.0 -45.22999999999999 Q60.0 -49.35499999999999 57.065 -52.29499999999999 Q54.125 -55.22999999999999 50.0 -55.22999999999999 Q45.875 -55.22999999999999 42.94 -52.29499999999999 Q40.0 -49.35499999999999 40.0 -45.22999999999999 Q40.0 -41.10499999999999 42.94 -38.16999999999999 Q45.875 -35.22999999999999 50.0 -35.22999999999999 Z M10.0 4.77000000000001 V-75.22999999999999 H90.0 V-42.72999999999999 L110.0 -62.72999999999999 V-7.72999999999999 L90.0 -27.72999999999999 V4.77000000000001 H10.0 Z M20.0 -5.22999999999999 H80.0 V-65.22999999999999 H20.0 V-5.22999999999999 Z"/></g><g id="Light-M" transform="matrix(1 0 0 1 1098.18 1126)"><path d="M32.875 -16.97999999999999 H69.5 V-18.72999999999999 Q69.5 -25.22999999999999 62.875 -27.35499999999999 Q56.25 -29.47999999999999 51.25 -29.47999999999999 Q46.25 -29.47999999999999 39.56 -27.35499999999999 Q32.875 -25.22999999999999 32.875 -18.72999999999999 V-16.97999999999999 Z M51.25 -35.97999999999999 Q54.875 -35.97999999999999 57.44 -38.54499999999999 Q60.0 -41.10499999999999 60.0 -44.72999999999999 Q60.0 -48.35499999999999 57.44 -50.91499999999999 Q54.875 -53.47999999999999 51.25 -53.47999999999999 Q47.5 -53.47999999999999 45.0 -50.91499999999999 Q42.5 -48.35499999999999 42.5 -44.72999999999999 Q42.5 -41.10499999999999 45.0 -38.54499999999999 Q47.5 -35.97999999999999 51.25 -35.97999999999999 Z M13.75 2.2700000000000102 V-72.72999999999999 H88.75 V-40.85499999999999 L106.25 -58.35499999999999 V-12.10499999999999 L88.75 -29.60499999999999 V2.2700000000000102 H13.75 Z M21.25 -5.22999999999999 H81.25 V-65.22999999999999 H21.25 V-5.22999999999999 Z"/></g><g id="Thin-M" transform="matrix(1 0 0 1 802.565 1126)"><path d="M35.875 -18.72999999999999 H69.0 V-19.47999999999999 Q69.0 -25.10499999999999 62.75 -26.919999999999987 Q56.5 -28.72999999999999 52.375 -28.72999999999999 Q48.25 -28.72999999999999 42.065 -26.919999999999987 Q35.875 -25.10499999999999 35.875 -19.47999999999999 V-18.72999999999999 Z M52.375 -36.72999999999999 Q55.625 -36.72999999999999 57.75 -38.91999999999999 Q59.875 -41.10499999999999 59.875 -44.22999999999999 Q59.875 -47.47999999999999 57.75 -49.60499999999999 Q55.625 -51.72999999999999 52.375 -51.72999999999999 Q49.25 -51.72999999999999 47.065 -49.60499999999999 Q44.875 -47.47999999999999 44.875 -44.22999999999999 Q44.875 -41.10499999999999 47.065 -38.91999999999999 Q49.25 -36.72999999999999 52.375 -36.72999999999999 Z M17.375 -0.22999999999998977 V-70.22999999999999 H87.375 V-38.85499999999999 L102.625 -54.10499999999999 V-16.35499999999999 L87.375 -31.60499999999999 V-0.22999999999998977 H17.375 Z M22.375 -5.22999999999999 H82.375 V-65.22999999999999 H22.375 V-5.22999999999999 Z"/></g><g id="Ultralight-M" transform="matrix(1 0 0 1 506.415 1126)"><path d="M37.625 -19.72999999999999 H68.625 V-19.97999999999999 Q68.625 -25.10499999999999 62.69 -26.669999999999987 Q56.75 -28.22999999999999 53.125 -28.22999999999999 Q49.5 -28.22999999999999 43.565 -26.669999999999987 Q37.625 -25.10499999999999 37.625 -19.97999999999999 V-19.72999999999999 Z M53.125 -37.22999999999999 Q56.0 -37.22999999999999 57.94 -39.16999999999999 Q59.875 -41.10499999999999 59.875 -43.97999999999999 Q59.875 -46.85499999999999 57.94 -48.79499999999999 Q56.0 -50.72999999999999 53.125 -50.72999999999999 Q50.25 -50.72999999999999 48.315 -48.79499999999999 Q46.375 -46.85499999999999 46.375 -43.97999999999999 Q46.375 -41.10499999999999 48.315 -39.16999999999999 Q50.25 -37.22999999999999 53.125 -37.22999999999999 Z M19.625 -1.7299999999999898 V-68.72999999999999 H86.625 V-37.72999999999999 L100.375 -51.47999999999999 V-18.97999999999999 L86.625 -32.72999999999999 V-1.7299999999999898 H19.625 Z M23.125 -5.22999999999999 H83.125 V-65.22999999999999 H23.125 V-5.22999999999999 Z"/></g><g id="Bold-S" transform="matrix(1 0 0 1 2294.23 696)"><path d="M22.093578 -17.771007999999995 H56.808 V-20.92858599999999 Q56.808 -27.23900799999999 50.691672000000004 -29.35983999999999 Q44.580078 -31.48067199999999 39.448422 -31.48067199999999 Q34.3215 -31.48067199999999 28.205172 -29.35983999999999 Q22.093578 -27.23900799999999 22.093578 -20.92858599999999 V-17.771007999999995 Z M39.448422 -35.22999999999999 Q43.19775 -35.22999999999999 45.66416400000001 -37.696414 Q48.130578 -40.16282799999999 48.130578 -43.907422 Q48.130578 -47.656749999999995 45.66416400000001 -50.07108999999999 Q43.19775 -52.49016399999999 39.448422 -52.49016399999999 Q35.703828 -52.49016399999999 33.237414 -50.07108999999999 Q30.771 -47.656749999999995 30.771 -43.907422 Q30.771 -40.16282799999999 33.237414 -37.696414 Q35.703828 -35.22999999999999 39.448422 -35.22999999999999 Z M4.535172 -0.316749999999999 V-70.14325 H74.361672 V-41.63983599999999 L90.144828 -57.422991999999994 V-13.037007999999986 L74.361672 -28.820164 V-0.316749999999999 H4.535172 Z M17.359578 -13.136421999999996 H61.542 V-57.323578 H17.359578 V-13.136421999999996 Z"/></g><g id="Semibold-S" transform="matrix(1 0 0 1 1998.1 696)"><path d="M22.780008000000002 -18.462171999999995 H56.116836 V-21.22682799999999 Q56.116836 -27.338421999999994 50.25141 -29.411913999999996 Q44.38125 -31.48067199999999 39.448422 -31.48067199999999 Q34.520328 -31.48067199999999 28.650167999999997 -29.411913999999996 Q22.780008000000002 -27.338421999999994 22.780008000000002 -21.22682799999999 V-18.462171999999995 Z M39.448422 -35.22999999999999 Q42.998922 -35.22999999999999 45.417995999999995 -37.596999999999994 Q47.832336 -39.96399999999999 47.832336 -43.613913999999994 Q47.832336 -47.164413999999994 45.417995999999995 -49.47933999999999 Q42.998922 -51.79899999999999 39.448422 -51.79899999999999 Q35.897922 -51.79899999999999 33.483582 -49.47933999999999 Q31.064508 -47.164413999999994 31.064508 -43.613913999999994 Q31.064508 -39.96399999999999 33.483582 -37.596999999999994 Q35.897922 -35.22999999999999 39.448422 -35.22999999999999 Z M6.016914 -1.7984919999999818 V-68.661508 H72.884664 V-41.63983599999999 L88.66308599999999 -57.422991999999994 V-13.037007999999986 L72.884664 -28.820164 V-1.7984919999999818 H6.016914 Z M16.862508 -12.644085999999987 H62.034335999999996 V-57.81591399999999 H16.862508 V-12.644085999999987 Z"/></g><g id="Medium-S" transform="matrix(1 0 0 1 1701.85 696)"><path d="M23.177664 -18.859827999999993 H55.723914 V-21.520335999999986 Q55.723914 -27.537249999999993 50.000507999999996 -29.511327999999992 Q44.281836 -31.48067199999999 39.448422 -31.48067199999999 Q34.615008 -31.48067199999999 28.896336 -29.511327999999992 Q23.177664 -27.537249999999993 23.177664 -21.520335999999986 V-18.859827999999993 Z M39.448422 -35.22999999999999 Q42.899508 -35.22999999999999 45.219167999999996 -37.549659999999996 Q47.538828 -39.86458599999999 47.538828 -43.31567199999999 Q47.538828 -46.771491999999995 45.219167999999996 -49.086417999999995 Q42.899508 -51.406077999999994 39.448422 -51.406077999999994 Q35.997336 -51.406077999999994 33.682410000000004 -49.086417999999995 Q31.36275 -46.771491999999995 31.36275 -43.31567199999999 Q31.36275 -39.86458599999999 33.682410000000004 -37.549659999999996 Q35.997336 -35.22999999999999 39.448422 -35.22999999999999 Z M7.101 -2.882577999999995 V-67.577422 H71.800578 V-41.63983599999999 L87.579 -57.422991999999994 V-13.037007999999986 L71.800578 -28.820164 V-2.882577999999995 H7.101 Z M16.469586 -12.251164000000003 H62.431992 V-58.20883599999999 H16.469586 V-12.251164000000003 Z"/></g><g id="Regular-S" transform="matrix(1 0 0 1 1405.73 696)"><path d="M23.570586 -19.252749999999992 H55.330992 V-21.719164 Q55.330992 -27.636663999999996 49.75434 -29.55866799999999 Q44.182422 -31.48067199999999 39.448422 -31.48067199999999 Q34.714422 -31.48067199999999 29.142504 -29.55866799999999 Q23.570586 -27.636663999999996 23.570586 -21.719164 V-19.252749999999992 Z M39.448422 -35.22999999999999 Q42.804828 -35.22999999999999 45.072414 -37.49758599999999 Q47.34 -39.76517199999999 47.34 -43.12157799999999 Q47.34 -46.47324999999999 45.072414 -48.740835999999994 Q42.804828 -51.008421999999996 39.448422 -51.008421999999996 Q36.09675 -51.008421999999996 33.829164 -48.740835999999994 Q31.561578 -46.47324999999999 31.561578 -43.12157799999999 Q31.561578 -39.76517199999999 33.829164 -37.49758599999999 Q36.09675 -35.22999999999999 39.448422 -35.22999999999999 Z M7.891578 -3.6684219999999925 V-66.79157799999999 H71.01 V-41.63983599999999 L86.788422 -57.422991999999994 V-13.037007999999986 L71.01 -28.820164 V-3.6684219999999925 H7.891578 Z M16.176078 -11.952922000000001 H62.7255 V-58.50707799999999 H16.176078 V-11.952922000000001 Z"/></g><g id="Light-S" transform="matrix(1 0 0 1 1109.75 696)"><path d="M25.838172 -20.635077999999993 H54.933336 V-22.310913999999997 Q54.933336 -27.537249999999993 49.707 -29.21308599999999 Q44.480664000000004 -30.888921999999994 40.437827999999996 -30.888921999999994 Q36.394992 -30.888921999999994 31.116582 -29.21308599999999 Q25.838172 -27.537249999999993 25.838172 -22.310913999999997 V-20.635077999999993 Z M40.437827999999996 -35.821749999999994 Q43.396578 -35.821749999999994 45.365922 -37.79582799999999 Q47.34 -39.76517199999999 47.34 -42.723921999999995 Q47.34 -45.682672 45.365922 -47.656749999999995 Q43.396578 -49.630827999999994 40.437827999999996 -49.630827999999994 Q37.379664 -49.630827999999994 35.457660000000004 -47.656749999999995 Q33.530922000000004 -45.682672 33.530922000000004 -42.723921999999995 Q33.530922000000004 -39.76517199999999 35.457660000000004 -37.79582799999999 Q37.379664 -35.821749999999994 40.437827999999996 -35.821749999999994 Z M10.850328 -5.642499999999998 V-64.8175 H70.025328 V-40.16282799999999 L83.82967199999999 -53.96717199999999 V-16.49282799999999 L70.025328 -30.297171999999996 V-5.642499999999998 H10.850328 Z M17.16075 -11.952922000000001 H63.710172 V-58.50707799999999 H17.16075 V-11.952922000000001 Z"/></g><g id="Thin-S" transform="matrix(1 0 0 1 814.015 696)"><path d="M28.205172 -22.012671999999995 H54.540414000000006 V-22.902663999999994 Q54.540414000000006 -27.43783599999999 49.607586 -28.867503999999997 Q44.679492 -30.297171999999996 41.323085999999996 -30.297171999999996 Q37.971414 -30.297171999999996 33.09066 -28.867503999999997 Q28.205172 -27.43783599999999 28.205172 -22.902663999999994 V-22.012671999999995 Z M41.323085999999996 -36.41349999999999 Q43.988327999999996 -36.41349999999999 45.61209 -38.08933599999999 Q47.24058599999999 -39.76517199999999 47.24058599999999 -42.330999999999996 Q47.24058599999999 -44.991507999999996 45.61209 -46.620003999999994 Q43.988327999999996 -48.24849999999999 41.323085999999996 -48.24849999999999 Q38.761992 -48.24849999999999 37.081422 -46.620003999999994 Q35.405586 -44.991507999999996 35.405586 -42.330999999999996 Q35.405586 -39.76517199999999 37.081422 -38.08933599999999 Q38.761992 -36.41349999999999 41.323085999999996 -36.41349999999999 Z M13.709664 -7.61657799999999 V-62.84342199999999 H68.936508 V-38.581672 L80.97033599999999 -50.6155 V-19.844499999999996 L68.936508 -31.87832799999999 V-7.61657799999999 H13.709664 Z M18.046008 -11.952922000000001 H64.600164 V-58.50707799999999 H18.046008 V-11.952922000000001 Z"/></g><g id="Ultralight-S" transform="matrix(1 0 0 1 517.792 696)"><path d="M29.5875 -22.80324999999999 H54.242172000000004 V-23.295585999999993 Q54.242172000000004 -27.43783599999999 49.560246 -28.673409999999997 Q44.873585999999996 -29.90424999999999 41.914835999999994 -29.90424999999999 Q38.956086 -29.90424999999999 34.27416 -28.673409999999997 Q29.5875 -27.43783599999999 29.5875 -23.295585999999993 V-22.80324999999999 Z M41.914835999999994 -36.80642199999999 Q44.281836 -36.80642199999999 45.763578 -38.288163999999995 Q47.24058599999999 -39.76517199999999 47.24058599999999 -42.132172 Q47.24058599999999 -44.499171999999994 45.763578 -45.98091399999999 Q44.281836 -47.457921999999996 41.914835999999994 -47.457921999999996 Q39.547836 -47.457921999999996 38.070828 -45.98091399999999 Q36.589086 -44.499171999999994 36.589086 -42.132172 Q36.589086 -39.76517199999999 38.070828 -38.288163999999995 Q39.547836 -36.80642199999999 41.914835999999994 -36.80642199999999 Z M15.484914 -8.800078 V-61.659921999999995 H68.349492 V-37.696414 L79.19508599999999 -48.542007999999996 V-21.917991999999998 L68.349492 -32.76358599999999 V-8.800078 H15.484914 Z M18.642492 -11.952922000000001 H65.191914 V-58.50707799999999 H18.642492 V-11.952922000000001 Z"/></g></g></svg>