<svg xmlns="http://www.w3.org/2000/svg" version="1.1" width="3300" height="2000"><g id="Notes"><style>
    text {
      font-family: monospace;
      text-anchor: middle;
    }
    text.emphasis {
      font-weight:bold;
    }
    text.lanchor {
      text-anchor: start;
    }
  </style><rect height="2200" id="artboard" fill="white" width="3300" x="0" y="0"/><line id="" style="fill:none;stroke:black;stroke-width:0.5;" x1="263" x2="3036" y1="292" y2="292"/><text class="lanchor emphasis" transform="matrix(1 0 0 1 263 322)">Weight/Scale Variations</text><text transform="matrix(1 0 0 1 559.711 322)">Ultralight</text><text transform="matrix(1 0 0 1 856.422 322)">Thin</text><text transform="matrix(1 0 0 1 1153.13 322)">Light</text><text transform="matrix(1 0 0 1 1449.84 322)">Regular</text><text transform="matrix(1 0 0 1 1746.56 322)">Medium</text><text transform="matrix(1 0 0 1 2043.27 322)">Semibold</text><text transform="matrix(1 0 0 1 2339.98 322)">Bold</text><text transform="matrix(1 0 0 1 2636.69 322)">Heavy</text><text transform="matrix(1 0 0 1 2933.4 322)">Black</text><text id="template-version" style="text-anchor: end;" transform="matrix(1 0 0 1 3036 1933)">Template v.1.0</text><text class="lanchor" transform="matrix(1 0 0 1 263 726)">Small</text><text class="lanchor" transform="matrix(1 0 0 1 263 1156)">Medium</text><text class="lanchor" transform="matrix(1 0 0 1 263 1586)">Large</text></g><g id="Guides"><g id="H-reference" style="fill:#27AAE1;stroke:none;" transform="matrix(1 0 0 1 339 696)"><path d="M 54.9316 0 L 57.666 0 L 30.5664 -70.459 L 28.0762 -70.459 L 0.976562 0 L 3.66211 0 L 12.9395 -24.4629 L 45.7031 -24.4629 Z M 29.1992 -67.0898 L 29.4434 -67.0898 L 44.8242 -26.709 L 13.8184 -26.709 Z"/></g><line id="Baseline-S" style="fill:none;stroke:#27AAE1;opacity:1;stroke-width:0.577;" x1="263" x2="3036" y1="696" y2="696"/><line id="Capline-S" style="fill:none;stroke:#27AAE1;opacity:1;stroke-width:0.577;" x1="263" x2="3036" y1="625.541" y2="625.541"/><g id="H-reference" style="fill:#27AAE1;stroke:none;" transform="matrix(1 0 0 1 339 1126)"><path d="M 54.9316 0 L 57.666 0 L 30.5664 -70.459 L 28.0762 -70.459 L 0.976562 0 L 3.66211 0 L 12.9395 -24.4629 L 45.7031 -24.4629 Z M 29.1992 -67.0898 L 29.4434 -67.0898 L 44.8242 -26.709 L 13.8184 -26.709 Z"/></g><line id="Baseline-M" style="fill:none;stroke:#27AAE1;opacity:1;stroke-width:0.577;" x1="263" x2="3036" y1="1126" y2="1126"/><line id="Capline-M" style="fill:none;stroke:#27AAE1;opacity:1;stroke-width:0.577;" x1="263" x2="3036" y1="1055.54" y2="1055.54"/><g id="H-reference" style="fill:#27AAE1;stroke:none;" transform="matrix(1 0 0 1 339 1556)"><path d="M 54.9316 0 L 57.666 0 L 30.5664 -70.459 L 28.0762 -70.459 L 0.976562 0 L 3.66211 0 L 12.9395 -24.4629 L 45.7031 -24.4629 Z M 29.1992 -67.0898 L 29.4434 -67.0898 L 44.8242 -26.709 L 13.8184 -26.709 Z"/></g><line id="Baseline-L" style="fill:none;stroke:#27AAE1;opacity:1;stroke-width:0.577;" x1="263" x2="3036" y1="1556" y2="1556"/><line id="Capline-L" style="fill:none;stroke:#27AAE1;opacity:1;stroke-width:0.577;" x1="263" x2="3036" y1="1485.54" y2="1485.54"/><rect height="119.336" id="left-margin" style="fill:darkred;stroke:none;opacity:0.4;" width="12.4512" x="1394.06" y="1030.79"/><rect height="119.336" id="right-margin" style="fill:darkgreen;stroke:none;opacity:0.4;" width="12.4512" x="1502.5112" y="1030.79"/><rect x="1406.5112" y="1045" width="96" height="96" fill="none" stroke="blue" stroke-dasharray="5"/><rect x="1394.06" y="1030.79" width="120.9024" height="119.336" fill="none" stroke="blue"/></g><g id="Symbols"><g id="Bold-L" transform="matrix(1 0 0 1 2266 1556)"><path d="M93.364 -72.479 Q90.441 -72.479 88.597 -74.442 Q86.752 -76.405 86.752 -79.248 Q86.752 -82.092 88.597 -84.058 Q90.441 -86.024 93.364 -86.024 H139.804 Q142.682 -86.024 144.629 -84.06 Q146.576 -82.095 146.576 -79.192 Q146.576 -76.349 144.629 -74.414 Q142.682 -72.479 139.804 -72.479 H93.364 Z M93.364 -44.905 Q90.441 -44.905 88.597 -46.868 Q86.752 -48.832 86.752 -51.706 Q86.752 -54.58 88.597 -56.434 Q90.441 -58.289 93.364 -58.289 H139.804 Q142.682 -58.289 144.629 -56.436 Q146.576 -54.584 146.576 -51.649 Q146.576 -48.775 144.629 -46.84 Q142.682 -44.905 139.804 -44.905 H93.364 Z M93.364 -17.331 Q90.554 -17.331 88.653 -19.23 Q86.752 -21.129 86.752 -23.937 Q86.752 -26.744 88.653 -28.649 Q90.554 -30.554 93.364 -30.554 H139.804 Q142.682 -30.554 144.629 -28.655 Q146.576 -26.756 146.576 -23.948 Q146.576 -21.141 144.629 -19.236 Q142.682 -17.331 139.804 -17.331 H93.364 Z M50.585 -22.814 Q40.796 -22.814 34.427 -29.311 Q28.058 -35.809 28.058 -45.597 Q28.058 -55.386 34.505 -61.836 Q40.953 -68.286 50.67 -68.286 Q60.455 -68.286 66.912 -61.805 Q73.369 -55.325 73.369 -45.56 Q73.369 -35.727 66.871 -29.271 Q60.374 -22.814 50.585 -22.814 Z M8.385 16.041 V9.436 Q8.385 5.475 10.303 1.892 Q12.221 -1.692 15.48 -3.302 Q23.059 -8.785 32.144 -11.446 Q41.23 -14.106 50.608 -14.106 Q59.985 -14.106 69.015 -11.204 Q78.045 -8.301 85.946 -3.302 Q89.044 -1.209 91.043 2.122 Q93.041 5.453 93.041 9.436 V16.041 Q93.041 19.393 90.844 21.59 Q88.647 23.788 85.463 23.788 H15.964 Q12.779 23.788 10.582 21.59 Q8.385 19.393 8.385 16.041 Z M20.801 8.63 V10.404 H80.464 V8.63 Q74.175 4.438 65.951 1.858 Q57.727 -0.722 50.633 -0.722 Q43.538 -0.722 35.233 1.858 Q26.929 4.438 20.801 8.63 Z M50.633 -36.197 Q54.825 -36.197 57.405 -38.858 Q59.985 -41.519 59.985 -45.55 Q59.985 -49.742 57.405 -52.322 Q54.825 -54.902 50.633 -54.902 Q46.44 -54.902 43.86 -52.322 Q41.28 -49.742 41.28 -45.55 Q41.28 -41.519 43.86 -38.858 Q46.44 -36.197 50.633 -36.197 Z"/></g><g id="Semibold-L" transform="matrix(1 0 0 1 1970.27 1556)"><path d="M92.172 -71.708 Q89.626 -71.708 87.979 -73.426 Q86.332 -75.143 86.332 -77.65 Q86.332 -80.156 87.979 -81.863 Q89.626 -83.57 92.172 -83.57 H138.612 Q141.133 -83.57 142.838 -81.852 Q144.543 -80.133 144.543 -77.593 Q144.543 -75.087 142.838 -73.397 Q141.133 -71.708 138.612 -71.708 H92.172 Z M92.172 -44.905 Q89.626 -44.905 87.979 -46.623 Q86.332 -48.341 86.332 -50.864 Q86.332 -53.388 87.979 -55.032 Q89.626 -56.676 92.172 -56.676 H138.612 Q141.133 -56.676 142.838 -55.021 Q144.543 -53.366 144.543 -50.808 Q144.543 -48.284 142.838 -46.595 Q141.133 -44.905 138.612 -44.905 H92.172 Z M92.172 -18.102 Q89.69 -18.102 88.011 -19.784 Q86.332 -21.466 86.332 -23.952 Q86.332 -26.438 88.011 -28.11 Q89.69 -29.783 92.172 -29.783 H138.612 Q141.133 -29.783 142.838 -28.101 Q144.543 -26.419 144.543 -23.933 Q144.543 -21.447 142.838 -19.775 Q141.133 -18.102 138.612 -18.102 H92.172 Z M51.026 -22.814 Q41.918 -22.814 35.969 -28.835 Q30.02 -34.856 30.02 -43.964 Q30.02 -53.073 36.013 -59.067 Q42.006 -65.061 51.075 -65.061 Q60.181 -65.061 66.179 -59.05 Q72.177 -53.038 72.177 -43.943 Q72.177 -34.81 66.156 -28.812 Q60.135 -22.814 51.026 -22.814 Z M10.348 14.081 V7.824 Q10.348 4.262 12.063 1.04 Q13.778 -2.182 16.672 -3.583 Q24.11 -8.925 32.996 -11.516 Q41.883 -14.106 51.039 -14.106 Q60.195 -14.106 69.015 -11.274 Q77.835 -8.442 85.526 -3.583 Q88.258 -1.698 90.054 1.271 Q91.849 4.241 91.849 7.824 V14.081 Q91.849 16.87 90.003 18.716 Q88.157 20.563 85.463 20.563 H16.735 Q14.041 20.563 12.194 18.716 Q10.348 16.87 10.348 14.081 Z M21.222 7.018 V8.791 H80.884 V7.018 Q74.596 2.825 66.372 0.245 Q58.148 -2.335 51.053 -2.335 Q43.958 -2.335 35.654 0.245 Q27.349 2.825 21.222 7.018 Z M51.053 -34.585 Q55.246 -34.585 57.826 -37.211 Q60.406 -39.836 60.406 -43.938 Q60.406 -48.13 57.826 -50.71 Q55.246 -53.29 51.053 -53.29 Q46.861 -53.29 44.281 -50.71 Q41.701 -48.13 41.701 -43.938 Q41.701 -39.836 44.281 -37.211 Q46.861 -34.585 51.053 -34.585 Z"/></g><g id="Medium-L" transform="matrix(1 0 0 1 1674.31 1556)"><path d="M91.278 -71.129 Q89.015 -71.129 87.516 -72.663 Q86.016 -74.197 86.016 -76.45 Q86.016 -78.704 87.516 -80.217 Q89.015 -81.73 91.278 -81.73 H137.718 Q139.971 -81.73 141.494 -80.196 Q143.018 -78.661 143.018 -76.394 Q143.018 -74.14 141.494 -72.635 Q139.971 -71.129 137.718 -71.129 H91.278 Z M91.278 -44.905 Q89.015 -44.905 87.516 -46.439 Q86.016 -47.973 86.016 -50.234 Q86.016 -52.494 87.516 -53.981 Q89.015 -55.467 91.278 -55.467 H137.718 Q139.971 -55.467 141.494 -53.96 Q143.018 -52.452 143.018 -50.177 Q143.018 -47.916 141.494 -46.411 Q139.971 -44.905 137.718 -44.905 H91.278 Z M91.278 -18.681 Q89.042 -18.681 87.529 -20.199 Q86.016 -21.718 86.016 -23.963 Q86.016 -26.207 87.529 -27.706 Q89.042 -29.204 91.278 -29.204 H137.718 Q139.971 -29.204 141.494 -27.686 Q143.018 -26.167 143.018 -23.922 Q143.018 -21.678 141.494 -20.179 Q139.971 -18.681 137.718 -18.681 H91.278 Z M51.357 -22.814 Q42.759 -22.814 37.126 -28.478 Q31.493 -34.141 31.493 -42.739 Q31.493 -51.337 37.145 -56.99 Q42.797 -62.642 51.378 -62.642 Q59.975 -62.642 65.629 -56.983 Q71.283 -51.323 71.283 -42.73 Q71.283 -34.122 65.619 -28.468 Q59.955 -22.814 51.357 -22.814 Z M11.82 12.611 V6.614 Q11.82 3.353 13.383 0.402 Q14.946 -2.549 17.566 -3.793 Q24.899 -9.03 33.636 -11.568 Q42.372 -14.106 51.363 -14.106 Q60.353 -14.106 69.015 -11.326 Q77.677 -8.547 85.21 -3.793 Q87.669 -2.066 89.312 0.633 Q90.955 3.331 90.955 6.614 V12.611 Q90.955 14.977 89.372 16.56 Q87.788 18.144 85.463 18.144 H17.313 Q14.988 18.144 13.404 16.56 Q11.82 14.977 11.82 12.611 Z M21.537 5.808 V7.582 H81.2 V5.808 Q74.911 1.616 66.687 -0.964 Q58.464 -3.544 51.369 -3.544 Q44.274 -3.544 35.969 -0.964 Q27.665 1.616 21.537 5.808 Z M51.369 -33.376 Q55.561 -33.376 58.141 -35.975 Q60.721 -38.574 60.721 -42.728 Q60.721 -46.921 58.141 -49.501 Q55.561 -52.081 51.369 -52.081 Q47.176 -52.081 44.596 -49.501 Q42.016 -46.921 42.016 -42.728 Q42.016 -38.574 44.596 -35.975 Q47.176 -33.376 51.369 -33.376 Z"/></g><g id="Regular-L" transform="matrix(1 0 0 1 1378.56 1556)"><path d="M90.623 -70.705 Q88.567 -70.705 87.176 -72.104 Q85.785 -73.503 85.785 -75.571 Q85.785 -77.639 87.176 -79.009 Q88.567 -80.38 90.623 -80.38 H137.062 Q139.118 -80.38 140.509 -78.981 Q141.9 -77.582 141.9 -75.514 Q141.9 -73.446 140.509 -72.076 Q139.118 -70.705 137.062 -70.705 H90.623 Z M90.623 -44.905 Q88.567 -44.905 87.176 -46.304 Q85.785 -47.703 85.785 -49.771 Q85.785 -51.839 87.176 -53.209 Q88.567 -54.58 90.623 -54.58 H137.062 Q139.118 -54.58 140.509 -53.181 Q141.9 -51.782 141.9 -49.714 Q141.9 -47.646 140.509 -46.276 Q139.118 -44.905 137.062 -44.905 H90.623 Z M90.623 -19.105 Q88.567 -19.105 87.176 -20.504 Q85.785 -21.903 85.785 -23.971 Q85.785 -26.039 87.176 -27.409 Q88.567 -28.78 90.623 -28.78 H137.062 Q139.118 -28.78 140.509 -27.381 Q141.9 -25.982 141.9 -23.914 Q141.9 -21.846 140.509 -20.476 Q139.118 -19.105 137.062 -19.105 H90.623 Z M51.6 -22.814 Q43.376 -22.814 37.974 -28.216 Q32.572 -33.617 32.572 -41.841 Q32.572 -50.065 37.974 -55.467 Q43.376 -60.869 51.6 -60.869 Q59.824 -60.869 65.226 -55.467 Q70.627 -50.065 70.627 -41.841 Q70.627 -33.617 65.226 -28.216 Q59.824 -22.814 51.6 -22.814 Z M12.9 11.533 V5.728 Q12.9 2.686 14.351 -0.067 Q15.803 -2.819 18.221 -3.947 Q25.477 -9.107 34.104 -11.607 Q42.731 -14.106 51.6 -14.106 Q60.469 -14.106 69.015 -11.365 Q77.561 -8.624 84.979 -3.947 Q87.236 -2.335 88.768 0.164 Q90.3 2.664 90.3 5.728 V11.533 Q90.3 13.588 88.909 14.979 Q87.518 16.37 85.463 16.37 H17.738 Q15.682 16.37 14.291 14.979 Q12.9 13.588 12.9 11.533 Z M21.769 4.921 V6.695 H81.431 V4.921 Q75.142 0.729 66.919 -1.851 Q58.695 -4.431 51.6 -4.431 Q44.505 -4.431 36.201 -1.851 Q27.896 0.729 21.769 4.921 Z M51.6 -32.489 Q55.793 -32.489 58.373 -35.069 Q60.953 -37.649 60.953 -41.841 Q60.953 -46.034 58.373 -48.614 Q55.793 -51.194 51.6 -51.194 Q47.407 -51.194 44.828 -48.614 Q42.248 -46.034 42.248 -41.841 Q42.248 -37.649 44.828 -35.069 Q47.407 -32.489 51.6 -32.489 Z"/></g><g id="Light-L" transform="matrix(1 0 0 1 1082.77 1556)"><path d="M91.863 -70.705 Q90.308 -70.705 89.256 -71.766 Q88.204 -72.827 88.204 -74.396 Q88.204 -75.964 89.256 -76.994 Q90.308 -78.023 91.863 -78.023 H136.194 Q137.749 -78.023 138.801 -76.962 Q139.853 -75.901 139.853 -74.332 Q139.853 -72.764 138.801 -71.734 Q137.749 -70.705 136.194 -70.705 H91.863 Z M91.863 -45.649 Q90.308 -45.649 89.256 -46.71 Q88.204 -47.771 88.204 -49.34 Q88.204 -50.908 89.256 -51.938 Q90.308 -52.967 91.863 -52.967 H136.194 Q137.749 -52.967 138.801 -51.906 Q139.853 -50.845 139.853 -49.277 Q139.853 -47.708 138.801 -46.679 Q137.749 -45.649 136.194 -45.649 H91.863 Z M91.863 -20.593 Q90.308 -20.593 89.256 -21.655 Q88.204 -22.716 88.204 -24.284 Q88.204 -25.853 89.256 -26.882 Q90.308 -27.912 91.863 -27.912 H136.194 Q137.749 -27.912 138.801 -26.851 Q139.853 -25.79 139.853 -24.221 Q139.853 -22.652 138.801 -21.623 Q137.749 -20.593 136.194 -20.593 H91.863 Z M51.18 -23.93 Q43.971 -23.93 39.264 -28.666 Q34.557 -33.402 34.557 -40.555 Q34.557 -47.708 39.249 -52.459 Q43.941 -57.209 51.151 -57.209 Q58.361 -57.209 63.068 -52.473 Q67.774 -47.737 67.774 -40.584 Q67.774 -33.431 63.082 -28.681 Q58.39 -23.93 51.18 -23.93 Z M14.947 7.997 V4.053 Q14.947 1.563 16.15 -0.69 Q17.353 -2.943 19.4 -3.947 Q26.346 -8.611 34.49 -10.987 Q42.633 -13.362 51.166 -13.362 Q59.698 -13.362 67.793 -10.807 Q75.887 -8.252 82.994 -3.947 Q84.817 -2.583 86.101 -0.508 Q87.385 1.567 87.385 4.053 V7.997 Q87.385 9.974 86.048 11.311 Q84.71 12.649 82.734 12.649 H19.598 Q17.621 12.649 16.284 11.311 Q14.947 9.974 14.947 7.997 Z M21.583 3.061 V5.331 H80.749 V3.061 Q74.274 -1.07 66.299 -3.557 Q58.323 -6.044 51.166 -6.044 Q44.009 -6.044 35.984 -3.557 Q27.958 -1.07 21.583 3.061 Z M51.166 -31.248 Q55.264 -31.248 57.86 -33.845 Q60.456 -36.441 60.456 -40.539 Q60.456 -44.607 57.86 -47.249 Q55.264 -49.891 51.166 -49.891 Q47.068 -49.891 44.472 -47.249 Q41.875 -44.607 41.875 -40.539 Q41.875 -36.47 44.472 -33.859 Q47.068 -31.248 51.166 -31.248 Z"/></g><g id="Thin-L" transform="matrix(1 0 0 1 787.282 1556)"><path d="M93.103 -70.705 Q92.049 -70.705 91.336 -71.428 Q90.623 -72.151 90.623 -73.221 Q90.623 -74.29 91.336 -74.978 Q92.049 -75.667 93.103 -75.667 H135.326 Q136.38 -75.667 137.093 -74.943 Q137.807 -74.22 137.807 -73.151 Q137.807 -72.082 137.093 -71.393 Q136.38 -70.705 135.326 -70.705 H93.103 Z M93.103 -46.393 Q92.049 -46.393 91.336 -47.117 Q90.623 -47.84 90.623 -48.909 Q90.623 -49.978 91.336 -50.667 Q92.049 -51.355 93.103 -51.355 H135.326 Q136.38 -51.355 137.093 -50.632 Q137.807 -49.909 137.807 -48.839 Q137.807 -47.77 137.093 -47.082 Q136.38 -46.393 135.326 -46.393 H93.103 Z M93.103 -22.082 Q92.049 -22.082 91.336 -22.805 Q90.623 -23.528 90.623 -24.597 Q90.623 -25.667 91.336 -26.355 Q92.049 -27.043 93.103 -27.043 H135.326 Q136.38 -27.043 137.093 -26.32 Q137.807 -25.597 137.807 -24.528 Q137.807 -23.459 137.093 -22.77 Q136.38 -22.082 135.326 -22.082 H93.103 Z M50.761 -25.046 Q44.565 -25.046 40.553 -29.117 Q36.542 -33.187 36.542 -39.269 Q36.542 -45.352 40.524 -49.451 Q44.507 -53.551 50.702 -53.551 Q56.899 -53.551 60.91 -49.48 Q64.922 -45.41 64.922 -39.328 Q64.922 -33.245 60.939 -29.146 Q56.957 -25.046 50.761 -25.046 Z M16.993 4.462 V2.378 Q16.993 0.44 17.948 -1.313 Q18.903 -3.067 20.578 -3.947 Q27.214 -8.115 34.875 -10.367 Q42.535 -12.618 50.732 -12.618 Q58.928 -12.618 66.57 -10.249 Q74.212 -7.88 81.01 -3.947 Q82.399 -2.831 83.434 -1.18 Q84.47 0.471 84.47 2.378 V4.462 Q84.47 6.36 83.186 7.644 Q81.903 8.928 80.005 8.928 H21.459 Q19.561 8.928 18.277 7.644 Q16.993 6.36 16.993 4.462 Z M21.397 1.2 V3.966 H80.067 V1.2 Q73.406 -2.868 65.678 -5.262 Q57.951 -7.656 50.732 -7.656 Q43.513 -7.656 35.767 -5.262 Q28.02 -2.868 21.397 1.2 Z M50.732 -30.008 Q54.735 -30.008 57.348 -32.62 Q59.96 -35.233 59.96 -39.236 Q59.96 -43.181 57.348 -45.885 Q54.735 -48.589 50.732 -48.589 Q46.728 -48.589 44.116 -45.885 Q41.503 -43.181 41.503 -39.236 Q41.503 -35.292 44.116 -32.65 Q46.728 -30.008 50.732 -30.008 Z"/></g><g id="Ultralight-L" transform="matrix(1 0 0 1 491.205 1556)"><path d="M93.847 -70.705 Q93.094 -70.705 92.584 -71.226 Q92.074 -71.746 92.074 -72.516 Q92.074 -73.285 92.584 -73.769 Q93.094 -74.252 93.847 -74.252 H134.805 Q135.559 -74.252 136.069 -73.732 Q136.579 -73.211 136.579 -72.442 Q136.579 -71.672 136.069 -71.189 Q135.559 -70.705 134.805 -70.705 H93.847 Z M93.847 -46.84 Q93.094 -46.84 92.584 -47.361 Q92.074 -47.881 92.074 -48.651 Q92.074 -49.42 92.584 -49.904 Q93.094 -50.387 93.847 -50.387 H134.805 Q135.559 -50.387 136.069 -49.867 Q136.579 -49.346 136.579 -48.577 Q136.579 -47.807 136.069 -47.324 Q135.559 -46.84 134.805 -46.84 H93.847 Z M93.847 -22.975 Q93.094 -22.975 92.584 -23.496 Q92.074 -24.016 92.074 -24.786 Q92.074 -25.555 92.584 -26.039 Q93.094 -26.522 93.847 -26.522 H134.805 Q135.559 -26.522 136.069 -26.002 Q136.579 -25.481 136.579 -24.712 Q136.579 -23.942 136.069 -23.459 Q135.559 -22.975 134.805 -22.975 H93.847 Z M50.509 -25.716 Q44.922 -25.716 41.327 -29.387 Q37.733 -33.058 37.733 -38.498 Q37.733 -43.937 41.289 -47.646 Q44.846 -51.355 50.433 -51.355 Q56.021 -51.355 59.615 -47.684 Q63.21 -44.013 63.21 -38.574 Q63.21 -33.134 59.653 -29.425 Q56.097 -25.716 50.509 -25.716 Z M18.221 2.341 V1.374 Q18.221 -0.233 19.027 -1.687 Q19.834 -3.141 21.285 -3.947 Q27.735 -7.817 35.106 -9.994 Q42.476 -12.171 50.471 -12.171 Q58.466 -12.171 65.837 -9.914 Q73.207 -7.656 79.819 -3.947 Q80.948 -2.98 81.834 -1.583 Q82.721 -0.187 82.721 1.374 V2.341 Q82.721 4.192 81.469 5.443 Q80.218 6.695 78.368 6.695 H22.575 Q20.725 6.695 19.473 5.443 Q18.221 4.192 18.221 2.341 Z M21.285 0.084 V3.148 H79.657 V0.084 Q72.885 -3.947 65.306 -6.286 Q57.727 -8.624 50.471 -8.624 Q43.215 -8.624 35.636 -6.286 Q28.058 -3.947 21.285 0.084 Z M50.471 -29.264 Q54.418 -29.264 57.04 -31.886 Q59.663 -34.508 59.663 -38.455 Q59.663 -42.325 57.04 -45.066 Q54.418 -47.807 50.471 -47.807 Q46.525 -47.807 43.902 -45.066 Q41.28 -42.325 41.28 -38.455 Q41.28 -34.585 43.902 -31.924 Q46.525 -29.264 50.471 -29.264 Z"/></g><g id="Bold-M" transform="matrix(1 0 0 1 2281.8 1126)"><path d="M77.875 -62.105 Q74.953 -62.105 72.977 -64.167 Q71 -66.23 71 -69.105 Q71 -71.98 72.977 -73.98 Q74.953 -75.98 77.875 -75.98 H107.875 Q110.797 -75.98 112.773 -74.003 Q114.75 -72.027 114.75 -69.105 Q114.75 -66.23 112.773 -64.167 Q110.797 -62.105 107.875 -62.105 H77.875 Z M77.875 -40.23 Q74.953 -40.23 72.977 -42.292 Q71 -44.355 71 -47.23 Q71 -50.105 72.977 -52.105 Q74.953 -54.105 77.875 -54.105 H107.875 Q110.797 -54.105 112.773 -52.128 Q114.75 -50.152 114.75 -47.23 Q114.75 -44.355 112.773 -42.292 Q110.797 -40.23 107.875 -40.23 H77.875 Z M77.875 -18.355 Q74.953 -18.355 72.977 -20.331 Q71 -22.308 71 -25.23 Q71 -28.152 72.977 -30.128 Q74.953 -32.105 77.875 -32.105 H107.875 Q110.797 -32.105 112.773 -30.128 Q114.75 -28.152 114.75 -25.23 Q114.75 -22.308 112.773 -20.331 Q110.797 -18.355 107.875 -18.355 H77.875 Z M38.993 -25.23 Q31.125 -25.23 25.688 -30.737 Q20.25 -36.245 20.25 -44.112 Q20.25 -51.98 25.719 -57.417 Q31.188 -62.855 39 -62.855 Q46.865 -62.855 52.37 -57.386 Q57.875 -51.917 57.875 -44.105 Q57.875 -36.24 52.368 -30.735 Q46.86 -25.23 38.993 -25.23 Z M5.25 4.52 V-0.855 Q5.25 -4.455 6.993 -7.712 Q8.737 -10.969 11.875 -12.855 Q18 -16.48 24.757 -18.355 Q31.514 -20.23 39.007 -20.23 Q46.5 -20.23 53.312 -18.355 Q60.125 -16.48 66.25 -12.855 Q69.388 -10.969 71.132 -7.712 Q72.875 -4.455 72.875 -0.855 V4.52 Q72.875 7.77 70.562 10.083 Q68.25 12.395 65 12.395 H13.125 Q9.875 12.395 7.562 10.083 Q5.25 7.77 5.25 4.52 Z M19.75 -1.355 H58.25 Q53.875 -3.855 49 -5.105 Q44.125 -6.355 39 -6.355 Q33.875 -6.355 29 -5.105 Q24.125 -3.855 19.75 -1.355 Z M39 -39.105 Q41.125 -39.105 42.562 -40.542 Q44 -41.98 44 -44.105 Q44 -46.23 42.562 -47.667 Q41.125 -49.105 39 -49.105 Q36.875 -49.105 35.438 -47.667 Q34 -46.23 34 -44.105 Q34 -41.98 35.438 -40.542 Q36.875 -39.105 39 -39.105 Z"/></g><g id="Semibold-M" transform="matrix(1 0 0 1 1985.97 1126)"><path d="M76.625 -61.29 Q74.05 -61.29 72.308 -63.081 Q70.565 -64.871 70.565 -67.42 Q70.565 -69.969 72.308 -71.725 Q74.05 -73.48 76.625 -73.48 H106.625 Q109.201 -73.48 110.943 -71.738 Q112.685 -69.996 112.685 -67.42 Q112.685 -64.871 110.943 -63.081 Q109.201 -61.29 106.625 -61.29 H76.625 Z M76.625 -40.23 Q74.05 -40.23 72.308 -42.021 Q70.565 -43.811 70.565 -46.36 Q70.565 -48.909 72.308 -50.665 Q74.05 -52.42 76.625 -52.42 H106.625 Q109.201 -52.42 110.943 -50.678 Q112.685 -48.936 112.685 -46.36 Q112.685 -43.811 110.943 -42.021 Q109.201 -40.23 106.625 -40.23 H76.625 Z M76.625 -19.17 Q74.05 -19.17 72.308 -20.912 Q70.565 -22.655 70.565 -25.23 Q70.565 -27.805 72.308 -29.548 Q74.05 -31.29 76.625 -31.29 H106.625 Q109.201 -31.29 110.943 -29.548 Q112.685 -27.805 112.685 -25.23 Q112.685 -22.655 110.943 -20.912 Q109.201 -19.17 106.625 -19.17 H76.625 Z M39.431 -25.23 Q32.266 -25.23 27.291 -30.245 Q22.315 -35.26 22.315 -42.424 Q22.315 -49.589 27.308 -54.564 Q32.301 -59.54 39.435 -59.54 Q46.597 -59.54 51.611 -54.547 Q56.625 -49.553 56.625 -42.42 Q56.625 -35.258 51.61 -30.244 Q46.595 -25.23 39.431 -25.23 Z M7.315 2.455 V-2.54 Q7.315 -5.716 8.844 -8.589 Q10.373 -11.463 13.125 -13.127 Q19.032 -16.643 25.596 -18.436 Q32.16 -20.23 39.439 -20.23 Q46.717 -20.23 53.312 -18.436 Q59.908 -16.643 65.815 -13.127 Q68.567 -11.463 70.096 -8.589 Q71.625 -5.716 71.625 -2.54 V2.455 Q71.625 5.216 69.693 7.148 Q67.761 9.08 65 9.08 H13.94 Q11.179 9.08 9.247 7.148 Q7.315 5.216 7.315 2.455 Z M20.185 -3.04 H58.685 Q54.31 -5.54 49.435 -6.79 Q44.56 -8.04 39.435 -8.04 Q34.31 -8.04 29.435 -6.79 Q24.56 -5.54 20.185 -3.04 Z M39.435 -37.42 Q41.56 -37.42 42.997 -38.858 Q44.435 -40.295 44.435 -42.42 Q44.435 -44.545 42.997 -45.983 Q41.56 -47.42 39.435 -47.42 Q37.31 -47.42 35.872 -45.983 Q34.435 -44.545 34.435 -42.42 Q34.435 -40.295 35.872 -38.858 Q37.31 -37.42 39.435 -37.42 Z"/></g><g id="Medium-M" transform="matrix(1 0 0 1 1689.91 1126)"><path d="M75.688 -60.678 Q73.372 -60.678 71.805 -62.265 Q70.239 -63.852 70.239 -66.157 Q70.239 -68.461 71.805 -70.033 Q73.372 -71.605 75.688 -71.605 H105.688 Q108.003 -71.605 109.57 -70.039 Q111.136 -68.472 111.136 -66.157 Q111.136 -63.852 109.57 -62.265 Q108.003 -60.678 105.688 -60.678 H75.688 Z M75.688 -40.23 Q73.372 -40.23 71.805 -41.817 Q70.239 -43.404 70.239 -45.708 Q70.239 -48.013 71.805 -49.585 Q73.372 -51.157 75.688 -51.157 H105.688 Q108.003 -51.157 109.57 -49.59 Q111.136 -48.024 111.136 -45.708 Q111.136 -43.404 109.57 -41.817 Q108.003 -40.23 105.688 -40.23 H75.688 Z M75.688 -19.782 Q73.372 -19.782 71.805 -21.348 Q70.239 -22.914 70.239 -25.23 Q70.239 -27.545 71.805 -29.112 Q73.372 -30.678 75.688 -30.678 H105.688 Q108.003 -30.678 109.57 -29.112 Q111.136 -27.545 111.136 -25.23 Q111.136 -22.914 109.57 -21.348 Q108.003 -19.782 105.688 -19.782 H75.688 Z M39.759 -25.23 Q33.122 -25.23 28.493 -29.876 Q23.864 -34.522 23.864 -41.158 Q23.864 -47.795 28.501 -52.424 Q33.137 -57.053 39.761 -57.053 Q46.397 -57.053 51.042 -52.417 Q55.688 -47.78 55.688 -41.157 Q55.688 -34.52 51.042 -29.875 Q46.396 -25.23 39.759 -25.23 Z M8.864 0.906 V-3.803 Q8.864 -6.661 10.232 -9.247 Q11.6 -11.833 14.062 -13.33 Q19.807 -16.765 26.226 -18.498 Q32.645 -20.23 39.763 -20.23 Q46.88 -20.23 53.312 -18.498 Q59.745 -16.765 65.489 -13.33 Q67.951 -11.833 69.32 -9.247 Q70.688 -6.661 70.688 -3.803 V0.906 Q70.688 3.3 69.041 4.947 Q67.394 6.593 65 6.593 H14.552 Q12.158 6.593 10.511 4.947 Q8.864 3.3 8.864 0.906 Z M20.511 -4.303 H59.011 Q54.636 -6.803 49.761 -8.053 Q44.886 -9.303 39.761 -9.303 Q34.636 -9.303 29.761 -8.053 Q24.886 -6.803 20.511 -4.303 Z M39.761 -36.157 Q41.886 -36.157 43.323 -37.594 Q44.761 -39.032 44.761 -41.157 Q44.761 -43.282 43.323 -44.719 Q41.886 -46.157 39.761 -46.157 Q37.636 -46.157 36.198 -44.719 Q34.761 -43.282 34.761 -41.157 Q34.761 -39.032 36.198 -37.594 Q37.636 -36.157 39.761 -36.157 Z"/></g><g id="Regular-M" transform="matrix(1 0 0 1 1394.06 1126)"><path d="M75 -60.23 Q72.875 -60.23 71.438 -61.667 Q70 -63.105 70 -65.23 Q70 -67.355 71.438 -68.792 Q72.875 -70.23 75 -70.23 H105 Q107.125 -70.23 108.562 -68.792 Q110 -67.355 110 -65.23 Q110 -63.105 108.562 -61.667 Q107.125 -60.23 105 -60.23 H75 Z M75 -40.23 Q72.875 -40.23 71.438 -41.667 Q70 -43.105 70 -45.23 Q70 -47.355 71.438 -48.792 Q72.875 -50.23 75 -50.23 H105 Q107.125 -50.23 108.562 -48.792 Q110 -47.355 110 -45.23 Q110 -43.105 108.562 -41.667 Q107.125 -40.23 105 -40.23 H75 Z M75 -20.23 Q72.875 -20.23 71.438 -21.667 Q70 -23.105 70 -25.23 Q70 -27.355 71.438 -28.792 Q72.875 -30.23 75 -30.23 H105 Q107.125 -30.23 108.562 -28.792 Q110 -27.355 110 -25.23 Q110 -23.105 108.562 -21.667 Q107.125 -20.23 105 -20.23 H75 Z M40 -25.23 Q33.75 -25.23 29.375 -29.605 Q25 -33.98 25 -40.23 Q25 -46.48 29.375 -50.855 Q33.75 -55.23 40 -55.23 Q46.25 -55.23 50.625 -50.855 Q55 -46.48 55 -40.23 Q55 -33.98 50.625 -29.605 Q46.25 -25.23 40 -25.23 Z M10 -0.23 V-4.73 Q10 -7.355 11.25 -9.73 Q12.5 -12.105 14.75 -13.48 Q20.375 -16.855 26.688 -18.542 Q33 -20.23 40 -20.23 Q47 -20.23 53.312 -18.542 Q59.625 -16.855 65.25 -13.48 Q67.5 -12.105 68.75 -9.73 Q70 -7.355 70 -4.73 V-0.23 Q70 1.895 68.562 3.333 Q67.125 4.77 65 4.77 H15 Q12.875 4.77 11.438 3.333 Q10 1.895 10 -0.23 Z M20.75 -5.23 H59.25 Q54.875 -7.73 50 -8.98 Q45.125 -10.23 40 -10.23 Q34.875 -10.23 30 -8.98 Q25.125 -7.73 20.75 -5.23 Z M40 -35.23 Q42.125 -35.23 43.562 -36.667 Q45 -38.105 45 -40.23 Q45 -42.355 43.562 -43.792 Q42.125 -45.23 40 -45.23 Q37.875 -45.23 36.438 -43.792 Q35 -42.355 35 -40.23 Q35 -38.105 36.438 -36.667 Q37.875 -35.23 40 -35.23 Z"/></g><g id="Light-M" transform="matrix(1 0 0 1 1098.18 1126)"><path d="M74.663 -60.903 Q73.07 -60.903 71.992 -61.982 Q70.913 -63.06 70.913 -64.655 Q70.913 -66.249 71.992 -67.326 Q73.07 -68.403 74.663 -68.403 H104.663 Q106.257 -68.403 107.335 -67.324 Q108.413 -66.246 108.413 -64.651 Q108.413 -63.057 107.335 -61.98 Q106.257 -60.903 104.663 -60.903 H74.663 Z M74.663 -41.48 Q73.07 -41.48 71.992 -42.559 Q70.913 -43.637 70.913 -45.232 Q70.913 -46.826 71.992 -47.903 Q73.07 -48.98 74.663 -48.98 H104.663 Q106.257 -48.98 107.335 -47.901 Q108.413 -46.823 108.413 -45.228 Q108.413 -43.634 107.335 -42.557 Q106.257 -41.48 104.663 -41.48 H74.663 Z M74.663 -22.057 Q73.07 -22.057 71.992 -23.136 Q70.913 -24.214 70.913 -25.809 Q70.913 -27.403 71.992 -28.48 Q73.07 -29.557 74.663 -29.557 H104.663 Q106.257 -29.557 107.335 -28.478 Q108.413 -27.4 108.413 -25.805 Q108.413 -24.211 107.335 -23.134 Q106.257 -22.057 104.663 -22.057 H74.663 Z M39.675 -26.192 Q34.231 -26.192 30.409 -30.002 Q26.587 -33.813 26.587 -39.257 Q26.587 -44.701 30.397 -48.523 Q34.208 -52.345 39.652 -52.345 Q45.096 -52.345 48.918 -48.534 Q52.74 -44.724 52.74 -39.28 Q52.74 -33.836 48.929 -30.014 Q45.119 -26.192 39.675 -26.192 Z M11.587 -2.634 V-5.692 Q11.587 -7.82 12.62 -9.746 Q13.654 -11.672 15.471 -12.807 Q20.904 -15.989 26.938 -17.629 Q32.972 -19.268 39.663 -19.268 Q46.355 -19.268 52.389 -17.629 Q58.423 -15.989 63.856 -12.807 Q65.673 -11.672 66.707 -9.746 Q67.74 -7.82 67.74 -5.692 V-2.634 Q67.74 -0.713 66.441 0.586 Q65.142 1.885 63.221 1.885 H16.106 Q14.185 1.885 12.886 0.586 Q11.587 -0.713 11.587 -2.634 Z M19.548 -6.384 V-5.615 H59.779 V-6.384 Q55.115 -9.028 50.024 -10.398 Q44.933 -11.769 39.663 -11.769 Q34.394 -11.769 29.303 -10.398 Q24.212 -9.028 19.548 -6.384 Z M39.663 -33.691 Q41.981 -33.691 43.611 -35.321 Q45.24 -36.951 45.24 -39.268 Q45.24 -41.586 43.611 -43.215 Q41.981 -44.845 39.663 -44.845 Q37.346 -44.845 35.716 -43.215 Q34.087 -41.586 34.087 -39.268 Q34.087 -36.951 35.716 -35.321 Q37.346 -33.691 39.663 -33.691 Z"/></g><g id="Thin-M" transform="matrix(1 0 0 1 802.565 1126)"><path d="M74.327 -61.576 Q73.264 -61.576 72.546 -62.296 Q71.827 -63.016 71.827 -64.079 Q71.827 -65.143 72.546 -65.86 Q73.264 -66.576 74.327 -66.576 H104.327 Q105.389 -66.576 106.108 -65.856 Q106.827 -65.137 106.827 -64.073 Q106.827 -63.009 106.108 -62.292 Q105.389 -61.576 104.327 -61.576 H74.327 Z M74.327 -42.73 Q73.264 -42.73 72.546 -43.45 Q71.827 -44.169 71.827 -45.233 Q71.827 -46.297 72.546 -47.014 Q73.264 -47.73 74.327 -47.73 H104.327 Q105.389 -47.73 106.108 -47.01 Q106.827 -46.291 106.827 -45.227 Q106.827 -44.163 106.108 -43.446 Q105.389 -42.73 104.327 -42.73 H74.327 Z M74.327 -23.884 Q73.264 -23.884 72.546 -24.603 Q71.827 -25.323 71.827 -26.387 Q71.827 -27.451 72.546 -28.167 Q73.264 -28.884 74.327 -28.884 H104.327 Q105.389 -28.884 106.108 -28.164 Q106.827 -27.444 106.827 -26.38 Q106.827 -25.316 106.108 -24.6 Q105.389 -23.884 104.327 -23.884 H74.327 Z M39.349 -27.153 Q34.712 -27.153 31.442 -30.4 Q28.173 -33.646 28.173 -38.284 Q28.173 -42.922 31.42 -46.192 Q34.666 -49.461 39.304 -49.461 Q43.942 -49.461 47.212 -46.214 Q50.481 -42.968 50.481 -38.329 Q50.481 -33.691 47.234 -30.422 Q43.988 -27.153 39.349 -27.153 Z M13.173 -5.038 V-6.653 Q13.173 -8.286 13.99 -9.763 Q14.808 -11.24 16.192 -12.134 Q21.433 -15.124 27.189 -16.716 Q32.944 -18.307 39.327 -18.307 Q45.71 -18.307 51.465 -16.716 Q57.221 -15.124 62.462 -12.134 Q63.846 -11.24 64.663 -9.763 Q65.481 -8.286 65.481 -6.653 V-5.038 Q65.481 -3.321 64.32 -2.16 Q63.159 -0.999 61.442 -0.999 H17.212 Q15.495 -0.999 14.334 -2.16 Q13.173 -3.321 13.173 -5.038 Z M18.346 -7.538 V-5.999 H60.308 V-7.538 Q55.356 -10.326 50.048 -11.816 Q44.74 -13.307 39.327 -13.307 Q33.913 -13.307 28.606 -11.816 Q23.298 -10.326 18.346 -7.538 Z M39.327 -32.153 Q41.837 -32.153 43.659 -33.975 Q45.481 -35.797 45.481 -38.307 Q45.481 -40.816 43.659 -42.639 Q41.837 -44.461 39.327 -44.461 Q36.817 -44.461 34.995 -42.639 Q33.173 -40.816 33.173 -38.307 Q33.173 -35.797 34.995 -33.975 Q36.817 -32.153 39.327 -32.153 Z"/></g><g id="Ultralight-M" transform="matrix(1 0 0 1 506.415 1126)"><path d="M74.125 -61.98 Q73.381 -61.98 72.878 -62.484 Q72.375 -62.989 72.375 -63.734 Q72.375 -64.48 72.878 -64.98 Q73.381 -65.48 74.125 -65.48 H104.125 Q104.869 -65.48 105.372 -64.976 Q105.875 -64.471 105.875 -63.726 Q105.875 -62.98 105.372 -62.48 Q104.869 -61.98 104.125 -61.98 H74.125 Z M74.125 -43.48 Q73.381 -43.48 72.878 -43.984 Q72.375 -44.489 72.375 -45.234 Q72.375 -45.98 72.878 -46.48 Q73.381 -46.98 74.125 -46.98 H104.125 Q104.869 -46.98 105.372 -46.476 Q105.875 -45.971 105.875 -45.226 Q105.875 -44.48 105.372 -43.98 Q104.869 -43.48 104.125 -43.48 H74.125 Z M74.125 -24.98 Q73.381 -24.98 72.878 -25.484 Q72.375 -25.989 72.375 -26.734 Q72.375 -27.48 72.878 -27.98 Q73.381 -28.48 74.125 -28.48 H104.125 Q104.869 -28.48 105.372 -27.976 Q105.875 -27.471 105.875 -26.726 Q105.875 -25.98 105.372 -25.48 Q104.869 -24.98 104.125 -24.98 H74.125 Z M39.154 -27.73 Q35 -27.73 32.062 -30.638 Q29.125 -33.546 29.125 -37.701 Q29.125 -41.855 32.033 -44.792 Q34.941 -47.73 39.096 -47.73 Q43.25 -47.73 46.188 -44.822 Q49.125 -41.914 49.125 -37.759 Q49.125 -33.605 46.217 -30.667 Q43.309 -27.73 39.154 -27.73 Z M14.125 -6.48 V-7.23 Q14.125 -8.565 14.812 -9.772 Q15.5 -10.98 16.625 -11.73 Q21.75 -14.605 27.339 -16.167 Q32.928 -17.73 39.125 -17.73 Q45.322 -17.73 50.911 -16.167 Q56.5 -14.605 61.625 -11.73 Q62.75 -10.98 63.438 -9.772 Q64.125 -8.565 64.125 -7.23 V-6.48 Q64.125 -4.886 63.047 -3.808 Q61.969 -2.73 60.375 -2.73 H17.875 Q16.281 -2.73 15.203 -3.808 Q14.125 -4.886 14.125 -6.48 Z M17.625 -8.23 V-6.23 H60.625 V-8.23 Q55.5 -11.105 50.062 -12.667 Q44.625 -14.23 39.125 -14.23 Q33.625 -14.23 28.188 -12.667 Q22.75 -11.105 17.625 -8.23 Z M39.125 -31.23 Q41.75 -31.23 43.688 -33.167 Q45.625 -35.105 45.625 -37.73 Q45.625 -40.355 43.688 -42.292 Q41.75 -44.23 39.125 -44.23 Q36.5 -44.23 34.562 -42.292 Q32.625 -40.355 32.625 -37.73 Q32.625 -35.105 34.562 -33.167 Q36.5 -31.23 39.125 -31.23 Z"/></g><g id="Bold-S" transform="matrix(1 0 0 1 2294.23 696)"><path d="M62.655 -58.012 Q60.519 -58.012 59.058 -59.52 Q57.597 -61.028 57.597 -63.12 Q57.597 -65.212 59.042 -66.691 Q60.487 -68.171 62.623 -68.171 H83.902 Q86.038 -68.171 87.499 -66.731 Q88.96 -65.291 88.96 -63.162 Q88.96 -61.07 87.515 -59.541 Q86.07 -58.012 83.934 -58.012 H62.655 Z M62.655 -41.147 Q60.519 -41.147 59.058 -42.655 Q57.597 -44.163 57.597 -46.255 Q57.597 -48.347 59.042 -49.826 Q60.487 -51.306 62.623 -51.306 H83.902 Q86.038 -51.306 87.499 -49.866 Q88.96 -48.426 88.96 -46.297 Q88.96 -44.205 87.515 -42.676 Q86.07 -41.147 83.934 -41.147 H62.655 Z M62.655 -24.283 Q60.519 -24.283 59.058 -25.723 Q57.597 -27.163 57.597 -29.292 Q57.597 -31.421 59.042 -32.882 Q60.487 -34.342 62.623 -34.342 H83.902 Q86.038 -34.342 87.499 -32.902 Q88.96 -31.462 88.96 -29.333 Q88.96 -27.204 87.515 -25.743 Q86.07 -24.283 83.934 -24.283 H62.655 Z M32.343 -30.496 Q26.136 -30.496 21.845 -34.841 Q17.555 -39.187 17.555 -45.394 Q17.555 -51.602 21.87 -55.892 Q26.185 -60.182 32.349 -60.182 Q38.554 -60.182 42.898 -55.867 Q47.241 -51.552 47.241 -45.388 Q47.241 -39.183 42.896 -34.84 Q38.551 -30.496 32.343 -30.496 Z M5.72 -6.629 V-9.982 Q5.72 -13.513 7.54 -16.477 Q9.359 -19.442 12.427 -21.028 Q17.062 -23.296 22.048 -24.529 Q27.034 -25.762 32.355 -25.762 Q37.675 -25.762 42.705 -24.529 Q47.735 -23.296 52.37 -21.028 Q55.438 -19.442 57.257 -16.477 Q59.076 -13.513 59.076 -9.982 V-6.629 Q59.076 -4.232 57.365 -2.521 Q55.654 -0.81 53.258 -0.81 H11.539 Q9.143 -0.81 7.431 -2.521 Q5.72 -4.232 5.72 -6.629 Z M15.879 -10.87 H48.819 Q45.861 -13.138 41.718 -14.371 Q37.576 -15.604 32.349 -15.604 Q27.122 -15.604 22.98 -14.371 Q18.837 -13.138 15.879 -10.87 Z M32.349 -40.654 Q34.361 -40.654 35.722 -42.015 Q37.083 -43.376 37.083 -45.388 Q37.083 -47.4 35.722 -48.761 Q34.361 -50.122 32.349 -50.122 Q30.337 -50.122 28.976 -48.761 Q27.615 -47.4 27.615 -45.388 Q27.615 -43.376 28.976 -42.015 Q30.337 -40.654 32.349 -40.654 Z"/></g><g id="Semibold-S" transform="matrix(1 0 0 1 1998.1 696)"><path d="M61.669 -57.369 Q59.806 -57.369 58.53 -58.663 Q57.254 -59.956 57.254 -61.791 Q57.254 -63.626 58.514 -64.912 Q59.774 -66.198 61.637 -66.198 H82.916 Q84.778 -66.198 86.054 -64.943 Q87.33 -63.688 87.33 -61.832 Q87.33 -59.998 86.07 -58.684 Q84.81 -57.369 82.948 -57.369 H61.669 Z M61.669 -41.147 Q59.806 -41.147 58.53 -42.441 Q57.254 -43.735 57.254 -45.569 Q57.254 -47.404 58.514 -48.69 Q59.774 -49.977 61.637 -49.977 H82.916 Q84.778 -49.977 86.054 -48.722 Q87.33 -47.466 87.33 -45.611 Q87.33 -43.776 86.07 -42.462 Q84.81 -41.147 82.948 -41.147 H61.669 Z M61.669 -24.926 Q59.806 -24.926 58.53 -26.181 Q57.254 -27.436 57.254 -29.292 Q57.254 -31.147 58.514 -32.423 Q59.774 -33.699 61.637 -33.699 H82.916 Q84.778 -33.699 86.054 -32.444 Q87.33 -31.189 87.33 -29.333 Q87.33 -27.478 86.07 -26.202 Q84.81 -24.926 82.948 -24.926 H61.669 Z M32.689 -30.496 Q27.036 -30.496 23.11 -34.453 Q19.185 -38.41 19.185 -44.062 Q19.185 -49.715 23.124 -53.641 Q27.064 -57.567 32.692 -57.567 Q38.343 -57.567 42.299 -53.627 Q46.255 -49.687 46.255 -44.059 Q46.255 -38.408 42.298 -34.452 Q38.341 -30.496 32.689 -30.496 Z M7.35 -8.258 V-11.311 Q7.35 -14.508 9 -17.169 Q10.65 -19.831 13.413 -21.242 Q17.877 -23.425 22.71 -24.593 Q27.544 -25.762 32.695 -25.762 Q37.846 -25.762 42.705 -24.593 Q47.563 -23.425 52.027 -21.242 Q54.79 -19.831 56.44 -17.169 Q58.09 -14.508 58.09 -11.311 V-8.258 Q58.09 -6.247 56.679 -4.836 Q55.268 -3.425 53.258 -3.425 H12.182 Q10.172 -3.425 8.761 -4.836 Q7.35 -6.247 7.35 -8.258 Z M16.222 -12.199 H49.162 Q46.204 -14.467 42.061 -15.7 Q37.919 -16.933 32.692 -16.933 Q27.465 -16.933 23.323 -15.7 Q19.18 -14.467 16.222 -12.199 Z M32.692 -39.325 Q34.704 -39.325 36.065 -40.686 Q37.426 -42.047 37.426 -44.059 Q37.426 -46.071 36.065 -47.432 Q34.704 -48.793 32.692 -48.793 Q30.68 -48.793 29.319 -47.432 Q27.958 -46.071 27.958 -44.059 Q27.958 -42.047 29.319 -40.686 Q30.68 -39.325 32.692 -39.325 Z"/></g><g id="Medium-S" transform="matrix(1 0 0 1 1701.85 696)"><path d="M60.929 -56.887 Q59.271 -56.887 58.134 -58.019 Q56.997 -59.152 56.997 -60.794 Q56.997 -62.436 58.118 -63.577 Q59.239 -64.719 60.897 -64.719 H82.176 Q83.834 -64.719 84.971 -63.602 Q86.108 -62.486 86.108 -60.835 Q86.108 -59.194 84.987 -58.04 Q83.866 -56.887 82.208 -56.887 H60.929 Z M60.929 -41.147 Q59.271 -41.147 58.134 -42.28 Q56.997 -43.413 56.997 -45.055 Q56.997 -46.696 58.118 -47.838 Q59.239 -48.98 60.897 -48.98 H82.176 Q83.834 -48.98 84.971 -47.863 Q86.108 -46.747 86.108 -45.096 Q86.108 -43.454 84.987 -42.301 Q83.866 -41.147 82.208 -41.147 H60.929 Z M60.929 -25.408 Q59.271 -25.408 58.134 -26.525 Q56.997 -27.641 56.997 -29.292 Q56.997 -30.942 58.118 -32.08 Q59.239 -33.217 60.897 -33.217 H82.176 Q83.834 -33.217 84.971 -32.1 Q86.108 -30.984 86.108 -29.333 Q86.108 -27.683 84.987 -26.545 Q83.866 -25.408 82.208 -25.408 H60.929 Z M32.948 -30.496 Q27.711 -30.496 24.059 -34.161 Q20.407 -37.827 20.407 -43.063 Q20.407 -48.3 24.065 -51.952 Q27.723 -55.605 32.949 -55.605 Q38.185 -55.605 41.85 -51.946 Q45.515 -48.288 45.515 -43.062 Q45.515 -37.826 41.85 -34.161 Q38.184 -30.496 32.948 -30.496 Z M8.572 -9.48 V-12.308 Q8.572 -15.254 10.095 -17.689 Q11.618 -20.123 14.153 -21.403 Q18.488 -23.522 23.207 -24.642 Q27.926 -25.762 32.951 -25.762 Q37.975 -25.762 42.705 -24.642 Q47.434 -23.522 51.77 -21.403 Q54.304 -20.123 55.827 -17.689 Q57.35 -15.254 57.35 -12.308 V-9.48 Q57.35 -7.759 56.165 -6.573 Q54.979 -5.387 53.258 -5.387 H12.665 Q10.944 -5.387 9.758 -6.573 Q8.572 -7.759 8.572 -9.48 Z M16.479 -13.196 H49.42 Q46.461 -15.464 42.319 -16.697 Q38.176 -17.93 32.949 -17.93 Q27.722 -17.93 23.58 -16.697 Q19.438 -15.464 16.479 -13.196 Z M32.949 -38.328 Q34.961 -38.328 36.322 -39.689 Q37.683 -41.05 37.683 -43.062 Q37.683 -45.074 36.322 -46.435 Q34.961 -47.796 32.949 -47.796 Q30.937 -47.796 29.576 -46.435 Q28.215 -45.074 28.215 -43.062 Q28.215 -41.05 29.576 -39.689 Q30.937 -38.328 32.949 -38.328 Z"/></g><g id="Regular-S" transform="matrix(1 0 0 1 1405.73 696)"><path d="M60.386 -56.533 Q58.879 -56.533 57.844 -57.548 Q56.808 -58.563 56.808 -60.063 Q56.808 -61.563 57.828 -62.598 Q58.847 -63.634 60.355 -63.634 H81.634 Q83.141 -63.634 84.176 -62.619 Q85.212 -61.604 85.212 -60.104 Q85.212 -58.604 84.192 -57.569 Q83.173 -56.533 81.665 -56.533 H60.386 Z M60.386 -41.147 Q58.879 -41.147 57.844 -42.162 Q56.808 -43.177 56.808 -44.677 Q56.808 -46.177 57.828 -47.213 Q58.847 -48.248 60.355 -48.248 H81.634 Q83.141 -48.248 84.176 -47.234 Q85.212 -46.219 85.212 -44.719 Q85.212 -43.219 84.192 -42.183 Q83.173 -41.147 81.665 -41.147 H60.386 Z M60.386 -25.762 Q58.879 -25.762 57.844 -26.777 Q56.808 -27.792 56.808 -29.292 Q56.808 -30.792 57.828 -31.827 Q58.847 -32.863 60.355 -32.863 H81.634 Q83.141 -32.863 84.176 -31.848 Q85.212 -30.833 85.212 -29.333 Q85.212 -27.833 84.192 -26.798 Q83.173 -25.762 81.665 -25.762 H60.386 Z M33.138 -30.496 Q28.207 -30.496 24.755 -33.948 Q21.303 -37.4 21.303 -42.331 Q21.303 -47.262 24.755 -50.714 Q28.207 -54.166 33.138 -54.166 Q38.069 -54.166 41.521 -50.714 Q44.973 -47.262 44.973 -42.331 Q44.973 -37.4 41.521 -33.948 Q38.069 -30.496 33.138 -30.496 Z M9.468 -10.376 V-13.039 Q9.468 -15.801 10.898 -18.069 Q12.328 -20.338 14.695 -21.521 Q18.936 -23.592 23.571 -24.677 Q28.207 -25.762 33.138 -25.762 Q38.069 -25.762 42.705 -24.677 Q47.34 -23.592 51.581 -21.521 Q53.948 -20.338 55.378 -18.069 Q56.808 -15.801 56.808 -13.039 V-10.376 Q56.808 -8.868 55.787 -7.847 Q54.766 -6.826 53.258 -6.826 H13.019 Q11.51 -6.826 10.489 -7.847 Q9.468 -8.868 9.468 -10.376 Z M16.668 -13.927 H49.608 Q46.65 -16.195 42.507 -17.428 Q38.365 -18.661 33.138 -18.661 Q27.911 -18.661 23.769 -17.428 Q19.626 -16.195 16.668 -13.927 Z M33.138 -37.597 Q35.15 -37.597 36.511 -38.958 Q37.872 -40.319 37.872 -42.331 Q37.872 -44.343 36.511 -45.704 Q35.15 -47.065 33.138 -47.065 Q31.126 -47.065 29.765 -45.704 Q28.404 -44.343 28.404 -42.331 Q28.404 -40.319 29.765 -38.958 Q31.126 -37.597 33.138 -37.597 Z"/></g><g id="Light-S" transform="matrix(1 0 0 1 1109.75 696)"><path d="M60.121 -57.064 Q59.033 -57.064 58.281 -57.796 Q57.529 -58.527 57.529 -59.609 Q57.529 -60.69 58.265 -61.441 Q59.001 -62.192 60.089 -62.192 H81.368 Q82.456 -62.192 83.208 -61.461 Q83.96 -60.729 83.96 -59.648 Q83.96 -58.566 83.224 -57.815 Q82.488 -57.064 81.4 -57.064 H60.121 Z M60.121 -42.134 Q59.033 -42.134 58.281 -42.865 Q57.529 -43.597 57.529 -44.679 Q57.529 -45.76 58.265 -46.511 Q59.001 -47.262 60.089 -47.262 H81.368 Q82.456 -47.262 83.208 -46.531 Q83.96 -45.799 83.96 -44.717 Q83.96 -43.636 83.224 -42.885 Q82.488 -42.134 81.4 -42.134 H60.121 Z M60.121 -27.204 Q59.033 -27.204 58.281 -27.935 Q57.529 -28.667 57.529 -29.748 Q57.529 -30.83 58.265 -31.581 Q59.001 -32.332 60.089 -32.332 H81.368 Q82.456 -32.332 83.208 -31.6 Q83.96 -30.869 83.96 -29.787 Q83.96 -28.706 83.224 -27.955 Q82.488 -27.204 81.4 -27.204 H60.121 Z M32.881 -31.255 Q28.586 -31.255 25.571 -34.261 Q22.555 -37.268 22.555 -41.563 Q22.555 -45.859 25.562 -48.874 Q28.568 -51.89 32.864 -51.89 Q37.159 -51.89 40.174 -48.883 Q43.19 -45.876 43.19 -41.581 Q43.19 -37.286 40.183 -34.27 Q37.177 -31.255 32.881 -31.255 Z M10.72 -12.273 V-13.798 Q10.72 -16.168 11.979 -18.082 Q13.239 -19.996 15.264 -20.99 Q19.353 -22.909 23.769 -23.956 Q28.185 -25.003 32.872 -25.003 Q37.56 -25.003 41.976 -23.956 Q46.392 -22.909 50.481 -20.99 Q52.506 -19.996 53.766 -18.082 Q55.025 -16.168 55.025 -13.798 V-12.273 Q55.025 -10.926 54.113 -10.014 Q53.202 -9.102 51.854 -9.102 H13.891 Q12.543 -9.102 11.632 -10.014 Q10.72 -10.926 10.72 -12.273 Z M15.719 -14.837 V-14.23 H50.026 V-14.837 Q46.839 -17.22 42.526 -18.547 Q38.213 -19.875 32.872 -19.875 Q27.532 -19.875 23.219 -18.547 Q18.906 -17.22 15.719 -14.837 Z M32.872 -36.383 Q35.036 -36.383 36.549 -37.896 Q38.062 -39.409 38.062 -41.572 Q38.062 -43.736 36.549 -45.249 Q35.036 -46.762 32.872 -46.762 Q30.709 -46.762 29.196 -45.249 Q27.683 -43.736 27.683 -41.572 Q27.683 -39.409 29.196 -37.896 Q30.709 -36.383 32.872 -36.383 Z"/></g><g id="Thin-S" transform="matrix(1 0 0 1 814.015 696)"><path d="M59.855 -57.595 Q59.186 -57.595 58.718 -58.044 Q58.249 -58.492 58.249 -59.155 Q58.249 -59.818 58.702 -60.285 Q59.154 -60.751 59.823 -60.751 H81.103 Q81.771 -60.751 82.24 -60.303 Q82.709 -59.854 82.709 -59.191 Q82.709 -58.528 82.256 -58.062 Q81.803 -57.595 81.134 -57.595 H59.855 Z M59.855 -43.12 Q59.186 -43.12 58.718 -43.568 Q58.249 -44.017 58.249 -44.68 Q58.249 -45.343 58.702 -45.809 Q59.154 -46.276 59.823 -46.276 H81.103 Q81.771 -46.276 82.24 -45.828 Q82.709 -45.379 82.709 -44.716 Q82.709 -44.053 82.256 -43.587 Q81.803 -43.12 81.134 -43.12 H59.855 Z M59.855 -28.645 Q59.186 -28.645 58.718 -29.093 Q58.249 -29.542 58.249 -30.205 Q58.249 -30.868 58.702 -31.334 Q59.154 -31.801 59.823 -31.801 H81.103 Q81.771 -31.801 82.24 -31.352 Q82.709 -30.904 82.709 -30.241 Q82.709 -29.578 82.256 -29.111 Q81.803 -28.645 81.134 -28.645 H59.855 Z M32.625 -32.013 Q28.965 -32.013 26.386 -34.575 Q23.806 -37.136 23.806 -40.796 Q23.806 -44.455 26.368 -47.035 Q28.93 -49.614 32.589 -49.614 Q36.249 -49.614 38.828 -47.053 Q41.407 -44.491 41.407 -40.832 Q41.407 -37.172 38.846 -34.593 Q36.284 -32.013 32.625 -32.013 Z M11.971 -14.17 V-14.557 Q11.971 -16.535 13.06 -18.095 Q14.149 -19.655 15.833 -20.459 Q19.77 -22.227 23.967 -23.236 Q28.163 -24.245 32.607 -24.245 Q37.051 -24.245 41.247 -23.236 Q45.443 -22.227 49.381 -20.459 Q51.065 -19.655 52.154 -18.095 Q53.242 -16.535 53.242 -14.557 V-14.17 Q53.242 -12.983 52.44 -12.181 Q51.637 -11.378 50.451 -11.378 H14.763 Q13.577 -11.378 12.774 -12.181 Q11.971 -12.983 11.971 -14.17 Z M14.771 -15.748 V-14.534 H50.443 V-15.748 Q47.029 -18.244 42.545 -19.666 Q38.062 -21.089 32.607 -21.089 Q27.152 -21.089 22.669 -19.666 Q18.185 -18.244 14.771 -15.748 Z M32.607 -35.169 Q34.922 -35.169 36.587 -36.834 Q38.251 -38.498 38.251 -40.814 Q38.251 -43.129 36.587 -44.794 Q34.922 -46.458 32.607 -46.458 Q30.292 -46.458 28.627 -44.794 Q26.963 -43.129 26.963 -40.814 Q26.963 -38.498 28.627 -36.834 Q30.292 -35.169 32.607 -35.169 Z"/></g><g id="Ultralight-S" transform="matrix(1 0 0 1 517.792 696)"><path d="M59.696 -57.914 Q59.279 -57.914 58.98 -58.192 Q58.682 -58.471 58.682 -58.883 Q58.682 -59.294 58.964 -59.59 Q59.247 -59.886 59.664 -59.886 H80.943 Q81.361 -59.886 81.659 -59.608 Q81.957 -59.329 81.957 -58.917 Q81.957 -58.505 81.675 -58.21 Q81.393 -57.914 80.975 -57.914 H59.696 Z M59.696 -43.712 Q59.279 -43.712 58.98 -43.99 Q58.682 -44.269 58.682 -44.681 Q58.682 -45.092 58.964 -45.388 Q59.247 -45.684 59.664 -45.684 H80.943 Q81.361 -45.684 81.659 -45.406 Q81.957 -45.127 81.957 -44.715 Q81.957 -44.303 81.675 -44.008 Q81.393 -43.712 80.975 -43.712 H59.696 Z M59.696 -29.51 Q59.279 -29.51 58.98 -29.788 Q58.682 -30.067 58.682 -30.479 Q58.682 -30.89 58.964 -31.186 Q59.247 -31.482 59.664 -31.482 H80.943 Q81.361 -31.482 81.659 -31.204 Q81.957 -30.925 81.957 -30.513 Q81.957 -30.101 81.675 -29.806 Q81.393 -29.51 80.975 -29.51 H59.696 Z M32.471 -32.468 Q29.193 -32.468 26.875 -34.763 Q24.558 -37.057 24.558 -40.335 Q24.558 -43.613 26.852 -45.931 Q29.147 -48.248 32.424 -48.248 Q35.702 -48.248 38.02 -45.954 Q40.338 -43.66 40.338 -40.382 Q40.338 -37.104 38.043 -34.786 Q35.749 -32.468 32.471 -32.468 Z M12.723 -15.308 V-15.012 Q12.723 -16.755 13.709 -18.103 Q14.695 -19.45 16.175 -20.14 Q20.021 -21.817 24.085 -22.803 Q28.15 -23.789 32.448 -23.789 Q36.746 -23.789 40.81 -22.803 Q44.874 -21.817 48.721 -20.14 Q50.2 -19.45 51.186 -18.103 Q52.173 -16.755 52.173 -15.012 V-15.308 Q52.173 -14.218 51.435 -13.481 Q50.698 -12.743 49.608 -12.743 H15.287 Q14.197 -12.743 13.46 -13.481 Q12.723 -14.218 12.723 -15.308 Z M14.202 -16.294 V-14.716 H50.693 V-16.294 Q47.143 -18.858 42.557 -20.338 Q37.971 -21.817 32.448 -21.817 Q26.925 -21.817 22.339 -20.338 Q17.753 -18.858 14.202 -16.294 Z M32.448 -34.441 Q34.854 -34.441 36.61 -36.197 Q38.365 -37.952 38.365 -40.358 Q38.365 -42.765 36.61 -44.52 Q34.854 -46.276 32.448 -46.276 Q30.041 -46.276 28.286 -44.52 Q26.53 -42.765 26.53 -40.358 Q26.53 -37.952 28.286 -36.197 Q30.041 -34.441 32.448 -34.441 Z"/></g></g></svg>