<svg xmlns="http://www.w3.org/2000/svg" version="1.1" width="3300" height="2000"><g id="Notes"><style>
    text {
      font-family: monospace;
      text-anchor: middle;
    }
    text.emphasis {
      font-weight:bold;
    }
    text.lanchor {
      text-anchor: start;
    }
  </style><rect height="2200" id="artboard" fill="white" width="3300" x="0" y="0"/><line id="" style="fill:none;stroke:black;stroke-width:0.5;" x1="263" x2="3036" y1="292" y2="292"/><text class="lanchor emphasis" transform="matrix(1 0 0 1 263 322)">Weight/Scale Variations</text><text transform="matrix(1 0 0 1 559.711 322)">Ultralight</text><text transform="matrix(1 0 0 1 856.422 322)">Thin</text><text transform="matrix(1 0 0 1 1153.13 322)">Light</text><text transform="matrix(1 0 0 1 1449.84 322)">Regular</text><text transform="matrix(1 0 0 1 1746.56 322)">Medium</text><text transform="matrix(1 0 0 1 2043.27 322)">Semibold</text><text transform="matrix(1 0 0 1 2339.98 322)">Bold</text><text transform="matrix(1 0 0 1 2636.69 322)">Heavy</text><text transform="matrix(1 0 0 1 2933.4 322)">Black</text><text id="template-version" style="text-anchor: end;" transform="matrix(1 0 0 1 3036 1933)">Template v.1.0</text><text class="lanchor" transform="matrix(1 0 0 1 263 726)">Small</text><text class="lanchor" transform="matrix(1 0 0 1 263 1156)">Medium</text><text class="lanchor" transform="matrix(1 0 0 1 263 1586)">Large</text></g><g id="Guides"><g id="H-reference" style="fill:#27AAE1;stroke:none;" transform="matrix(1 0 0 1 339 696)"><path d="M 54.9316 0 L 57.666 0 L 30.5664 -70.459 L 28.0762 -70.459 L 0.976562 0 L 3.66211 0 L 12.9395 -24.4629 L 45.7031 -24.4629 Z M 29.1992 -67.0898 L 29.4434 -67.0898 L 44.8242 -26.709 L 13.8184 -26.709 Z"/></g><line id="Baseline-S" style="fill:none;stroke:#27AAE1;opacity:1;stroke-width:0.577;" x1="263" x2="3036" y1="696" y2="696"/><line id="Capline-S" style="fill:none;stroke:#27AAE1;opacity:1;stroke-width:0.577;" x1="263" x2="3036" y1="625.541" y2="625.541"/><g id="H-reference" style="fill:#27AAE1;stroke:none;" transform="matrix(1 0 0 1 339 1126)"><path d="M 54.9316 0 L 57.666 0 L 30.5664 -70.459 L 28.0762 -70.459 L 0.976562 0 L 3.66211 0 L 12.9395 -24.4629 L 45.7031 -24.4629 Z M 29.1992 -67.0898 L 29.4434 -67.0898 L 44.8242 -26.709 L 13.8184 -26.709 Z"/></g><line id="Baseline-M" style="fill:none;stroke:#27AAE1;opacity:1;stroke-width:0.577;" x1="263" x2="3036" y1="1126" y2="1126"/><line id="Capline-M" style="fill:none;stroke:#27AAE1;opacity:1;stroke-width:0.577;" x1="263" x2="3036" y1="1055.54" y2="1055.54"/><g id="H-reference" style="fill:#27AAE1;stroke:none;" transform="matrix(1 0 0 1 339 1556)"><path d="M 54.9316 0 L 57.666 0 L 30.5664 -70.459 L 28.0762 -70.459 L 0.976562 0 L 3.66211 0 L 12.9395 -24.4629 L 45.7031 -24.4629 Z M 29.1992 -67.0898 L 29.4434 -67.0898 L 44.8242 -26.709 L 13.8184 -26.709 Z"/></g><line id="Baseline-L" style="fill:none;stroke:#27AAE1;opacity:1;stroke-width:0.577;" x1="263" x2="3036" y1="1556" y2="1556"/><line id="Capline-L" style="fill:none;stroke:#27AAE1;opacity:1;stroke-width:0.577;" x1="263" x2="3036" y1="1485.54" y2="1485.54"/><rect height="119.336" id="left-margin" style="fill:darkred;stroke:none;opacity:0.4;" width="12.4512" x="1394.06" y="1030.79"/><rect height="119.336" id="right-margin" style="fill:darkgreen;stroke:none;opacity:0.4;" width="12.4512" x="1502.5112" y="1030.79"/><rect x="1406.5112" y="1045" width="96" height="96" fill="none" stroke="blue" stroke-dasharray="5"/><rect x="1394.06" y="1030.79" width="120.9024" height="119.336" fill="none" stroke="blue"/></g><g id="Symbols"><g id="Bold-L" transform="matrix(1 0 0 1 2266 1556)"><path d="M49.3425 3.470000000000013 Q50.955000000000005 3.470000000000013 52.728750000000005 2.2606250000000045 Q54.5025 1.0512500000000102 55.14750000000001 -0.5612499999999869 L60.63 -15.396249999999995 H94.17 L99.49125000000001 -0.5612499999999869 Q100.13625 1.0512500000000102 101.74875 2.2606250000000045 Q103.36125 3.470000000000013 105.135 3.470000000000013 Q108.84375 3.470000000000013 110.536875 1.0512500000000102 Q112.22999999999999 -1.3674999999999926 110.94 -4.914999999999992 L86.59125 -67.8025 Q85.62375 -70.3825 82.80187500000001 -72.15625 Q79.98 -73.92999999999999 76.91625 -73.92999999999999 Q74.33625 -73.92999999999999 71.75625000000001 -72.075625 Q69.17625 -70.22125 68.20875 -67.64125 L43.86 -4.431250000000006 Q42.57 -1.0449999999999875 44.1825 1.2124999999999915 Q45.795 3.470000000000013 49.3425 3.470000000000013 Z M64.33875 -25.716250000000002  77.23875 -62.15874999999999 H77.4 L90.13875 -25.716250000000002 H64.33875 Z M24.67125 33.30125000000001 Q18.06 33.30125000000001 13.464375 28.786250000000024 Q8.86875 24.27125000000001 8.86875 17.659999999999997 V-87.95875 Q8.86875 -94.57 13.464375 -99.24624999999999 Q18.06 -103.9225 24.509999999999998 -103.9225 H130.29 Q136.90125 -103.9225 141.49687500000002 -99.24624999999999 Q146.0925 -94.57 146.0925 -87.95875 V17.659999999999997 Q146.0925 24.27125000000001 141.49687500000002 28.786250000000024 Q136.90125 33.30125000000001 130.45125000000002 33.30125000000001 H24.67125 Z M24.1875 18.14375000000001 H130.935 Q130.935 18.14375000000001 130.935 18.14375000000001 Q130.935 18.14375000000001 130.935 18.14375000000001 V-88.60374999999999 Q130.935 -88.60374999999999 130.935 -88.60374999999999 Q130.935 -88.60374999999999 130.935 -88.60374999999999 H24.1875 Q24.1875 -88.60374999999999 24.1875 -88.60374999999999 Q24.1875 -88.60374999999999 24.1875 -88.60374999999999 V18.14375000000001 Q24.1875 18.14375000000001 24.1875 18.14375000000001 Q24.1875 18.14375000000001 24.1875 18.14375000000001 Z"/></g><g id="Semibold-L" transform="matrix(1 0 0 1 1970.27 1556)"><path d="M49.503750000000004 3.470000000000013 Q50.955000000000005 3.470000000000013 52.648125 2.3412500000000023 Q54.34125000000001 1.2124999999999915 54.986250000000005 -0.2387499999999818 L60.63 -15.879999999999995 H94.17 L99.97500000000001 -0.2387499999999818 Q100.45875 1.2124999999999915 101.99062500000001 2.3412500000000023 Q103.52250000000001 3.470000000000013 105.135 3.470000000000013 Q108.52125 3.470000000000013 110.05312500000001 1.2931250000000176 Q111.58500000000001 -0.883749999999992 110.45625 -4.108750000000001 L85.62375 -68.28625 Q84.81750000000001 -70.70499999999998 82.318125 -72.3175 Q79.81875000000001 -73.92999999999999 77.0775 -73.92999999999999 Q74.65875 -73.92999999999999 72.320625 -72.3175 Q69.9825 -70.70499999999998 69.17625 -68.28625 L44.34375 -3.9474999999999767 Q43.215 -0.7224999999999824 44.66625 1.3737500000000153 Q46.11750000000001 3.470000000000013 49.503750000000004 3.470000000000013 Z M64.1775 -25.554999999999993  77.23875 -62.31999999999999 H77.4 L90.46125 -25.554999999999993 H64.1775 Z M24.02625 31.527500000000032 Q18.3825 31.527500000000032 14.512500000000001 27.6575 Q10.6425 23.787499999999994 10.6425 18.305000000000007 V-88.60374999999999 Q10.6425 -94.2475 14.512500000000001 -98.19812499999999 Q18.3825 -102.14874999999999 23.865000000000002 -102.14874999999999 H130.935 Q136.4175 -102.14874999999999 140.368125 -98.19812499999999 Q144.31875 -94.2475 144.31875 -88.60374999999999 V18.305000000000007 Q144.31875 23.787499999999994 140.44875 27.6575 Q136.57875 31.527500000000032 131.09625 31.527500000000032 H24.02625 Z M23.5425 18.78875000000002 H131.57999999999998 Q131.57999999999998 18.78875000000002 131.57999999999998 18.78875000000002 Q131.57999999999998 18.78875000000002 131.57999999999998 18.78875000000002 V-89.24875 Q131.57999999999998 -89.24875 131.57999999999998 -89.24875 Q131.57999999999998 -89.24875 131.57999999999998 -89.24875 H23.5425 Q23.5425 -89.24875 23.5425 -89.24875 Q23.5425 -89.24875 23.5425 -89.24875 V18.78875000000002 Q23.5425 18.78875000000002 23.5425 18.78875000000002 Q23.5425 18.78875000000002 23.5425 18.78875000000002 Z"/></g><g id="Medium-L" transform="matrix(1 0 0 1 1674.31 1556)"><path d="M49.665 3.470000000000013 Q51.11625 3.470000000000013 52.648125 2.421875 Q54.18000000000001 1.3737500000000153 54.825 -0.07750000000000057 L60.63 -16.2025 H94.33125 L100.29750000000001 0.0837500000000233 Q100.78125 1.3737500000000153 102.151875 2.421875 Q103.52250000000001 3.470000000000013 105.135 3.470000000000013 Q108.19874999999999 3.470000000000013 109.65 1.454375000000013 Q111.10125000000001 -0.5612499999999869 109.97250000000001 -3.625 L84.97875 -68.77 Q84.17250000000001 -71.0275 81.91499999999999 -72.47874999999999 Q79.6575 -73.92999999999999 77.0775 -73.92999999999999 Q74.82 -73.92999999999999 72.72375000000001 -72.47874999999999 Q70.6275 -71.0275 69.82124999999999 -68.77 L44.8275 -3.4637499999999903 Q43.698750000000004 -0.5612499999999869 45.069375 1.454375000000013 Q46.440000000000005 3.470000000000013 49.665 3.470000000000013 Z M64.01625 -25.393749999999997  77.23875 -62.48124999999999 H77.56125 L90.6225 -25.393749999999997 H64.01625 Z M23.5425 30.23750000000001 Q18.705 30.23750000000001 15.31875 26.85125000000002 Q11.932500000000001 23.465000000000003 11.932500000000001 18.78875000000002 V-89.08749999999999 Q11.932500000000001 -93.925 15.31875 -97.31125 Q18.705 -100.69749999999999 23.38125 -100.69749999999999 H131.41875000000002 Q136.095 -100.69749999999999 139.48125000000002 -97.31125 Q142.8675 -93.925 142.8675 -89.08749999999999 V18.78875000000002 Q142.8675 23.465000000000003 139.561875 26.85125000000002 Q136.25625 30.23750000000001 131.57999999999998 30.23750000000001 H23.5425 Z M23.058750000000003 19.272500000000008 H132.06375 Q132.06375 19.272500000000008 132.06375 19.272500000000008 Q132.06375 19.272500000000008 132.06375 19.272500000000008 V-89.73249999999999 Q132.06375 -89.73249999999999 132.06375 -89.73249999999999 Q132.06375 -89.73249999999999 132.06375 -89.73249999999999 H23.058750000000003 Q23.058750000000003 -89.73249999999999 23.058750000000003 -89.73249999999999 Q23.058750000000003 -89.73249999999999 23.058750000000003 -89.73249999999999 V19.272500000000008 Q23.058750000000003 19.272500000000008 23.058750000000003 19.272500000000008 Q23.058750000000003 19.272500000000008 23.058750000000003 19.272500000000008 Z"/></g><g id="Regular-L" transform="matrix(1 0 0 1 1378.56 1556)"><path d="M49.665 3.470000000000013 Q51.11625 3.470000000000013 52.648125 2.421875 Q54.18000000000001 1.3737500000000153 54.66375 0.0837500000000233 L60.63 -16.52499999999999 H94.33125 L100.45875 0.24500000000000455 Q100.94250000000001 1.5349999999999966 102.31312500000001 2.502500000000012 Q103.68375 3.470000000000013 105.135 3.470000000000013 Q108.03750000000001 3.470000000000013 109.408125 1.5349999999999966 Q110.77875 -0.4000000000000057 109.65 -3.141249999999985 L84.495 -69.0925 Q83.68875 -71.18875 81.5925 -72.55937499999999 Q79.49625 -73.92999999999999 77.23875 -73.92999999999999 Q74.98125 -73.92999999999999 73.04625 -72.55937499999999 Q71.11125 -71.18875 70.305 -69.0925 L45.15 -3.141249999999985 Q44.02125 -0.4000000000000057 45.391875 1.5349999999999966 Q46.7625 3.470000000000013 49.665 3.470000000000013 Z M64.01625 -25.393749999999997  77.23875 -62.48124999999999 H77.56125 L90.78375 -25.393749999999997 H64.01625 Z M23.220000000000002 29.27000000000001 Q19.027500000000003 29.27000000000001 15.963750000000001 26.28687500000001 Q12.9 23.303750000000008 12.9 19.111250000000013 V-89.41 Q12.9 -93.60249999999999 15.883125 -96.66624999999999 Q18.86625 -99.72999999999999 23.058750000000003 -99.72999999999999 H131.74125 Q135.93375 -99.72999999999999 138.916875 -96.66624999999999 Q141.9 -93.60249999999999 141.9 -89.41 V19.111250000000013 Q141.9 23.303750000000008 138.9975 26.28687500000001 Q136.095 29.27000000000001 131.9025 29.27000000000001 H23.220000000000002 Z M22.73625 19.595 H132.38625 Q132.38625 19.595 132.38625 19.595 Q132.38625 19.595 132.38625 19.595 V-90.05499999999999 Q132.38625 -90.05499999999999 132.38625 -90.05499999999999 Q132.38625 -90.05499999999999 132.38625 -90.05499999999999 H22.73625 Q22.73625 -90.05499999999999 22.73625 -90.05499999999999 Q22.73625 -90.05499999999999 22.73625 -90.05499999999999 V19.595 Q22.73625 19.595 22.73625 19.595 Q22.73625 19.595 22.73625 19.595 Z"/></g><g id="Light-L" transform="matrix(1 0 0 1 1082.77 1556)"><path d="M50.955000000000005 2.180000000000007 Q52.083749999999995 2.180000000000007 53.2125 1.2931250000000176 Q54.34125000000001 0.40625 54.66375 -0.5612499999999869 L60.9525 -17.653749999999988 H94.00874999999999 L100.29750000000001 -0.4000000000000057 Q100.62 0.5675000000000097 101.668125 1.3737500000000153 Q102.71625 2.180000000000007 103.84500000000001 2.180000000000007 Q106.10249999999999 2.180000000000007 107.150625 0.7287500000000051 Q108.19874999999999 -0.7224999999999824 107.3925 -2.8187500000000085 L82.39875 -69.89874999999999 Q81.75375000000001 -71.51124999999999 80.3025 -72.398125 Q78.85125 -73.285 77.23875 -73.285 Q75.78750000000001 -73.285 74.416875 -72.398125 Q73.04625 -71.51124999999999 72.40125 -69.89874999999999 L47.4075 -2.8187500000000085 Q46.60125 -0.7224999999999824 47.649375 0.7287500000000051 Q48.6975 2.180000000000007 50.955000000000005 2.180000000000007 Z M63.5325 -24.58749999999999  77.23875 -62.964999999999996 H77.56125 L91.2675 -24.58749999999999 H63.5325 Z M25.961250000000003 26.045000000000016 Q21.76875 26.045000000000016 18.946875000000002 23.22312500000001 Q16.125 20.401250000000005 16.125 16.370000000000005 V-86.66874999999999 Q16.125 -90.86125 18.946875000000002 -93.68312499999999 Q21.76875 -96.505 25.8 -96.505 H129.0 Q133.03125 -96.505 135.853125 -93.68312499999999 Q138.675 -90.86125 138.675 -86.66874999999999 V16.370000000000005 Q138.675 20.401250000000005 135.853125 23.22312500000001 Q133.03125 26.045000000000016 129.16125 26.045000000000016 H25.961250000000003 Z M25.477500000000003 18.78875000000002 H129.48375 Q130.29 18.78875000000002 130.854375 18.14375000000001 Q131.41875000000002 17.49875 131.41875000000002 16.692500000000024 V-87.15249999999999 Q131.41875000000002 -87.95875 130.854375 -88.60374999999999 Q130.29 -89.24875 129.48375 -89.24875 H25.477500000000003 Q24.8325 -89.24875 24.1875 -88.60374999999999 Q23.5425 -87.95875 23.5425 -87.15249999999999 V16.692500000000024 Q23.5425 17.49875 24.1875 18.14375000000001 Q24.8325 18.78875000000002 25.477500000000003 18.78875000000002 Z"/></g><g id="Thin-L" transform="matrix(1 0 0 1 787.282 1556)"><path d="M52.245 0.7287500000000051 Q53.051249999999996 0.7287500000000051 53.776875000000004 0.0837500000000233 Q54.5025 -0.5612499999999869 54.825 -1.2062499999999972 L61.113749999999996 -18.943749999999994 H93.84750000000001 L100.13625 -1.0449999999999875 Q100.45875 -0.4000000000000057 101.184375 0.16437500000000682 Q101.91000000000001 0.7287500000000051 102.71625 0.7287500000000051 Q104.16749999999999 0.7287500000000051 104.893125 -0.1581249999999983 Q105.61875 -1.0449999999999875 105.135 -2.4962500000000034 L80.14125000000001 -70.86625 Q79.81875000000001 -71.6725 79.0125 -72.15625 Q78.20625 -72.63999999999999 77.23875 -72.63999999999999 Q76.4325 -72.63999999999999 75.70687500000001 -72.15625 Q74.98125 -71.6725 74.65875 -70.86625 L49.665 -2.4962500000000034 Q49.18125 -1.0449999999999875 49.906875 -0.1581249999999983 Q50.6325 0.7287500000000051 52.245 0.7287500000000051 Z M63.048750000000005 -23.781249999999986  77.0775 -63.61 H77.72250000000001 L91.75125 -23.781249999999986 H63.048750000000005 Z M28.541249999999998 22.82000000000002 Q24.67125 22.82000000000002 22.010625 20.15937500000001 Q19.35 17.49875 19.35 13.628749999999997 V-84.08875 Q19.35 -87.95875 22.010625 -90.61937499999999 Q24.67125 -93.28 28.541249999999998 -93.28 H126.25874999999999 Q130.12875 -93.28 132.789375 -90.61937499999999 Q135.45000000000002 -87.95875 135.45000000000002 -84.08875 V13.628749999999997 Q135.45000000000002 17.49875 132.789375 20.15937500000001 Q130.12875 22.82000000000002 126.25874999999999 22.82000000000002 H28.541249999999998 Z M28.380000000000003 17.82125000000002 H126.58125 Q128.0325 17.82125000000002 129.24187500000002 16.611875000000026 Q130.45125000000002 15.402500000000003 130.45125000000002 13.951250000000002 V-84.41125 Q130.45125000000002 -85.8625 129.24187500000002 -87.07187499999999 Q128.0325 -88.28125 126.58125 -88.28125 H28.380000000000003 Q26.767500000000002 -88.28125 25.558125 -87.07187499999999 Q24.34875 -85.8625 24.34875 -84.41125 V13.951250000000002 Q24.34875 15.402500000000003 25.558125 16.611875000000026 Q26.767500000000002 17.82125000000002 28.380000000000003 17.82125000000002 Z"/></g><g id="Ultralight-L" transform="matrix(1 0 0 1 491.205 1556)"><path d="M52.88999999999999 -0.07750000000000057 Q53.535000000000004 -0.07750000000000057 54.099374999999995 -0.5612499999999869 Q54.66375 -1.0449999999999875 54.825 -1.528749999999988 L61.275 -19.58874999999999 H93.68625 L100.13625 -1.528749999999988 Q100.29750000000001 -0.883749999999992 100.861875 -0.4806250000000034 Q101.42625 -0.07750000000000057 101.91000000000001 -0.07750000000000057 Q103.03875000000001 -0.07750000000000057 103.52250000000001 -0.7224999999999824 Q104.00625000000001 -1.3674999999999926 103.68375 -2.3349999999999795 L78.85125 -71.35 Q78.69 -71.83375 78.286875 -72.075625 Q77.88374999999999 -72.3175 77.23875 -72.3175 Q76.91625 -72.3175 76.513125 -72.075625 Q76.11000000000001 -71.83375 75.94875 -71.35 L51.11625 -2.3349999999999795 Q50.79375 -1.3674999999999926 51.2775 -0.7224999999999824 Q51.761250000000004 -0.07750000000000057 52.88999999999999 -0.07750000000000057 Z M62.72625 -23.2975  77.0775 -63.9325 H77.72250000000001 L92.07375 -23.2975 H62.72625 Z M30.15375 20.88499999999999 Q26.444999999999997 20.88499999999999 23.865000000000002 18.305000000000007 Q21.285 15.724999999999994 21.285 12.01625 V-82.47625 Q21.285 -86.185 23.865000000000002 -88.76499999999999 Q26.444999999999997 -91.345 30.15375 -91.345 H124.64625 Q128.355 -91.345 130.935 -88.76499999999999 Q133.515 -86.185 133.515 -82.47625 V12.01625 Q133.515 15.724999999999994 130.935 18.305000000000007 Q128.355 20.88499999999999 124.64625 20.88499999999999 H30.15375 Z M29.992500000000003 17.337500000000006 H124.80750000000002 Q126.74249999999999 17.337500000000006 128.355 15.724999999999994 Q129.9675 14.112499999999997 129.9675 12.177500000000023 V-82.63749999999999 Q129.9675 -84.57249999999999 128.355 -86.185 Q126.74249999999999 -87.7975 124.80750000000002 -87.7975 H29.992500000000003 Q28.057499999999997 -87.7975 26.444999999999997 -86.185 Q24.8325 -84.57249999999999 24.8325 -82.63749999999999 V12.177500000000023 Q24.8325 14.112499999999997 26.444999999999997 15.724999999999994 Q28.057499999999997 17.337500000000006 29.992500000000003 17.337500000000006 Z"/></g><g id="Bold-M" transform="matrix(1 0 0 1 2281.8 1126)"><path d="M38.625 -5.22999999999999 Q40.25 -5.22999999999999 41.875 -6.35499999999999 Q43.5 -7.47999999999999 44.125 -8.97999999999999 L48.0 -19.35499999999999 H71.75 L75.375 -9.10499999999999 Q76.0 -7.47999999999999 77.565 -6.35499999999999 Q79.125 -5.22999999999999 81.0 -5.22999999999999 Q84.625 -5.22999999999999 86.375 -7.6699999999999875 Q88.125 -10.10499999999999 86.75 -13.60499999999999 L69.25 -58.97999999999999 Q68.25 -61.47999999999999 65.5 -63.35499999999999 Q62.75 -65.22999999999999 59.875 -65.22999999999999 Q57.0 -65.22999999999999 54.375 -63.29499999999999 Q51.75 -61.35499999999999 50.75 -58.85499999999999 L33.125 -13.22999999999999 Q31.875 -9.97999999999999 33.5 -7.60499999999999 Q35.125 -5.22999999999999 38.625 -5.22999999999999 Z M51.25 -29.60499999999999  59.75 -53.60499999999999 H60.0 L68.375 -29.60499999999999 H51.25 Z M21.5 19.02000000000001 Q15.0 19.02000000000001 10.375 14.39500000000001 Q5.75 9.77000000000001 5.75 3.2700000000000102 V-73.72999999999999 Q5.75 -80.22999999999999 10.375 -84.85499999999999 Q15.0 -89.47999999999999 21.5 -89.47999999999999 H98.5 Q105.0 -89.47999999999999 109.625 -84.85499999999999 Q114.25 -80.22999999999999 114.25 -73.72999999999999 V3.2700000000000102 Q114.25 9.77000000000001 109.625 14.39500000000001 Q105.0 19.02000000000001 98.5 19.02000000000001 H21.5 Z M21.5 3.2700000000000102 H98.5 Q98.5 3.2700000000000102 98.5 3.2700000000000102 Q98.5 3.2700000000000102 98.5 3.2700000000000102 V-73.72999999999999 Q98.5 -73.72999999999999 98.5 -73.72999999999999 Q98.5 -73.72999999999999 98.5 -73.72999999999999 H21.5 Q21.5 -73.72999999999999 21.5 -73.72999999999999 Q21.5 -73.72999999999999 21.5 -73.72999999999999 V3.2700000000000102 Q21.5 3.2700000000000102 21.5 3.2700000000000102 Q21.5 3.2700000000000102 21.5 3.2700000000000102 Z"/></g><g id="Semibold-M" transform="matrix(1 0 0 1 1985.97 1126)"><path d="M38.75 -5.22999999999999 Q40.25 -5.22999999999999 41.815 -6.22999999999999 Q43.375 -7.22999999999999 43.875 -8.72999999999999 L48.0 -19.85499999999999 H71.875 L75.75 -8.72999999999999 Q76.375 -7.22999999999999 77.875 -6.22999999999999 Q79.375 -5.22999999999999 81.0 -5.22999999999999 Q84.25 -5.22999999999999 85.815 -7.47999999999999 Q87.375 -9.72999999999999 86.25 -12.85499999999999 L68.375 -59.60499999999999 Q67.375 -61.85499999999999 64.94 -63.53999999999999 Q62.5 -65.22999999999999 59.875 -65.22999999999999 Q57.375 -65.22999999999999 55.0 -63.47999999999999 Q52.625 -61.72999999999999 51.625 -59.47999999999999 L33.75 -12.60499999999999 Q32.625 -9.60499999999999 34.06 -7.4199999999999875 Q35.5 -5.22999999999999 38.75 -5.22999999999999 Z M51.125 -29.47999999999999  59.75 -53.72999999999999 H60.125 L68.625 -29.47999999999999 H51.125 Z M20.875 17.14500000000001 Q15.375 17.14500000000001 11.5 13.27000000000001 Q7.625 9.39500000000001 7.625 3.8950000000000102 V-74.35499999999999 Q7.625 -79.85499999999999 11.5 -83.72999999999999 Q15.375 -87.60499999999999 20.875 -87.60499999999999 H99.125 Q104.625 -87.60499999999999 108.5 -83.72999999999999 Q112.375 -79.85499999999999 112.375 -74.35499999999999 V3.8950000000000102 Q112.375 9.39500000000001 108.5 13.27000000000001 Q104.625 17.14500000000001 99.125 17.14500000000001 H20.875 Z M20.875 3.8950000000000102 H99.125 Q99.125 3.8950000000000102 99.125 3.8950000000000102 Q99.125 3.8950000000000102 99.125 3.8950000000000102 V-74.35499999999999 Q99.125 -74.35499999999999 99.125 -74.35499999999999 Q99.125 -74.35499999999999 99.125 -74.35499999999999 H20.875 Q20.875 -74.35499999999999 20.875 -74.35499999999999 Q20.875 -74.35499999999999 20.875 -74.35499999999999 V3.8950000000000102 Q20.875 3.8950000000000102 20.875 3.8950000000000102 Q20.875 3.8950000000000102 20.875 3.8950000000000102 Z"/></g><g id="Medium-M" transform="matrix(1 0 0 1 1689.91 1126)"><path d="M38.875 -5.22999999999999 Q40.375 -5.22999999999999 41.815 -6.1699999999999875 Q43.25 -7.10499999999999 43.75 -8.47999999999999 L48.0 -20.22999999999999 H72.0 L76.125 -8.47999999999999 Q76.625 -7.10499999999999 78.0 -6.1699999999999875 Q79.375 -5.22999999999999 81.0 -5.22999999999999 Q84.0 -5.22999999999999 85.435 -7.2949999999999875 Q86.875 -9.35499999999999 85.75 -12.22999999999999 L67.625 -59.97999999999999 Q66.875 -62.10499999999999 64.625 -63.66999999999999 Q62.375 -65.22999999999999 60.0 -65.22999999999999 Q57.625 -65.22999999999999 55.375 -63.66999999999999 Q53.125 -62.10499999999999 52.375 -59.97999999999999 L34.125 -12.22999999999999 Q33.125 -9.35499999999999 34.5 -7.2949999999999875 Q35.875 -5.22999999999999 38.875 -5.22999999999999 Z M51.0 -29.35499999999999  59.75 -53.85499999999999 H60.25 L68.875 -29.35499999999999 H51.0 Z M20.375 15.77000000000001 Q15.625 15.77000000000001 12.31 12.460000000000008 Q9.0 9.14500000000001 9.0 4.39500000000001 V-74.85499999999999 Q9.0 -79.60499999999999 12.31 -82.91999999999999 Q15.625 -86.22999999999999 20.375 -86.22999999999999 H99.625 Q104.375 -86.22999999999999 107.69 -82.91999999999999 Q111.0 -79.60499999999999 111.0 -74.85499999999999 V4.39500000000001 Q111.0 9.14500000000001 107.69 12.460000000000008 Q104.375 15.77000000000001 99.625 15.77000000000001 H20.375 Z M20.375 4.39500000000001 H99.625 Q99.625 4.39500000000001 99.625 4.39500000000001 Q99.625 4.39500000000001 99.625 4.39500000000001 V-74.85499999999999 Q99.625 -74.85499999999999 99.625 -74.85499999999999 Q99.625 -74.85499999999999 99.625 -74.85499999999999 H20.375 Q20.375 -74.85499999999999 20.375 -74.85499999999999 Q20.375 -74.85499999999999 20.375 -74.85499999999999 V4.39500000000001 Q20.375 4.39500000000001 20.375 4.39500000000001 Q20.375 4.39500000000001 20.375 4.39500000000001 Z"/></g><g id="Regular-M" transform="matrix(1 0 0 1 1394.06 1126)"><path d="M39.0 -5.22999999999999 Q40.375 -5.22999999999999 41.75 -6.10499999999999 Q43.125 -6.97999999999999 43.625 -8.35499999999999 L48.0 -20.47999999999999 H72.0 L76.375 -8.35499999999999 Q76.875 -6.97999999999999 78.185 -6.10499999999999 Q79.5 -5.22999999999999 81.0 -5.22999999999999 Q83.875 -5.22999999999999 85.19 -7.164999999999992 Q86.5 -9.10499999999999 85.5 -11.85499999999999 L67.125 -60.35499999999999 Q66.375 -62.35499999999999 64.315 -63.79499999999999 Q62.25 -65.22999999999999 60.0 -65.22999999999999 Q57.875 -65.22999999999999 55.75 -63.79499999999999 Q53.625 -62.35499999999999 52.875 -60.35499999999999 L34.5 -11.85499999999999 Q33.5 -9.10499999999999 34.815 -7.164999999999992 Q36.125 -5.22999999999999 39.0 -5.22999999999999 Z M51.0 -29.22999999999999  59.75 -53.97999999999999 H60.25 L69.0 -29.22999999999999 H51.0 Z M20.0 14.77000000000001 Q15.875 14.77000000000001 12.940000000000001 11.835000000000008 Q10.0 8.89500000000001 10.0 4.77000000000001 V-75.22999999999999 Q10.0 -79.35499999999999 12.940000000000001 -82.29499999999999 Q15.875 -85.22999999999999 20.0 -85.22999999999999 H100.0 Q104.125 -85.22999999999999 107.065 -82.29499999999999 Q110.0 -79.35499999999999 110.0 -75.22999999999999 V4.77000000000001 Q110.0 8.89500000000001 107.065 11.835000000000008 Q104.125 14.77000000000001 100.0 14.77000000000001 H20.0 Z M20.0 4.77000000000001 H100.0 Q100.0 4.77000000000001 100.0 4.77000000000001 Q100.0 4.77000000000001 100.0 4.77000000000001 V-75.22999999999999 Q100.0 -75.22999999999999 100.0 -75.22999999999999 Q100.0 -75.22999999999999 100.0 -75.22999999999999 H20.0 Q20.0 -75.22999999999999 20.0 -75.22999999999999 Q20.0 -75.22999999999999 20.0 -75.22999999999999 V4.77000000000001 Q20.0 4.77000000000001 20.0 4.77000000000001 Q20.0 4.77000000000001 20.0 4.77000000000001 Z"/></g><g id="Light-M" transform="matrix(1 0 0 1 1098.18 1126)"><path d="M39.875 -6.22999999999999 Q40.875 -6.22999999999999 41.875 -6.914999999999992 Q42.875 -7.60499999999999 43.375 -8.72999999999999 L47.875 -21.47999999999999 H72.125 L76.625 -8.72999999999999 Q77.125 -7.60499999999999 78.065 -6.914999999999992 Q79.0 -6.22999999999999 80.125 -6.22999999999999 Q82.375 -6.22999999999999 83.375 -7.664999999999978 Q84.375 -9.10499999999999 83.625 -11.22999999999999 L65.0 -61.35499999999999 Q64.5 -62.72999999999999 63.065 -63.72999999999999 Q61.625 -64.72999999999999 60.0 -64.72999999999999 Q58.5 -64.72999999999999 57.0 -63.72999999999999 Q55.5 -62.72999999999999 55.0 -61.35499999999999 L36.375 -11.22999999999999 Q35.625 -9.10499999999999 36.625 -7.664999999999978 Q37.625 -6.22999999999999 39.875 -6.22999999999999 Z M50.25 -28.22999999999999  59.75 -54.97999999999999 H60.25 L69.75 -28.22999999999999 H50.25 Z M21.5 12.27000000000001 Q17.75 12.27000000000001 15.125 9.64500000000001 Q12.5 7.02000000000001 12.5 3.2700000000000102 V-73.72999999999999 Q12.5 -77.47999999999999 15.125 -80.10499999999999 Q17.75 -82.72999999999999 21.5 -82.72999999999999 H98.5 Q102.25 -82.72999999999999 104.875 -80.10499999999999 Q107.5 -77.47999999999999 107.5 -73.72999999999999 V3.2700000000000102 Q107.5 7.02000000000001 104.875 9.64500000000001 Q102.25 12.27000000000001 98.5 12.27000000000001 H21.5 Z M21.5 4.77000000000001 H98.5 Q99.0 4.77000000000001 99.5 4.27000000000001 Q100.0 3.7700000000000102 100.0 3.2700000000000102 V-73.72999999999999 Q100.0 -74.22999999999999 99.5 -74.72999999999999 Q99.0 -75.22999999999999 98.5 -75.22999999999999 H21.5 Q21.0 -75.22999999999999 20.5 -74.72999999999999 Q20.0 -74.22999999999999 20.0 -73.72999999999999 V3.2700000000000102 Q20.0 3.7700000000000102 20.5 4.27000000000001 Q21.0 4.77000000000001 21.5 4.77000000000001 Z"/></g><g id="Thin-M" transform="matrix(1 0 0 1 802.565 1126)"><path d="M40.625 -7.35499999999999 Q41.375 -7.35499999999999 42.065 -7.85499999999999 Q42.75 -8.35499999999999 43.0 -8.97999999999999 L47.75 -22.35499999999999 H72.25 L77.0 -8.97999999999999 Q77.25 -8.35499999999999 77.875 -7.85499999999999 Q78.5 -7.35499999999999 79.375 -7.35499999999999 Q80.75 -7.35499999999999 81.44 -8.294999999999987 Q82.125 -9.22999999999999 81.625 -10.60499999999999 L62.875 -62.22999999999999 Q62.5 -63.10499999999999 61.75 -63.66999999999999 Q61.0 -64.22999999999999 60.0 -64.22999999999999 Q59.125 -64.22999999999999 58.315 -63.66999999999999 Q57.5 -63.10499999999999 57.125 -62.22999999999999 L38.375 -10.60499999999999 Q37.875 -9.22999999999999 38.565 -8.294999999999987 Q39.25 -7.35499999999999 40.625 -7.35499999999999 Z M49.5 -27.10499999999999  59.75 -56.10499999999999 H60.25 L70.5 -27.10499999999999 H49.5 Z M23.125 9.77000000000001 Q19.75 9.77000000000001 17.375 7.39500000000001 Q15.0 5.02000000000001 15.0 1.6450000000000102 V-72.10499999999999 Q15.0 -75.47999999999999 17.375 -77.85499999999999 Q19.75 -80.22999999999999 23.125 -80.22999999999999 H96.875 Q100.25 -80.22999999999999 102.625 -77.85499999999999 Q105.0 -75.47999999999999 105.0 -72.10499999999999 V1.6450000000000102 Q105.0 5.02000000000001 102.625 7.39500000000001 Q100.25 9.77000000000001 96.875 9.77000000000001 H23.125 Z M23.125 4.77000000000001 H96.875 Q98.125 4.77000000000001 99.06 3.8300000000000125 Q100.0 2.8950000000000102 100.0 1.6450000000000102 V-72.10499999999999 Q100.0 -73.35499999999999 99.06 -74.28999999999999 Q98.125 -75.22999999999999 96.875 -75.22999999999999 H23.125 Q21.875 -75.22999999999999 20.939999999999998 -74.28999999999999 Q20.0 -73.35499999999999 20.0 -72.10499999999999 V1.6450000000000102 Q20.0 2.8950000000000102 20.939999999999998 3.8300000000000125 Q21.875 4.77000000000001 23.125 4.77000000000001 Z"/></g><g id="Ultralight-M" transform="matrix(1 0 0 1 506.415 1126)"><path d="M41.125 -7.97999999999999 Q41.75 -7.97999999999999 42.190000000000005 -8.35499999999999 Q42.625 -8.72999999999999 42.875 -9.22999999999999 L47.75 -22.97999999999999 H72.25 L77.125 -9.22999999999999 Q77.375 -8.72999999999999 77.81 -8.35499999999999 Q78.25 -7.97999999999999 78.875 -7.97999999999999 Q79.875 -7.97999999999999 80.375 -8.60499999999999 Q80.875 -9.22999999999999 80.5 -10.22999999999999 L61.625 -62.85499999999999 Q61.375 -63.35499999999999 61.0 -63.66999999999999 Q60.625 -63.97999999999999 60.0 -63.97999999999999 Q59.5 -63.97999999999999 59.059999999999995 -63.66999999999999 Q58.625 -63.35499999999999 58.375 -62.85499999999999 L39.5 -10.22999999999999 Q39.125 -9.22999999999999 39.625 -8.60499999999999 Q40.125 -7.97999999999999 41.125 -7.97999999999999 Z M49.0 -26.47999999999999  59.75 -56.72999999999999 H60.25 L71.0 -26.47999999999999 H49.0 Z M24.0 8.27000000000001 Q20.875 8.27000000000001 18.685000000000002 6.0800000000000125 Q16.5 3.8950000000000102 16.5 0.7700000000000102 V-71.22999999999999 Q16.5 -74.35499999999999 18.685000000000002 -76.54499999999999 Q20.875 -78.72999999999999 24.0 -78.72999999999999 H96.0 Q99.125 -78.72999999999999 101.31500000000001 -76.54499999999999 Q103.5 -74.35499999999999 103.5 -71.22999999999999 V0.7700000000000102 Q103.5 3.8950000000000102 101.31500000000001 6.0800000000000125 Q99.125 8.27000000000001 96.0 8.27000000000001 H24.0 Z M24.0 4.77000000000001 H96.0 Q97.5 4.77000000000001 98.75 3.5200000000000102 Q100.0 2.2700000000000102 100.0 0.7700000000000102 V-71.22999999999999 Q100.0 -72.72999999999999 98.75 -73.97999999999999 Q97.5 -75.22999999999999 96.0 -75.22999999999999 H24.0 Q22.5 -75.22999999999999 21.25 -73.97999999999999 Q20.0 -72.72999999999999 20.0 -71.22999999999999 V0.7700000000000102 Q20.0 2.2700000000000102 21.25 3.5200000000000102 Q22.5 4.77000000000001 24.0 4.77000000000001 Z"/></g><g id="Bold-S" transform="matrix(1 0 0 1 2294.23 696)"><path d="M30.572172000000002 -11.659413999999998 Q31.9545 -11.659413999999998 33.237414 -12.596745999999996 Q34.520328 -13.534077999999994 35.012664 -14.717577999999989 L38.070828 -22.604421999999992 H56.514492000000004 L59.373827999999996 -14.816991999999999 Q59.866164000000005 -13.534077999999994 61.097004000000005 -12.596745999999996 Q62.332578 -11.659413999999998 63.809585999999996 -11.659413999999998 Q66.76833599999999 -11.659413999999998 68.198004 -13.63349199999999 Q69.627672 -15.602835999999996 68.54358599999999 -18.462171999999995 L54.833922 -53.77307799999999 Q53.948664 -55.841835999999994 51.780492 -57.37091799999999 Q49.607586 -58.89999999999999 47.24058599999999 -58.89999999999999 Q44.873585999999996 -58.89999999999999 42.752754 -57.323578 Q40.631922 -55.74242199999999 39.846078 -53.67366399999999 L26.136414 -18.168663999999993 Q25.147008 -15.503422 26.429922 -13.581417999999985 Q27.712836 -11.659413999999998 30.572172000000002 -11.659413999999998 Z M40.631922 -30.98833599999999  47.141172 -49.33258599999999 H47.34 L53.749835999999995 -30.98833599999999 H40.631922 Z M17.359578 7.574828000000011 Q12.033828 7.574828000000011 8.2845 3.8255000000000052 Q4.535172 0.07617199999999968 4.535172 -5.249578 V-65.210422 Q4.535172 -70.536172 8.2845 -74.2855 Q12.033828 -78.03482799999999 17.359578 -78.03482799999999 H77.320422 Q82.64617199999999 -78.03482799999999 86.3955 -74.2855 Q90.144828 -70.536172 90.144828 -65.210422 V-5.249578 Q90.144828 0.07617199999999968 86.3955 3.8255000000000052 Q82.64617199999999 7.574828000000011 77.320422 7.574828000000011 H17.359578 Z M17.359578 -5.249578 H77.320422 Q77.320422 -5.249578 77.320422 -5.249578 Q77.320422 -5.249578 77.320422 -5.249578 V-65.210422 Q77.320422 -65.210422 77.320422 -65.210422 Q77.320422 -65.210422 77.320422 -65.210422 H17.359578 Q17.359578 -65.210422 17.359578 -65.210422 Q17.359578 -65.210422 17.359578 -65.210422 V-5.249578 Q17.359578 -5.249578 17.359578 -5.249578 Q17.359578 -5.249578 17.359578 -5.249578 Z"/></g><g id="Semibold-S" transform="matrix(1 0 0 1 1998.1 696)"><path d="M30.771 -11.659413999999998 Q31.9545 -11.659413999999998 33.18534 -12.497332 Q34.420913999999996 -13.335249999999988 34.813836 -14.518749999999997 L38.070828 -23.00207799999999 H56.609172 L59.667336 -14.518749999999997 Q60.159672 -13.335249999999988 61.343172 -12.497332 Q62.526672 -11.659413999999998 63.809585999999996 -11.659413999999998 Q66.569508 -11.659413999999998 67.805082 -13.48200399999999 Q69.035922 -15.309327999999994 68.150664 -17.87042199999999 L54.147492 -54.26541399999999 Q53.2575 -56.14007799999999 51.335496 -57.51767199999999 Q49.413492000000005 -58.89999999999999 47.24058599999999 -58.89999999999999 Q45.266507999999995 -58.89999999999999 43.297164 -57.470332 Q41.323085999999996 -56.04066399999999 40.532508 -54.166 L26.62875 -17.676327999999998 Q25.743492 -15.209913999999998 26.926992 -13.434663999999998 Q28.110491999999997 -11.659413999999998 30.771 -11.659413999999998 Z M40.532508 -30.888921999999994  47.141172 -49.431999999999995 H47.439414000000006 L53.948664 -30.888921999999994 H40.532508 Z M16.862508 6.093086 Q12.327336 6.093086 9.174491999999999 2.935508000000013 Q6.016914 -0.21733599999998887 6.016914 -4.752508000000006 V-65.707492 Q6.016914 -70.24266399999999 9.174491999999999 -73.39550799999999 Q12.327336 -76.553086 16.862508 -76.553086 H77.81749199999999 Q82.352664 -76.553086 85.505508 -73.39550799999999 Q88.66308599999999 -70.24266399999999 88.66308599999999 -65.707492 V-4.752508000000006 Q88.66308599999999 -0.21733599999998887 85.505508 2.935508000000013 Q82.352664 6.093086 77.81749199999999 6.093086 H16.862508 Z M16.862508 -4.752508000000006 H77.81749199999999 Q77.81749199999999 -4.752508000000006 77.81749199999999 -4.752508000000006 Q77.81749199999999 -4.752508000000006 77.81749199999999 -4.752508000000006 V-65.707492 Q77.81749199999999 -65.707492 77.81749199999999 -65.707492 Q77.81749199999999 -65.707492 77.81749199999999 -65.707492 H16.862508 Q16.862508 -65.707492 16.862508 -65.707492 Q16.862508 -65.707492 16.862508 -65.707492 V-4.752508000000006 Q16.862508 -4.752508000000006 16.862508 -4.752508000000006 Q16.862508 -4.752508000000006 16.862508 -4.752508000000006 Z"/></g><g id="Medium-S" transform="matrix(1 0 0 1 1701.85 696)"><path d="M30.870414 -11.659413999999998 Q32.053914 -11.659413999999998 33.18534 -12.449991999999995 Q34.3215 -13.235835999999992 34.714422 -14.319921999999991 L38.070828 -23.295585999999993 H56.708586 L59.965578 -14.319921999999991 Q60.3585 -13.235835999999992 61.442586 -12.449991999999995 Q62.526672 -11.659413999999998 63.809585999999996 -11.659413999999998 Q66.375414 -11.659413999999998 67.50684 -13.335249999999988 Q68.643 -15.011085999999992 67.753008 -17.378085999999996 L53.551007999999996 -54.558921999999995 Q52.864578 -56.334171999999995 51.089328 -57.61708599999999 Q49.314078 -58.89999999999999 47.34 -58.89999999999999 Q45.46533599999999 -58.89999999999999 43.590672 -57.61708599999999 Q41.716007999999995 -56.334171999999995 41.128992000000004 -54.558921999999995 L26.926992 -17.378085999999996 Q26.136414 -15.011085999999992 27.26784 -13.335249999999988 Q28.404 -11.659413999999998 30.870414 -11.659413999999998 Z M40.437827999999996 -30.78950799999999  47.141172 -49.53141399999999 H47.538828 L54.147492 -30.78950799999999 H40.437827999999996 Z M16.469586 5.009 Q12.625577999999999 5.009 9.860922 2.2490780000000115 Q7.101 -0.515578000000005 7.101 -4.359585999999993 V-66.100414 Q7.101 -69.94442199999999 9.860922 -72.70907799999999 Q12.625577999999999 -75.469 16.469586 -75.469 H78.210414 Q82.05442199999999 -75.469 84.819078 -72.70907799999999 Q87.579 -69.94442199999999 87.579 -66.100414 V-4.359585999999993 Q87.579 -0.515578000000005 84.819078 2.2490780000000115 Q82.05442199999999 5.009 78.210414 5.009 H16.469586 Z M16.469586 -4.359585999999993 H78.210414 Q78.210414 -4.359585999999993 78.210414 -4.359585999999993 Q78.210414 -4.359585999999993 78.210414 -4.359585999999993 V-66.100414 Q78.210414 -66.100414 78.210414 -66.100414 Q78.210414 -66.100414 78.210414 -66.100414 H16.469586 Q16.469586 -66.100414 16.469586 -66.100414 Q16.469586 -66.100414 16.469586 -66.100414 V-4.359585999999993 Q16.469586 -4.359585999999993 16.469586 -4.359585999999993 Q16.469586 -4.359585999999993 16.469586 -4.359585999999993 Z"/></g><g id="Regular-S" transform="matrix(1 0 0 1 1405.73 696)"><path d="M30.969828 -11.659413999999998 Q32.053914 -11.659413999999998 33.138 -12.39791799999999 Q34.222086 -13.136421999999996 34.615008 -14.220507999999995 L38.070828 -23.494414 H56.708586 L60.159672 -14.220507999999995 Q60.557328 -13.136421999999996 61.58934 -12.39791799999999 Q62.626085999999994 -11.659413999999998 63.809585999999996 -11.659413999999998 Q66.176586 -11.659413999999998 67.260672 -13.235835999999992 Q68.349492 -14.816991999999999 67.558914 -17.084577999999993 L53.158086 -54.857164 Q52.466922000000004 -56.532999999999994 50.84316 -57.716499999999996 Q49.214664000000006 -58.89999999999999 47.34 -58.89999999999999 Q45.56475 -58.89999999999999 43.83684 -57.716499999999996 Q42.11366400000001 -56.532999999999994 41.521914 -54.857164 L27.2205 -17.084577999999993 Q26.429922 -14.816991999999999 27.514008 -13.235835999999992 Q28.602828 -11.659413999999998 30.969828 -11.659413999999998 Z M40.437827999999996 -30.694827999999994  47.141172 -49.630827999999994 H47.538828 L54.242172000000004 -30.694827999999994 H40.437827999999996 Z M16.176078 4.218422000000004 Q12.724992 4.218422000000004 10.305918 1.8040820000000082 Q7.891578 -0.6149919999999867 7.891578 -4.0660780000000045 V-66.39392199999999 Q7.891578 -69.84500799999999 10.305918 -72.26408199999999 Q12.724992 -74.678422 16.176078 -74.678422 H78.50392199999999 Q81.955008 -74.678422 84.374082 -72.26408199999999 Q86.788422 -69.84500799999999 86.788422 -66.39392199999999 V-4.0660780000000045 Q86.788422 -0.6149919999999867 84.374082 1.8040820000000082 Q81.955008 4.218422000000004 78.50392199999999 4.218422000000004 H16.176078 Z M16.176078 -4.0660780000000045 H78.50392199999999 Q78.50392199999999 -4.0660780000000045 78.50392199999999 -4.0660780000000045 Q78.50392199999999 -4.0660780000000045 78.50392199999999 -4.0660780000000045 V-66.39392199999999 Q78.50392199999999 -66.39392199999999 78.50392199999999 -66.39392199999999 Q78.50392199999999 -66.39392199999999 78.50392199999999 -66.39392199999999 H16.176078 Q16.176078 -66.39392199999999 16.176078 -66.39392199999999 Q16.176078 -66.39392199999999 16.176078 -66.39392199999999 V-4.0660780000000045 Q16.176078 -4.0660780000000045 16.176078 -4.0660780000000045 Q16.176078 -4.0660780000000045 16.176078 -4.0660780000000045 Z"/></g><g id="Light-S" transform="matrix(1 0 0 1 1109.75 696)"><path d="M31.561578 -12.449991999999995 Q32.446836 -12.449991999999995 33.237414 -13.037007999999986 Q34.027992 -13.63349199999999 34.420913999999996 -14.518749999999997 L37.971414 -24.284991999999995 H56.808 L60.3585 -14.419335999999987 Q60.751422 -13.63349199999999 61.49466 -13.037007999999986 Q62.233164 -12.449991999999995 63.118422 -12.449991999999995 Q64.99308599999999 -12.449991999999995 65.83100400000001 -13.680831999999995 Q66.668922 -14.911671999999996 66.077172 -16.587507999999985 L51.48225 -55.643007999999995 Q50.989914000000006 -56.82650799999999 49.853754 -57.66915999999999 Q48.722328 -58.50707799999999 47.34 -58.50707799999999 Q46.057086 -58.50707799999999 44.826246 -57.66915999999999 Q43.590672 -56.82650799999999 43.19775 -55.643007999999995 L28.697508000000003 -16.587507999999985 Q28.110491999999997 -14.911671999999996 28.948410000000003 -13.680831999999995 Q29.786327999999997 -12.449991999999995 31.561578 -12.449991999999995 Z M39.846078 -29.90424999999999  47.141172 -50.41667199999999 H47.538828 L54.833922 -29.90424999999999 H39.846078 Z M17.359578 2.2490780000000115 Q14.301414 2.2490780000000115 12.081168 0.028832000000008406 Q9.860922 -2.1914139999999946 9.860922 -5.249578 V-65.210422 Q9.860922 -68.268586 12.081168 -70.48883199999999 Q14.301414 -72.70907799999999 17.359578 -72.70907799999999 H77.320422 Q80.378586 -72.70907799999999 82.598832 -70.48883199999999 Q84.819078 -68.268586 84.819078 -65.210422 V-5.249578 Q84.819078 -2.1914139999999946 82.598832 0.028832000000008406 Q80.378586 2.2490780000000115 77.320422 2.2490780000000115 H17.359578 Z M17.359578 -4.0660780000000045 H77.320422 Q77.718078 -4.0660780000000045 78.111 -4.458999999999989 Q78.50392199999999 -4.851921999999988 78.50392199999999 -5.249578 V-65.210422 Q78.50392199999999 -65.60807799999999 78.111 -66.00099999999999 Q77.718078 -66.39392199999999 77.320422 -66.39392199999999 H17.359578 Q16.961922 -66.39392199999999 16.569 -66.00099999999999 Q16.176078 -65.60807799999999 16.176078 -65.210422 V-5.249578 Q16.176078 -4.851921999999988 16.569 -4.458999999999989 Q16.961922 -4.0660780000000045 17.359578 -4.0660780000000045 Z"/></g><g id="Thin-S" transform="matrix(1 0 0 1 814.015 696)"><path d="M32.248008 -13.335249999999988 Q32.844491999999995 -13.335249999999988 33.384167999999995 -13.728172 Q33.928578 -14.125827999999998 34.122672 -14.717577999999989 L37.872 -24.971421999999997 H56.907414 L60.652007999999995 -14.717577999999989 Q60.850835999999994 -14.220507999999995 61.343172 -13.780245999999991 Q61.835508 -13.335249999999988 62.526672 -13.335249999999988 Q63.809585999999996 -13.335249999999988 64.353996 -14.125827999999998 Q64.893672 -14.911671999999996 64.50075 -16.09517199999999 L49.806414000000004 -56.334171999999995 Q49.413492000000005 -57.12474999999999 48.817007999999994 -57.61708599999999 Q48.229992 -58.109421999999995 47.34 -58.109421999999995 Q46.549422 -58.109421999999995 45.862992000000006 -57.61708599999999 Q45.171828 -57.12474999999999 44.873585999999996 -56.334171999999995 L30.278664 -16.09517199999999 Q29.881008 -14.911671999999996 30.425417999999997 -14.125827999999998 Q30.969828 -13.335249999999988 32.248008 -13.335249999999988 Z M39.254328 -29.018991999999997  47.141172 -51.306664 H47.538828 L55.425672 -29.018991999999997 H39.254328 Z M18.642492 0.2750000000000057 Q15.778422 0.2750000000000057 13.809078 -1.699078 Q11.835 -3.6684219999999925 11.835 -6.532491999999991 V-63.92750799999999 Q11.835 -66.79157799999999 13.809078 -68.760922 Q15.778422 -70.73499999999999 18.642492 -70.73499999999999 H76.037508 Q78.901578 -70.73499999999999 80.870922 -68.760922 Q82.845 -66.79157799999999 82.845 -63.92750799999999 V-6.532491999999991 Q82.845 -3.6684219999999925 80.870922 -1.699078 Q78.901578 0.2750000000000057 76.037508 0.2750000000000057 H18.642492 Z M18.642492 -4.0660780000000045 H76.037508 Q77.026914 -4.0660780000000045 77.765418 -4.804581999999996 Q78.50392199999999 -5.543085999999988 78.50392199999999 -6.532491999999991 V-63.92750799999999 Q78.50392199999999 -64.91691399999999 77.765418 -65.655418 Q77.026914 -66.39392199999999 76.037508 -66.39392199999999 H18.642492 Q17.653086000000002 -66.39392199999999 16.914582 -65.655418 Q16.176078 -64.91691399999999 16.176078 -63.92750799999999 V-6.532491999999991 Q16.176078 -5.543085999999988 16.914582 -4.804581999999996 Q17.653086000000002 -4.0660780000000045 18.642492 -4.0660780000000045 Z"/></g><g id="Ultralight-S" transform="matrix(1 0 0 1 517.792 696)"><path d="M32.645664 -13.827585999999997 Q33.138 -13.827585999999997 33.483582 -14.17316799999999 Q33.829164 -14.518749999999997 34.027992 -14.911671999999996 L37.872 -25.468491999999998 H56.907414 L60.751422 -14.911671999999996 Q60.95025 -14.518749999999997 61.295832000000004 -14.17316799999999 Q61.641414000000005 -13.827585999999997 62.13375 -13.827585999999997 Q63.019008 -13.827585999999997 63.464004 -14.371995999999996 Q63.909 -14.911671999999996 63.615492 -15.801664000000002 L48.817007999999994 -56.82650799999999 Q48.5235 -57.323578 48.229992 -57.61708599999999 Q47.93175 -57.91532799999999 47.34 -57.91532799999999 Q46.847664 -57.91532799999999 46.450008 -57.61708599999999 Q46.057086 -57.323578 45.862992000000006 -56.82650799999999 L31.163922 -15.801664000000002 Q30.870414 -14.911671999999996 31.31541 -14.371995999999996 Q31.755672 -13.827585999999997 32.645664 -13.827585999999997 Z M38.856672 -28.521921999999996  47.141172 -51.79899999999999 H47.538828 L55.823328 -28.521921999999996 H38.856672 Z M19.328922000000002 -0.9084999999999894 Q16.668414 -0.9084999999999894 14.84109 -2.7310899999999947 Q13.0185 -4.558413999999999 13.0185 -7.218921999999992 V-63.24107799999999 Q13.0185 -65.901586 14.84109 -67.72891 Q16.668414 -69.55149999999999 19.328922000000002 -69.55149999999999 H75.351078 Q78.011586 -69.55149999999999 79.83891 -67.72891 Q81.6615 -65.901586 81.6615 -63.24107799999999 V-7.218921999999992 Q81.6615 -4.558413999999999 79.83891 -2.7310899999999947 Q78.011586 -0.9084999999999894 75.351078 -0.9084999999999894 H19.328922000000002 Z M19.328922000000002 -4.0660780000000045 H75.351078 Q76.53457800000001 -4.0660780000000045 77.51925 -5.050749999999994 Q78.50392199999999 -6.035421999999983 78.50392199999999 -7.218921999999992 V-63.24107799999999 Q78.50392199999999 -64.424578 77.51925 -65.40924999999999 Q76.53457800000001 -66.39392199999999 75.351078 -66.39392199999999 H19.328922000000002 Q18.145422 -66.39392199999999 17.16075 -65.40924999999999 Q16.176078 -64.424578 16.176078 -63.24107799999999 V-7.218921999999992 Q16.176078 -6.035421999999983 17.16075 -5.050749999999994 Q18.145422 -4.0660780000000045 19.328922000000002 -4.0660780000000045 Z"/></g></g></svg>