<svg xmlns="http://www.w3.org/2000/svg" version="1.1" width="3300" height="2000"><g id="Notes"><style>
    text {
      font-family: monospace;
      text-anchor: middle;
    }
    text.emphasis {
      font-weight:bold;
    }
    text.lanchor {
      text-anchor: start;
    }
  </style><rect height="2200" id="artboard" fill="white" width="3300" x="0" y="0"/><line id="" style="fill:none;stroke:black;stroke-width:0.5;" x1="263" x2="3036" y1="292" y2="292"/><text class="lanchor emphasis" transform="matrix(1 0 0 1 263 322)">Weight/Scale Variations</text><text transform="matrix(1 0 0 1 559.711 322)">Ultralight</text><text transform="matrix(1 0 0 1 856.422 322)">Thin</text><text transform="matrix(1 0 0 1 1153.13 322)">Light</text><text transform="matrix(1 0 0 1 1449.84 322)">Regular</text><text transform="matrix(1 0 0 1 1746.56 322)">Medium</text><text transform="matrix(1 0 0 1 2043.27 322)">Semibold</text><text transform="matrix(1 0 0 1 2339.98 322)">Bold</text><text transform="matrix(1 0 0 1 2636.69 322)">Heavy</text><text transform="matrix(1 0 0 1 2933.4 322)">Black</text><text id="template-version" style="text-anchor: end;" transform="matrix(1 0 0 1 3036 1933)">Template v.1.0</text><text class="lanchor" transform="matrix(1 0 0 1 263 726)">Small</text><text class="lanchor" transform="matrix(1 0 0 1 263 1156)">Medium</text><text class="lanchor" transform="matrix(1 0 0 1 263 1586)">Large</text></g><g id="Guides"><g id="H-reference" style="fill:#27AAE1;stroke:none;" transform="matrix(1 0 0 1 339 696)"><path d="M 54.9316 0 L 57.666 0 L 30.5664 -70.459 L 28.0762 -70.459 L 0.976562 0 L 3.66211 0 L 12.9395 -24.4629 L 45.7031 -24.4629 Z M 29.1992 -67.0898 L 29.4434 -67.0898 L 44.8242 -26.709 L 13.8184 -26.709 Z"/></g><line id="Baseline-S" style="fill:none;stroke:#27AAE1;opacity:1;stroke-width:0.577;" x1="263" x2="3036" y1="696" y2="696"/><line id="Capline-S" style="fill:none;stroke:#27AAE1;opacity:1;stroke-width:0.577;" x1="263" x2="3036" y1="625.541" y2="625.541"/><g id="H-reference" style="fill:#27AAE1;stroke:none;" transform="matrix(1 0 0 1 339 1126)"><path d="M 54.9316 0 L 57.666 0 L 30.5664 -70.459 L 28.0762 -70.459 L 0.976562 0 L 3.66211 0 L 12.9395 -24.4629 L 45.7031 -24.4629 Z M 29.1992 -67.0898 L 29.4434 -67.0898 L 44.8242 -26.709 L 13.8184 -26.709 Z"/></g><line id="Baseline-M" style="fill:none;stroke:#27AAE1;opacity:1;stroke-width:0.577;" x1="263" x2="3036" y1="1126" y2="1126"/><line id="Capline-M" style="fill:none;stroke:#27AAE1;opacity:1;stroke-width:0.577;" x1="263" x2="3036" y1="1055.54" y2="1055.54"/><g id="H-reference" style="fill:#27AAE1;stroke:none;" transform="matrix(1 0 0 1 339 1556)"><path d="M 54.9316 0 L 57.666 0 L 30.5664 -70.459 L 28.0762 -70.459 L 0.976562 0 L 3.66211 0 L 12.9395 -24.4629 L 45.7031 -24.4629 Z M 29.1992 -67.0898 L 29.4434 -67.0898 L 44.8242 -26.709 L 13.8184 -26.709 Z"/></g><line id="Baseline-L" style="fill:none;stroke:#27AAE1;opacity:1;stroke-width:0.577;" x1="263" x2="3036" y1="1556" y2="1556"/><line id="Capline-L" style="fill:none;stroke:#27AAE1;opacity:1;stroke-width:0.577;" x1="263" x2="3036" y1="1485.54" y2="1485.54"/><rect height="119.336" id="left-margin" style="fill:darkred;stroke:none;opacity:0.4;" width="12.4512" x="1394.06" y="1030.79"/><rect height="119.336" id="right-margin" style="fill:darkgreen;stroke:none;opacity:0.4;" width="12.4512" x="1502.5112" y="1030.79"/><rect x="1406.5112" y="1045" width="96" height="96" fill="none" stroke="blue" stroke-dasharray="5"/><rect x="1394.06" y="1030.79" width="120.9024" height="119.336" fill="none" stroke="blue"/></g><g id="Symbols"><g id="Bold-L" transform="matrix(1 0 0 1 2266 1556)"><path d="M98.685 0.406 H23.381 Q20.035 0.406 18 -1.63 Q15.964 -3.665 15.964 -7.011 V-63.61 Q15.964 -66.621 18 -68.905 Q20.035 -71.189 23.381 -71.189 H131.58 Q134.749 -71.189 136.873 -68.905 Q138.998 -66.621 138.998 -63.61 V-39.906 Q137.177 -39.906 135.246 -39.906 Q133.316 -39.906 131.48 -39.906 Q129.703 -39.906 127.926 -39.906 Q126.15 -39.906 124.163 -39.906 V-56.354 H30.637 V-14.267 H98.685 Q98.685 -12.361 98.685 -10.527 Q98.685 -8.693 98.685 -6.85 Q98.685 -5.007 98.685 -3.173 Q98.685 -1.339 98.685 0.406 Z M126.42 -1.529 H113.681 Q111.42 -1.529 109.89 -3.081 Q108.36 -4.634 108.36 -6.929 Q108.36 -9.156 109.89 -10.664 Q111.42 -12.171 113.681 -12.171 H126.42 V-24.749 Q126.42 -26.962 127.912 -28.596 Q129.405 -30.231 131.611 -30.231 Q133.817 -30.231 135.359 -28.596 Q136.901 -26.962 136.901 -24.749 V-12.171 H149.64 Q151.76 -12.171 153.441 -10.642 Q155.123 -9.113 155.123 -6.853 Q155.123 -4.592 153.441 -3.061 Q151.76 -1.529 149.64 -1.529 H136.901 V11.21 Q136.901 13.403 135.372 14.887 Q133.843 16.37 131.583 16.37 Q129.322 16.37 127.871 14.887 Q126.42 13.403 126.42 11.21 V-1.529 Z"/></g><g id="Semibold-L" transform="matrix(1 0 0 1 1970.27 1556)"><path d="M98.965 0.056 H23.101 Q20.105 0.056 18.21 -1.84 Q16.314 -3.735 16.314 -6.731 V-63.82 Q16.314 -66.588 18.21 -68.643 Q20.105 -70.698 23.101 -70.698 H131.86 Q134.687 -70.698 136.632 -68.643 Q138.577 -66.588 138.577 -63.82 V-39.626 Q136.894 -39.626 135.182 -39.626 Q133.47 -39.626 131.769 -39.626 Q130.101 -39.626 128.476 -39.626 Q126.851 -39.626 125.074 -39.626 V-57.195 H29.726 V-13.356 H98.965 Q98.965 -11.625 98.965 -9.967 Q98.965 -8.31 98.965 -6.605 Q98.965 -4.9 98.965 -3.242 Q98.965 -1.584 98.965 0.056 Z M126.56 -1.248 H113.962 Q111.7 -1.248 110.17 -2.815 Q108.64 -4.382 108.64 -6.698 Q108.64 -8.946 110.17 -10.453 Q111.7 -11.961 113.962 -11.961 H126.56 V-24.468 Q126.56 -26.681 128.093 -28.316 Q129.626 -29.951 131.892 -29.951 Q134.128 -29.951 135.655 -28.316 Q137.182 -26.681 137.182 -24.468 V-11.961 H149.78 Q151.941 -11.961 153.602 -10.418 Q155.263 -8.874 155.263 -6.593 Q155.263 -4.312 153.602 -2.78 Q151.941 -1.248 149.78 -1.248 H137.182 V11.35 Q137.182 13.573 135.639 15.077 Q134.095 16.58 131.814 16.58 Q129.533 16.58 128.047 15.077 Q126.56 13.573 126.56 11.35 V-1.248 Z"/></g><g id="Medium-L" transform="matrix(1 0 0 1 1674.31 1556)"><path d="M99.176 -0.207 H22.891 Q20.158 -0.207 18.368 -1.998 Q16.577 -3.788 16.577 -6.521 V-63.978 Q16.577 -66.563 18.368 -68.447 Q20.158 -70.33 22.891 -70.33 H132.071 Q134.641 -70.33 136.451 -68.447 Q138.261 -66.563 138.261 -63.978 V-39.416 Q136.682 -39.416 135.134 -39.416 Q133.585 -39.416 131.985 -39.416 Q130.4 -39.416 128.888 -39.416 Q127.377 -39.416 125.757 -39.416 V-57.826 H29.043 V-12.673 H99.176 Q99.176 -11.073 99.176 -9.548 Q99.176 -8.022 99.176 -6.421 Q99.176 -4.819 99.176 -3.294 Q99.176 -1.768 99.176 -0.207 Z M126.665 -1.038 H114.172 Q111.91 -1.038 110.381 -2.615 Q108.851 -4.193 108.851 -6.525 Q108.851 -8.788 110.381 -10.295 Q111.91 -11.803 114.172 -11.803 H126.665 V-24.258 Q126.665 -26.471 128.228 -28.106 Q129.791 -29.741 132.102 -29.741 Q134.36 -29.741 135.876 -28.106 Q137.392 -26.471 137.392 -24.258 V-11.803 H149.885 Q152.076 -11.803 153.722 -10.249 Q155.368 -8.696 155.368 -6.399 Q155.368 -4.102 153.722 -2.57 Q152.076 -1.038 149.885 -1.038 H137.392 V11.455 Q137.392 13.701 135.838 15.219 Q134.284 16.738 131.987 16.738 Q129.691 16.738 128.178 15.219 Q126.665 13.701 126.665 11.455 V-1.038 Z"/></g><g id="Regular-L" transform="matrix(1 0 0 1 1378.56 1556)"><path d="M99.33 -0.4 H22.736 Q20.197 -0.4 18.483 -2.113 Q16.77 -3.827 16.77 -6.366 V-64.094 Q16.77 -66.545 18.483 -68.302 Q20.197 -70.06 22.736 -70.06 H132.225 Q134.607 -70.06 136.319 -68.302 Q138.03 -66.545 138.03 -64.094 V-39.261 Q136.527 -39.261 135.098 -39.261 Q133.67 -39.261 132.144 -39.261 Q130.618 -39.261 129.19 -39.261 Q127.762 -39.261 126.259 -39.261 V-58.289 H28.541 V-12.171 H99.33 Q99.33 -10.668 99.33 -9.24 Q99.33 -7.811 99.33 -6.286 Q99.33 -4.76 99.33 -3.332 Q99.33 -1.903 99.33 -0.4 Z M126.743 -0.884 H114.326 Q112.065 -0.884 110.535 -2.469 Q109.005 -4.054 109.005 -6.397 Q109.005 -8.672 110.535 -10.18 Q112.065 -11.687 114.326 -11.687 H126.743 V-24.104 Q126.743 -26.317 128.328 -27.951 Q129.913 -29.586 132.256 -29.586 Q134.531 -29.586 136.039 -27.951 Q137.546 -26.317 137.546 -24.104 V-11.687 H149.963 Q152.176 -11.687 153.81 -10.126 Q155.445 -8.564 155.445 -6.256 Q155.445 -3.947 153.81 -2.416 Q152.176 -0.884 149.963 -0.884 H137.546 V11.533 Q137.546 13.794 135.985 15.324 Q134.423 16.854 132.115 16.854 Q129.806 16.854 128.274 15.324 Q126.743 13.794 126.743 11.533 V-0.884 Z"/></g><g id="Light-L" transform="matrix(1 0 0 1 1082.77 1556)"><path d="M97.593 -3.625 H25.775 Q23.315 -3.625 21.655 -5.278 Q19.995 -6.931 19.995 -9.381 V-61.081 Q19.995 -63.442 21.655 -65.138 Q23.315 -66.835 25.775 -66.835 H129.186 Q131.489 -66.835 133.147 -65.131 Q134.805 -63.426 134.805 -61.055 V-40.998 Q133.643 -40.998 132.479 -40.998 Q131.316 -40.998 130.098 -40.998 Q128.879 -40.998 127.716 -40.998 Q126.553 -40.998 125.39 -40.998 V-57.42 H29.41 V-13.04 H97.593 Q97.593 -11.877 97.593 -10.714 Q97.593 -9.551 97.593 -8.332 Q97.593 -7.114 97.593 -5.951 Q97.593 -4.787 97.593 -3.625 Z M125.874 -4.109 H112.28 Q110.519 -4.109 109.328 -5.356 Q108.137 -6.604 108.137 -8.447 Q108.137 -10.223 109.328 -11.389 Q110.519 -12.556 112.28 -12.556 H125.874 V-26.15 Q125.874 -27.863 127.121 -29.159 Q128.369 -30.455 130.213 -30.455 Q131.988 -30.455 133.154 -29.159 Q134.321 -27.863 134.321 -26.15 V-12.556 H147.916 Q149.628 -12.556 150.924 -11.332 Q152.22 -10.108 152.22 -8.299 Q152.22 -6.49 150.924 -5.3 Q149.628 -4.109 147.916 -4.109 H134.321 V9.486 Q134.321 11.246 133.097 12.437 Q131.874 13.629 130.065 13.629 Q128.256 13.629 127.065 12.437 Q125.874 11.246 125.874 9.486 V-4.109 Z"/></g><g id="Thin-L" transform="matrix(1 0 0 1 787.282 1556)"><path d="M95.857 -6.85 H28.814 Q26.433 -6.85 24.826 -8.442 Q23.22 -10.034 23.22 -12.395 V-58.068 Q23.22 -60.34 24.826 -61.975 Q26.433 -63.61 28.814 -63.61 H126.147 Q128.371 -63.61 129.976 -61.959 Q131.58 -60.309 131.58 -58.016 V-42.734 Q130.759 -42.734 129.861 -42.734 Q128.963 -42.734 128.051 -42.734 Q127.139 -42.734 126.241 -42.734 Q125.343 -42.734 124.522 -42.734 V-56.552 H30.278 V-13.908 H95.857 Q95.857 -13.087 95.857 -12.189 Q95.857 -11.291 95.857 -10.379 Q95.857 -9.467 95.857 -8.569 Q95.857 -7.671 95.857 -6.85 Z M125.006 -7.334 H110.233 Q108.973 -7.334 108.121 -8.243 Q107.268 -9.153 107.268 -10.497 Q107.268 -11.773 108.121 -12.599 Q108.973 -13.424 110.233 -13.424 H125.006 V-28.197 Q125.006 -29.409 125.915 -30.366 Q126.825 -31.323 128.169 -31.323 Q129.445 -31.323 130.271 -30.366 Q131.096 -29.409 131.096 -28.197 V-13.424 H145.869 Q147.081 -13.424 148.038 -12.538 Q148.995 -11.652 148.995 -10.343 Q148.995 -9.033 148.038 -8.183 Q147.081 -7.334 145.869 -7.334 H131.096 V7.439 Q131.096 8.699 130.21 9.552 Q129.324 10.404 128.015 10.404 Q126.705 10.404 125.856 9.552 Q125.006 8.699 125.006 7.439 V-7.334 Z"/></g><g id="Ultralight-L" transform="matrix(1 0 0 1 491.205 1556)"><path d="M94.815 -8.785 H30.637 Q28.303 -8.785 26.729 -10.341 Q25.155 -11.896 25.155 -14.203 V-56.26 Q25.155 -58.478 26.729 -60.077 Q28.303 -61.675 30.637 -61.675 H124.324 Q126.501 -61.675 128.073 -60.057 Q129.645 -58.438 129.645 -56.192 V-43.776 Q129.029 -43.776 128.29 -43.776 Q127.551 -43.776 126.823 -43.776 Q126.095 -43.776 125.357 -43.776 Q124.618 -43.776 124.001 -43.776 V-56.031 H30.799 V-14.429 H94.815 Q94.815 -13.812 94.815 -13.073 Q94.815 -12.335 94.815 -11.607 Q94.815 -10.879 94.815 -10.14 Q94.815 -9.401 94.815 -8.785 Z M124.485 -9.269 H109.005 Q108.046 -9.269 107.397 -9.976 Q106.748 -10.682 106.748 -11.727 Q106.748 -12.703 107.397 -13.324 Q108.046 -13.945 109.005 -13.945 H124.485 V-29.425 Q124.485 -30.336 125.192 -31.09 Q125.899 -31.844 126.943 -31.844 Q127.92 -31.844 128.54 -31.09 Q129.161 -30.336 129.161 -29.425 V-13.945 H144.641 Q145.552 -13.945 146.306 -13.262 Q147.06 -12.579 147.06 -11.569 Q147.06 -10.559 146.306 -9.914 Q145.552 -9.269 144.641 -9.269 H129.161 V6.211 Q129.161 7.171 128.478 7.82 Q127.795 8.469 126.785 8.469 Q125.775 8.469 125.13 7.82 Q124.485 7.171 124.485 6.211 V-9.269 Z"/></g><g id="Bold-M" transform="matrix(1 0 0 1 2281.8 1126)"><path d="M74 -4.48 H17.75 Q14.125 -4.48 11.688 -6.917 Q9.25 -9.355 9.25 -12.98 V-57.48 Q9.25 -60.93 11.688 -63.455 Q14.125 -65.98 17.75 -65.98 H102.25 Q105.875 -65.98 108.312 -63.455 Q110.75 -60.93 110.75 -57.48 V-41.23 Q108.694 -41.23 106.585 -41.23 Q104.475 -41.23 102.25 -41.23 Q100.071 -41.23 98.001 -41.23 Q95.931 -41.23 93.75 -41.23 V-48.98 H26.25 V-21.48 H74 Q74 -19.299 74 -17.209 Q74 -15.12 74 -12.917 Q74 -10.715 74 -8.626 Q74 -6.536 74 -4.48 Z M96.375 -6.98 H90 Q87.45 -6.98 85.725 -8.695 Q84 -10.41 84 -12.945 Q84 -15.48 85.725 -17.167 Q87.45 -18.855 90 -18.855 H96.375 V-25.23 Q96.375 -27.78 98.065 -29.505 Q99.754 -31.23 102.252 -31.23 Q104.75 -31.23 106.5 -29.505 Q108.25 -27.78 108.25 -25.23 V-18.855 H114.625 Q117.175 -18.855 118.9 -17.165 Q120.625 -15.476 120.625 -12.978 Q120.625 -10.48 118.9 -8.73 Q117.175 -6.98 114.625 -6.98 H108.25 V-0.605 Q108.25 1.945 106.535 3.67 Q104.82 5.395 102.285 5.395 Q99.75 5.395 98.062 3.67 Q96.375 1.945 96.375 -0.605 V-6.98 Z"/></g><g id="Semibold-M" transform="matrix(1 0 0 1 1985.97 1126)"><path d="M73.946 -5.241 H17.696 Q14.451 -5.241 12.231 -7.461 Q10.011 -9.681 10.011 -12.926 V-57.48 Q10.011 -60.626 12.231 -62.895 Q14.451 -65.165 17.696 -65.165 H102.304 Q105.549 -65.165 107.769 -62.895 Q109.989 -60.626 109.989 -57.48 V-41.284 Q108.096 -41.284 106.21 -41.284 Q104.323 -41.284 102.304 -41.284 Q100.312 -41.284 98.448 -41.284 Q96.583 -41.284 94.62 -41.284 V-49.795 H25.381 V-20.61 H73.946 Q73.946 -18.647 73.946 -16.771 Q73.946 -14.896 73.946 -12.89 Q73.946 -10.885 73.946 -9.009 Q73.946 -7.134 73.946 -5.241 Z M96.429 -6.98 H89.891 Q87.364 -6.98 85.655 -8.684 Q83.946 -10.388 83.946 -12.907 Q83.946 -15.426 85.655 -17.113 Q87.364 -18.801 89.891 -18.801 H96.429 V-25.339 Q96.429 -27.866 98.119 -29.575 Q99.809 -31.284 102.306 -31.284 Q104.804 -31.284 106.527 -29.575 Q108.25 -27.866 108.25 -25.339 V-18.801 H114.788 Q117.315 -18.801 119.024 -17.111 Q120.734 -15.421 120.734 -12.923 Q120.734 -10.426 119.024 -8.703 Q117.315 -6.98 114.788 -6.98 H108.25 V-0.442 Q108.25 2.085 106.546 3.794 Q104.842 5.504 102.323 5.504 Q99.804 5.504 98.117 3.794 Q96.429 2.085 96.429 -0.442 V-6.98 Z"/></g><g id="Medium-M" transform="matrix(1 0 0 1 1689.91 1126)"><path d="M73.905 -5.811 H17.655 Q14.696 -5.811 12.639 -7.869 Q10.582 -9.926 10.582 -12.885 V-57.48 Q10.582 -60.397 12.639 -62.475 Q14.696 -64.553 17.655 -64.553 H102.345 Q105.304 -64.553 107.361 -62.475 Q109.418 -60.397 109.418 -57.48 V-41.325 Q107.648 -41.325 105.928 -41.325 Q104.209 -41.325 102.345 -41.325 Q100.493 -41.325 98.782 -41.325 Q97.072 -41.325 95.272 -41.325 V-50.407 H24.728 V-19.958 H73.905 Q73.905 -18.158 73.905 -16.443 Q73.905 -14.728 73.905 -12.87 Q73.905 -11.012 73.905 -9.297 Q73.905 -7.582 73.905 -5.811 Z M96.47 -6.98 H89.81 Q87.3 -6.98 85.603 -8.676 Q83.905 -10.371 83.905 -12.878 Q83.905 -15.385 85.603 -17.072 Q87.3 -18.76 89.81 -18.76 H96.47 V-25.42 Q96.47 -27.93 98.16 -29.627 Q99.85 -31.325 102.347 -31.325 Q104.845 -31.325 106.547 -29.627 Q108.25 -27.93 108.25 -25.42 V-18.76 H114.91 Q117.42 -18.76 119.118 -17.07 Q120.815 -15.38 120.815 -12.883 Q120.815 -10.385 119.118 -8.682 Q117.42 -6.98 114.91 -6.98 H108.25 V-0.32 Q108.25 2.19 106.554 3.888 Q104.859 5.585 102.352 5.585 Q99.845 5.585 98.158 3.888 Q96.47 2.19 96.47 -0.32 V-6.98 Z"/></g><g id="Regular-M" transform="matrix(1 0 0 1 1394.06 1126)"><path d="M73.875 -6.23 H17.625 Q14.875 -6.23 12.938 -8.167 Q11 -10.105 11 -12.855 V-57.48 Q11 -60.23 12.938 -62.167 Q14.875 -64.105 17.625 -64.105 H102.375 Q105.125 -64.105 107.062 -62.167 Q109 -60.23 109 -57.48 V-41.355 Q107.319 -41.355 105.722 -41.355 Q104.125 -41.355 102.375 -41.355 Q100.625 -41.355 99.028 -41.355 Q97.431 -41.355 95.75 -41.355 V-50.855 H24.25 V-19.48 H73.875 Q73.875 -17.799 73.875 -16.202 Q73.875 -14.605 73.875 -12.855 Q73.875 -11.105 73.875 -9.508 Q73.875 -7.911 73.875 -6.23 Z M96.5 -6.98 H89.75 Q87.253 -6.98 85.564 -8.67 Q83.875 -10.359 83.875 -12.857 Q83.875 -15.355 85.564 -17.042 Q87.253 -18.73 89.75 -18.73 H96.5 V-25.48 Q96.5 -27.977 98.19 -29.666 Q99.879 -31.355 102.377 -31.355 Q104.875 -31.355 106.562 -29.666 Q108.25 -27.977 108.25 -25.48 V-18.73 H115 Q117.497 -18.73 119.186 -17.04 Q120.875 -15.351 120.875 -12.853 Q120.875 -10.355 119.186 -8.667 Q117.497 -6.98 115 -6.98 H108.25 V-0.23 Q108.25 2.267 106.56 3.956 Q104.871 5.645 102.373 5.645 Q99.875 5.645 98.188 3.956 Q96.5 2.267 96.5 -0.23 V-6.98 Z"/></g><g id="Light-M" transform="matrix(1 0 0 1 1098.18 1126)"><path d="M73.875 -8.73 H19.644 Q17.099 -8.73 15.3 -10.524 Q13.5 -12.318 13.5 -14.855 V-55.481 Q13.5 -58.018 15.3 -59.811 Q17.099 -61.605 19.644 -61.605 H100.356 Q102.901 -61.605 104.701 -59.805 Q106.5 -58.006 106.5 -55.461 V-41.355 Q105.131 -41.355 103.831 -41.355 Q102.531 -41.355 101.125 -41.355 Q99.719 -41.355 98.419 -41.355 Q97.118 -41.355 95.75 -41.355 V-50.855 H24.25 V-19.48 H73.875 Q73.875 -18.111 73.875 -16.811 Q73.875 -15.511 73.875 -14.105 Q73.875 -12.699 73.875 -11.399 Q73.875 -10.099 73.875 -8.73 Z M96.5 -9.48 H88.5 Q86.534 -9.48 85.205 -10.811 Q83.875 -12.142 83.875 -14.109 Q83.875 -16.076 85.205 -17.403 Q86.534 -18.73 88.5 -18.73 H96.5 V-26.73 Q96.5 -28.696 97.831 -30.025 Q99.162 -31.355 101.129 -31.355 Q103.096 -31.355 104.423 -30.025 Q105.75 -28.696 105.75 -26.73 V-18.73 H113.75 Q115.716 -18.73 117.045 -17.399 Q118.375 -16.068 118.375 -14.101 Q118.375 -12.134 117.045 -10.807 Q115.716 -9.48 113.75 -9.48 H105.75 V-1.48 Q105.75 0.486 104.419 1.815 Q103.088 3.145 101.121 3.145 Q99.154 3.145 97.827 1.815 Q96.5 0.486 96.5 -1.48 V-9.48 Z"/></g><g id="Thin-M" transform="matrix(1 0 0 1 802.565 1126)"><path d="M73.875 -11.23 H21.663 Q19.322 -11.23 17.661 -12.88 Q16 -14.53 16 -16.855 V-53.482 Q16 -55.807 17.661 -57.456 Q19.322 -59.105 21.663 -59.105 H98.337 Q100.678 -59.105 102.339 -57.444 Q104 -55.783 104 -53.442 V-41.355 Q102.944 -41.355 101.941 -41.355 Q100.938 -41.355 99.875 -41.355 Q98.812 -41.355 97.809 -41.355 Q96.806 -41.355 95.75 -41.355 V-50.855 H24.25 V-19.48 H73.875 Q73.875 -18.424 73.875 -17.421 Q73.875 -16.417 73.875 -15.355 Q73.875 -14.292 73.875 -13.289 Q73.875 -12.286 73.875 -11.23 Z M96.5 -11.98 H87.25 Q85.816 -11.98 84.845 -12.952 Q83.875 -13.924 83.875 -15.36 Q83.875 -16.797 84.845 -17.764 Q85.816 -18.73 87.25 -18.73 H96.5 V-27.98 Q96.5 -29.414 97.472 -30.385 Q98.444 -31.355 99.881 -31.355 Q101.317 -31.355 102.284 -30.385 Q103.25 -29.414 103.25 -27.98 V-18.73 H112.5 Q113.934 -18.73 114.905 -17.758 Q115.875 -16.786 115.875 -15.349 Q115.875 -13.913 114.905 -12.946 Q113.934 -11.98 112.5 -11.98 H103.25 V-2.73 Q103.25 -1.296 102.278 -0.325 Q101.306 0.645 99.87 0.645 Q98.433 0.645 97.466 -0.325 Q96.5 -1.296 96.5 -2.73 V-11.98 Z"/></g><g id="Ultralight-M" transform="matrix(1 0 0 1 506.415 1126)"><path d="M73.875 -12.73 H22.875 Q20.656 -12.73 19.078 -14.294 Q17.5 -15.858 17.5 -18.055 V-52.282 Q17.5 -54.48 19.078 -56.042 Q20.656 -57.605 22.875 -57.605 H97.125 Q99.344 -57.605 100.922 -56.027 Q102.5 -54.449 102.5 -52.23 V-41.355 Q101.632 -41.355 100.806 -41.355 Q99.981 -41.355 99.125 -41.355 Q98.269 -41.355 97.444 -41.355 Q96.618 -41.355 95.75 -41.355 V-50.855 H24.25 V-19.48 H73.875 Q73.875 -18.611 73.875 -17.786 Q73.875 -16.961 73.875 -16.105 Q73.875 -15.249 73.875 -14.424 Q73.875 -13.598 73.875 -12.73 Z M96.5 -13.48 H86.5 Q85.384 -13.48 84.63 -14.237 Q83.875 -14.993 83.875 -16.112 Q83.875 -17.23 84.63 -17.98 Q85.384 -18.73 86.5 -18.73 H96.5 V-28.73 Q96.5 -29.846 97.257 -30.6 Q98.013 -31.355 99.132 -31.355 Q100.25 -31.355 101 -30.6 Q101.75 -29.846 101.75 -28.73 V-18.73 H111.75 Q112.866 -18.73 113.62 -17.973 Q114.375 -17.217 114.375 -16.098 Q114.375 -14.98 113.62 -14.23 Q112.866 -13.48 111.75 -13.48 H101.75 V-3.48 Q101.75 -2.364 100.993 -1.61 Q100.237 -0.855 99.118 -0.855 Q98 -0.855 97.25 -1.61 Q96.5 -2.364 96.5 -3.48 V-13.48 Z"/></g><g id="Bold-S" transform="matrix(1 0 0 1 2294.23 696)"><path d="M56.413 -11.757 H16.006 Q13.314 -11.757 11.49 -13.567 Q9.665 -15.377 9.665 -18.069 V-52.391 Q9.665 -54.945 11.475 -56.824 Q13.285 -58.703 15.977 -58.703 H78.703 Q81.395 -58.703 83.205 -56.824 Q85.015 -54.945 85.015 -52.391 V-40.358 Q83.461 -40.358 81.861 -40.358 Q80.261 -40.358 78.703 -40.358 Q77.181 -40.358 75.602 -40.358 Q74.023 -40.358 72.359 -40.358 V-46.079 H22.289 V-24.381 H56.413 Q56.413 -22.728 56.413 -21.144 Q56.413 -19.56 56.413 -18.02 Q56.413 -16.48 56.413 -14.896 Q56.413 -13.311 56.413 -11.757 Z M74.462 -13.73 H67.854 Q66.01 -13.73 64.762 -14.963 Q63.515 -16.197 63.515 -18.021 Q63.515 -19.844 64.762 -21.077 Q66.01 -22.31 67.854 -22.31 H74.462 V-28.918 Q74.462 -30.762 75.676 -32.01 Q76.889 -33.257 78.684 -33.257 Q80.478 -33.257 81.76 -32.01 Q83.042 -30.762 83.042 -28.918 V-22.31 H89.65 Q91.494 -22.31 92.742 -21.096 Q93.99 -19.883 93.99 -18.088 Q93.99 -16.294 92.742 -15.012 Q91.494 -13.73 89.65 -13.73 H83.042 V-7.122 Q83.042 -5.278 81.809 -4.03 Q80.575 -2.782 78.751 -2.782 Q76.928 -2.782 75.695 -4.03 Q74.462 -5.278 74.462 -7.122 V-13.73 Z"/></g><g id="Semibold-S" transform="matrix(1 0 0 1 1998.1 696)"><path d="M56.371 -12.358 H15.963 Q13.572 -12.358 11.919 -13.996 Q10.266 -15.634 10.266 -18.026 V-52.391 Q10.266 -54.705 11.904 -56.382 Q13.542 -58.06 15.934 -58.06 H78.746 Q81.138 -58.06 82.776 -56.382 Q84.414 -54.705 84.414 -52.391 V-40.401 Q82.989 -40.401 81.565 -40.401 Q80.141 -40.401 78.746 -40.401 Q77.371 -40.401 75.954 -40.401 Q74.537 -40.401 73.045 -40.401 V-46.722 H21.603 V-23.695 H56.371 Q56.371 -22.214 56.371 -20.799 Q56.371 -19.384 56.371 -17.999 Q56.371 -16.613 56.371 -15.198 Q56.371 -13.783 56.371 -12.358 Z M74.505 -13.73 H67.768 Q65.942 -13.73 64.707 -14.955 Q63.472 -16.18 63.472 -17.991 Q63.472 -19.802 64.707 -21.034 Q65.942 -22.267 67.768 -22.267 H74.505 V-29.004 Q74.505 -30.83 75.719 -32.065 Q76.932 -33.3 78.727 -33.3 Q80.521 -33.3 81.782 -32.065 Q83.042 -30.83 83.042 -29.004 V-22.267 H89.779 Q91.605 -22.267 92.84 -21.053 Q94.075 -19.84 94.075 -18.045 Q94.075 -16.251 92.84 -14.99 Q91.605 -13.73 89.779 -13.73 H83.042 V-6.993 Q83.042 -5.167 81.817 -3.932 Q80.592 -2.697 78.781 -2.697 Q76.97 -2.697 75.738 -3.932 Q74.505 -5.167 74.505 -6.993 V-13.73 Z"/></g><g id="Medium-S" transform="matrix(1 0 0 1 1701.85 696)"><path d="M56.338 -12.808 H15.931 Q13.765 -12.808 12.24 -14.317 Q10.716 -15.827 10.716 -17.994 V-52.391 Q10.716 -54.525 12.225 -56.051 Q13.735 -57.577 15.902 -57.577 H78.778 Q80.945 -57.577 82.455 -56.051 Q83.964 -54.525 83.964 -52.391 V-40.434 Q82.635 -40.434 81.343 -40.434 Q80.051 -40.434 78.778 -40.434 Q77.513 -40.434 76.218 -40.434 Q74.923 -40.434 73.559 -40.434 V-47.204 H21.089 V-23.181 H56.338 Q56.338 -21.828 56.338 -20.54 Q56.338 -19.251 56.338 -17.982 Q56.338 -16.714 56.338 -15.425 Q56.338 -14.137 56.338 -12.808 Z M74.537 -13.73 H67.704 Q65.892 -13.73 64.665 -14.948 Q63.439 -16.167 63.439 -17.968 Q63.439 -19.769 64.665 -21.002 Q65.892 -22.235 67.704 -22.235 H74.537 V-29.068 Q74.537 -30.88 75.751 -32.107 Q76.964 -33.333 78.759 -33.333 Q80.553 -33.333 81.798 -32.107 Q83.042 -30.88 83.042 -29.068 V-22.235 H89.875 Q91.688 -22.235 92.914 -21.021 Q94.14 -19.808 94.14 -18.013 Q94.14 -16.219 92.914 -14.974 Q91.688 -13.73 89.875 -13.73 H83.042 V-6.897 Q83.042 -5.084 81.824 -3.858 Q80.605 -2.632 78.804 -2.632 Q77.003 -2.632 75.77 -3.858 Q74.537 -5.084 74.537 -6.897 V-13.73 Z"/></g><g id="Regular-S" transform="matrix(1 0 0 1 1405.73 696)"><path d="M56.315 -13.138 H15.907 Q13.906 -13.138 12.476 -14.553 Q11.046 -15.969 11.046 -17.971 V-52.391 Q11.046 -54.393 12.461 -55.808 Q13.877 -57.223 15.879 -57.223 H78.801 Q80.803 -57.223 82.219 -55.808 Q83.634 -54.393 83.634 -52.391 V-40.457 Q82.376 -40.457 81.18 -40.457 Q79.985 -40.457 78.801 -40.457 Q77.618 -40.457 76.412 -40.457 Q75.206 -40.457 73.937 -40.457 V-47.558 H20.711 V-22.803 H56.315 Q56.315 -21.545 56.315 -20.35 Q56.315 -19.154 56.315 -17.971 Q56.315 -16.787 56.315 -15.592 Q56.315 -14.396 56.315 -13.138 Z M74.561 -13.73 H67.657 Q65.854 -13.73 64.635 -14.944 Q63.416 -16.157 63.416 -17.952 Q63.416 -19.746 64.635 -20.979 Q65.854 -22.211 67.657 -22.211 H74.561 V-29.115 Q74.561 -30.918 75.774 -32.137 Q76.988 -33.356 78.782 -33.356 Q80.577 -33.356 81.809 -32.137 Q83.042 -30.918 83.042 -29.115 V-22.211 H89.946 Q91.748 -22.211 92.968 -20.998 Q94.187 -19.784 94.187 -17.99 Q94.187 -16.195 92.968 -14.963 Q91.748 -13.73 89.946 -13.73 H83.042 V-6.826 Q83.042 -5.024 81.828 -3.804 Q80.615 -2.585 78.82 -2.585 Q77.026 -2.585 75.793 -3.804 Q74.561 -5.024 74.561 -6.826 V-13.73 Z"/></g><g id="Light-S" transform="matrix(1 0 0 1 1109.75 696)"><path d="M56.315 -15.111 H17.5 Q15.661 -15.111 14.34 -16.413 Q13.019 -17.714 13.019 -19.549 V-50.813 Q13.019 -52.648 14.325 -53.949 Q15.631 -55.251 17.472 -55.251 H77.208 Q79.049 -55.251 80.355 -53.944 Q81.661 -52.638 81.661 -50.797 V-40.457 Q80.65 -40.457 79.689 -40.457 Q78.727 -40.457 77.815 -40.457 Q76.903 -40.457 75.931 -40.457 Q74.959 -40.457 73.937 -40.457 V-47.558 H20.711 V-22.803 H56.315 Q56.315 -21.792 56.315 -20.83 Q56.315 -19.869 56.315 -18.957 Q56.315 -18.045 56.315 -17.083 Q56.315 -16.122 56.315 -15.111 Z M74.561 -15.702 H66.67 Q65.287 -15.702 64.352 -16.633 Q63.416 -17.564 63.416 -18.939 Q63.416 -20.315 64.352 -21.263 Q65.287 -22.211 66.67 -22.211 H74.561 V-30.102 Q74.561 -31.485 75.491 -32.42 Q76.422 -33.356 77.797 -33.356 Q79.173 -33.356 80.121 -32.42 Q81.07 -31.485 81.07 -30.102 V-22.211 H88.96 Q90.343 -22.211 91.279 -21.281 Q92.214 -20.35 92.214 -18.975 Q92.214 -17.599 91.279 -16.651 Q90.343 -15.702 88.96 -15.702 H81.07 V-7.812 Q81.07 -6.429 80.139 -5.493 Q79.208 -4.558 77.833 -4.558 Q76.457 -4.558 75.509 -5.493 Q74.561 -6.429 74.561 -7.812 V-15.702 Z"/></g><g id="Thin-S" transform="matrix(1 0 0 1 814.015 696)"><path d="M56.315 -17.083 H19.093 Q17.415 -17.083 16.203 -18.271 Q14.991 -19.46 14.991 -21.127 V-49.236 Q14.991 -50.903 16.188 -52.091 Q17.385 -53.278 19.065 -53.278 H75.615 Q77.295 -53.278 78.492 -52.081 Q79.689 -50.884 79.689 -49.204 V-40.457 Q78.924 -40.457 78.197 -40.457 Q77.47 -40.457 76.829 -40.457 Q76.188 -40.457 75.45 -40.457 Q74.713 -40.457 73.937 -40.457 V-47.558 H20.711 V-22.803 H56.315 Q56.315 -22.038 56.315 -21.311 Q56.315 -20.584 56.315 -19.943 Q56.315 -19.302 56.315 -18.575 Q56.315 -17.848 56.315 -17.083 Z M74.561 -17.675 H65.684 Q64.72 -17.675 64.068 -18.322 Q63.416 -18.97 63.416 -19.927 Q63.416 -20.884 64.068 -21.548 Q64.72 -22.211 65.684 -22.211 H74.561 V-31.088 Q74.561 -32.052 75.208 -32.704 Q75.855 -33.356 76.813 -33.356 Q77.77 -33.356 78.433 -32.704 Q79.097 -32.052 79.097 -31.088 V-22.211 H87.974 Q88.938 -22.211 89.59 -21.564 Q90.242 -20.917 90.242 -19.959 Q90.242 -19.002 89.59 -18.339 Q88.938 -17.675 87.974 -17.675 H79.097 V-8.798 Q79.097 -7.834 78.45 -7.182 Q77.802 -6.53 76.845 -6.53 Q75.888 -6.53 75.224 -7.182 Q74.561 -7.834 74.561 -8.798 V-17.675 Z"/></g><g id="Ultralight-S" transform="matrix(1 0 0 1 517.792 696)"><path d="M56.315 -18.266 H20.049 Q18.468 -18.266 17.321 -19.387 Q16.175 -20.507 16.175 -22.074 V-48.29 Q16.175 -49.856 17.306 -50.975 Q18.438 -52.095 20.021 -52.095 H74.659 Q76.242 -52.095 77.374 -50.963 Q78.505 -49.831 78.505 -48.248 V-40.457 Q77.888 -40.457 77.302 -40.457 Q76.715 -40.457 76.237 -40.457 Q75.759 -40.457 75.162 -40.457 Q74.565 -40.457 73.937 -40.457 V-47.558 H20.711 V-22.803 H56.315 Q56.315 -22.186 56.315 -21.6 Q56.315 -21.013 56.315 -20.535 Q56.315 -20.057 56.315 -19.47 Q56.315 -18.884 56.315 -18.266 Z M74.561 -18.858 H65.093 Q64.38 -18.858 63.898 -19.336 Q63.416 -19.813 63.416 -20.519 Q63.416 -21.225 63.898 -21.718 Q64.38 -22.211 65.093 -22.211 H74.561 V-31.679 Q74.561 -32.392 75.038 -32.874 Q75.516 -33.356 76.222 -33.356 Q76.928 -33.356 77.421 -32.874 Q77.914 -32.392 77.914 -31.679 V-22.211 H87.382 Q88.094 -22.211 88.576 -21.734 Q89.058 -21.256 89.058 -20.55 Q89.058 -19.844 88.576 -19.351 Q88.094 -18.858 87.382 -18.858 H77.914 V-9.39 Q77.914 -8.678 77.436 -8.196 Q76.959 -7.714 76.253 -7.714 Q75.547 -7.714 75.054 -8.196 Q74.561 -8.678 74.561 -9.39 V-18.858 Z"/></g></g></svg>