<svg xmlns="http://www.w3.org/2000/svg" version="1.1" width="3300" height="2000"><g id="Notes"><style>
    text {
      font-family: monospace;
      text-anchor: middle;
    }
    text.emphasis {
      font-weight:bold;
    }
    text.lanchor {
      text-anchor: start;
    }
  </style><rect height="2200" id="artboard" fill="white" width="3300" x="0" y="0"/><line id="" style="fill:none;stroke:black;stroke-width:0.5;" x1="263" x2="3036" y1="292" y2="292"/><text class="lanchor emphasis" transform="matrix(1 0 0 1 263 322)">Weight/Scale Variations</text><text transform="matrix(1 0 0 1 559.711 322)">Ultralight</text><text transform="matrix(1 0 0 1 856.422 322)">Thin</text><text transform="matrix(1 0 0 1 1153.13 322)">Light</text><text transform="matrix(1 0 0 1 1449.84 322)">Regular</text><text transform="matrix(1 0 0 1 1746.56 322)">Medium</text><text transform="matrix(1 0 0 1 2043.27 322)">Semibold</text><text transform="matrix(1 0 0 1 2339.98 322)">Bold</text><text transform="matrix(1 0 0 1 2636.69 322)">Heavy</text><text transform="matrix(1 0 0 1 2933.4 322)">Black</text><text id="template-version" style="text-anchor: end;" transform="matrix(1 0 0 1 3036 1933)">Template v.1.0</text><text class="lanchor" transform="matrix(1 0 0 1 263 726)">Small</text><text class="lanchor" transform="matrix(1 0 0 1 263 1156)">Medium</text><text class="lanchor" transform="matrix(1 0 0 1 263 1586)">Large</text></g><g id="Guides"><g id="H-reference" style="fill:#27AAE1;stroke:none;" transform="matrix(1 0 0 1 339 696)"><path d="M 54.9316 0 L 57.666 0 L 30.5664 -70.459 L 28.0762 -70.459 L 0.976562 0 L 3.66211 0 L 12.9395 -24.4629 L 45.7031 -24.4629 Z M 29.1992 -67.0898 L 29.4434 -67.0898 L 44.8242 -26.709 L 13.8184 -26.709 Z"/></g><line id="Baseline-S" style="fill:none;stroke:#27AAE1;opacity:1;stroke-width:0.577;" x1="263" x2="3036" y1="696" y2="696"/><line id="Capline-S" style="fill:none;stroke:#27AAE1;opacity:1;stroke-width:0.577;" x1="263" x2="3036" y1="625.541" y2="625.541"/><g id="H-reference" style="fill:#27AAE1;stroke:none;" transform="matrix(1 0 0 1 339 1126)"><path d="M 54.9316 0 L 57.666 0 L 30.5664 -70.459 L 28.0762 -70.459 L 0.976562 0 L 3.66211 0 L 12.9395 -24.4629 L 45.7031 -24.4629 Z M 29.1992 -67.0898 L 29.4434 -67.0898 L 44.8242 -26.709 L 13.8184 -26.709 Z"/></g><line id="Baseline-M" style="fill:none;stroke:#27AAE1;opacity:1;stroke-width:0.577;" x1="263" x2="3036" y1="1126" y2="1126"/><line id="Capline-M" style="fill:none;stroke:#27AAE1;opacity:1;stroke-width:0.577;" x1="263" x2="3036" y1="1055.54" y2="1055.54"/><g id="H-reference" style="fill:#27AAE1;stroke:none;" transform="matrix(1 0 0 1 339 1556)"><path d="M 54.9316 0 L 57.666 0 L 30.5664 -70.459 L 28.0762 -70.459 L 0.976562 0 L 3.66211 0 L 12.9395 -24.4629 L 45.7031 -24.4629 Z M 29.1992 -67.0898 L 29.4434 -67.0898 L 44.8242 -26.709 L 13.8184 -26.709 Z"/></g><line id="Baseline-L" style="fill:none;stroke:#27AAE1;opacity:1;stroke-width:0.577;" x1="263" x2="3036" y1="1556" y2="1556"/><line id="Capline-L" style="fill:none;stroke:#27AAE1;opacity:1;stroke-width:0.577;" x1="263" x2="3036" y1="1485.54" y2="1485.54"/><rect height="119.336" id="left-margin" style="fill:darkred;stroke:none;opacity:0.4;" width="12.4512" x="1394.06" y="1030.79"/><rect height="119.336" id="right-margin" style="fill:darkgreen;stroke:none;opacity:0.4;" width="12.4512" x="1502.5112" y="1030.79"/><rect x="1406.5112" y="1045" width="96" height="96" fill="none" stroke="blue" stroke-dasharray="5"/><rect x="1394.06" y="1030.79" width="120.9024" height="119.336" fill="none" stroke="blue"/></g><g id="Symbols"><g id="Bold-L" transform="matrix(1 0 0 1 2266 1556)"><path d="M36.926249999999996 32.65625 Q31.121250000000003 32.65625 26.686875 28.30250000000001 Q22.2525 23.948750000000018 22.2525 17.982500000000016 V-62.64249999999999 L62.8875 -103.2775 H117.87375 Q123.67875000000001 -103.2775 128.19375 -98.92375 Q132.70875 -94.57 132.70875 -88.4425 V17.982500000000016 Q132.70875 23.948750000000018 128.19375 28.30250000000001 Q123.67875000000001 32.65625 117.87375 32.65625 H36.926249999999996 Z M36.926249999999996 17.982500000000016 H117.87375 Q117.87375 17.982500000000016 117.87375 17.982500000000016 Q117.87375 17.982500000000016 117.87375 17.982500000000016 V-88.4425 Q117.87375 -88.4425 117.87375 -88.4425 Q117.87375 -88.4425 117.87375 -88.4425 H69.49875 L36.926249999999996 -56.35375 V17.982500000000016 Q36.926249999999996 17.982500000000016 36.926249999999996 17.982500000000016 Q36.926249999999996 17.982500000000016 36.926249999999996 17.982500000000016 Z M77.56125 -2.1737499999999983 Q80.46375 -2.1737499999999983 82.56 -4.3506249999999795 Q84.65625 -6.527500000000003 84.65625 -9.591249999999988 Q84.65625 -12.654999999999987 82.640625 -14.751249999999985 Q80.625 -16.847499999999997 77.56125 -16.847499999999997 Q74.65875 -16.847499999999997 72.40125 -14.751249999999985 Q70.14375 -12.654999999999987 70.14375 -9.591249999999988 Q70.14375 -6.527500000000003 72.320625 -4.3506249999999795 Q74.4975 -2.1737499999999983 77.56125 -2.1737499999999983 Z M72.07875000000001 -25.716250000000002 H83.205 V-61.19125 H72.07875000000001 V-25.716250000000002 Z M36.926249999999996 17.982500000000016 Q36.926249999999996 17.982500000000016 36.926249999999996 17.982500000000016 Q36.926249999999996 17.982500000000016 36.926249999999996 17.982500000000016 H69.49875 H117.87375 Q117.87375 17.982500000000016 117.87375 17.982500000000016 Q117.87375 17.982500000000016 117.87375 17.982500000000016 Q117.87375 17.982500000000016 117.87375 17.982500000000016 Q117.87375 17.982500000000016 117.87375 17.982500000000016 H36.926249999999996 Z"/></g><g id="Semibold-L" transform="matrix(1 0 0 1 1970.27 1556)"><path d="M36.12 32.33375000000001 Q30.96 32.33375000000001 26.848125 28.30250000000001 Q22.73625 24.27125000000001 22.73625 18.94999999999999 V-62.48124999999999 L63.048750000000005 -102.79374999999999 H118.67999999999999 Q124.00125000000001 -102.79374999999999 128.113125 -98.76249999999999 Q132.225 -94.73124999999999 132.225 -89.41 V18.94999999999999 Q132.225 24.27125000000001 128.113125 28.30250000000001 Q124.00125000000001 32.33375000000001 118.67999999999999 32.33375000000001 H36.12 Z M36.12 18.94999999999999 H118.67999999999999 Q118.67999999999999 18.94999999999999 118.67999999999999 18.94999999999999 Q118.67999999999999 18.94999999999999 118.67999999999999 18.94999999999999 V-89.41 Q118.67999999999999 -89.41 118.67999999999999 -89.41 Q118.67999999999999 -89.41 118.67999999999999 -89.41 H69.17625 L36.12 -56.515 V18.94999999999999 Q36.12 18.94999999999999 36.12 18.94999999999999 Q36.12 18.94999999999999 36.12 18.94999999999999 Z M77.4 -2.6574999999999847 Q80.3025 -2.6574999999999847 82.2375 -4.673124999999985 Q84.17250000000001 -6.688749999999985 84.17250000000001 -9.591249999999988 Q84.17250000000001 -12.493749999999991 82.2375 -14.428749999999994 Q80.3025 -16.363749999999982 77.4 -16.363749999999982 Q74.65875 -16.363749999999982 72.643125 -14.428749999999994 Q70.6275 -12.493749999999991 70.6275 -9.591249999999988 Q70.6275 -6.688749999999985 72.643125 -4.673124999999985 Q74.65875 -2.6574999999999847 77.4 -2.6574999999999847 Z M72.07875000000001 -26.844999999999985 H83.36625000000001 V-61.67499999999999 H72.07875000000001 V-26.844999999999985 Z M36.12 18.94999999999999 Q36.12 18.94999999999999 36.12 18.94999999999999 Q36.12 18.94999999999999 36.12 18.94999999999999 H69.17625 H118.67999999999999 Q118.67999999999999 18.94999999999999 118.67999999999999 18.94999999999999 Q118.67999999999999 18.94999999999999 118.67999999999999 18.94999999999999 Q118.67999999999999 18.94999999999999 118.67999999999999 18.94999999999999 Q118.67999999999999 18.94999999999999 118.67999999999999 18.94999999999999 H36.12 Z"/></g><g id="Medium-L" transform="matrix(1 0 0 1 1674.31 1556)"><path d="M35.636250000000004 32.01125000000002 Q30.6375 32.01125000000002 26.848125 28.30250000000001 Q23.058750000000003 24.59375 23.058750000000003 19.595 V-62.31999999999999 L63.21000000000001 -102.47125 H119.16375000000001 Q124.16250000000001 -102.47125 127.951875 -98.76249999999999 Q131.74125 -95.05375 131.74125 -90.05499999999999 V19.595 Q131.74125 24.59375 127.951875 28.30250000000001 Q124.16250000000001 32.01125000000002 119.16375000000001 32.01125000000002 H35.636250000000004 Z M35.636250000000004 19.595 H119.16375000000001 Q119.16375000000001 19.595 119.16375000000001 19.595 Q119.16375000000001 19.595 119.16375000000001 19.595 V-90.05499999999999 Q119.16375000000001 -90.05499999999999 119.16375000000001 -90.05499999999999 Q119.16375000000001 -90.05499999999999 119.16375000000001 -90.05499999999999 H68.85375 L35.636250000000004 -56.83749999999999 V19.595 Q35.636250000000004 19.595 35.636250000000004 19.595 Q35.636250000000004 19.595 35.636250000000004 19.595 Z M77.4 -2.9799999999999898 Q80.14125000000001 -2.9799999999999898 81.995625 -4.914999999999992 Q83.85000000000001 -6.8500000000000085 83.85000000000001 -9.591249999999988 Q83.85000000000001 -12.332499999999982 81.995625 -14.186875 Q80.14125000000001 -16.04124999999999 77.4 -16.04124999999999 Q74.82 -16.04124999999999 72.885 -14.186875 Q70.95 -12.332499999999982 70.95 -9.591249999999988 Q70.95 -6.8500000000000085 72.804375 -4.914999999999992 Q74.65875 -2.9799999999999898 77.4 -2.9799999999999898 Z M71.9175 -27.489999999999995 H83.5275 V-61.997499999999995 H71.9175 V-27.489999999999995 Z"/></g><g id="Regular-L" transform="matrix(1 0 0 1 1378.56 1556)"><path d="M35.1525 31.849999999999994 Q30.47625 31.849999999999994 26.92875 28.30250000000001 Q23.38125 24.755000000000024 23.38125 20.078750000000014 V-62.31999999999999 L63.371249999999996 -102.31 H119.64750000000001 Q124.32374999999999 -102.31 127.87125 -98.76249999999999 Q131.41875000000002 -95.21499999999999 131.41875000000002 -90.53875 V20.078750000000014 Q131.41875000000002 24.755000000000024 127.87125 28.30250000000001 Q124.32374999999999 31.849999999999994 119.64750000000001 31.849999999999994 H35.1525 Z M35.1525 20.078750000000014 H119.64750000000001 Q119.64750000000001 20.078750000000014 119.64750000000001 20.078750000000014 Q119.64750000000001 20.078750000000014 119.64750000000001 20.078750000000014 V-90.53875 Q119.64750000000001 -90.53875 119.64750000000001 -90.53875 Q119.64750000000001 -90.53875 119.64750000000001 -90.53875 H68.69250000000001 L35.1525 -56.998749999999994 V20.078750000000014 Q35.1525 20.078750000000014 35.1525 20.078750000000014 Q35.1525 20.078750000000014 35.1525 20.078750000000014 Z M77.4 -3.302499999999995 Q79.98 -3.302499999999995 81.83437500000001 -5.156874999999985 Q83.68875 -7.01124999999999 83.68875 -9.591249999999988 Q83.68875 -12.17125 81.83437500000001 -14.025624999999991 Q79.98 -15.879999999999995 77.4 -15.879999999999995 Q74.82 -15.879999999999995 72.965625 -14.025624999999991 Q71.11125 -12.17125 71.11125 -9.591249999999988 Q71.11125 -7.01124999999999 72.965625 -5.156874999999985 Q74.82 -3.302499999999995 77.4 -3.302499999999995 Z M71.9175 -28.13499999999999 H83.68875 V-62.31999999999999 H71.9175 V-28.13499999999999 Z M35.1525 20.078750000000014 Q35.1525 20.078750000000014 35.1525 20.078750000000014 Q35.1525 20.078750000000014 35.1525 20.078750000000014 H68.69250000000001 H119.64750000000001 Q119.64750000000001 20.078750000000014 119.64750000000001 20.078750000000014 Q119.64750000000001 20.078750000000014 119.64750000000001 20.078750000000014 Q119.64750000000001 20.078750000000014 119.64750000000001 20.078750000000014 Q119.64750000000001 20.078750000000014 119.64750000000001 20.078750000000014 H35.1525 Z"/></g><g id="Light-L" transform="matrix(1 0 0 1 1082.77 1556)"><path d="M38.05500000000001 28.625 Q33.37875 28.625 29.992500000000003 25.23875000000001 Q26.60625 21.85250000000002 26.60625 17.17625000000001 V-60.86874999999999 L64.8225 -99.085 H116.74500000000002 Q121.42125 -99.085 124.80750000000002 -95.69874999999999 Q128.19375 -92.3125 128.19375 -87.63624999999999 V17.17625000000001 Q128.19375 21.85250000000002 124.80750000000002 25.23875000000001 Q121.42125 28.625 116.74500000000002 28.625 H38.05500000000001 Z M38.05500000000001 19.272500000000008 H116.74500000000002 Q117.55125000000001 19.272500000000008 118.19624999999999 18.627500000000026 Q118.84125 17.982500000000016 118.84125 17.17625000000001 V-87.63624999999999 Q118.84125 -88.4425 118.19624999999999 -89.08749999999999 Q117.55125000000001 -89.73249999999999 116.74500000000002 -89.73249999999999 H69.17625 L35.95875 -56.67624999999999 V17.17625000000001 Q35.95875 17.982500000000016 36.60375 18.627500000000026 Q37.24875 19.272500000000008 38.05500000000001 19.272500000000008 Z M77.4 -5.398749999999993 Q79.6575 -5.398749999999993 81.27 -7.01124999999999 Q82.8825 -8.623749999999987 82.8825 -10.881249999999994 Q82.8825 -13.138749999999987 81.35062500000001 -14.751249999999985 Q79.81875000000001 -16.363749999999982 77.4 -16.363749999999982 Q75.1425 -16.363749999999982 73.53 -14.751249999999985 Q71.9175 -13.138749999999987 71.9175 -10.881249999999994 Q71.9175 -8.623749999999987 73.449375 -7.01124999999999 Q74.98125 -5.398749999999993 77.4 -5.398749999999993 Z M73.04625 -27.16749999999999 H82.39875 V-59.90124999999999 H73.04625 V-27.16749999999999 Z M38.05500000000001 19.272500000000008 Q37.24875 19.272500000000008 36.60375 19.272500000000008 Q35.95875 19.272500000000008 35.95875 19.272500000000008 H69.17625 H116.74500000000002 Q117.55125000000001 19.272500000000008 118.19624999999999 19.272500000000008 Q118.84125 19.272500000000008 118.84125 19.272500000000008 Q118.84125 19.272500000000008 118.19624999999999 19.272500000000008 Q117.55125000000001 19.272500000000008 116.74500000000002 19.272500000000008 H38.05500000000001 Z"/></g><g id="Thin-L" transform="matrix(1 0 0 1 787.282 1556)"><path d="M40.79625 25.400000000000006 Q36.4425 25.400000000000006 33.136875 22.094375000000014 Q29.83125 18.78875000000002 29.83125 14.435000000000002 V-59.4175 L66.27375 -95.86 H114.00375000000001 Q118.35750000000002 -95.86 121.66312500000001 -92.554375 Q124.96875 -89.24875 124.96875 -84.895 V14.435000000000002 Q124.96875 18.78875000000002 121.66312500000001 22.094375000000014 Q118.35750000000002 25.400000000000006 114.00375000000001 25.400000000000006 H40.79625 Z M40.79625 18.305000000000007 H114.00375000000001 Q115.455 18.305000000000007 116.66437499999999 17.095625000000013 Q117.87375 15.886250000000018 117.87375 14.435000000000002 V-84.895 Q117.87375 -86.34625 116.66437499999999 -87.55562499999999 Q115.455 -88.76499999999999 114.00375000000001 -88.76499999999999 H69.49875 L36.926249999999996 -56.35375 V14.435000000000002 Q36.926249999999996 15.886250000000018 38.135625 17.095625000000013 Q39.345 18.305000000000007 40.79625 18.305000000000007 Z M77.4 -7.49499999999999 Q79.49625 -7.49499999999999 80.866875 -8.865625000000009 Q82.2375 -10.236249999999998 82.2375 -12.17125 Q82.2375 -13.944999999999993 80.866875 -15.476874999999993 Q79.49625 -17.008749999999992 77.4 -17.008749999999992 Q75.30375000000001 -17.008749999999992 74.01375 -15.55749999999999 Q72.72375000000001 -14.106249999999989 72.72375000000001 -12.17125 Q72.72375000000001 -10.397499999999994 74.01375 -8.946249999999992 Q75.30375000000001 -7.49499999999999 77.4 -7.49499999999999 Z M74.175 -26.19999999999999 H81.27 V-57.64374999999999 H74.175 V-26.19999999999999 Z M40.79625 18.305000000000007 Q39.345 18.305000000000007 38.135625 18.305000000000007 Q36.926249999999996 18.305000000000007 36.926249999999996 18.305000000000007 H69.49875 H114.00375000000001 Q115.455 18.305000000000007 116.66437499999999 18.305000000000007 Q117.87375 18.305000000000007 117.87375 18.305000000000007 Q117.87375 18.305000000000007 116.66437499999999 18.305000000000007 Q115.455 18.305000000000007 114.00375000000001 18.305000000000007 H40.79625 Z"/></g><g id="Ultralight-L" transform="matrix(1 0 0 1 491.205 1556)"><path d="M42.57 23.465000000000003 Q38.21625 23.465000000000003 34.99125 20.24000000000001 Q31.76625 17.015000000000015 31.76625 12.66125000000001 V-58.61124999999999 L67.08 -93.925 H112.22999999999999 Q116.74500000000002 -93.925 119.889375 -90.78062499999999 Q123.03375 -87.63624999999999 123.03375 -83.12124999999999 V12.66125000000001 Q123.03375 17.015000000000015 119.889375 20.24000000000001 Q116.74500000000002 23.465000000000003 112.22999999999999 23.465000000000003 H42.57 Z M42.57 17.82125000000002 H112.22999999999999 Q114.16499999999999 17.82125000000002 115.7775 16.20875000000001 Q117.39 14.596250000000012 117.39 12.66125000000001 V-83.12124999999999 Q117.39 -85.05624999999999 115.7775 -86.66874999999999 Q114.16499999999999 -88.28125 112.22999999999999 -88.28125 H69.66000000000001 L37.41 -56.192499999999995 V12.66125000000001 Q37.41 14.596250000000012 39.0225 16.20875000000001 Q40.635 17.82125000000002 42.57 17.82125000000002 Z M77.4 -8.784999999999982 Q79.33500000000001 -8.784999999999982 80.544375 -10.074999999999989 Q81.75375000000001 -11.364999999999995 81.75375000000001 -12.977499999999992 Q81.75375000000001 -14.590000000000003 80.544375 -15.960624999999993 Q79.33500000000001 -17.331249999999997 77.4 -17.331249999999997 Q75.465 -17.331249999999997 74.33625 -15.960624999999993 Q73.2075 -14.590000000000003 73.2075 -12.977499999999992 Q73.2075 -11.364999999999995 74.33625 -10.074999999999989 Q75.465 -8.784999999999982 77.4 -8.784999999999982 Z M74.82 -25.554999999999993 H80.46375 V-56.192499999999995 H74.82 V-25.554999999999993 Z M42.57 17.82125000000002 Q40.635 17.82125000000002 39.0225 17.82125000000002 Q37.41 17.82125000000002 37.41 17.82125000000002 H69.66000000000001 H112.22999999999999 Q114.16499999999999 17.82125000000002 115.7775 17.82125000000002 Q117.39 17.82125000000002 117.39 17.82125000000002 Q117.39 17.82125000000002 115.7775 17.82125000000002 Q114.16499999999999 17.82125000000002 112.22999999999999 17.82125000000002 H42.57 Z"/></g><g id="Bold-M" transform="matrix(1 0 0 1 2281.8 1126)"><path d="M31.25 20.52000000000001 Q24.25 20.52000000000001 19.25 15.585000000000008 Q14.25 10.64500000000001 14.25 3.5200000000000102 V-57.60499999999999 L47.625 -90.97999999999999 H88.75 Q95.75 -90.97999999999999 100.75 -86.04499999999999 Q105.75 -81.10499999999999 105.75 -73.97999999999999 V3.5200000000000102 Q105.75 10.64500000000001 100.75 15.585000000000008 Q95.75 20.52000000000001 88.75 20.52000000000001 H31.25 Z M31.25 3.5200000000000102 H88.75 Q88.75 3.5200000000000102 88.75 3.5200000000000102 Q88.75 3.5200000000000102 88.75 3.5200000000000102 V-73.97999999999999 Q88.75 -73.97999999999999 88.75 -73.97999999999999 Q88.75 -73.97999999999999 88.75 -73.97999999999999 H54.875 L31.25 -50.60499999999999 V3.5200000000000102 Q31.25 3.5200000000000102 31.25 3.5200000000000102 Q31.25 3.5200000000000102 31.25 3.5200000000000102 Z M60.125 -6.97999999999999 Q63.125 -6.97999999999999 65.19 -9.045000000000002 Q67.25 -11.10499999999999 67.25 -14.22999999999999 Q67.25 -17.35499999999999 65.19 -19.419999999999987 Q63.125 -21.47999999999999 60.0 -21.47999999999999 Q57.0 -21.47999999999999 54.875 -19.419999999999987 Q52.75 -17.35499999999999 52.75 -14.22999999999999 Q52.75 -11.10499999999999 54.875 -9.045000000000002 Q57.0 -6.97999999999999 60.125 -6.97999999999999 Z M53.375 -28.85499999999999 H66.625 V-57.35499999999999 H53.375 V-28.85499999999999 Z"/></g><g id="Semibold-M" transform="matrix(1 0 0 1 1985.97 1126)"><path d="M30.5 19.77000000000001 Q24.125 19.77000000000001 19.625 15.27000000000001 Q15.125 10.77000000000001 15.125 4.39500000000001 V-57.35499999999999 L48.0 -90.22999999999999 H89.5 Q95.875 -90.22999999999999 100.375 -85.72999999999999 Q104.875 -81.22999999999999 104.875 -74.85499999999999 V4.39500000000001 Q104.875 10.77000000000001 100.375 15.27000000000001 Q95.875 19.77000000000001 89.5 19.77000000000001 H30.5 Z M30.5 4.39500000000001 H89.5 Q89.5 4.39500000000001 89.5 4.39500000000001 Q89.5 4.39500000000001 89.5 4.39500000000001 V-74.85499999999999 Q89.5 -74.85499999999999 89.5 -74.85499999999999 Q89.5 -74.85499999999999 89.5 -74.85499999999999 H54.625 L30.5 -50.85499999999999 V4.39500000000001 Q30.5 4.39500000000001 30.5 4.39500000000001 Q30.5 4.39500000000001 30.5 4.39500000000001 Z M60.0 -7.60499999999999 Q62.875 -7.60499999999999 64.815 -9.47999999999999 Q66.75 -11.35499999999999 66.75 -14.35499999999999 Q66.75 -17.22999999999999 64.815 -19.169999999999987 Q62.875 -21.10499999999999 60.0 -21.10499999999999 Q57.125 -21.10499999999999 55.19 -19.169999999999987 Q53.25 -17.22999999999999 53.25 -14.35499999999999 Q53.25 -11.35499999999999 55.19 -9.47999999999999 Q57.125 -7.60499999999999 60.0 -7.60499999999999 Z M53.375 -29.85499999999999 H66.625 V-57.60499999999999 H53.375 V-29.85499999999999 Z M30.5 4.39500000000001 Q30.5 4.39500000000001 30.5 4.39500000000001 Q30.5 4.39500000000001 30.5 4.39500000000001 H54.625 H89.5 Q89.5 4.39500000000001 89.5 4.39500000000001 Q89.5 4.39500000000001 89.5 4.39500000000001 Q89.5 4.39500000000001 89.5 4.39500000000001 Q89.5 4.39500000000001 89.5 4.39500000000001 H30.5 Z"/></g><g id="Medium-M" transform="matrix(1 0 0 1 1689.91 1126)"><path d="M29.875 19.14500000000001 Q24.125 19.14500000000001 19.94 15.02000000000001 Q15.75 10.89500000000001 15.75 5.02000000000001 V-57.10499999999999 L48.25 -89.60499999999999 H90.125 Q95.875 -89.60499999999999 100.06500000000001 -85.47999999999999 Q104.25 -81.35499999999999 104.25 -75.47999999999999 V5.02000000000001 Q104.25 10.89500000000001 100.06500000000001 15.02000000000001 Q95.875 19.14500000000001 90.125 19.14500000000001 H29.875 Z M29.875 5.02000000000001 H90.125 Q90.125 5.02000000000001 90.125 5.02000000000001 Q90.125 5.02000000000001 90.125 5.02000000000001 V-75.47999999999999 Q90.125 -75.47999999999999 90.125 -75.47999999999999 Q90.125 -75.47999999999999 90.125 -75.47999999999999 H54.375 L29.875 -51.10499999999999 V5.02000000000001 Q29.875 5.02000000000001 29.875 5.02000000000001 Q29.875 5.02000000000001 29.875 5.02000000000001 Z M60.0 -8.10499999999999 Q62.75 -8.10499999999999 64.5 -9.919999999999987 Q66.25 -11.72999999999999 66.25 -14.47999999999999 Q66.25 -17.22999999999999 64.5 -18.97999999999999 Q62.75 -20.72999999999999 60.0 -20.72999999999999 Q57.25 -20.72999999999999 55.5 -18.97999999999999 Q53.75 -17.22999999999999 53.75 -14.47999999999999 Q53.75 -11.60499999999999 55.5 -9.85499999999999 Q57.25 -8.10499999999999 60.0 -8.10499999999999 Z M53.5 -30.60499999999999 H66.75 V-57.85499999999999 H53.5 V-30.60499999999999 Z"/></g><g id="Regular-M" transform="matrix(1 0 0 1 1394.06 1126)"><path d="M29.5 18.77000000000001 Q24.0 18.77000000000001 20.125 14.89500000000001 Q16.25 11.02000000000001 16.25 5.52000000000001 V-56.97999999999999 L48.5 -89.22999999999999 H90.5 Q96.0 -89.22999999999999 99.875 -85.35499999999999 Q103.75 -81.47999999999999 103.75 -75.97999999999999 V5.52000000000001 Q103.75 11.02000000000001 99.875 14.89500000000001 Q96.0 18.77000000000001 90.5 18.77000000000001 H29.5 Z M29.5 5.52000000000001 H90.5 Q90.5 5.52000000000001 90.5 5.52000000000001 Q90.5 5.52000000000001 90.5 5.52000000000001 V-75.97999999999999 Q90.5 -75.97999999999999 90.5 -75.97999999999999 Q90.5 -75.97999999999999 90.5 -75.97999999999999 H54.25 L29.5 -51.22999999999999 V5.52000000000001 Q29.5 5.52000000000001 29.5 5.52000000000001 Q29.5 5.52000000000001 29.5 5.52000000000001 Z M60.0 -8.47999999999999 Q62.625 -8.47999999999999 64.315 -10.164999999999978 Q66.0 -11.85499999999999 66.0 -14.47999999999999 Q66.0 -17.10499999999999 64.315 -18.794999999999987 Q62.625 -20.47999999999999 60.0 -20.47999999999999 Q57.375 -20.47999999999999 55.69 -18.794999999999987 Q54.0 -17.10499999999999 54.0 -14.47999999999999 Q54.0 -11.85499999999999 55.69 -10.164999999999978 Q57.375 -8.47999999999999 60.0 -8.47999999999999 Z M53.5 -31.22999999999999 H66.75 V-57.97999999999999 H53.5 V-31.22999999999999 Z M29.5 5.52000000000001 Q29.5 5.52000000000001 29.5 5.52000000000001 Q29.5 5.52000000000001 29.5 5.52000000000001 H54.25 H90.5 Q90.5 5.52000000000001 90.5 5.52000000000001 Q90.5 5.52000000000001 90.5 5.52000000000001 Q90.5 5.52000000000001 90.5 5.52000000000001 Q90.5 5.52000000000001 90.5 5.52000000000001 H29.5 Z"/></g><g id="Light-M" transform="matrix(1 0 0 1 1098.18 1126)"><path d="M31.0 16.27000000000001 Q25.875 16.27000000000001 22.315 12.705000000000013 Q18.75 9.14500000000001 18.75 4.02000000000001 V-55.97999999999999 L49.5 -86.72999999999999 H89.0 Q94.125 -86.72999999999999 97.69 -83.16999999999999 Q101.25 -79.60499999999999 101.25 -74.47999999999999 V4.02000000000001 Q101.25 9.14500000000001 97.69 12.705000000000013 Q94.125 16.27000000000001 89.0 16.27000000000001 H31.0 Z M31.0 5.52000000000001 H89.0 Q89.5 5.52000000000001 90.0 5.02000000000001 Q90.5 4.52000000000001 90.5 4.02000000000001 V-74.47999999999999 Q90.5 -74.97999999999999 90.0 -75.47999999999999 Q89.5 -75.97999999999999 89.0 -75.97999999999999 H54.25 L29.5 -51.22999999999999 V4.02000000000001 Q29.5 4.52000000000001 30.0 5.02000000000001 Q30.5 5.52000000000001 31.0 5.52000000000001 Z M60.0 -10.35499999999999 Q62.375 -10.35499999999999 63.815 -11.85499999999999 Q65.25 -13.35499999999999 65.25 -15.60499999999999 Q65.25 -17.85499999999999 63.815 -19.35499999999999 Q62.375 -20.85499999999999 60.0 -20.85499999999999 Q57.625 -20.85499999999999 56.19 -19.35499999999999 Q54.75 -17.85499999999999 54.75 -15.60499999999999 Q54.75 -13.35499999999999 56.19 -11.85499999999999 Q57.625 -10.35499999999999 60.0 -10.35499999999999 Z M54.75 -30.22999999999999 H65.5 V-56.10499999999999 H54.75 V-30.22999999999999 Z M31.0 5.52000000000001 Q30.5 5.52000000000001 30.0 5.52000000000001 Q29.5 5.52000000000001 29.5 5.52000000000001 H54.25 H89.0 Q89.5 5.52000000000001 90.0 5.52000000000001 Q90.5 5.52000000000001 90.5 5.52000000000001 Q90.5 5.52000000000001 90.0 5.52000000000001 Q89.5 5.52000000000001 89.0 5.52000000000001 H31.0 Z"/></g><g id="Thin-M" transform="matrix(1 0 0 1 802.565 1126)"><path d="M32.625 13.77000000000001 Q27.75 13.77000000000001 24.5 10.52000000000001 Q21.25 7.27000000000001 21.25 2.3950000000000102 V-54.85499999999999 L50.625 -84.22999999999999 H87.375 Q92.25 -84.22999999999999 95.5 -80.97999999999999 Q98.75 -77.72999999999999 98.75 -72.85499999999999 V2.3950000000000102 Q98.75 7.27000000000001 95.5 10.52000000000001 Q92.25 13.77000000000001 87.375 13.77000000000001 H32.625 Z M32.625 5.52000000000001 H87.375 Q88.625 5.52000000000001 89.565 4.5800000000000125 Q90.5 3.6450000000000102 90.5 2.3950000000000102 V-72.85499999999999 Q90.5 -74.10499999999999 89.565 -75.04499999999999 Q88.625 -75.97999999999999 87.375 -75.97999999999999 H54.25 L29.5 -51.22999999999999 V2.3950000000000102 Q29.5 3.6450000000000102 30.44 4.5800000000000125 Q31.375 5.52000000000001 32.625 5.52000000000001 Z M60.0 -12.35499999999999 Q62.0 -12.35499999999999 63.25 -13.669999999999987 Q64.5 -14.97999999999999 64.5 -16.72999999999999 Q64.5 -18.60499999999999 63.25 -19.919999999999987 Q62.0 -21.22999999999999 60.0 -21.22999999999999 Q58.0 -21.22999999999999 56.75 -19.919999999999987 Q55.5 -18.60499999999999 55.5 -16.72999999999999 Q55.5 -14.97999999999999 56.75 -13.669999999999987 Q58.0 -12.35499999999999 60.0 -12.35499999999999 Z M56.0 -29.10499999999999 H64.25 V-54.10499999999999 H56.0 V-29.10499999999999 Z M32.625 5.52000000000001 Q31.375 5.52000000000001 30.44 5.52000000000001 Q29.5 5.52000000000001 29.5 5.52000000000001 H54.25 H87.375 Q88.625 5.52000000000001 89.565 5.52000000000001 Q90.5 5.52000000000001 90.5 5.52000000000001 Q90.5 5.52000000000001 89.565 5.52000000000001 Q88.625 5.52000000000001 87.375 5.52000000000001 H32.625 Z"/></g><g id="Ultralight-M" transform="matrix(1 0 0 1 506.415 1126)"><path d="M33.5 12.27000000000001 Q28.875 12.27000000000001 25.81 9.205000000000013 Q22.75 6.14500000000001 22.75 1.5200000000000102 V-54.22999999999999 L51.25 -82.72999999999999 H86.5 Q91.125 -82.72999999999999 94.19 -79.66999999999999 Q97.25 -76.60499999999999 97.25 -71.97999999999999 V1.5200000000000102 Q97.25 6.14500000000001 94.19 9.205000000000013 Q91.125 12.27000000000001 86.5 12.27000000000001 H33.5 Z M33.5 5.52000000000001 H86.5 Q88.0 5.52000000000001 89.25 4.27000000000001 Q90.5 3.0200000000000102 90.5 1.5200000000000102 V-71.97999999999999 Q90.5 -73.47999999999999 89.25 -74.72999999999999 Q88.0 -75.97999999999999 86.5 -75.97999999999999 H54.25 L29.5 -51.22999999999999 V1.5200000000000102 Q29.5 3.0200000000000102 30.75 4.27000000000001 Q32.0 5.52000000000001 33.5 5.52000000000001 Z M60.0 -13.47999999999999 Q61.875 -13.47999999999999 62.94 -14.664999999999992 Q64.0 -15.85499999999999 64.0 -17.47999999999999 Q64.0 -19.10499999999999 62.94 -20.289999999999992 Q61.875 -21.47999999999999 60.0 -21.47999999999999 Q58.125 -21.47999999999999 57.065 -20.289999999999992 Q56.0 -19.10499999999999 56.0 -17.47999999999999 Q56.0 -15.85499999999999 57.065 -14.664999999999992 Q58.125 -13.47999999999999 60.0 -13.47999999999999 Z M56.75 -28.47999999999999 H63.5 V-52.97999999999999 H56.75 V-28.47999999999999 Z M33.5 5.52000000000001 Q32.0 5.52000000000001 30.75 5.52000000000001 Q29.5 5.52000000000001 29.5 5.52000000000001 H54.25 H86.5 Q88.0 5.52000000000001 89.25 5.52000000000001 Q90.5 5.52000000000001 90.5 5.52000000000001 Q90.5 5.52000000000001 89.25 5.52000000000001 Q88.0 5.52000000000001 86.5 5.52000000000001 H33.5 Z"/></g><g id="Bold-S" transform="matrix(1 0 0 1 2294.23 696)"><path d="M27.021672000000002 7.177171999999999 Q21.795336 7.177171999999999 18.098081999999998 3.5319920000000025 Q14.400827999999999 -0.11792199999999298 14.400827999999999 -5.443671999999992 V-56.04066399999999 L35.997336 -77.63717199999999 H67.658328 Q72.78525 -77.63717199999999 76.53457800000001 -73.987258 Q80.27917199999999 -70.34207799999999 80.27917199999999 -65.01632799999999 V-5.443671999999992 Q80.27917199999999 -0.11792199999999298 76.53457800000001 3.5319920000000025 Q72.78525 7.177171999999999 67.658328 7.177171999999999 H27.021672000000002 Z M27.021672000000002 -5.443671999999992 H67.658328 Q67.658328 -5.443671999999992 67.658328 -5.443671999999992 Q67.658328 -5.443671999999992 67.658328 -5.443671999999992 V-65.01632799999999 Q67.658328 -65.01632799999999 67.658328 -65.01632799999999 Q67.658328 -65.01632799999999 67.658328 -65.01632799999999 H41.323085999999996 L27.021672000000002 -50.90900799999999 V-5.443671999999992 Q27.021672000000002 -5.443671999999992 27.021672000000002 -5.443671999999992 Q27.021672000000002 -5.443671999999992 27.021672000000002 -5.443671999999992 Z M47.34 -13.728172 Q49.607586 -13.728172 51.136668 -15.209913999999998 Q52.66575 -16.686921999999996 52.66575 -19.053921999999993 Q52.66575 -21.321507999999987 51.184008 -22.85058999999999 Q49.707 -24.379671999999992 47.34 -24.379671999999992 Q45.171828 -24.379671999999992 43.590672 -22.902663999999994 Q42.01425 -21.420921999999997 42.01425 -19.053921999999993 Q42.01425 -16.78633599999999 43.543332 -15.257254000000003 Q45.072414 -13.728172 47.34 -13.728172 Z M42.506586 -29.411913999999996 H52.173414 V-51.10783599999999 H42.506586 V-29.411913999999996 Z M27.021672000000002 -5.443671999999992 Q27.021672000000002 -5.443671999999992 27.021672000000002 -5.443671999999992 Q27.021672000000002 -5.443671999999992 27.021672000000002 -5.443671999999992 H41.323085999999996 H67.658328 Q67.658328 -5.443671999999992 67.658328 -5.443671999999992 Q67.658328 -5.443671999999992 67.658328 -5.443671999999992 Q67.658328 -5.443671999999992 67.658328 -5.443671999999992 Q67.658328 -5.443671999999992 67.658328 -5.443671999999992 H27.021672000000002 Z"/></g><g id="Semibold-S" transform="matrix(1 0 0 1 1998.1 696)"><path d="M26.429922 6.585421999999994 Q21.695922 6.585421999999994 18.391589999999997 3.2810900000000203 Q15.091992000000001 -0.018507999999997082 15.091992000000001 -4.752508000000006 V-55.841835999999994 L36.295578 -77.04542199999999 H68.250078 Q72.884664 -77.04542199999999 76.236336 -73.74108999999999 Q79.588008 -70.441492 79.588008 -65.707492 V-4.752508000000006 Q79.588008 -0.018507999999997082 76.236336 3.2810900000000203 Q72.884664 6.585421999999994 68.250078 6.585421999999994 H26.429922 Z M26.429922 -4.752508000000006 H68.250078 Q68.250078 -4.752508000000006 68.250078 -4.752508000000006 Q68.250078 -4.752508000000006 68.250078 -4.752508000000006 V-65.707492 Q68.250078 -65.707492 68.250078 -65.707492 Q68.250078 -65.707492 68.250078 -65.707492 H41.128992000000004 L26.429922 -51.10783599999999 V-4.752508000000006 Q26.429922 -4.752508000000006 26.429922 -4.752508000000006 Q26.429922 -4.752508000000006 26.429922 -4.752508000000006 Z M47.34 -14.220507999999995 Q49.413492000000005 -14.220507999999995 50.84316 -15.602835999999996 Q52.272828 -16.985163999999997 52.272828 -19.15333599999999 Q52.272828 -21.22682799999999 50.8905 -22.65649599999999 Q49.508172 -24.086163999999997 47.34 -24.086163999999997 Q45.266507999999995 -24.086163999999997 43.83684 -22.70383599999999 Q42.407172 -21.321507999999987 42.407172 -19.15333599999999 Q42.407172 -16.985163999999997 43.83684 -15.602835999999996 Q45.266507999999995 -14.220507999999995 47.34 -14.220507999999995 Z M42.506586 -30.202492 H52.173414 V-51.306664 H42.506586 V-30.202492 Z M26.429922 -4.752508000000006 Q26.429922 -4.752508000000006 26.429922 -4.752508000000006 Q26.429922 -4.752508000000006 26.429922 -4.752508000000006 H41.128992000000004 H68.250078 Q68.250078 -4.752508000000006 68.250078 -4.752508000000006 Q68.250078 -4.752508000000006 68.250078 -4.752508000000006 Q68.250078 -4.752508000000006 68.250078 -4.752508000000006 Q68.250078 -4.752508000000006 68.250078 -4.752508000000006 H26.429922 Z"/></g><g id="Medium-S" transform="matrix(1 0 0 1 1701.85 696)"><path d="M25.937586 6.093086 Q21.695922 6.093086 18.642492 3.0869960000000134 Q15.584328 0.07617199999999968 15.584328 -4.260171999999983 V-55.643007999999995 L36.489672 -76.553086 H68.742414 Q72.984078 -76.553086 76.037508 -73.546996 Q79.095672 -70.536172 79.095672 -66.199828 V-4.260171999999983 Q79.095672 0.07617199999999968 76.037508 3.0869960000000134 Q72.984078 6.093086 68.742414 6.093086 H25.937586 Z M25.937586 -4.260171999999983 H68.742414 Q68.742414 -4.260171999999983 68.742414 -4.260171999999983 Q68.742414 -4.260171999999983 68.742414 -4.260171999999983 V-66.199828 Q68.742414 -66.199828 68.742414 -66.199828 Q68.742414 -66.199828 68.742414 -66.199828 H40.930164000000005 L25.937586 -51.306664 V-4.260171999999983 Q25.937586 -4.260171999999983 25.937586 -4.260171999999983 Q25.937586 -4.260171999999983 25.937586 -4.260171999999983 Z M47.34 -14.618163999999993 Q49.314078 -14.618163999999993 50.596992 -15.901077999999998 Q51.875172 -17.18399199999999 51.875172 -19.15333599999999 Q51.875172 -21.22682799999999 50.596992 -22.50500799999999 Q49.314078 -23.787921999999995 47.34 -23.787921999999995 Q45.365922 -23.787921999999995 44.083008 -22.50500799999999 Q42.804828 -21.22682799999999 42.804828 -19.252749999999992 Q42.804828 -17.18399199999999 44.083008 -15.901077999999998 Q45.365922 -14.618163999999993 47.34 -14.618163999999993 Z M42.606 -30.78950799999999 H52.272828 V-51.50549199999999 H42.606 V-30.78950799999999 Z M25.937586 -4.260171999999983 Q25.937586 -4.260171999999983 25.937586 -4.260171999999983 Q25.937586 -4.260171999999983 25.937586 -4.260171999999983 H40.930164000000005 H68.742414 Q68.742414 -4.260171999999983 68.742414 -4.260171999999983 Q68.742414 -4.260171999999983 68.742414 -4.260171999999983 Q68.742414 -4.260171999999983 68.742414 -4.260171999999983 Q68.742414 -4.260171999999983 68.742414 -4.260171999999983 H25.937586 Z"/></g><g id="Regular-S" transform="matrix(1 0 0 1 1405.73 696)"><path d="M25.644078 5.799578000000011 Q21.596508 5.799578000000011 18.789246 2.935508000000013 Q15.97725 0.07617199999999968 15.97725 -3.8672499999999985 V-55.54832799999999 L36.6885 -76.25957799999999 H69.035922 Q72.984078 -76.25957799999999 75.84341400000001 -73.39550799999999 Q78.70275 -70.536172 78.70275 -66.59275 V-3.8672499999999985 Q78.70275 0.07617199999999968 75.84341400000001 2.935508000000013 Q72.984078 5.799578000000011 69.035922 5.799578000000011 H25.644078 Z M25.644078 -3.8672499999999985 H69.035922 Q69.035922 -3.8672499999999985 69.035922 -3.8672499999999985 Q69.035922 -3.8672499999999985 69.035922 -3.8672499999999985 V-66.59275 Q69.035922 -66.59275 69.035922 -66.59275 Q69.035922 -66.59275 69.035922 -66.59275 H40.83075 L25.644078 -51.406077999999994 V-3.8672499999999985 Q25.644078 -3.8672499999999985 25.644078 -3.8672499999999985 Q25.644078 -3.8672499999999985 25.644078 -3.8672499999999985 Z M47.34 -14.911671999999996 Q49.214664000000006 -14.911671999999996 50.445504 -16.147245999999996 Q51.681078 -17.378085999999996 51.681078 -19.252749999999992 Q51.681078 -21.127413999999995 50.445504 -22.358253999999995 Q49.214664000000006 -23.593827999999995 47.34 -23.593827999999995 Q45.46533599999999 -23.593827999999995 44.234496 -22.358253999999995 Q42.998922 -21.127413999999995 42.998922 -19.252749999999992 Q42.998922 -17.378085999999996 44.234496 -16.147245999999996 Q45.46533599999999 -14.911671999999996 47.34 -14.911671999999996 Z M42.606 -31.28657799999999 H52.272828 V-51.60017199999999 H42.606 V-31.28657799999999 Z M25.644078 -3.8672499999999985 Q25.644078 -3.8672499999999985 25.644078 -3.8672499999999985 Q25.644078 -3.8672499999999985 25.644078 -3.8672499999999985 H40.83075 H69.035922 Q69.035922 -3.8672499999999985 69.035922 -3.8672499999999985 Q69.035922 -3.8672499999999985 69.035922 -3.8672499999999985 Q69.035922 -3.8672499999999985 69.035922 -3.8672499999999985 Q69.035922 -3.8672499999999985 69.035922 -3.8672499999999985 H25.644078 Z"/></g><g id="Light-S" transform="matrix(1 0 0 1 1109.75 696)"><path d="M26.827578 3.8255000000000052 Q23.07825 3.8255000000000052 20.512422 1.2123320000000035 Q17.951328 -1.400835999999984 17.951328 -5.050749999999994 V-54.757749999999994 L37.479078 -74.2855 H67.852422 Q71.502336 -74.2855 74.115504 -71.672332 Q76.72867199999999 -69.059164 76.72867199999999 -65.40924999999999 V-5.050749999999994 Q76.72867199999999 -1.400835999999984 74.115504 1.2123320000000035 Q71.502336 3.8255000000000052 67.852422 3.8255000000000052 H26.827578 Z M26.827578 -3.8672499999999985 H67.852422 Q68.250078 -3.8672499999999985 68.643 -4.260171999999983 Q69.035922 -4.657827999999995 69.035922 -5.050749999999994 V-65.40924999999999 Q69.035922 -65.802172 68.643 -66.199828 Q68.250078 -66.59275 67.852422 -66.59275 H40.83075 L25.644078 -51.406077999999994 V-5.050749999999994 Q25.644078 -4.657827999999995 26.037 -4.260171999999983 Q26.429922 -3.8672499999999985 26.827578 -3.8672499999999985 Z M47.34 -16.393413999999993 Q49.01583599999999 -16.393413999999993 50.052582 -17.477499999999992 Q51.089328 -18.56158599999999 51.089328 -20.138007999999992 Q51.089328 -21.719164 50.052582 -22.80324999999999 Q49.01583599999999 -23.88733599999999 47.34 -23.88733599999999 Q45.66416400000001 -23.88733599999999 44.627418 -22.85058999999999 Q43.590672 -21.818577999999995 43.590672 -20.138007999999992 Q43.590672 -18.56158599999999 44.627418 -17.477499999999992 Q45.66416400000001 -16.393413999999993 47.34 -16.393413999999993 Z M43.590672 -30.495999999999995 H51.283422 V-50.123163999999996 H43.590672 V-30.495999999999995 Z M26.827578 -3.8672499999999985 Q26.429922 -3.8672499999999985 26.037 -3.8672499999999985 Q25.644078 -3.8672499999999985 25.644078 -3.8672499999999985 H40.83075 H67.852422 Q68.250078 -3.8672499999999985 68.643 -3.8672499999999985 Q69.035922 -3.8672499999999985 69.035922 -3.8672499999999985 Q69.035922 -3.8672499999999985 68.643 -3.8672499999999985 Q68.250078 -3.8672499999999985 67.852422 -3.8672499999999985 H26.827578 Z"/></g><g id="Thin-S" transform="matrix(1 0 0 1 814.015 696)"><path d="M28.011077999999998 1.8514219999999995 Q24.559991999999998 1.8514219999999995 22.240332000000002 -0.515578000000005 Q19.920672 -2.882577999999995 19.920672 -6.333663999999999 V-53.872491999999994 L38.364335999999994 -72.311422 H66.569508 Q70.025328 -72.311422 72.39232799999999 -69.94442199999999 Q74.759328 -67.577422 74.759328 -64.126336 V-6.333663999999999 Q74.759328 -2.882577999999995 72.39232799999999 -0.515578000000005 Q70.025328 1.8514219999999995 66.569508 1.8514219999999995 H28.011077999999998 Z M28.110491999999997 -3.8672499999999985 H66.569508 Q67.558914 -3.8672499999999985 68.297418 -4.60575399999999 Q69.035922 -5.348991999999981 69.035922 -6.333663999999999 V-64.126336 Q69.035922 -65.111008 68.297418 -65.85424599999999 Q67.558914 -66.59275 66.569508 -66.59275 H40.83075 L25.644078 -51.406077999999994 V-6.333663999999999 Q25.644078 -5.348991999999981 26.382582000000003 -4.60575399999999 Q27.121086000000002 -3.8672499999999985 28.110491999999997 -3.8672499999999985 Z M47.34 -17.969835999999987 Q48.722328 -17.969835999999987 49.607586 -18.859827999999993 Q50.497578 -19.745085999999986 50.497578 -21.02799999999999 Q50.497578 -22.310913999999997 49.65966 -23.248245999999988 Q48.817007999999994 -24.185577999999992 47.34 -24.185577999999992 Q45.957672 -24.185577999999992 45.072414 -23.295585999999993 Q44.182422 -22.410327999999993 44.182422 -21.127413999999995 Q44.182422 -19.844499999999996 45.02034 -18.90716799999999 Q45.862992000000006 -17.969835999999987 47.34 -17.969835999999987 Z M44.580078 -29.60600799999999 H50.29875 V-48.542007999999996 H44.580078 V-29.60600799999999 Z M28.110491999999997 -3.8672499999999985 Q27.121086000000002 -3.8672499999999985 26.382582000000003 -3.8672499999999985 Q25.644078 -3.8672499999999985 25.644078 -3.8672499999999985 H40.83075 H66.569508 Q67.558914 -3.8672499999999985 68.297418 -3.8672499999999985 Q69.035922 -3.8672499999999985 69.035922 -3.8672499999999985 Q69.035922 -3.8672499999999985 68.297418 -3.8672499999999985 Q67.558914 -3.8672499999999985 66.569508 -3.8672499999999985 H28.110491999999997 Z"/></g><g id="Ultralight-S" transform="matrix(1 0 0 1 517.792 696)"><path d="M28.796922000000002 0.6679220000000043 Q25.44525 0.6679220000000043 23.277078 -1.5475899999999996 Q21.104172000000002 -3.7678359999999884 21.104172000000002 -7.024827999999999 V-53.37542199999999 L38.856672 -71.127922 H65.883078 Q69.135336 -71.127922 71.355582 -68.91241 Q73.575828 -66.69216399999999 73.575828 -63.435171999999994 V-7.024827999999999 Q73.575828 -3.7678359999999884 71.355582 -1.5475899999999996 Q69.135336 0.6679220000000043 65.883078 0.6679220000000043 H28.796922000000002 Z M28.796922000000002 -3.8672499999999985 H65.883078 Q67.06657799999999 -3.8672499999999985 68.05125 -4.851921999999988 Q69.035922 -5.841328000000004 69.035922 -7.024827999999999 V-63.435171999999994 Q69.035922 -64.61867199999999 68.05125 -65.60807799999999 Q67.06657799999999 -66.59275 65.883078 -66.59275 H40.83075 L25.644078 -51.406077999999994 V-7.024827999999999 Q25.644078 -5.841328000000004 26.62875 -4.851921999999988 Q27.613422 -3.8672499999999985 28.796922000000002 -3.8672499999999985 Z M47.34 -18.859827999999993 Q48.622914 -18.859827999999993 49.361418 -19.697745999999988 Q50.099922 -20.535663999999997 50.099922 -21.619749999999996 Q50.099922 -22.70383599999999 49.361418 -23.541753999999997 Q48.622914 -24.379671999999992 47.34 -24.379671999999992 Q46.057086 -24.379671999999992 45.318582 -23.541753999999997 Q44.580078 -22.70383599999999 44.580078 -21.619749999999996 Q44.580078 -20.535663999999997 45.318582 -19.697745999999988 Q46.057086 -18.859827999999993 47.34 -18.859827999999993 Z M45.171828 -29.113671999999994 H49.707 V-47.656749999999995 H45.171828 V-29.113671999999994 Z M28.796922000000002 -3.8672499999999985 Q27.613422 -3.8672499999999985 26.62875 -3.8672499999999985 Q25.644078 -3.8672499999999985 25.644078 -3.8672499999999985 H40.83075 H65.883078 Q67.06657799999999 -3.8672499999999985 68.05125 -3.8672499999999985 Q69.035922 -3.8672499999999985 69.035922 -3.8672499999999985 Q69.035922 -3.8672499999999985 68.05125 -3.8672499999999985 Q67.06657799999999 -3.8672499999999985 65.883078 -3.8672499999999985 H28.796922000000002 Z"/></g></g></svg>