<svg xmlns="http://www.w3.org/2000/svg" version="1.1" width="3300" height="2000"><g id="Notes"><style>
    text {
      font-family: monospace;
      text-anchor: middle;
    }
    text.emphasis {
      font-weight:bold;
    }
    text.lanchor {
      text-anchor: start;
    }
  </style><rect height="2200" id="artboard" fill="white" width="3300" x="0" y="0"/><line id="" style="fill:none;stroke:black;stroke-width:0.5;" x1="263" x2="3036" y1="292" y2="292"/><text class="lanchor emphasis" transform="matrix(1 0 0 1 263 322)">Weight/Scale Variations</text><text transform="matrix(1 0 0 1 559.711 322)">Ultralight</text><text transform="matrix(1 0 0 1 856.422 322)">Thin</text><text transform="matrix(1 0 0 1 1153.13 322)">Light</text><text transform="matrix(1 0 0 1 1449.84 322)">Regular</text><text transform="matrix(1 0 0 1 1746.56 322)">Medium</text><text transform="matrix(1 0 0 1 2043.27 322)">Semibold</text><text transform="matrix(1 0 0 1 2339.98 322)">Bold</text><text transform="matrix(1 0 0 1 2636.69 322)">Heavy</text><text transform="matrix(1 0 0 1 2933.4 322)">Black</text><text id="template-version" style="text-anchor: end;" transform="matrix(1 0 0 1 3036 1933)">Template v.1.0</text><text class="lanchor" transform="matrix(1 0 0 1 263 726)">Small</text><text class="lanchor" transform="matrix(1 0 0 1 263 1156)">Medium</text><text class="lanchor" transform="matrix(1 0 0 1 263 1586)">Large</text></g><g id="Guides"><g id="H-reference" style="fill:#27AAE1;stroke:none;" transform="matrix(1 0 0 1 339 696)"><path d="M 54.9316 0 L 57.666 0 L 30.5664 -70.459 L 28.0762 -70.459 L 0.976562 0 L 3.66211 0 L 12.9395 -24.4629 L 45.7031 -24.4629 Z M 29.1992 -67.0898 L 29.4434 -67.0898 L 44.8242 -26.709 L 13.8184 -26.709 Z"/></g><line id="Baseline-S" style="fill:none;stroke:#27AAE1;opacity:1;stroke-width:0.577;" x1="263" x2="3036" y1="696" y2="696"/><line id="Capline-S" style="fill:none;stroke:#27AAE1;opacity:1;stroke-width:0.577;" x1="263" x2="3036" y1="625.541" y2="625.541"/><g id="H-reference" style="fill:#27AAE1;stroke:none;" transform="matrix(1 0 0 1 339 1126)"><path d="M 54.9316 0 L 57.666 0 L 30.5664 -70.459 L 28.0762 -70.459 L 0.976562 0 L 3.66211 0 L 12.9395 -24.4629 L 45.7031 -24.4629 Z M 29.1992 -67.0898 L 29.4434 -67.0898 L 44.8242 -26.709 L 13.8184 -26.709 Z"/></g><line id="Baseline-M" style="fill:none;stroke:#27AAE1;opacity:1;stroke-width:0.577;" x1="263" x2="3036" y1="1126" y2="1126"/><line id="Capline-M" style="fill:none;stroke:#27AAE1;opacity:1;stroke-width:0.577;" x1="263" x2="3036" y1="1055.54" y2="1055.54"/><g id="H-reference" style="fill:#27AAE1;stroke:none;" transform="matrix(1 0 0 1 339 1556)"><path d="M 54.9316 0 L 57.666 0 L 30.5664 -70.459 L 28.0762 -70.459 L 0.976562 0 L 3.66211 0 L 12.9395 -24.4629 L 45.7031 -24.4629 Z M 29.1992 -67.0898 L 29.4434 -67.0898 L 44.8242 -26.709 L 13.8184 -26.709 Z"/></g><line id="Baseline-L" style="fill:none;stroke:#27AAE1;opacity:1;stroke-width:0.577;" x1="263" x2="3036" y1="1556" y2="1556"/><line id="Capline-L" style="fill:none;stroke:#27AAE1;opacity:1;stroke-width:0.577;" x1="263" x2="3036" y1="1485.54" y2="1485.54"/><rect height="119.336" id="left-margin" style="fill:darkred;stroke:none;opacity:0.4;" width="12.4512" x="1394.06" y="1030.79"/><rect height="119.336" id="right-margin" style="fill:darkgreen;stroke:none;opacity:0.4;" width="12.4512" x="1502.5112" y="1030.79"/><rect x="1406.5112" y="1045" width="96" height="96" fill="none" stroke="blue" stroke-dasharray="5"/><rect x="1394.06" y="1030.79" width="120.9024" height="119.336" fill="none" stroke="blue"/></g><g id="Symbols"><g id="Bold-L" transform="matrix(1 0 0 1 2266 1556)"><path d="M101.74875 -27.32875 H137.0625 V-49.74249999999999 H101.74875 V-27.32875 Z M103.2 -15.879999999999995  96.75 -9.429999999999993 Q94.97625000000001 -7.65625 92.638125 -8.543125000000003 Q90.3 -9.429999999999993 90.3 -11.848749999999995 V-53.77374999999999 Q90.3 -56.67624999999999 92.476875 -58.85312499999999 Q94.65375 -61.029999999999994 97.7175 -61.029999999999994 H141.09375 Q143.99625 -61.029999999999994 146.17312500000003 -58.85312499999999 Q148.35 -56.67624999999999 148.35 -53.77374999999999 V-23.2975 Q148.35 -20.23375 146.17312500000003 -18.05687499999999 Q143.99625 -15.879999999999995 141.09375 -15.879999999999995 H103.2 Z M43.698750000000004 38.783750000000026 Q37.7325 38.783750000000026 33.37875 34.43000000000001 Q29.025000000000002 30.076250000000016 29.025000000000002 24.110000000000014 V-94.57 Q29.025000000000002 -100.53625 33.37875 -104.89 Q37.7325 -109.24374999999999 43.698750000000004 -109.24374999999999 H111.10125000000001 Q117.0675 -109.24374999999999 121.42125 -104.89 Q125.775 -100.53625 125.775 -94.57 V-72.80125 H111.10125000000001 V-80.38 H43.698750000000004 V9.920000000000002 H111.10125000000001 V2.3412500000000023 H125.775 V24.110000000000014 Q125.775 30.076250000000016 121.42125 34.43000000000001 Q117.0675 38.783750000000026 111.10125000000001 38.783750000000026 H43.698750000000004 Z M43.698750000000004 19.111250000000013 V24.110000000000014 Q43.698750000000004 24.110000000000014 43.698750000000004 24.110000000000014 Q43.698750000000004 24.110000000000014 43.698750000000004 24.110000000000014 H111.10125000000001 Q111.10125000000001 24.110000000000014 111.10125000000001 24.110000000000014 Q111.10125000000001 24.110000000000014 111.10125000000001 24.110000000000014 V19.111250000000013 H43.698750000000004 Z M43.698750000000004 -89.57124999999999 H111.10125000000001 V-94.57 Q111.10125000000001 -94.57 111.10125000000001 -94.57 Q111.10125000000001 -94.57 111.10125000000001 -94.57 H43.698750000000004 Q43.698750000000004 -94.57 43.698750000000004 -94.57 Q43.698750000000004 -94.57 43.698750000000004 -94.57 V-89.57124999999999 Z"/></g><g id="Semibold-L" transform="matrix(1 0 0 1 1970.27 1556)"><path d="M101.91000000000001 -27.489999999999995 H136.90125 V-49.58124999999999 H101.91000000000001 V-27.489999999999995 Z M103.2 -15.879999999999995  96.26625000000001 -8.946249999999992 Q94.4925 -7.172499999999985 92.39625 -8.059375000000003 Q90.3 -8.946249999999992 90.3 -11.04249999999999 V-54.41874999999999 Q90.3 -57.16 92.23500000000001 -59.09499999999999 Q94.17 -61.029999999999994 97.0725 -61.029999999999994 H141.73875 Q144.48 -61.029999999999994 146.415 -59.09499999999999 Q148.35 -57.16 148.35 -54.41874999999999 V-22.652500000000003 Q148.35 -19.749999999999986 146.415 -17.814999999999998 Q144.48 -15.879999999999995 141.73875 -15.879999999999995 H103.2 Z M42.73125 38.6225 Q37.24875 38.6225 33.298125 34.671875 Q29.3475 30.721250000000026 29.3475 25.23875000000001 V-95.69874999999999 Q29.3475 -101.18124999999999 33.298125 -105.131875 Q37.24875 -109.0825 42.73125 -109.0825 H112.06875000000001 Q117.55125000000001 -109.0825 121.501875 -105.131875 Q125.4525 -101.18124999999999 125.4525 -95.69874999999999 V-73.285 H112.06875000000001 V-80.86375 H42.73125 V10.403750000000002 H112.06875000000001 V2.825000000000003 H125.4525 V25.23875000000001 Q125.4525 30.721250000000026 121.501875 34.671875 Q117.55125000000001 38.6225 112.06875000000001 38.6225 H42.73125 Z M42.73125 20.723750000000024 V25.23875000000001 Q42.73125 25.23875000000001 42.73125 25.23875000000001 Q42.73125 25.23875000000001 42.73125 25.23875000000001 H112.06875000000001 Q112.06875000000001 25.23875000000001 112.06875000000001 25.23875000000001 Q112.06875000000001 25.23875000000001 112.06875000000001 25.23875000000001 V20.723750000000024 H42.73125 Z M42.73125 -91.18374999999999 H112.06875000000001 V-95.69874999999999 Q112.06875000000001 -95.69874999999999 112.06875000000001 -95.69874999999999 Q112.06875000000001 -95.69874999999999 112.06875000000001 -95.69874999999999 H42.73125 Q42.73125 -95.69874999999999 42.73125 -95.69874999999999 Q42.73125 -95.69874999999999 42.73125 -95.69874999999999 V-91.18374999999999 Z"/></g><g id="Medium-L" transform="matrix(1 0 0 1 1674.31 1556)"><path d="M102.07124999999999 -27.65124999999999 H136.74 V-49.41999999999999 H102.07124999999999 V-27.65124999999999 Z M103.2 -15.879999999999995  95.7825 -8.462500000000006 Q94.17 -6.8500000000000085 92.23500000000001 -7.65625 Q90.3 -8.462500000000006 90.3 -10.558750000000003 V-54.902499999999996 Q90.3 -57.32125 92.154375 -59.175625 Q94.00874999999999 -61.029999999999994 96.58875 -61.029999999999994 H142.2225 Q144.64125 -61.029999999999994 146.495625 -59.175625 Q148.35 -57.32125 148.35 -54.902499999999996 V-22.16874999999999 Q148.35 -19.58874999999999 146.495625 -17.734374999999986 Q144.64125 -15.879999999999995 142.2225 -15.879999999999995 H103.2 Z M42.08625000000001 38.46125000000001 Q36.926249999999996 38.46125000000001 33.298125 34.833125000000024 Q29.669999999999998 31.205000000000013 29.669999999999998 26.045000000000016 V-96.505 Q29.669999999999998 -101.66499999999999 33.298125 -105.29312499999999 Q36.926249999999996 -108.92125 42.08625000000001 -108.92125 H112.71375000000002 Q117.87375 -108.92125 121.501875 -105.29312499999999 Q125.13 -101.66499999999999 125.13 -96.505 V-73.60749999999999 H112.71375000000002 V-81.18625 H42.08625000000001 V10.726250000000007 H112.71375000000002 V3.147500000000008 H125.13 V26.045000000000016 Q125.13 31.205000000000013 121.501875 34.833125000000024 Q117.87375 38.46125000000001 112.71375000000002 38.46125000000001 H42.08625000000001 Z M42.08625000000001 21.85250000000002 V26.045000000000016 Q42.08625000000001 26.045000000000016 42.08625000000001 26.045000000000016 Q42.08625000000001 26.045000000000016 42.08625000000001 26.045000000000016 H112.71375000000002 Q112.71375000000002 26.045000000000016 112.71375000000002 26.045000000000016 Q112.71375000000002 26.045000000000016 112.71375000000002 26.045000000000016 V21.85250000000002 H42.08625000000001 Z M42.08625000000001 -92.3125 H112.71375000000002 V-96.505 Q112.71375000000002 -96.505 112.71375000000002 -96.505 Q112.71375000000002 -96.505 112.71375000000002 -96.505 H42.08625000000001 Q42.08625000000001 -96.505 42.08625000000001 -96.505 Q42.08625000000001 -96.505 42.08625000000001 -96.505 V-92.3125 Z"/></g><g id="Regular-L" transform="matrix(1 0 0 1 1378.56 1556)"><path d="M102.07124999999999 -27.65124999999999 H136.57875 V-49.25875 H102.07124999999999 V-27.65124999999999 Z M103.2 -15.879999999999995  95.46000000000001 -8.14 Q94.00874999999999 -6.688749999999985 92.154375 -7.414374999999993 Q90.3 -8.14 90.3 -10.074999999999989 V-55.224999999999994 Q90.3 -57.64374999999999 91.99312499999999 -59.336875 Q93.68625 -61.029999999999994 96.26625000000001 -61.029999999999994 H142.54500000000002 Q144.96375 -61.029999999999994 146.656875 -59.336875 Q148.35 -57.64374999999999 148.35 -55.224999999999994 V-21.846249999999998 Q148.35 -19.26625 146.656875 -17.57312499999999 Q144.96375 -15.879999999999995 142.54500000000002 -15.879999999999995 H103.2 Z M41.6025 38.46125000000001 Q36.60375 38.46125000000001 33.2175 35.07499999999999 Q29.83125 31.68875 29.83125 26.690000000000026 V-97.14999999999999 Q29.83125 -102.14874999999999 33.2175 -105.535 Q36.60375 -108.92125 41.6025 -108.92125 H113.1975 Q118.19624999999999 -108.92125 121.58250000000001 -105.535 Q124.96875 -102.14874999999999 124.96875 -97.14999999999999 V-73.92999999999999 H113.1975 V-81.3475 H41.6025 V10.887500000000003 H113.1975 V3.470000000000013 H124.96875 V26.690000000000026 Q124.96875 31.68875 121.58250000000001 35.07499999999999 Q118.19624999999999 38.46125000000001 113.1975 38.46125000000001 H41.6025 Z M41.6025 22.658750000000026 V26.690000000000026 Q41.6025 26.690000000000026 41.6025 26.690000000000026 Q41.6025 26.690000000000026 41.6025 26.690000000000026 H113.1975 Q113.1975 26.690000000000026 113.1975 26.690000000000026 Q113.1975 26.690000000000026 113.1975 26.690000000000026 V22.658750000000026 H41.6025 Z M41.6025 -93.11874999999999 H113.1975 V-97.14999999999999 Q113.1975 -97.14999999999999 113.1975 -97.14999999999999 Q113.1975 -97.14999999999999 113.1975 -97.14999999999999 H41.6025 Q41.6025 -97.14999999999999 41.6025 -97.14999999999999 Q41.6025 -97.14999999999999 41.6025 -97.14999999999999 V-93.11874999999999 Z"/></g><g id="Light-L" transform="matrix(1 0 0 1 1082.77 1556)"><path d="M100.13625 -26.36125 H134.96625 V-49.41999999999999 H100.13625 V-26.36125 Z M101.91000000000001 -16.847499999999997  95.7825 -10.719999999999985 Q94.33125 -9.268749999999997 92.476875 -9.994374999999991 Q90.6225 -10.719999999999985 90.6225 -12.493749999999991 V-53.12875 Q90.6225 -55.5475 92.315625 -57.16 Q94.00874999999999 -58.772499999999994 96.4275 -58.772499999999994 H138.83625 Q141.09375 -58.772499999999994 142.70625 -57.16 Q144.31875 -55.5475 144.31875 -53.12875 V-22.652500000000003 Q144.31875 -20.23375 142.70625 -18.54062499999999 Q141.09375 -16.847499999999997 138.83625 -16.847499999999997 H101.91000000000001 Z M44.505 35.23625000000001 Q39.667500000000004 35.23625000000001 36.361875000000005 31.93062500000002 Q33.05625 28.625 33.05625 23.787499999999994 V-94.2475 Q33.05625 -99.085 36.361875000000005 -102.390625 Q39.667500000000004 -105.69624999999999 44.505 -105.69624999999999 H110.29500000000002 Q115.13250000000001 -105.69624999999999 118.43812500000001 -102.390625 Q121.74375 -99.085 121.74375 -94.2475 V-72.63999999999999 H112.39125000000001 V-80.86375 H42.408750000000005 V10.403750000000002 H112.39125000000001 V2.180000000000007 H121.74375 V23.787499999999994 Q121.74375 28.625 118.43812500000001 31.93062500000002 Q115.13250000000001 35.23625000000001 110.29500000000002 35.23625000000001 H44.505 Z M42.408750000000005 19.756249999999994 V23.787499999999994 Q42.408750000000005 24.59375 43.05375 25.23875000000001 Q43.698750000000004 25.88375000000002 44.505 25.88375000000002 H110.29500000000002 Q111.10125000000001 25.88375000000002 111.74625 25.23875000000001 Q112.39125000000001 24.59375 112.39125000000001 23.787499999999994 V19.756249999999994 H42.408750000000005 Z M42.408750000000005 -90.21625 H112.39125000000001 V-94.2475 Q112.39125000000001 -95.05375 111.74625 -95.69874999999999 Q111.10125000000001 -96.34375 110.29500000000002 -96.34375 H44.505 Q43.698750000000004 -96.34375 43.05375 -95.69874999999999 Q42.408750000000005 -95.05375 42.408750000000005 -94.2475 V-90.21625 Z"/></g><g id="Thin-L" transform="matrix(1 0 0 1 787.282 1556)"><path d="M98.03999999999999 -24.909999999999997 H133.35375000000002 V-49.58124999999999 H98.03999999999999 V-24.909999999999997 Z M100.62 -17.814999999999998  95.94375000000001 -13.299999999999997 Q94.65375 -11.848749999999995 92.88000000000001 -12.574375000000003 Q91.10625 -13.299999999999997 91.10625 -14.912499999999994 V-51.193749999999994 Q91.10625 -53.45124999999999 92.638125 -54.983124999999994 Q94.17 -56.515 96.58875 -56.515 H134.96625 Q137.22375 -56.515 138.83625 -54.983124999999994 Q140.44875 -53.45124999999999 140.44875 -51.193749999999994 V-23.458749999999995 Q140.44875 -21.039999999999992 138.83625 -19.427499999999995 Q137.22375 -17.814999999999998 134.96625 -17.814999999999998 H100.62 Z M47.24625 32.01125000000002 Q42.73125 32.01125000000002 39.50625 28.786250000000024 Q36.28125 25.56125 36.28125 21.046250000000015 V-91.50625 Q36.28125 -96.02125 39.50625 -99.24624999999999 Q42.73125 -102.47125 47.24625 -102.47125 H107.55375000000001 Q112.06875000000001 -102.47125 115.29375 -99.24624999999999 Q118.51875 -96.02125 118.51875 -91.50625 V-71.51124999999999 H111.42375 V-80.21875 H43.37625 V9.75875000000002 H111.42375 V1.0512500000000102 H118.51875 V21.046250000000015 Q118.51875 25.56125 115.29375 28.786250000000024 Q112.06875000000001 32.01125000000002 107.55375000000001 32.01125000000002 H47.24625 Z M43.37625 16.85374999999999 V21.046250000000015 Q43.37625 22.497500000000002 44.585625 23.706874999999997 Q45.795 24.91624999999999 47.24625 24.91624999999999 H107.55375000000001 Q109.005 24.91624999999999 110.21437499999999 23.706874999999997 Q111.42375 22.497500000000002 111.42375 21.046250000000015 V16.85374999999999 H43.37625 Z M43.37625 -87.31375 H111.42375 V-91.50625 Q111.42375 -92.9575 110.21437499999999 -94.166875 Q109.005 -95.37625 107.55375000000001 -95.37625 H47.24625 Q45.795 -95.37625 44.585625 -94.166875 Q43.37625 -92.9575 43.37625 -91.50625 V-87.31375 Z"/></g><g id="Ultralight-L" transform="matrix(1 0 0 1 491.205 1556)"><path d="M96.91125000000001 -24.10374999999999 H132.38625 V-49.58124999999999 H96.91125000000001 V-24.10374999999999 Z M99.81375 -18.459999999999994  96.105 -14.751249999999985 Q94.815 -13.461249999999993 93.04125 -14.106249999999989 Q91.2675 -14.751249999999985 91.2675 -16.363749999999982 V-49.903749999999995 Q91.2675 -52.161249999999995 92.799375 -53.693124999999995 Q94.33125 -55.224999999999994 96.75 -55.224999999999994 H132.70875 Q134.96625 -55.224999999999994 136.49812500000002 -53.693124999999995 Q138.03 -52.161249999999995 138.03 -49.903749999999995 V-23.942499999999995 Q138.03 -21.523749999999993 136.49812500000002 -19.991874999999993 Q134.96625 -18.459999999999994 132.70875 -18.459999999999994 H99.81375 Z M49.019999999999996 30.076250000000016 Q44.505 30.076250000000016 41.360625 26.93187499999999 Q38.21625 23.787499999999994 38.21625 19.272500000000008 V-89.73249999999999 Q38.21625 -94.2475 41.360625 -97.391875 Q44.505 -100.53625 49.019999999999996 -100.53625 H105.77999999999999 Q110.29500000000002 -100.53625 113.439375 -97.391875 Q116.58375 -94.2475 116.58375 -89.73249999999999 V-70.70499999999998 H110.94 V-79.89625 H43.86 V9.436250000000015 H110.94 V0.24500000000000455 H116.58375 V19.272500000000008 Q116.58375 23.787499999999994 113.439375 26.93187499999999 Q110.29500000000002 30.076250000000016 105.77999999999999 30.076250000000016 H49.019999999999996 Z M43.86 15.080000000000013 V19.272500000000008 Q43.86 21.20750000000001 45.4725 22.82000000000002 Q47.085 24.432500000000005 49.019999999999996 24.432500000000005 H105.77999999999999 Q107.715 24.432500000000005 109.3275 22.82000000000002 Q110.94 21.20750000000001 110.94 19.272500000000008 V15.080000000000013 H43.86 Z M43.86 -85.53999999999999 H110.94 V-89.73249999999999 Q110.94 -91.66749999999999 109.3275 -93.28 Q107.715 -94.8925 105.77999999999999 -94.8925 H49.019999999999996 Q47.085 -94.8925 45.4725 -93.28 Q43.86 -91.66749999999999 43.86 -89.73249999999999 V-85.53999999999999 Z"/></g><g id="Bold-M" transform="matrix(1 0 0 1 2281.8 1126)"><path d="M83.5 -33.72999999999999 H101.5 V-41.72999999999999 H83.5 V-33.72999999999999 Z M80.0 -20.22999999999999  77.25 -17.47999999999999 Q75.25 -15.47999999999999 72.625 -16.539999999999992 Q70.0 -17.60499999999999 70.0 -20.47999999999999 V-46.72999999999999 Q70.0 -50.22999999999999 72.5 -52.72999999999999 Q75.0 -55.22999999999999 78.5 -55.22999999999999 H106.5 Q110.0 -55.22999999999999 112.5 -52.72999999999999 Q115.0 -50.22999999999999 115.0 -46.72999999999999 V-28.72999999999999 Q115.0 -25.22999999999999 112.5 -22.72999999999999 Q110.0 -20.22999999999999 106.5 -20.22999999999999 H80.0 Z M36.625 25.27000000000001 Q29.625 25.27000000000001 24.625 20.27000000000001 Q19.625 15.27000000000001 19.625 8.27000000000001 V-78.72999999999999 Q19.625 -85.72999999999999 24.625 -90.72999999999999 Q29.625 -95.72999999999999 36.625 -95.72999999999999 H83.375 Q90.375 -95.72999999999999 95.375 -90.72999999999999 Q100.375 -85.72999999999999 100.375 -78.72999999999999 V-60.85499999999999 H83.375 V-62.97999999999999 H36.625 V-7.47999999999999 H83.375 V-9.60499999999999 H100.375 V8.27000000000001 Q100.375 15.27000000000001 95.375 20.27000000000001 Q90.375 25.27000000000001 83.375 25.27000000000001 H36.625 Z M36.625 3.7700000000000102 V8.27000000000001 Q36.625 8.27000000000001 36.625 8.27000000000001 Q36.625 8.27000000000001 36.625 8.27000000000001 H83.375 Q83.375 8.27000000000001 83.375 8.27000000000001 Q83.375 8.27000000000001 83.375 8.27000000000001 V3.7700000000000102 H36.625 Z M36.625 -74.22999999999999 H83.375 V-78.72999999999999 Q83.375 -78.72999999999999 83.375 -78.72999999999999 Q83.375 -78.72999999999999 83.375 -78.72999999999999 H36.625 Q36.625 -78.72999999999999 36.625 -78.72999999999999 Q36.625 -78.72999999999999 36.625 -78.72999999999999 V-74.22999999999999 Z"/></g><g id="Semibold-M" transform="matrix(1 0 0 1 1985.97 1126)"><path d="M83.375 -33.60499999999999 H101.625 V-41.85499999999999 H83.375 V-33.60499999999999 Z M80.0 -20.22999999999999  76.5 -16.72999999999999 Q74.75 -14.97999999999999 72.375 -15.914999999999992 Q70.0 -16.85499999999999 70.0 -19.47999999999999 V-47.60499999999999 Q70.0 -50.72999999999999 72.25 -52.97999999999999 Q74.5 -55.22999999999999 77.625 -55.22999999999999 H107.375 Q110.5 -55.22999999999999 112.75 -52.97999999999999 Q115.0 -50.72999999999999 115.0 -47.60499999999999 V-27.85499999999999 Q115.0 -24.72999999999999 112.75 -22.47999999999999 Q110.5 -20.22999999999999 107.375 -20.22999999999999 H80.0 Z M35.75 24.77000000000001 Q29.25 24.77000000000001 24.815 20.27000000000001 Q20.375 15.77000000000001 20.375 9.39500000000001 V-79.85499999999999 Q20.375 -86.22999999999999 24.815 -90.72999999999999 Q29.25 -95.22999999999999 35.75 -95.22999999999999 H84.25 Q90.75 -95.22999999999999 95.19 -90.72999999999999 Q99.625 -86.22999999999999 99.625 -79.85499999999999 V-61.22999999999999 H84.25 V-63.47999999999999 H35.75 V-6.97999999999999 H84.25 V-9.22999999999999 H99.625 V9.39500000000001 Q99.625 15.77000000000001 95.19 20.27000000000001 Q90.75 24.77000000000001 84.25 24.77000000000001 H35.75 Z M35.75 5.14500000000001 V9.39500000000001 Q35.75 9.39500000000001 35.75 9.39500000000001 Q35.75 9.39500000000001 35.75 9.39500000000001 H84.25 Q84.25 9.39500000000001 84.25 9.39500000000001 Q84.25 9.39500000000001 84.25 9.39500000000001 V5.14500000000001 H35.75 Z M35.75 -75.60499999999999 H84.25 V-79.85499999999999 Q84.25 -79.85499999999999 84.25 -79.85499999999999 Q84.25 -79.85499999999999 84.25 -79.85499999999999 H35.75 Q35.75 -79.85499999999999 35.75 -79.85499999999999 Q35.75 -79.85499999999999 35.75 -79.85499999999999 V-75.60499999999999 Z"/></g><g id="Medium-M" transform="matrix(1 0 0 1 1689.91 1126)"><path d="M83.25 -33.47999999999999 H101.75 V-41.97999999999999 H83.25 V-33.47999999999999 Z M80.0 -20.22999999999999  76.0 -16.22999999999999 Q74.25 -14.47999999999999 72.125 -15.419999999999987 Q70.0 -16.35499999999999 70.0 -18.72999999999999 V-48.10499999999999 Q70.0 -51.10499999999999 72.065 -53.16999999999999 Q74.125 -55.22999999999999 77.125 -55.22999999999999 H107.875 Q110.875 -55.22999999999999 112.935 -53.16999999999999 Q115.0 -51.10499999999999 115.0 -48.10499999999999 V-27.35499999999999 Q115.0 -24.35499999999999 112.935 -22.294999999999987 Q110.875 -20.22999999999999 107.875 -20.22999999999999 H80.0 Z M35.0 24.27000000000001 Q29.0 24.27000000000001 24.94 20.205000000000013 Q20.875 16.14500000000001 20.875 10.14500000000001 V-80.60499999999999 Q20.875 -86.60499999999999 24.94 -90.66999999999999 Q29.0 -94.72999999999999 35.0 -94.72999999999999 H85.0 Q91.0 -94.72999999999999 95.06500000000001 -90.66999999999999 Q99.125 -86.60499999999999 99.125 -80.60499999999999 V-61.47999999999999 H85.0 V-63.97999999999999 H35.0 V-6.47999999999999 H85.0 V-8.97999999999999 H99.125 V10.14500000000001 Q99.125 16.14500000000001 95.06500000000001 20.205000000000013 Q91.0 24.27000000000001 85.0 24.27000000000001 H35.0 Z M35.0 6.27000000000001 V10.14500000000001 Q35.0 10.14500000000001 35.0 10.14500000000001 Q35.0 10.14500000000001 35.0 10.14500000000001 H85.0 Q85.0 10.14500000000001 85.0 10.14500000000001 Q85.0 10.14500000000001 85.0 10.14500000000001 V6.27000000000001 H35.0 Z M35.0 -76.72999999999999 H85.0 V-80.60499999999999 Q85.0 -80.60499999999999 85.0 -80.60499999999999 Q85.0 -80.60499999999999 85.0 -80.60499999999999 H35.0 Q35.0 -80.60499999999999 35.0 -80.60499999999999 Q35.0 -80.60499999999999 35.0 -80.60499999999999 V-76.72999999999999 Z"/></g><g id="Regular-M" transform="matrix(1 0 0 1 1394.06 1126)"><path d="M83.25 -33.47999999999999 H101.75 V-41.97999999999999 H83.25 V-33.47999999999999 Z M80.0 -20.22999999999999  75.625 -15.85499999999999 Q74.0 -14.22999999999999 72.0 -15.10499999999999 Q70.0 -15.97999999999999 70.0 -18.22999999999999 V-48.60499999999999 Q70.0 -51.35499999999999 71.935 -53.29499999999999 Q73.875 -55.22999999999999 76.625 -55.22999999999999 H108.375 Q111.125 -55.22999999999999 113.065 -53.29499999999999 Q115.0 -51.35499999999999 115.0 -48.60499999999999 V-26.85499999999999 Q115.0 -24.10499999999999 113.065 -22.164999999999992 Q111.125 -20.22999999999999 108.375 -20.22999999999999 H80.0 Z M34.5 24.02000000000001 Q28.875 24.02000000000001 25.064999999999998 20.205000000000013 Q21.25 16.39500000000001 21.25 10.77000000000001 V-81.22999999999999 Q21.25 -86.85499999999999 25.064999999999998 -90.66999999999999 Q28.875 -94.47999999999999 34.5 -94.47999999999999 H85.5 Q91.125 -94.47999999999999 94.94 -90.66999999999999 Q98.75 -86.85499999999999 98.75 -81.22999999999999 V-61.72999999999999 H85.5 V-64.22999999999999 H34.5 V-6.22999999999999 H85.5 V-8.72999999999999 H98.75 V10.77000000000001 Q98.75 16.39500000000001 94.94 20.205000000000013 Q91.125 24.02000000000001 85.5 24.02000000000001 H34.5 Z M34.5 7.02000000000001 V10.77000000000001 Q34.5 10.77000000000001 34.5 10.77000000000001 Q34.5 10.77000000000001 34.5 10.77000000000001 H85.5 Q85.5 10.77000000000001 85.5 10.77000000000001 Q85.5 10.77000000000001 85.5 10.77000000000001 V7.02000000000001 H34.5 Z M34.5 -77.47999999999999 H85.5 V-81.22999999999999 Q85.5 -81.22999999999999 85.5 -81.22999999999999 Q85.5 -81.22999999999999 85.5 -81.22999999999999 H34.5 Q34.5 -81.22999999999999 34.5 -81.22999999999999 Q34.5 -81.22999999999999 34.5 -81.22999999999999 V-77.47999999999999 Z"/></g><g id="Light-M" transform="matrix(1 0 0 1 1098.18 1126)"><path d="M81.0 -31.72999999999999 H101.125 V-42.72999999999999 H81.0 V-31.72999999999999 Z M79.0 -20.97999999999999  75.5 -17.47999999999999 Q74.0 -16.10499999999999 72.125 -16.85499999999999 Q70.25 -17.60499999999999 70.25 -19.72999999999999 V-47.35499999999999 Q70.25 -49.85499999999999 72.065 -51.66999999999999 Q73.875 -53.47999999999999 76.375 -53.47999999999999 H105.75 Q108.375 -53.47999999999999 110.125 -51.66999999999999 Q111.875 -49.85499999999999 111.875 -47.35499999999999 V-27.10499999999999 Q111.875 -24.60499999999999 110.125 -22.789999999999992 Q108.375 -20.97999999999999 105.75 -20.97999999999999 H79.0 Z M36.0 21.52000000000001 Q30.75 21.52000000000001 27.25 18.02000000000001 Q23.75 14.52000000000001 23.75 9.27000000000001 V-79.72999999999999 Q23.75 -84.97999999999999 27.25 -88.47999999999999 Q30.75 -91.97999999999999 36.0 -91.97999999999999 H84.0 Q89.25 -91.97999999999999 92.75 -88.47999999999999 Q96.25 -84.97999999999999 96.25 -79.72999999999999 V-61.97999999999999 H85.5 V-65.47999999999999 H34.5 V-4.97999999999999 H85.5 V-8.47999999999999 H96.25 V9.27000000000001 Q96.25 14.52000000000001 92.75 18.02000000000001 Q89.25 21.52000000000001 84.0 21.52000000000001 H36.0 Z M34.5 5.77000000000001 V9.27000000000001 Q34.5 9.77000000000001 35.0 10.27000000000001 Q35.5 10.77000000000001 36.0 10.77000000000001 H84.0 Q84.5 10.77000000000001 85.0 10.27000000000001 Q85.5 9.77000000000001 85.5 9.27000000000001 V5.77000000000001 H34.5 Z M34.5 -76.22999999999999 H85.5 V-79.72999999999999 Q85.5 -80.22999999999999 85.0 -80.72999999999999 Q84.5 -81.22999999999999 84.0 -81.22999999999999 H36.0 Q35.5 -81.22999999999999 35.0 -80.72999999999999 Q34.5 -80.22999999999999 34.5 -79.72999999999999 V-76.22999999999999 Z"/></g><g id="Thin-M" transform="matrix(1 0 0 1 802.565 1126)"><path d="M78.875 -29.97999999999999 H100.625 V-43.47999999999999 H78.875 V-29.97999999999999 Z M78.0 -21.72999999999999  75.375 -19.22999999999999 Q74.125 -17.85499999999999 72.375 -18.60499999999999 Q70.625 -19.35499999999999 70.625 -21.22999999999999 V-46.10499999999999 Q70.625 -48.47999999999999 72.25 -50.10499999999999 Q73.875 -51.72999999999999 76.25 -51.72999999999999 H103.125 Q105.5 -51.72999999999999 107.19 -50.10499999999999 Q108.875 -48.47999999999999 108.875 -46.10499999999999 V-27.47999999999999 Q108.875 -25.10499999999999 107.19 -23.419999999999987 Q105.5 -21.72999999999999 103.125 -21.72999999999999 H78.0 Z M37.625 19.02000000000001 Q32.75 19.02000000000001 29.5 15.77000000000001 Q26.25 12.52000000000001 26.25 7.64500000000001 V-78.10499999999999 Q26.25 -82.97999999999999 29.5 -86.22999999999999 Q32.75 -89.47999999999999 37.625 -89.47999999999999 H82.375 Q87.25 -89.47999999999999 90.5 -86.22999999999999 Q93.75 -82.97999999999999 93.75 -78.10499999999999 V-62.10499999999999 H85.5 V-66.72999999999999 H34.5 V-3.7299999999999898 H85.5 V-8.35499999999999 H93.75 V7.64500000000001 Q93.75 12.52000000000001 90.5 15.77000000000001 Q87.25 19.02000000000001 82.375 19.02000000000001 H37.625 Z M34.5 4.52000000000001 V7.64500000000001 Q34.5 8.89500000000001 35.44 9.830000000000013 Q36.375 10.77000000000001 37.625 10.77000000000001 H82.375 Q83.625 10.77000000000001 84.565 9.830000000000013 Q85.5 8.89500000000001 85.5 7.64500000000001 V4.52000000000001 H34.5 Z M34.5 -74.97999999999999 H85.5 V-78.10499999999999 Q85.5 -79.35499999999999 84.565 -80.29499999999999 Q83.625 -81.22999999999999 82.375 -81.22999999999999 H37.625 Q36.375 -81.22999999999999 35.44 -80.29499999999999 Q34.5 -79.35499999999999 34.5 -78.10499999999999 V-74.97999999999999 Z"/></g><g id="Ultralight-M" transform="matrix(1 0 0 1 506.415 1126)"><path d="M77.5 -28.97999999999999 H100.25 V-43.97999999999999 H77.5 V-28.97999999999999 Z M77.375 -22.22999999999999  75.375 -20.22999999999999 Q74.125 -18.97999999999999 72.44 -19.664999999999992 Q70.75 -20.35499999999999 70.75 -22.10499999999999 V-45.35499999999999 Q70.75 -47.60499999999999 72.315 -49.16999999999999 Q73.875 -50.72999999999999 76.125 -50.72999999999999 H101.625 Q103.875 -50.72999999999999 105.44 -49.16999999999999 Q107.0 -47.60499999999999 107.0 -45.35499999999999 V-27.60499999999999 Q107.0 -25.35499999999999 105.44 -23.794999999999987 Q103.875 -22.22999999999999 101.625 -22.22999999999999 H77.375 Z M38.5 17.52000000000001 Q33.875 17.52000000000001 30.815 14.460000000000008 Q27.75 11.39500000000001 27.75 6.77000000000001 V-77.22999999999999 Q27.75 -81.85499999999999 30.815 -84.91999999999999 Q33.875 -87.97999999999999 38.5 -87.97999999999999 H81.5 Q86.125 -87.97999999999999 89.185 -84.91999999999999 Q92.25 -81.85499999999999 92.25 -77.22999999999999 V-62.22999999999999 H85.5 V-67.47999999999999 H34.5 V-2.9799999999999898 H85.5 V-8.22999999999999 H92.25 V6.77000000000001 Q92.25 11.39500000000001 89.185 14.460000000000008 Q86.125 17.52000000000001 81.5 17.52000000000001 H38.5 Z M34.5 3.7700000000000102 V6.77000000000001 Q34.5 8.27000000000001 35.75 9.52000000000001 Q37.0 10.77000000000001 38.5 10.77000000000001 H81.5 Q83.0 10.77000000000001 84.25 9.52000000000001 Q85.5 8.27000000000001 85.5 6.77000000000001 V3.7700000000000102 H34.5 Z M34.5 -74.22999999999999 H85.5 V-77.22999999999999 Q85.5 -78.72999999999999 84.25 -79.97999999999999 Q83.0 -81.22999999999999 81.5 -81.22999999999999 H38.5 Q37.0 -81.22999999999999 35.75 -79.97999999999999 Q34.5 -78.72999999999999 34.5 -77.22999999999999 V-74.22999999999999 Z"/></g><g id="Bold-S" transform="matrix(1 0 0 1 2294.23 696)"><path d="M66.668922 -33.25592199999999 H80.08507800000001 V-39.57107799999999 H66.668922 V-33.25592199999999 Z M63.909 -23.394999999999996  62.233164 -21.719164 Q60.850835999999994 -20.33683599999999 58.829418 -21.07533999999999 Q56.808 -21.818577999999995 56.808 -23.88733599999999 V-43.12157799999999 Q56.808 -45.682672 58.682664 -47.55733599999999 Q60.557328 -49.431999999999995 63.118422 -49.431999999999995 H83.63557800000001 Q86.19667199999999 -49.431999999999995 88.071336 -47.55733599999999 Q89.946 -45.682672 89.946 -43.12157799999999 V-29.70542199999999 Q89.946 -27.144327999999994 88.071336 -25.269664 Q86.19667199999999 -23.394999999999996 83.63557800000001 -23.394999999999996 H63.909 Z M27.319914 11.717078000000015 Q22.093578 11.717078000000015 18.391589999999997 8.015090000000015 Q14.694336 4.317836 14.694336 -0.9084999999999894 V-69.55149999999999 Q14.694336 -74.777836 18.391589999999997 -78.47509 Q22.093578 -82.177078 27.319914 -82.177078 H67.360086 Q72.586422 -82.177078 76.28841 -78.47509 Q79.985664 -74.777836 79.985664 -69.55149999999999 V-54.65833599999999 H67.360086 V-57.12474999999999 H27.319914 V-13.335249999999988 H67.360086 V-15.801664000000002 H79.985664 V-0.9084999999999894 Q79.985664 4.317836 76.28841 8.015090000000015 Q72.586422 11.717078000000015 67.360086 11.717078000000015 H27.319914 Z M27.319914 -5.249578 V-0.9084999999999894 Q27.319914 -0.9084999999999894 27.319914 -0.9084999999999894 Q27.319914 -0.9084999999999894 27.319914 -0.9084999999999894 H67.360086 Q67.360086 -0.9084999999999894 67.360086 -0.9084999999999894 Q67.360086 -0.9084999999999894 67.360086 -0.9084999999999894 V-5.249578 H27.319914 Z M27.319914 -65.210422 H67.360086 V-69.55149999999999 Q67.360086 -69.55149999999999 67.360086 -69.55149999999999 Q67.360086 -69.55149999999999 67.360086 -69.55149999999999 H27.319914 Q27.319914 -69.55149999999999 27.319914 -69.55149999999999 Q27.319914 -69.55149999999999 27.319914 -69.55149999999999 V-65.210422 Z"/></g><g id="Semibold-S" transform="matrix(1 0 0 1 1998.1 696)"><path d="M66.569508 -33.15650799999999 H80.18449199999999 V-39.670491999999996 H66.569508 V-33.15650799999999 Z M63.909 -23.394999999999996  61.641414000000005 -21.127413999999995 Q60.457914 -19.943914 58.63059 -20.635077999999993 Q56.808 -21.321507999999987 56.808 -23.101491999999993 V-43.808007999999994 Q56.808 -46.080327999999994 58.483836 -47.75616399999999 Q60.159672 -49.431999999999995 62.431992 -49.431999999999995 H84.32200800000001 Q86.594328 -49.431999999999995 88.27016400000001 -47.75616399999999 Q89.946 -46.080327999999994 89.946 -43.808007999999994 V-29.018991999999997 Q89.946 -26.746671999999997 88.27016400000001 -25.070835999999993 Q86.594328 -23.394999999999996 84.32200800000001 -23.394999999999996 H63.909 Z M26.62875 11.319422000000003 Q21.89475 11.319422000000003 18.590418 8.015090000000015 Q15.286086000000001 4.715491999999998 15.286086000000001 -0.018507999999997082 V-70.441492 Q15.286086000000001 -75.17549199999999 18.590418 -78.47509 Q21.89475 -81.779422 26.62875 -81.779422 H68.05125 Q72.78525 -81.779422 76.08958200000001 -78.47509 Q79.39391400000001 -75.17549199999999 79.39391400000001 -70.441492 V-54.95657799999999 H68.05125 V-57.51767199999999 H26.62875 V-12.94232799999999 H68.05125 V-15.503422 H79.39391400000001 V-0.018507999999997082 Q79.39391400000001 4.715491999999998 76.08958200000001 8.015090000000015 Q72.78525 11.319422000000003 68.05125 11.319422000000003 H26.62875 Z M26.62875 -4.165491999999986 V-0.018507999999997082 Q26.62875 -0.018507999999997082 26.62875 -0.018507999999997082 Q26.62875 -0.018507999999997082 26.62875 -0.018507999999997082 H68.05125 Q68.05125 -0.018507999999997082 68.05125 -0.018507999999997082 Q68.05125 -0.018507999999997082 68.05125 -0.018507999999997082 V-4.165491999999986 H26.62875 Z M26.62875 -66.294508 H68.05125 V-70.441492 Q68.05125 -70.441492 68.05125 -70.441492 Q68.05125 -70.441492 68.05125 -70.441492 H26.62875 Q26.62875 -70.441492 26.62875 -70.441492 Q26.62875 -70.441492 26.62875 -70.441492 V-66.294508 Z"/></g><g id="Medium-S" transform="matrix(1 0 0 1 1701.85 696)"><path d="M66.474828 -33.06182799999999 H80.27917199999999 V-39.76517199999999 H66.474828 V-33.06182799999999 Z M63.909 -23.394999999999996  61.248492000000006 -20.734491999999996 Q60.064992000000004 -19.550991999999994 58.436496 -20.190081999999997 Q56.808 -20.829171999999993 56.808 -22.50500799999999 V-44.205664 Q56.808 -46.373836 58.337082 -47.90291799999999 Q59.866164000000005 -49.431999999999995 62.034335999999996 -49.431999999999995 H84.71966400000001 Q86.887836 -49.431999999999995 88.416918 -47.90291799999999 Q89.946 -46.373836 89.946 -44.205664 V-28.621335999999992 Q89.946 -26.453163999999994 88.416918 -24.924082 Q86.887836 -23.394999999999996 84.71966400000001 -23.394999999999996 H63.909 Z M26.037 10.926500000000004 Q21.695922 10.926500000000004 18.689832 7.967750000000009 Q15.679008 5.009 15.679008 0.5685080000000085 V-71.02850799999999 Q15.679008 -75.469 18.689832 -78.42774999999999 Q21.695922 -81.3865 26.037 -81.3865 H68.643 Q72.984078 -81.3865 75.990168 -78.42774999999999 Q79.000992 -75.469 79.000992 -71.02850799999999 V-55.15067199999999 H68.643 V-57.91532799999999 H26.037 V-12.544671999999991 H68.643 V-15.309327999999994 H79.000992 V0.5685080000000085 Q79.000992 5.009 75.990168 7.967750000000009 Q72.984078 10.926500000000004 68.643 10.926500000000004 H26.037 Z M26.037 -3.275499999999994 V0.5685080000000085 Q26.037 0.5685080000000085 26.037 0.5685080000000085 Q26.037 0.5685080000000085 26.037 0.5685080000000085 H68.643 Q68.643 0.5685080000000085 68.643 0.5685080000000085 Q68.643 0.5685080000000085 68.643 0.5685080000000085 V-3.275499999999994 H26.037 Z M26.037 -67.18449999999999 H68.643 V-71.02850799999999 Q68.643 -71.02850799999999 68.643 -71.02850799999999 Q68.643 -71.02850799999999 68.643 -71.02850799999999 H26.037 Q26.037 -71.02850799999999 26.037 -71.02850799999999 Q26.037 -71.02850799999999 26.037 -71.02850799999999 V-67.18449999999999 Z"/></g><g id="Regular-S" transform="matrix(1 0 0 1 1405.73 696)"><path d="M66.474828 -33.06182799999999 H80.27917199999999 V-39.76517199999999 H66.474828 V-33.06182799999999 Z M63.909 -23.394999999999996  60.95025 -20.436249999999994 Q59.866164000000005 -19.352163999999995 58.337082 -19.943914 Q56.808 -20.535663999999997 56.808 -22.11208599999999 V-44.59858599999999 Q56.808 -46.572663999999996 58.237668 -48.002331999999996 Q59.667336 -49.431999999999995 61.641414000000005 -49.431999999999995 H85.112586 Q87.086664 -49.431999999999995 88.516332 -48.002331999999996 Q89.946 -46.572663999999996 89.946 -44.59858599999999 V-28.228413999999994 Q89.946 -26.254335999999988 88.516332 -24.82466799999999 Q87.086664 -23.394999999999996 85.112586 -23.394999999999996 H63.909 Z M25.644078 10.727671999999998 Q21.501828 10.727671999999998 18.737172 7.967750000000009 Q15.97725 5.2078280000000206 15.97725 1.0655780000000163 V-71.525578 Q15.97725 -75.66782799999999 18.737172 -78.42774999999999 Q21.501828 -81.18767199999999 25.644078 -81.18767199999999 H69.035922 Q73.178172 -81.18767199999999 75.942828 -78.42774999999999 Q78.70275 -75.66782799999999 78.70275 -71.525578 V-55.34949999999999 H69.035922 V-58.109421999999995 H25.644078 V-12.350577999999999 H69.035922 V-15.110499999999988 H78.70275 V1.0655780000000163 Q78.70275 5.2078280000000206 75.942828 7.967750000000009 Q73.178172 10.727671999999998 69.035922 10.727671999999998 H25.644078 Z M25.644078 -2.683749999999989 V1.0655780000000163 Q25.644078 1.0655780000000163 25.644078 1.0655780000000163 Q25.644078 1.0655780000000163 25.644078 1.0655780000000163 H69.035922 Q69.035922 1.0655780000000163 69.035922 1.0655780000000163 Q69.035922 1.0655780000000163 69.035922 1.0655780000000163 V-2.683749999999989 H25.644078 Z M25.644078 -67.77624999999999 H69.035922 V-71.525578 Q69.035922 -71.525578 69.035922 -71.525578 Q69.035922 -71.525578 69.035922 -71.525578 H25.644078 Q25.644078 -71.525578 25.644078 -71.525578 Q25.644078 -71.525578 25.644078 -71.525578 V-67.77624999999999 Z"/></g><g id="Light-S" transform="matrix(1 0 0 1 1109.75 696)"><path d="M64.699578 -31.67949999999999 H79.786836 V-40.356922 H64.699578 V-31.67949999999999 Z M63.118422 -23.986749999999994  60.850835999999994 -21.719164 Q59.866164000000005 -20.829171999999993 58.436496 -21.373581999999992 Q57.006828 -21.917991999999998 57.006828 -23.295585999999993 V-43.613913999999994 Q57.006828 -45.48857799999999 58.337082 -46.766757999999996 Q59.667336 -48.049671999999994 61.442586 -48.049671999999994 H83.043828 Q84.918492 -48.049671999999994 86.19667199999999 -46.766757999999996 Q87.479586 -45.48857799999999 87.479586 -43.613913999999994 V-28.422507999999993 Q87.479586 -26.651991999999993 86.19667199999999 -25.317003999999997 Q84.918492 -23.986749999999994 83.043828 -23.986749999999994 H63.118422 Z M26.827578 8.75832800000002 Q23.07825 8.75832800000002 20.512422 6.19250000000001 Q17.951328 3.6266719999999992 17.951328 -0.11792199999999298 V-70.34207799999999 Q17.951328 -74.086672 20.512422 -76.65249999999999 Q23.07825 -79.218328 26.827578 -79.218328 H67.852422 Q71.60175 -79.218328 74.167578 -76.65249999999999 Q76.72867199999999 -74.086672 76.72867199999999 -70.34207799999999 V-55.54832799999999 H69.035922 V-59.098828 H25.644078 V-11.361171999999996 H69.035922 V-14.911671999999996 H76.72867199999999 V-0.11792199999999298 Q76.72867199999999 3.6266719999999992 74.167578 6.19250000000001 Q71.60175 8.75832800000002 67.852422 8.75832800000002 H26.827578 Z M25.644078 -3.6684219999999925 V-0.11792199999999298 Q25.644078 0.2750000000000057 26.037 0.6679220000000043 Q26.429922 1.0655780000000163 26.827578 1.0655780000000163 H67.852422 Q68.250078 1.0655780000000163 68.643 0.6679220000000043 Q69.035922 0.2750000000000057 69.035922 -0.11792199999999298 V-3.6684219999999925 H25.644078 Z M25.644078 -66.79157799999999 H69.035922 V-70.34207799999999 Q69.035922 -70.73499999999999 68.643 -71.127922 Q68.250078 -71.525578 67.852422 -71.525578 H26.827578 Q26.429922 -71.525578 26.037 -71.127922 Q25.644078 -70.73499999999999 25.644078 -70.34207799999999 V-66.79157799999999 Z"/></g><g id="Thin-S" transform="matrix(1 0 0 1 814.015 696)"><path d="M63.019008 -30.297171999999996 H79.39391400000001 V-40.948671999999995 H63.019008 V-30.297171999999996 Z M62.332578 -24.57849999999999  60.751422 -23.101491999999993 Q59.965578 -22.211499999999994 58.63059 -22.70383599999999 Q57.300335999999994 -23.196171999999997 57.300335999999994 -24.479085999999988 V-42.62450799999999 Q57.300335999999994 -44.305077999999995 58.483836 -45.48857799999999 Q59.667336 -46.67207799999999 61.343172 -46.67207799999999 H80.97033599999999 Q82.745586 -46.67207799999999 83.929086 -45.48857799999999 Q85.112586 -44.305077999999995 85.112586 -42.62450799999999 V-28.720749999999995 Q85.112586 -26.945499999999996 83.929086 -25.761999999999993 Q82.745586 -24.57849999999999 80.97033599999999 -24.57849999999999 H62.332578 Z M28.110491999999997 6.78425 Q24.559991999999998 6.78425 22.240332000000002 4.464590000000015 Q19.920672 2.1496640000000156 19.920672 -1.400835999999984 V-69.059164 Q19.920672 -72.609664 22.240332000000002 -74.92459 Q24.559991999999998 -77.24425 28.110491999999997 -77.24425 H66.569508 Q70.120008 -77.24425 72.439668 -74.92459 Q74.759328 -72.609664 74.759328 -69.059164 V-55.643007999999995 H69.035922 V-60.083499999999994 H25.644078 V-10.376499999999993 H69.035922 V-14.816991999999999 H74.759328 V-1.400835999999984 Q74.759328 2.1496640000000156 72.439668 4.464590000000015 Q70.120008 6.78425 66.569508 6.78425 H28.110491999999997 Z M25.644078 -4.657827999999995 V-1.400835999999984 Q25.644078 -0.41616399999999487 26.382582000000003 0.3223400000000112 Q27.121086000000002 1.0655780000000163 28.110491999999997 1.0655780000000163 H66.569508 Q67.558914 1.0655780000000163 68.297418 0.3223400000000112 Q69.035922 -0.41616399999999487 69.035922 -1.400835999999984 V-4.657827999999995 H25.644078 Z M25.644078 -65.802172 H69.035922 V-69.059164 Q69.035922 -70.043836 68.297418 -70.78233999999999 Q67.558914 -71.525578 66.569508 -71.525578 H28.110491999999997 Q27.121086000000002 -71.525578 26.382582000000003 -70.78233999999999 Q25.644078 -70.043836 25.644078 -69.059164 V-65.802172 Z"/></g><g id="Ultralight-S" transform="matrix(1 0 0 1 517.792 696)"><path d="M61.934922 -29.511327999999992 H79.095672 V-41.34632799999999 H61.934922 V-29.511327999999992 Z M61.835508 -24.971421999999997  60.751422 -23.88733599999999 Q59.965578 -23.101491999999993 58.682664 -23.541753999999997 Q57.39975 -23.986749999999994 57.39975 -25.170249999999996 V-42.03749199999999 Q57.39975 -43.613913999999994 58.53591 -44.74533999999999 Q59.667336 -45.881499999999996 61.248492000000006 -45.881499999999996 H79.786836 Q81.367992 -45.881499999999996 82.49941799999999 -44.74533999999999 Q83.63557800000001 -43.613913999999994 83.63557800000001 -42.03749199999999 V-28.820164 Q83.63557800000001 -27.23900799999999 82.49941799999999 -26.107581999999994 Q81.367992 -24.971421999999997 79.786836 -24.971421999999997 H61.835508 Z M28.796922000000002 5.600750000000005 Q25.44525 5.600750000000005 23.277078 3.432578000000021 Q21.104172000000002 1.2596719999999948 21.104172000000002 -2.0919999999999987 V-68.368 Q21.104172000000002 -71.71967199999999 23.277078 -73.89257799999999 Q25.44525 -76.06075 28.796922000000002 -76.06075 H65.883078 Q69.23475 -76.06075 71.402922 -73.89257799999999 Q73.575828 -71.71967199999999 73.575828 -68.368 V-55.74242199999999 H69.035922 V-60.67524999999999 H25.644078 V-9.784749999999988 H69.035922 V-14.717577999999989 H73.575828 V-2.0919999999999987 Q73.575828 1.2596719999999948 71.402922 3.432578000000021 Q69.23475 5.600750000000005 65.883078 5.600750000000005 H28.796922000000002 Z M25.644078 -5.249578 V-2.0919999999999987 Q25.644078 -0.9084999999999894 26.62875 0.07617199999999968 Q27.613422 1.0655780000000163 28.796922000000002 1.0655780000000163 H65.883078 Q67.06657799999999 1.0655780000000163 68.05125 0.07617199999999968 Q69.035922 -0.9084999999999894 69.035922 -2.0919999999999987 V-5.249578 H25.644078 Z M25.644078 -65.210422 H69.035922 V-68.368 Q69.035922 -69.55149999999999 68.05125 -70.536172 Q67.06657799999999 -71.525578 65.883078 -71.525578 H28.796922000000002 Q27.613422 -71.525578 26.62875 -70.536172 Q25.644078 -69.55149999999999 25.644078 -68.368 V-65.210422 Z"/></g></g></svg>