<svg xmlns="http://www.w3.org/2000/svg" version="1.1" width="3300" height="2000"><g id="Notes"><style>
    text {
      font-family: monospace;
      text-anchor: middle;
    }
    text.emphasis {
      font-weight:bold;
    }
    text.lanchor {
      text-anchor: start;
    }
  </style><rect height="2200" id="artboard" fill="white" width="3300" x="0" y="0"/><line id="" style="fill:none;stroke:black;stroke-width:0.5;" x1="263" x2="3036" y1="292" y2="292"/><text class="lanchor emphasis" transform="matrix(1 0 0 1 263 322)">Weight/Scale Variations</text><text transform="matrix(1 0 0 1 559.711 322)">Ultralight</text><text transform="matrix(1 0 0 1 856.422 322)">Thin</text><text transform="matrix(1 0 0 1 1153.13 322)">Light</text><text transform="matrix(1 0 0 1 1449.84 322)">Regular</text><text transform="matrix(1 0 0 1 1746.56 322)">Medium</text><text transform="matrix(1 0 0 1 2043.27 322)">Semibold</text><text transform="matrix(1 0 0 1 2339.98 322)">Bold</text><text transform="matrix(1 0 0 1 2636.69 322)">Heavy</text><text transform="matrix(1 0 0 1 2933.4 322)">Black</text><text id="template-version" style="text-anchor: end;" transform="matrix(1 0 0 1 3036 1933)">Template v.1.0</text><text class="lanchor" transform="matrix(1 0 0 1 263 726)">Small</text><text class="lanchor" transform="matrix(1 0 0 1 263 1156)">Medium</text><text class="lanchor" transform="matrix(1 0 0 1 263 1586)">Large</text></g><g id="Guides"><g id="H-reference" style="fill:#27AAE1;stroke:none;" transform="matrix(1 0 0 1 339 696)"><path d="M 54.9316 0 L 57.666 0 L 30.5664 -70.459 L 28.0762 -70.459 L 0.976562 0 L 3.66211 0 L 12.9395 -24.4629 L 45.7031 -24.4629 Z M 29.1992 -67.0898 L 29.4434 -67.0898 L 44.8242 -26.709 L 13.8184 -26.709 Z"/></g><line id="Baseline-S" style="fill:none;stroke:#27AAE1;opacity:1;stroke-width:0.577;" x1="263" x2="3036" y1="696" y2="696"/><line id="Capline-S" style="fill:none;stroke:#27AAE1;opacity:1;stroke-width:0.577;" x1="263" x2="3036" y1="625.541" y2="625.541"/><g id="H-reference" style="fill:#27AAE1;stroke:none;" transform="matrix(1 0 0 1 339 1126)"><path d="M 54.9316 0 L 57.666 0 L 30.5664 -70.459 L 28.0762 -70.459 L 0.976562 0 L 3.66211 0 L 12.9395 -24.4629 L 45.7031 -24.4629 Z M 29.1992 -67.0898 L 29.4434 -67.0898 L 44.8242 -26.709 L 13.8184 -26.709 Z"/></g><line id="Baseline-M" style="fill:none;stroke:#27AAE1;opacity:1;stroke-width:0.577;" x1="263" x2="3036" y1="1126" y2="1126"/><line id="Capline-M" style="fill:none;stroke:#27AAE1;opacity:1;stroke-width:0.577;" x1="263" x2="3036" y1="1055.54" y2="1055.54"/><g id="H-reference" style="fill:#27AAE1;stroke:none;" transform="matrix(1 0 0 1 339 1556)"><path d="M 54.9316 0 L 57.666 0 L 30.5664 -70.459 L 28.0762 -70.459 L 0.976562 0 L 3.66211 0 L 12.9395 -24.4629 L 45.7031 -24.4629 Z M 29.1992 -67.0898 L 29.4434 -67.0898 L 44.8242 -26.709 L 13.8184 -26.709 Z"/></g><line id="Baseline-L" style="fill:none;stroke:#27AAE1;opacity:1;stroke-width:0.577;" x1="263" x2="3036" y1="1556" y2="1556"/><line id="Capline-L" style="fill:none;stroke:#27AAE1;opacity:1;stroke-width:0.577;" x1="263" x2="3036" y1="1485.54" y2="1485.54"/><rect height="119.336" id="left-margin" style="fill:darkred;stroke:none;opacity:0.4;" width="12.4512" x="1394.06" y="1030.79"/><rect height="119.336" id="right-margin" style="fill:darkgreen;stroke:none;opacity:0.4;" width="12.4512" x="1502.5112" y="1030.79"/><rect x="1406.5112" y="1045" width="96" height="96" fill="none" stroke="blue" stroke-dasharray="5"/><rect x="1394.06" y="1030.79" width="120.9024" height="119.336" fill="none" stroke="blue"/></g><g id="Symbols"><g id="Bold-L" transform="matrix(1 0 0 1 2266 1556)"><path d="M105.377 -31.441 H99.653 L42.57 -88.12 H122.113 Q129.746 -88.12 132.356 -83.202 Q134.966 -78.284 131.257 -71.753 L111.251 -35.036 Q110.698 -33.859 109.69 -32.892 Q108.683 -31.924 105.377 -31.441 Z M46.695 30.076 Q41.844 30.076 38.579 26.784 Q35.314 23.492 35.314 18.722 Q35.314 13.951 38.566 10.646 Q41.817 7.34 46.668 7.34 Q51.519 7.34 54.785 10.632 Q58.05 13.924 58.05 18.695 Q58.05 23.465 54.798 26.771 Q51.546 30.076 46.695 30.076 Z M135.369 36.526  95.379 -3.222 H42.731 Q35.468 -3.222 32.005 -8.624 Q28.541 -14.026 32.331 -19.831 L44.505 -38.858 L30.637 -67.964 L9.784 -88.979 Q8.062 -90.7 8.143 -92.776 Q8.224 -94.851 9.917 -96.747 Q11.61 -98.521 13.867 -98.521 Q16.125 -98.521 17.899 -96.827 L143.415 28.607 Q144.964 30.318 144.883 32.656 Q144.803 34.994 143.148 36.526 Q141.416 38.3 139.239 38.3 Q137.062 38.3 135.369 36.526 Z M110.631 30.076 Q106.022 30.076 102.636 26.784 Q99.249 23.492 99.249 18.722 Q99.249 13.951 102.622 10.646 Q105.995 7.34 110.604 7.34 Q115.213 7.34 118.599 10.632 Q121.986 13.924 121.986 18.695 Q121.986 23.465 118.613 26.771 Q115.24 30.076 110.631 30.076 Z"/></g><g id="Semibold-L" transform="matrix(1 0 0 1 1970.27 1556)"><path d="M104.395 -31.3 H98.671 L42.219 -87.349 H123.655 Q129.817 -87.349 132.111 -83.062 Q134.405 -78.774 131.328 -73.365 L110.1 -34.63 Q109.506 -33.369 108.428 -32.471 Q107.351 -31.574 104.395 -31.3 Z M46.695 29.305 Q41.915 29.305 38.614 26.013 Q35.314 22.721 35.314 17.951 Q35.314 13.18 38.601 9.875 Q41.887 6.569 46.668 6.569 Q51.449 6.569 54.75 9.861 Q58.05 13.153 58.05 17.923 Q58.05 22.694 54.763 26 Q51.476 29.305 46.695 29.305 Z M134.598 34.633  95.66 -3.993 H43.643 Q36.943 -3.993 33.759 -8.939 Q30.574 -13.885 34.013 -19.34 L45.837 -38.297 L31.969 -67.823 L10.625 -89.259 Q9.044 -90.84 9.125 -92.802 Q9.205 -94.764 10.758 -96.466 Q12.311 -98.1 14.428 -98.1 Q16.546 -98.1 18.179 -96.547 L142.013 27.275 Q143.492 28.846 143.411 31.009 Q143.33 33.172 141.816 34.633 Q140.224 36.267 138.188 36.267 Q136.151 36.267 134.598 34.633 Z M110.631 29.305 Q106.022 29.305 102.636 26.013 Q99.249 22.721 99.249 17.951 Q99.249 13.18 102.622 9.875 Q105.995 6.569 110.604 6.569 Q115.213 6.569 118.599 9.861 Q121.986 13.153 121.986 17.923 Q121.986 22.694 118.613 26 Q115.24 29.305 110.631 29.305 Z"/></g><g id="Medium-L" transform="matrix(1 0 0 1 1674.31 1556)"><path d="M103.659 -31.195 H97.935 L41.957 -86.77 H124.812 Q129.869 -86.77 131.927 -82.956 Q133.985 -79.143 131.38 -74.575 L109.235 -34.325 Q108.612 -33.001 107.482 -32.156 Q106.351 -31.311 103.659 -31.195 Z M46.695 28.727 Q41.967 28.727 38.64 25.435 Q35.314 22.143 35.314 17.372 Q35.314 12.602 38.627 9.296 Q41.94 5.99 46.668 5.99 Q51.397 5.99 54.723 9.282 Q58.05 12.574 58.05 17.345 Q58.05 22.115 54.737 25.421 Q51.424 28.727 46.695 28.727 Z M134.02 33.214  95.87 -4.572 H44.326 Q38.05 -4.572 35.074 -9.176 Q32.099 -13.78 35.275 -18.972 L46.836 -37.877 L32.969 -67.718 L11.256 -89.47 Q9.78 -90.945 9.861 -92.822 Q9.941 -94.699 11.389 -96.256 Q12.837 -97.785 14.849 -97.785 Q16.861 -97.785 18.389 -96.337 L140.962 26.276 Q142.387 27.742 142.307 29.773 Q142.226 31.805 140.817 33.214 Q139.33 34.742 137.399 34.742 Q135.468 34.742 134.02 33.214 Z M110.631 28.727 Q106.022 28.727 102.636 25.435 Q99.249 22.143 99.249 17.372 Q99.249 12.602 102.622 9.296 Q105.995 5.99 110.604 5.99 Q115.213 5.99 118.599 9.282 Q121.986 12.574 121.986 17.345 Q121.986 22.115 118.613 25.421 Q115.24 28.727 110.631 28.727 Z"/></g><g id="Regular-L" transform="matrix(1 0 0 1 1378.56 1556)"><path d="M103.119 -31.118 H97.395 L41.764 -86.346 H125.66 Q129.908 -86.346 131.792 -82.879 Q133.676 -79.412 131.419 -75.462 L108.602 -34.101 Q107.957 -32.731 106.788 -31.924 Q105.619 -31.118 103.119 -31.118 Z M46.695 28.303 Q42.006 28.303 38.66 25.01 Q35.314 21.718 35.314 16.948 Q35.314 12.178 38.646 8.872 Q41.979 5.566 46.668 5.566 Q51.358 5.566 54.704 8.858 Q58.05 12.15 58.05 16.921 Q58.05 21.691 54.718 24.997 Q51.385 28.303 46.695 28.303 Z M133.596 32.173  96.024 -4.996 H44.828 Q38.861 -4.996 36.039 -9.349 Q33.218 -13.703 36.201 -18.702 L47.569 -37.568 L33.701 -67.641 L11.719 -89.624 Q10.32 -91.022 10.401 -92.837 Q10.481 -94.651 11.852 -96.102 Q13.223 -97.553 15.158 -97.553 Q17.093 -97.553 18.544 -96.182 L140.19 25.544 Q141.578 26.932 141.497 28.867 Q141.416 30.802 140.084 32.173 Q138.675 33.624 136.821 33.624 Q134.966 33.624 133.596 32.173 Z M110.631 28.303 Q106.022 28.303 102.636 25.01 Q99.249 21.718 99.249 16.948 Q99.249 12.178 102.622 8.872 Q105.995 5.566 110.604 5.566 Q115.213 5.566 118.599 8.858 Q121.986 12.15 121.986 16.921 Q121.986 21.691 118.613 24.997 Q115.24 28.303 110.631 28.303 Z"/></g><g id="Light-L" transform="matrix(1 0 0 1 1082.77 1556)"><path d="M101.197 -33.32 H95.813 L43.904 -84.92 H121.584 Q125.977 -84.92 127.873 -81.391 Q129.769 -77.862 127.511 -73.756 L107.144 -36.52 Q106.499 -34.902 105.284 -34.111 Q104.068 -33.32 101.197 -33.32 Z M47.228 25.822 Q42.998 25.822 40.024 22.876 Q37.05 19.93 37.05 15.62 Q37.05 11.309 40.005 8.345 Q42.96 5.38 47.19 5.38 Q51.42 5.38 54.425 8.326 Q57.43 11.272 57.43 15.582 Q57.43 19.893 54.444 22.857 Q51.458 25.822 47.228 25.822 Z M132.541 28.544  96.49 -7.259 H45.448 Q39.947 -7.259 37.326 -11.396 Q34.706 -15.533 37.41 -20.097 L48.809 -39.088 L34.694 -69.254 L14.737 -89.148 Q13.7 -90.185 13.75 -91.612 Q13.799 -93.038 14.86 -94.148 Q15.858 -95.258 17.359 -95.258 Q18.86 -95.258 20.001 -94.229 L137.61 23.49 Q138.631 24.513 138.582 26.014 Q138.532 27.515 137.51 28.559 Q136.411 29.685 134.991 29.685 Q133.571 29.685 132.541 28.544 Z M109.396 25.822 Q105.309 25.822 102.263 22.876 Q99.218 19.93 99.218 15.62 Q99.218 11.309 102.245 8.345 Q105.271 5.38 109.358 5.38 Q113.507 5.38 116.553 8.326 Q119.598 11.272 119.598 15.582 Q119.598 19.893 116.571 22.857 Q113.545 25.822 109.396 25.822 Z"/></g><g id="Thin-L" transform="matrix(1 0 0 1 787.282 1556)"><path d="M99.274 -35.522 H94.232 L46.043 -83.493 H117.509 Q122.047 -83.493 123.955 -79.903 Q125.862 -76.312 123.604 -72.051 L105.687 -38.939 Q105.042 -37.072 103.78 -36.297 Q102.518 -35.522 99.274 -35.522 Z M47.76 23.341 Q43.99 23.341 41.389 20.741 Q38.787 18.142 38.787 14.291 Q38.787 10.441 41.364 7.818 Q43.942 5.194 47.712 5.194 Q51.482 5.194 54.146 7.794 Q56.81 10.393 56.81 14.244 Q56.81 18.094 54.17 20.718 Q51.53 23.341 47.76 23.341 Z M131.487 24.916  96.955 -9.523 H46.068 Q41.032 -9.523 38.613 -13.443 Q36.194 -17.362 38.619 -21.493 L50.05 -40.607 L35.686 -70.866 L17.756 -88.672 Q17.08 -89.348 17.099 -90.387 Q17.117 -91.426 17.868 -92.195 Q18.494 -92.964 19.561 -92.964 Q20.628 -92.964 21.459 -92.275 L135.03 21.436 Q135.686 22.094 135.667 23.161 Q135.648 24.228 134.937 24.946 Q134.148 25.747 133.162 25.747 Q132.175 25.747 131.487 24.916 Z M108.161 23.341 Q104.595 23.341 101.891 20.741 Q99.187 18.142 99.187 14.291 Q99.187 10.441 101.867 7.818 Q104.547 5.194 108.113 5.194 Q111.802 5.194 114.506 7.794 Q117.21 10.393 117.21 14.244 Q117.21 18.094 114.53 20.718 Q111.85 23.341 108.161 23.341 Z"/></g><g id="Ultralight-L" transform="matrix(1 0 0 1 491.205 1556)"><path d="M98.121 -36.842 H93.283 L47.327 -82.637 H115.064 Q119.689 -82.637 121.603 -79.009 Q123.517 -75.381 121.26 -71.027 L104.812 -40.39 Q104.168 -38.374 102.877 -37.608 Q101.588 -36.842 98.121 -36.842 Z M48.08 21.853 Q44.586 21.853 42.207 19.461 Q39.829 17.069 39.829 13.495 Q39.829 9.92 42.18 7.501 Q44.531 5.083 48.025 5.083 Q51.519 5.083 53.978 7.474 Q56.438 9.866 56.438 13.44 Q56.438 17.015 54.006 19.434 Q51.574 21.853 48.08 21.853 Z M130.854 22.739  97.234 -10.881 H46.44 Q41.683 -10.881 39.385 -14.671 Q37.087 -18.46 39.345 -22.33 L50.794 -41.519 L36.281 -71.834 L19.567 -88.387 Q19.108 -88.846 19.108 -89.652 Q19.108 -90.458 19.672 -91.022 Q20.076 -91.587 20.882 -91.587 Q21.688 -91.587 22.333 -91.103 L133.482 20.204 Q133.918 20.643 133.918 21.449 Q133.918 22.256 133.392 22.778 Q132.789 23.384 132.064 23.384 Q131.338 23.384 130.854 22.739 Z M107.42 21.853 Q104.168 21.853 101.668 19.461 Q99.169 17.069 99.169 13.495 Q99.169 9.92 101.641 7.501 Q104.113 5.083 107.365 5.083 Q110.779 5.083 113.278 7.474 Q115.778 9.866 115.778 13.44 Q115.778 17.015 113.305 19.434 Q110.833 21.853 107.42 21.853 Z"/></g><g id="Bold-M" transform="matrix(1 0 0 1 2281.8 1126)"><path d="M81.312 -31.23 H81.188 L35.688 -76.355 H94.75 Q101.125 -76.355 103.375 -72.417 Q105.625 -68.48 102.5 -62.98 L87.5 -35.73 Q86.5 -34.167 85.062 -32.949 Q83.625 -31.73 81.312 -31.23 Z M35.625 15.395 Q31.625 15.395 28.812 12.583 Q26 9.77 26 5.77 Q26 1.77 28.812 -1.042 Q31.625 -3.855 35.625 -3.855 Q39.625 -3.855 42.438 -1.042 Q45.25 1.77 45.25 5.77 Q45.25 9.77 42.438 12.583 Q39.625 15.395 35.625 15.395 Z M100.438 20.833  70.125 -9.23 H36 Q29.438 -9.23 26.094 -14.824 Q22.75 -20.417 25.875 -26.23 L32 -37.23 L23 -56.355 L6.375 -73.23 Q4.688 -74.917 4.688 -77.074 Q4.688 -79.23 6.375 -80.98 Q8.062 -82.73 10.312 -82.761 Q12.562 -82.792 14.312 -81.042 L108.375 13.02 Q110.062 14.708 109.969 16.926 Q109.875 19.145 108.25 20.833 Q106.562 22.583 104.375 22.583 Q102.188 22.583 100.438 20.833 Z M84.5 15.395 Q80.5 15.395 77.688 12.583 Q74.875 9.77 74.875 5.77 Q74.875 1.77 77.688 -1.042 Q80.5 -3.855 84.5 -3.855 Q88.5 -3.855 91.312 -1.042 Q94.125 1.77 94.125 5.77 Q94.125 9.77 91.312 12.583 Q88.5 15.395 84.5 15.395 Z"/></g><g id="Semibold-M" transform="matrix(1 0 0 1 1985.97 1126)"><path d="M80.28 -31.067 H80.155 L35.307 -75.54 H96.326 Q101.179 -75.54 103.103 -72.254 Q105.027 -68.969 102.609 -64.665 L86.359 -35.295 Q85.359 -33.624 83.813 -32.487 Q82.266 -31.35 80.28 -31.067 Z M35.625 14.58 Q31.625 14.58 28.812 11.767 Q26 8.955 26 4.955 Q26 0.955 28.812 -1.858 Q31.625 -4.67 35.625 -4.67 Q39.625 -4.67 42.438 -1.858 Q45.25 0.955 45.25 4.955 Q45.25 8.955 42.438 11.767 Q39.625 14.58 35.625 14.58 Z M99.622 18.876  70.451 -10.045 H36.978 Q30.959 -10.045 27.887 -15.177 Q24.815 -20.309 27.614 -25.741 L33.413 -36.632 L24.413 -56.192 L7.245 -73.502 Q5.72 -75.026 5.72 -77.074 Q5.72 -79.121 7.245 -80.708 Q8.769 -82.295 10.883 -82.326 Q12.997 -82.358 14.584 -80.771 L106.962 11.607 Q108.487 13.132 108.447 15.214 Q108.408 17.297 106.891 18.876 Q105.367 20.463 103.288 20.463 Q101.209 20.463 99.622 18.876 Z M84.5 14.58 Q80.5 14.58 77.688 11.767 Q74.875 8.955 74.875 4.955 Q74.875 0.955 77.688 -1.858 Q80.5 -4.67 84.5 -4.67 Q88.5 -4.67 91.312 -1.858 Q94.125 0.955 94.125 4.955 Q94.125 8.955 91.312 11.767 Q88.5 14.58 84.5 14.58 Z"/></g><g id="Medium-M" transform="matrix(1 0 0 1 1689.91 1126)"><path d="M79.505 -30.945 H79.38 L35.022 -74.928 H97.508 Q101.22 -74.928 102.9 -72.132 Q104.579 -69.336 102.69 -65.928 L85.503 -34.969 Q84.503 -33.216 82.875 -32.14 Q81.247 -31.064 79.505 -30.945 Z M35.625 13.968 Q31.625 13.968 28.812 11.156 Q26 8.343 26 4.343 Q26 0.343 28.812 -2.469 Q31.625 -5.282 35.625 -5.282 Q39.625 -5.282 42.438 -2.469 Q45.25 0.343 45.25 4.343 Q45.25 8.343 42.438 11.156 Q39.625 13.968 35.625 13.968 Z M99.011 17.409  70.696 -10.657 H37.712 Q32.1 -10.657 29.232 -15.442 Q26.364 -20.227 28.919 -25.374 L34.473 -36.184 L25.473 -56.07 L7.897 -73.705 Q6.495 -75.108 6.495 -77.074 Q6.495 -79.04 7.897 -80.504 Q9.299 -81.969 11.311 -82 Q13.323 -82.032 14.788 -80.567 L105.902 10.547 Q107.304 11.949 107.306 13.93 Q107.307 15.911 105.872 17.409 Q104.47 18.873 102.473 18.873 Q100.475 18.873 99.011 17.409 Z M84.5 13.968 Q80.5 13.968 77.688 11.156 Q74.875 8.343 74.875 4.343 Q74.875 0.343 77.688 -2.469 Q80.5 -5.282 84.5 -5.282 Q88.5 -5.282 91.312 -2.469 Q94.125 0.343 94.125 4.343 Q94.125 8.343 91.312 11.156 Q88.5 13.968 84.5 13.968 Z"/></g><g id="Regular-M" transform="matrix(1 0 0 1 1394.06 1126)"><path d="M78.938 -30.855 H78.812 L34.812 -74.48 H98.375 Q101.25 -74.48 102.75 -72.042 Q104.25 -69.605 102.75 -66.855 L84.875 -34.73 Q83.875 -32.917 82.188 -31.886 Q80.5 -30.855 78.938 -30.855 Z M35.625 13.52 Q31.625 13.52 28.812 10.708 Q26 7.895 26 3.895 Q26 -0.105 28.812 -2.917 Q31.625 -5.73 35.625 -5.73 Q39.625 -5.73 42.438 -2.917 Q45.25 -0.105 45.25 3.895 Q45.25 7.895 42.438 10.708 Q39.625 13.52 35.625 13.52 Z M98.562 16.333  70.875 -11.105 H38.25 Q32.938 -11.105 30.219 -15.636 Q27.5 -20.167 29.875 -25.105 L35.25 -35.855 L26.25 -55.98 L8.375 -73.855 Q7.062 -75.167 7.062 -77.074 Q7.062 -78.98 8.375 -80.355 Q9.688 -81.73 11.625 -81.761 Q13.562 -81.792 14.938 -80.417 L105.125 9.77 Q106.438 11.083 106.469 12.989 Q106.5 14.895 105.125 16.333 Q103.812 17.708 101.875 17.708 Q99.938 17.708 98.562 16.333 Z M84.5 13.52 Q80.5 13.52 77.688 10.708 Q74.875 7.895 74.875 3.895 Q74.875 -0.105 77.688 -2.917 Q80.5 -5.73 84.5 -5.73 Q88.5 -5.73 91.312 -2.917 Q94.125 -0.105 94.125 3.895 Q94.125 7.895 91.312 10.708 Q88.5 13.52 84.5 13.52 Z"/></g><g id="Light-M" transform="matrix(1 0 0 1 1098.18 1126)"><path d="M77.687 -32.946 H76.625 L35.894 -73.374 H94.783 Q97.867 -73.374 99.376 -70.816 Q100.884 -68.259 99.288 -65.34 L83.361 -36.413 Q82.457 -34.696 81.046 -33.821 Q79.635 -32.946 77.687 -32.946 Z M36.278 11.549 Q32.779 11.549 30.303 9.101 Q27.827 6.653 27.827 3.106 Q27.827 -0.442 30.299 -2.893 Q32.771 -5.345 36.27 -5.345 Q39.769 -5.345 42.245 -2.897 Q44.721 -0.45 44.721 3.098 Q44.721 6.645 42.249 9.097 Q39.777 11.549 36.278 11.549 Z M99.043 13.52  72.197 -13.148 H37.817 Q33.058 -13.148 30.663 -17.175 Q28.269 -21.201 30.428 -25.514 L36.74 -37.418 L27.067 -58.432 L11.1 -74.4 Q10.116 -75.384 10.092 -76.797 Q10.068 -78.211 11.091 -79.273 Q12.116 -80.336 13.524 -80.367 Q14.933 -80.398 16.019 -79.336 L103.942 8.611 Q104.923 9.592 104.954 11.018 Q104.986 12.443 103.947 13.531 Q102.923 14.606 101.514 14.606 Q100.106 14.606 99.043 13.52 Z M83.831 11.549 Q80.332 11.549 77.856 9.101 Q75.38 6.653 75.38 3.106 Q75.38 -0.442 77.852 -2.893 Q80.324 -5.345 83.823 -5.345 Q87.322 -5.345 89.798 -2.897 Q92.274 -0.45 92.274 3.098 Q92.274 6.645 89.802 9.097 Q87.33 11.549 83.831 11.549 Z"/></g><g id="Thin-M" transform="matrix(1 0 0 1 802.565 1126)"><path d="M76.438 -35.038 H74.438 L36.976 -72.268 H91.191 Q94.484 -72.268 96.001 -69.591 Q97.519 -66.913 95.827 -63.826 L81.846 -38.095 Q81.038 -36.475 79.904 -35.756 Q78.769 -35.038 76.438 -35.038 Z M36.931 9.578 Q33.933 9.578 31.793 7.495 Q29.654 5.411 29.654 2.317 Q29.654 -0.778 31.785 -2.869 Q33.916 -4.961 36.915 -4.961 Q39.913 -4.961 42.053 -2.877 Q44.192 -0.794 44.192 2.3 Q44.192 5.395 42.061 7.486 Q39.93 9.578 36.931 9.578 Z M99.524 10.708  73.519 -15.191 H37.385 Q33.178 -15.191 31.108 -18.713 Q29.038 -22.235 30.981 -25.922 L38.231 -38.98 L27.885 -60.884 L13.824 -74.944 Q13.168 -75.6 13.12 -76.521 Q13.072 -77.441 13.808 -78.191 Q14.543 -78.941 15.423 -78.973 Q16.303 -79.004 17.101 -78.254 L102.759 7.452 Q103.409 8.102 103.44 9.047 Q103.471 9.991 102.769 10.731 Q102.034 11.506 101.154 11.506 Q100.274 11.506 99.524 10.708 Z M83.162 9.578 Q80.163 9.578 78.024 7.495 Q75.885 5.411 75.885 2.317 Q75.885 -0.778 78.016 -2.869 Q80.147 -4.961 83.146 -4.961 Q86.144 -4.961 88.284 -2.877 Q90.423 -0.794 90.423 2.3 Q90.423 5.395 88.292 7.486 Q86.16 9.578 83.162 9.578 Z"/></g><g id="Ultralight-M" transform="matrix(1 0 0 1 506.415 1126)"><path d="M75.688 -36.292 H73.125 L37.625 -71.605 H89.036 Q92.454 -71.605 93.977 -68.855 Q95.5 -66.105 93.75 -62.917 L80.938 -39.105 Q80.188 -37.542 79.219 -36.917 Q78.25 -36.292 75.688 -36.292 Z M37.323 8.395 Q34.625 8.395 32.688 6.531 Q30.75 4.666 30.75 1.843 Q30.75 -0.98 32.677 -2.855 Q34.604 -4.73 37.302 -4.73 Q40 -4.73 41.938 -2.865 Q43.875 -1.001 43.875 1.822 Q43.875 4.645 41.948 6.52 Q40.021 8.395 37.323 8.395 Z M99.812 9.02  74.312 -16.417 H37.125 Q33.25 -16.417 31.375 -19.636 Q29.5 -22.855 31.312 -26.167 L39.125 -39.917 L28.375 -62.355 L15.459 -75.271 Q15 -75.73 14.938 -76.355 Q14.875 -76.98 15.438 -77.542 Q16 -78.105 16.562 -78.136 Q17.125 -78.167 17.75 -77.605 L102.05 6.756 Q102.5 7.208 102.531 7.864 Q102.562 8.52 102.062 9.05 Q101.5 9.645 100.938 9.645 Q100.375 9.645 99.812 9.02 Z M82.76 8.395 Q80.062 8.395 78.125 6.531 Q76.188 4.666 76.188 1.843 Q76.188 -0.98 78.115 -2.855 Q80.041 -4.73 82.74 -4.73 Q85.438 -4.73 87.375 -2.865 Q89.312 -1.001 89.312 1.822 Q89.312 4.645 87.385 6.52 Q85.459 8.395 82.76 8.395 Z"/></g><g id="Bold-S" transform="matrix(1 0 0 1 2294.23 696)"><path d="M64.55 -31.285 H63.761 L30.229 -64.522 H74.166 Q78.21 -64.522 79.442 -62.253 Q80.675 -59.985 78.9 -56.73 L70.122 -35.033 Q69.531 -33.8 68.347 -32.74 Q67.164 -31.679 64.55 -31.285 Z M26.53 3.135 Q23.67 3.135 21.698 1.163 Q19.725 -0.81 19.725 -3.67 Q19.725 -6.431 21.698 -8.453 Q23.67 -10.475 26.53 -10.475 Q29.292 -10.475 31.313 -8.453 Q33.335 -6.431 33.335 -3.67 Q33.335 -0.81 31.313 1.163 Q29.292 3.135 26.53 3.135 Z M77.766 6.538  55.822 -15.505 H25.643 Q20.761 -15.505 18.32 -19.672 Q15.879 -23.839 18.344 -28.129 L24.163 -37.202 L16.175 -54.856 L7.496 -63.733 Q6.164 -65.064 6.164 -66.469 Q6.164 -67.875 7.496 -69.256 Q8.827 -70.636 10.356 -70.661 Q11.884 -70.686 13.265 -69.305 L83.535 0.965 Q84.867 2.297 84.694 3.801 Q84.522 5.305 83.338 6.538 Q82.007 7.918 80.577 7.918 Q79.147 7.918 77.766 6.538 Z M67.361 3.135 Q64.501 3.135 62.578 1.163 Q60.654 -0.81 60.654 -3.67 Q60.654 -6.431 62.578 -8.453 Q64.501 -10.475 67.361 -10.475 Q70.122 -10.475 72.144 -8.651 Q74.166 -6.826 74.166 -4.064 Q74.166 -1.007 72.194 1.064 Q70.221 3.135 67.361 3.135 Z"/></g><g id="Semibold-S" transform="matrix(1 0 0 1 1998.1 696)"><path d="M63.735 -31.156 H62.946 L29.928 -63.878 H75.409 Q78.253 -63.878 79.228 -62.125 Q80.204 -60.371 78.986 -58.059 L69.222 -34.69 Q68.63 -33.371 67.361 -32.375 Q66.092 -31.379 63.735 -31.156 Z M26.53 2.492 Q23.67 2.492 21.698 0.519 Q19.725 -1.453 19.725 -4.313 Q19.725 -7.075 21.698 -9.096 Q23.67 -11.118 26.53 -11.118 Q29.292 -11.118 31.313 -9.096 Q33.335 -7.075 33.335 -4.313 Q33.335 -1.453 31.313 0.519 Q29.292 2.492 26.53 2.492 Z M77.123 4.994  56.079 -16.148 H26.414 Q21.961 -16.148 19.735 -19.951 Q17.508 -23.753 19.716 -27.743 L25.278 -36.731 L17.289 -54.728 L8.182 -63.947 Q6.979 -65.15 6.979 -66.469 Q6.979 -67.789 8.182 -69.041 Q9.384 -70.293 10.806 -70.318 Q12.227 -70.343 13.479 -69.091 L82.421 -0.149 Q83.623 1.053 83.494 2.45 Q83.364 3.847 82.266 4.994 Q81.063 6.246 79.719 6.246 Q78.375 6.246 77.123 4.994 Z M67.361 2.492 Q64.501 2.492 62.578 0.519 Q60.654 -1.453 60.654 -4.313 Q60.654 -7.075 62.578 -9.096 Q64.501 -11.118 67.361 -11.118 Q70.122 -11.118 72.144 -9.294 Q74.166 -7.469 74.166 -4.708 Q74.166 -1.65 72.194 0.421 Q70.221 2.492 67.361 2.492 Z"/></g><g id="Medium-S" transform="matrix(1 0 0 1 1701.85 696)"><path d="M63.124 -31.06 H62.335 L29.703 -63.396 H76.342 Q78.285 -63.396 79.067 -62.028 Q79.85 -60.66 79.05 -59.057 L68.547 -34.432 Q67.955 -33.049 66.621 -32.102 Q65.288 -31.154 63.124 -31.06 Z M26.53 2.01 Q23.67 2.01 21.698 0.037 Q19.725 -1.935 19.725 -4.796 Q19.725 -7.557 21.698 -9.579 Q23.67 -11.601 26.53 -11.601 Q29.292 -11.601 31.313 -9.579 Q33.335 -7.557 33.335 -4.796 Q33.335 -1.935 31.313 0.037 Q29.292 2.01 26.53 2.01 Z M76.64 3.836  56.272 -16.631 H26.993 Q22.862 -16.631 20.796 -20.16 Q18.73 -23.689 20.746 -27.454 L26.114 -36.377 L18.125 -54.631 L8.696 -64.108 Q7.59 -65.214 7.59 -66.469 Q7.59 -67.725 8.696 -68.88 Q9.802 -70.036 11.144 -70.061 Q12.485 -70.085 13.64 -68.93 L81.584 -0.986 Q82.691 0.121 82.593 1.437 Q82.496 2.754 81.462 3.836 Q80.356 4.992 79.076 4.992 Q77.796 4.992 76.64 3.836 Z M67.361 2.01 Q64.501 2.01 62.578 0.037 Q60.654 -1.935 60.654 -4.796 Q60.654 -7.557 62.578 -9.579 Q64.501 -11.601 67.361 -11.601 Q70.122 -11.601 72.144 -9.776 Q74.166 -7.952 74.166 -5.19 Q74.166 -2.133 72.194 -0.062 Q70.221 2.01 67.361 2.01 Z"/></g><g id="Regular-S" transform="matrix(1 0 0 1 1405.73 696)"><path d="M62.676 -30.989 H61.887 L29.538 -63.042 H77.026 Q78.308 -63.042 78.949 -61.957 Q79.59 -60.872 79.097 -59.788 L68.051 -34.244 Q67.46 -32.814 66.079 -31.901 Q64.698 -30.989 62.676 -30.989 Z M26.53 1.656 Q23.67 1.656 21.698 -0.317 Q19.725 -2.289 19.725 -5.149 Q19.725 -7.911 21.698 -9.933 Q23.67 -11.954 26.53 -11.954 Q29.292 -11.954 31.313 -9.933 Q33.335 -7.911 33.335 -5.149 Q33.335 -2.289 31.313 -0.317 Q29.292 1.656 26.53 1.656 Z M76.286 2.987  56.413 -16.984 H27.418 Q23.522 -16.984 21.574 -20.313 Q19.626 -23.642 21.5 -27.241 L26.727 -36.118 L18.739 -54.56 L9.074 -64.226 Q8.038 -65.261 8.038 -66.469 Q8.038 -67.678 9.074 -68.762 Q10.109 -69.847 11.391 -69.872 Q12.673 -69.897 13.758 -68.812 L80.971 -1.599 Q82.007 -0.563 81.933 0.694 Q81.859 1.952 80.873 2.987 Q79.837 4.072 78.604 4.072 Q77.371 4.072 76.286 2.987 Z M67.361 1.656 Q64.501 1.656 62.578 -0.317 Q60.654 -2.289 60.654 -5.149 Q60.654 -7.911 62.578 -9.933 Q64.501 -11.954 67.361 -11.954 Q70.122 -11.954 72.144 -10.13 Q74.166 -8.305 74.166 -5.544 Q74.166 -2.486 72.194 -0.415 Q70.221 1.656 67.361 1.656 Z"/></g><g id="Light-S" transform="matrix(1 0 0 1 1109.75 696)"><path d="M61.69 -32.639 H60.161 L30.392 -62.17 H74.192 Q75.639 -62.17 76.287 -60.99 Q76.935 -59.81 76.366 -58.593 L66.856 -35.572 Q66.34 -34.217 65.178 -33.428 Q64.015 -32.639 61.69 -32.639 Z M27.045 0.1 Q24.58 0.1 22.874 -1.584 Q21.167 -3.269 21.167 -5.772 Q21.167 -8.176 22.87 -9.914 Q24.574 -11.651 27.039 -11.651 Q29.405 -11.651 31.162 -9.917 Q32.918 -8.183 32.918 -5.779 Q32.918 -3.276 31.165 -1.588 Q29.412 0.1 27.045 0.1 Z M76.666 0.768  57.457 -18.597 H27.076 Q23.617 -18.597 21.925 -21.527 Q20.233 -24.457 21.936 -27.564 L27.903 -37.351 L19.384 -56.495 L11.223 -64.655 Q10.447 -65.432 10.428 -66.251 Q10.409 -67.071 11.217 -67.909 Q12.025 -68.747 12.89 -68.772 Q13.754 -68.797 14.612 -67.958 L80.038 -2.514 Q80.812 -1.739 80.738 -0.861 Q80.664 0.017 79.943 0.777 Q79.135 1.625 78.32 1.625 Q77.504 1.625 76.666 0.768 Z M66.833 0.1 Q64.368 0.1 62.71 -1.584 Q61.053 -3.269 61.053 -5.772 Q61.053 -8.176 62.707 -9.914 Q64.362 -11.651 66.827 -11.651 Q69.193 -11.651 70.949 -10.114 Q72.705 -8.577 72.705 -6.173 Q72.705 -3.473 71.002 -1.686 Q69.298 0.1 66.833 0.1 Z"/></g><g id="Thin-S" transform="matrix(1 0 0 1 814.015 696)"><path d="M60.704 -34.289 H58.435 L31.245 -61.297 H71.358 Q72.97 -61.297 73.625 -60.023 Q74.28 -58.748 73.635 -57.398 L65.661 -36.899 Q65.222 -35.621 64.277 -34.955 Q63.332 -34.289 60.704 -34.289 Z M27.561 -1.455 Q25.491 -1.455 24.049 -2.852 Q22.608 -4.249 22.608 -6.395 Q22.608 -8.442 24.043 -9.895 Q25.478 -11.348 27.548 -11.348 Q29.519 -11.348 31.01 -9.901 Q32.501 -8.455 32.501 -6.408 Q32.501 -4.262 31.016 -2.858 Q29.532 -1.455 27.561 -1.455 Z M77.045 -1.451  58.5 -20.209 H26.735 Q23.712 -20.209 22.276 -22.741 Q20.84 -25.273 22.373 -27.886 L29.079 -38.583 L20.028 -58.43 L13.373 -65.085 Q12.855 -65.603 12.817 -66.033 Q12.78 -66.464 13.36 -67.055 Q13.94 -67.647 14.388 -67.672 Q14.835 -67.697 15.465 -67.105 L79.105 -3.428 Q79.617 -2.915 79.543 -2.416 Q79.469 -1.918 79.014 -1.433 Q78.433 -0.821 78.035 -0.821 Q77.637 -0.821 77.045 -1.451 Z M66.305 -1.455 Q64.235 -1.455 62.843 -2.852 Q61.451 -4.249 61.451 -6.395 Q61.451 -8.442 62.837 -9.895 Q64.222 -11.348 66.292 -11.348 Q68.264 -11.348 69.754 -10.098 Q71.245 -8.849 71.245 -6.802 Q71.245 -4.459 69.81 -2.957 Q68.375 -1.455 66.305 -1.455 Z"/></g><g id="Ultralight-S" transform="matrix(1 0 0 1 517.792 696)"><path d="M60.112 -35.279 H57.4 L31.757 -60.774 H69.658 Q71.368 -60.774 72.027 -59.442 Q72.687 -58.111 71.996 -56.681 L64.945 -37.696 Q64.55 -36.463 63.736 -35.871 Q62.923 -35.279 60.112 -35.279 Z M27.87 -2.388 Q26.037 -2.388 24.755 -3.612 Q23.473 -4.837 23.473 -6.768 Q23.473 -8.601 24.747 -9.883 Q26.02 -11.165 27.853 -11.165 Q29.588 -11.165 30.919 -9.892 Q32.25 -8.618 32.25 -6.785 Q32.25 -4.853 30.927 -3.621 Q29.604 -2.388 27.87 -2.388 Z M77.273 -2.782  59.126 -21.176 H26.53 Q23.769 -21.176 22.486 -23.469 Q21.204 -25.762 22.634 -28.08 L29.785 -39.323 L20.415 -59.59 L14.663 -65.343 Q14.301 -65.705 14.251 -65.902 Q14.202 -66.1 14.646 -66.543 Q15.09 -66.987 15.287 -67.012 Q15.484 -67.037 15.977 -66.593 L78.545 -3.977 Q78.9 -3.621 78.826 -3.349 Q78.752 -3.078 78.456 -2.759 Q78.012 -2.289 77.864 -2.289 Q77.716 -2.289 77.273 -2.782 Z M65.988 -2.388 Q64.156 -2.388 62.923 -3.612 Q61.69 -4.837 61.69 -6.768 Q61.69 -8.601 62.914 -9.883 Q64.139 -11.165 65.972 -11.165 Q67.706 -11.165 69.038 -10.089 Q70.369 -9.012 70.369 -7.179 Q70.369 -5.051 69.095 -3.719 Q67.821 -2.388 65.988 -2.388 Z"/></g></g></svg>