<svg xmlns="http://www.w3.org/2000/svg" version="1.1" width="3300" height="2000"><g id="Notes"><style>
    text {
      font-family: monospace;
      text-anchor: middle;
    }
    text.emphasis {
      font-weight:bold;
    }
    text.lanchor {
      text-anchor: start;
    }
  </style><rect height="2200" id="artboard" fill="white" width="3300" x="0" y="0"/><line id="" style="fill:none;stroke:black;stroke-width:0.5;" x1="263" x2="3036" y1="292" y2="292"/><text class="lanchor emphasis" transform="matrix(1 0 0 1 263 322)">Weight/Scale Variations</text><text transform="matrix(1 0 0 1 559.711 322)">Ultralight</text><text transform="matrix(1 0 0 1 856.422 322)">Thin</text><text transform="matrix(1 0 0 1 1153.13 322)">Light</text><text transform="matrix(1 0 0 1 1449.84 322)">Regular</text><text transform="matrix(1 0 0 1 1746.56 322)">Medium</text><text transform="matrix(1 0 0 1 2043.27 322)">Semibold</text><text transform="matrix(1 0 0 1 2339.98 322)">Bold</text><text transform="matrix(1 0 0 1 2636.69 322)">Heavy</text><text transform="matrix(1 0 0 1 2933.4 322)">Black</text><text id="template-version" style="text-anchor: end;" transform="matrix(1 0 0 1 3036 1933)">Template v.1.0</text><text class="lanchor" transform="matrix(1 0 0 1 263 726)">Small</text><text class="lanchor" transform="matrix(1 0 0 1 263 1156)">Medium</text><text class="lanchor" transform="matrix(1 0 0 1 263 1586)">Large</text></g><g id="Guides"><g id="H-reference" style="fill:#27AAE1;stroke:none;" transform="matrix(1 0 0 1 339 696)"><path d="M 54.9316 0 L 57.666 0 L 30.5664 -70.459 L 28.0762 -70.459 L 0.976562 0 L 3.66211 0 L 12.9395 -24.4629 L 45.7031 -24.4629 Z M 29.1992 -67.0898 L 29.4434 -67.0898 L 44.8242 -26.709 L 13.8184 -26.709 Z"/></g><line id="Baseline-S" style="fill:none;stroke:#27AAE1;opacity:1;stroke-width:0.577;" x1="263" x2="3036" y1="696" y2="696"/><line id="Capline-S" style="fill:none;stroke:#27AAE1;opacity:1;stroke-width:0.577;" x1="263" x2="3036" y1="625.541" y2="625.541"/><g id="H-reference" style="fill:#27AAE1;stroke:none;" transform="matrix(1 0 0 1 339 1126)"><path d="M 54.9316 0 L 57.666 0 L 30.5664 -70.459 L 28.0762 -70.459 L 0.976562 0 L 3.66211 0 L 12.9395 -24.4629 L 45.7031 -24.4629 Z M 29.1992 -67.0898 L 29.4434 -67.0898 L 44.8242 -26.709 L 13.8184 -26.709 Z"/></g><line id="Baseline-M" style="fill:none;stroke:#27AAE1;opacity:1;stroke-width:0.577;" x1="263" x2="3036" y1="1126" y2="1126"/><line id="Capline-M" style="fill:none;stroke:#27AAE1;opacity:1;stroke-width:0.577;" x1="263" x2="3036" y1="1055.54" y2="1055.54"/><g id="H-reference" style="fill:#27AAE1;stroke:none;" transform="matrix(1 0 0 1 339 1556)"><path d="M 54.9316 0 L 57.666 0 L 30.5664 -70.459 L 28.0762 -70.459 L 0.976562 0 L 3.66211 0 L 12.9395 -24.4629 L 45.7031 -24.4629 Z M 29.1992 -67.0898 L 29.4434 -67.0898 L 44.8242 -26.709 L 13.8184 -26.709 Z"/></g><line id="Baseline-L" style="fill:none;stroke:#27AAE1;opacity:1;stroke-width:0.577;" x1="263" x2="3036" y1="1556" y2="1556"/><line id="Capline-L" style="fill:none;stroke:#27AAE1;opacity:1;stroke-width:0.577;" x1="263" x2="3036" y1="1485.54" y2="1485.54"/><rect height="119.336" id="left-margin" style="fill:darkred;stroke:none;opacity:0.4;" width="12.4512" x="1394.06" y="1030.79"/><rect height="119.336" id="right-margin" style="fill:darkgreen;stroke:none;opacity:0.4;" width="12.4512" x="1502.5112" y="1030.79"/><rect x="1406.5112" y="1045" width="96" height="96" fill="none" stroke="blue" stroke-dasharray="5"/><rect x="1394.06" y="1030.79" width="120.9024" height="119.336" fill="none" stroke="blue"/></g><g id="Symbols"><g id="Bold-L" transform="matrix(1 0 0 1 2266 1556)"><path d="M114.97125 -11.20375  43.86 -82.47625 Q51.92250000000001 -85.37875 60.38812500000001 -86.83 Q68.85375 -88.28125 77.4 -88.28125 Q97.55625 -88.28125 115.696875 -80.299375 Q133.8375 -72.3175 148.6725 -59.4175 Q150.76875 -57.32125 150.93 -54.338125 Q151.09125 -51.355 149.15625 -49.0975 L114.97125 -11.20375 Z M134.16 37.171250000000015  101.265 4.4375  83.205 24.59375 Q80.9475 27.335000000000008 77.480625 27.335000000000008 Q74.01375 27.335000000000008 71.75625000000001 24.59375 L5.805000000000001 -49.0975 Q3.7087499999999998 -51.355 3.9506250000000005 -54.176874999999995 Q4.1925 -56.998749999999994 6.45 -59.09499999999999 Q10.6425 -63.12624999999999 14.915625 -66.35125 Q19.188750000000002 -69.57624999999999 24.34875 -72.63999999999999 L4.99875 -91.99 Q3.5475000000000003 -93.44125 3.3056249999999996 -95.86 Q3.0637499999999998 -98.27875 4.8375 -99.89125 Q6.611249999999999 -101.66499999999999 8.86875 -101.66499999999999 Q11.12625 -101.66499999999999 12.738750000000001 -99.89125 L142.06125 29.431250000000006 Q143.67374999999998 31.04374999999999 143.754375 33.30125000000001 Q143.835 35.55875000000003 142.06125 37.171250000000015 Q140.2875 38.94500000000002 138.03 38.94500000000002 Q135.7725 38.94500000000002 134.16 37.171250000000015 Z"/></g><g id="Semibold-L" transform="matrix(1 0 0 1 1970.27 1556)"><path d="M113.84249999999999 -12.17125  44.34375 -81.83125 Q52.40625 -84.57249999999999 60.63 -85.943125 Q68.85375 -87.31375 77.4 -87.31375 Q97.55625 -87.31375 115.85812499999999 -79.4125 Q134.16 -71.51124999999999 149.15625 -58.61124999999999 Q151.09125 -56.83749999999999 151.171875 -54.257499999999986 Q151.2525 -51.677499999999995 149.64 -49.903749999999995 L113.84249999999999 -12.17125 Z M132.87 34.91375000000002  100.45875 2.502500000000012  82.07625 22.013750000000016 Q80.14125000000001 24.110000000000014 77.4 24.110000000000014 Q74.65875 24.110000000000014 72.885 22.013750000000016 L5.32125 -49.903749999999995 Q3.5475000000000003 -51.677499999999995 3.7087499999999998 -54.176874999999995 Q3.87 -56.67624999999999 5.805000000000001 -58.44999999999999 Q10.481250000000001 -62.803749999999994 15.1575 -66.19 Q19.833750000000002 -69.57624999999999 25.31625 -72.80125 L7.2562500000000005 -90.69999999999999 Q5.805000000000001 -92.15125 5.64375 -94.40875 Q5.4825 -96.66624999999999 7.095000000000001 -98.11749999999999 Q8.707500000000001 -99.72999999999999 10.80375 -99.72999999999999 Q12.9 -99.72999999999999 14.512500000000001 -98.11749999999999 L140.2875 27.6575 Q141.73875 29.27000000000001 141.819375 31.366250000000008 Q141.9 33.462500000000006 140.2875 34.91375000000002 Q138.675 36.526250000000005 136.57875 36.526250000000005 Q134.48250000000002 36.526250000000005 132.87 34.91375000000002 Z"/></g><g id="Medium-L" transform="matrix(1 0 0 1 1674.31 1556)"><path d="M113.1975 -12.816249999999997  44.66625 -81.3475 Q52.728750000000005 -83.9275 60.871875 -85.298125 Q69.015 -86.66874999999999 77.4 -86.66874999999999 Q97.55625 -86.66874999999999 115.93875000000001 -78.848125 Q134.32125 -71.0275 149.64 -58.1275 Q151.2525 -56.67624999999999 151.333125 -54.338125 Q151.41375000000002 -51.99999999999999 149.9625 -50.38749999999999 L113.1975 -12.816249999999997 Z M132.06375 33.140000000000015  99.81375 1.0512500000000102  81.27 20.078750000000014 Q79.6575 21.85250000000002 77.4 21.85250000000002 Q75.1425 21.85250000000002 73.53 20.078750000000014 L4.99875 -50.38749999999999 Q3.3862500000000004 -51.99999999999999 3.466875 -54.176874999999995 Q3.5475000000000003 -56.35375 5.32125 -57.966249999999995 Q10.32 -62.64249999999999 15.31875 -66.19 Q20.3175 -69.73749999999998 25.961250000000003 -72.96249999999999 L8.86875 -89.89375 Q7.57875 -91.18374999999999 7.498125000000001 -93.28 Q7.4174999999999995 -95.37625 8.86875 -96.82749999999999 Q10.32 -98.27875 12.335625 -98.27875 Q14.35125 -98.27875 15.802500000000002 -96.82749999999999 L138.9975 26.367500000000007 Q140.44875 27.818749999999994 140.44875 29.753749999999997 Q140.44875 31.68875 138.9975 33.140000000000015 Q137.54625 34.59125 135.530625 34.59125 Q133.515 34.59125 132.06375 33.140000000000015 Z"/></g><g id="Regular-L" transform="matrix(1 0 0 1 1378.56 1556)"><path d="M112.71375000000002 -13.299999999999997  44.988749999999996 -81.02499999999999 Q52.88999999999999 -83.60499999999999 61.033125000000005 -84.895 Q69.17625 -86.185 77.4 -86.185 Q97.7175 -86.185 116.10000000000001 -78.445 Q134.48250000000002 -70.70499999999998 149.9625 -57.80499999999999 Q151.41375000000002 -56.515 151.49437500000002 -54.41874999999999 Q151.57500000000002 -52.3225 150.285 -50.871249999999996 L112.71375000000002 -13.299999999999997 Z M131.41875000000002 31.849999999999994  99.33 -0.07750000000000057  80.78625000000001 18.627500000000026 Q79.33500000000001 20.078750000000014 77.480625 20.078750000000014 Q75.62625 20.078750000000014 74.175 18.627500000000026 L4.67625 -50.871249999999996 Q3.225 -52.3225 3.3056249999999996 -54.338125 Q3.3862500000000004 -56.35375 4.99875 -57.64374999999999 Q10.32 -62.48124999999999 15.48 -66.109375 Q20.64 -69.73749999999998 26.444999999999997 -72.96249999999999 L10.15875 -89.24875 Q8.86875 -90.53875 8.788125 -92.554375 Q8.707500000000001 -94.57 10.15875 -95.86 Q11.610000000000001 -97.31125 13.545000000000002 -97.31125 Q15.48 -97.31125 16.77 -95.86 L138.03 25.400000000000006 Q139.48125000000002 26.690000000000026 139.48125000000002 28.625 Q139.48125000000002 30.560000000000002 138.03 31.849999999999994 Q136.57875 33.30125000000001 134.64375 33.30125000000001 Q132.70875 33.30125000000001 131.41875000000002 31.849999999999994 Z"/></g><g id="Light-L" transform="matrix(1 0 0 1 1082.77 1556)"><path d="M111.2625 -16.2025  48.375 -78.92875 Q55.47 -81.02499999999999 62.72625 -82.073125 Q69.9825 -83.12124999999999 77.4 -83.12124999999999 Q96.26625000000001 -83.12124999999999 113.60062500000001 -76.268125 Q130.935 -69.41499999999999 145.60875 -57.80499999999999 Q147.22125 -56.515 147.301875 -54.41874999999999 Q147.38250000000002 -52.3225 146.0925 -51.03249999999999 L111.2625 -16.2025 Z M130.935 28.30250000000001  98.84625 -3.7862499999999955  80.625 14.435000000000002 Q79.17375 15.886250000000018 77.4 15.886250000000018 Q75.62625 15.886250000000018 74.33625 14.435000000000002 L8.86875 -50.871249999999996 Q7.4174999999999995 -52.3225 7.498125000000001 -54.338125 Q7.57875 -56.35375 9.3525 -57.64374999999999 Q14.834999999999999 -62.31999999999999 19.995 -65.70624999999998 Q25.155 -69.0925 30.6375 -71.995 L13.70625 -88.76499999999999 Q12.738750000000001 -89.73249999999999 12.658125 -91.264375 Q12.5775 -92.79624999999999 13.8675 -93.76374999999999 Q14.834999999999999 -94.8925 16.28625 -94.8925 Q17.7375 -94.8925 18.705 -93.76374999999999 L135.93375 23.303750000000008 Q136.90125 24.27125000000001 136.90125 25.803124999999994 Q136.90125 27.335000000000008 135.93375 28.30250000000001 Q134.805 29.431250000000006 133.35375000000002 29.431250000000006 Q131.9025 29.431250000000006 130.935 28.30250000000001 Z"/></g><g id="Thin-L" transform="matrix(1 0 0 1 787.282 1556)"><path d="M109.81124999999999 -18.943749999999994  51.92250000000001 -76.99374999999999 Q58.050000000000004 -78.60624999999999 64.419375 -79.4125 Q70.78875 -80.21875 77.4 -80.21875 Q94.97625000000001 -80.21875 111.181875 -74.2525 Q127.3875 -68.28625 141.255 -57.80499999999999 Q143.02875 -56.515 143.109375 -54.499375 Q143.19 -52.48375 141.9 -51.03249999999999 L109.81124999999999 -18.943749999999994 Z M130.45125000000002 24.755000000000024  98.20125 -7.49499999999999  80.625 10.242500000000007 Q79.17375 11.693749999999994 77.4 11.693749999999994 Q75.62625 11.693749999999994 74.33625 10.242500000000007 L13.222499999999998 -50.871249999999996 Q11.610000000000001 -52.3225 11.77125 -54.338125 Q11.932500000000001 -56.35375 13.545000000000002 -57.64374999999999 Q19.35 -61.997499999999995 24.429375 -65.2225 Q29.508750000000003 -68.44749999999999 34.830000000000005 -70.86625 L17.415000000000003 -88.28125 Q16.77 -88.92625 16.689375 -90.05499999999999 Q16.60875 -91.18374999999999 17.415000000000003 -91.82875 Q17.89875 -92.47375 19.027500000000003 -92.47375 Q20.15625 -92.47375 20.80125 -91.82875 L133.8375 21.368750000000006 Q134.48250000000002 21.85250000000002 134.563125 22.98124999999999 Q134.64375 24.110000000000014 133.8375 24.755000000000024 Q133.1925 25.400000000000006 132.144375 25.400000000000006 Q131.09625 25.400000000000006 130.45125000000002 24.755000000000024 Z"/></g><g id="Ultralight-L" transform="matrix(1 0 0 1 491.205 1556)"><path d="M109.005 -20.717499999999987  54.018750000000004 -75.70375 Q59.6625 -77.155 65.548125 -77.79999999999998 Q71.43375 -78.445 77.4 -78.445 Q94.33125 -78.445 109.81124999999999 -72.96249999999999 Q125.29125 -67.47999999999999 138.675 -57.80499999999999 Q140.61 -56.515 140.690625 -54.499375 Q140.77125 -52.48375 139.48125000000002 -51.193749999999994 L109.005 -20.717499999999987 Z M130.12875 22.497500000000002  98.03999999999999 -9.752499999999998  80.625 7.662499999999994 Q79.17375 9.11375000000001 77.4 9.11375000000001 Q75.62625 9.11375000000001 74.4975 7.662499999999994 L15.802500000000002 -51.03249999999999 Q14.190000000000001 -52.3225 14.35125 -54.338125 Q14.512500000000001 -56.35375 16.28625 -57.64374999999999 Q22.09125 -61.997499999999995 27.170625000000005 -64.980625 Q32.25 -67.96375 37.41 -70.3825 L19.51125 -87.95875 Q19.188750000000002 -88.4425 19.108125 -89.329375 Q19.027500000000003 -90.21625 19.6725 -90.53875 Q19.995 -91.18374999999999 20.80125 -91.18374999999999 Q21.6075 -91.18374999999999 21.93 -90.53875 L132.70875 20.078750000000014 Q133.03125 20.24000000000001 133.111875 21.126875000000013 Q133.1925 22.013750000000016 132.70875 22.497500000000002 Q132.225 22.98124999999999 131.41875000000002 22.98124999999999 Q130.6125 22.98124999999999 130.12875 22.497500000000002 Z"/></g><g id="Bold-M" transform="matrix(1 0 0 1 2281.8 1126)"><path d="M90.875 -17.97999999999999  36.375 -72.47999999999999 Q42.125 -74.35499999999999 48.065 -75.29499999999999 Q54.0 -76.22999999999999 60.0 -76.22999999999999 Q75.0 -76.22999999999999 88.75 -70.66999999999999 Q102.5 -65.10499999999999 113.25 -54.97999999999999 Q115.375 -52.85499999999999 115.565 -49.85499999999999 Q115.75 -46.85499999999999 113.75 -44.60499999999999 L90.875 -17.97999999999999 Z M101.375 22.02000000000001  77.25 -2.1049999999999898  65.875 11.27000000000001 Q63.5 14.02000000000001 60.0 14.02000000000001 Q56.5 14.02000000000001 54.25 11.27000000000001 L6.375 -44.60499999999999 Q4.25 -46.85499999999999 4.5 -49.85499999999999 Q4.75 -52.85499999999999 6.875 -54.85499999999999 Q9.375 -57.35499999999999 11.625 -59.16999999999999 Q13.875 -60.97999999999999 16.625 -62.85499999999999 L2.75 -76.60499999999999 Q1.125 -78.35499999999999 1.065 -80.66999999999999 Q1.0 -82.97999999999999 2.75 -84.60499999999999 Q4.375 -86.35499999999999 6.685 -86.35499999999999 Q9.0 -86.35499999999999 10.625 -84.60499999999999 L109.375 14.14500000000001 Q111.0 15.77000000000001 111.0 18.02000000000001 Q111.0 20.27000000000001 109.375 22.02000000000001 Q107.625 23.64500000000001 105.375 23.64500000000001 Q103.125 23.64500000000001 101.375 22.02000000000001 Z"/></g><g id="Semibold-M" transform="matrix(1 0 0 1 1985.97 1126)"><path d="M89.875 -18.85499999999999  36.875 -71.85499999999999 Q42.5 -73.47999999999999 48.315 -74.41999999999999 Q54.125 -75.35499999999999 60.0 -75.35499999999999 Q75.0 -75.35499999999999 88.875 -69.85499999999999 Q102.75 -64.35499999999999 113.875 -54.22999999999999 Q115.75 -52.47999999999999 115.875 -49.85499999999999 Q116.0 -47.22999999999999 114.125 -45.35499999999999 L89.875 -18.85499999999999 Z M100.125 19.64500000000001  76.375 -4.10499999999999  64.75 8.64500000000001 Q62.75 10.77000000000001 60.0 10.77000000000001 Q57.25 10.77000000000001 55.25 8.64500000000001 L5.875 -45.35499999999999 Q4.0 -47.22999999999999 4.125 -49.85499999999999 Q4.25 -52.47999999999999 6.125 -54.22999999999999 Q9.125 -56.97999999999999 11.815 -59.04499999999999 Q14.5 -61.10499999999999 17.5 -62.97999999999999 L5.125 -75.35499999999999 Q3.5 -76.97999999999999 3.5 -79.10499999999999 Q3.5 -81.22999999999999 5.125 -82.85499999999999 Q6.625 -84.35499999999999 8.75 -84.35499999999999 Q10.875 -84.35499999999999 12.5 -82.85499999999999 L107.5 12.27000000000001 Q109.125 13.89500000000001 109.125 15.954999999999998 Q109.125 18.02000000000001 107.5 19.64500000000001 Q106.0 21.27000000000001 103.875 21.27000000000001 Q101.75 21.27000000000001 100.125 19.64500000000001 Z"/></g><g id="Medium-M" transform="matrix(1 0 0 1 1689.91 1126)"><path d="M89.125 -19.60499999999999  37.25 -71.35499999999999 Q42.875 -72.97999999999999 48.565 -73.79499999999999 Q54.25 -74.60499999999999 60.0 -74.60499999999999 Q75.125 -74.60499999999999 89.06 -69.22999999999999 Q103.0 -63.85499999999999 114.25 -53.72999999999999 Q116.0 -52.22999999999999 116.065 -49.919999999999995 Q116.125 -47.60499999999999 114.5 -45.97999999999999 L89.125 -19.60499999999999 Z M99.25 17.89500000000001  75.625 -5.60499999999999  63.875 6.52000000000001 Q62.25 8.27000000000001 60.0 8.27000000000001 Q57.75 8.27000000000001 56.125 6.52000000000001 L5.5 -45.97999999999999 Q3.875 -47.60499999999999 3.9400000000000004 -49.919999999999995 Q4.0 -52.22999999999999 5.625 -53.72999999999999 Q9.0 -56.72999999999999 12.0 -58.97999999999999 Q15.0 -61.22999999999999 18.25 -63.10499999999999 L6.875 -74.47999999999999 Q5.375 -75.97999999999999 5.375 -77.97999999999999 Q5.375 -79.97999999999999 6.875 -81.47999999999999 Q8.375 -82.97999999999999 10.375 -82.97999999999999 Q12.375 -82.97999999999999 13.875 -81.47999999999999 L106.125 10.89500000000001 Q107.625 12.39500000000001 107.625 14.39500000000001 Q107.625 16.39500000000001 106.125 17.89500000000001 Q104.625 19.39500000000001 102.625 19.39500000000001 Q100.625 19.39500000000001 99.25 17.89500000000001 Z"/></g><g id="Regular-M" transform="matrix(1 0 0 1 1394.06 1126)"><path d="M88.5 -20.10499999999999  37.625 -70.97999999999999 Q43.125 -72.47999999999999 48.69 -73.29499999999999 Q54.25 -74.10499999999999 60.0 -74.10499999999999 Q75.25 -74.10499999999999 89.25 -68.79499999999999 Q103.25 -63.47999999999999 114.625 -53.35499999999999 Q116.125 -51.97999999999999 116.19 -49.919999999999995 Q116.25 -47.85499999999999 114.875 -46.47999999999999 L88.5 -20.10499999999999 Z M98.5 16.52000000000001  75.25 -6.85499999999999  63.375 5.02000000000001 Q61.875 6.52000000000001 60.0 6.52000000000001 Q58.125 6.52000000000001 56.75 5.02000000000001 L5.25 -46.47999999999999 Q3.75 -47.85499999999999 3.81 -49.97999999999999 Q3.875 -52.10499999999999 5.375 -53.35499999999999 Q9.0 -56.60499999999999 12.190000000000001 -58.919999999999995 Q15.375 -61.22999999999999 18.875 -63.22999999999999 L8.125 -73.85499999999999 Q6.75 -75.35499999999999 6.75 -77.22999999999999 Q6.75 -79.10499999999999 8.25 -80.47999999999999 Q9.625 -81.97999999999999 11.559999999999999 -81.97999999999999 Q13.5 -81.97999999999999 14.875 -80.47999999999999 L105.25 9.89500000000001 Q106.625 11.27000000000001 106.625 13.14500000000001 Q106.625 15.02000000000001 105.25 16.52000000000001 Q103.75 17.89500000000001 101.875 17.89500000000001 Q100.0 17.89500000000001 98.5 16.52000000000001 Z"/></g><g id="Light-M" transform="matrix(1 0 0 1 1098.18 1126)"><path d="M86.875 -21.85499999999999  39.5 -69.22999999999999 Q44.625 -70.47999999999999 49.690000000000005 -71.16999999999999 Q54.75 -71.85499999999999 60.0 -71.85499999999999 Q74.25 -71.85499999999999 87.44 -67.04499999999999 Q100.625 -62.22999999999999 111.5 -53.10499999999999 Q113.0 -51.85499999999999 113.065 -49.97999999999999 Q113.125 -48.10499999999999 111.875 -46.72999999999999 L86.875 -21.85499999999999 Z M99.0 13.64500000000001  75.25 -10.10499999999999  63.0 2.0200000000000102 Q61.75 3.3950000000000102 60.0 3.3950000000000102 Q58.25 3.3950000000000102 57.0 2.0200000000000102 L8.25 -46.72999999999999 Q6.875 -47.97999999999999 6.9399999999999995 -49.919999999999995 Q7.0 -51.85499999999999 8.5 -53.10499999999999 Q12.5 -56.35499999999999 15.815 -58.60499999999999 Q19.125 -60.85499999999999 22.625 -62.60499999999999 L11.0 -74.35499999999999 Q10.0 -75.35499999999999 10.0 -76.79499999999999 Q10.0 -78.22999999999999 11.0 -79.22999999999999 Q12.125 -80.35499999999999 13.5 -80.35499999999999 Q14.875 -80.35499999999999 16.0 -79.22999999999999 L104.0 8.64500000000001 Q105.0 9.77000000000001 105.0 11.14500000000001 Q105.0 12.52000000000001 104.0 13.64500000000001 Q102.875 14.77000000000001 101.44 14.77000000000001 Q100.0 14.77000000000001 99.0 13.64500000000001 Z"/></g><g id="Thin-M" transform="matrix(1 0 0 1 802.565 1126)"><path d="M85.375 -23.60499999999999  41.5 -67.35499999999999 Q46.125 -68.47999999999999 50.685 -68.97999999999999 Q55.25 -69.47999999999999 60.0 -69.47999999999999 Q73.25 -69.47999999999999 85.625 -65.22999999999999 Q98.0 -60.97999999999999 108.375 -52.85499999999999 Q109.875 -51.72999999999999 110.0 -49.97999999999999 Q110.125 -48.22999999999999 108.875 -46.97999999999999 L85.375 -23.60499999999999 Z M99.375 10.77000000000001  75.25 -13.47999999999999  62.75 -0.9799999999999898 Q61.5 0.27000000000001023 60.0 0.27000000000001023 Q58.5 0.27000000000001023 57.25 -0.9799999999999898 L11.25 -46.97999999999999 Q10.0 -48.22999999999999 10.125 -49.97999999999999 Q10.25 -51.72999999999999 11.625 -52.72999999999999 Q16.0 -56.10499999999999 19.5 -58.294999999999995 Q23.0 -60.47999999999999 26.5 -62.10499999999999 L13.875 -74.72999999999999 Q13.25 -75.47999999999999 13.19 -76.41999999999999 Q13.125 -77.35499999999999 13.875 -78.10499999999999 Q14.625 -78.85499999999999 15.5 -78.85499999999999 Q16.375 -78.85499999999999 17.125 -78.10499999999999 L102.75 7.52000000000001 Q103.375 8.14500000000001 103.44 9.085000000000008 Q103.5 10.02000000000001 102.75 10.77000000000001 Q102.0 11.52000000000001 101.065 11.52000000000001 Q100.125 11.52000000000001 99.375 10.77000000000001 Z"/></g><g id="Ultralight-M" transform="matrix(1 0 0 1 506.415 1126)"><path d="M84.5 -24.60499999999999  42.75 -66.35499999999999 Q47.0 -67.35499999999999 51.31 -67.79499999999999 Q55.625 -68.22999999999999 60.0 -68.22999999999999 Q72.75 -68.22999999999999 84.625 -64.22999999999999 Q96.5 -60.22999999999999 106.625 -52.72999999999999 Q108.0 -51.72999999999999 108.125 -50.10499999999999 Q108.25 -48.47999999999999 107.125 -47.22999999999999 L84.5 -24.60499999999999 Z M99.75 9.02000000000001  75.25 -15.47999999999999  62.625 -2.7299999999999898 Q61.5 -1.6049999999999898 60.065 -1.6049999999999898 Q58.625 -1.6049999999999898 57.5 -2.7299999999999898 L13.125 -47.10499999999999 Q11.875 -48.35499999999999 12.0 -49.97999999999999 Q12.125 -51.60499999999999 13.5 -52.60499999999999 Q18.125 -55.97999999999999 21.69 -58.10499999999999 Q25.25 -60.22999999999999 28.875 -61.85499999999999 L15.625 -75.10499999999999 Q15.25 -75.47999999999999 15.19 -76.16999999999999 Q15.125 -76.85499999999999 15.625 -77.35499999999999 Q16.125 -77.97999999999999 16.75 -77.97999999999999 Q17.375 -77.97999999999999 17.875 -77.35499999999999 L102.0 6.77000000000001 Q102.5 7.14500000000001 102.5 7.835000000000008 Q102.5 8.52000000000001 102.0 9.02000000000001 Q101.5 9.64500000000001 100.875 9.64500000000001 Q100.25 9.64500000000001 99.75 9.02000000000001 Z"/></g><g id="Bold-S" transform="matrix(1 0 0 1 2294.23 696)"><path d="M69.925914 -22.211499999999994  26.529336 -65.707492 Q31.561578 -67.47800799999999 36.835254 -68.32065999999999 Q42.11366400000001 -69.15857799999999 47.34 -69.15857799999999 Q59.175 -69.15857799999999 70.072668 -64.91691399999999 Q80.97033599999999 -60.67524999999999 89.55307800000001 -52.88308599999999 Q91.1295 -51.207249999999995 91.276254 -49.03907799999999 Q91.42300800000001 -46.86617199999999 89.946 -45.190335999999995 L69.925914 -22.211499999999994 Z M79.687422 8.5595  60.259085999999996 -10.769421999999992  51.681078 -0.6149919999999867 Q49.905828 1.4585000000000008 47.34 1.4585000000000008 Q44.774172 1.4585000000000008 43.098335999999996 -0.6149919999999867 L4.833413999999999 -45.190335999999995 Q3.256992 -46.86617199999999 3.50316 -48.98700399999999 Q3.749328 -51.10783599999999 5.32575 -52.68899199999999 Q7.593336000000001 -54.857164 9.122418 -56.08800399999999 Q10.6515 -57.323578 12.625577999999999 -58.60649199999999 L3.649914 -67.47800799999999 Q2.466414 -68.760922 2.367 -70.436758 Q2.267586 -72.11732799999999 3.5505 -73.300828 Q4.734 -74.57900799999999 6.362496 -74.57900799999999 Q7.990991999999999 -74.57900799999999 9.174491999999999 -73.300828 L85.41082800000001 2.935508000000013 Q86.594328 4.119008000000008 86.594328 5.700164000000015 Q86.594328 7.276586000000009 85.41082800000001 8.5595 Q84.127914 9.74300000000001 82.551492 9.74300000000001 Q80.97033599999999 9.74300000000001 79.687422 8.5595 Z"/></g><g id="Semibold-S" transform="matrix(1 0 0 1 1998.1 696)"><path d="M69.135336 -22.902663999999994  26.926992 -65.210422 Q31.855086 -66.79157799999999 37.034082000000005 -67.62949599999999 Q42.213077999999996 -68.46741399999999 47.34 -68.46741399999999 Q59.175 -68.46741399999999 70.172082 -64.27309 Q81.16916400000001 -60.083499999999994 90.04541400000001 -52.291335999999994 Q91.42300800000001 -50.90900799999999 91.52242199999999 -49.03907799999999 Q91.621836 -47.164413999999994 90.239508 -45.78208599999999 L69.135336 -22.902663999999994 Z M78.70275 6.684836000000004  59.567922 -12.350577999999999  50.79108599999999 -2.683749999999989 Q49.314078 -1.1073279999999954 47.34 -1.1073279999999954 Q45.365922 -1.1073279999999954 43.88891400000001 -2.683749999999989 L4.440492 -45.78208599999999 Q3.058164 -47.164413999999994 3.204918 -48.98700399999999 Q3.3516719999999998 -50.81432799999999 4.734 -52.19192199999999 Q7.394508 -54.558921999999995 9.269172 -55.98858999999999 Q11.143836 -57.422991999999994 13.312007999999999 -58.70117199999999 L5.524578 -66.493336 Q4.341078 -67.676836 4.289004 -69.205918 Q4.241664 -70.73499999999999 5.425164 -71.9185 Q6.50925 -73.002586 7.990991999999999 -73.002586 Q9.468 -73.002586 10.6515 -71.9185 L83.929086 1.4585000000000008 Q85.112586 2.64200000000001 85.112586 4.0716680000000025 Q85.112586 5.501336000000009 83.929086 6.684836000000004 Q82.845 7.868335999999999 81.367992 7.868335999999999 Q79.88625 7.868335999999999 78.70275 6.684836000000004 Z"/></g><g id="Medium-S" transform="matrix(1 0 0 1 1701.85 696)"><path d="M68.54358599999999 -23.494414  27.2205 -64.8175 Q32.153328 -66.39392199999999 37.232910000000004 -67.13716 Q42.312492000000006 -67.875664 47.34 -67.875664 Q59.274414 -67.875664 70.31883599999999 -63.780753999999995 Q81.367992 -59.69057799999999 90.338922 -51.89841399999999 Q91.621836 -50.71491399999999 91.67390999999999 -49.086417999999995 Q91.72125 -47.457921999999996 90.53775 -46.274421999999994 L68.54358599999999 -23.494414 Z M78.011586 5.302508000000017  58.976172 -13.534077999999994  50.099922 -4.359585999999993 Q48.916422 -3.076671999999988 47.34 -3.076671999999988 Q45.763578 -3.076671999999988 44.580078 -4.359585999999993 L4.14225 -46.274421999999994 Q2.95875 -47.457921999999996 3.058164 -49.03907799999999 Q3.157578 -50.6155 4.341078 -51.79899999999999 Q7.299828 -54.36482799999999 9.42066 -55.94125 Q11.541492000000002 -57.51767199999999 13.908492 -58.800585999999996 L6.902172 -65.802172 Q5.818086 -66.890992 5.770746000000001 -68.32065999999999 Q5.718672 -69.750328 6.807492 -70.834414 Q7.891578 -71.9185 9.269172 -71.9185 Q10.6515 -71.9185 11.735586 -70.834414 L82.845 0.3744140000000158 Q83.929086 1.4585000000000008 83.929086 2.840828000000016 Q83.929086 4.218422000000004 82.845 5.302508000000017 Q81.760914 6.391328000000016 80.378586 6.391328000000016 Q79.000992 6.391328000000016 78.011586 5.302508000000017 Z"/></g><g id="Regular-S" transform="matrix(1 0 0 1 1405.73 696)"><path d="M68.05125 -23.88733599999999  27.514008 -64.52399199999999 Q32.347422 -66.00099999999999 37.32759 -66.739504 Q42.312492000000006 -67.47800799999999 47.34 -67.47800799999999 Q59.373827999999996 -67.47800799999999 70.46558999999999 -63.435171999999994 Q81.562086 -59.39233599999999 90.637164 -51.60017199999999 Q91.72125 -50.516085999999994 91.76859 -49.086417999999995 Q91.82066400000001 -47.656749999999995 90.83599199999999 -46.67207799999999 L68.05125 -23.88733599999999 Z M77.41983599999999 4.218422000000004  58.682664 -14.518749999999997  49.707 -5.543085999999988 Q48.622914 -4.458999999999989 47.34 -4.458999999999989 Q46.057086 -4.458999999999989 45.072414 -5.543085999999988 L3.943422 -46.67207799999999 Q2.859336 -47.656749999999995 2.95875 -49.086417999999995 Q3.058164 -50.516085999999994 4.14225 -51.50549199999999 Q7.299828 -54.26541399999999 9.567414 -55.89390999999999 Q11.835 -57.51767199999999 14.400827999999999 -58.89999999999999 L7.891578 -65.30983599999999 Q6.902172 -66.39392199999999 6.854832 -67.72891 Q6.807492 -69.059164 7.891578 -70.043836 Q8.87625 -71.127922 10.206504 -71.127922 Q11.541492000000002 -71.127922 12.526164 -70.043836 L82.153836 -0.41616399999999487 Q83.138508 0.5685080000000085 83.138508 1.8514219999999995 Q83.138508 3.1343360000000047 82.153836 4.218422000000004 Q81.06975 5.2078280000000206 79.786836 5.2078280000000206 Q78.50392199999999 5.2078280000000206 77.41983599999999 4.218422000000004 Z"/></g><g id="Light-S" transform="matrix(1 0 0 1 1109.75 696)"><path d="M66.76833599999999 -25.269664  28.99575 -63.14166399999999 Q33.530922000000004 -64.424578 38.118168 -65.06366799999999 Q42.705414000000005 -65.707492 47.34 -65.707492 Q58.58325 -65.707492 69.035922 -62.05757799999999 Q79.493328 -58.407664 88.17075 -51.406077999999994 Q89.254836 -50.41667199999999 89.30690999999999 -49.13375799999999 Q89.35425 -47.855577999999994 88.468992 -46.86617199999999 L66.76833599999999 -25.269664 Z M77.81749199999999 1.9508360000000096  58.682664 -17.084577999999993  49.413492000000005 -7.910085999999993 Q48.5235 -6.9254140000000035 47.34 -6.9254140000000035 Q46.1565 -6.9254140000000035 45.266507999999995 -7.910085999999993 L6.310422 -46.86617199999999 Q5.32575 -47.75616399999999 5.425164 -49.03907799999999 Q5.524578 -50.321991999999995 6.608663999999999 -51.306664 Q10.05975 -54.066585999999994 12.42675 -55.643007999999995 Q14.79375 -57.22416399999999 17.359578 -58.407664 L10.159163999999999 -65.707492 Q9.468 -66.39392199999999 9.42066 -67.38332799999999 Q9.368586 -68.368 10.05975 -69.059164 Q10.850328 -69.84500799999999 11.735586 -69.84500799999999 Q12.625577999999999 -69.84500799999999 13.411422 -69.059164 L81.16916400000001 -1.400835999999984 Q81.86032800000001 -0.6149919999999867 81.86032800000001 0.2750000000000057 Q81.86032800000001 1.164991999999998 81.16916400000001 1.9508360000000096 Q80.378586 2.741414000000006 79.441254 2.741414000000006 Q78.50392199999999 2.741414000000006 77.81749199999999 1.9508360000000096 Z"/></g><g id="Thin-S" transform="matrix(1 0 0 1 814.015 696)"><path d="M65.584836 -26.651991999999993  30.572172000000002 -61.659921999999995 Q34.714422 -62.84342199999999 38.908745999999994 -63.335758 Q43.098335999999996 -63.83282799999999 47.34 -63.83282799999999 Q57.792672 -63.83282799999999 67.606254 -60.62790999999999 Q77.41983599999999 -57.422991999999994 85.704336 -51.207249999999995 Q86.788422 -50.321991999999995 86.887836 -49.13849199999999 Q86.98725 -47.95499199999999 86.101992 -47.06499999999999 L65.584836 -26.651991999999993 Z M78.111 -0.316749999999999  58.682664 -19.745085999999986  49.214664000000006 -10.277085999999983 Q48.324672 -9.39182799999999 47.34 -9.39182799999999 Q46.355328 -9.39182799999999 45.46533599999999 -10.277085999999983 L8.677422 -47.06499999999999 Q7.792164 -47.95499199999999 7.938918 -49.086417999999995 Q8.085672 -50.22257799999999 9.075078 -51.008421999999996 Q12.819672 -53.872491999999994 15.33816 -55.39684 Q17.851914 -56.92592199999999 20.413008 -58.010008 L12.42675 -66.00099999999999 Q12.033828 -66.493336 11.934414 -67.08508599999999 Q11.835 -67.676836 12.327336 -68.16917199999999 Q12.819672 -68.661508 13.312007999999999 -68.661508 Q13.809078 -68.661508 14.301414 -68.16917199999999 L80.18449199999999 -2.2908280000000047 Q80.577414 -1.8931719999999927 80.624754 -1.3534959999999927 Q80.676828 -0.8090859999999935 80.18449199999999 -0.316749999999999 Q79.687422 0.1755860000000098 79.14774600000001 0.1755860000000098 Q78.603336 0.1755860000000098 78.111 -0.316749999999999 Z"/></g><g id="Ultralight-S" transform="matrix(1 0 0 1 517.792 696)"><path d="M64.893672 -27.43783599999999  31.561578 -60.874078 Q35.405586 -61.958164 39.401082 -62.40315999999999 Q43.396578 -62.84342199999999 47.34 -62.84342199999999 Q57.39975 -62.84342199999999 66.82041 -59.837331999999996 Q76.236336 -56.82650799999999 84.32200800000001 -51.10783599999999 Q85.311414 -50.321991999999995 85.41082800000001 -49.233171999999996 Q85.505508 -48.149086 84.71966400000001 -47.26382799999999 L64.893672 -27.43783599999999 Z M78.404508 -1.699078  58.682664 -21.321507999999987  49.11525 -11.659413999999998 Q48.324672 -10.868835999999988 47.38734 -10.868835999999988 Q46.450008 -10.868835999999988 45.66416400000001 -11.659413999999998 L10.159163999999999 -47.164413999999994 Q9.269172 -48.049671999999994 9.42066 -49.086417999999995 Q9.567414 -50.123163999999996 10.552086000000001 -50.90900799999999 Q14.495508 -53.77307799999999 17.061336 -55.250085999999996 Q19.627164 -56.73182799999999 22.287672 -57.81591399999999 L13.809078 -66.294508 Q13.61025 -66.493336 13.510836000000001 -66.886258 Q13.411422 -67.283914 13.709664 -67.577422 Q14.003172000000001 -67.975078 14.301414 -67.975078 Q14.594922 -67.975078 14.893163999999999 -67.577422 L79.588008 -2.882577999999995 Q79.88625 -2.683749999999989 79.88625 -2.338167999999996 Q79.88625 -1.9925859999999886 79.588008 -1.699078 Q79.2945 -1.301421999999988 79.000992 -1.301421999999988 Q78.70275 -1.301421999999988 78.404508 -1.699078 Z"/></g></g></svg>