<svg xmlns="http://www.w3.org/2000/svg" version="1.1" width="3300" height="2000"><g id="Notes"><style>
    text {
      font-family: monospace;
      text-anchor: middle;
    }
    text.emphasis {
      font-weight:bold;
    }
    text.lanchor {
      text-anchor: start;
    }
  </style><rect height="2200" id="artboard" fill="white" width="3300" x="0" y="0"/><line id="" style="fill:none;stroke:black;stroke-width:0.5;" x1="263" x2="3036" y1="292" y2="292"/><text class="lanchor emphasis" transform="matrix(1 0 0 1 263 322)">Weight/Scale Variations</text><text transform="matrix(1 0 0 1 559.711 322)">Ultralight</text><text transform="matrix(1 0 0 1 856.422 322)">Thin</text><text transform="matrix(1 0 0 1 1153.13 322)">Light</text><text transform="matrix(1 0 0 1 1449.84 322)">Regular</text><text transform="matrix(1 0 0 1 1746.56 322)">Medium</text><text transform="matrix(1 0 0 1 2043.27 322)">Semibold</text><text transform="matrix(1 0 0 1 2339.98 322)">Bold</text><text transform="matrix(1 0 0 1 2636.69 322)">Heavy</text><text transform="matrix(1 0 0 1 2933.4 322)">Black</text><text id="template-version" style="text-anchor: end;" transform="matrix(1 0 0 1 3036 1933)">Template v.1.0</text><text class="lanchor" transform="matrix(1 0 0 1 263 726)">Small</text><text class="lanchor" transform="matrix(1 0 0 1 263 1156)">Medium</text><text class="lanchor" transform="matrix(1 0 0 1 263 1586)">Large</text></g><g id="Guides"><g id="H-reference" style="fill:#27AAE1;stroke:none;" transform="matrix(1 0 0 1 339 696)"><path d="M 54.9316 0 L 57.666 0 L 30.5664 -70.459 L 28.0762 -70.459 L 0.976562 0 L 3.66211 0 L 12.9395 -24.4629 L 45.7031 -24.4629 Z M 29.1992 -67.0898 L 29.4434 -67.0898 L 44.8242 -26.709 L 13.8184 -26.709 Z"/></g><line id="Baseline-S" style="fill:none;stroke:#27AAE1;opacity:1;stroke-width:0.577;" x1="263" x2="3036" y1="696" y2="696"/><line id="Capline-S" style="fill:none;stroke:#27AAE1;opacity:1;stroke-width:0.577;" x1="263" x2="3036" y1="625.541" y2="625.541"/><g id="H-reference" style="fill:#27AAE1;stroke:none;" transform="matrix(1 0 0 1 339 1126)"><path d="M 54.9316 0 L 57.666 0 L 30.5664 -70.459 L 28.0762 -70.459 L 0.976562 0 L 3.66211 0 L 12.9395 -24.4629 L 45.7031 -24.4629 Z M 29.1992 -67.0898 L 29.4434 -67.0898 L 44.8242 -26.709 L 13.8184 -26.709 Z"/></g><line id="Baseline-M" style="fill:none;stroke:#27AAE1;opacity:1;stroke-width:0.577;" x1="263" x2="3036" y1="1126" y2="1126"/><line id="Capline-M" style="fill:none;stroke:#27AAE1;opacity:1;stroke-width:0.577;" x1="263" x2="3036" y1="1055.54" y2="1055.54"/><g id="H-reference" style="fill:#27AAE1;stroke:none;" transform="matrix(1 0 0 1 339 1556)"><path d="M 54.9316 0 L 57.666 0 L 30.5664 -70.459 L 28.0762 -70.459 L 0.976562 0 L 3.66211 0 L 12.9395 -24.4629 L 45.7031 -24.4629 Z M 29.1992 -67.0898 L 29.4434 -67.0898 L 44.8242 -26.709 L 13.8184 -26.709 Z"/></g><line id="Baseline-L" style="fill:none;stroke:#27AAE1;opacity:1;stroke-width:0.577;" x1="263" x2="3036" y1="1556" y2="1556"/><line id="Capline-L" style="fill:none;stroke:#27AAE1;opacity:1;stroke-width:0.577;" x1="263" x2="3036" y1="1485.54" y2="1485.54"/><rect height="119.336" id="left-margin" style="fill:darkred;stroke:none;opacity:0.4;" width="12.4512" x="1394.06" y="1030.79"/><rect height="119.336" id="right-margin" style="fill:darkgreen;stroke:none;opacity:0.4;" width="12.4512" x="1502.5112" y="1030.79"/><rect x="1406.5112" y="1045" width="96" height="96" fill="none" stroke="blue" stroke-dasharray="5"/><rect x="1394.06" y="1030.79" width="120.9024" height="119.336" fill="none" stroke="blue"/></g><g id="Symbols"><g id="Bold-L" transform="matrix(1 0 0 1 2266 1556)"><path d="M117.55125000000001 -44.90499999999999 Q104.8125 -44.90499999999999 95.7825 -53.85437499999999 Q86.7525 -62.803749999999994 86.7525 -75.70375 Q86.7525 -88.4425 95.7825 -97.4725 Q104.8125 -106.5025 117.55125000000001 -106.5025 Q130.45125000000002 -106.5025 139.40062500000002 -97.4725 Q148.35 -88.4425 148.35 -75.70375 Q148.35 -62.803749999999994 139.32000000000002 -53.85437499999999 Q130.29 -44.90499999999999 117.55125000000001 -44.90499999999999 Z M114.16499999999999 -72.3175 H121.74375 V-95.37625 H114.16499999999999 V-72.3175 Z M24.1875 20.401250000000005 Q20.478749999999998 20.401250000000005 17.89875 17.82125000000002 Q15.31875 15.241250000000008 15.31875 11.532500000000013 V-41.51875 L29.186250000000005 -83.2825 Q30.315 -86.83 33.298125 -88.92625 Q36.28125 -91.0225 39.99 -91.0225 H75.78750000000001 Q74.33625 -87.31375 73.610625 -83.44375 Q72.885 -79.57374999999999 73.04625 -75.70375 H42.73125 L34.5075 -50.38749999999999 H80.78625000000001 Q82.72125 -47.646249999999995 84.97875 -45.22749999999999 Q87.23625 -42.80875 89.81625000000001 -40.71249999999999 H30.47625 V-8.301249999999982 H124.32374999999999 V-31.521249999999995 Q128.51625 -32.004999999999995 132.38625 -33.375625 Q136.25625 -34.74625 139.64249999999998 -37.00375 V11.532500000000013 Q139.64249999999998 15.241250000000008 136.90125 17.82125000000002 Q134.16 20.401250000000005 130.6125 20.401250000000005 H130.935 Q127.22625000000001 20.401250000000005 124.72687499999999 17.982500000000016 Q122.22749999999999 15.563749999999999 122.22749999999999 11.855000000000018 V6.856250000000003 H32.5725 V11.855000000000018 Q32.5725 15.563749999999999 29.992500000000003 17.982500000000016 Q27.4125 20.401250000000005 23.70375 20.401250000000005 H24.1875 Z M118.03500000000001 -55.224999999999994 Q120.13125000000001 -55.224999999999994 121.58250000000001 -56.59562499999999 Q123.03375 -57.966249999999995 123.03375 -60.223749999999995 Q123.03375 -62.31999999999999 121.58250000000001 -63.771249999999995 Q120.13125000000001 -65.2225 118.03500000000001 -65.2225 Q115.61625000000001 -65.06125 114.32625000000002 -63.69062499999999 Q113.03625 -62.31999999999999 113.03625 -60.223749999999995 Q113.03625 -57.966249999999995 114.40687500000001 -56.59562499999999 Q115.7775 -55.224999999999994 118.03500000000001 -55.224999999999994 Z M46.923750000000005 -15.718749999999986 Q50.471250000000005 -15.718749999999986 53.051249999999996 -18.29875 Q55.63125 -20.878749999999997 55.63125 -24.426249999999982 Q55.63125 -28.13499999999999 53.051249999999996 -30.795624999999987 Q50.471250000000005 -33.45625 46.923750000000005 -33.45625 Q43.05375 -33.45625 40.47375 -30.795624999999987 Q37.893750000000004 -28.13499999999999 37.893750000000004 -24.426249999999982 Q37.893750000000004 -20.717499999999987 40.47375 -18.218125 Q43.05375 -15.718749999999986 46.923750000000005 -15.718749999999986 Z M108.19874999999999 -15.718749999999986 Q111.90750000000001 -15.718749999999986 114.568125 -18.29875 Q117.22875 -20.878749999999997 117.22875 -24.426249999999982 Q117.22875 -26.36125 116.26124999999999 -28.21562499999999 Q115.29375 -30.069999999999993 113.68125 -31.19874999999999 Q111.58500000000001 -31.36 109.408125 -31.763125000000002 Q107.23125 -32.16624999999999 105.135 -32.81124999999999 Q102.555 -32.004999999999995 101.02312500000001 -29.66687499999999 Q99.49125000000001 -27.32875 99.49125000000001 -24.426249999999982 Q99.49125000000001 -20.878749999999997 102.07124999999999 -18.29875 Q104.65125000000002 -15.718749999999986 108.19874999999999 -15.718749999999986 Z"/></g><g id="Semibold-L" transform="matrix(1 0 0 1 1970.27 1556)"><path d="M117.55125000000001 -44.74374999999999 Q104.8125 -44.74374999999999 95.7825 -53.77374999999999 Q86.7525 -62.803749999999994 86.7525 -75.70375 Q86.7525 -88.28125 95.7825 -97.31125 Q104.8125 -106.34125 117.55125000000001 -106.34125 Q130.45125000000002 -106.34125 139.40062500000002 -97.391875 Q148.35 -88.4425 148.35 -75.54249999999999 Q148.35 -62.64249999999999 139.32000000000002 -53.693124999999995 Q130.29 -44.74374999999999 117.55125000000001 -44.74374999999999 Z M114.64874999999999 -71.51124999999999 H121.26 V-94.57 H114.64874999999999 V-71.51124999999999 Z M24.1875 18.627500000000026 Q21.285 18.627500000000026 19.188750000000002 16.53125 Q17.0925 14.435000000000002 17.0925 11.532500000000013 V-41.19624999999999 L30.798750000000002 -82.79875 Q31.927500000000002 -85.70124999999999 34.346250000000005 -87.475 Q36.765 -89.24875 39.99 -89.24875 H75.1425 Q74.01375 -86.02374999999999 73.449375 -82.79875 Q72.885 -79.57374999999999 73.04625 -76.34875 H42.2475 L33.70125 -50.38749999999999 H80.78625000000001 Q82.56 -47.646249999999995 84.81750000000001 -45.22749999999999 Q87.075 -42.80875 89.655 -40.71249999999999 H29.83125 V-7.65625 H124.96875 V-31.521249999999995 Q128.51625 -32.004999999999995 131.74125 -33.053124999999994 Q134.96625 -34.10124999999999 137.86875 -35.874999999999986 V11.532500000000013 Q137.86875 14.435000000000002 135.691875 16.53125 Q133.515 18.627500000000026 130.6125 18.627500000000026 H129.32250000000002 Q126.25874999999999 18.627500000000026 124.32374999999999 16.611875000000026 Q122.38875000000002 14.596250000000012 122.38875000000002 11.693749999999994 V5.08250000000001 H32.41125 V11.693749999999994 Q32.41125 14.596250000000012 30.315 16.611875000000026 Q28.21875 18.627500000000026 25.31625 18.627500000000026 H24.1875 Z M118.03500000000001 -55.86999999999999 Q119.80875 -55.86999999999999 121.09875 -57.07937499999999 Q122.38875000000002 -58.288749999999986 122.38875000000002 -60.223749999999995 Q122.38875000000002 -62.15874999999999 121.09875 -63.44875 Q119.80875 -64.73875 118.03500000000001 -64.73875 Q115.93875000000001 -64.57749999999999 114.81 -63.36812499999999 Q113.68125 -62.15874999999999 113.68125 -60.223749999999995 Q113.68125 -58.288749999999986 114.890625 -57.07937499999999 Q116.10000000000001 -55.86999999999999 118.03500000000001 -55.86999999999999 Z M46.60125 -15.396249999999995 Q50.14875000000001 -15.396249999999995 52.728750000000005 -17.895624999999995 Q55.308749999999996 -20.394999999999982 55.308749999999996 -24.10374999999999 Q55.308749999999996 -27.812499999999986 52.728750000000005 -30.473124999999982 Q50.14875000000001 -33.13374999999999 46.60125 -33.13374999999999 Q42.73125 -33.13374999999999 40.15125 -30.473124999999982 Q37.57125 -27.812499999999986 37.57125 -24.10374999999999 Q37.57125 -20.394999999999982 40.15125 -17.895624999999995 Q42.73125 -15.396249999999995 46.60125 -15.396249999999995 Z M108.52125 -15.396249999999995 Q112.22999999999999 -15.396249999999995 114.890625 -17.895624999999995 Q117.55125000000001 -20.394999999999982 117.55125000000001 -24.10374999999999 Q117.55125000000001 -26.19999999999999 116.58375 -28.054374999999993 Q115.61625000000001 -29.908749999999998 114.00375000000001 -31.037499999999994 Q111.90750000000001 -31.19874999999999 109.730625 -31.601874999999993 Q107.55375000000001 -32.004999999999995 105.61875 -32.48874999999998 Q102.8775 -31.68249999999999 101.345625 -29.344375 Q99.81375 -27.006249999999994 99.81375 -24.10374999999999 Q99.81375 -20.394999999999982 102.31312500000001 -17.895624999999995 Q104.8125 -15.396249999999995 108.52125 -15.396249999999995 Z"/></g><g id="Medium-L" transform="matrix(1 0 0 1 1674.31 1556)"><path d="M117.55125000000001 -44.582499999999996 Q104.8125 -44.582499999999996 95.7825 -53.61249999999999 Q86.7525 -62.64249999999999 86.7525 -75.54249999999999 Q86.7525 -88.12 95.7825 -97.14999999999999 Q104.8125 -106.17999999999999 117.55125000000001 -106.17999999999999 Q130.45125000000002 -106.17999999999999 139.40062500000002 -97.23062499999999 Q148.35 -88.28125 148.35 -75.38125 Q148.35 -62.48124999999999 139.32000000000002 -53.531875 Q130.29 -44.582499999999996 117.55125000000001 -44.582499999999996 Z M114.97125 -71.0275 H120.9375 V-94.08624999999999 H114.97125 V-71.0275 Z M24.1875 17.337500000000006 Q21.76875 17.337500000000006 20.075625 15.644374999999997 Q18.3825 13.951250000000002 18.3825 11.532500000000013 V-40.87374999999999 L32.08875 -82.315 Q33.05625 -84.895 35.1525 -86.34625 Q37.24875 -87.7975 39.99 -87.7975 H74.65875 Q73.85249999999999 -85.2175 73.449375 -82.47625 Q73.04625 -79.735 72.885 -76.8325 H41.925000000000004 L33.2175 -50.38749999999999 H80.625 Q82.39875 -47.646249999999995 84.65625 -45.22749999999999 Q86.91375 -42.80875 89.49375 -40.71249999999999 H29.3475 V-7.172499999999985 H125.4525 V-31.521249999999995 Q128.355 -32.004999999999995 131.09625 -32.81124999999999 Q133.8375 -33.61749999999999 136.4175 -35.068749999999994 V11.532500000000013 Q136.4175 13.951250000000002 134.724375 15.644374999999997 Q133.03125 17.337500000000006 130.6125 17.337500000000006 H128.19375 Q125.61375000000001 17.337500000000006 124.08187500000001 15.724999999999994 Q122.55 14.112499999999997 122.55 11.532500000000013 V3.792500000000018 H32.25 V11.532500000000013 Q32.25 14.112499999999997 30.6375 15.724999999999994 Q29.025000000000002 17.337500000000006 26.444999999999997 17.337500000000006 H24.1875 Z M118.03500000000001 -56.515 Q119.64750000000001 -56.515 120.77625000000002 -57.563125 Q121.905 -58.61124999999999 121.905 -60.385 Q121.905 -61.997499999999995 120.77625000000002 -63.12624999999999 Q119.64750000000001 -64.255 118.03500000000001 -64.255 Q116.10000000000001 -64.09375 115.13250000000001 -63.045624999999994 Q114.16499999999999 -61.997499999999995 114.16499999999999 -60.223749999999995 Q114.16499999999999 -58.61124999999999 115.213125 -57.563125 Q116.26124999999999 -56.515 118.03500000000001 -56.515 Z M46.27875 -15.07374999999999 Q49.987500000000004 -15.07374999999999 52.486875 -17.653749999999988 Q54.986250000000005 -20.23375 54.986250000000005 -23.781249999999986 Q54.986250000000005 -27.65124999999999 52.40625 -30.23124999999999 Q49.82625 -32.81124999999999 46.27875 -32.81124999999999 Q42.57 -32.81124999999999 39.909375000000004 -30.23124999999999 Q37.24875 -27.65124999999999 37.24875 -23.781249999999986 Q37.24875 -20.07249999999999 39.82875 -17.57312499999999 Q42.408750000000005 -15.07374999999999 46.27875 -15.07374999999999 Z M108.68250000000002 -15.07374999999999 Q112.39125000000001 -15.07374999999999 115.051875 -17.653749999999988 Q117.7125 -20.23375 117.7125 -23.781249999999986 Q117.7125 -26.038749999999993 116.825625 -27.893124999999998 Q115.93875000000001 -29.747500000000002 114.16499999999999 -30.876249999999985 Q112.06875000000001 -31.037499999999994 109.97250000000001 -31.440624999999997 Q107.87625000000001 -31.843749999999986 105.94125000000001 -32.3275 Q103.2 -31.521249999999995 101.5875 -29.18312499999999 Q99.97500000000001 -26.844999999999985 99.97500000000001 -23.781249999999986 Q99.97500000000001 -20.23375 102.555 -17.653749999999988 Q105.135 -15.07374999999999 108.68250000000002 -15.07374999999999 Z"/></g><g id="Regular-L" transform="matrix(1 0 0 1 1378.56 1556)"><path d="M117.55125000000001 -44.582499999999996 Q104.8125 -44.582499999999996 95.7825 -53.61249999999999 Q86.7525 -62.64249999999999 86.7525 -75.38125 Q86.7525 -88.12 95.7825 -97.14999999999999 Q104.8125 -106.17999999999999 117.55125000000001 -106.17999999999999 Q130.45125000000002 -106.17999999999999 139.40062500000002 -97.23062499999999 Q148.35 -88.28125 148.35 -75.38125 Q148.35 -62.48124999999999 139.32000000000002 -53.531875 Q130.29 -44.582499999999996 117.55125000000001 -44.582499999999996 Z M115.13250000000001 -70.54374999999999 H120.77625000000002 V-93.60249999999999 H115.13250000000001 V-70.54374999999999 Z M24.1875 16.370000000000005 Q22.09125 16.370000000000005 20.720625 14.999375000000015 Q19.35 13.628749999999997 19.35 11.532500000000013 V-40.71249999999999 L33.05625 -81.99249999999999 Q33.862500000000004 -84.25 35.716875 -85.53999999999999 Q37.57125 -86.83 39.99 -86.83 H74.33625 Q73.69125000000001 -84.57249999999999 73.36875 -82.15375 Q73.04625 -79.735 72.885 -77.155 H41.6025 L32.73375 -50.38749999999999 H80.625 Q82.39875 -47.646249999999995 84.65625 -45.22749999999999 Q86.91375 -42.80875 89.49375 -40.71249999999999 H29.025000000000002 V-6.8500000000000085 H125.775 V-31.521249999999995 Q128.355 -32.004999999999995 130.77375 -32.730625 Q133.1925 -33.45625 135.45000000000002 -34.42375 V11.532500000000013 Q135.45000000000002 13.628749999999997 134.079375 14.999375000000015 Q132.70875 16.370000000000005 130.6125 16.370000000000005 H127.22625000000001 Q125.13 16.370000000000005 123.84 14.999375000000015 Q122.55 13.628749999999997 122.55 11.532500000000013 V2.825000000000003 H32.25 V11.532500000000013 Q32.25 13.628749999999997 30.879375 14.999375000000015 Q29.508750000000003 16.370000000000005 27.4125 16.370000000000005 H24.1875 Z M118.03500000000001 -56.83749999999999 Q119.48625 -56.83749999999999 120.534375 -57.80499999999999 Q121.58250000000001 -58.772499999999994 121.58250000000001 -60.385 Q121.58250000000001 -61.997499999999995 120.534375 -62.964999999999996 Q119.48625 -63.9325 118.03500000000001 -63.9325 Q116.26124999999999 -63.771249999999995 115.374375 -62.803749999999994 Q114.4875 -61.83624999999999 114.4875 -60.385 Q114.4875 -58.772499999999994 115.455 -57.80499999999999 Q116.42250000000001 -56.83749999999999 118.03500000000001 -56.83749999999999 Z M46.11750000000001 -14.912499999999994 Q49.82625 -14.912499999999994 52.32562500000001 -17.492499999999993 Q54.825 -20.07249999999999 54.825 -23.61999999999999 Q54.825 -27.32875 52.32562500000001 -29.989374999999995 Q49.82625 -32.64999999999999 46.11750000000001 -32.64999999999999 Q42.408750000000005 -32.64999999999999 39.748125 -29.989374999999995 Q37.0875 -27.32875 37.0875 -23.61999999999999 Q37.0875 -19.911249999999995 39.748125 -17.411874999999995 Q42.408750000000005 -14.912499999999994 46.11750000000001 -14.912499999999994 Z M108.84375 -14.912499999999994 Q112.5525 -14.912499999999994 115.213125 -17.492499999999993 Q117.87375 -20.07249999999999 117.87375 -23.61999999999999 Q117.87375 -25.877499999999998 116.986875 -27.731875000000002 Q116.10000000000001 -29.586249999999993 114.32625000000002 -30.876249999999985 Q112.22999999999999 -31.037499999999994 110.13374999999999 -31.36 Q108.03750000000001 -31.68249999999999 106.10249999999999 -32.16624999999999 Q103.36125 -31.36 101.74875 -29.021874999999994 Q100.13625 -26.683750000000003 100.13625 -23.61999999999999 Q100.13625 -20.07249999999999 102.71625 -17.492499999999993 Q105.29625 -14.912499999999994 108.84375 -14.912499999999994 Z"/></g><g id="Light-L" transform="matrix(1 0 0 1 1082.77 1556)"><path d="M115.93875000000001 -45.71124999999999 Q104.32875000000001 -45.71124999999999 96.105 -53.934999999999995 Q87.88125000000001 -62.15874999999999 87.88125000000001 -73.92999999999999 Q87.88125000000001 -85.37875 96.105 -93.521875 Q104.32875000000001 -101.66499999999999 115.93875000000001 -101.66499999999999 Q127.71000000000001 -101.66499999999999 135.7725 -93.60249999999999 Q143.835 -85.53999999999999 143.835 -73.76874999999998 Q143.835 -61.997499999999995 135.691875 -53.85437499999999 Q127.54875 -45.71124999999999 115.93875000000001 -45.71124999999999 Z M113.68125 -69.73749999999998 H118.84125 V-90.3775 H113.68125 V-69.73749999999998 Z M26.28375 13.14500000000001 Q24.67125 13.14500000000001 23.623125 12.096874999999997 Q22.575 11.048750000000013 22.575 9.436250000000015 V-40.39 L35.7975 -79.89625 Q36.4425 -81.66999999999999 37.893750000000004 -82.63749999999999 Q39.345 -83.60499999999999 41.28 -83.60499999999999 H74.33625 Q73.85249999999999 -81.83125 73.610625 -80.0575 Q73.36875 -78.28375 73.2075 -76.34875 H42.408750000000005 L32.73375 -47.80749999999999 H81.91499999999999 Q83.36625000000001 -45.71124999999999 85.220625 -43.937499999999986 Q87.075 -42.16374999999999 89.01 -40.39 H29.83125 V-7.49499999999999 H124.96875 V-31.843749999999986 Q126.90375 -32.3275 128.6775 -32.891874999999985 Q130.45125000000002 -33.45625 132.225 -34.10124999999999 V9.436250000000015 Q132.225 11.048750000000013 131.176875 12.096874999999997 Q130.12875 13.14500000000001 128.51625 13.14500000000001 H126.90375 Q125.29125 13.14500000000001 124.32374999999999 12.096874999999997 Q123.35625 11.048750000000013 123.35625 9.436250000000015 V-0.2387499999999818 H31.44375 V9.436250000000015 Q31.44375 11.048750000000013 30.395625000000003 12.096874999999997 Q29.3475 13.14500000000001 27.896250000000002 13.14500000000001 H26.28375 Z M116.26124999999999 -56.67624999999999 Q117.55125000000001 -56.67624999999999 118.51875 -57.64374999999999 Q119.48625 -58.61124999999999 119.64750000000001 -60.06249999999999 Q119.64750000000001 -61.513749999999995 118.599375 -62.48124999999999 Q117.55125000000001 -63.44875 116.26124999999999 -63.44875 Q114.64874999999999 -63.287499999999994 113.761875 -62.400625 Q112.875 -61.513749999999995 112.875 -60.06249999999999 Q112.875 -58.61124999999999 113.84249999999999 -57.64374999999999 Q114.81 -56.67624999999999 116.26124999999999 -56.67624999999999 Z M46.440000000000005 -16.2025 Q49.82625 -16.2025 52.003125000000004 -18.459999999999994 Q54.18000000000001 -20.717499999999987 54.18000000000001 -23.942499999999995 Q54.18000000000001 -27.32875 51.92250000000001 -29.586249999999993 Q49.665 -31.843749999999986 46.440000000000005 -31.843749999999986 Q43.215 -31.843749999999986 40.876875000000005 -29.586249999999993 Q38.53875 -27.32875 38.53875 -23.942499999999995 Q38.53875 -20.55624999999999 40.876875000000005 -18.379374999999982 Q43.215 -16.2025 46.440000000000005 -16.2025 Z M108.52125 -16.2025 Q111.74625 -16.2025 114.08437500000001 -18.459999999999994 Q116.42250000000001 -20.717499999999987 116.42250000000001 -23.942499999999995 Q116.42250000000001 -26.19999999999999 115.374375 -28.054374999999993 Q114.32625000000002 -29.908749999999998 112.39125000000001 -31.19874999999999 Q111.10125000000001 -31.36 109.65 -31.521249999999995 Q108.19874999999999 -31.68249999999999 106.90875 -31.843749999999986 Q104.16749999999999 -31.36 102.39375 -29.102499999999992 Q100.62 -26.844999999999985 100.62 -23.942499999999995 Q100.62 -20.717499999999987 102.95812500000001 -18.459999999999994 Q105.29625 -16.2025 108.52125 -16.2025 Z"/></g><g id="Thin-L" transform="matrix(1 0 0 1 787.282 1556)"><path d="M114.32625000000002 -47.001249999999985 Q103.84500000000001 -47.001249999999985 96.508125 -54.338125 Q89.17125 -61.67499999999999 89.17125 -72.3175 Q89.17125 -82.79875 96.508125 -90.05499999999999 Q103.84500000000001 -97.31125 114.32625000000002 -97.31125 Q124.96875 -97.31125 132.225 -90.05499999999999 Q139.48125000000002 -82.79875 139.48125000000002 -72.15625 Q139.48125000000002 -61.67499999999999 132.144375 -54.338125 Q124.80750000000002 -47.001249999999985 114.32625000000002 -47.001249999999985 Z M112.22999999999999 -68.93124999999999 H116.74500000000002 V-86.99125 H112.22999999999999 V-68.93124999999999 Z M28.21875 9.920000000000002 Q27.25125 9.920000000000002 26.525624999999998 9.194375000000008 Q25.8 8.46875 25.8 7.501250000000013 V-40.22874999999999 L38.7 -77.96124999999999 Q39.0225 -79.09 40.15125 -79.735 Q41.28 -80.38 42.408750000000005 -80.38 H74.175 Q74.01375 -79.25125 73.85249999999999 -78.041875 Q73.69125000000001 -76.8325 73.53 -75.38125 H43.215 L32.73375 -45.22749999999999 H83.04375 Q84.33375 -43.77624999999999 85.704375 -42.647499999999994 Q87.075 -41.51875 88.52625 -40.22874999999999 H30.798750000000002 V-8.14 H124.00125000000001 V-32.3275 Q125.4525 -32.64999999999999 126.661875 -33.053124999999994 Q127.87125 -33.45625 129.0 -33.77875 V7.501250000000013 Q129.0 8.46875 128.274375 9.194375000000008 Q127.54875 9.920000000000002 126.58125 9.920000000000002 H126.42000000000002 Q125.29125 9.920000000000002 124.64625 9.194375000000008 Q124.00125000000001 8.46875 124.00125000000001 7.501250000000013 V-3.302499999999995 H30.798750000000002 V7.501250000000013 Q30.798750000000002 8.46875 30.073124999999997 9.194375000000008 Q29.3475 9.920000000000002 28.21875 9.920000000000002 Z M114.4875 -56.515 Q115.7775 -56.515 116.66437499999999 -57.48249999999999 Q117.55125000000001 -58.44999999999999 117.55125000000001 -59.74 Q117.55125000000001 -61.029999999999994 116.66437499999999 -61.916875 Q115.7775 -62.803749999999994 114.4875 -62.803749999999994 Q113.03625 -62.803749999999994 112.22999999999999 -61.916875 Q111.42375 -61.029999999999994 111.42375 -59.74 Q111.42375 -58.44999999999999 112.31062500000002 -57.48249999999999 Q113.1975 -56.515 114.4875 -56.515 Z M46.7625 -17.331249999999997 Q49.665 -17.331249999999997 51.6 -19.346874999999997 Q53.535000000000004 -21.362499999999997 53.535000000000004 -24.265 Q53.535000000000004 -27.16749999999999 51.519375000000004 -29.102499999999992 Q49.503750000000004 -31.037499999999994 46.7625 -31.037499999999994 Q43.86 -31.037499999999994 41.925000000000004 -29.102499999999992 Q39.99 -27.16749999999999 39.99 -24.265 Q39.99 -21.201249999999987 42.005625 -19.26625 Q44.02125 -17.331249999999997 46.7625 -17.331249999999997 Z M108.03750000000001 -17.331249999999997 Q110.94 -17.331249999999997 112.955625 -19.346874999999997 Q114.97125 -21.362499999999997 114.97125 -24.10374999999999 Q114.97125 -26.522499999999994 113.761875 -28.457499999999982 Q112.5525 -30.3925 110.45625 -31.36 Q109.81124999999999 -31.521249999999995 109.08562500000001 -31.601874999999993 Q108.36000000000001 -31.68249999999999 107.715 -31.521249999999995 Q104.97375 -31.19874999999999 103.119375 -29.102499999999992 Q101.265 -27.006249999999994 101.265 -24.10374999999999 Q101.265 -21.362499999999997 103.36125 -19.346874999999997 Q105.45750000000001 -17.331249999999997 108.03750000000001 -17.331249999999997 Z"/></g><g id="Ultralight-L" transform="matrix(1 0 0 1 491.205 1556)"><path d="M113.35875 -47.646249999999995 Q103.52250000000001 -47.646249999999995 96.669375 -54.499375 Q89.81625000000001 -61.35249999999999 89.81625000000001 -71.35 Q89.81625000000001 -81.02499999999999 96.669375 -87.7975 Q103.52250000000001 -94.57 113.35875 -94.57 Q123.19500000000001 -94.57 129.9675 -87.7975 Q136.74 -81.02499999999999 136.74 -71.18875 Q136.74 -61.35249999999999 129.9675 -54.499375 Q123.19500000000001 -47.646249999999995 113.35875 -47.646249999999995 Z M111.2625 -68.44749999999999 H115.61625000000001 V-85.05624999999999 H111.2625 V-68.44749999999999 Z M29.508750000000003 7.984999999999999 Q28.7025 7.984999999999999 28.21875 7.501250000000013 Q27.735 7.0175000000000125 27.735 6.211250000000007 V-40.067499999999995 L40.3125 -76.67124999999999 Q40.635 -77.47749999999999 41.44125 -77.96124999999999 Q42.2475 -78.445 43.215 -78.445 H74.175 Q74.01375 -77.63874999999999 73.933125 -76.75187499999998 Q73.85249999999999 -75.865 73.69125000000001 -74.8975 H43.698750000000004 L32.73375 -43.614999999999995 H83.85000000000001 Q84.97875 -42.647499999999994 86.026875 -41.84125 Q87.075 -41.035 88.20375000000001 -40.067499999999995 H31.2825 V-8.623749999999987 H123.5175 V-32.48874999999998 Q124.48500000000001 -32.81124999999999 125.371875 -33.13374999999999 Q126.25874999999999 -33.45625 127.065 -33.61749999999999 V6.211250000000007 Q127.065 7.0175000000000125 126.58125 7.501250000000013 Q126.09750000000001 7.984999999999999 125.29125 7.984999999999999 H126.25874999999999 Q125.4525 7.984999999999999 124.96875 7.501250000000013 Q124.48500000000001 7.0175000000000125 124.48500000000001 6.211250000000007 V-5.0762499999999875 H30.315 V6.211250000000007 Q30.315 7.0175000000000125 29.83125 7.501250000000013 Q29.3475 7.984999999999999 28.541249999999998 7.984999999999999 H29.508750000000003 Z M113.52000000000001 -56.515 Q114.64874999999999 -56.515 115.455 -57.401875 Q116.26124999999999 -58.288749999999986 116.42250000000001 -59.57875 Q116.42250000000001 -60.86874999999999 115.53562500000001 -61.67499999999999 Q114.64874999999999 -62.48124999999999 113.52000000000001 -62.48124999999999 Q112.06875000000001 -62.48124999999999 111.2625 -61.67499999999999 Q110.45625 -60.86874999999999 110.45625 -59.57875 Q110.45625 -58.288749999999986 111.343125 -57.401875 Q112.22999999999999 -56.515 113.52000000000001 -56.515 Z M47.085 -18.13749999999999 Q49.665 -18.13749999999999 51.43875 -19.991874999999993 Q53.2125 -21.846249999999998 53.2125 -24.426249999999982 Q53.2125 -27.006249999999994 51.358125 -28.779999999999987 Q49.503750000000004 -30.553749999999994 47.085 -30.553749999999994 Q44.34375 -30.553749999999994 42.57 -28.779999999999987 Q40.79625 -27.006249999999994 40.79625 -24.426249999999982 Q40.79625 -21.685000000000002 42.650625 -19.911249999999995 Q44.505 -18.13749999999999 47.085 -18.13749999999999 Z M107.87625000000001 -18.13749999999999 Q110.45625 -18.13749999999999 112.22999999999999 -19.991874999999993 Q114.00375000000001 -21.846249999999998 114.00375000000001 -24.265 Q114.00375000000001 -26.683750000000003 112.71375000000002 -28.61874999999999 Q111.42375 -30.553749999999994 109.3275 -31.521249999999995 Q109.16625 -31.68249999999999 108.763125 -31.68249999999999 Q108.36000000000001 -31.68249999999999 108.19874999999999 -31.36 Q105.45750000000001 -31.19874999999999 103.52250000000001 -29.18312499999999 Q101.5875 -27.16749999999999 101.5875 -24.265 Q101.5875 -21.846249999999998 103.52250000000001 -19.991874999999993 Q105.45750000000001 -18.13749999999999 107.87625000000001 -18.13749999999999 Z"/></g><g id="Bold-M" transform="matrix(1 0 0 1 2281.8 1126)"><path d="M90.0 -40.47999999999999 Q79.625 -40.47999999999999 72.315 -47.79499999999999 Q65.0 -55.10499999999999 65.0 -65.47999999999999 Q65.0 -75.85499999999999 72.315 -83.16999999999999 Q79.625 -90.47999999999999 90.0 -90.47999999999999 Q100.375 -90.47999999999999 107.69 -83.16999999999999 Q115.0 -75.85499999999999 115.0 -65.47999999999999 Q115.0 -55.10499999999999 107.69 -47.79499999999999 Q100.375 -40.47999999999999 90.0 -40.47999999999999 Z M86.5 -61.97999999999999 H93.5 V-81.97999999999999 H86.5 V-61.97999999999999 Z M20.0 9.02000000000001 Q16.25 9.02000000000001 13.5 6.27000000000001 Q10.75 3.5200000000000102 10.75 -0.22999999999998977 V-40.97999999999999 L21.5 -71.60499999999999 Q22.75 -75.22999999999999 25.75 -77.35499999999999 Q28.75 -79.47999999999999 32.5 -79.47999999999999 H58.0 Q56.25 -75.85499999999999 55.565 -71.78999999999999 Q54.875 -67.72999999999999 55.125 -63.72999999999999 H35.375 L30.75 -50.22999999999999 H58.5 Q59.875 -47.35499999999999 61.75 -44.85499999999999 Q63.625 -42.35499999999999 65.875 -40.22999999999999 H26.5 V-16.72999999999999 H93.5 V-30.60499999999999 Q97.875 -30.97999999999999 101.875 -32.419999999999995 Q105.875 -33.85499999999999 109.25 -36.22999999999999 V-0.22999999999998977 Q109.25 3.5200000000000102 106.5 6.27000000000001 Q103.75 9.02000000000001 100.0 9.02000000000001 H98.875 Q95.125 9.02000000000001 92.375 6.4550000000000125 Q89.625 3.8950000000000102 89.625 0.14500000000001023 V-0.9799999999999898 H30.375 V0.14500000000001023 Q30.375 3.8950000000000102 27.625 6.4550000000000125 Q24.875 9.02000000000001 21.125 9.02000000000001 H20.0 Z M90.0 -48.47999999999999 Q91.75 -48.47999999999999 92.875 -49.60499999999999 Q94.0 -50.72999999999999 94.0 -52.47999999999999 Q94.0 -54.22999999999999 92.875 -55.41999999999999 Q91.75 -56.60499999999999 90.0 -56.60499999999999 Q88.25 -56.60499999999999 87.125 -55.41999999999999 Q86.0 -54.22999999999999 86.0 -52.47999999999999 Q86.0 -50.72999999999999 87.125 -49.60499999999999 Q88.25 -48.47999999999999 90.0 -48.47999999999999 Z M38.25 -20.97999999999999 Q41.375 -20.97999999999999 43.565 -23.169999999999987 Q45.75 -25.35499999999999 45.75 -28.47999999999999 Q45.75 -31.60499999999999 43.565 -33.79499999999999 Q41.375 -35.97999999999999 38.25 -35.97999999999999 Q35.125 -35.97999999999999 32.94 -33.79499999999999 Q30.75 -31.60499999999999 30.75 -28.47999999999999 Q30.75 -25.35499999999999 32.94 -23.169999999999987 Q35.125 -20.97999999999999 38.25 -20.97999999999999 Z M81.75 -20.97999999999999 Q84.875 -20.97999999999999 87.065 -23.169999999999987 Q89.25 -25.35499999999999 89.25 -28.47999999999999 Q89.25 -28.97999999999999 89.185 -29.47999999999999 Q89.125 -29.97999999999999 89.0 -30.47999999999999 Q85.5 -30.60499999999999 82.25 -31.294999999999987 Q79.0 -31.97999999999999 76.0 -33.35499999999999 Q75.125 -32.35499999999999 74.69 -31.10499999999999 Q74.25 -29.85499999999999 74.25 -28.47999999999999 Q74.25 -25.35499999999999 76.44 -23.169999999999987 Q78.625 -20.97999999999999 81.75 -20.97999999999999 Z"/></g><g id="Semibold-M" transform="matrix(1 0 0 1 1985.97 1126)"><path d="M90.0 -40.35499999999999 Q79.625 -40.35499999999999 72.315 -47.66999999999999 Q65.0 -54.97999999999999 65.0 -65.35499999999999 Q65.0 -75.72999999999999 72.315 -83.04499999999999 Q79.625 -90.35499999999999 90.0 -90.35499999999999 Q100.375 -90.35499999999999 107.69 -83.04499999999999 Q115.0 -75.72999999999999 115.0 -65.35499999999999 Q115.0 -54.97999999999999 107.69 -47.66999999999999 Q100.375 -40.35499999999999 90.0 -40.35499999999999 Z M86.875 -61.22999999999999 H93.125 V-81.22999999999999 H86.875 V-61.22999999999999 Z M20.0 7.14500000000001 Q17.0 7.14500000000001 14.815000000000001 4.960000000000008 Q12.625 2.7700000000000102 12.625 -0.22999999999998977 V-40.72999999999999 L23.25 -70.97999999999999 Q24.25 -73.97999999999999 26.815 -75.79499999999999 Q29.375 -77.60499999999999 32.5 -77.60499999999999 H57.375 Q56.0 -74.60499999999999 55.44 -71.16999999999999 Q54.875 -67.72999999999999 55.125 -64.35499999999999 H34.875 L30.0 -50.22999999999999 H58.5 Q59.875 -47.35499999999999 61.69 -44.85499999999999 Q63.5 -42.35499999999999 65.75 -40.22999999999999 H25.875 V-16.10499999999999 H94.125 V-30.60499999999999 Q97.75 -30.97999999999999 101.125 -32.10499999999999 Q104.5 -33.22999999999999 107.375 -35.10499999999999 V-0.22999999999998977 Q107.375 2.7700000000000102 105.19 4.960000000000008 Q103.0 7.14500000000001 100.0 7.14500000000001 H97.25 Q94.125 7.14500000000001 91.935 5.0800000000000125 Q89.75 3.0200000000000102 89.75 0.020000000000010232 V-2.8549999999999898 H30.25 V0.020000000000010232 Q30.25 3.0200000000000102 28.065 5.0800000000000125 Q25.875 7.14500000000001 22.75 7.14500000000001 H20.0 Z M90.0 -49.22999999999999 Q91.375 -49.22999999999999 92.375 -50.16999999999999 Q93.375 -51.10499999999999 93.375 -52.60499999999999 Q93.375 -53.97999999999999 92.375 -54.97999999999999 Q91.375 -55.97999999999999 90.0 -55.97999999999999 Q88.625 -55.97999999999999 87.625 -54.97999999999999 Q86.625 -53.97999999999999 86.625 -52.60499999999999 Q86.625 -51.10499999999999 87.625 -50.16999999999999 Q88.625 -49.22999999999999 90.0 -49.22999999999999 Z M37.875 -20.60499999999999 Q41.0 -20.60499999999999 43.19 -22.794999999999987 Q45.375 -24.97999999999999 45.375 -28.10499999999999 Q45.375 -31.22999999999999 43.19 -33.41999999999999 Q41.0 -35.60499999999999 37.875 -35.60499999999999 Q34.75 -35.60499999999999 32.565 -33.41999999999999 Q30.375 -31.22999999999999 30.375 -28.10499999999999 Q30.375 -24.97999999999999 32.565 -22.794999999999987 Q34.75 -20.60499999999999 37.875 -20.60499999999999 Z M82.125 -20.60499999999999 Q85.25 -20.60499999999999 87.44 -22.794999999999987 Q89.625 -24.97999999999999 89.625 -28.10499999999999 Q89.625 -28.72999999999999 89.565 -29.289999999999992 Q89.5 -29.85499999999999 89.25 -30.35499999999999 Q85.875 -30.47999999999999 82.625 -31.10499999999999 Q79.375 -31.72999999999999 76.375 -33.10499999999999 Q75.5 -32.10499999999999 75.065 -30.794999999999987 Q74.625 -29.47999999999999 74.625 -28.10499999999999 Q74.625 -24.97999999999999 76.815 -22.794999999999987 Q79.0 -20.60499999999999 82.125 -20.60499999999999 Z"/></g><g id="Medium-M" transform="matrix(1 0 0 1 1689.91 1126)"><path d="M90.0 -40.22999999999999 Q79.625 -40.22999999999999 72.315 -47.54499999999999 Q65.0 -54.85499999999999 65.0 -65.22999999999999 Q65.0 -75.60499999999999 72.25 -82.91999999999999 Q79.5 -90.22999999999999 90.0 -90.22999999999999 Q100.375 -90.22999999999999 107.69 -82.91999999999999 Q115.0 -75.60499999999999 115.0 -65.22999999999999 Q115.0 -54.85499999999999 107.69 -47.54499999999999 Q100.375 -40.22999999999999 90.0 -40.22999999999999 Z M87.25 -60.60499999999999 H92.75 V-80.60499999999999 H87.25 V-60.60499999999999 Z M20.0 5.77000000000001 Q17.5 5.77000000000001 15.75 4.02000000000001 Q14.0 2.2700000000000102 14.0 -0.22999999999998977 V-40.47999999999999 L24.5 -70.60499999999999 Q25.375 -73.10499999999999 27.564999999999998 -74.66999999999999 Q29.75 -76.22999999999999 32.5 -76.22999999999999 H56.875 Q55.875 -73.60499999999999 55.44 -70.72999999999999 Q55.0 -67.85499999999999 55.0 -64.85499999999999 H34.5 L29.375 -50.22999999999999 H58.375 Q59.75 -47.35499999999999 61.559999999999995 -44.85499999999999 Q63.375 -42.35499999999999 65.625 -40.22999999999999 H25.375 V-15.60499999999999 H94.625 V-30.60499999999999 Q97.625 -30.97999999999999 100.5 -31.919999999999987 Q103.375 -32.85499999999999 106.0 -34.22999999999999 V-0.22999999999998977 Q106.0 2.2700000000000102 104.25 4.02000000000001 Q102.5 5.77000000000001 100.0 5.77000000000001 H95.875 Q93.375 5.77000000000001 91.625 4.079999999999998 Q89.875 2.3950000000000102 89.875 -0.10499999999998977 V-4.22999999999999 H30.125 V-0.10499999999998977 Q30.125 2.3950000000000102 28.375 4.079999999999998 Q26.625 5.77000000000001 24.125 5.77000000000001 H20.0 Z M90.0 -49.85499999999999 Q91.125 -49.85499999999999 92.0 -50.66999999999999 Q92.875 -51.47999999999999 92.875 -52.72999999999999 Q92.875 -53.85499999999999 92.0 -54.72999999999999 Q91.125 -55.60499999999999 90.0 -55.60499999999999 Q88.875 -55.60499999999999 88.0 -54.72999999999999 Q87.125 -53.85499999999999 87.125 -52.72999999999999 Q87.125 -51.47999999999999 88.0 -50.66999999999999 Q88.875 -49.85499999999999 90.0 -49.85499999999999 Z M37.625 -20.35499999999999 Q40.75 -20.35499999999999 42.94 -22.544999999999987 Q45.125 -24.72999999999999 45.125 -27.85499999999999 Q45.125 -30.97999999999999 42.94 -33.16999999999999 Q40.75 -35.35499999999999 37.625 -35.35499999999999 Q34.5 -35.35499999999999 32.315 -33.16999999999999 Q30.125 -30.97999999999999 30.125 -27.85499999999999 Q30.125 -24.72999999999999 32.315 -22.544999999999987 Q34.5 -20.35499999999999 37.625 -20.35499999999999 Z M82.375 -20.35499999999999 Q85.5 -20.35499999999999 87.69 -22.544999999999987 Q89.875 -24.72999999999999 89.875 -27.85499999999999 Q89.875 -28.47999999999999 89.81 -29.10499999999999 Q89.75 -29.72999999999999 89.5 -30.22999999999999 Q86.125 -30.35499999999999 82.875 -30.97999999999999 Q79.625 -31.60499999999999 76.75 -32.85499999999999 Q75.75 -31.85499999999999 75.31 -30.539999999999992 Q74.875 -29.22999999999999 74.875 -27.85499999999999 Q74.875 -24.72999999999999 77.065 -22.544999999999987 Q79.25 -20.35499999999999 82.375 -20.35499999999999 Z"/></g><g id="Regular-M" transform="matrix(1 0 0 1 1394.06 1126)"><path d="M90.0 -40.22999999999999 Q79.625 -40.22999999999999 72.315 -47.54499999999999 Q65.0 -54.85499999999999 65.0 -65.22999999999999 Q65.0 -75.47999999999999 72.25 -82.85499999999999 Q79.5 -90.22999999999999 90.0 -90.22999999999999 Q100.375 -90.22999999999999 107.69 -82.91999999999999 Q115.0 -75.60499999999999 115.0 -65.22999999999999 Q115.0 -54.85499999999999 107.69 -47.54499999999999 Q100.375 -40.22999999999999 90.0 -40.22999999999999 Z M87.5 -60.22999999999999 H92.5 V-80.22999999999999 H87.5 V-60.22999999999999 Z M20.0 4.77000000000001 Q17.875 4.77000000000001 16.439999999999998 3.3300000000000125 Q15.0 1.8950000000000102 15.0 -0.22999999999998977 V-40.22999999999999 L25.5 -70.22999999999999 Q26.25 -72.47999999999999 28.189999999999998 -73.85499999999999 Q30.125 -75.22999999999999 32.5 -75.22999999999999 H56.5 Q55.75 -72.85499999999999 55.375 -70.35499999999999 Q55.0 -67.85499999999999 55.0 -65.22999999999999 H34.25 L29.0 -50.22999999999999 H58.375 Q59.75 -47.35499999999999 61.559999999999995 -44.85499999999999 Q63.375 -42.35499999999999 65.625 -40.22999999999999 H25.0 V-15.22999999999999 H95.0 V-30.60499999999999 Q97.625 -30.97999999999999 100.125 -31.72999999999999 Q102.625 -32.47999999999999 105.0 -33.60499999999999 V-0.22999999999998977 Q105.0 1.8950000000000102 103.56 3.3300000000000125 Q102.125 4.77000000000001 100.0 4.77000000000001 H95.0 Q92.875 4.77000000000001 91.44 3.3300000000000125 Q90.0 1.8950000000000102 90.0 -0.22999999999998977 V-5.22999999999999 H30.0 V-0.22999999999998977 Q30.0 1.8950000000000102 28.565 3.3300000000000125 Q27.125 4.77000000000001 25.0 4.77000000000001 H20.0 Z M90.0 -50.22999999999999 Q91.0 -50.22999999999999 91.75 -50.97999999999999 Q92.5 -51.72999999999999 92.5 -52.72999999999999 Q92.5 -53.72999999999999 91.75 -54.47999999999999 Q91.0 -55.22999999999999 90.0 -55.22999999999999 Q89.0 -55.22999999999999 88.25 -54.47999999999999 Q87.5 -53.72999999999999 87.5 -52.72999999999999 Q87.5 -51.72999999999999 88.25 -50.97999999999999 Q89.0 -50.22999999999999 90.0 -50.22999999999999 Z M37.5 -20.22999999999999 Q40.625 -20.22999999999999 42.809999999999995 -22.419999999999987 Q45.0 -24.60499999999999 45.0 -27.72999999999999 Q45.0 -30.85499999999999 42.809999999999995 -33.039999999999985 Q40.625 -35.22999999999999 37.5 -35.22999999999999 Q34.375 -35.22999999999999 32.19 -33.039999999999985 Q30.0 -30.85499999999999 30.0 -27.72999999999999 Q30.0 -24.60499999999999 32.19 -22.419999999999987 Q34.375 -20.22999999999999 37.5 -20.22999999999999 Z M82.5 -20.22999999999999 Q85.625 -20.22999999999999 87.81 -22.419999999999987 Q90.0 -24.60499999999999 90.0 -27.72999999999999 Q90.0 -28.35499999999999 89.94 -28.97999999999999 Q89.875 -29.60499999999999 89.625 -30.22999999999999 Q86.25 -30.22999999999999 83.065 -30.85499999999999 Q79.875 -31.47999999999999 77.0 -32.72999999999999 Q76.0 -31.72999999999999 75.5 -30.419999999999987 Q75.0 -29.10499999999999 75.0 -27.72999999999999 Q75.0 -24.60499999999999 77.19 -22.419999999999987 Q79.375 -20.22999999999999 82.5 -20.22999999999999 Z"/></g><g id="Light-M" transform="matrix(1 0 0 1 1098.18 1126)"><path d="M89.0 -41.72999999999999 Q79.625 -41.72999999999999 73.065 -48.29499999999999 Q66.5 -54.85499999999999 66.5 -64.22999999999999 Q66.5 -73.60499999999999 73.065 -80.16999999999999 Q79.625 -86.72999999999999 89.0 -86.72999999999999 Q98.375 -86.72999999999999 104.94 -80.16999999999999 Q111.5 -73.60499999999999 111.5 -64.22999999999999 Q111.5 -54.85499999999999 104.94 -48.29499999999999 Q98.375 -41.72999999999999 89.0 -41.72999999999999 Z M86.875 -60.22999999999999 H91.25 V-77.72999999999999 H86.875 V-60.22999999999999 Z M21.25 2.2700000000000102 Q19.625 2.2700000000000102 18.565 1.210000000000008 Q17.5 0.14500000000001023 17.5 -1.4799999999999898 V-39.85499999999999 L27.75 -68.97999999999999 Q28.25 -70.72999999999999 29.75 -71.72999999999999 Q31.25 -72.72999999999999 33.125 -72.72999999999999 H56.75 Q56.125 -70.97999999999999 55.875 -69.10499999999999 Q55.625 -67.22999999999999 55.625 -65.22999999999999 H34.375 L28.0 -47.35499999999999 H60.5 Q61.625 -45.22999999999999 63.065 -43.35499999999999 Q64.5 -41.47999999999999 66.25 -39.85499999999999 H25.0 V-15.22999999999999 H95.0 V-31.35499999999999 Q97.0 -31.72999999999999 98.875 -32.29499999999999 Q100.75 -32.85499999999999 102.5 -33.60499999999999 V-1.4799999999999898 Q102.5 0.14500000000001023 101.44 1.210000000000008 Q100.375 2.2700000000000102 98.75 2.2700000000000102 H95.625 Q94.125 2.2700000000000102 93.0 1.210000000000008 Q91.875 0.14500000000001023 91.875 -1.4799999999999898 V-7.72999999999999 H28.125 V-1.4799999999999898 Q28.125 0.14500000000001023 27.0 1.210000000000008 Q25.875 2.2700000000000102 24.375 2.2700000000000102 H21.25 Z M89.0 -50.60499999999999 Q90.0 -50.60499999999999 90.69000000000001 -51.29499999999999 Q91.375 -51.97999999999999 91.5 -52.97999999999999 Q91.5 -53.97999999999999 90.75 -54.72999999999999 Q90.0 -55.47999999999999 89.0 -55.47999999999999 Q88.0 -55.47999999999999 87.31 -54.72999999999999 Q86.625 -53.97999999999999 86.625 -52.97999999999999 Q86.625 -51.97999999999999 87.31 -51.29499999999999 Q88.0 -50.60499999999999 89.0 -50.60499999999999 Z M37.375 -20.97999999999999 Q40.0 -20.97999999999999 41.935 -22.919999999999987 Q43.875 -24.85499999999999 43.875 -27.60499999999999 Q43.875 -30.22999999999999 41.935 -32.16499999999999 Q40.0 -34.10499999999999 37.25 -34.10499999999999 Q34.625 -34.10499999999999 32.69 -32.16499999999999 Q30.75 -30.22999999999999 30.75 -27.47999999999999 Q30.75 -24.85499999999999 32.69 -22.919999999999987 Q34.625 -20.97999999999999 37.375 -20.97999999999999 Z M82.75 -20.97999999999999 Q85.375 -20.97999999999999 87.31 -22.919999999999987 Q89.25 -24.85499999999999 89.25 -27.47999999999999 Q89.25 -28.47999999999999 88.875 -29.35499999999999 Q88.5 -30.22999999999999 87.875 -30.85499999999999 Q85.5 -30.85499999999999 83.25 -31.294999999999987 Q81.0 -31.72999999999999 79.0 -32.47999999999999 Q77.75 -31.85499999999999 76.94 -30.47999999999999 Q76.125 -29.10499999999999 76.125 -27.47999999999999 Q76.125 -24.85499999999999 78.065 -22.919999999999987 Q80.0 -20.97999999999999 82.75 -20.97999999999999 Z"/></g><g id="Thin-M" transform="matrix(1 0 0 1 802.565 1126)"><path d="M88.0 -43.35499999999999 Q79.75 -43.35499999999999 73.94 -49.16999999999999 Q68.125 -54.97999999999999 68.125 -63.35499999999999 Q68.125 -71.60499999999999 73.94 -77.47999999999999 Q79.75 -83.35499999999999 88.125 -83.35499999999999 Q96.375 -83.35499999999999 102.25 -77.47999999999999 Q108.125 -71.60499999999999 108.125 -63.35499999999999 Q108.125 -54.97999999999999 102.25 -49.16999999999999 Q96.375 -43.35499999999999 88.0 -43.35499999999999 Z M86.125 -60.22999999999999 H90.0 V-75.22999999999999 H86.125 V-60.22999999999999 Z M22.5 -0.22999999999998977 Q21.375 -0.22999999999998977 20.689999999999998 -0.914999999999992 Q20.0 -1.6049999999999898 20.0 -2.7299999999999898 V-39.47999999999999 L29.875 -67.72999999999999 Q30.25 -68.97999999999999 31.314999999999998 -69.60499999999999 Q32.375 -70.22999999999999 33.625 -70.22999999999999 H57.0 Q56.625 -68.97999999999999 56.5 -67.79499999999999 Q56.375 -66.60499999999999 56.25 -65.22999999999999 H34.5 L27.125 -44.47999999999999 H62.5 Q63.5 -42.97999999999999 64.565 -41.789999999999985 Q65.625 -40.60499999999999 66.875 -39.47999999999999 H25.0 V-15.22999999999999 H95.0 V-32.10499999999999 Q96.375 -32.47999999999999 97.56500000000001 -32.85499999999999 Q98.75 -33.22999999999999 100.0 -33.72999999999999 V-2.7299999999999898 Q100.0 -1.6049999999999898 99.315 -0.914999999999992 Q98.625 -0.22999999999998977 97.5 -0.22999999999998977 H96.375 Q95.25 -0.22999999999998977 94.565 -0.914999999999992 Q93.875 -1.6049999999999898 93.875 -2.7299999999999898 V-10.22999999999999 H26.125 V-2.7299999999999898 Q26.125 -1.6049999999999898 25.44 -0.914999999999992 Q24.75 -0.22999999999998977 23.625 -0.22999999999998977 H22.5 Z M88.125 -50.97999999999999 Q89.125 -50.97999999999999 89.69 -51.66999999999999 Q90.25 -52.35499999999999 90.375 -53.22999999999999 Q90.375 -54.22999999999999 89.75 -54.919999999999995 Q89.125 -55.60499999999999 88.125 -55.60499999999999 Q87.125 -55.60499999999999 86.44 -54.97999999999999 Q85.75 -54.35499999999999 85.75 -53.35499999999999 Q85.75 -52.35499999999999 86.44 -51.66999999999999 Q87.125 -50.97999999999999 88.125 -50.97999999999999 Z M37.125 -21.72999999999999 Q39.5 -21.72999999999999 41.125 -23.35499999999999 Q42.75 -24.97999999999999 42.75 -27.35499999999999 Q42.75 -29.72999999999999 41.065 -31.35499999999999 Q39.375 -32.97999999999999 37.125 -32.97999999999999 Q34.75 -32.97999999999999 33.125 -31.294999999999987 Q31.5 -29.60499999999999 31.5 -27.35499999999999 Q31.5 -24.97999999999999 33.125 -23.35499999999999 Q34.75 -21.72999999999999 37.125 -21.72999999999999 Z M82.875 -21.72999999999999 Q85.25 -21.72999999999999 86.875 -23.35499999999999 Q88.5 -24.97999999999999 88.5 -27.35499999999999 Q88.5 -28.60499999999999 87.81 -29.72999999999999 Q87.125 -30.85499999999999 86.125 -31.47999999999999 Q84.75 -31.60499999999999 83.5 -31.789999999999985 Q82.25 -31.97999999999999 81.0 -32.35499999999999 Q79.5 -31.97999999999999 78.375 -30.539999999999992 Q77.25 -29.10499999999999 77.25 -27.35499999999999 Q77.25 -24.97999999999999 78.94 -23.35499999999999 Q80.625 -21.72999999999999 82.875 -21.72999999999999 Z"/></g><g id="Ultralight-M" transform="matrix(1 0 0 1 506.415 1126)"><path d="M87.5 -44.22999999999999 Q79.75 -44.22999999999999 74.375 -49.60499999999999 Q69.0 -54.97999999999999 69.0 -62.72999999999999 Q69.0 -70.47999999999999 74.375 -75.85499999999999 Q79.75 -81.22999999999999 87.5 -81.22999999999999 Q95.25 -81.22999999999999 100.625 -75.85499999999999 Q106.0 -70.47999999999999 106.0 -62.72999999999999 Q106.0 -54.97999999999999 100.565 -49.60499999999999 Q95.125 -44.22999999999999 87.5 -44.22999999999999 Z M85.75 -60.22999999999999 H89.25 V-73.72999999999999 H85.75 V-60.22999999999999 Z M23.25 -1.7299999999999898 Q22.5 -1.7299999999999898 22.0 -2.2299999999999898 Q21.5 -2.7299999999999898 21.5 -3.4799999999999898 V-39.22999999999999 L31.25 -66.97999999999999 Q31.5 -67.85499999999999 32.25 -68.29499999999999 Q33.0 -68.72999999999999 34.0 -68.72999999999999 H57.125 Q56.875 -67.85499999999999 56.815 -67.04499999999999 Q56.75 -66.22999999999999 56.625 -65.22999999999999 H34.5 L26.5 -42.72999999999999 H63.75 Q64.625 -41.72999999999999 65.44 -40.91999999999999 Q66.25 -40.10499999999999 67.25 -39.22999999999999 H25.0 V-15.22999999999999 H95.0 V-32.60499999999999 Q96.0 -32.85499999999999 96.815 -33.16999999999999 Q97.625 -33.47999999999999 98.5 -33.72999999999999 V-3.4799999999999898 Q98.5 -2.7299999999999898 98.0 -2.2299999999999898 Q97.5 -1.7299999999999898 96.75 -1.7299999999999898 Q96.0 -1.7299999999999898 95.5 -2.2299999999999898 Q95.0 -2.7299999999999898 95.0 -3.4799999999999898 V-11.72999999999999 H25.0 V-3.4799999999999898 Q25.0 -2.7299999999999898 24.5 -2.2299999999999898 Q24.0 -1.7299999999999898 23.25 -1.7299999999999898 Z M87.5 -51.22999999999999 Q88.5 -51.22999999999999 89.06 -51.85499999999999 Q89.625 -52.47999999999999 89.75 -53.35499999999999 Q89.75 -54.35499999999999 89.125 -55.04499999999999 Q88.5 -55.72999999999999 87.5 -55.72999999999999 Q86.5 -55.72999999999999 85.875 -55.10499999999999 Q85.25 -54.47999999999999 85.25 -53.47999999999999 Q85.25 -52.47999999999999 85.875 -51.85499999999999 Q86.5 -51.22999999999999 87.5 -51.22999999999999 Z M37.0 -22.22999999999999 Q39.125 -22.22999999999999 40.565 -23.669999999999987 Q42.0 -25.10499999999999 42.0 -27.22999999999999 Q42.0 -29.35499999999999 40.565 -30.794999999999987 Q39.125 -32.22999999999999 37.0 -32.22999999999999 Q34.875 -32.22999999999999 33.44 -30.794999999999987 Q32.0 -29.35499999999999 32.0 -27.22999999999999 Q32.0 -25.10499999999999 33.44 -23.669999999999987 Q34.875 -22.22999999999999 37.0 -22.22999999999999 Z M83.0 -22.22999999999999 Q85.125 -22.22999999999999 86.56 -23.669999999999987 Q88.0 -25.10499999999999 88.0 -27.22999999999999 Q88.0 -28.72999999999999 87.19 -29.97999999999999 Q86.375 -31.22999999999999 85.0 -31.85499999999999 Q84.375 -31.97999999999999 83.625 -32.04499999999999 Q82.875 -32.10499999999999 82.25 -32.22999999999999 Q80.5 -31.97999999999999 79.25 -30.539999999999992 Q78.0 -29.10499999999999 78.0 -27.22999999999999 Q78.0 -25.10499999999999 79.44 -23.669999999999987 Q80.875 -22.22999999999999 83.0 -22.22999999999999 Z"/></g><g id="Bold-S" transform="matrix(1 0 0 1 2294.23 696)"><path d="M71.01 -35.428827999999996 Q63.118422 -35.428827999999996 57.598577999999996 -40.948671999999995 Q52.074 -46.47324999999999 52.074 -54.36482799999999 Q52.074 -62.351085999999995 57.645917999999995 -67.82359 Q63.217836 -73.300828 71.01 -73.300828 Q78.901578 -73.300828 84.42142199999999 -67.77624999999999 Q89.946 -62.251672 89.946 -54.36482799999999 Q89.946 -46.47324999999999 84.42142199999999 -40.948671999999995 Q78.901578 -35.428827999999996 71.01 -35.428827999999996 Z M67.852422 -55.54832799999999 H74.167578 V-65.01632799999999 H67.852422 V-55.54832799999999 Z M16.569 1.2596719999999948 Q14.301414 1.2596719999999948 12.573504 -0.46350399999998615 Q10.850328 -2.1914139999999946 10.850328 -4.458999999999989 V-35.821749999999994 L18.737172 -55.54832799999999 Q19.920672 -58.60649199999999 22.533839999999998 -60.429081999999994 Q25.147008 -62.251672 28.503414 -62.251672 H46.549422 Q45.46533599999999 -59.884671999999995 45.119754 -56.92592199999999 Q44.774172 -53.96717199999999 45.072414 -50.6155 H29.388672 L25.147008 -39.96399999999999 H49.314078 Q50.691672000000004 -37.89050799999999 52.320167999999995 -36.21467199999999 Q53.948664 -34.53883599999999 56.21625 -32.86299999999999 H22.4865 V-17.477499999999992 H72.1935 V-28.228413999999994 Q75.744 -28.422507999999993 78.70275 -29.411913999999996 Q81.6615 -30.396585999999992 83.82967199999999 -31.973007999999993 V-4.458999999999989 Q83.82967199999999 -2.1914139999999946 82.106496 -0.46350399999998615 Q80.378586 1.2596719999999948 78.111 1.2596719999999948 H76.435164 Q74.167578 1.2596719999999948 72.439668 -0.316749999999999 Q70.716492 -1.8931719999999927 70.716492 -4.165491999999986 V-5.841328000000004 H23.963508 V-4.165491999999986 Q23.963508 -1.8931719999999927 22.240332000000002 -0.316749999999999 Q20.512422 1.2596719999999948 18.244836 1.2596719999999948 H16.569 Z M71.01 -43.31567199999999 Q72.586422 -43.31567199999999 73.575828 -44.305077999999995 Q74.5605 -45.28974999999999 74.5605 -46.86617199999999 Q74.5605 -48.44732799999999 73.575828 -49.47933999999999 Q72.586422 -50.516085999999994 71.01 -50.516085999999994 Q69.433578 -50.516085999999994 68.444172 -49.47933999999999 Q67.4595 -48.44732799999999 67.4595 -46.86617199999999 Q67.4595 -45.28974999999999 68.444172 -44.305077999999995 Q69.433578 -43.31567199999999 71.01 -43.31567199999999 Z M31.36275 -20.436249999999994 Q33.336828 -20.436249999999994 34.714422 -21.818577999999995 Q36.09675 -23.196171999999997 36.09675 -25.170249999999996 Q36.09675 -27.144327999999994 34.714422 -28.521921999999996 Q33.336828 -29.90424999999999 31.36275 -29.90424999999999 Q29.388672 -29.90424999999999 28.011077999999998 -28.521921999999996 Q26.62875 -27.144327999999994 26.62875 -25.170249999999996 Q26.62875 -23.196171999999997 28.011077999999998 -21.818577999999995 Q29.388672 -20.436249999999994 31.36275 -20.436249999999994 Z M63.31725 -20.436249999999994 Q65.291328 -20.436249999999994 66.668922 -21.818577999999995 Q68.05125 -23.196171999999997 68.05125 -25.170249999999996 Q68.05125 -26.254335999999988 67.4595 -27.191667999999993 Q66.86775 -28.12899999999999 65.98249200000001 -28.720749999999995 Q65.0925 -29.018991999999997 64.254582 -29.265159999999995 Q63.416664000000004 -29.511327999999992 62.526672 -29.804835999999987 Q60.850835999999994 -29.60600799999999 59.71941 -28.275754 Q58.58325 -26.945499999999996 58.58325 -25.170249999999996 Q58.58325 -23.196171999999997 59.965578 -21.818577999999995 Q61.343172 -20.436249999999994 63.31725 -20.436249999999994 Z"/></g><g id="Semibold-S" transform="matrix(1 0 0 1 1998.1 696)"><path d="M71.01 -35.329414 Q63.118422 -35.329414 57.598577999999996 -40.853992 Q52.074 -46.373836 52.074 -54.26541399999999 Q52.074 -62.251672 57.645917999999995 -67.72891 Q63.217836 -73.201414 71.01 -73.201414 Q78.901578 -73.201414 84.42142199999999 -67.676836 Q89.946 -62.15699199999999 89.946 -54.26541399999999 Q89.946 -46.373836 84.42142199999999 -40.853992 Q78.901578 -35.329414 71.01 -35.329414 Z M68.150664 -54.95657799999999 H73.86933599999999 V-64.424578 H68.150664 V-54.95657799999999 Z M16.569 -0.21733599999998887 Q14.79375 -0.21733599999998887 13.56291 -1.4529099999999886 Q12.327336 -2.683749999999989 12.327336 -4.458999999999989 V-35.622921999999996 L20.1195 -55.05599199999999 Q21.104172000000002 -57.61708599999999 23.376492 -59.193507999999994 Q25.644078 -60.774663999999994 28.503414 -60.774663999999994 H46.057086 Q45.266507999999995 -58.89999999999999 45.02034 -56.43358599999999 Q44.774172 -53.96717199999999 45.072414 -51.10783599999999 H28.99575 L24.559991999999998 -39.96399999999999 H49.314078 Q50.691672000000004 -37.89050799999999 52.272828 -36.21467199999999 Q53.84925 -34.53883599999999 56.116836 -32.86299999999999 H21.994163999999998 V-16.985163999999997 H72.685836 V-28.228413999999994 Q75.64458599999999 -28.422507999999993 78.111 -29.16574599999999 Q80.577414 -29.90424999999999 82.352664 -31.087749999999993 V-4.458999999999989 Q82.352664 -2.683749999999989 81.11709 -1.4529099999999886 Q79.88625 -0.21733599999998887 78.111 -0.21733599999998887 H75.15225 Q73.377 -0.21733599999998887 72.09408599999999 -1.400835999999984 Q70.811172 -2.5843359999999933 70.811172 -4.260171999999983 V-7.318335999999988 H23.868828 V-4.260171999999983 Q23.868828 -2.5843359999999933 22.585914 -1.400835999999984 Q21.303 -0.21733599999998887 19.52775 -0.21733599999998887 H16.569 Z M71.01 -43.907422 Q72.29291400000001 -43.907422 73.178172 -44.797413999999996 Q74.06816400000001 -45.682672 74.06816400000001 -46.965585999999995 Q74.06816400000001 -48.24849999999999 73.178172 -49.13849199999999 Q72.29291400000001 -50.02374999999999 71.01 -50.02374999999999 Q69.727086 -50.02374999999999 68.84182799999999 -49.13849199999999 Q67.951836 -48.24849999999999 67.951836 -46.965585999999995 Q67.951836 -45.682672 68.84182799999999 -44.797413999999996 Q69.727086 -43.907422 71.01 -43.907422 Z M31.064508 -20.138007999999992 Q33.038586 -20.138007999999992 34.420913999999996 -21.520335999999986 Q35.798508 -22.902663999999994 35.798508 -24.872007999999994 Q35.798508 -26.846085999999993 34.420913999999996 -28.228413999999994 Q33.038586 -29.60600799999999 31.064508 -29.60600799999999 Q29.095164 -29.60600799999999 27.712836 -28.228413999999994 Q26.330508000000002 -26.846085999999993 26.330508000000002 -24.872007999999994 Q26.330508000000002 -22.902663999999994 27.712836 -21.520335999999986 Q29.095164 -20.138007999999992 31.064508 -20.138007999999992 Z M63.615492 -20.138007999999992 Q65.584836 -20.138007999999992 66.967164 -21.520335999999986 Q68.349492 -22.902663999999994 68.349492 -24.872007999999994 Q68.349492 -26.05550799999999 67.753008 -27.044914 Q67.165992 -28.029585999999988 66.176586 -28.621335999999992 Q65.386008 -28.919577999999994 64.54809 -29.113671999999994 Q63.710172 -29.312499999999993 62.82491400000001 -29.60600799999999 Q61.149077999999996 -29.411913999999996 60.012918 -28.029585999999988 Q58.881492 -26.651991999999993 58.881492 -24.872007999999994 Q58.881492 -22.902663999999994 60.259085999999996 -21.520335999999986 Q61.641414000000005 -20.138007999999992 63.615492 -20.138007999999992 Z"/></g><g id="Medium-S" transform="matrix(1 0 0 1 1701.85 696)"><path d="M71.01 -35.22999999999999 Q63.118422 -35.22999999999999 57.598577999999996 -40.80191799999999 Q52.074 -46.373836 52.074 -54.166 Q52.074 -62.15699199999999 57.598577999999996 -67.62949599999999 Q63.118422 -73.10199999999999 71.01 -73.10199999999999 Q78.901578 -73.10199999999999 84.42142199999999 -67.577422 Q89.946 -62.05757799999999 89.946 -54.166 Q89.946 -46.274421999999994 84.42142199999999 -40.754577999999995 Q78.901578 -35.22999999999999 71.01 -35.22999999999999 Z M68.444172 -54.459508 H73.575828 V-63.92750799999999 H68.444172 V-54.459508 Z M16.569 -1.301421999999988 Q15.286086000000001 -1.301421999999988 14.348754000000001 -2.238753999999986 Q13.411422 -3.1760859999999838 13.411422 -4.458999999999989 V-35.428827999999996 L21.104172000000002 -54.757749999999994 Q21.994163999999998 -56.92592199999999 23.963508 -58.308249999999994 Q25.937586 -59.69057799999999 28.503414 -59.69057799999999 H45.66416400000001 Q45.171828 -58.109421999999995 45.02034 -56.08800399999999 Q44.873585999999996 -54.066585999999994 44.973 -51.50549199999999 H28.697508000000003 L24.062922 -39.96399999999999 H49.214664000000006 Q50.596992 -37.89050799999999 52.173414 -36.21467199999999 Q53.749835999999995 -34.53883599999999 56.017422 -32.86299999999999 H21.596508 V-16.587507999999985 H73.083492 V-28.228413999999994 Q75.545172 -28.422507999999993 77.61866400000001 -29.018991999999997 Q79.687422 -29.60600799999999 81.268578 -30.396585999999992 V-4.458999999999989 Q81.268578 -3.1760859999999838 80.33124600000001 -2.238753999999986 Q79.39391400000001 -1.301421999999988 78.111 -1.301421999999988 H74.06816400000001 Q72.78525 -1.301421999999988 71.84791799999999 -2.1914139999999946 Q70.910586 -3.076671999999988 70.910586 -4.359585999999993 V-8.402421999999987 H23.769414 V-4.359585999999993 Q23.769414 -3.076671999999988 22.832082000000003 -2.1914139999999946 Q21.89475 -1.301421999999988 20.611836 -1.301421999999988 H16.569 Z M71.01 -44.404492 Q72.09408599999999 -44.404492 72.884664 -45.142996 Q73.670508 -45.881499999999996 73.670508 -47.06499999999999 Q73.670508 -48.149086 72.884664 -48.93966399999999 Q72.09408599999999 -49.725508 71.01 -49.725508 Q69.925914 -49.725508 69.135336 -48.93966399999999 Q68.349492 -48.149086 68.349492 -47.06499999999999 Q68.349492 -45.881499999999996 69.135336 -45.142996 Q69.925914 -44.404492 71.01 -44.404492 Z M30.870414 -19.943914 Q32.844491999999995 -19.943914 34.222086 -21.321507999999987 Q35.604414 -22.70383599999999 35.604414 -24.677913999999994 Q35.604414 -26.651991999999993 34.222086 -28.029585999999988 Q32.844491999999995 -29.411913999999996 30.870414 -29.411913999999996 Q28.896336 -29.411913999999996 27.514008 -28.029585999999988 Q26.136414 -26.651991999999993 26.136414 -24.677913999999994 Q26.136414 -22.70383599999999 27.514008 -21.321507999999987 Q28.896336 -19.943914 30.870414 -19.943914 Z M63.809585999999996 -19.943914 Q65.783664 -19.943914 67.165992 -21.321507999999987 Q68.54358599999999 -22.70383599999999 68.54358599999999 -24.677913999999994 Q68.54358599999999 -25.861413999999996 67.951836 -26.898159999999997 Q67.360086 -27.930171999999992 66.375414 -28.521921999999996 Q65.584836 -28.820164 64.746918 -29.018991999999997 Q63.909 -29.21308599999999 63.118422 -29.411913999999996 Q61.343172 -29.21308599999999 60.211746 -27.835491999999995 Q59.075585999999994 -26.453163999999994 59.075585999999994 -24.677913999999994 Q59.075585999999994 -22.70383599999999 60.457914 -21.321507999999987 Q61.835508 -19.943914 63.809585999999996 -19.943914 Z"/></g><g id="Regular-S" transform="matrix(1 0 0 1 1405.73 696)"><path d="M71.01 -35.22999999999999 Q63.118422 -35.22999999999999 57.598577999999996 -40.754577999999995 Q52.074 -46.274421999999994 52.074 -54.166 Q52.074 -62.05757799999999 57.598577999999996 -67.577422 Q63.118422 -73.10199999999999 71.01 -73.10199999999999 Q78.901578 -73.10199999999999 84.42142199999999 -67.577422 Q89.946 -62.05757799999999 89.946 -54.166 Q89.946 -46.274421999999994 84.42142199999999 -40.754577999999995 Q78.901578 -35.22999999999999 71.01 -35.22999999999999 Z M68.643 -54.166 H73.377 V-63.63399999999999 H68.643 V-54.166 Z M16.569 -2.0919999999999987 Q15.584328 -2.0919999999999987 14.893163999999999 -2.7831639999999993 Q14.202 -3.474328 14.202 -4.458999999999989 V-35.22999999999999 L21.89475 -54.459508 Q22.685328 -56.43358599999999 24.460577999999998 -57.66915999999999 Q26.235827999999998 -58.89999999999999 28.503414 -58.89999999999999 H45.365922 Q45.072414 -57.51767199999999 44.973 -55.794495999999995 Q44.873585999999996 -54.066585999999994 44.973 -51.79899999999999 H28.503414 L23.769414 -39.96399999999999 H49.214664000000006 Q50.596992 -37.89050799999999 52.173414 -36.21467199999999 Q53.749835999999995 -34.53883599999999 56.017422 -32.86299999999999 H21.303 V-16.293999999999997 H73.377 V-28.228413999999994 Q75.545172 -28.422507999999993 77.320422 -28.867503999999997 Q79.095672 -29.312499999999993 80.478 -29.90424999999999 V-4.458999999999989 Q80.478 -3.474328 79.786836 -2.7831639999999993 Q79.095672 -2.0919999999999987 78.111 -2.0919999999999987 H73.377 Q72.39232799999999 -2.0919999999999987 71.701164 -2.7831639999999993 Q71.01 -3.474328 71.01 -4.458999999999989 V-9.192999999999998 H23.67 V-4.458999999999989 Q23.67 -3.474328 22.978836 -2.7831639999999993 Q22.287672 -2.0919999999999987 21.303 -2.0919999999999987 H16.569 Z M71.01 -44.69799999999999 Q71.994672 -44.69799999999999 72.685836 -45.389163999999994 Q73.377 -46.080327999999994 73.377 -47.06499999999999 Q73.377 -48.049671999999994 72.685836 -48.740835999999994 Q71.994672 -49.431999999999995 71.01 -49.431999999999995 Q70.025328 -49.431999999999995 69.334164 -48.740835999999994 Q68.643 -48.049671999999994 68.643 -47.06499999999999 Q68.643 -46.080327999999994 69.334164 -45.389163999999994 Q70.025328 -44.69799999999999 71.01 -44.69799999999999 Z M30.771 -19.844499999999996 Q32.745078 -19.844499999999996 34.122672 -21.22682799999999 Q35.505 -22.604421999999992 35.505 -24.57849999999999 Q35.505 -26.55257799999999 34.122672 -27.930171999999992 Q32.745078 -29.312499999999993 30.771 -29.312499999999993 Q28.796922000000002 -29.312499999999993 27.419328 -27.930171999999992 Q26.037 -26.55257799999999 26.037 -24.57849999999999 Q26.037 -22.604421999999992 27.419328 -21.22682799999999 Q28.796922000000002 -19.844499999999996 30.771 -19.844499999999996 Z M63.909 -19.844499999999996 Q65.883078 -19.844499999999996 67.260672 -21.22682799999999 Q68.643 -22.604421999999992 68.643 -24.57849999999999 Q68.643 -25.761999999999993 68.05125 -26.798745999999987 Q67.4595 -27.835491999999995 66.474828 -28.521921999999996 Q65.68425 -28.720749999999995 64.893672 -28.919577999999994 Q64.107828 -29.113671999999994 63.31725 -29.312499999999993 Q61.542 -29.113671999999994 60.3585 -27.736077999999992 Q59.175 -26.35374999999999 59.175 -24.57849999999999 Q59.175 -22.604421999999992 60.557328 -21.22682799999999 Q61.934922 -19.844499999999996 63.909 -19.844499999999996 Z"/></g><g id="Light-S" transform="matrix(1 0 0 1 1109.75 696)"><path d="M70.219422 -36.41349999999999 Q63.118422 -36.41349999999999 58.190328 -41.39366799999999 Q53.2575 -46.373836 53.2575 -53.37542199999999 Q53.2575 -60.575835999999995 58.237668 -65.45658999999999 Q63.217836 -70.34207799999999 70.31883599999999 -70.34207799999999 Q77.320422 -70.34207799999999 82.25325 -65.40924999999999 Q87.18607800000001 -60.47642199999999 87.18607800000001 -53.37542199999999 Q87.18607800000001 -46.274421999999994 82.20590999999999 -41.34632799999999 Q77.22100800000001 -36.41349999999999 70.219422 -36.41349999999999 Z M68.150664 -54.166 H72.39232799999999 V-61.659921999999995 H68.150664 V-54.166 Z M17.553672000000002 -4.0660780000000045 Q16.961922 -4.0660780000000045 16.569 -4.458999999999989 Q16.176078 -4.851921999999988 16.176078 -5.443671999999992 V-34.936491999999994 L23.67 -53.474835999999996 Q24.26175 -55.05599199999999 25.691418 -55.98858999999999 Q27.121086000000002 -56.92592199999999 28.99575 -56.92592199999999 H45.56475 Q45.365922 -56.04066399999999 45.365922 -54.80508999999999 Q45.365922 -53.57424999999999 45.46533599999999 -51.79899999999999 H28.602828 L22.978836 -37.696414 H50.8905 Q52.074 -36.21467199999999 53.356914 -35.03117199999999 Q54.639828 -33.847671999999996 56.514492000000004 -32.569492 H21.303 V-16.293999999999997 H73.377 V-28.820164 Q75.052836 -29.018991999999997 76.33575 -29.312499999999993 Q77.61866400000001 -29.60600799999999 78.50392199999999 -29.90424999999999 V-5.443671999999992 Q78.50392199999999 -4.851921999999988 78.111 -4.458999999999989 Q77.718078 -4.0660780000000045 77.126328 -4.0660780000000045 H73.86933599999999 Q73.277586 -4.0660780000000045 72.884664 -4.458999999999989 Q72.487008 -4.851921999999988 72.487008 -5.443671999999992 V-11.16707799999999 H22.192992 V-5.443671999999992 Q22.192992 -4.851921999999988 21.795336 -4.458999999999989 Q21.402414 -4.0660780000000045 20.810664 -4.0660780000000045 H17.553672000000002 Z M70.219422 -44.991507999999996 Q71.208828 -44.991507999999996 71.84791799999999 -45.682672 Q72.487008 -46.373836 72.586422 -47.26382799999999 Q72.586422 -48.149086 71.899992 -48.88758999999999 Q71.208828 -49.630827999999994 70.219422 -49.630827999999994 Q69.334164 -49.630827999999994 68.643 -48.93966399999999 Q67.951836 -48.24849999999999 67.951836 -47.26382799999999 Q67.951836 -46.373836 68.643 -45.682672 Q69.334164 -44.991507999999996 70.219422 -44.991507999999996 Z M30.671586 -20.436249999999994 Q32.248008 -20.436249999999994 33.431508 -21.619749999999996 Q34.615008 -22.80324999999999 34.615008 -24.479085999999988 Q34.615008 -26.05550799999999 33.431508 -27.23900799999999 Q32.248008 -28.422507999999993 30.572172000000002 -28.422507999999993 Q28.99575 -28.422507999999993 27.81225 -27.23900799999999 Q26.62875 -26.05550799999999 26.62875 -24.379671999999992 Q26.62875 -22.80324999999999 27.81225 -21.619749999999996 Q28.99575 -20.436249999999994 30.671586 -20.436249999999994 Z M64.107828 -20.436249999999994 Q65.68425 -20.436249999999994 66.86775 -21.619749999999996 Q68.05125 -22.80324999999999 68.05125 -24.379671999999992 Q68.05125 -25.861413999999996 67.21333200000001 -27.092253999999997 Q66.375414 -28.32782799999999 65.0925 -29.018991999999997 Q65.0925 -29.21308599999999 65.04516 -29.265159999999995 Q64.99308599999999 -29.312499999999993 64.893672 -29.113671999999994 Q62.924327999999996 -29.21308599999999 61.49466 -27.78341799999999 Q60.064992000000004 -26.35374999999999 60.064992000000004 -24.379671999999992 Q60.064992000000004 -22.80324999999999 61.248492000000006 -21.619749999999996 Q62.431992 -20.436249999999994 64.107828 -20.436249999999994 Z"/></g><g id="Thin-S" transform="matrix(1 0 0 1 814.015 696)"><path d="M69.433578 -37.696414 Q63.217836 -37.696414 58.881492 -42.03749199999999 Q54.540414000000006 -46.373836 54.540414000000006 -52.68899199999999 Q54.540414000000006 -58.999413999999994 58.928832 -63.335758 Q63.31725 -67.676836 69.53299200000001 -67.676836 Q75.744 -67.676836 80.132418 -63.28841799999999 Q84.520836 -58.89999999999999 84.520836 -52.58957799999999 Q84.520836 -46.373836 80.08507800000001 -42.03749199999999 Q75.64458599999999 -37.696414 69.433578 -37.696414 Z M67.558914 -54.166 H71.402922 V-59.69057799999999 H67.558914 V-54.166 Z M18.543077999999998 -6.035421999999983 Q18.34425 -6.035421999999983 18.244836 -6.134835999999993 Q18.145422 -6.234249999999989 18.145422 -6.433077999999995 V-34.63824999999999 L25.345836000000002 -52.49016399999999 Q25.838172 -53.67366399999999 26.926992 -54.31275399999999 Q28.011077999999998 -54.95657799999999 29.388672 -54.95657799999999 H45.763578 Q45.763578 -54.459508 45.862992000000006 -53.77307799999999 Q45.957672 -53.081914 45.957672 -51.79899999999999 H28.697508000000003 L22.287672 -35.428827999999996 H52.466922000000004 Q53.551007999999996 -34.43942199999999 54.540414000000006 -33.800332 Q55.525085999999995 -33.15650799999999 57.006828 -32.271249999999995 H21.303 V-16.293999999999997 H73.377 V-29.411913999999996 Q74.5605 -29.60600799999999 75.299004 -29.75749599999999 Q76.037508 -29.90424999999999 76.53457800000001 -30.003664 V-6.433077999999995 Q76.53457800000001 -6.234249999999989 76.435164 -6.134835999999993 Q76.33575 -6.035421999999983 76.136922 -6.035421999999983 H74.461086 Q74.266992 -6.035421999999983 74.167578 -6.134835999999993 Q74.06816400000001 -6.234249999999989 74.06816400000001 -6.433077999999995 V-13.136421999999996 H20.611836 V-6.433077999999995 Q20.611836 -6.234249999999989 20.512422 -6.134835999999993 Q20.413008 -6.035421999999983 20.218913999999998 -6.035421999999983 H18.543077999999998 Z M69.53299200000001 -45.28974999999999 Q70.41825 -45.28974999999999 71.01 -45.928839999999994 Q71.60175 -46.572663999999996 71.701164 -47.457921999999996 Q71.701164 -48.347913999999996 71.05734 -49.03907799999999 Q70.41825 -49.725508 69.53299200000001 -49.725508 Q68.54358599999999 -49.725508 67.904496 -49.086417999999995 Q67.260672 -48.44732799999999 67.260672 -47.55733599999999 Q67.260672 -46.572663999999996 67.904496 -45.928839999999994 Q68.54358599999999 -45.28974999999999 69.53299200000001 -45.28974999999999 Z M30.477491999999998 -21.02799999999999 Q31.855086 -21.02799999999999 32.792418 -21.965331999999997 Q33.72975 -22.902663999999994 33.72975 -24.284991999999995 Q33.72975 -25.66258599999999 32.745078 -26.599917999999988 Q31.755672 -27.537249999999993 30.477491999999998 -27.537249999999993 Q29.095164 -27.537249999999993 28.157832000000003 -26.55257799999999 Q27.2205 -25.563171999999994 27.2205 -24.284991999999995 Q27.2205 -22.902663999999994 28.157832000000003 -21.965331999999997 Q29.095164 -21.02799999999999 30.477491999999998 -21.02799999999999 Z M64.202508 -21.02799999999999 Q65.584836 -21.02799999999999 66.522168 -21.965331999999997 Q67.4595 -22.902663999999994 67.4595 -24.284991999999995 Q67.4595 -25.960827999999992 66.375414 -27.39049599999999 Q65.291328 -28.820164 63.710172 -29.511327999999992 Q64.50075 -29.804835999999987 65.239254 -29.658081999999993 Q65.98249200000001 -29.511327999999992 66.474828 -29.018991999999997 Q64.301922 -29.312499999999993 62.626085999999994 -27.835491999999995 Q60.95025 -26.35374999999999 60.95025 -24.284991999999995 Q60.95025 -22.902663999999994 61.934922 -21.965331999999997 Q62.924327999999996 -21.02799999999999 64.202508 -21.02799999999999 Z"/></g><g id="Ultralight-S" transform="matrix(1 0 0 1 517.792 696)"><path d="M68.936508 -38.38757799999999 Q63.217836 -38.38757799999999 59.222339999999996 -42.378339999999994 Q55.231578 -46.373836 55.231578 -52.19192199999999 Q55.231578 -58.109421999999995 59.274414 -62.05757799999999 Q63.31725 -66.00099999999999 69.135336 -66.00099999999999 Q74.854008 -66.00099999999999 78.849504 -62.00550399999999 Q82.845 -58.010008 82.845 -52.19192199999999 Q82.845 -46.373836 78.802164 -42.378339999999994 Q74.759328 -38.38757799999999 68.936508 -38.38757799999999 Z M67.260672 -54.166 H70.811172 V-58.50707799999999 H67.260672 V-54.166 Z M19.134828 -7.218921999999992 Q19.229508000000003 -7.218921999999992 19.281582 -7.171582000000001 Q19.328922000000002 -7.119507999999996 19.328922000000002 -7.024827999999999 V-34.43942199999999 L26.429922 -51.89841399999999 Q26.827578 -52.783671999999996 27.665496 -53.27600799999999 Q28.503414 -53.77307799999999 29.686913999999998 -53.77307799999999 H45.862992000000006 Q45.957672 -53.57424999999999 46.10916 -53.18132799999999 Q46.255914000000004 -52.783671999999996 46.255914000000004 -51.79899999999999 H28.697508000000003 L21.795336 -34.046499999999995 H53.456328 Q54.441 -33.45474999999999 55.231578 -33.10916799999999 Q56.017422 -32.76358599999999 57.300335999999994 -32.072421999999996 H21.303 V-16.293999999999997 H73.377 V-29.804835999999987 Q74.266992 -29.90424999999999 74.707254 -30.003664 Q75.15225 -30.10307799999999 75.351078 -30.003664 V-7.024827999999999 Q75.351078 -7.119507999999996 75.39841799999999 -7.171582000000001 Q75.450492 -7.218921999999992 75.545172 -7.218921999999992 H74.759328 Q74.854008 -7.218921999999992 74.906082 -7.171582000000001 Q74.953422 -7.119507999999996 74.953422 -7.024827999999999 V-14.319921999999991 H19.726578 V-7.024827999999999 Q19.726578 -7.119507999999996 19.773918 -7.171582000000001 Q19.825992 -7.218921999999992 19.920672 -7.218921999999992 H19.134828 Z M69.035922 -45.48857799999999 Q70.025328 -45.48857799999999 70.565004 -46.080327999999994 Q71.109414 -46.67207799999999 71.208828 -47.55733599999999 Q71.208828 -48.44732799999999 70.61707799999999 -49.13375799999999 Q70.025328 -49.824921999999994 69.035922 -49.824921999999994 Q68.05125 -49.824921999999994 67.4595 -49.233171999999996 Q66.86775 -48.64142199999999 66.86775 -47.656749999999995 Q66.86775 -46.67207799999999 67.4595 -46.080327999999994 Q68.05125 -45.48857799999999 69.035922 -45.48857799999999 Z M30.378078 -21.420921999999997 Q31.561578 -21.420921999999997 32.347422 -22.211499999999994 Q33.138 -23.00207799999999 33.138 -24.185577999999992 Q33.138 -25.369077999999995 32.347422 -26.154921999999992 Q31.561578 -26.945499999999996 30.378078 -26.945499999999996 Q29.194578 -26.945499999999996 28.404 -26.154921999999992 Q27.613422 -25.369077999999995 27.613422 -24.185577999999992 Q27.613422 -23.00207799999999 28.404 -22.211499999999994 Q29.194578 -21.420921999999997 30.378078 -21.420921999999997 Z M64.301922 -21.420921999999997 Q65.485422 -21.420921999999997 66.276 -22.211499999999994 Q67.06657799999999 -23.00207799999999 67.06657799999999 -24.185577999999992 Q67.06657799999999 -26.05550799999999 65.883078 -27.58458999999999 Q64.699578 -29.113671999999994 62.82491400000001 -29.804835999999987 Q64.202508 -30.10307799999999 65.338668 -29.856909999999992 Q66.474828 -29.60600799999999 67.4595 -28.919577999999994 Q65.0925 -29.312499999999993 63.31725 -27.835491999999995 Q61.542 -26.35374999999999 61.542 -24.185577999999992 Q61.542 -23.00207799999999 62.332578 -22.211499999999994 Q63.118422 -21.420921999999997 64.301922 -21.420921999999997 Z"/></g></g></svg>