<svg xmlns="http://www.w3.org/2000/svg" version="1.1" width="3300" height="2000"><g id="Notes"><style>
    text {
      font-family: monospace;
      text-anchor: middle;
    }
    text.emphasis {
      font-weight:bold;
    }
    text.lanchor {
      text-anchor: start;
    }
  </style><rect height="2200" id="artboard" fill="white" width="3300" x="0" y="0"/><line id="" style="fill:none;stroke:black;stroke-width:0.5;" x1="263" x2="3036" y1="292" y2="292"/><text class="lanchor emphasis" transform="matrix(1 0 0 1 263 322)">Weight/Scale Variations</text><text transform="matrix(1 0 0 1 559.711 322)">Ultralight</text><text transform="matrix(1 0 0 1 856.422 322)">Thin</text><text transform="matrix(1 0 0 1 1153.13 322)">Light</text><text transform="matrix(1 0 0 1 1449.84 322)">Regular</text><text transform="matrix(1 0 0 1 1746.56 322)">Medium</text><text transform="matrix(1 0 0 1 2043.27 322)">Semibold</text><text transform="matrix(1 0 0 1 2339.98 322)">Bold</text><text transform="matrix(1 0 0 1 2636.69 322)">Heavy</text><text transform="matrix(1 0 0 1 2933.4 322)">Black</text><text id="template-version" style="text-anchor: end;" transform="matrix(1 0 0 1 3036 1933)">Template v.1.0</text><text class="lanchor" transform="matrix(1 0 0 1 263 726)">Small</text><text class="lanchor" transform="matrix(1 0 0 1 263 1156)">Medium</text><text class="lanchor" transform="matrix(1 0 0 1 263 1586)">Large</text></g><g id="Guides"><g id="H-reference" style="fill:#27AAE1;stroke:none;" transform="matrix(1 0 0 1 339 696)"><path d="M 54.9316 0 L 57.666 0 L 30.5664 -70.459 L 28.0762 -70.459 L 0.976562 0 L 3.66211 0 L 12.9395 -24.4629 L 45.7031 -24.4629 Z M 29.1992 -67.0898 L 29.4434 -67.0898 L 44.8242 -26.709 L 13.8184 -26.709 Z"/></g><line id="Baseline-S" style="fill:none;stroke:#27AAE1;opacity:1;stroke-width:0.577;" x1="263" x2="3036" y1="696" y2="696"/><line id="Capline-S" style="fill:none;stroke:#27AAE1;opacity:1;stroke-width:0.577;" x1="263" x2="3036" y1="625.541" y2="625.541"/><g id="H-reference" style="fill:#27AAE1;stroke:none;" transform="matrix(1 0 0 1 339 1126)"><path d="M 54.9316 0 L 57.666 0 L 30.5664 -70.459 L 28.0762 -70.459 L 0.976562 0 L 3.66211 0 L 12.9395 -24.4629 L 45.7031 -24.4629 Z M 29.1992 -67.0898 L 29.4434 -67.0898 L 44.8242 -26.709 L 13.8184 -26.709 Z"/></g><line id="Baseline-M" style="fill:none;stroke:#27AAE1;opacity:1;stroke-width:0.577;" x1="263" x2="3036" y1="1126" y2="1126"/><line id="Capline-M" style="fill:none;stroke:#27AAE1;opacity:1;stroke-width:0.577;" x1="263" x2="3036" y1="1055.54" y2="1055.54"/><g id="H-reference" style="fill:#27AAE1;stroke:none;" transform="matrix(1 0 0 1 339 1556)"><path d="M 54.9316 0 L 57.666 0 L 30.5664 -70.459 L 28.0762 -70.459 L 0.976562 0 L 3.66211 0 L 12.9395 -24.4629 L 45.7031 -24.4629 Z M 29.1992 -67.0898 L 29.4434 -67.0898 L 44.8242 -26.709 L 13.8184 -26.709 Z"/></g><line id="Baseline-L" style="fill:none;stroke:#27AAE1;opacity:1;stroke-width:0.577;" x1="263" x2="3036" y1="1556" y2="1556"/><line id="Capline-L" style="fill:none;stroke:#27AAE1;opacity:1;stroke-width:0.577;" x1="263" x2="3036" y1="1485.54" y2="1485.54"/><rect height="119.336" id="left-margin" style="fill:darkred;stroke:none;opacity:0.4;" width="12.4512" x="1394.06" y="1030.79"/><rect height="119.336" id="right-margin" style="fill:darkgreen;stroke:none;opacity:0.4;" width="12.4512" x="1502.5112" y="1030.79"/><rect x="1406.5112" y="1045" width="96" height="96" fill="none" stroke="blue" stroke-dasharray="5"/><rect x="1394.06" y="1030.79" width="120.9024" height="119.336" fill="none" stroke="blue"/></g><g id="Symbols"><g id="Bold-L" transform="matrix(1 0 0 1 2266 1556)"><path d="M42.73125 20.401250000000015 Q36.3680025 20.401250000000015 31.890251250000002 15.970906250000017 Q27.4125 11.540562500000018 27.4125 5.243750000000013 V-59.094999999999985 L6.93375 -84.73374999999999 Q5.32125 -86.66874999999999 6.355346249999999 -88.84562499999998 Q7.3894425 -91.02249999999998 9.9975 -91.02249999999998 H132.225 Q138.58840874999999 -91.02249999999998 143.06599875 -86.54474875 Q147.54375000000002 -82.06715874999998 147.54375000000002 -75.70374999999999 V5.243750000000013 Q147.54375000000002 11.540562500000018 143.06599875 15.970906250000017 Q138.58840874999999 20.401250000000015 132.225 20.401250000000015 H42.73125 Z M42.73125 -75.70374999999999 V5.243750000000013 Q42.73125 5.243750000000013 42.73125 5.243750000000013 Q42.73125 5.243750000000013 42.73125 5.243750000000013 H132.225 Q132.225 5.243750000000013 132.225 5.243750000000013 Q132.225 5.243750000000013 132.225 5.243750000000013 V-75.70374999999999 Q132.225 -75.70374999999999 132.225 -75.70374999999999 Q132.225 -75.70374999999999 132.225 -75.70374999999999 H42.73125 Z M83.68875 -19.266249999999985 H112.06875000000001 Q114.12468750000001 -19.266249999999985 115.51546875 -20.66509374999999 Q116.90625 -22.064098749999985 116.90625 -24.131968749999984 Q116.90625 -26.19999999999999 115.51546875 -27.570624999999993 Q114.12468750000001 -28.941249999999982 112.06875000000001 -28.941249999999982 H69.3375 Q66.888435 -28.941249999999982 65.9360925 -26.60312499999999 Q64.98375 -24.264999999999986 66.91875 -22.49124999999998 L83.5275 -5.882499999999986 Q84.97875 -4.431249999999984 86.91375000000001 -4.431249999999984 Q88.84875 -4.431249999999984 90.3 -5.882499999999986 Q91.75125 -7.333749999999988 91.75125 -9.349374999999988 Q91.75125 -11.364999999999988 90.3 -12.816249999999982 L83.68875 -19.266249999999985 Z M93.36375 -51.19374999999998 H64.98375 Q62.9278125 -51.19374999999998 61.53703125 -49.79490625 Q60.14625 -48.39590124999998 60.14625 -46.328031249999995 Q60.14625 -44.25999999999999 61.53703125 -42.88937499999999 Q62.9278125 -41.51874999999998 64.98375 -41.51874999999998 H107.715 Q110.16406500000001 -41.51874999999998 111.11640750000001 -43.85687499999999 Q112.06875000000001 -46.19499999999999 110.295 -47.968749999999986 L93.46904625 -64.63345374999999 Q92.07375 -65.86749999999999 90.13875 -65.86749999999999 Q88.20375 -65.86749999999999 86.7525 -64.53718749999999 Q85.30125 -63.20687499999998 85.30125 -61.15093749999998 Q85.30125 -59.094999999999985 86.7525 -57.64374999999998 L93.36375 -51.19374999999998 Z"/></g><g id="Semibold-L" transform="matrix(1 0 0 1 1970.27 1556)"><path d="M41.399325000000005 18.648623750000016 Q36.120000000000005 18.648623750000016 32.3270775 14.882468750000015 Q28.534155 11.116475000000012 28.534155 5.8747212500000145 V-58.954712499999985 L8.546088750000001 -83.96265249999998 Q7.2140025 -85.61723875 8.07298125 -87.40856499999998 Q8.93179875 -89.19972999999999 11.119155000000001 -89.19972999999999 H132.225 Q137.504325 -89.19972999999999 141.2972475 -85.40696874999998 Q145.09017 -81.61404624999999 145.09017 -76.33472124999999 V5.8747212500000145 Q145.09017 11.116475000000012 141.2972475 14.882468750000015 Q137.504325 18.648623750000016 132.225 18.648623750000016 H41.399325000000005 Z M41.399325000000005 -76.33472124999999 V5.8747212500000145 Q41.399325000000005 5.8747212500000145 41.399325000000005 5.8747212500000145 Q41.399325000000005 5.8747212500000145 41.399325000000005 5.8747212500000145 H132.225 Q132.225 5.8747212500000145 132.225 5.8747212500000145 Q132.225 5.8747212500000145 132.225 5.8747212500000145 V-76.33472124999999 Q132.225 -76.33472124999999 132.225 -76.33472124999999 Q132.225 -76.33472124999999 132.225 -76.33472124999999 H41.399325000000005 Z M83.05777875 -18.705422499999983 H111.43777875 Q113.49371625 -18.705422499999983 114.8844975 -20.104266249999988 Q116.27527875 -21.503271249999983 116.27527875 -23.571141249999982 Q116.27527875 -25.639172499999987 114.8844975 -27.00979749999999 Q113.49371625 -28.38042249999998 111.43777875 -28.38042249999998 H69.82818375000001 Q67.06371375 -28.38042249999998 65.98866000000001 -25.761883749999996 Q64.91360625 -23.143344999999982 66.98889375 -21.15932499999999 L82.89652875 -5.321672499999984 Q84.34777875 -3.8704224999999823 86.28277875 -3.8704224999999823 Q88.21777875 -3.8704224999999823 89.66902875 -5.321672499999984 Q91.12027875 -6.772922499999986 91.12027875 -8.788547499999986 Q91.12027875 -10.804172499999986 89.66902875 -12.255422499999987 L83.05777875 -18.705422499999983 Z M92.73277875 -51.75457749999998 H64.35277875 Q62.29684125 -51.75457749999998 60.90606 -50.355733749999985 Q59.51527875 -48.95672874999998 59.51527875 -46.88885874999998 Q59.51527875 -44.82082749999998 60.90606 -43.450202499999975 Q62.29684125 -42.079577499999985 64.35277875 -42.079577499999985 H105.96237375 Q108.72684375 -42.079577499999985 109.80189750000001 -44.698116249999984 Q110.87695125 -47.31665499999998 108.89293124999999 -49.300674999999984 L92.86242374999999 -65.16993249999999 Q91.44277875 -66.42832749999998 89.50777875 -66.42832749999998 Q87.57277875 -66.42832749999998 86.12152875 -65.09801499999998 Q84.67027875 -63.767702499999984 84.67027875 -61.711764999999986 Q84.67027875 -59.65582749999997 86.12152875 -58.204577499999985 L92.73277875 -51.75457749999998 Z"/></g><g id="Medium-L" transform="matrix(1 0 0 1 1674.31 1556)"><path d="M40.400220000000004 17.333952500000017 Q35.9339175 17.333952500000017 32.654737499999996 14.066221250000016 Q29.375557500000003 10.798328750000014 29.375557500000003 6.347990000000017 V-58.84957749999998 L9.755625 -83.38408749999999 Q8.63380875 -84.82840374999999 9.3612075 -86.33044749999999 Q10.08860625 -87.8326525 11.960557500000002 -87.8326525 H132.225 Q136.6913025 -87.8326525 139.9704825 -84.55331124999998 Q143.2496625 -81.27413124999998 143.2496625 -76.80798999999998 V6.347990000000017 Q143.2496625 10.798328750000014 139.9704825 14.066221250000016 Q136.6913025 17.333952500000017 132.225 17.333952500000017 H40.400220000000004 Z M40.400220000000004 -76.80798999999998 V6.347990000000017 Q40.400220000000004 6.347990000000017 40.400220000000004 6.347990000000017 Q40.400220000000004 6.347990000000017 40.400220000000004 6.347990000000017 H132.225 Q132.225 6.347990000000017 132.225 6.347990000000017 Q132.225 6.347990000000017 132.225 6.347990000000017 V-76.80798999999998 Q132.225 -76.80798999999998 132.225 -76.80798999999998 Q132.225 -76.80798999999998 132.225 -76.80798999999998 H40.400220000000004 Z M82.58451000000001 -18.28472124999999 H110.96451 Q113.0204475 -18.28472124999999 114.41122875 -19.683726249999985 Q115.80201000000001 -21.08256999999999 115.80201000000001 -23.15060124999998 Q115.80201000000001 -25.218471249999993 114.41122875 -26.589096249999983 Q113.0204475 -27.959721249999987 110.96451 -27.959721249999987 H70.1963175 Q67.19529375 -27.959721249999987 66.02816625 -25.130912499999994 Q64.86103874999999 -22.301942499999996 67.04146125000001 -20.16021999999998 L82.42326 -4.900971249999991 Q83.87451000000001 -3.449721249999989 85.80951 -3.449721249999989 Q87.74451 -3.449721249999989 89.19576 -4.900971249999991 Q90.64701000000001 -6.352221249999985 90.64701000000001 -8.367846249999985 Q90.64701000000001 -10.383471249999985 89.19576 -11.834721249999987 L82.58451000000001 -18.28472124999999 Z M92.25951 -52.17527874999999 H63.879509999999996 Q61.8235725 -52.17527874999999 60.43279125 -50.77627374999997 Q59.04201 -49.37742999999999 59.04201 -47.30939874999997 Q59.04201 -45.241528749999986 60.43279125 -43.87090374999998 Q61.8235725 -42.50027874999998 63.879509999999996 -42.50027874999998 H104.6477025 Q107.64888750000001 -42.50027874999998 108.816015 -45.329087499999986 Q109.98298125000001 -48.158057499999984 107.84125875000001 -50.299779999999984 L92.40737625 -65.57241249999998 Q90.96951000000001 -66.84902874999999 89.03451000000001 -66.84902874999999 Q87.09951000000001 -66.84902874999999 85.64826000000001 -65.51871624999998 Q84.19701 -64.18840374999999 84.19701 -62.13246624999998 Q84.19701 -60.07652874999998 85.64826000000001 -58.62527874999998 L92.25951 -52.17527874999999 Z"/></g><g id="Regular-L" transform="matrix(1 0 0 1 1378.56 1556)"><path d="M39.667500000000004 16.370000000000015 Q35.7975 16.370000000000015 32.895 13.467500000000015 Q29.9925 10.565000000000015 29.9925 6.6950000000000145 V-58.772499999999994 L10.6425 -82.96 Q9.675 -84.24999999999999 10.305971249999999 -85.53999999999999 Q10.936942499999999 -86.82999999999998 12.5775 -86.82999999999998 H132.225 Q136.095 -86.82999999999998 138.9975 -83.92749999999998 Q141.9 -81.02499999999999 141.9 -77.15499999999999 V6.6950000000000145 Q141.9 10.565000000000015 138.9975 13.467500000000015 Q136.095 16.370000000000015 132.225 16.370000000000015 H39.667500000000004 Z M39.667500000000004 -77.15499999999999 V6.6950000000000145 Q39.667500000000004 6.6950000000000145 39.667500000000004 6.6950000000000145 Q39.667500000000004 6.6950000000000145 39.667500000000004 6.6950000000000145 H132.225 Q132.225 6.6950000000000145 132.225 6.6950000000000145 Q132.225 6.6950000000000145 132.225 6.6950000000000145 V-77.15499999999999 Q132.225 -77.15499999999999 132.225 -77.15499999999999 Q132.225 -77.15499999999999 132.225 -77.15499999999999 H39.667500000000004 Z M82.2375 -17.976249999999986 H110.6175 Q112.6734375 -17.976249999999986 114.06421875000001 -19.37509374999999 Q115.455 -20.774098749999986 115.455 -22.841968749999992 Q115.455 -24.909999999999982 114.06421875000001 -26.280624999999986 Q112.6734375 -27.65124999999999 110.6175 -27.65124999999999 H70.46625 Q67.29156 -27.65124999999999 66.05703 -24.66812499999999 Q64.8225 -21.684999999999988 67.08 -19.427499999999988 L82.07625 -4.592499999999987 Q83.5275 -3.141249999999985 85.4625 -3.141249999999985 Q87.39750000000001 -3.141249999999985 88.84875 -4.592499999999987 Q90.3 -6.043749999999989 90.3 -8.059374999999989 Q90.3 -10.074999999999989 88.84875 -11.526249999999983 L82.2375 -17.976249999999986 Z M91.91250000000001 -52.483749999999986 H63.5325 Q61.4765625 -52.483749999999986 60.085781250000004 -51.08490624999999 Q58.695 -49.685901249999986 58.695 -47.61803124999999 Q58.695 -45.54999999999998 60.085781250000004 -44.17937499999999 Q61.4765625 -42.80874999999999 63.5325 -42.80874999999999 H103.68375 Q106.85844 -42.80874999999999 108.09297000000001 -45.79187499999999 Q109.3275 -48.77499999999999 107.07000000000001 -51.032499999999985 L92.07375 -65.86749999999999 Q90.6225 -67.15749999999998 88.6875 -67.15749999999998 Q86.7525 -67.15749999999998 85.30125 -65.8271875 Q83.85000000000001 -64.49687499999999 83.85000000000001 -62.44093749999999 Q83.85000000000001 -60.38499999999999 85.30125 -58.93374999999999 L91.91250000000001 -52.483749999999986 Z"/></g><g id="Light-L" transform="matrix(1 0 0 1 1082.77 1556)"><path d="M41.28016125 13.144838750000016 Q37.486110000000004 13.144838750000016 34.7316375 10.390366250000014 Q31.97732625 7.635893750000015 31.97732625 3.84184250000002 V-59.20674624999998 L15.35632125 -79.85883999999999 Q14.4509025 -81.08675874999999 15.04269 -82.34579874999999 Q15.63463875 -83.60483874999998 17.22924 -83.60483874999998 H127.51117875000001 Q131.30523000000002 -83.60483874999998 134.05970250000001 -80.85036625 Q136.81401375 -78.09589374999999 136.81401375 -74.30184249999999 V3.84184250000002 Q136.81401375 7.635893750000015 134.05970250000001 10.390366250000014 Q131.30523000000002 13.144838750000016 127.51117875000001 13.144838750000016 H41.28016125 Z M39.295335 -76.28666874999999 V3.84184250000002 Q39.295335 4.586172500000018 39.91566375 5.2065012500000165 Q40.53583125 5.826668750000017 41.28016125 5.826668750000017 H127.51117875000001 Q128.25550875000002 5.826668750000017 128.87567625 5.2065012500000165 Q129.496005 4.586172500000018 129.496005 3.84184250000002 V-74.30184249999999 Q129.496005 -75.0461725 128.87567625 -75.66650124999998 Q128.25550875000002 -76.28666874999999 127.51117875000001 -76.28666874999999 H39.295335 Z M77.213595 -20.022996249999984 H107.39233875000001 Q108.95049750000001 -20.022996249999984 110.00088000000001 -21.081924999999984 Q111.0512625 -22.14085374999999 111.0512625 -23.711428749999982 Q111.0512625 -25.282164999999978 110.00088000000001 -26.311584999999994 Q108.95049750000001 -27.341166249999986 107.39233875000001 -27.341166249999986 H68.41950375 Q65.98527375 -27.341166249999986 65.0627625 -25.009329999999977 Q64.14025125 -22.67733249999999 65.83950375 -20.978079999999984 L80.33958750000001 -6.639246249999985 Q81.4186725 -5.560161249999979 82.88846625000001 -5.529201249999993 Q84.35826000000002 -5.49807999999998 85.49942625000001 -6.608286249999985 Q86.64059250000001 -7.718331249999984 86.64059250000001 -9.237789999999983 Q86.64059250000001 -10.757248749999988 85.49942625000001 -11.898414999999986 L77.213595 -20.022996249999984 Z M93.21507749999999 -50.43700374999999 H63.036333750000004 Q61.478175 -50.43700374999999 60.427631250000005 -49.37807499999998 Q59.37724875 -48.31914624999999 59.37724875 -46.74857124999998 Q59.37724875 -45.17783499999999 60.427631250000005 -44.148414999999986 Q61.478175 -43.11883374999999 63.036333750000004 -43.11883374999999 H102.00916875 Q104.44323750000001 -43.11883374999999 105.36574875000001 -45.45066999999999 Q106.28826000000001 -47.78266749999999 104.58900750000001 -49.48191999999999 L90.08892375 -63.820753749999994 Q89.00983875 -64.80066999999998 87.540045 -64.83162999999999 Q86.07025125 -64.86259 84.929085 -63.780441249999996 Q83.78791875 -62.822293749999986 83.78791875 -61.26252249999999 Q83.78791875 -59.70275124999999 84.929085 -58.561584999999994 L93.21507749999999 -50.43700374999999 Z"/></g><g id="Thin-L" transform="matrix(1 0 0 1 787.282 1556)"><path d="M42.8925 9.920000000000016 Q39.174397500000005 9.920000000000016 36.56811375 7.313716250000013 Q33.96166875 4.707271250000012 33.96166875 0.9893300000000167 V-59.64083124999999 L20.06933625 -76.75816374999998 Q19.2258375 -77.92400124999999 19.778763750000003 -79.15208124999998 Q20.33152875 -80.37999999999998 21.880335000000002 -80.37999999999998 H122.79816375 Q126.51610500000001 -80.37999999999998 129.12255 -77.77371624999999 Q131.72883375 -75.16727124999998 131.72883375 -71.44932999999999 V0.9893300000000167 Q131.72883375 4.707271250000012 129.12255 7.313716250000013 Q126.51610500000001 9.920000000000016 122.79816375 9.920000000000016 H42.8925 Z M38.92333125 -75.41849874999998 V0.9893300000000167 Q38.92333125 2.477667500000017 40.16366625 3.7181637500000093 Q41.40400125 4.958498750000011 42.8925 4.958498750000011 H122.79816375 Q124.2866625 4.958498750000011 125.52699750000001 3.7181637500000093 Q126.76733250000001 2.477667500000017 126.76733250000001 0.9893300000000167 V-71.44932999999999 Q126.76733250000001 -72.93766749999999 125.52699750000001 -74.17816374999998 Q124.2866625 -75.41849874999998 122.79816375 -75.41849874999998 H38.92333125 Z M72.19049625 -22.069419999999994 H104.1675 Q105.22804125 -22.069419999999994 105.93818625 -22.788433749999996 Q106.64833125 -23.50728624999998 106.64833125 -24.580727499999995 Q106.64833125 -25.654168749999982 105.93818625 -26.342706249999978 Q105.22804125 -27.031082499999982 104.1675 -27.031082499999982 H66.37308 Q64.67914875 -27.031082499999982 64.06865625 -25.35037374999999 Q63.45816375 -23.66966499999998 64.59916875 -22.528498749999983 L78.6032475 -8.685669999999988 Q79.3101675 -7.978749999999984 80.31491625 -7.916668749999985 Q81.319665 -7.854748749999985 82.1507475 -8.623749999999987 Q82.98183 -9.39275124999999 82.98183 -10.416043749999986 Q82.98183 -11.43933624999999 82.1507475 -12.27041874999999 L72.19049625 -22.069419999999994 Z M94.51733250000001 -48.390579999999986 H62.5401675 Q61.47962625 -48.390579999999986 60.769481250000005 -47.67156625 Q60.05933625 -46.95271374999997 60.05933625 -45.879272499999985 Q60.05933625 -44.80583124999998 60.769481250000005 -44.11729374999999 Q61.47962625 -43.42891749999998 62.5401675 -43.42891749999998 H100.33474875 Q102.02868 -43.42891749999998 102.63917250000002 -45.10962624999999 Q103.24966500000001 -46.790334999999985 102.10849875 -47.93150124999998 L88.10458125 -61.77432999999998 Q87.39750000000001 -62.444001249999985 86.39275125 -62.50608249999999 Q85.38816375 -62.56816374999998 84.55708125 -61.73401749999998 Q83.72599875 -61.14787374999999 83.72599875 -60.08426874999998 Q83.72599875 -59.02066374999998 84.55708125 -58.18958124999999 L94.51733250000001 -48.390579999999986 Z"/></g><g id="Ultralight-L" transform="matrix(1 0 0 1 491.205 1556)"><path d="M43.86 7.985000000000014 Q40.18753125 7.985000000000014 37.67009625 5.467403750000017 Q35.1525 2.949968750000018 35.1525 -0.7224999999999824 V-59.90124999999999 L22.8975 -74.8975 Q22.091250000000002 -76.02624999999999 22.62063375 -77.23562499999998 Q23.14985625 -78.445 24.67125 -78.445 H119.97 Q123.64246875 -78.445 126.160065 -75.92756499999999 Q128.6775 -73.40996874999999 128.6775 -69.73749999999998 V-0.7224999999999824 Q128.6775 2.949968750000018 126.160065 5.467403750000017 Q123.64246875 7.985000000000014 119.97 7.985000000000014 H43.86 Z M38.7 -74.8975 V-0.7224999999999824 Q38.7 1.2125000000000128 40.3125 2.825000000000017 Q41.925000000000004 4.437500000000014 43.86 4.437500000000014 H119.97 Q121.905 4.437500000000014 123.5175 2.825000000000017 Q125.13000000000001 1.2125000000000128 125.13000000000001 -0.7224999999999824 V-69.73749999999998 Q125.13000000000001 -71.67249999999999 123.5175 -73.28499999999998 Q121.905 -74.8975 119.97 -74.8975 H38.7 Z M69.17625 -23.297499999999985 H102.2325 Q102.99440625000001 -23.297499999999985 103.5002475 -23.812371249999984 Q104.00625000000001 -24.327242499999983 104.00625000000001 -25.10237124999999 Q104.00625000000001 -25.877499999999984 103.5002475 -26.361249999999984 Q102.99440625000001 -26.844999999999985 102.2325 -26.844999999999985 H65.145 Q63.8953125 -26.844999999999985 63.47203125 -25.554999999999993 Q63.04875 -24.264999999999986 63.855000000000004 -23.45874999999998 L77.56125 -9.913749999999986 Q78.045 -9.429999999999986 78.770625 -9.349374999999988 Q79.49625 -9.268749999999983 80.14125 -9.833124999999988 Q80.78625 -10.397499999999987 80.78625 -11.123124999999987 Q80.78625 -11.848749999999988 80.14125 -12.493749999999984 L69.17625 -23.297499999999985 Z M95.29875 -47.16249999999998 H62.2425 Q61.48059375 -47.16249999999998 60.9747525 -46.647628749999996 Q60.46875 -46.1327575 60.46875 -45.35762874999999 Q60.46875 -44.58249999999998 60.9747525 -44.09874999999998 Q61.48059375 -43.61499999999998 62.2425 -43.61499999999998 H99.33 Q100.5796875 -43.61499999999998 101.00296875000001 -44.90499999999999 Q101.42625 -46.19499999999999 100.62 -47.001249999999985 L86.91375000000001 -60.546249999999986 Q86.43 -61.02999999999999 85.704375 -61.110624999999985 Q84.97875 -61.19124999999998 84.33375000000001 -60.50593749999999 Q83.68875 -60.14312499999998 83.68875 -59.37718749999999 Q83.68875 -58.611249999999984 84.33375000000001 -57.96624999999999 L95.29875 -47.16249999999998 Z"/></g><g id="Bold-M" transform="matrix(1 0 0 1 2281.8 1126)"><path d="M38.125 9.02000000000001 Q31.5 9.02000000000001 26.9375 4.45750000000001 Q22.375 -0.10499999999998977 22.375 -6.72999999999999 V-51.85499999999999 L4.625 -72.97999999999999 Q3.0 -74.97999999999999 4.0625 -77.22999999999999 Q5.125 -79.47999999999999 7.625 -79.47999999999999 H100.0 Q106.625 -79.47999999999999 111.1875 -74.91749999999999 Q115.75 -70.35499999999999 115.75 -63.72999999999999 V-6.72999999999999 Q115.75 -0.10499999999998977 111.1875 4.45750000000001 Q106.625 9.02000000000001 100.0 9.02000000000001 H38.125 Z M38.125 -63.72999999999999 V-6.72999999999999 Q38.125 -6.72999999999999 38.125 -6.72999999999999 Q38.125 -6.72999999999999 38.125 -6.72999999999999 H100.0 Q100.0 -6.72999999999999 100.0 -6.72999999999999 Q100.0 -6.72999999999999 100.0 -6.72999999999999 V-63.72999999999999 Q100.0 -63.72999999999999 100.0 -63.72999999999999 Q100.0 -63.72999999999999 100.0 -63.72999999999999 H38.125 Z M70.5 -21.60499999999999 H86.5 Q88.625 -21.60499999999999 90.0625 -23.04249999999999 Q91.5 -24.47999999999999 91.5 -26.60499999999999 Q91.5 -28.72999999999999 90.0625 -30.16749999999999 Q88.625 -31.60499999999999 86.5 -31.60499999999999 H56.0 Q53.3985 -31.60499999999999 52.38675 -29.16749999999999 Q51.375 -26.72999999999999 53.25 -24.85499999999999 L65.5 -12.60499999999999 Q66.875 -11.22999999999999 69.0 -11.22999999999999 Q71.125 -11.22999999999999 72.5 -12.60499999999999 Q73.875 -13.97999999999999 73.875 -16.10499999999999 Q73.875 -18.22999999999999 72.5 -19.60499999999999 L70.5 -21.60499999999999 Z M67.5 -48.85499999999999 H51.5 Q49.375 -48.85499999999999 47.9375 -47.41749999999999 Q46.5 -45.97999999999999 46.5 -43.85499999999999 Q46.5 -41.72999999999999 47.9375 -40.29249999999999 Q49.375 -38.85499999999999 51.5 -38.85499999999999 H82.0 Q84.6015 -38.85499999999999 85.61325 -41.29249999999999 Q86.625 -43.72999999999999 84.75 -45.60499999999999 L72.5 -57.85499999999999 Q71.125 -59.22999999999999 69.0 -59.22999999999999 Q66.875 -59.22999999999999 65.5 -57.85499999999999 Q64.125 -56.47999999999999 64.125 -54.35499999999999 Q64.125 -52.22999999999999 65.5 -50.85499999999999 L67.5 -48.85499999999999 Z"/></g><g id="Semibold-M" transform="matrix(1 0 0 1 1985.97 1126)"><path d="M36.766375 7.172250000000009 Q31.22825 7.172250000000009 27.37225 3.316250000000011 Q23.51625 -0.5397499999999908 23.51625 -6.077874999999988 V-51.69199999999999 L6.309625 -72.164875 Q4.956375 -73.83874999999999 5.82875 -75.73549999999999 Q6.701 -77.63224999999998 8.820625 -77.63224999999998 H100.0 Q105.538125 -77.63224999999998 109.394125 -73.77624999999999 Q113.250125 -69.92025 113.250125 -64.38212499999999 V-6.077874999999988 Q113.250125 -0.5397499999999908 109.394125 3.316250000000011 Q105.538125 7.172250000000009 100.0 7.172250000000009 H36.766375 Z M36.766375 -64.38212499999999 V-6.077874999999988 Q36.766375 -6.077874999999988 36.766375 -6.077874999999988 Q36.766375 -6.077874999999988 36.766375 -6.077874999999988 H100.0 Q100.0 -6.077874999999988 100.0 -6.077874999999988 Q100.0 -6.077874999999988 100.0 -6.077874999999988 V-64.38212499999999 Q100.0 -64.38212499999999 100.0 -64.38212499999999 Q100.0 -64.38212499999999 100.0 -64.38212499999999 H36.766375 Z M69.847875 -21.007249999999992 H85.847875 Q87.972875 -21.007249999999992 89.410375 -22.444749999999992 Q90.847875 -23.882249999999992 90.847875 -26.007249999999992 Q90.847875 -28.132249999999992 89.410375 -29.569749999999992 Q87.972875 -31.007249999999992 85.847875 -31.007249999999992 H56.489125 Q53.55125 -31.007249999999992 52.40875 -28.297999999999988 Q51.26625 -25.58874999999999 53.35875 -23.496374999999986 L64.847875 -12.007249999999992 Q66.222875 -10.632249999999992 68.347875 -10.632249999999992 Q70.472875 -10.632249999999992 71.847875 -12.007249999999992 Q73.222875 -13.382249999999992 73.222875 -15.507249999999992 Q73.222875 -17.632249999999992 71.847875 -19.007249999999992 L69.847875 -21.007249999999992 Z M66.847875 -49.452749999999995 H50.847875 Q48.722875 -49.452749999999995 47.285375 -48.015249999999995 Q45.847875 -46.577749999999995 45.847875 -44.452749999999995 Q45.847875 -42.327749999999995 47.285375 -40.890249999999995 Q48.722875 -39.452749999999995 50.847875 -39.452749999999995 H80.206625 Q83.1445 -39.452749999999995 84.287 -42.16199999999999 Q85.429375 -44.87124999999999 83.337 -46.96362499999999 L71.847875 -58.452749999999995 Q70.472875 -59.827749999999995 68.347875 -59.827749999999995 Q66.222875 -59.827749999999995 64.847875 -58.452749999999995 Q63.472875 -57.077749999999995 63.472875 -54.952749999999995 Q63.472875 -52.827749999999995 64.847875 -51.452749999999995 L66.847875 -49.452749999999995 Z"/></g><g id="Medium-M" transform="matrix(1 0 0 1 1689.91 1126)"><path d="M35.74725 5.78637500000001 Q31.0245 5.78637500000001 27.698375 2.460250000000009 Q24.37225 -0.8658749999999884 24.37225 -5.58874999999999 V-51.56962499999999 L7.573375 -71.55337499999999 Q6.423875 -72.98275 7.1535 -74.61449999999999 Q7.883125 -76.24637499999999 9.717375 -76.24637499999999 H100.0 Q104.722875 -76.24637499999999 108.048875 -72.92025 Q111.375 -69.59412499999999 111.375 -64.87124999999999 V-5.58874999999999 Q111.375 -0.8658749999999884 108.048875 2.460250000000009 Q104.722875 5.78637500000001 100.0 5.78637500000001 H35.74725 Z M35.74725 -64.87124999999999 V-5.58874999999999 Q35.74725 -5.58874999999999 35.74725 -5.58874999999999 Q35.74725 -5.58874999999999 35.74725 -5.58874999999999 H100.0 Q100.0 -5.58874999999999 100.0 -5.58874999999999 Q100.0 -5.58874999999999 100.0 -5.58874999999999 V-64.87124999999999 Q100.0 -64.87124999999999 100.0 -64.87124999999999 Q100.0 -64.87124999999999 100.0 -64.87124999999999 H35.74725 Z M69.35875 -20.55874999999999 H85.35875 Q87.48375 -20.55874999999999 88.92125 -21.99624999999999 Q90.35875 -23.43374999999999 90.35875 -25.55874999999999 Q90.35875 -27.68374999999999 88.92125 -29.12124999999999 Q87.48375 -30.55874999999999 85.35875 -30.55874999999999 H56.856 Q53.665875 -30.55874999999999 52.425375 -27.645749999999992 Q51.18475 -24.73274999999999 53.44025 -22.47724999999999 L64.35875 -11.55874999999999 Q65.73375 -10.18374999999999 67.85875 -10.18374999999999 Q69.98375 -10.18374999999999 71.35875 -11.55874999999999 Q72.73375 -12.93374999999999 72.73375 -15.05874999999999 Q72.73375 -17.18374999999999 71.35875 -18.55874999999999 L69.35875 -20.55874999999999 Z M66.35875 -49.90124999999999 H50.35875 Q48.23375 -49.90124999999999 46.79625 -48.46374999999999 Q45.35875 -47.02624999999999 45.35875 -44.90124999999999 Q45.35875 -42.77624999999999 46.79625 -41.33874999999999 Q48.23375 -39.90124999999999 50.35875 -39.90124999999999 H78.861375 Q82.0515 -39.90124999999999 83.292 -42.81424999999999 Q84.532625 -45.727249999999984 82.27725 -47.982749999999996 L71.35875 -58.90124999999999 Q69.98375 -60.27624999999999 67.85875 -60.27624999999999 Q65.73375 -60.27624999999999 64.35875 -58.90124999999999 Q62.98375 -57.52624999999999 62.98375 -55.40124999999999 Q62.98375 -53.27624999999999 64.35875 -51.90124999999999 L66.35875 -49.90124999999999 Z"/></g><g id="Regular-M" transform="matrix(1 0 0 1 1394.06 1126)"><path d="M35.0 4.77000000000001 Q30.875 4.77000000000001 27.9375 1.8325000000000102 Q25.0 -1.1049999999999898 25.0 -5.22999999999999 V-51.47999999999999 L8.5 -71.10499999999999 Q7.5 -72.35499999999999 8.125 -73.79249999999999 Q8.75 -75.22999999999999 10.375 -75.22999999999999 H100.0 Q104.125 -75.22999999999999 107.0625 -72.29249999999999 Q110.0 -69.35499999999999 110.0 -65.22999999999999 V-5.22999999999999 Q110.0 -1.1049999999999898 107.0625 1.8325000000000102 Q104.125 4.77000000000001 100.0 4.77000000000001 H35.0 Z M35.0 -65.22999999999999 V-5.22999999999999 Q35.0 -5.22999999999999 35.0 -5.22999999999999 Q35.0 -5.22999999999999 35.0 -5.22999999999999 H100.0 Q100.0 -5.22999999999999 100.0 -5.22999999999999 Q100.0 -5.22999999999999 100.0 -5.22999999999999 V-65.22999999999999 Q100.0 -65.22999999999999 100.0 -65.22999999999999 Q100.0 -65.22999999999999 100.0 -65.22999999999999 H35.0 Z M69.0 -20.22999999999999 H85.0 Q87.125 -20.22999999999999 88.5625 -21.66749999999999 Q90.0 -23.10499999999999 90.0 -25.22999999999999 Q90.0 -27.35499999999999 88.5625 -28.79249999999999 Q87.125 -30.22999999999999 85.0 -30.22999999999999 H57.125 Q53.75 -30.22999999999999 52.4375 -27.16749999999999 Q51.125 -24.10499999999999 53.5 -21.72999999999999 L64.0 -11.22999999999999 Q65.375 -9.85499999999999 67.5 -9.85499999999999 Q69.625 -9.85499999999999 71.0 -11.22999999999999 Q72.375 -12.60499999999999 72.375 -14.72999999999999 Q72.375 -16.85499999999999 71.0 -18.22999999999999 L69.0 -20.22999999999999 Z M66.0 -50.22999999999999 H50.0 Q47.875 -50.22999999999999 46.4375 -48.79249999999999 Q45.0 -47.35499999999999 45.0 -45.22999999999999 Q45.0 -43.10499999999999 46.4375 -41.66749999999999 Q47.875 -40.22999999999999 50.0 -40.22999999999999 H77.875 Q81.25 -40.22999999999999 82.5625 -43.29249999999999 Q83.875 -46.35499999999999 81.5 -48.72999999999999 L71.0 -59.22999999999999 Q69.625 -60.60499999999999 67.5 -60.60499999999999 Q65.375 -60.60499999999999 64.0 -59.22999999999999 Q62.625 -57.85499999999999 62.625 -55.72999999999999 Q62.625 -53.60499999999999 64.0 -52.22999999999999 L66.0 -50.22999999999999 Z"/></g><g id="Light-M" transform="matrix(1 0 0 1 1098.18 1126)"><path d="M35.096125 2.2698750000000096 Q31.30775 2.2698750000000096 28.68275 -0.35512499999999037 Q26.05775 -2.9801249999999904 26.05775 -6.7686249999999895 V-52.34549999999999 L12.106 -68.98949999999999 Q11.20225 -70.14325 11.755125 -71.4365 Q12.308 -72.72987499999999 13.78875 -72.72987499999999 H97.019 Q100.8075 -72.72987499999999 103.432375 -70.10487499999999 Q106.057375 -67.47987499999999 106.057375 -63.691374999999994 V-6.7686249999999895 Q106.057375 -2.9801249999999904 103.432375 -0.35512499999999037 Q100.8075 2.2698750000000096 97.019 2.2698750000000096 H35.096125 Z M33.557625 -65.22999999999999 V-6.7686249999999895 Q33.557625 -6.191624999999991 34.038375 -5.71074999999999 Q34.51925 -5.22999999999999 35.096125 -5.22999999999999 H97.019 Q97.596 -5.22999999999999 98.07675 -5.71074999999999 Q98.557625 -6.191624999999991 98.557625 -6.7686249999999895 V-63.691374999999994 Q98.557625 -64.26837499999999 98.07675 -64.74924999999999 Q97.596 -65.22999999999999 97.019 -65.22999999999999 H33.557625 Z M63.711125 -22.249374999999986 H82.692125 Q84.28825 -22.249374999999986 85.365125 -23.326249999999987 Q86.442 -24.40312499999999 86.442 -25.99924999999999 Q86.442 -27.59537499999999 85.365125 -28.67224999999999 Q84.28825 -29.74924999999999 82.692125 -29.74924999999999 H54.86525 Q52.307625 -29.74924999999999 51.331625 -27.40787499999999 Q50.35575 -25.066624999999988 52.15375 -23.268624999999993 L62.557625 -12.864749999999987 Q63.596 -11.826249999999987 65.168125 -11.802249999999987 Q66.740125 -11.778249999999993 67.82675 -12.864749999999987 Q68.91325 -13.951249999999987 68.91325 -15.49924999999999 Q68.91325 -17.047374999999988 67.82675 -18.13387499999999 L63.711125 -22.249374999999986 Z M68.404 -48.21062499999999 H49.423 Q47.826875 -48.21062499999999 46.75 -47.13374999999999 Q45.673125 -46.05687499999999 45.673125 -44.46074999999999 Q45.673125 -42.86462499999999 46.75 -41.78774999999999 Q47.826875 -40.71074999999999 49.423 -40.71074999999999 H77.25 Q79.807625 -40.71074999999999 80.7835 -43.05212499999999 Q81.7595 -45.39337499999999 79.961375 -47.191374999999994 L69.557625 -57.59524999999999 Q68.519125 -58.63374999999999 66.947125 -58.65774999999999 Q65.375 -58.681749999999994 64.2885 -57.59524999999999 Q63.202 -56.50874999999999 63.202 -54.96074999999999 Q63.202 -53.41262499999999 64.2885 -52.32612499999999 L68.404 -48.21062499999999 Z"/></g><g id="Thin-M" transform="matrix(1 0 0 1 802.565 1126)"><path d="M35.19225 -0.22999999999998977 Q31.740375 -0.22999999999998977 29.427875 -2.5424999999999898 Q27.115375 -4.85499999999999 27.115375 -8.306874999999991 V-53.21074999999999 L15.7115 -66.87424999999999 Q14.90375 -67.93199999999999 15.384625 -69.08099999999999 Q15.865375 -70.22999999999999 17.201875 -70.22999999999999 H94.0385 Q97.490375 -70.22999999999999 99.802875 -67.91749999999999 Q102.115375 -65.60499999999999 102.115375 -62.15312499999999 V-8.306874999999991 Q102.115375 -4.85499999999999 99.802875 -2.5424999999999898 Q97.490375 -0.22999999999998977 94.0385 -0.22999999999998977 H35.19225 Z M32.115375 -65.22999999999999 V-8.306874999999991 Q32.115375 -7.153124999999989 33.076875 -6.191499999999991 Q34.0385 -5.22999999999999 35.19225 -5.22999999999999 H94.0385 Q95.192375 -5.22999999999999 96.153875 -6.191499999999991 Q97.115375 -7.153124999999989 97.115375 -8.306874999999991 V-62.15312499999999 Q97.115375 -63.30687499999999 96.153875 -64.26849999999999 Q95.192375 -65.22999999999999 94.0385 -65.22999999999999 H32.115375 Z M58.423125 -24.268374999999992 H80.384625 Q81.452 -24.268374999999992 82.16825 -24.98474999999999 Q82.884625 -25.70112499999999 82.884625 -26.76849999999999 Q82.884625 -27.83574999999999 82.16825 -28.55212499999999 Q81.452 -29.26849999999999 80.384625 -29.26849999999999 H52.60575 Q50.865375 -29.26849999999999 50.226 -27.64824999999999 Q49.5865 -26.02812499999999 50.80775 -24.80687499999999 L61.115375 -14.49924999999999 Q61.817375 -13.797249999999991 62.836625 -13.74924999999999 Q63.85575 -13.70112499999999 64.653875 -14.49924999999999 Q65.452 -15.297249999999991 65.452 -16.26849999999999 Q65.452 -17.23962499999999 64.653875 -18.03774999999999 L58.423125 -24.268374999999992 Z M70.807625 -46.19162499999999 H48.846125 Q47.778875 -46.19162499999999 47.0625 -45.47524999999999 Q46.346125 -44.75887499999999 46.346125 -43.69149999999999 Q46.346125 -42.62424999999999 47.0625 -41.90787499999999 Q47.778875 -41.19149999999999 48.846125 -41.19149999999999 H76.625 Q78.365375 -41.19149999999999 79.004875 -42.81174999999999 Q79.64425 -44.43187499999999 78.423125 -45.65312499999999 L68.115375 -55.96074999999999 Q67.4135 -56.66274999999999 66.39425 -56.71074999999999 Q65.375 -56.75887499999999 64.576875 -55.96074999999999 Q63.778875 -55.16274999999999 63.778875 -54.19149999999999 Q63.778875 -53.22037499999999 64.576875 -52.42224999999999 L70.807625 -46.19162499999999 Z"/></g><g id="Ultralight-M" transform="matrix(1 0 0 1 506.415 1126)"><path d="M35.25 -1.7299999999999898 Q32.0 -1.7299999999999898 29.875 -3.8549999999999898 Q27.75 -5.97999999999999 27.75 -9.22999999999999 V-53.72999999999999 L17.875 -65.60499999999999 Q17.125 -66.60499999999999 17.5625 -67.66749999999999 Q18.0 -68.72999999999999 19.25 -68.72999999999999 H92.25 Q95.5 -68.72999999999999 97.625 -66.60499999999999 Q99.75 -64.47999999999999 99.75 -61.22999999999999 V-9.22999999999999 Q99.75 -5.97999999999999 97.625 -3.8549999999999898 Q95.5 -1.7299999999999898 92.25 -1.7299999999999898 H35.25 Z M31.25 -65.22999999999999 V-9.22999999999999 Q31.25 -7.72999999999999 32.5 -6.47999999999999 Q33.75 -5.22999999999999 35.25 -5.22999999999999 H92.25 Q93.75 -5.22999999999999 95.0 -6.47999999999999 Q96.25 -7.72999999999999 96.25 -9.22999999999999 V-61.22999999999999 Q96.25 -62.72999999999999 95.0 -63.97999999999999 Q93.75 -65.22999999999999 92.25 -65.22999999999999 H31.25 Z M55.25 -25.47999999999999 H79.0 Q79.75 -25.47999999999999 80.25 -25.97999999999999 Q80.75 -26.47999999999999 80.75 -27.22999999999999 Q80.75 -27.97999999999999 80.25 -28.47999999999999 Q79.75 -28.97999999999999 79.0 -28.97999999999999 H51.25 Q50.0 -28.97999999999999 49.5625 -27.79249999999999 Q49.125 -26.60499999999999 50.0 -25.72999999999999 L60.25 -15.47999999999999 Q60.75 -14.97999999999999 61.4375 -14.91749999999999 Q62.125 -14.85499999999999 62.75 -15.47999999999999 Q63.375 -16.10499999999999 63.375 -16.72999999999999 Q63.375 -17.35499999999999 62.75 -17.97999999999999 L55.25 -25.47999999999999 Z M72.25 -44.97999999999999 H48.5 Q47.75 -44.97999999999999 47.25 -44.47999999999999 Q46.75 -43.97999999999999 46.75 -43.22999999999999 Q46.75 -42.47999999999999 47.25 -41.97999999999999 Q47.75 -41.47999999999999 48.5 -41.47999999999999 H76.25 Q77.5 -41.47999999999999 77.9375 -42.66749999999999 Q78.375 -43.85499999999999 77.5 -44.72999999999999 L67.25 -54.97999999999999 Q66.75 -55.47999999999999 66.0625 -55.54249999999999 Q65.375 -55.60499999999999 64.75 -54.97999999999999 Q64.125 -54.35499999999999 64.125 -53.72999999999999 Q64.125 -53.10499999999999 64.75 -52.47999999999999 L72.25 -44.97999999999999 Z"/></g><g id="Bold-S" transform="matrix(1 0 0 1 2294.23 696)"><path d="M28.545428250000004 -3.472749999999987 Q23.571375 -3.472749999999987 20.218125 -6.840793749999989 Q16.864875 -10.208837499999987 16.864875 -15.110499999999988 V-49.72787499999999 L4.734 -62.05599999999998 Q3.4518750000000002 -63.43674999999999 4.1915625 -65.21199999999999 Q4.93125 -66.98724999999999 6.789443625 -66.98724999999999 H73.371181125 Q78.30825 -66.98724999999999 81.6615 -63.61802274999998 Q85.01475 -60.2487955 85.01475 -55.34555499999999 V-15.082589124999988 Q85.01475 -10.179249999999989 81.64670625000001 -6.825999999999986 Q78.27866250000001 -3.472749999999987 73.37700000000001 -3.472749999999987 H28.545428250000004 Z M28.502625000000002 -55.34949999999999 V-15.110499999999988 Q28.502625000000002 -15.110499999999988 28.502625000000002 -15.110499999999988 Q28.502625000000002 -15.110499999999988 28.502625000000002 -15.110499999999988 H73.37700000000001 Q73.37700000000001 -15.110499999999988 73.37700000000001 -15.110499999999988 Q73.37700000000001 -15.110499999999988 73.37700000000001 -15.110499999999988 V-55.34949999999999 Q73.37700000000001 -55.34949999999999 73.37700000000001 -55.34949999999999 Q73.37700000000001 -55.34949999999999 73.37700000000001 -55.34949999999999 H28.502625000000002 Z M51.48225 -26.84687499999999 H63.909000000000006 Q65.4179625 -26.84687499999999 66.43873125 -27.86162762499999 Q67.4595 -28.87647887499999 67.4595 -30.376565124999985 Q67.4595 -31.876749999999987 66.43873125 -32.91231249999999 Q65.4179625 -33.94787499999999 63.909000000000006 -33.94787499999999 H40.83075 Q39.0555 -33.94787499999999 38.365125 -32.27124999999999 Q37.67475 -30.594624999999986 38.956875000000004 -29.312499999999986 L48.5349405 -19.73443449999999 Q49.608375 -18.660999999999987 51.0384375 -18.660999999999987 Q52.4685 -18.660999999999987 53.553375 -19.745874999999987 Q54.63825 -20.830749999999988 54.63825 -22.211499999999987 Q54.63825 -23.592249999999986 53.553375 -24.67712499999999 L51.48225 -26.84687499999999 Z M50.298750000000005 -43.61312499999999 H37.872 Q36.3630375 -43.61312499999999 35.34226875 -42.59837237499999 Q34.3215 -41.58352112499999 34.3215 -40.08343487499999 Q34.3215 -38.583249999999985 35.34226875 -37.54768749999999 Q36.3630375 -36.51212499999999 37.872 -36.51212499999999 H60.950250000000004 Q62.725500000000004 -36.51212499999999 63.415875 -38.18874999999999 Q64.10625 -39.865374999999986 62.824125 -41.14749999999999 L53.158875 -50.81274999999999 Q52.074000000000005 -51.89762499999999 50.69325 -51.89762499999999 Q49.3125 -51.89762499999999 48.227625 -50.81274999999999 Q47.14275 -49.72787499999999 47.14275 -48.29781249999999 Q47.14275 -46.86774999999999 48.227625 -45.78287499999999 L50.298750000000005 -43.61312499999999 Z"/></g><g id="Semibold-S" transform="matrix(1 0 0 1 1998.1 696)"><path d="M27.473473125 -4.930624749999989 Q23.35696425 -4.930624749999989 20.561142750000002 -7.741239999999987 Q17.76532125 -10.551855249999985 17.76532125 -14.59597337499999 V-49.599267999999995 L6.063169125 -61.41286637499999 Q4.995454875000001 -62.53630374999999 5.585133750000001 -64.0328395 Q6.174714 -65.52937524999999 7.7327917500000005 -65.52937524999999 H73.371181125 Q77.450705625 -65.52937524999999 80.246527125 -62.71757649999999 Q83.042348625 -59.905777749999984 83.042348625 -55.86008162499999 V-14.56806249999999 Q83.042348625 -10.522267749999987 80.231733375 -7.726446249999988 Q77.421118125 -4.930624749999989 73.37700000000001 -4.930624749999989 H27.473473125 Z M27.430669875 -55.864026624999994 V-14.59597337499999 Q27.430669875 -14.59597337499999 27.430669875 -14.59597337499999 Q27.430669875 -14.59597337499999 27.430669875 -14.59597337499999 H73.37700000000001 Q73.37700000000001 -14.59597337499999 73.37700000000001 -14.59597337499999 Q73.37700000000001 -14.59597337499999 73.37700000000001 -14.59597337499999 V-55.864026624999994 Q73.37700000000001 -55.864026624999994 73.37700000000001 -55.864026624999994 Q73.37700000000001 -55.864026624999994 73.37700000000001 -55.864026624999994 H27.430669875 Z M50.967723375000006 -26.375250249999986 H63.394473375000004 Q64.903435875 -26.375250249999986 65.924204625 -27.390002874999986 Q66.944973375 -28.404854124999993 66.944973375 -29.90494037499999 Q66.944973375 -31.40512524999999 65.924204625 -32.44068774999999 Q64.903435875 -33.47625024999999 63.394473375000004 -33.47625024999999 H41.216669625 Q39.176118375 -33.47625024999999 38.382581625 -31.585214499999985 Q37.58894625 -29.694178749999992 39.04267875 -28.240544874999983 L48.020413875 -19.262809749999985 Q49.093848375 -18.18937524999999 50.523910875000006 -18.18937524999999 Q51.953973375000004 -18.18937524999999 53.038848375 -19.27425024999999 Q54.123723375000004 -20.35912524999999 54.123723375000004 -21.73987524999999 Q54.123723375000004 -23.12062524999999 53.038848375 -24.205500249999993 L50.967723375000006 -26.375250249999986 Z M49.784223375 -44.08474974999999 H37.357473375000005 Q35.848510875 -44.08474974999999 34.827742125 -43.06999712499999 Q33.806973375000005 -42.05514587499999 33.806973375000005 -40.55505962499999 Q33.806973375000005 -39.05487474999999 34.827742125 -38.019312249999984 Q35.848510875 -36.98374974999999 37.357473375000005 -36.98374974999999 H59.53527712500001 Q61.575828375 -36.98374974999999 62.369365125 -38.87478549999999 Q63.162901874999996 -40.76582124999999 61.70926800000001 -42.21945512499999 L52.64434837500001 -51.28437474999999 Q51.559473375 -52.369249749999994 50.178723375000004 -52.369249749999994 Q48.797973375000005 -52.369249749999994 47.713098375 -51.28437474999999 Q46.628223375000005 -50.199499749999994 46.628223375000005 -48.769437249999996 Q46.628223375000005 -47.33937474999999 47.713098375 -46.254499749999994 L49.784223375 -44.08474974999999 Z"/></g><g id="Medium-S" transform="matrix(1 0 0 1 1701.85 696)"><path d="M26.6693835 -6.024080124999987 Q23.1962055 -6.024080124999987 20.818455375 -8.416623999999985 Q18.44070525 -10.809167874999986 18.44070525 -14.21005374999999 V-49.50271412499999 L7.060267875000001 -60.930392874999995 Q6.1533123750000005 -61.860919749999994 6.630361499999999 -63.1483705 Q7.107410625 -64.43591987499998 8.4403275 -64.43591987499998 H73.371181125 Q76.807473375 -64.43591987499998 79.185124875 -62.042192499999985 Q81.562875 -59.648465125 81.562875 -56.24600124999999 V-14.18204424999999 Q81.562875 -10.779580374999988 79.170331125 -8.401830249999989 Q76.777885875 -6.024080124999987 73.37700000000001 -6.024080124999987 H26.6693835 Z M26.626580250000004 -56.249946249999994 V-14.21005374999999 Q26.626580250000004 -14.21005374999999 26.626580250000004 -14.21005374999999 Q26.626580250000004 -14.21005374999999 26.626580250000004 -14.21005374999999 H73.37700000000001 Q73.37700000000001 -14.21005374999999 73.37700000000001 -14.21005374999999 Q73.37700000000001 -14.21005374999999 73.37700000000001 -14.21005374999999 V-56.249946249999994 Q73.37700000000001 -56.249946249999994 73.37700000000001 -56.249946249999994 Q73.37700000000001 -56.249946249999994 73.37700000000001 -56.249946249999994 H26.626580250000004 Z M50.581803750000006 -26.021383749999984 H63.008553750000004 Q64.51751625 -26.021383749999984 65.538285 -27.03623499999999 Q66.55905375 -28.05098762499999 66.55905375 -29.551172499999993 Q66.55905375 -31.051258749999988 65.538285 -32.086821249999986 Q64.51751625 -33.12238374999999 63.008553750000004 -33.12238374999999 H41.506134 Q39.2665575 -33.12238374999999 38.395600125 -31.07058924999999 Q37.524642750000005 -29.01879474999999 39.10698225 -27.436455249999987 L47.634395625 -18.909041874999986 Q48.70792875 -17.83550874999999 50.137991250000006 -17.83550874999999 Q51.568053750000004 -17.83550874999999 52.65292875 -18.92038374999999 Q53.737803750000005 -20.00525874999999 53.737803750000005 -21.386008749999988 Q53.737803750000005 -22.766758749999987 52.65292875 -23.85163374999999 L50.581803750000006 -26.021383749999984 Z M49.398303750000004 -44.43861624999999 H36.971553750000005 Q35.46259125 -44.43861624999999 34.4418225 -43.423764999999996 Q33.42105375 -42.409012374999996 33.42105375 -40.908827499999994 Q33.42105375 -39.40874124999999 34.4418225 -38.37317874999999 Q35.46259125 -37.33761624999999 36.971553750000005 -37.33761624999999 H58.473874875 Q60.713451375000005 -37.33761624999999 61.584408749999994 -39.38941074999999 Q62.455366125 -41.44120524999998 60.87312525 -43.02354474999999 L52.25842875 -51.63824124999999 Q51.17355375 -52.72311624999999 49.792803750000004 -52.72311624999999 Q48.412053750000005 -52.72311624999999 47.32717875 -51.63824124999999 Q46.242303750000005 -50.55336624999999 46.242303750000005 -49.12330374999999 Q46.242303750000005 -47.69324124999999 47.32717875 -46.60836624999999 L49.398303750000004 -44.43861624999999 Z"/></g><g id="Regular-S" transform="matrix(1 0 0 1 1405.73 696)"><path d="M26.079803250000005 -6.825999999999986 Q23.07825 -6.825999999999986 21.007125000000002 -8.911918749999987 Q18.936 -10.997837499999989 18.936 -13.926999999999989 V-49.43199999999999 L7.791375 -60.57662499999999 Q7.002375000000001 -61.365624999999994 7.3968750000000005 -62.49981249999999 Q7.791375 -63.633999999999986 8.959193625 -63.633999999999986 H73.371181125 Q76.33575 -63.633999999999986 78.406875 -61.546897749999985 Q80.47800000000001 -59.4597955 80.47800000000001 -56.529055 V-13.899089124999986 Q80.47800000000001 -10.968249999999987 78.39208125 -8.897124999999988 Q76.30616250000001 -6.825999999999986 73.37700000000001 -6.825999999999986 H26.079803250000005 Z M26.037000000000003 -56.53299999999999 V-13.926999999999989 Q26.037000000000003 -13.926999999999989 26.037000000000003 -13.926999999999989 Q26.037000000000003 -13.926999999999989 26.037000000000003 -13.926999999999989 H73.37700000000001 Q73.37700000000001 -13.926999999999989 73.37700000000001 -13.926999999999989 Q73.37700000000001 -13.926999999999989 73.37700000000001 -13.926999999999989 V-56.53299999999999 Q73.37700000000001 -56.53299999999999 73.37700000000001 -56.53299999999999 Q73.37700000000001 -56.53299999999999 73.37700000000001 -56.53299999999999 H26.037000000000003 Z M50.298750000000005 -25.761999999999986 H62.725500000000004 Q64.23446249999999 -25.761999999999986 65.25523125 -26.776752624999986 Q66.276 -27.791603874999986 66.276 -29.291690124999988 Q66.276 -30.79187499999999 65.25523125 -31.827437499999988 Q64.23446249999999 -32.862999999999985 62.725500000000004 -32.862999999999985 H41.718375 Q39.3328335 -32.862999999999985 38.40516675 -30.693249999999985 Q37.4775 -28.52349999999999 39.154125 -26.84687499999999 L47.3514405 -18.649559499999988 Q48.424875 -17.576124999999987 49.854937500000005 -17.576124999999987 Q51.285000000000004 -17.576124999999987 52.369875 -18.660999999999987 Q53.454750000000004 -19.745874999999987 53.454750000000004 -21.12662499999999 Q53.454750000000004 -22.50737499999999 52.369875 -23.592249999999986 L50.298750000000005 -25.761999999999986 Z M49.11525 -44.697999999999986 H36.688500000000005 Q35.1795375 -44.697999999999986 34.15876875000001 -43.68324737499999 Q33.138 -42.668396124999994 33.138 -41.16830987499999 Q33.138 -39.66812499999999 34.15876875000001 -38.63256249999999 Q35.1795375 -37.59699999999999 36.688500000000005 -37.59699999999999 H57.695625 Q60.0811665 -37.59699999999999 61.00883325000001 -39.76674999999999 Q61.9365 -41.93649999999999 60.259875 -43.61312499999999 L51.975375 -51.89762499999999 Q50.8905 -52.98249999999999 49.509750000000004 -52.98249999999999 Q48.129000000000005 -52.98249999999999 47.044125 -51.89762499999999 Q45.959250000000004 -50.81274999999999 45.959250000000004 -49.38268749999999 Q45.959250000000004 -47.95262499999999 47.044125 -46.86774999999999 L49.11525 -44.697999999999986 Z"/></g><g id="Light-S" transform="matrix(1 0 0 1 1109.75 696)"><path d="M26.155645874999998 -8.798598624999986 Q23.41968975 -8.798598624999986 21.59512725 -10.637954874999988 Q19.77056475 -12.477311124999986 19.77056475 -15.14097512499999 V-50.11487949999999 L10.636509 -58.907495499999996 Q9.92345025 -59.62055425 10.261043625000001 -60.64092849999999 Q10.598637 -61.661401375 11.652642375000001 -61.661401375 H71.019172125 Q73.7182425 -61.661401375 75.542706375 -59.82086162499999 Q77.367268875 -57.98032187499999 77.367268875 -55.31507987499998 V-15.112965624999987 Q77.367268875 -12.447723624999988 75.527912625 -10.623161124999989 Q73.688655 -8.798598624999986 71.02499100000001 -8.798598624999986 H26.155645874999998 Z M24.898966125 -56.53299999999999 V-15.14097512499999 Q24.898966125 -14.685722124999987 25.278277875000004 -14.306311749999988 Q25.65768825 -13.926999999999989 26.112842625000003 -13.926999999999989 H71.02499100000001 Q71.480244 -13.926999999999989 71.85955575000001 -14.306311749999988 Q72.238966125 -14.685722124999987 72.238966125 -15.14097512499999 V-55.319024875 Q72.238966125 -55.774277874999996 71.85955575000001 -56.15368824999999 Q71.480244 -56.53299999999999 71.02499100000001 -56.53299999999999 H24.898966125 Z M46.12582762500001 -27.355286874999983 H60.90458662500001 Q61.996266750000004 -27.355286874999983 62.732502375 -28.085604999999987 Q63.468737999999995 -28.81582449999999 63.468737999999995 -29.898726999999987 Q63.468737999999995 -30.98153087499999 62.732502375 -31.73256024999999 Q61.996266750000004 -32.483688249999986 60.90458662500001 -32.483688249999986 H39.935432250000005 Q38.194799625 -32.483688249999986 37.532631375 -30.88290587499999 Q36.87056175 -29.28222212499999 38.09193375 -28.060850124999988 L46.213308000000005 -19.939377249999986 Q47.021243999999996 -19.131441249999988 48.015088125000005 -19.112505249999984 Q49.008833625 -19.09356924999999 49.86618075 -19.950817749999985 Q50.72342925000001 -20.80806624999999 50.72342925000001 -21.73356324999999 Q50.72342925000001 -22.65915887499999 49.86618075 -23.516407374999986 L46.12582762500001 -27.355286874999983 Z M51.012006 -43.10471312499999 H36.233247000000006 Q35.141566875 -43.10471312499999 34.40533125 -42.37439499999999 Q33.669095625 -41.64417549999998 33.669095625 -40.56127299999999 Q33.669095625 -39.47846912499999 34.40533125 -38.72743974999999 Q35.141566875 -37.97631174999999 36.233247000000006 -37.97631174999999 H57.2025 Q58.943034000000004 -37.97631174999999 59.60520225 -39.57709412499999 Q60.267370500000006 -41.17777787499999 59.045899875 -42.39914987499999 L50.837341125 -50.60780724999999 Q50.017964625000005 -51.42718374999999 49.073531625 -51.446119749999994 Q48.129000000000005 -51.46505574999999 47.2717515 -50.60780724999999 Q46.414503 -49.75055874999999 46.414503 -48.77574924999999 Q46.414503 -47.80084112499999 47.2717515 -46.94359262499999 L51.012006 -43.10471312499999 Z"/></g><g id="Thin-S" transform="matrix(1 0 0 1 814.015 696)"><path d="M26.231488499999998 -10.770999999999987 Q23.761030875000003 -10.770999999999987 22.183030875 -12.363793749999989 Q20.605030875 -13.956587499999987 20.605030875 -16.35465437499999 V-50.79756174999999 L13.481248500000001 -57.238563249999984 Q12.84393375 -57.875877999999986 13.124719125 -58.78243899999998 Q13.405405875000001 -59.68899999999999 14.345597999999999 -59.68899999999999 H68.667557625 Q71.101030875 -59.68899999999999 72.67903087500001 -58.095022749999984 Q74.257030875 -56.50104549999999 74.257030875 -54.10130199999999 V-16.32674349999999 Q74.257030875 -13.926999999999989 72.664237125 -12.348999999999986 Q71.071443375 -10.770999999999987 68.6733765 -10.770999999999987 H26.231488499999998 Z M23.761030875000003 -56.53299999999999 V-16.35465437499999 Q23.761030875000003 -15.444345624999986 24.519654375000002 -14.685623499999988 Q25.2783765 -13.926999999999989 26.188685250000002 -13.926999999999989 H68.6733765 Q69.58378387500001 -13.926999999999989 70.34240737500001 -14.685623499999988 Q71.101030875 -15.444345624999986 71.101030875 -16.35465437499999 V-54.105345624999984 Q71.101030875 -55.015654375 70.34240737500001 -55.77437649999999 Q69.58378387500001 -56.53299999999999 68.6733765 -56.53299999999999 H23.761030875000003 Z M41.953595625 -28.948277874999988 H59.083969125 Q59.75846550000001 -28.948277874999988 60.210168 -29.39416149999999 Q60.661969125000006 -29.83994649999999 60.661969125000006 -30.505566624999986 Q60.661969125000006 -31.17118674999999 60.210168 -31.637781624999988 Q59.75846550000001 -32.10437649999999 59.083969125 -32.10437649999999 H38.15268675 Q37.056963 -32.10437649999999 36.66029325 -31.07256174999999 Q36.2636235 -30.04084562499999 37.029939750000004 -29.274529374999986 L45.075471375 -21.22899774999999 Q45.617908875 -20.686560249999992 46.175534625 -20.648688249999985 Q46.733061750000005 -20.610717624999985 47.362782375 -21.24043824999999 Q47.992503 -21.870060249999987 47.992503 -22.340501499999988 Q47.992503 -22.81084412499999 47.362782375 -23.440564749999986 L41.953595625 -28.948277874999988 Z M52.908466125000004 -41.511722124999984 H35.778092625 Q35.103694875 -41.511722124999984 34.651893750000006 -41.06583849999999 Q34.200092625 -40.62005349999999 34.200092625 -39.954433374999994 Q34.200092625 -39.28881324999999 34.651893750000006 -38.82221837499999 Q35.103694875 -38.355623499999986 35.778092625 -38.355623499999986 H56.709375 Q57.805197375 -38.355623499999986 58.2017685 -39.38743824999999 Q58.59843825 -40.41915437499999 57.832220625000005 -41.18547062499999 L49.699405875000004 -49.31818674999999 Q49.1456265 -49.872064749999986 48.63731325 -49.90993674999999 Q48.129000000000005 -49.947907374999986 47.499279375 -49.31818674999999 Q46.869657375 -48.68856474999999 46.869657375 -48.16881099999999 Q46.869657375 -47.64915587499999 47.499279375 -47.01943524999999 L52.908466125000004 -41.511722124999984 Z"/></g><g id="Ultralight-S" transform="matrix(1 0 0 1 517.792 696)"><path d="M26.277053250000005 -11.954499999999989 Q23.965875 -11.954499999999989 22.535812500000002 -13.399356249999986 Q21.10575 -14.844212499999987 21.10575 -17.082999999999988 V-51.20724999999999 L15.18825 -56.23712499999999 Q14.5965 -56.828875 14.8430625 -57.66718749999998 Q15.089625 -58.505499999999984 15.961568625000002 -58.505499999999984 H67.256431125 Q69.530625 -58.505499999999984 70.9606875 -57.05946024999999 Q72.39075 -55.61342049999999 72.39075 -53.373054999999994 V-17.055089124999988 Q72.39075 -14.814624999999989 70.94589375000001 -13.384562499999987 Q69.50103750000001 -11.954499999999989 67.26225000000001 -11.954499999999989 H26.277053250000005 Z M23.07825 -56.53299999999999 V-17.082999999999988 Q23.07825 -15.899499999999989 24.064500000000002 -14.913249999999987 Q25.05075 -13.926999999999989 26.23425 -13.926999999999989 H67.26225000000001 Q68.44575 -13.926999999999989 69.432 -14.913249999999987 Q70.41825 -15.899499999999989 70.41825 -17.082999999999988 V-53.376999999999995 Q70.41825 -54.56049999999999 69.432 -55.54674999999999 Q68.44575 -56.53299999999999 67.26225000000001 -56.53299999999999 H23.07825 Z M39.45 -29.90424999999999 H57.9915 Q58.4155875 -29.90424999999999 58.69666875 -30.179315124999988 Q58.97775 -30.454478874999992 58.97775 -30.869690124999984 Q58.97775 -31.28499999999999 58.69666875 -31.580874999999992 Q58.4155875 -31.876749999999987 57.9915 -31.876749999999987 H37.083 Q36.374083500000005 -31.876749999999987 36.13679175 -31.18637499999999 Q35.8995 -30.495999999999988 36.392625 -30.00287499999999 L44.3926905 -22.00280949999999 Q44.77575 -21.61974999999999 45.071625000000004 -21.57043749999999 Q45.3675 -21.52112499999999 45.860625 -22.01424999999999 Q46.353750000000005 -22.50737499999999 46.353750000000005 -22.704624999999986 Q46.353750000000005 -22.90187499999999 45.860625 -23.39499999999999 L39.45 -29.90424999999999 Z M54.0465 -40.55574999999999 H35.505 Q35.080912500000004 -40.55574999999999 34.799831250000004 -40.28068487499999 Q34.518750000000004 -40.005521124999994 34.518750000000004 -39.59030987499999 Q34.518750000000004 -39.17499999999999 34.799831250000004 -38.87912499999999 Q35.080912500000004 -38.583249999999985 35.505 -38.583249999999985 H56.4135 Q57.1224165 -38.583249999999985 57.359708250000004 -39.27362499999999 Q57.597 -39.96399999999999 57.103875 -40.45712499999999 L49.016625000000005 -48.54437499999999 Q48.622125000000004 -48.93887499999999 48.3755625 -48.98818749999999 Q48.129000000000005 -49.03749999999999 47.635875 -48.54437499999999 Q47.14275 -48.05124999999999 47.14275 -47.804687499999986 Q47.14275 -47.55812499999999 47.635875 -47.06499999999999 L54.0465 -40.55574999999999 Z"/></g></g></svg>