<svg xmlns="http://www.w3.org/2000/svg" version="1.1" width="3300" height="2000"><g id="Notes"><style>
    text {
      font-family: monospace;
      text-anchor: middle;
    }
    text.emphasis {
      font-weight:bold;
    }
    text.lanchor {
      text-anchor: start;
    }
  </style><rect height="2200" id="artboard" fill="white" width="3300" x="0" y="0"/><line id="" style="fill:none;stroke:black;stroke-width:0.5;" x1="263" x2="3036" y1="292" y2="292"/><text class="lanchor emphasis" transform="matrix(1 0 0 1 263 322)">Weight/Scale Variations</text><text transform="matrix(1 0 0 1 559.711 322)">Ultralight</text><text transform="matrix(1 0 0 1 856.422 322)">Thin</text><text transform="matrix(1 0 0 1 1153.13 322)">Light</text><text transform="matrix(1 0 0 1 1449.84 322)">Regular</text><text transform="matrix(1 0 0 1 1746.56 322)">Medium</text><text transform="matrix(1 0 0 1 2043.27 322)">Semibold</text><text transform="matrix(1 0 0 1 2339.98 322)">Bold</text><text transform="matrix(1 0 0 1 2636.69 322)">Heavy</text><text transform="matrix(1 0 0 1 2933.4 322)">Black</text><text id="template-version" style="text-anchor: end;" transform="matrix(1 0 0 1 3036 1933)">Template v.1.0</text><text class="lanchor" transform="matrix(1 0 0 1 263 726)">Small</text><text class="lanchor" transform="matrix(1 0 0 1 263 1156)">Medium</text><text class="lanchor" transform="matrix(1 0 0 1 263 1586)">Large</text></g><g id="Guides"><g id="H-reference" style="fill:#27AAE1;stroke:none;" transform="matrix(1 0 0 1 339 696)"><path d="M 54.9316 0 L 57.666 0 L 30.5664 -70.459 L 28.0762 -70.459 L 0.976562 0 L 3.66211 0 L 12.9395 -24.4629 L 45.7031 -24.4629 Z M 29.1992 -67.0898 L 29.4434 -67.0898 L 44.8242 -26.709 L 13.8184 -26.709 Z"/></g><line id="Baseline-S" style="fill:none;stroke:#27AAE1;opacity:1;stroke-width:0.577;" x1="263" x2="3036" y1="696" y2="696"/><line id="Capline-S" style="fill:none;stroke:#27AAE1;opacity:1;stroke-width:0.577;" x1="263" x2="3036" y1="625.541" y2="625.541"/><g id="H-reference" style="fill:#27AAE1;stroke:none;" transform="matrix(1 0 0 1 339 1126)"><path d="M 54.9316 0 L 57.666 0 L 30.5664 -70.459 L 28.0762 -70.459 L 0.976562 0 L 3.66211 0 L 12.9395 -24.4629 L 45.7031 -24.4629 Z M 29.1992 -67.0898 L 29.4434 -67.0898 L 44.8242 -26.709 L 13.8184 -26.709 Z"/></g><line id="Baseline-M" style="fill:none;stroke:#27AAE1;opacity:1;stroke-width:0.577;" x1="263" x2="3036" y1="1126" y2="1126"/><line id="Capline-M" style="fill:none;stroke:#27AAE1;opacity:1;stroke-width:0.577;" x1="263" x2="3036" y1="1055.54" y2="1055.54"/><g id="H-reference" style="fill:#27AAE1;stroke:none;" transform="matrix(1 0 0 1 339 1556)"><path d="M 54.9316 0 L 57.666 0 L 30.5664 -70.459 L 28.0762 -70.459 L 0.976562 0 L 3.66211 0 L 12.9395 -24.4629 L 45.7031 -24.4629 Z M 29.1992 -67.0898 L 29.4434 -67.0898 L 44.8242 -26.709 L 13.8184 -26.709 Z"/></g><line id="Baseline-L" style="fill:none;stroke:#27AAE1;opacity:1;stroke-width:0.577;" x1="263" x2="3036" y1="1556" y2="1556"/><line id="Capline-L" style="fill:none;stroke:#27AAE1;opacity:1;stroke-width:0.577;" x1="263" x2="3036" y1="1485.54" y2="1485.54"/><rect height="119.336" id="left-margin" style="fill:darkred;stroke:none;opacity:0.4;" width="12.4512" x="1394.06" y="1030.79"/><rect height="119.336" id="right-margin" style="fill:darkgreen;stroke:none;opacity:0.4;" width="12.4512" x="1502.5112" y="1030.79"/><rect x="1406.5112" y="1045" width="96" height="96" fill="none" stroke="blue" stroke-dasharray="5"/><rect x="1394.06" y="1030.79" width="120.9024" height="119.336" fill="none" stroke="blue"/></g><g id="Symbols"><g id="Bold-L" transform="matrix(1 0 0 1 2266 1556)"><path d="M77.4 -0.2387499999999818 Q86.7525 -2.3349999999999795 92.960625 -10.800624999999997 Q99.16875 -19.26625 99.16875 -29.586249999999993 V-43.45375 L77.4 -54.257499999999986 L55.95375000000001 -43.45375 V-29.586249999999993 Q55.95375000000001 -19.26625 62.00062500000001 -10.800624999999997 Q68.0475 -2.3349999999999795 77.4 -0.2387499999999818 Z M23.70375 24.91624999999999 V-55.86999999999999 L77.4 -96.02125 L131.25750000000002 -55.70875 V24.91624999999999 H23.70375 Z"/></g><g id="Semibold-L" transform="matrix(1 0 0 1 1970.27 1556)"><path d="M77.4 -0.2387499999999818 Q86.7525 -2.3349999999999795 92.960625 -10.881249999999994 Q99.16875 -19.427499999999995 99.16875 -29.747500000000002 V-43.29249999999999 L77.4 -54.257499999999986 L55.95375000000001 -43.29249999999999 V-29.747500000000002 Q55.95375000000001 -19.427499999999995 62.00062500000001 -10.881249999999994 Q68.0475 -2.3349999999999795 77.4 -0.2387499999999818 Z M24.1875 24.432500000000005 V-55.5475 L77.4 -95.37625 L130.77375 -55.38625 V24.432500000000005 H24.1875 Z"/></g><g id="Medium-L" transform="matrix(1 0 0 1 1674.31 1556)"><path d="M77.4 -0.2387499999999818 Q86.7525 -2.4962500000000034 92.88000000000001 -10.961874999999992 Q99.00750000000001 -19.427499999999995 99.00750000000001 -29.747500000000002 V-43.29249999999999 L77.4 -54.09625 L55.95375000000001 -43.29249999999999 V-29.747500000000002 Q55.95375000000001 -19.427499999999995 62.00062500000001 -10.961874999999992 Q68.0475 -2.4962500000000034 77.4 -0.2387499999999818 Z M24.509999999999998 24.110000000000014 V-55.38625 L77.4 -94.8925 L130.45125000000002 -55.224999999999994 V24.110000000000014 H24.509999999999998 Z"/></g><g id="Regular-L" transform="matrix(1 0 0 1 1378.56 1556)"><path d="M77.4 -0.2387499999999818 Q86.7525 -2.4962500000000034 92.88000000000001 -10.961874999999992 Q99.00750000000001 -19.427499999999995 99.00750000000001 -29.747500000000002 V-43.29249999999999 L77.4 -54.09625 L55.95375000000001 -43.29249999999999 V-29.747500000000002 Q55.95375000000001 -19.427499999999995 62.00062500000001 -10.961874999999992 Q68.0475 -2.4962500000000034 77.4 -0.2387499999999818 Z M24.8325 23.787499999999994 V-55.224999999999994 L77.4 -94.57 L130.12875 -55.06374999999999 V23.787499999999994 H24.8325 Z"/></g><g id="Light-L" transform="matrix(1 0 0 1 1082.77 1556)"><path d="M77.4 -1.6899999999999977 Q85.94624999999999 -3.7862499999999955 91.59 -11.52624999999999 Q97.23375 -19.26625 97.23375 -28.61874999999999 V-41.19624999999999 L77.4 -51.193749999999994 L57.7275 -41.19624999999999 V-28.61874999999999 Q57.7275 -19.26625 63.21000000000001 -11.52624999999999 Q68.69250000000001 -3.7862499999999955 77.4 -1.6899999999999977 Z M28.057499999999997 20.5625 V-53.61249999999999 L77.4 -90.53875 L126.90375 -53.45124999999999 V20.5625 H28.057499999999997 Z"/></g><g id="Thin-L" transform="matrix(1 0 0 1 787.282 1556)"><path d="M77.4 -3.141249999999985 Q85.30125 -5.0762499999999875 90.380625 -12.090624999999989 Q95.46000000000001 -19.10499999999999 95.46000000000001 -27.65124999999999 V-39.099999999999994 L77.4 -48.29124999999999 L59.50125 -39.099999999999994 V-27.65124999999999 Q59.50125 -19.10499999999999 64.419375 -12.009999999999991 Q69.3375 -4.914999999999992 77.4 -3.141249999999985 Z M31.2825 17.337500000000006 V-51.99999999999999 L77.4 -86.5075 L123.67875000000001 -51.83874999999999 V17.337500000000006 H31.2825 Z"/></g><g id="Ultralight-L" transform="matrix(1 0 0 1 491.205 1556)"><path d="M77.4 -3.9474999999999767 Q84.81750000000001 -5.721249999999998 89.655 -12.413124999999994 Q94.4925 -19.10499999999999 94.4925 -27.006249999999994 V-37.81 L77.4 -46.5175 L60.46875 -37.97125 V-27.006249999999994 Q60.46875 -18.943749999999994 65.145 -12.332499999999982 Q69.82124999999999 -5.721249999999998 77.4 -3.9474999999999767 Z M33.2175 15.402500000000003 V-51.03249999999999 L77.4 -84.08875 L121.74375 -50.871249999999996 V15.402500000000003 H33.2175 Z"/></g><g id="Bold-M" transform="matrix(1 0 0 1 2281.8 1126)"><path d="M60.0 -7.60499999999999 Q67.875 -9.60499999999999 73.0 -16.60499999999999 Q78.125 -23.60499999999999 78.125 -32.22999999999999 V-43.85499999999999 L60.0 -52.97999999999999 L41.875 -43.85499999999999 V-32.22999999999999 Q41.875 -23.60499999999999 47.0 -16.60499999999999 Q52.125 -9.60499999999999 60.0 -7.60499999999999 Z M16.875 12.89500000000001 V-51.85499999999999 L60.0 -84.10499999999999 L103.125 -51.72999999999999 V12.89500000000001 H16.875 Z"/></g><g id="Semibold-M" transform="matrix(1 0 0 1 1985.97 1126)"><path d="M60.0 -7.47999999999999 Q67.875 -9.47999999999999 73.065 -16.544999999999987 Q78.25 -23.60499999999999 78.25 -32.35499999999999 V-43.85499999999999 L60.0 -53.10499999999999 L41.75 -43.85499999999999 V-32.35499999999999 Q41.75 -23.60499999999999 46.935 -16.544999999999987 Q52.125 -9.47999999999999 60.0 -7.47999999999999 Z M17.5 12.27000000000001 V-51.47999999999999 L60.0 -83.22999999999999 L102.5 -51.35499999999999 V12.27000000000001 H17.5 Z"/></g><g id="Medium-M" transform="matrix(1 0 0 1 1689.91 1126)"><path d="M60.0 -7.35499999999999 Q68.0 -9.35499999999999 73.19 -16.47999999999999 Q78.375 -23.60499999999999 78.375 -32.35499999999999 V-43.97999999999999 L60.0 -53.22999999999999 L41.625 -43.97999999999999 V-32.35499999999999 Q41.625 -23.60499999999999 46.815 -16.47999999999999 Q52.0 -9.35499999999999 60.0 -7.35499999999999 Z M18.0 11.77000000000001 V-51.22999999999999 L60.0 -82.72999999999999 L102.0 -51.10499999999999 V11.77000000000001 H18.0 Z"/></g><g id="Regular-M" transform="matrix(1 0 0 1 1394.06 1126)"><path d="M60.0 -7.22999999999999 Q68.0 -9.22999999999999 73.19 -16.419999999999987 Q78.375 -23.60499999999999 78.375 -32.35499999999999 V-43.97999999999999 L60.0 -53.22999999999999 L41.625 -43.97999999999999 V-32.35499999999999 Q41.625 -23.60499999999999 46.815 -16.419999999999987 Q52.0 -9.22999999999999 60.0 -7.22999999999999 Z M18.375 11.39500000000001 V-51.10499999999999 L60.0 -82.22999999999999 L101.625 -50.97999999999999 V11.39500000000001 H18.375 Z"/></g><g id="Light-M" transform="matrix(1 0 0 1 1098.18 1126)"><path d="M60.0 -8.85499999999999 Q67.125 -10.60499999999999 71.75 -16.97999999999999 Q76.375 -23.35499999999999 76.375 -31.10499999999999 V-41.47999999999999 L60.0 -49.72999999999999 L43.625 -41.47999999999999 V-31.10499999999999 Q43.625 -23.35499999999999 48.25 -16.97999999999999 Q52.875 -10.60499999999999 60.0 -8.85499999999999 Z M20.875 8.89500000000001 V-49.85499999999999 L60.0 -79.10499999999999 L99.125 -49.72999999999999 V8.89500000000001 H20.875 Z"/></g><g id="Thin-M" transform="matrix(1 0 0 1 802.565 1126)"><path d="M60.0 -10.35499999999999 Q66.25 -11.97999999999999 70.31 -17.544999999999987 Q74.375 -23.10499999999999 74.375 -29.97999999999999 V-39.10499999999999 L60.0 -46.35499999999999 L45.625 -39.10499999999999 V-29.97999999999999 Q45.625 -23.10499999999999 49.690000000000005 -17.544999999999987 Q53.75 -11.97999999999999 60.0 -10.35499999999999 Z M23.375 6.39500000000001 V-48.60499999999999 L60.0 -75.97999999999999 L96.625 -48.47999999999999 V6.39500000000001 H23.375 Z"/></g><g id="Ultralight-M" transform="matrix(1 0 0 1 506.415 1126)"><path d="M60.0 -11.35499999999999 Q65.75 -12.85499999999999 69.435 -17.914999999999992 Q73.125 -22.97999999999999 73.125 -29.22999999999999 V-37.60499999999999 L60.0 -44.22999999999999 L46.875 -37.60499999999999 V-29.22999999999999 Q46.875 -22.97999999999999 50.565 -17.914999999999992 Q54.25 -12.85499999999999 60.0 -11.35499999999999 Z M24.875 4.89500000000001 V-47.85499999999999 L60.0 -74.10499999999999 L95.125 -47.72999999999999 V4.89500000000001 H24.875 Z"/></g><g id="Bold-S" transform="matrix(1 0 0 1 2294.23 696)"><path d="M47.34 -15.801664000000002 Q53.2575 -17.378085999999996 56.661246 -22.164159999999995 Q60.064992000000004 -26.945499999999996 60.064992000000004 -33.06182799999999 V-41.147499999999994 L47.34 -47.656749999999995 L34.615008 -41.147499999999994 V-33.06182799999999 Q34.615008 -26.945499999999996 38.018754 -22.164159999999995 Q41.4225 -17.378085999999996 47.34 -15.801664000000002 Z M16.469586 0.3744140000000158 V-48.347913999999996 L47.34 -71.426164 L78.210414 -48.24849999999999 V0.3744140000000158 H16.469586 Z"/></g><g id="Semibold-S" transform="matrix(1 0 0 1 1998.1 696)"><path d="M47.34 -15.702249999999992 Q53.2575 -17.278672 56.708586 -22.11208599999999 Q60.159672 -26.945499999999996 60.159672 -33.06182799999999 V-41.246914 L47.34 -47.75616399999999 L34.520328 -41.246914 V-33.06182799999999 Q34.520328 -26.945499999999996 37.971414 -22.11208599999999 Q41.4225 -17.278672 47.34 -15.702249999999992 Z M16.961922 -0.11792199999999298 V-48.049671999999994 L47.34 -70.73499999999999 L77.718078 -47.95499199999999 V-0.11792199999999298 H16.961922 Z"/></g><g id="Medium-S" transform="matrix(1 0 0 1 1701.85 696)"><path d="M47.34 -15.602835999999996 Q53.356914 -17.18399199999999 56.808 -22.064745999999992 Q60.259085999999996 -26.945499999999996 60.259085999999996 -33.06182799999999 V-41.246914 L47.34 -47.855577999999994 L34.420913999999996 -41.246914 V-33.06182799999999 Q34.420913999999996 -26.945499999999996 37.872 -22.064745999999992 Q41.323085999999996 -17.18399199999999 47.34 -15.602835999999996 Z M17.359578 -0.515578000000005 V-47.855577999999994 L47.34 -70.34207799999999 L77.320422 -47.75616399999999 V-0.515578000000005 H17.359578 Z"/></g><g id="Regular-S" transform="matrix(1 0 0 1 1405.73 696)"><path d="M47.34 -15.503422 Q53.356914 -17.084577999999993 56.808 -22.012671999999995 Q60.259085999999996 -26.945499999999996 60.259085999999996 -33.15650799999999 V-41.34632799999999 L47.34 -47.855577999999994 L34.420913999999996 -41.34632799999999 V-33.15650799999999 Q34.420913999999996 -26.945499999999996 37.872 -22.012671999999995 Q41.323085999999996 -17.084577999999993 47.34 -15.503422 Z M17.653086000000002 -0.8090859999999935 V-47.75616399999999 L47.34 -69.94442199999999 L77.026914 -47.656749999999995 V-0.8090859999999935 H17.653086000000002 Z"/></g><g id="Light-S" transform="matrix(1 0 0 1 1109.75 696)"><path d="M47.34 -16.78633599999999 Q52.66575 -18.168663999999993 55.671839999999996 -22.45766799999999 Q58.682664 -26.746671999999997 58.682664 -32.17183599999999 V-39.372249999999994 L47.34 -45.09092199999999 L35.997336 -39.372249999999994 V-32.17183599999999 Q35.997336 -26.746671999999997 39.008160000000004 -22.45766799999999 Q42.01425 -18.168663999999993 47.34 -16.78633599999999 Z M19.627164 -2.7831639999999993 V-46.771491999999995 L47.34 -67.47800799999999 L75.052836 -46.67207799999999 V-2.7831639999999993 H19.627164 Z"/></g><g id="Thin-S" transform="matrix(1 0 0 1 814.015 696)"><path d="M47.34 -17.969835999999987 Q51.974585999999995 -19.252749999999992 54.540414000000006 -22.902663999999994 Q57.101507999999995 -26.55257799999999 57.101507999999995 -31.187163999999996 V-37.398171999999995 L47.34 -42.430414 L37.578492 -37.398171999999995 V-31.28657799999999 Q37.578492 -26.55257799999999 40.139585999999994 -22.902663999999994 Q42.705414000000005 -19.252749999999992 47.34 -17.969835999999987 Z M21.596508 -4.752508000000006 V-45.78208599999999 L47.34 -65.01632799999999 L73.083492 -45.682672 V-4.752508000000006 H21.596508 Z"/></g><g id="Ultralight-S" transform="matrix(1 0 0 1 517.792 696)"><path d="M47.34 -18.760413999999997 Q51.581664 -19.943914 53.84925 -23.196171999999997 Q56.116836 -26.453163999999994 56.116836 -30.694827999999994 V-36.21467199999999 L47.34 -40.754577999999995 L38.563164 -36.31408599999999 V-30.694827999999994 Q38.563164 -26.453163999999994 40.83075 -23.196171999999997 Q43.098335999999996 -19.943914 47.34 -18.760413999999997 Z M22.780008000000002 -5.936008000000001 V-45.190335999999995 L47.34 -63.53458599999999 L71.899992 -45.09092199999999 V-5.936008000000001 H22.780008000000002 Z"/></g></g></svg>