<svg xmlns="http://www.w3.org/2000/svg" version="1.1" width="3300" height="2000"><g id="Notes"><style>
    text {
      font-family: monospace;
      text-anchor: middle;
    }
    text.emphasis {
      font-weight:bold;
    }
    text.lanchor {
      text-anchor: start;
    }
  </style><rect height="2200" id="artboard" fill="white" width="3300" x="0" y="0"/><line id="" style="fill:none;stroke:black;stroke-width:0.5;" x1="263" x2="3036" y1="292" y2="292"/><text class="lanchor emphasis" transform="matrix(1 0 0 1 263 322)">Weight/Scale Variations</text><text transform="matrix(1 0 0 1 559.711 322)">Ultralight</text><text transform="matrix(1 0 0 1 856.422 322)">Thin</text><text transform="matrix(1 0 0 1 1153.13 322)">Light</text><text transform="matrix(1 0 0 1 1449.84 322)">Regular</text><text transform="matrix(1 0 0 1 1746.56 322)">Medium</text><text transform="matrix(1 0 0 1 2043.27 322)">Semibold</text><text transform="matrix(1 0 0 1 2339.98 322)">Bold</text><text transform="matrix(1 0 0 1 2636.69 322)">Heavy</text><text transform="matrix(1 0 0 1 2933.4 322)">Black</text><text id="template-version" style="text-anchor: end;" transform="matrix(1 0 0 1 3036 1933)">Template v.1.0</text><text class="lanchor" transform="matrix(1 0 0 1 263 726)">Small</text><text class="lanchor" transform="matrix(1 0 0 1 263 1156)">Medium</text><text class="lanchor" transform="matrix(1 0 0 1 263 1586)">Large</text></g><g id="Guides"><g id="H-reference" style="fill:#27AAE1;stroke:none;" transform="matrix(1 0 0 1 339 696)"><path d="M 54.9316 0 L 57.666 0 L 30.5664 -70.459 L 28.0762 -70.459 L 0.976562 0 L 3.66211 0 L 12.9395 -24.4629 L 45.7031 -24.4629 Z M 29.1992 -67.0898 L 29.4434 -67.0898 L 44.8242 -26.709 L 13.8184 -26.709 Z"/></g><line id="Baseline-S" style="fill:none;stroke:#27AAE1;opacity:1;stroke-width:0.577;" x1="263" x2="3036" y1="696" y2="696"/><line id="Capline-S" style="fill:none;stroke:#27AAE1;opacity:1;stroke-width:0.577;" x1="263" x2="3036" y1="625.541" y2="625.541"/><g id="H-reference" style="fill:#27AAE1;stroke:none;" transform="matrix(1 0 0 1 339 1126)"><path d="M 54.9316 0 L 57.666 0 L 30.5664 -70.459 L 28.0762 -70.459 L 0.976562 0 L 3.66211 0 L 12.9395 -24.4629 L 45.7031 -24.4629 Z M 29.1992 -67.0898 L 29.4434 -67.0898 L 44.8242 -26.709 L 13.8184 -26.709 Z"/></g><line id="Baseline-M" style="fill:none;stroke:#27AAE1;opacity:1;stroke-width:0.577;" x1="263" x2="3036" y1="1126" y2="1126"/><line id="Capline-M" style="fill:none;stroke:#27AAE1;opacity:1;stroke-width:0.577;" x1="263" x2="3036" y1="1055.54" y2="1055.54"/><g id="H-reference" style="fill:#27AAE1;stroke:none;" transform="matrix(1 0 0 1 339 1556)"><path d="M 54.9316 0 L 57.666 0 L 30.5664 -70.459 L 28.0762 -70.459 L 0.976562 0 L 3.66211 0 L 12.9395 -24.4629 L 45.7031 -24.4629 Z M 29.1992 -67.0898 L 29.4434 -67.0898 L 44.8242 -26.709 L 13.8184 -26.709 Z"/></g><line id="Baseline-L" style="fill:none;stroke:#27AAE1;opacity:1;stroke-width:0.577;" x1="263" x2="3036" y1="1556" y2="1556"/><line id="Capline-L" style="fill:none;stroke:#27AAE1;opacity:1;stroke-width:0.577;" x1="263" x2="3036" y1="1485.54" y2="1485.54"/><rect height="119.336" id="left-margin" style="fill:darkred;stroke:none;opacity:0.4;" width="12.4512" x="1394.06" y="1030.79"/><rect height="119.336" id="right-margin" style="fill:darkgreen;stroke:none;opacity:0.4;" width="12.4512" x="1502.5112" y="1030.79"/><rect x="1406.5112" y="1045" width="96" height="96" fill="none" stroke="blue" stroke-dasharray="5"/><rect x="1394.06" y="1030.79" width="120.9024" height="119.336" fill="none" stroke="blue"/></g><g id="Symbols"><g id="Bold-L" transform="matrix(1 0 0 1 2266 1556)"><path d="M54.502500000000005 36.76812500000001  41.453827499999996 14.408877500000013  15.399375000000001 9.020547500000013  18.463125 -16.12187499999999  2.09625 -35.22999999999999  18.463125 -54.17816499999999  15.399375000000001 -79.49312499999999  41.46318000000001 -84.71762499999998  54.502500000000005 -107.22812499999998  77.4 -96.66624999999999  100.45875000000001 -107.22812499999998  113.5074225 -84.70762749999999  139.400625 -79.48054749999999  136.336875 -54.17687499999998  152.70375 -35.22999999999999  136.336875 -16.12058499999999  139.400625 9.033125000000013  113.49807000000001 14.418875000000018  100.45875000000001 36.76812500000001  77.4 26.206250000000015  54.502500000000005 36.76812500000001 Z M60.9525 17.579375000000017  77.4 10.403750000000016  94.33125 17.579375000000017  104.8125 2.099375000000016  122.864115 -2.6052549999999854  121.0764975 -21.10965999999999  133.43437500000002 -35.22999999999999  121.0764975 -49.67493624999999  122.864115 -68.17950249999998  104.8125 -72.55937499999999  94.00875 -88.03937499999998  77.4 -81.02499999999999  60.46875 -88.03937499999998  49.987500000000004 -72.55937499999999  32.097135 -68.17950249999998  33.7235025 -49.67493624999999  21.365625 -35.22999999999999  33.7235025 -21.10965999999999  32.097135 -2.2804974999999814  49.987500000000004 2.099375000000016  60.9525 17.579375000000017 Z M77.4 0.6481250000000145 Q81.27 0.6481250000000145 83.68875 -1.6899999999999835 Q86.1075 -4.028124999999989 86.1075 -7.898124999999986 Q86.1075 -11.768124999999984 83.68875 -14.267499999999984 Q81.27 -16.766874999999985 77.4 -16.766874999999985 Q73.53 -16.766874999999985 71.11125 -14.267499999999984 Q68.6925 -11.768124999999984 68.6925 -7.898124999999986 Q68.6925 -4.028124999999989 71.11125 -1.6899999999999835 Q73.53 0.6481250000000145 77.4 0.6481250000000145 Z M70.546875 -27.48999999999998 H85.30125 V-70.70499999999998 H70.546875 V-27.48999999999998 Z"/></g><g id="Semibold-L" transform="matrix(1 0 0 1 1970.27 1556)"><path d="M55.203615000000006 34.52481500000002  42.5754825 12.866521250000016  17.36227125 7.688622500000015  20.285895 -16.682702499999984  4.40970375 -35.22999999999999  20.285895 -53.61733749999998  17.36227125 -78.09105624999998  42.584835 -83.17526874999999  55.203615000000006 -104.98481499999997  77.4 -94.70335374999999  99.6876525 -104.98481499999997  112.3857675 -83.16527124999999  137.43772875 -78.07847874999999  134.514105 -53.61604749999999  150.39029625 -35.22999999999999  134.514105 -16.681412499999993  137.43772875 7.701200000000014  112.37641500000001 12.876518750000017  99.6876525 34.52481500000002  77.4 24.243353750000015  55.203615000000006 34.52481500000002 Z M60.67208625000001 18.350472500000016  77.4 11.174847500000016  94.61166375 18.350472500000016  105.23320125000001 2.6602025000000182  123.56523000000001 -2.1144099999999852  121.70746875 -20.829246249999983  134.34576 -35.22999999999999  121.70746875 -49.955349999999996  123.56523000000001 -68.67018624999999  105.23320125000001 -73.12020249999998  94.28916375000001 -88.8104725  77.4 -81.72611499999998  60.188336250000006 -88.8104725  49.566798750000004 -73.12020249999998  31.32587625 -68.67018624999999  33.09253125 -49.955349999999996  20.45424 -35.22999999999999  33.09253125 -20.829246249999983  31.32587625 -1.7898137499999933  49.566798750000004 2.6602025000000182  60.67208625000001 18.350472500000016 Z M77.4 -1.1045012499999913 Q80.568885 -1.1045012499999913 82.567095 -3.057077499999984 Q84.56514374999999 -5.009653749999984 84.56514374999999 -8.17853874999998 Q84.56514374999999 -11.34742374999999 82.567095 -13.391267499999984 Q80.568885 -15.434949999999986 77.4 -15.434949999999986 Q74.231115 -15.434949999999986 72.232905 -13.391267499999984 Q70.23485625 -11.34742374999999 70.23485625 -8.17853874999998 Q70.23485625 -5.009653749999984 72.232905 -3.057077499999984 Q74.231115 -1.1045012499999913 77.4 -1.1045012499999913 Z M71.73867375 -27.56014374999998 H84.10945125 V-69.58334499999998 H71.73867375 V-27.56014374999998 Z"/></g><g id="Medium-L" transform="matrix(1 0 0 1 1674.31 1556)"><path d="M55.72945125 32.842010000000016  43.416723749999996 11.709713750000013  18.834645000000002 6.689517500000015  21.6529725 -17.103403749999984  6.144915 -35.22999999999999  21.6529725 -53.19663625  18.834645000000002 -77.03938374999998  43.4262375 -82.01846124999997  55.72945125 -103.30201  77.4 -93.23097999999999  99.1090875 -103.30201  111.54436500000001 -82.00846374999999  135.96535500000002 -77.02680624999999  133.1470275 -53.195346249999986  148.65492375 -35.22999999999999  133.1470275 -17.102113749999987  135.96535500000002 6.702095000000014  111.53501250000001 11.719711250000014  99.1090875 32.842010000000016  77.4 22.770980000000016  55.72945125 32.842010000000016 Z M60.46181625 18.929037500000018  77.4 11.753412500000017  94.82193375 18.929037500000018  105.54860625 3.0809037500000116  124.09106625000001 -1.7464374999999919  122.1807375 -20.61897624999999  135.02929875 -35.22999999999999  122.1807375 -50.16578124999998  124.09106625000001 -69.03831999999998  105.54860625 -73.54090374999998  94.49943375000001 -89.3890375  77.4 -82.25195124999999  59.97806625 -89.3890375  49.25139375 -73.54090374999998  30.7474725 -69.03831999999998  32.6192625 -50.16578124999998  19.77070125 -35.22999999999999  32.6192625 -20.61897624999999  30.7474725 -1.4216799999999878  49.25139375 3.0809037500000116  60.46181625 18.929037500000018 Z M77.4 -2.4191724999999806 Q80.04304875000001 -2.4191724999999806 81.72569250000001 -4.082466249999982 Q83.40833624999999 -5.745759999999983 83.40833624999999 -8.388808749999988 Q83.40833624999999 -11.032018749999985 81.72569250000001 -12.73385124999998 Q80.04304875000001 -14.435844999999986 77.4 -14.435844999999986 Q74.75695125 -14.435844999999986 73.0743075 -12.73385124999998 Q71.39166374999999 -11.032018749999985 71.39166374999999 -8.388808749999988 Q71.39166374999999 -5.745759999999983 73.0743075 -4.082466249999982 Q74.75695125 -2.4191724999999806 77.4 -2.4191724999999806 Z M72.63264375 -27.61271124999999 H83.21548125000001 V-68.7419425 H72.63264375 V-27.61271124999999 Z"/></g><g id="Regular-L" transform="matrix(1 0 0 1 1378.56 1556)"><path d="M56.115 31.608125000000015  44.033827499999994 10.861377500000014  19.914375 5.956797500000015  22.655625 -17.411874999999988  7.4175 -35.22999999999999  22.655625 -52.88816499999999  19.914375 -76.26812499999998  44.04318000000001 -81.17012499999998  56.115 -102.06812499999998  77.4 -92.15124999999998  98.685 -102.06812499999998  110.9274225 -81.16012749999999  134.885625 -76.25554749999999  132.144375 -52.88687499999999  147.3825 -35.22999999999999  132.144375 -17.41058499999999  134.885625 5.969375000000014  110.91807000000001 10.871375000000015  98.685 31.608125000000015  77.4 21.691250000000014  56.115 31.608125000000015 Z M60.307500000000005 19.353125000000016  77.4 12.177500000000016  94.97625000000001 19.353125000000016  105.78 3.3893750000000153  124.476615 -1.4765049999999817  122.5277475 -20.464659999999988  135.53062500000001 -35.22999999999999  122.5277475 -50.319936249999984  124.476615 -69.30825249999998  105.78 -73.84937499999998  94.65375 -89.81312499999999  77.4 -82.63749999999999  59.823750000000004 -89.81312499999999  49.02 -73.84937499999998  30.323385 -69.30825249999998  32.2722525 -50.319936249999984  19.269375 -35.22999999999999  32.2722525 -20.464659999999988  30.323385 -1.1517474999999848  49.02 3.3893750000000153  60.307500000000005 19.353125000000016 Z M77.4 -3.3831249999999855 Q79.6575 -3.3831249999999855 81.10875 -4.834374999999987 Q82.56 -6.285624999999989 82.56 -8.543124999999982 Q82.56 -10.800624999999982 81.10875 -12.251874999999984 Q79.6575 -13.703124999999986 77.4 -13.703124999999986 Q75.1425 -13.703124999999986 73.69125 -12.251874999999984 Q72.24000000000001 -10.800624999999982 72.24000000000001 -8.543124999999982 Q72.24000000000001 -6.285624999999989 73.69125 -4.834374999999987 Q75.1425 -3.3831249999999855 77.4 -3.3831249999999855 Z M73.28812500000001 -27.65124999999999 H82.56 V-68.12499999999999 H73.28812500000001 V-27.65124999999999 Z"/></g><g id="Light-L" transform="matrix(1 0 0 1 1082.77 1556)"><path d="M57.293415 27.855676250000016  45.89932875 8.308306250000015  23.356740000000002 3.750091250000011  25.787745 -18.435328749999982  11.386991250000001 -35.22999999999999  25.787745 -51.92727624999998  23.356740000000002 -74.06625625  45.91239 -78.683005  57.293415 -98.31567625  77.4 -89.17409125  97.506585 -98.31567625  109.06192125 -78.66897624999999  131.50534125000001 -74.04884124999998  129.012255 -51.92550249999999  143.41300875000002 -35.22999999999999  129.012255 -18.43355499999999  131.50534125000001 3.767506250000018  109.04886 8.322173750000019  97.506585 27.855676250000016  77.4 18.714091250000017  57.293415 27.855676250000016 Z M60.4935825 18.515753750000012  77.4 11.495251250000017  94.66616625 18.515753750000012  105.09775125 2.6761662500000156  123.54313875 -1.952514999999984  121.71295125 -20.80167249999998  134.44525125 -35.22999999999999  121.71295125 -49.85972874999999  123.54313875 -68.77096749999998  105.09775125 -73.13616624999999  94.4676675 -88.97575375  77.4 -81.95525124999999  60.13383375 -88.97575375  49.70224875 -73.13616624999999  31.256861250000004 -68.77096749999998  33.08704875 -49.85972874999999  20.35474875 -35.22999999999999  33.08704875 -20.80167249999998  31.256861250000004 -1.7511137499999876  49.70224875 2.6761662500000156  60.4935825 18.515753750000012 Z M77.4 -4.964664999999982 Q79.34741625 -4.964664999999982 80.5195425 -6.136952499999978 Q81.69166875 -7.309078749999983 81.69166875 -9.256333749999989 Q81.69166875 -11.203749999999985 80.5195425 -12.375876249999983 Q79.34741625 -13.548002499999988 77.4 -13.548002499999988 Q75.45258375 -13.548002499999988 74.2804575 -12.375876249999983 Q73.10833125 -11.203749999999985 73.10833125 -9.256333749999989 Q73.10833125 -7.309078749999983 74.2804575 -6.136952499999978 Q75.45258375 -4.964664999999982 77.4 -4.964664999999982 Z M74.2494975 -27.465167499999993 H81.31950375000001 V-67.50483249999999 H74.2494975 V-27.465167499999993 Z"/></g><g id="Thin-L" transform="matrix(1 0 0 1 787.282 1556)"><path d="M58.471668750000006 24.103872500000016  47.7645075 5.755718750000014  26.798460000000002 1.5438687500000157  28.919542500000002 -19.458459999999988  15.35599875 -35.22999999999999  28.919542500000002 -50.96654874999999  26.798460000000002 -71.86470999999999  47.7812775 -76.19620749999999  58.471668750000006 -94.56387249999997  77.4 -86.19741624999997  96.32833125 -94.56387249999997  107.1967425 -76.17846999999998  128.12554125 -71.84261874999999  125.8804575 -50.96429124999999  139.4441625 -35.22999999999999  125.8804575 -19.45636374999998  128.12554125 1.5659600000000182  107.1799725 5.773456250000017  96.32833125 24.103872500000016  77.4 15.737416250000013  58.471668750000006 24.103872500000016 Z M60.679665 17.678543750000017  77.4 10.813163750000012  94.3560825 17.678543750000017  104.41566375000001 1.962957500000016  122.6096625 -2.4285249999999863  120.898155 -21.138523749999983  133.36003875 -35.22999999999999  120.898155 -49.3996825  122.6096625 -68.23384374999998  104.41566375000001 -72.42295749999998  94.281585 -88.13854375  77.4 -81.27316374999998  60.443917500000005 -88.13854375  50.384336250000004 -72.42295749999998  32.1903375 -68.23384374999998  33.901845 -49.3996825  21.439961250000003 -35.22999999999999  33.901845 -21.138523749999983  32.1903375 -2.3503187499999925  50.384336250000004 1.962957500000016  60.679665 17.678543750000017 Z M77.4 -6.546043749999988 Q79.0373325 -6.546043749999988 79.930335 -7.439207499999988 Q80.82349875 -8.33220999999999 80.82349875 -9.969542499999989 Q80.82349875 -11.606874999999988 79.930335 -12.49987749999999 Q79.0373325 -13.393041249999982 77.4 -13.393041249999982 Q75.7626675 -13.393041249999982 74.869665 -12.49987749999999 Q73.97650125 -11.606874999999988 73.97650125 -9.969542499999989 Q73.97650125 -8.33220999999999 74.869665 -7.439207499999988 Q75.7626675 -6.546043749999988 77.4 -6.546043749999988 Z M75.21070875000001 -27.27908499999998 H80.07916875000001 V-66.88466499999998 H75.21070875000001 V-27.27908499999998 Z"/></g><g id="Ultralight-L" transform="matrix(1 0 0 1 491.205 1556)"><path d="M59.17875 21.852500000000017  48.883743749999994 4.2238437500000146  28.86375 0.2198450000000136  30.798750000000002 -20.072499999999984  17.7375 -35.22999999999999  30.798750000000002 -50.38991874999998  28.86375 -70.54374999999999  48.90277125000001 -74.70399999999998  59.17875 -92.3125  77.4 -84.41124999999998  95.62125 -92.3125  106.07750625000001 -74.68384374999998  126.0975 -70.51859499999999  124.00125 -50.38749999999999  137.0625 -35.22999999999999  124.00125 -20.070081249999987  126.0975 0.24500000000001165  106.05847874999999 4.244000000000014  95.62125 21.852500000000017  77.4 13.951250000000016  59.17875 21.852500000000017 Z M60.791250000000005 17.176250000000014  77.4 10.403750000000016  94.17 17.176250000000014  104.00625000000001 1.535000000000018  122.04964125000001 -2.714098749999984  120.40924500000001 -21.34073124999999  132.70875 -35.22999999999999  120.40924500000001 -49.123622499999996  122.04964125000001 -67.91150499999999  104.00625000000001 -71.99499999999999  94.17 -87.63624999999999  77.4 -80.86374999999998  60.63 -87.63624999999999  50.79375 -71.99499999999999  32.750358750000004 -67.91150499999999  34.390755000000006 -49.123622499999996  22.091250000000002 -35.22999999999999  34.390755000000006 -21.34073124999999  32.750358750000004 -2.709744999999984  50.79375 1.535000000000018  60.791250000000005 17.176250000000014 Z M77.4 -7.494999999999983 Q78.85125000000001 -7.494999999999983 79.576875 -8.220624999999984 Q80.30250000000001 -8.946249999999985 80.30250000000001 -10.397499999999987 Q80.30250000000001 -11.848749999999988 79.576875 -12.574374999999982 Q78.85125000000001 -13.299999999999983 77.4 -13.299999999999983 Q75.94875 -13.299999999999983 75.223125 -12.574374999999982 Q74.4975 -11.848749999999988 74.4975 -10.397499999999987 Q74.4975 -8.946249999999985 75.223125 -8.220624999999984 Q75.94875 -7.494999999999983 77.4 -7.494999999999983 Z M75.78750000000001 -27.16749999999999 H79.33500000000001 V-66.51249999999999 H75.78750000000001 V-27.16749999999999 Z"/></g><g id="Bold-M" transform="matrix(1 0 0 1 2281.8 1126)"><path d="M41.75 21.27000000000001  31.625 3.8950000000000102  12.0 -0.35499999999998977  14.0 -20.22999999999999  1.0 -35.22999999999999  14.0 -50.22999999999999  12.0 -70.10499999999999  31.625 -74.35499999999999  41.75 -91.72999999999999  60.0 -83.85499999999999  78.25 -91.72999999999999  88.375 -74.35499999999999  108.0 -70.10499999999999  106.0 -50.22999999999999  119.0 -35.22999999999999  106.0 -20.22999999999999  108.0 -0.35499999999998977  88.375 3.8950000000000102  78.25 21.27000000000001  60.0 13.39500000000001  41.75 21.27000000000001 Z M48.125 2.0200000000000102  60.0 -3.2299999999999898  72.125 2.0200000000000102  78.75 -9.22999999999999  91.5 -12.22999999999999  90.5 -25.47999999999999  99.0 -35.22999999999999  90.5 -45.22999999999999  91.5 -58.47999999999999  78.75 -61.22999999999999  71.875 -72.47999999999999  60.0 -67.22999999999999  47.875 -72.47999999999999  41.25 -61.22999999999999  28.5 -58.47999999999999  29.5 -45.22999999999999  21.0 -35.22999999999999  29.5 -25.47999999999999  28.5 -11.97999999999999  41.25 -9.22999999999999  48.125 2.0200000000000102 Z M60.0 -6.60499999999999 Q63.5 -6.60499999999999 65.9375 -9.04249999999999 Q68.375 -11.47999999999999 68.375 -14.97999999999999 Q68.375 -18.47999999999999 65.9375 -20.97999999999999 Q63.5 -23.47999999999999 60.0 -23.47999999999999 Q56.5 -23.47999999999999 54.0625 -20.97999999999999 Q51.625 -18.47999999999999 51.625 -14.97999999999999 Q51.625 -11.47999999999999 54.0625 -9.04249999999999 Q56.5 -6.60499999999999 60.0 -6.60499999999999 Z M52.5 -29.97999999999999 H67.625 V-62.35499999999999 H52.5 V-29.97999999999999 Z"/></g><g id="Semibold-M" transform="matrix(1 0 0 1 1985.97 1126)"><path d="M42.510875 18.933250000000008  32.76625 2.3190000000000097  14.01075 -1.76799999999999  15.902 -20.827749999999988  3.391125 -35.22999999999999  15.902 -49.632249999999985  14.01075 -68.692  32.76625 -72.779  42.510875 -89.39325  60.0 -81.84424999999999  77.489125 -89.39325  87.23375 -72.779  105.98925 -68.692  104.098 -49.632249999999985  116.608875 -35.22999999999999  104.098 -20.827749999999988  105.98925 -1.76799999999999  87.23375 2.3190000000000097  77.489125 18.933250000000008  60.0 11.38425000000001  42.510875 18.933250000000008 Z M47.85325 2.8351250000000086  60.0 -2.469124999999991  72.39675 2.8351250000000086  79.18475 -8.632249999999992  92.260875 -11.740874999999988  91.152125 -25.208249999999992  99.923875 -35.22999999999999  91.152125 -45.50174999999999  92.260875 -58.96912499999999  79.18475 -61.827749999999995  72.14675 -73.29512499999998  60.0 -67.99087499999999  47.60325 -73.29512499999998  40.81525 -61.827749999999995  27.739125 -58.96912499999999  28.847875 -45.50174999999999  20.076125 -35.22999999999999  28.847875 -25.208249999999992  27.739125 -11.490874999999988  40.81525 -8.632249999999992  47.85325 2.8351250000000086 Z M60.0 -8.452749999999988 Q62.847875 -8.452749999999988 64.8235 -10.428249999999991 Q66.799 -12.403874999999992 66.799 -15.251749999999987 Q66.799 -18.09962499999999 64.8235 -20.110499999999988 Q62.847875 -22.121374999999986 60.0 -22.121374999999986 Q57.152125 -22.121374999999986 55.1765 -20.110499999999988 Q53.201 -18.09962499999999 53.201 -15.251749999999987 Q53.201 -12.403874999999992 55.1765 -10.428249999999991 Q57.152125 -8.452749999999988 60.0 -8.452749999999988 Z M53.749875 -30.08874999999999 H66.375125 V-61.21374999999999 H53.749875 V-30.08874999999999 Z"/></g><g id="Medium-M" transform="matrix(1 0 0 1 1689.91 1126)"><path d="M43.0815 17.180375000000012  33.62225 1.1368750000000105  15.519 -2.827749999999991  17.32875 -21.27624999999999  5.18475 -35.22999999999999  17.32875 -49.18374999999999  15.519 -67.63224999999998  33.62225 -71.59687499999998  43.0815 -87.64037499999999  60.0 -80.33599999999998  76.9185 -87.64037499999999  86.37775 -71.59687499999998  104.481 -67.63224999999998  102.67125 -49.18374999999999  114.81525 -35.22999999999999  102.67125 -21.27624999999999  104.481 -2.827749999999991  86.37775 1.1368750000000105  76.9185 17.180375000000012  60.0 9.87600000000001  43.0815 17.180375000000012 Z M47.6495 3.4466250000000116  60.0 -1.8984999999999914  72.6005 3.4466250000000116  79.510875 -8.18374999999999  92.8315 -11.373999999999988  91.64125 -25.004499999999993  100.616875 -35.22999999999999  91.64125 -45.70549999999999  92.8315 -59.335999999999984  79.510875 -62.27624999999999  72.3505 -73.90662499999999  60.0 -68.5615  47.3995 -73.90662499999999  40.489125 -62.27624999999999  27.1685 -59.335999999999984  28.35875 -45.70549999999999  19.383125 -35.22999999999999  28.35875 -25.004499999999993  27.1685 -11.123999999999988  40.489125 -8.18374999999999  47.6495 3.4466250000000116 Z M60.0 -9.838624999999993 Q62.35875 -9.838624999999993 63.98775 -11.467749999999988 Q65.616875 -13.09687499999999 65.616875 -15.455499999999986 Q65.616875 -17.814249999999987 63.98775 -19.458249999999992 Q62.35875 -21.10224999999999 60.0 -21.10224999999999 Q57.64125 -21.10224999999999 56.01225 -19.458249999999992 Q54.383125 -17.814249999999987 54.383125 -15.455499999999986 Q54.383125 -13.09687499999999 56.01225 -11.467749999999988 Q57.64125 -9.838624999999993 60.0 -9.838624999999993 Z M54.6875 -30.17024999999999 H65.4375 V-60.357749999999996 H54.6875 V-30.17024999999999 Z"/></g><g id="Regular-M" transform="matrix(1 0 0 1 1394.06 1126)"><path d="M43.5 15.89500000000001  34.25 0.27000000000001023  16.625 -3.6049999999999898  18.375 -21.60499999999999  6.5 -35.22999999999999  18.375 -48.85499999999999  16.625 -66.85499999999999  34.25 -70.72999999999999  43.5 -86.35499999999999  60.0 -79.22999999999999  76.5 -86.35499999999999  85.75 -70.72999999999999  103.375 -66.85499999999999  101.625 -48.85499999999999  113.5 -35.22999999999999  101.625 -21.60499999999999  103.375 -3.6049999999999898  85.75 0.27000000000001023  76.5 15.89500000000001  60.0 8.77000000000001  43.5 15.89500000000001 Z M47.5 3.8950000000000102  60.0 -1.4799999999999898  72.75 3.8950000000000102  79.75 -7.85499999999999  93.25 -11.10499999999999  92.0 -24.85499999999999  101.125 -35.22999999999999  92.0 -45.85499999999999  93.25 -59.60499999999999  79.75 -62.60499999999999  72.5 -74.35499999999999  60.0 -68.97999999999999  47.25 -74.35499999999999  40.25 -62.60499999999999  26.75 -59.60499999999999  28.0 -45.85499999999999  18.875 -35.22999999999999  28.0 -24.85499999999999  26.75 -10.85499999999999  40.25 -7.85499999999999  47.5 3.8950000000000102 Z M60.0 -10.85499999999999 Q62.0 -10.85499999999999 63.375 -12.22999999999999 Q64.75 -13.60499999999999 64.75 -15.60499999999999 Q64.75 -17.60499999999999 63.375 -18.97999999999999 Q62.0 -20.35499999999999 60.0 -20.35499999999999 Q58.0 -20.35499999999999 56.625 -18.97999999999999 Q55.25 -17.60499999999999 55.25 -15.60499999999999 Q55.25 -13.60499999999999 56.625 -12.22999999999999 Q58.0 -10.85499999999999 60.0 -10.85499999999999 Z M55.375 -30.22999999999999 H64.75 V-59.72999999999999 H55.375 V-30.22999999999999 Z"/></g><g id="Light-M" transform="matrix(1 0 0 1 1098.18 1126)"><path d="M44.461625 12.98612500000001  35.74425 -1.7571249999999914  19.101125 -5.363624999999988  20.755 -22.398374999999987  9.577125 -35.22999999999999  20.755 -48.06199999999998  19.101125 -65.10012499999999  35.747 -68.70587499999999  44.461625 -83.446125  60.0 -76.777875  75.538375 -83.446125  84.25575 -68.70287499999999  100.898875 -65.096375  99.245 -48.06162499999999  110.422875 -35.22999999999999  99.245 -22.39799999999999  100.898875 -5.359874999999988  84.253 -1.7541249999999913  75.538375 12.98612500000001  60.0 6.3178750000000115  44.461625 12.98612500000001 Z M47.451875 4.015250000000009  60.0 -1.2876249999999914  72.701875 4.015250000000009  79.798125 -7.78287499999999  93.343625 -10.94512499999999  92.0895 -24.827749999999988  101.24525 -35.22999999999999  92.0895 -45.786749999999984  93.343625 -59.66937499999999  79.798125 -62.67712499999999  72.548125 -74.47524999999999  60.0 -69.17237499999999  47.298125 -74.47524999999999  40.201875 -62.67712499999999  26.656375 -59.66937499999999  27.9105 -45.786749999999984  18.75475 -35.22999999999999  27.9105 -24.827749999999988  26.656375 -10.790624999999991  40.201875 -7.78287499999999  47.451875 4.015250000000009 Z M60.0 -12.080999999999989 Q61.615375 -12.080999999999989 62.725875 -13.191624999999988 Q63.8365 -14.30212499999999 63.8365 -15.91749999999999 Q63.8365 -17.53287499999999 62.725875 -18.643374999999992 Q61.615375 -19.75399999999999 60.0 -19.75399999999999 Q58.384625 -19.75399999999999 57.274125 -18.643374999999992 Q56.1635 -17.53287499999999 56.1635 -15.91749999999999 Q56.1635 -14.30212499999999 57.274125 -13.191624999999988 Q58.384625 -12.080999999999989 60.0 -12.080999999999989 Z M56.553 -29.84537499999999 H63.548 V-59.44149999999999 H56.553 V-29.84537499999999 Z"/></g><g id="Thin-M" transform="matrix(1 0 0 1 802.565 1126)"><path d="M45.423125 10.07775000000001  37.23825 -3.7839999999999883  21.576875 -7.12212499999999  23.134625 -23.19149999999999  12.65375 -35.22999999999999  23.134625 -47.269249999999985  21.576875 -63.34537499999999  37.243875 -66.68199999999999  45.423125 -80.53774999999999  60.0 -74.32612499999999  74.576875 -80.53774999999999  82.76175 -66.67599999999999  98.423125 -63.337875  96.865375 -47.26849999999999  107.34625 -35.22999999999999  96.865375 -23.190749999999987  98.423125 -7.1146249999999895  82.756125 -3.777999999999988  74.576875 10.07775000000001  60.0 3.866125000000011  45.423125 10.07775000000001 Z M47.403875 4.1353750000000105  60.0 -1.09537499999999  72.653875 4.1353750000000105  79.846125 -7.71074999999999  93.437375 -10.785374999999988  92.179 -24.80037499999999  101.365375 -35.22999999999999  92.179 -45.71862499999999  93.437375 -59.73362499999999  79.846125 -62.74924999999999  72.596125 -74.59537499999999  60.0 -69.36462499999999  47.346125 -74.59537499999999  40.153875 -62.74924999999999  26.562625 -59.73362499999999  27.821 -45.71862499999999  18.634625 -35.22999999999999  27.821 -24.80037499999999  26.562625 -10.72637499999999  40.153875 -7.71074999999999  47.403875 4.1353750000000105 Z M60.0 -13.306874999999991 Q61.23075 -13.306874999999991 62.076875 -14.153124999999989 Q62.923125 -14.99924999999999 62.923125 -16.22999999999999 Q62.923125 -17.46074999999999 62.076875 -18.30687499999999 Q61.23075 -19.15312499999999 60.0 -19.15312499999999 Q58.76925 -19.15312499999999 57.923125 -18.30687499999999 Q57.076875 -17.46074999999999 57.076875 -16.22999999999999 Q57.076875 -14.99924999999999 57.923125 -14.153124999999989 Q58.76925 -13.306874999999991 60.0 -13.306874999999991 Z M57.73075 -29.46074999999999 H62.346125 V-59.15312499999999 H57.73075 V-29.46074999999999 Z"/></g><g id="Ultralight-M" transform="matrix(1 0 0 1 506.415 1126)"><path d="M46.0 8.33250000000001  38.13475 -5.0002499999999905  23.0625 -8.177249999999987  24.5625 -23.66749999999999  14.5 -35.22999999999999  24.5625 -46.793499999999995  23.0625 -62.29249999999999  38.142 -65.46749999999999  46.0 -78.79249999999999  60.0 -72.85499999999999  74.0 -78.79249999999999  81.86525 -65.45974999999999  96.9375 -62.28274999999999  95.4375 -46.79249999999999  105.5 -35.22999999999999  95.4375 -23.666499999999992  96.9375 -8.16749999999999  81.858 -4.992499999999989  74.0 8.33250000000001  60.0 2.3950000000000102  46.0 8.33250000000001 Z M47.375 4.20750000000001  60.0 -0.9799999999999898  72.625 4.20750000000001  79.875 -7.66749999999999  93.4935 -10.689499999999988  92.23275 -24.783999999999992  101.4375 -35.22999999999999  92.23275 -45.67762499999999  93.4935 -59.772249999999985  79.875 -62.79249999999999  72.625 -74.66749999999999  60.0 -69.47999999999999  47.375 -74.66749999999999  40.125 -62.79249999999999  26.5065 -59.772249999999985  27.76725 -45.67762499999999  18.5625 -35.22999999999999  27.76725 -24.783999999999992  26.5065 -10.687749999999987  40.125 -7.66749999999999  47.375 4.20750000000001 Z M60.0 -14.04249999999999 Q61.0 -14.04249999999999 61.6875 -14.72999999999999 Q62.375 -15.41749999999999 62.375 -16.41749999999999 Q62.375 -17.41749999999999 61.6875 -18.10499999999999 Q61.0 -18.79249999999999 60.0 -18.79249999999999 Q59.0 -18.79249999999999 58.3125 -18.10499999999999 Q57.625 -17.41749999999999 57.625 -16.41749999999999 Q57.625 -15.41749999999999 58.3125 -14.72999999999999 Q59.0 -14.04249999999999 60.0 -14.04249999999999 Z M58.4375 -29.22999999999999 H61.625 V-58.97999999999999 H58.4375 V-29.22999999999999 Z"/></g><g id="Bold-S" transform="matrix(1 0 0 1 2294.23 696)"><path d="M33.236625000000004 8.165000000000013  25.346625 -5.1493749999999885  10.158375000000001 -8.502624999999988  11.63775 -23.78949999999999  1.578 -35.22999999999999  11.63775 -46.67049999999999  10.158375000000001 -61.957374999999985  25.346625 -65.31062499999999  33.236625000000004 -78.62499999999999  47.34 -72.51024999999998  61.443375 -78.62499999999999  69.333375 -65.31062499999999  84.521625 -61.957374999999985  83.04225000000001 -46.67049999999999  93.102 -35.22999999999999  83.04225000000001 -23.78949999999999  84.521625 -8.502624999999988  69.333375 -5.1493749999999885  61.443375 8.165000000000013  47.34 2.0502500000000126  33.236625000000004 8.165000000000013 Z M37.773375 -5.938374999999986  47.34 -10.080624999999987  56.906625000000005 -5.938374999999986  62.331 -14.913249999999987  72.39075 -17.181624999999986  71.60175000000001 -27.537249999999986  78.30825 -35.22999999999999  71.60175000000001 -42.922749999999986  72.39075 -53.27837499999998  62.331 -55.54674999999999  56.906625000000005 -64.52162499999999  47.34 -60.379374999999996  37.773375 -64.52162499999999  32.349000000000004 -55.54674999999999  22.289250000000003 -53.376999999999995  23.07825 -42.922749999999986  16.371750000000002 -35.22999999999999  23.176875000000003 -27.537249999999986  22.289250000000003 -17.082999999999988  32.349000000000004 -14.814624999999989  37.773375 -5.938374999999986 Z M47.34 -13.433874999999986 Q49.904250000000005 -13.433874999999986 51.728812500000004 -15.258437499999989 Q53.553375 -17.082999999999988 53.553375 -19.64724999999999 Q53.553375 -22.211499999999987 51.728812500000004 -24.085374999999985 Q49.904250000000005 -25.95924999999999 47.34 -25.95924999999999 Q44.77575 -25.95924999999999 42.9511875 -24.085374999999985 Q41.126625000000004 -22.211499999999987 41.126625000000004 -19.64724999999999 Q41.126625000000004 -17.082999999999988 42.9511875 -15.258437499999989 Q44.77575 -13.433874999999986 47.34 -13.433874999999986 Z M41.817 -30.29874999999999 H52.961625000000005 V-55.842624999999984 H41.817 V-30.29874999999999 Z"/></g><g id="Semibold-S" transform="matrix(1 0 0 1 1998.1 696)"><path d="M33.836955375 6.321304250000013  26.24707125 -6.392838999999988  11.74485675 -9.617481999999988  13.138428000000001 -24.261124749999986  3.464597625 -35.22999999999999  13.138428000000001 -46.198875249999986  11.74485675 -60.842518  26.24707125 -64.067161  33.836955375 -76.78130424999999  47.34 -70.92376825  60.843044625000005 -76.78130424999999  68.43292875 -64.067161  82.93514325 -60.842518  81.541572 -46.198875249999986  91.215402375 -35.22999999999999  81.541572 -24.261124749999986  82.93514325 -9.617481999999988  68.43292875 -6.392838999999988  60.843044625000005 6.321304250000013  47.34 0.46376825000001354  33.836955375 6.321304250000013 Z M37.55896425 -5.295241374999989  47.34 -9.480294624999988  57.12103575 -5.295241374999989  62.67401775 -14.44162524999999  72.991080375 -16.795705374999987  72.116276625 -27.322839249999987  79.037187375 -35.22999999999999  72.116276625 -43.137160749999985  72.991080375 -53.664294625  62.67401775 -56.01837474999999  57.12103575 -65.16475862499999  47.34 -60.979705374999995  37.55896425 -65.16475862499999  32.00598225 -56.01837474999999  21.688919625 -53.762919624999995  22.563723375 -43.137160749999985  15.642812625000001 -35.22999999999999  22.662348375 -27.322839249999987  21.688919625 -16.697080374999988  32.00598225 -14.343000249999989  37.55896425 -5.295241374999989 Z M47.34 -14.891749749999985 Q49.389723375 -14.891749749999985 50.8498665 -16.35179424999999 Q52.30991100000001 -17.81193737499999 52.30991100000001 -19.861660749999984 Q52.30991100000001 -21.91138412499999 50.8498665 -23.39933949999999 Q49.389723375 -24.887294874999988 47.34 -24.887294874999988 Q45.290276625 -24.887294874999988 43.8301335 -23.39933949999999 Q42.370089 -21.91138412499999 42.370089 -19.861660749999984 Q42.370089 -17.81193737499999 43.8301335 -16.35179424999999 Q45.290276625 -14.891749749999985 47.34 -14.891749749999985 Z M42.803151375000006 -30.384553749999988 H51.975473625 V-54.94217875 H42.803151375000006 V-30.384553749999988 Z"/></g><g id="Medium-S" transform="matrix(1 0 0 1 1701.85 696)"><path d="M34.2871785 4.938285875000013  26.922455250000002 -7.325535624999986  12.934866 -10.453624749999989  14.264133750000001 -24.61499124999999  4.87976775 -35.22999999999999  14.264133750000001 -45.84500874999999  12.934866 -60.00637524999999  26.922455250000002 -63.13446437499998  34.2871785 -75.39828587499998  47.34 -69.73375899999999  60.3928215 -75.39828587499998  67.75754475000001 -63.13446437499998  81.745134 -60.00637524999999  80.41586625000001 -45.84500874999999  89.80023225000001 -35.22999999999999  80.41586625000001 -24.61499124999999  81.745134 -10.453624749999989  67.75754475000001 -7.325535624999986  60.3928215 4.938285875000013  47.34 -0.7262409999999857  34.2871785 4.938285875000013 Z M37.3982055 -4.8127678749999845  47.34 -9.030071499999988  57.2817945 -4.8127678749999845  62.931330375 -14.087758749999988  73.4413035 -16.506240999999985  72.50219625 -27.162080499999988  79.583964375 -35.22999999999999  72.50219625 -43.297919499999985  73.4413035 -53.95375899999999  62.931330375 -56.37224124999999  57.2817945 -65.64723212499999  47.34 -61.42992849999999  37.3982055 -65.64723212499999  31.748669625 -56.37224124999999  21.238696500000003 -54.05238399999999  22.177803750000002 -43.297919499999985  15.096035625 -35.22999999999999  22.27642875 -27.162080499999988  21.238696500000003 -16.407615999999987  31.748669625 -13.989133749999986  37.3982055 -4.8127678749999845 Z M47.34 -15.98520512499999 Q49.00380375 -15.98520512499999 50.19045975 -17.171959749999985 Q51.377214374999994 -18.358714374999987 51.377214374999994 -20.022419499999984 Q51.377214374999994 -21.686223249999983 50.19045975 -22.884714249999988 Q49.00380375 -24.083205249999992 47.34 -24.083205249999992 Q45.676196250000004 -24.083205249999992 44.489540250000005 -22.884714249999988 Q43.302785625 -21.686223249999983 43.302785625 -20.022419499999984 Q43.302785625 -18.358714374999987 44.489540250000005 -17.171959749999985 Q45.676196250000004 -15.98520512499999 47.34 -15.98520512499999 Z M43.5429375 -30.44885724999999 H51.235687500000004 V-54.26679474999999 H43.5429375 V-30.44885724999999 Z"/></g><g id="Regular-S" transform="matrix(1 0 0 1 1405.73 696)"><path d="M34.617375 3.9241250000000125  27.41775 -8.009499999999989  13.807500000000001 -11.066874999999989  15.089625 -24.874374999999986  5.9175 -35.22999999999999  15.089625 -45.585624999999986  13.807500000000001 -59.39312499999998  27.41775 -62.45049999999999  34.617375 -74.38412499999998  47.34 -68.86112499999999  60.062625000000004 -74.38412499999998  67.26225000000001 -62.45049999999999  80.8725 -59.39312499999998  79.59037500000001 -45.585624999999986  88.7625 -35.22999999999999  79.59037500000001 -24.874374999999986  80.8725 -11.066874999999989  67.26225000000001 -8.009499999999989  60.062625000000004 3.9241250000000125  47.34 -1.5988749999999872  34.617375 3.9241250000000125 Z M37.28025 -4.458999999999985  47.34 -8.699874999999988  57.399750000000004 -4.458999999999985  63.120000000000005 -13.828374999999987  73.7715 -16.293999999999986  72.78525 -27.044124999999987  79.984875 -35.22999999999999  72.78525 -43.415874999999986  73.7715 -54.16599999999998  63.120000000000005 -56.631624999999985  57.399750000000004 -66.00099999999999  47.34 -61.76012499999999  37.28025 -66.00099999999999  31.560000000000002 -56.631624999999985  20.9085 -54.264624999999995  21.894750000000002 -43.415874999999986  14.695125 -35.22999999999999  21.993375 -27.044124999999987  20.9085 -16.195374999999988  31.560000000000002 -13.729749999999989  37.28025 -4.458999999999985 Z M47.34 -16.78712499999999 Q48.72075 -16.78712499999999 49.707 -17.773374999999987 Q50.69325 -18.75962499999999 50.69325 -20.140374999999985 Q50.69325 -21.52112499999999 49.707 -22.50737499999999 Q48.72075 -23.493624999999987 47.34 -23.493624999999987 Q45.959250000000004 -23.493624999999987 44.973 -22.50737499999999 Q43.98675 -21.52112499999999 43.98675 -20.140374999999985 Q43.98675 -18.75962499999999 44.973 -17.773374999999987 Q45.959250000000004 -16.78712499999999 47.34 -16.78712499999999 Z M44.085375 -30.495999999999988 H50.69325 V-53.77149999999999 H44.085375 V-30.495999999999988 Z"/></g><g id="Light-S" transform="matrix(1 0 0 1 1109.75 696)"><path d="M35.376097125 1.6290226250000135  28.59671325 -9.608901624999987  15.761162625 -12.454430124999988  16.967445 -25.50034787499999  8.345351625000001 -35.22999999999999  16.967445 -44.95994799999998  15.761162625 -58.008528625  28.598883 -60.853465374999985  35.376097125 -72.089022625  47.34 -66.92639837499999  59.303902875000006 -72.089022625  66.08328675000001 -60.85109837499999  78.91883737500001 -58.00556987499999  77.71255500000001 -44.95965212499999  86.33464837500001 -35.22999999999999  77.71255500000001 -25.50005199999999  78.91883737500001 -12.451471374999986  66.081117 -9.606534624999988  59.303902875000006 1.6290226250000135  47.34 -3.533601624999987  35.376097125 1.6290226250000135 Z M37.242279375 -4.364122749999989  47.34 -8.548091124999988  57.361779375000005 -4.364122749999989  63.157970625000004 -13.771468374999987  73.845370125 -16.167858624999987  72.85586550000001 -27.022624749999984  80.07975225 -35.22999999999999  72.85586550000001 -43.36202574999999  73.845370125 -54.216791874999984  63.157970625000004 -56.688531624999996  57.437720625000004 -66.09587724999999  47.34 -61.911908874999995  37.318220625 -66.09587724999999  31.522029375000002 -56.688531624999996  20.834629875 -54.31541687499998  21.8241345 -43.36202574999999  14.600247750000001 -35.22999999999999  21.9227595 -27.022624749999984  20.834629875 -16.14458312499999  31.522029375000002 -13.672843374999989  37.242279375 -4.364122749999989 Z M47.34 -17.754438999999987 Q48.417280875 -17.754438999999987 49.194840375000005 -18.532097124999986 Q49.9724985 -19.309656624999988 49.9724985 -20.386937499999988 Q49.9724985 -21.464218374999987 49.194840375000005 -22.24177787499999 Q48.417280875 -23.019435999999992 47.34 -23.019435999999992 Q46.262719125000004 -23.019435999999992 45.485159625 -22.24177787499999 Q44.7075015 -21.464218374999987 44.7075015 -20.386937499999988 Q44.7075015 -19.309656624999988 45.485159625 -18.532097124999986 Q46.262719125000004 -17.754438999999987 47.34 -17.754438999999987 Z M45.014817 -30.19253087499999 H49.744872 V-53.54387349999999 H45.014817 V-30.19253087499999 Z"/></g><g id="Thin-S" transform="matrix(1 0 0 1 814.015 696)"><path d="M36.134720625 -0.6656852499999886  29.775479250000004 -11.208105999999987  17.714529375 -13.841886624999987  18.844969125000002 -26.12612349999999  10.772808750000001 -35.22999999999999  18.844969125000002 -44.334468249999986  17.714529375 -56.62403087499999  29.779917375000004 -59.25662799999999  36.134720625 -69.79431474999998  47.34 -64.99196762499999  58.54527937500001 -69.79431474999998  64.90452075 -59.25189399999999  76.96547062500001 -56.61811337499999  75.835030875 -44.33387649999999  83.90719125 -35.22999999999999  75.835030875 -26.125531749999986  76.96547062500001 -13.835969124999988  64.900082625 -11.203371999999987  58.54527937500001 -0.6656852499999886  47.34 -5.468032374999986  36.134720625 -0.6656852499999886 Z M37.204407375 -4.269344124999986  47.34 -8.396405874999989  57.323907375000005 -4.269344124999986  63.195842625000004 -13.714561749999987  73.91933887500001 -16.041815874999987  72.92648100000001 -27.00102587499999  80.174530875 -35.22999999999999  72.92648100000001 -43.30827512499999  73.91933887500001 -54.26748512499999  63.195842625000004 -56.74543824999999  57.475592625000004 -66.19065587499999  47.34 -62.063594124999995  37.356092625 -66.19065587499999  31.484157375000002 -56.74543824999999  20.760661125000002 -54.36611012499999  21.753519 -43.30827512499999  14.505469125000001 -35.22999999999999  21.852144000000003 -27.00102587499999  20.760661125000002 -16.093889874999988  31.484157375000002 -13.615936749999989  37.204407375 -4.269344124999986 Z M47.34 -18.72165437499999 Q48.11381175 -18.72165437499999 48.682779375 -19.290720624999988 Q49.251845625 -19.859688249999987 49.251845625 -20.63349999999999 Q49.251845625 -21.40731174999999 48.682779375 -21.97627937499999 Q48.11381175 -22.54534562499999 47.34 -22.54534562499999 Q46.56618825 -22.54534562499999 45.997220625000004 -21.97627937499999 Q45.428154375000005 -21.40731174999999 45.428154375000005 -20.63349999999999 Q45.428154375000005 -19.859688249999987 45.997220625000004 -19.290720624999988 Q46.56618825 -18.72165437499999 47.34 -18.72165437499999 Z M45.94406175 -29.88906174999999 H48.796592625 V-53.31634562499998 H45.94406175 V-29.88906174999999 Z"/></g><g id="Ultralight-S" transform="matrix(1 0 0 1 517.792 696)"><path d="M23.4494745 -5.297312499999986 Q20.899919625000003 -5.297312499999986 19.15356675 -7.043566749999986 Q17.4073125 -8.789919624999989 17.4073125 -11.339474499999987 V-59.120525499999985 Q17.4073125 -61.67017899999999 19.15356675 -63.41643324999998 Q20.899919625000003 -65.16268749999999 23.4494745 -65.16268749999999 H71.2305255 Q73.780179 -65.16268749999999 75.52643325 -63.41643324999998 Q77.2726875 -61.67017899999999 77.2726875 -59.120525499999985 V-11.339474499999987 Q77.2726875 -8.789919624999989 75.52643325 -7.043566749999986 Q73.780179 -5.297312499999986 71.2305255 -5.297312499999986 H23.4494745 Z M23.47275 -8.206749999999989 H71.20725 Q72.58800000000001 -8.206749999999989 73.47562500000001 -9.094374999999989 Q74.36325000000001 -9.981999999999989 74.36325000000001 -11.362749999999988 V-59.09724999999999 Q74.36325000000001 -60.477999999999994 73.47562500000001 -61.365624999999994 Q72.58800000000001 -62.253249999999994 71.20725 -62.253249999999994 H23.47275 Q22.092000000000002 -62.253249999999994 21.204375000000002 -61.365624999999994 Q20.316750000000003 -60.477999999999994 20.316750000000003 -59.09724999999999 V-11.362749999999988 Q20.316750000000003 -9.981999999999989 21.204375000000002 -9.094374999999989 Q22.092000000000002 -8.206749999999989 23.47275 -8.206749999999989 Z"/></g></g></svg>