<svg xmlns="http://www.w3.org/2000/svg" version="1.1" width="3300" height="2000"><g id="Notes"><style>
    text {
      font-family: monospace;
      text-anchor: middle;
    }
    text.emphasis {
      font-weight:bold;
    }
    text.lanchor {
      text-anchor: start;
    }
  </style><rect height="2200" id="artboard" fill="white" width="3300" x="0" y="0"/><line id="" style="fill:none;stroke:black;stroke-width:0.5;" x1="263" x2="3036" y1="292" y2="292"/><text class="lanchor emphasis" transform="matrix(1 0 0 1 263 322)">Weight/Scale Variations</text><text transform="matrix(1 0 0 1 559.711 322)">Ultralight</text><text transform="matrix(1 0 0 1 856.422 322)">Thin</text><text transform="matrix(1 0 0 1 1153.13 322)">Light</text><text transform="matrix(1 0 0 1 1449.84 322)">Regular</text><text transform="matrix(1 0 0 1 1746.56 322)">Medium</text><text transform="matrix(1 0 0 1 2043.27 322)">Semibold</text><text transform="matrix(1 0 0 1 2339.98 322)">Bold</text><text transform="matrix(1 0 0 1 2636.69 322)">Heavy</text><text transform="matrix(1 0 0 1 2933.4 322)">Black</text><text id="template-version" style="text-anchor: end;" transform="matrix(1 0 0 1 3036 1933)">Template v.1.0</text><text class="lanchor" transform="matrix(1 0 0 1 263 726)">Small</text><text class="lanchor" transform="matrix(1 0 0 1 263 1156)">Medium</text><text class="lanchor" transform="matrix(1 0 0 1 263 1586)">Large</text></g><g id="Guides"><g id="H-reference" style="fill:#27AAE1;stroke:none;" transform="matrix(1 0 0 1 339 696)"><path d="M 54.9316 0 L 57.666 0 L 30.5664 -70.459 L 28.0762 -70.459 L 0.976562 0 L 3.66211 0 L 12.9395 -24.4629 L 45.7031 -24.4629 Z M 29.1992 -67.0898 L 29.4434 -67.0898 L 44.8242 -26.709 L 13.8184 -26.709 Z"/></g><line id="Baseline-S" style="fill:none;stroke:#27AAE1;opacity:1;stroke-width:0.577;" x1="263" x2="3036" y1="696" y2="696"/><line id="Capline-S" style="fill:none;stroke:#27AAE1;opacity:1;stroke-width:0.577;" x1="263" x2="3036" y1="625.541" y2="625.541"/><g id="H-reference" style="fill:#27AAE1;stroke:none;" transform="matrix(1 0 0 1 339 1126)"><path d="M 54.9316 0 L 57.666 0 L 30.5664 -70.459 L 28.0762 -70.459 L 0.976562 0 L 3.66211 0 L 12.9395 -24.4629 L 45.7031 -24.4629 Z M 29.1992 -67.0898 L 29.4434 -67.0898 L 44.8242 -26.709 L 13.8184 -26.709 Z"/></g><line id="Baseline-M" style="fill:none;stroke:#27AAE1;opacity:1;stroke-width:0.577;" x1="263" x2="3036" y1="1126" y2="1126"/><line id="Capline-M" style="fill:none;stroke:#27AAE1;opacity:1;stroke-width:0.577;" x1="263" x2="3036" y1="1055.54" y2="1055.54"/><g id="H-reference" style="fill:#27AAE1;stroke:none;" transform="matrix(1 0 0 1 339 1556)"><path d="M 54.9316 0 L 57.666 0 L 30.5664 -70.459 L 28.0762 -70.459 L 0.976562 0 L 3.66211 0 L 12.9395 -24.4629 L 45.7031 -24.4629 Z M 29.1992 -67.0898 L 29.4434 -67.0898 L 44.8242 -26.709 L 13.8184 -26.709 Z"/></g><line id="Baseline-L" style="fill:none;stroke:#27AAE1;opacity:1;stroke-width:0.577;" x1="263" x2="3036" y1="1556" y2="1556"/><line id="Capline-L" style="fill:none;stroke:#27AAE1;opacity:1;stroke-width:0.577;" x1="263" x2="3036" y1="1485.54" y2="1485.54"/><rect height="119.336" id="left-margin" style="fill:darkred;stroke:none;opacity:0.4;" width="12.4512" x="1394.06" y="1030.79"/><rect height="119.336" id="right-margin" style="fill:darkgreen;stroke:none;opacity:0.4;" width="12.4512" x="1502.5112" y="1030.79"/><rect x="1406.5112" y="1045" width="96" height="96" fill="none" stroke="blue" stroke-dasharray="5"/><rect x="1394.06" y="1030.79" width="120.9024" height="119.336" fill="none" stroke="blue"/></g><g id="Symbols"><g id="Bold-L" transform="matrix(1 0 0 1 2266 1556)"><path d="M83.85000000000001 40.557500000000005 Q70.46625 40.557500000000005 62.081250000000004 29.91500000000002 Q53.69625 19.272500000000008 53.69625 5.08250000000001 Q53.69625 -8.946249999999992 62.081250000000004 -19.58874999999999 Q70.46625 -30.23124999999999 83.85000000000001 -30.23124999999999 Q97.23375 -30.23124999999999 105.61875 -19.58874999999999 Q114.00375000000001 -8.946249999999992 114.00375000000001 5.08250000000001 Q114.00375000000001 19.272500000000008 105.61875 29.91500000000002 Q97.23375 40.557500000000005 83.85000000000001 40.557500000000005 Z M20.962500000000002 32.97874999999999  7.57875 28.463750000000005 Q12.254999999999999 12.822500000000005 14.67375 -2.9799999999999898 Q17.0925 -18.782499999999985 17.0925 -35.22999999999999 Q17.0925 -51.677499999999995 14.67375 -67.56062499999999 Q12.254999999999999 -83.44375 7.57875 -99.085 L20.962500000000002 -103.6 Q25.8 -86.99125 28.460624999999997 -69.89874999999999 Q31.121250000000003 -52.80624999999999 31.121250000000003 -35.22999999999999 Q31.121250000000003 -17.814999999999998 28.460624999999997 -0.7224999999999824 Q25.8 16.370000000000005 20.962500000000002 32.97874999999999 Z M133.8375 32.97874999999999 Q129.0 16.370000000000005 126.33937499999999 -0.7224999999999824 Q123.67875000000001 -17.814999999999998 123.67875000000001 -35.22999999999999 Q123.67875000000001 -52.80624999999999 126.33937499999999 -69.89874999999999 Q129.0 -86.99125 133.8375 -103.6 L147.22125 -99.085 Q142.54500000000002 -83.44375 140.12625 -67.56062499999999 Q137.7075 -51.677499999999995 137.7075 -35.22999999999999 Q137.7075 -18.782499999999985 140.12625 -2.9799999999999898 Q142.54500000000002 12.822500000000005 147.22125 28.463750000000005 L133.8375 32.97874999999999 Z M78.045 17.659999999999997 Q79.81875000000001 19.272500000000008 82.2375 19.272500000000008 Q84.65625 19.272500000000008 86.43 17.49875 Q89.01 15.080000000000013 90.3 11.855000000000018 Q91.59 8.63000000000001 91.59 5.08250000000001 Q91.59 1.6962500000000205 90.3 -1.4481249999999903 Q89.01 -4.592499999999987 86.59125 -7.172499999999985 Q84.97875 -8.946249999999992 82.479375 -8.946249999999992 Q79.98 -8.946249999999992 78.20625 -7.333749999999995 Q76.27125 -5.559999999999988 76.190625 -3.0606249999999875 Q76.11000000000001 -0.5612499999999869 77.88374999999999 1.3737500000000153 Q78.3675 1.8575000000000017 78.931875 2.905625000000015 Q79.49625 3.9537499999999994 79.49625 5.08250000000001 Q79.49625 6.372500000000002 78.931875 7.501250000000013 Q78.3675 8.63000000000001 77.88374999999999 9.11375000000001 Q76.11000000000001 10.887500000000003 76.11000000000001 13.386875000000018 Q76.11000000000001 15.886250000000018 78.045 17.659999999999997 Z M70.95 -40.22874999999999 Q57.566250000000004 -40.22874999999999 49.18125 -50.871249999999996 Q40.79625 -61.513749999999995 40.79625 -75.70375 Q40.79625 -89.73249999999999 49.18125 -100.375 Q57.566250000000004 -111.0175 70.95 -111.0175 Q84.33375 -111.0175 92.71875 -100.375 Q101.10375 -89.73249999999999 101.10375 -75.70375 Q101.10375 -61.513749999999995 92.71875 -50.871249999999996 Q84.33375 -40.22874999999999 70.95 -40.22874999999999 Z M76.59375 -63.12624999999999 Q78.52875 -64.89999999999999 78.609375 -67.39937499999999 Q78.69 -69.89874999999999 76.91625 -71.83375 Q76.27125 -72.63999999999999 75.86812499999999 -73.60749999999999 Q75.465 -74.57499999999999 75.465 -75.70375 Q75.465 -76.67124999999999 75.86812499999999 -77.719375 Q76.27125 -78.76749999999998 76.91625 -79.57374999999999 Q78.69 -81.3475 78.69 -83.846875 Q78.69 -86.34625 76.75500000000001 -88.12 Q74.98125 -89.73249999999999 72.5625 -89.73249999999999 Q70.14375 -89.73249999999999 68.37 -87.95875 Q65.78999999999999 -85.37875 64.580625 -82.234375 Q63.371249999999996 -79.09 63.371249999999996 -75.70375 Q63.371249999999996 -72.15625 64.5 -69.011875 Q65.62875000000001 -65.86749999999999 68.20875 -63.287499999999994 Q69.9825 -61.513749999999995 72.40125 -61.513749999999995 Q74.82 -61.513749999999995 76.59375 -63.12624999999999 Z"/></g><g id="Semibold-L" transform="matrix(1 0 0 1 1970.27 1556)"><path d="M83.85000000000001 38.46125000000001 Q71.11125 38.46125000000001 63.371249999999996 28.141250000000014 Q55.63125 17.82125000000002 55.63125 4.4375 Q55.63125 -8.946249999999992 63.371249999999996 -19.26625 Q71.11125 -29.586249999999993 83.85000000000001 -29.586249999999993 Q96.58875 -29.586249999999993 104.32875000000001 -19.26625 Q112.06875000000001 -8.946249999999992 112.06875000000001 4.4375 Q112.06875000000001 17.82125000000002 104.32875000000001 28.141250000000014 Q96.58875 38.46125000000001 83.85000000000001 38.46125000000001 Z M23.220000000000002 31.849999999999994  11.610000000000001 27.980000000000018 Q16.28625 12.338750000000005 18.54375 -3.302499999999995 Q20.80125 -18.943749999999994 20.80125 -35.22999999999999 Q20.80125 -51.51625 18.54375 -67.238125 Q16.28625 -82.96 11.610000000000001 -98.60125 L23.220000000000002 -102.47125 Q27.896250000000002 -86.02374999999999 30.47625 -69.25375 Q33.05625 -52.48375 33.05625 -35.22999999999999 Q33.05625 -18.13749999999999 30.47625 -1.3674999999999926 Q27.896250000000002 15.402500000000003 23.220000000000002 31.849999999999994 Z M131.57999999999998 31.849999999999994 Q126.90375 15.402500000000003 124.32374999999999 -1.3674999999999926 Q121.74375 -18.13749999999999 121.74375 -35.22999999999999 Q121.74375 -52.48375 124.32374999999999 -69.25375 Q126.90375 -86.02374999999999 131.57999999999998 -102.47125 L143.19 -98.60125 Q138.51375000000002 -82.96 136.25625 -67.238125 Q133.99875 -51.51625 133.99875 -35.22999999999999 Q133.99875 -18.943749999999994 136.25625 -3.302499999999995 Q138.51375000000002 12.338750000000005 143.19 27.980000000000018 L131.57999999999998 31.849999999999994 Z M78.3675 16.53125 Q79.98 17.982500000000016 82.2375 17.982500000000016 Q84.495 17.982500000000016 86.1075 16.370000000000005 Q88.52625 14.112499999999997 89.81625000000001 10.968125000000015 Q91.10625 7.823750000000018 91.10625 4.4375 Q91.10625 1.0512500000000102 89.81625000000001 -2.012500000000003 Q88.52625 -5.0762499999999875 86.26875 -7.49499999999999 Q84.81750000000001 -9.107499999999987 82.479375 -9.107499999999987 Q80.14125000000001 -9.107499999999987 78.52875 -7.65625 Q76.75500000000001 -6.043750000000003 76.674375 -3.7862499999999955 Q76.59375 -1.528749999999988 78.20625 0.24500000000000455 Q78.52875 0.5675000000000097 79.254375 1.6962500000000205 Q79.98 2.825000000000003 79.98 4.4375 Q79.98 5.888750000000002 79.254375 7.178750000000008 Q78.52875 8.46875 78.20625 8.63000000000001 Q76.59375 10.403750000000002 76.59375 12.66125000000001 Q76.59375 14.918750000000003 78.3675 16.53125 Z M70.95 -40.87374999999999 Q58.21125000000001 -40.87374999999999 50.471250000000005 -51.193749999999994 Q42.73125 -61.513749999999995 42.73125 -74.8975 Q42.73125 -88.28125 50.471250000000005 -98.60125 Q58.21125000000001 -108.92125 70.95 -108.92125 Q83.68875 -108.92125 91.42875000000001 -98.60125 Q99.16875 -88.28125 99.16875 -74.8975 Q99.16875 -61.513749999999995 91.42875000000001 -51.193749999999994 Q83.68875 -40.87374999999999 70.95 -40.87374999999999 Z M76.27125 -62.803749999999994 Q78.045 -64.41624999999999 78.12562500000001 -66.67374999999998 Q78.20625 -68.93124999999999 76.59375 -70.70499999999998 Q75.78750000000001 -71.51124999999999 75.384375 -72.63999999999999 Q74.98125 -73.76874999999998 74.98125 -74.8975 Q74.98125 -76.02625 75.384375 -77.155 Q75.78750000000001 -78.28375 76.59375 -79.09 Q78.20625 -80.86375 78.20625 -83.12124999999999 Q78.20625 -85.37875 76.4325 -86.99125 Q74.82 -88.4425 72.5625 -88.4425 Q70.305 -88.4425 68.69250000000001 -86.83 Q66.27375 -84.41125 65.064375 -81.3475 Q63.855000000000004 -78.28375 63.855000000000004 -74.8975 Q63.855000000000004 -71.51124999999999 64.98375 -68.44749999999999 Q66.1125 -65.38374999999999 68.53125 -62.964999999999996 Q70.14375 -61.35249999999999 72.40125 -61.35249999999999 Q74.65875 -61.35249999999999 76.27125 -62.803749999999994 Z"/></g><g id="Medium-L" transform="matrix(1 0 0 1 1674.31 1556)"><path d="M83.85000000000001 36.848750000000024 Q71.75625000000001 36.848750000000024 64.419375 26.85125000000002 Q57.082499999999996 16.85374999999999 57.082499999999996 3.9537499999999994 Q57.082499999999996 -9.107499999999987 64.419375 -19.10499999999999 Q71.75625000000001 -29.102499999999992 83.85000000000001 -29.102499999999992 Q95.94375000000001 -29.102499999999992 103.280625 -19.10499999999999 Q110.61749999999999 -9.107499999999987 110.61749999999999 3.9537499999999994 Q110.61749999999999 16.85374999999999 103.280625 26.85125000000002 Q95.94375000000001 36.848750000000024 83.85000000000001 36.848750000000024 Z M24.8325 30.88250000000002  14.67375 27.496250000000003 Q19.188750000000002 12.01625 21.446250000000003 -3.544374999999988 Q23.70375 -19.10499999999999 23.70375 -35.22999999999999 Q23.70375 -51.355 21.446250000000003 -66.99625 Q19.188750000000002 -82.63749999999999 14.67375 -98.11749999999999 L24.8325 -101.50375 Q29.669999999999998 -85.2175 32.08875 -68.68937499999998 Q34.5075 -52.161249999999995 34.5075 -35.22999999999999 Q34.5075 -18.459999999999994 32.08875 -1.9318749999999767 Q29.669999999999998 14.596250000000012 24.8325 30.88250000000002 Z M129.9675 30.88250000000002 Q125.13 14.596250000000012 122.71124999999999 -1.9318749999999767 Q120.29249999999999 -18.459999999999994 120.29249999999999 -35.22999999999999 Q120.29249999999999 -52.161249999999995 122.71124999999999 -68.68937499999998 Q125.13 -85.2175 129.9675 -101.50375 L140.12625 -98.11749999999999 Q135.61124999999998 -82.63749999999999 133.35375000000002 -66.99625 Q131.09625 -51.355 131.09625 -35.22999999999999 Q131.09625 -19.10499999999999 133.35375000000002 -3.544374999999988 Q135.61124999999998 12.01625 140.12625 27.496250000000003 L129.9675 30.88250000000002 Z M78.69 15.724999999999994 Q80.14125000000001 17.015000000000015 82.2375 17.015000000000015 Q84.33375 17.015000000000015 85.78500000000001 15.563749999999999 Q88.20375000000001 13.306250000000006 89.41312500000001 10.242500000000007 Q90.6225 7.178750000000008 90.6225 3.9537499999999994 Q90.6225 0.5675000000000097 89.41312500000001 -2.4156250000000057 Q88.20375000000001 -5.398749999999993 85.94624999999999 -7.8174999999999955 Q84.65625 -9.268749999999997 82.479375 -9.268749999999997 Q80.3025 -9.268749999999997 78.85125 -7.978749999999977 Q77.23875 -6.527500000000003 77.158125 -4.3506249999999795 Q77.0775 -2.1737499999999983 78.52875 -0.5612499999999869 Q78.69 -0.4000000000000057 79.49625 0.8900000000000148 Q80.3025 2.180000000000007 80.3025 3.792500000000018 Q80.3025 5.566249999999997 79.49625 6.936875000000015 Q78.69 8.307500000000005 78.52875 8.307500000000005 Q76.91625 9.920000000000002 76.996875 12.096874999999997 Q77.0775 14.273750000000007 78.69 15.724999999999994 Z M70.95 -41.35749999999999 Q58.85625 -41.35749999999999 51.519375000000004 -51.355 Q44.1825 -61.35249999999999 44.1825 -74.41375 Q44.1825 -87.31375 51.519375000000004 -97.31125 Q58.85625 -107.30874999999999 70.95 -107.30874999999999 Q83.04375 -107.30874999999999 90.380625 -97.31125 Q97.7175 -87.31375 97.7175 -74.41375 Q97.7175 -61.35249999999999 90.380625 -51.355 Q83.04375 -41.35749999999999 70.95 -41.35749999999999 Z M75.94875 -62.48124999999999 Q77.56125 -63.9325 77.641875 -66.109375 Q77.72250000000001 -68.28625 76.27125 -69.89874999999999 Q75.465 -70.86625 74.98125 -71.995 Q74.4975 -73.12375 74.4975 -74.41375 Q74.4975 -75.54249999999999 74.98125 -76.75187499999998 Q75.465 -77.96124999999999 76.27125 -78.76749999999998 Q77.72250000000001 -80.38 77.72250000000001 -82.47625 Q77.72250000000001 -84.57249999999999 76.11000000000001 -86.185 Q74.65875 -87.475 72.5625 -87.475 Q70.46625 -87.475 69.015 -86.02374999999999 Q66.59625 -83.60499999999999 65.386875 -80.62187499999999 Q64.1775 -77.63874999999999 64.1775 -74.41375 Q64.1775 -71.0275 65.30625 -68.044375 Q66.435 -65.06125 68.85375 -62.64249999999999 Q70.305 -61.19125 72.40125 -61.19125 Q74.4975 -61.19125 75.94875 -62.48124999999999 Z"/></g><g id="Regular-L" transform="matrix(1 0 0 1 1378.56 1556)"><path d="M83.85000000000001 35.72 Q72.07875000000001 35.72 65.064375 25.88375000000002 Q58.050000000000004 16.047500000000014 58.050000000000004 3.470000000000013 Q58.050000000000004 -9.107499999999987 65.064375 -18.943749999999994 Q72.07875000000001 -28.779999999999987 83.85000000000001 -28.779999999999987 Q95.62125 -28.779999999999987 102.635625 -18.943749999999994 Q109.65 -9.107499999999987 109.65 3.470000000000013 Q109.65 16.047500000000014 102.635625 25.88375000000002 Q95.62125 35.72 83.85000000000001 35.72 Z M26.1225 30.23750000000001  16.931250000000002 27.173750000000013 Q21.446250000000003 11.855000000000018 23.623125 -3.7056249999999977 Q25.8 -19.26625 25.8 -35.22999999999999 Q25.8 -51.193749999999994 23.623125 -66.835 Q21.446250000000003 -82.47625 16.931250000000002 -97.795 L26.1225 -100.85875 Q30.798750000000002 -84.73374999999999 33.136875 -68.366875 Q35.475 -51.99999999999999 35.475 -35.22999999999999 Q35.475 -18.621250000000003 33.136875 -2.254374999999982 Q30.798750000000002 14.112499999999997 26.1225 30.23750000000001 Z M128.6775 30.23750000000001 Q124.00125000000001 14.112499999999997 121.66312500000001 -2.254374999999982 Q119.325 -18.621250000000003 119.325 -35.22999999999999 Q119.325 -51.99999999999999 121.66312500000001 -68.366875 Q124.00125000000001 -84.73374999999999 128.6775 -100.85875 L137.86875 -97.795 Q133.35375000000002 -82.47625 131.176875 -66.835 Q129.0 -51.193749999999994 129.0 -35.22999999999999 Q129.0 -19.26625 131.176875 -3.7056249999999977 Q133.35375000000002 11.855000000000018 137.86875 27.173750000000013 L128.6775 30.23750000000001 Z M78.85125 15.080000000000013 Q80.3025 16.370000000000005 82.2375 16.370000000000005 Q84.17250000000001 16.370000000000005 85.62375 14.918750000000003 Q87.88125000000001 12.66125000000001 89.090625 9.678124999999994 Q90.3 6.695000000000007 90.3 3.470000000000013 Q90.3 0.24500000000000455 89.17125 -2.7381249999999824 Q88.0425 -5.721249999999998 85.78500000000001 -7.978749999999977 Q84.495 -9.429999999999993 82.479375 -9.429999999999993 Q80.46375 -9.429999999999993 79.0125 -8.14 Q77.56125 -6.8500000000000085 77.480625 -4.753749999999982 Q77.4 -2.6574999999999847 78.69 -1.2062499999999972 Q78.69 -1.2062499999999972 79.6575 0.16437500000000682 Q80.625 1.5349999999999966 80.625 3.470000000000013 Q80.625 5.405000000000015 79.6575 6.775625000000005 Q78.69 8.146250000000023 78.69 8.146250000000023 Q77.23875 9.597499999999997 77.31937500000001 11.693749999999994 Q77.4 13.79000000000002 78.85125 15.080000000000013 Z M70.95 -41.67999999999999 Q59.17875000000001 -41.67999999999999 52.16437500000001 -51.51625 Q45.15 -61.35249999999999 45.15 -73.92999999999999 Q45.15 -86.5075 52.16437500000001 -96.34375 Q59.17875000000001 -106.17999999999999 70.95 -106.17999999999999 Q82.72125 -106.17999999999999 89.735625 -96.34375 Q96.75 -86.5075 96.75 -73.92999999999999 Q96.75 -61.35249999999999 89.735625 -51.51625 Q82.72125 -41.67999999999999 70.95 -41.67999999999999 Z M75.78750000000001 -62.31999999999999 Q77.23875 -63.61 77.31937500000001 -65.70624999999998 Q77.4 -67.8025 76.11000000000001 -69.25375 Q75.30375000000001 -70.22125 74.73937500000001 -71.43062499999999 Q74.175 -72.63999999999999 74.175 -73.92999999999999 Q74.175 -75.22 74.73937500000001 -76.429375 Q75.30375000000001 -77.63874999999999 76.11000000000001 -78.60624999999999 Q77.4 -80.0575 77.4 -82.073125 Q77.4 -84.08875 75.94875 -85.53999999999999 Q74.4975 -86.83 72.5625 -86.83 Q70.6275 -86.83 69.17625 -85.37875 Q66.91875 -83.12124999999999 65.70937500000001 -80.138125 Q64.5 -77.155 64.5 -73.92999999999999 Q64.5 -70.70499999999998 65.62875000000001 -67.72187499999998 Q66.7575 -64.73875 69.015 -62.48124999999999 Q70.46625 -61.029999999999994 72.40125 -61.029999999999994 Q74.33625 -61.029999999999994 75.78750000000001 -62.31999999999999 Z"/></g><g id="Light-L" transform="matrix(1 0 0 1 1082.77 1556)"><path d="M83.85000000000001 32.495000000000005 Q73.36875 32.495000000000005 67.321875 23.62625 Q61.275 14.757500000000007 61.275 3.470000000000013 Q61.275 -7.8174999999999955 67.321875 -16.686249999999987 Q73.36875 -25.554999999999993 83.85000000000001 -25.554999999999993 Q94.33125 -25.554999999999993 100.378125 -16.686249999999987 Q106.425 -7.8174999999999955 106.425 3.470000000000013 Q106.425 14.757500000000007 100.378125 23.62625 Q94.33125 32.495000000000005 83.85000000000001 32.495000000000005 Z M27.25125 28.463750000000005  20.478749999999998 26.20625000000001 Q24.8325 11.048750000000013 26.92875 -4.269999999999982 Q29.025000000000002 -19.58874999999999 29.025000000000002 -35.22999999999999 Q29.025000000000002 -50.871249999999996 26.92875 -66.270625 Q24.8325 -81.66999999999999 20.478749999999998 -96.66624999999999 L27.25125 -99.085 Q31.927500000000002 -83.44375 34.104375 -67.47999999999999 Q36.28125 -51.51625 36.28125 -35.22999999999999 Q36.28125 -19.10499999999999 34.104375 -3.141249999999985 Q31.927500000000002 12.822500000000005 27.25125 28.463750000000005 Z M127.3875 28.463750000000005 Q122.8725 12.822500000000005 120.69562499999999 -3.141249999999985 Q118.51875 -19.10499999999999 118.51875 -35.22999999999999 Q118.51875 -51.51625 120.69562499999999 -67.47999999999999 Q122.8725 -83.44375 127.3875 -99.085 L134.32125 -96.66624999999999 Q129.9675 -81.66999999999999 127.87125 -66.270625 Q125.775 -50.871249999999996 125.775 -35.22999999999999 Q125.775 -19.58874999999999 127.87125 -4.269999999999982 Q129.9675 11.048750000000013 134.32125 26.20625000000001 L127.3875 28.463750000000005 Z M79.49625 14.273750000000007 Q80.625 15.402500000000003 82.15687500000001 15.321875000000006 Q83.68875 15.241250000000008 84.97875 14.112499999999997 Q87.075 12.177500000000023 88.20375000000001 9.355625000000018 Q89.3325 6.533750000000012 89.3325 3.470000000000013 Q89.3325 0.40625 88.20375000000001 -2.3349999999999795 Q87.075 -5.0762499999999875 84.97875 -7.172499999999985 Q84.01125 -8.301249999999982 82.479375 -8.38187499999998 Q80.9475 -8.462500000000006 79.6575 -7.333749999999995 Q78.52875 -6.3662499999999795 78.448125 -4.753749999999982 Q78.3675 -3.141249999999985 79.49625 -1.8512499999999932 Q79.98 -1.3674999999999926 80.78625000000001 0.0837500000000233 Q81.5925 1.5349999999999966 81.5925 3.470000000000013 Q81.5925 5.405000000000015 80.78625000000001 6.856250000000003 Q79.98 8.307500000000005 79.49625 8.791250000000005 Q78.20625 10.081249999999997 78.286875 11.693749999999994 Q78.3675 13.306250000000006 79.49625 14.273750000000007 Z M70.95 -44.90499999999999 Q60.46875 -44.90499999999999 54.421875 -53.77374999999999 Q48.375 -62.64249999999999 48.375 -73.92999999999999 Q48.375 -85.2175 54.421875 -94.08624999999999 Q60.46875 -102.955 70.95 -102.955 Q81.43125 -102.955 87.478125 -94.08624999999999 Q93.525 -85.2175 93.525 -73.92999999999999 Q93.525 -62.64249999999999 87.478125 -53.77374999999999 Q81.43125 -44.90499999999999 70.95 -44.90499999999999 Z M75.1425 -63.12624999999999 Q76.27125 -64.09375 76.351875 -65.70624999999998 Q76.4325 -67.31875 75.30375000000001 -68.60874999999999 Q74.33625 -69.73749999999998 73.77187500000001 -71.108125 Q73.2075 -72.47874999999999 73.2075 -73.92999999999999 Q73.2075 -75.38125 73.77187500000001 -76.75187499999998 Q74.33625 -78.1225 75.30375000000001 -79.25125 Q76.4325 -80.54124999999999 76.4325 -82.073125 Q76.4325 -83.60499999999999 75.30375000000001 -84.73374999999999 Q74.175 -85.8625 72.5625 -85.8625 Q70.95 -85.8625 69.82124999999999 -84.73374999999999 Q67.72500000000001 -82.63749999999999 66.59625 -79.81562499999998 Q65.4675 -76.99374999999999 65.4675 -73.92999999999999 Q65.4675 -70.86625 66.515625 -68.125 Q67.56375 -65.38374999999999 69.82124999999999 -63.287499999999994 Q70.95 -62.15874999999999 72.481875 -62.07812499999999 Q74.01375 -61.997499999999995 75.1425 -63.12624999999999 Z"/></g><g id="Thin-L" transform="matrix(1 0 0 1 787.282 1556)"><path d="M83.85000000000001 29.27000000000001 Q74.82 29.27000000000001 69.66000000000001 21.368750000000006 Q64.5 13.467500000000015 64.5 3.470000000000013 Q64.5 -6.527500000000003 69.66000000000001 -14.428749999999994 Q74.82 -22.33 83.85000000000001 -22.33 Q92.88000000000001 -22.33 98.03999999999999 -14.428749999999994 Q103.2 -6.527500000000003 103.2 3.470000000000013 Q103.2 13.467500000000015 98.03999999999999 21.368750000000006 Q92.88000000000001 29.27000000000001 83.85000000000001 29.27000000000001 Z M28.541249999999998 26.690000000000026  23.865000000000002 25.23875000000001 Q28.21875 10.403750000000002 30.15375 -4.753749999999982 Q32.08875 -19.911249999999995 32.08875 -35.22999999999999 Q32.08875 -50.54874999999999 30.15375 -65.70624999999998 Q28.21875 -80.86375 23.865000000000002 -95.69874999999999 L28.541249999999998 -97.31125 Q32.894999999999996 -82.15375 34.99125 -66.59312499999999 Q37.0875 -51.03249999999999 37.0875 -35.22999999999999 Q37.0875 -19.427499999999995 34.99125 -3.866874999999993 Q32.894999999999996 11.693749999999994 28.541249999999998 26.690000000000026 Z M126.25874999999999 26.690000000000026 Q121.74375 11.693749999999994 119.64750000000001 -3.866874999999993 Q117.55125000000001 -19.427499999999995 117.55125000000001 -35.22999999999999 Q117.55125000000001 -51.03249999999999 119.64750000000001 -66.59312499999999 Q121.74375 -82.15375 126.25874999999999 -97.31125 L130.77375 -95.69874999999999 Q126.58125 -80.86375 124.565625 -65.70624999999998 Q122.55 -50.54874999999999 122.55 -35.22999999999999 Q122.55 -19.911249999999995 124.565625 -4.753749999999982 Q126.58125 10.403750000000002 130.77375 25.23875000000001 L126.25874999999999 26.690000000000026 Z M80.14125000000001 13.628749999999997 Q81.10875 14.435000000000002 82.2375 14.354375000000005 Q83.36625000000001 14.273750000000007 84.33375 13.467500000000015 Q86.26875 11.532500000000013 87.316875 8.952500000000015 Q88.365 6.372500000000002 88.365 3.470000000000013 Q88.365 0.5675000000000097 87.23625 -1.9318749999999767 Q86.1075 -4.431250000000006 84.33375 -6.527500000000003 Q83.5275 -7.333749999999995 82.39875 -7.414374999999993 Q81.27 -7.49499999999999 80.3025 -6.688749999999985 Q79.49625 -5.882499999999993 79.415625 -4.673124999999985 Q79.33500000000001 -3.4637499999999903 80.14125000000001 -2.4962500000000034 Q81.10875 -1.528749999999988 81.83437500000001 0.0837500000000233 Q82.56 1.6962500000000205 82.56 3.470000000000013 Q82.56 5.243750000000006 81.83437500000001 6.856250000000003 Q81.10875 8.46875 80.14125000000001 9.436250000000015 Q79.17375 10.403750000000002 79.254375 11.613124999999997 Q79.33500000000001 12.822500000000005 80.14125000000001 13.628749999999997 Z M70.95 -48.129999999999995 Q61.92 -48.129999999999995 56.760000000000005 -56.03124999999999 Q51.6 -63.9325 51.6 -73.92999999999999 Q51.6 -83.9275 56.760000000000005 -91.82875 Q61.92 -99.72999999999999 70.95 -99.72999999999999 Q79.98 -99.72999999999999 85.14 -91.82875 Q90.3 -83.9275 90.3 -73.92999999999999 Q90.3 -63.9325 85.14 -56.03124999999999 Q79.98 -48.129999999999995 70.95 -48.129999999999995 Z M74.4975 -63.771249999999995 Q75.30375000000001 -64.57749999999999 75.384375 -65.786875 Q75.465 -66.99625 74.65875 -67.96375 Q73.36875 -69.0925 72.804375 -70.70499999999998 Q72.24 -72.3175 72.24 -73.92999999999999 Q72.24 -75.54249999999999 72.804375 -77.155 Q73.36875 -78.76749999999998 74.65875 -79.89625 Q75.465 -80.86375 75.465 -81.99249999999999 Q75.465 -83.12124999999999 74.65875 -84.08875 Q73.69125000000001 -84.895 72.5625 -84.895 Q71.43375 -84.895 70.46625 -84.08875 Q68.53125 -81.99249999999999 67.483125 -79.4125 Q66.435 -76.8325 66.435 -73.92999999999999 Q66.435 -71.0275 67.483125 -68.52812499999999 Q68.53125 -66.02875 70.46625 -63.9325 Q71.27250000000001 -63.12624999999999 72.40125 -63.045624999999994 Q73.53 -62.964999999999996 74.4975 -63.771249999999995 Z"/></g><g id="Ultralight-L" transform="matrix(1 0 0 1 491.205 1556)"><path d="M83.85000000000001 27.335000000000008 Q75.62625 27.335000000000008 71.030625 19.998125000000016 Q66.435 12.66125000000001 66.435 3.470000000000013 Q66.435 -5.721249999999998 71.030625 -13.05812499999999 Q75.62625 -20.394999999999982 83.85000000000001 -20.394999999999982 Q92.07375 -20.394999999999982 96.669375 -13.05812499999999 Q101.265 -5.721249999999998 101.265 3.470000000000013 Q101.265 12.66125000000001 96.669375 19.998125000000016 Q92.07375 27.335000000000008 83.85000000000001 27.335000000000008 Z M29.186250000000005 25.722499999999997  25.961250000000003 24.59375 Q30.15375 9.920000000000002 32.08875 -5.0762499999999875 Q34.02375 -20.07249999999999 34.02375 -35.22999999999999 Q34.02375 -50.38749999999999 32.08875 -65.38374999999999 Q30.15375 -80.38 25.961250000000003 -95.05375 L29.186250000000005 -96.34375 Q33.54 -81.3475 35.555625 -66.02875 Q37.57125 -50.709999999999994 37.57125 -35.22999999999999 Q37.57125 -19.749999999999986 35.555625 -4.431250000000006 Q33.54 10.887500000000003 29.186250000000005 25.722499999999997 Z M125.4525 25.722499999999997 Q121.09875 10.887500000000003 119.083125 -4.431250000000006 Q117.0675 -19.749999999999986 117.0675 -35.22999999999999 Q117.0675 -50.709999999999994 119.083125 -66.02875 Q121.09875 -81.3475 125.4525 -96.34375 L128.6775 -95.05375 Q124.48500000000001 -80.38 122.55 -65.38374999999999 Q120.615 -50.38749999999999 120.615 -35.22999999999999 Q120.615 -20.07249999999999 122.55 -5.0762499999999875 Q124.48500000000001 9.920000000000002 128.6775 24.59375 L125.4525 25.722499999999997 Z M80.625 13.14500000000001 Q81.27 13.79000000000002 82.15687500000001 13.709374999999994 Q83.04375 13.628749999999997 83.85000000000001 12.983750000000015 Q85.78500000000001 11.210000000000008 86.7525 8.710625000000007 Q87.72 6.211250000000007 87.72 3.470000000000013 Q87.72 0.7287500000000051 86.671875 -1.6899999999999977 Q85.62375 -4.108750000000001 83.85000000000001 -6.043750000000003 Q83.205 -6.688749999999985 82.39875 -6.769374999999982 Q81.5925 -6.8500000000000085 80.78625000000001 -6.204999999999998 Q79.98 -5.559999999999988 79.98 -4.673124999999985 Q79.98 -3.7862499999999955 80.625 -2.9799999999999898 Q81.91499999999999 -1.6899999999999977 82.56 0.003124999999997158 Q83.205 1.6962500000000205 83.205 3.470000000000013 Q83.205 5.243750000000006 82.56 6.936875000000015 Q81.91499999999999 8.63000000000001 80.625 9.920000000000002 Q79.81875000000001 10.726250000000007 79.81875000000001 11.613124999999997 Q79.81875000000001 12.5 80.625 13.14500000000001 Z M70.95 -50.065 Q62.72625 -50.065 58.130624999999995 -57.401875 Q53.535000000000004 -64.73875 53.535000000000004 -73.92999999999999 Q53.535000000000004 -83.12124999999999 58.130624999999995 -90.458125 Q62.72625 -97.795 70.95 -97.795 Q79.17375 -97.795 83.76937500000001 -90.458125 Q88.365 -83.12124999999999 88.365 -73.92999999999999 Q88.365 -64.73875 83.76937500000001 -57.401875 Q79.17375 -50.065 70.95 -50.065 Z M74.01375 -64.255 Q74.82 -64.89999999999999 74.82 -65.786875 Q74.82 -66.67374999999998 74.175 -67.47999999999999 Q72.885 -68.77 72.24 -70.46312499999999 Q71.595 -72.15625 71.595 -73.92999999999999 Q71.595 -75.70375 72.24 -77.396875 Q72.885 -79.09 74.175 -80.38 Q74.98125 -81.18625 74.98125 -81.99249999999999 Q74.98125 -82.79875 74.175 -83.60499999999999 Q73.53 -84.25 72.5625 -84.25 Q71.595 -84.25 70.95 -83.60499999999999 Q69.015 -81.66999999999999 68.0475 -79.170625 Q67.08 -76.67124999999999 67.08 -73.92999999999999 Q67.08 -71.18875 68.0475 -68.77 Q69.015 -66.35125 70.95 -64.41624999999999 Q71.595 -63.771249999999995 72.481875 -63.69062499999999 Q73.36875 -63.61 74.01375 -64.255 Z"/></g><g id="Bold-M" transform="matrix(1 0 0 1 2281.8 1126)"><path d="M65.0 24.77000000000001 Q54.25 24.77000000000001 47.375 16.330000000000013 Q40.5 7.89500000000001 40.5 -3.4799999999999898 Q40.5 -14.85499999999999 47.375 -23.294999999999987 Q54.25 -31.72999999999999 65.0 -31.72999999999999 Q75.75 -31.72999999999999 82.625 -23.294999999999987 Q89.5 -14.85499999999999 89.5 -3.4799999999999898 Q89.5 7.89500000000001 82.625 16.330000000000013 Q75.75 24.77000000000001 65.0 24.77000000000001 Z M16.875 19.14500000000001  3.125 14.64500000000001 Q7.125 2.5200000000000102 9.06 -9.919999999999987 Q11.0 -22.35499999999999 11.0 -35.22999999999999 Q11.0 -48.10499999999999 9.06 -60.54499999999999 Q7.125 -72.97999999999999 3.125 -85.10499999999999 L16.875 -89.60499999999999 Q21.25 -76.35499999999999 23.375 -62.79499999999999 Q25.5 -49.22999999999999 25.5 -35.22999999999999 Q25.5 -21.22999999999999 23.375 -7.6699999999999875 Q21.25 5.89500000000001 16.875 19.14500000000001 Z M103.125 19.14500000000001 Q98.75 5.89500000000001 96.625 -7.6699999999999875 Q94.5 -21.22999999999999 94.5 -35.22999999999999 Q94.5 -49.22999999999999 96.625 -62.79499999999999 Q98.75 -76.35499999999999 103.125 -89.60499999999999 L116.875 -85.10499999999999 Q112.875 -72.97999999999999 110.94 -60.54499999999999 Q109.0 -48.10499999999999 109.0 -35.22999999999999 Q109.0 -22.35499999999999 110.94 -9.919999999999987 Q112.875 2.5200000000000102 116.875 14.64500000000001 L103.125 19.14500000000001 Z M60.25 6.39500000000001 Q61.75 7.77000000000001 63.75 7.7050000000000125 Q65.75 7.64500000000001 67.25 6.27000000000001 Q69.25 4.39500000000001 70.25 1.835000000000008 Q71.25 -0.7299999999999898 71.25 -3.4799999999999898 Q71.25 -6.22999999999999 70.25 -8.72999999999999 Q69.25 -11.22999999999999 67.375 -13.22999999999999 Q66.0 -14.72999999999999 63.94 -14.72999999999999 Q61.875 -14.72999999999999 60.375 -13.35499999999999 Q58.875 -11.97999999999999 58.81 -9.85499999999999 Q58.75 -7.72999999999999 60.125 -6.22999999999999 Q60.75 -5.60499999999999 61.0 -4.9199999999999875 Q61.25 -4.22999999999999 61.25 -3.4799999999999898 Q61.25 -2.7299999999999898 61.0 -1.9799999999999898 Q60.75 -1.2299999999999898 60.125 -0.6049999999999898 Q58.75 0.8950000000000102 58.75 2.960000000000022 Q58.75 5.02000000000001 60.25 6.39500000000001 Z M55.0 -38.72999999999999 Q44.25 -38.72999999999999 37.375 -47.16499999999999 Q30.5 -55.60499999999999 30.5 -66.97999999999999 Q30.5 -78.35499999999999 37.375 -86.78999999999999 Q44.25 -95.22999999999999 55.0 -95.22999999999999 Q65.75 -95.22999999999999 72.625 -86.78999999999999 Q79.5 -78.35499999999999 79.5 -66.97999999999999 Q79.5 -55.60499999999999 72.625 -47.16499999999999 Q65.75 -38.72999999999999 55.0 -38.72999999999999 Z M59.625 -57.10499999999999 Q61.125 -58.47999999999999 61.19 -60.60499999999999 Q61.25 -62.72999999999999 59.875 -64.22999999999999 Q59.25 -64.85499999999999 59.0 -65.53999999999999 Q58.75 -66.22999999999999 58.75 -66.97999999999999 Q58.75 -67.72999999999999 59.0 -68.47999999999999 Q59.25 -69.22999999999999 59.875 -69.85499999999999 Q61.25 -71.35499999999999 61.25 -73.41999999999999 Q61.25 -75.47999999999999 59.75 -76.85499999999999 Q58.25 -78.22999999999999 56.25 -78.22999999999999 Q54.25 -78.22999999999999 52.75 -76.72999999999999 Q50.75 -74.72999999999999 49.75 -72.22999999999999 Q48.75 -69.72999999999999 48.75 -66.97999999999999 Q48.75 -64.22999999999999 49.690000000000005 -61.72999999999999 Q50.625 -59.22999999999999 52.625 -57.22999999999999 Q54.0 -55.85499999999999 56.065 -55.794999999999995 Q58.125 -55.72999999999999 59.625 -57.10499999999999 Z"/></g><g id="Semibold-M" transform="matrix(1 0 0 1 1985.97 1126)"><path d="M65.0 22.64500000000001 Q55.0 22.64500000000001 48.75 14.52000000000001 Q42.5 6.39500000000001 42.5 -4.22999999999999 Q42.5 -14.85499999999999 48.75 -22.97999999999999 Q55.0 -31.10499999999999 65.0 -31.10499999999999 Q75.0 -31.10499999999999 81.25 -22.97999999999999 Q87.5 -14.85499999999999 87.5 -4.22999999999999 Q87.5 6.39500000000001 81.25 14.52000000000001 Q75.0 22.64500000000001 65.0 22.64500000000001 Z M19.25 17.89500000000001  7.25 14.02000000000001 Q11.25 2.1450000000000102 13.06 -10.22999999999999 Q14.875 -22.60499999999999 14.875 -35.22999999999999 Q14.875 -47.85499999999999 13.06 -60.22999999999999 Q11.25 -72.60499999999999 7.25 -84.47999999999999 L19.25 -88.35499999999999 Q23.5 -75.47999999999999 25.5 -62.16999999999999 Q27.5 -48.85499999999999 27.5 -35.22999999999999 Q27.5 -21.60499999999999 25.5 -8.294999999999987 Q23.5 5.02000000000001 19.25 17.89500000000001 Z M100.75 17.89500000000001 Q96.5 5.02000000000001 94.5 -8.294999999999987 Q92.5 -21.60499999999999 92.5 -35.22999999999999 Q92.5 -48.85499999999999 94.5 -62.16999999999999 Q96.5 -75.47999999999999 100.75 -88.35499999999999 L112.75 -84.47999999999999 Q108.75 -72.60499999999999 106.94000000000001 -60.22999999999999 Q105.125 -47.85499999999999 105.125 -35.22999999999999 Q105.125 -22.60499999999999 106.94000000000001 -10.22999999999999 Q108.75 2.1450000000000102 112.75 14.02000000000001 L100.75 17.89500000000001 Z M60.625 5.27000000000001 Q62.0 6.52000000000001 63.75 6.4550000000000125 Q65.5 6.39500000000001 66.875 5.14500000000001 Q68.75 3.2700000000000102 69.75 0.8300000000000125 Q70.75 -1.6049999999999898 70.75 -4.22999999999999 Q70.75 -6.85499999999999 69.815 -9.289999999999992 Q68.875 -11.72999999999999 67.0 -13.60499999999999 Q65.75 -14.97999999999999 63.94 -14.97999999999999 Q62.125 -14.97999999999999 60.75 -13.72999999999999 Q59.375 -12.47999999999999 59.315 -10.60499999999999 Q59.25 -8.72999999999999 60.5 -7.35499999999999 Q60.875 -6.97999999999999 61.315 -6.1699999999999875 Q61.75 -5.35499999999999 61.75 -4.22999999999999 Q61.75 -3.1049999999999898 61.315 -2.2299999999999898 Q60.875 -1.3549999999999898 60.5 -0.9799999999999898 Q59.25 0.27000000000001023 59.25 2.1450000000000102 Q59.25 4.02000000000001 60.625 5.27000000000001 Z M55.0 -39.35499999999999 Q45.0 -39.35499999999999 38.75 -47.47999999999999 Q32.5 -55.60499999999999 32.5 -66.22999999999999 Q32.5 -76.85499999999999 38.75 -84.97999999999999 Q45.0 -93.10499999999999 55.0 -93.10499999999999 Q65.0 -93.10499999999999 71.25 -84.97999999999999 Q77.5 -76.85499999999999 77.5 -66.22999999999999 Q77.5 -55.60499999999999 71.25 -47.47999999999999 Q65.0 -39.35499999999999 55.0 -39.35499999999999 Z M59.25 -56.72999999999999 Q60.625 -57.97999999999999 60.685 -59.85499999999999 Q60.75 -61.72999999999999 59.5 -63.10499999999999 Q58.875 -63.72999999999999 58.565 -64.54499999999999 Q58.25 -65.35499999999999 58.25 -66.22999999999999 Q58.25 -67.10499999999999 58.565 -67.91499999999999 Q58.875 -68.72999999999999 59.5 -69.47999999999999 Q60.75 -70.72999999999999 60.75 -72.60499999999999 Q60.75 -74.47999999999999 59.375 -75.72999999999999 Q58.0 -76.97999999999999 56.25 -76.97999999999999 Q54.5 -76.97999999999999 53.125 -75.60499999999999 Q51.25 -73.72999999999999 50.25 -71.29499999999999 Q49.25 -68.85499999999999 49.25 -66.22999999999999 Q49.25 -63.60499999999999 50.19 -61.16999999999999 Q51.125 -58.72999999999999 53.0 -56.85499999999999 Q54.25 -55.60499999999999 56.065 -55.53999999999999 Q57.875 -55.47999999999999 59.25 -56.72999999999999 Z"/></g><g id="Medium-M" transform="matrix(1 0 0 1 1689.91 1126)"><path d="M65.0 21.02000000000001 Q55.5 21.02000000000001 49.690000000000005 13.14500000000001 Q43.875 5.27000000000001 43.875 -4.85499999999999 Q43.875 -14.97999999999999 49.690000000000005 -22.789999999999992 Q55.5 -30.60499999999999 65.0 -30.60499999999999 Q74.5 -30.60499999999999 80.31 -22.789999999999992 Q86.125 -14.97999999999999 86.125 -4.85499999999999 Q86.125 5.27000000000001 80.31 13.14500000000001 Q74.5 21.02000000000001 65.0 21.02000000000001 Z M21.0 17.02000000000001  10.5 13.64500000000001 Q14.375 1.7700000000000102 16.125 -10.47999999999999 Q17.875 -22.72999999999999 17.875 -35.22999999999999 Q17.875 -47.72999999999999 16.125 -59.97999999999999 Q14.375 -72.22999999999999 10.5 -84.10499999999999 L21.0 -87.47999999999999 Q25.125 -74.72999999999999 27.0 -61.66999999999999 Q28.875 -48.60499999999999 28.875 -35.22999999999999 Q28.875 -21.85499999999999 27.0 -8.794999999999987 Q25.125 4.27000000000001 21.0 17.02000000000001 Z M99.0 17.02000000000001 Q94.875 4.27000000000001 93.0 -8.794999999999987 Q91.125 -21.85499999999999 91.125 -35.22999999999999 Q91.125 -48.60499999999999 93.0 -61.66999999999999 Q94.875 -74.72999999999999 99.0 -87.47999999999999 L109.5 -84.10499999999999 Q105.625 -72.22999999999999 103.875 -59.97999999999999 Q102.125 -47.72999999999999 102.125 -35.22999999999999 Q102.125 -22.72999999999999 103.875 -10.47999999999999 Q105.625 1.7700000000000102 109.5 13.64500000000001 L99.0 17.02000000000001 Z M60.875 4.39500000000001 Q62.125 5.52000000000001 63.75 5.52000000000001 Q65.375 5.52000000000001 66.625 4.27000000000001 Q68.375 2.5200000000000102 69.315 0.14500000000001023 Q70.25 -2.2299999999999898 70.25 -4.85499999999999 Q70.25 -7.35499999999999 69.375 -9.72999999999999 Q68.5 -12.10499999999999 66.75 -13.85499999999999 Q65.625 -15.10499999999999 63.94 -15.10499999999999 Q62.25 -15.10499999999999 61.0 -13.97999999999999 Q59.875 -12.97999999999999 59.815 -11.22999999999999 Q59.75 -9.47999999999999 60.75 -8.22999999999999 Q61.0 -8.10499999999999 61.625 -7.10499999999999 Q62.25 -6.10499999999999 62.25 -4.85499999999999 Q62.25 -3.4799999999999898 61.625 -2.4799999999999898 Q61.0 -1.4799999999999898 60.75 -1.3549999999999898 Q59.625 -0.10499999999998977 59.690000000000005 1.5799999999999983 Q59.75 3.2700000000000102 60.875 4.39500000000001 Z M55.0 -39.85499999999999 Q45.5 -39.85499999999999 39.69 -47.66999999999999 Q33.875 -55.47999999999999 33.875 -65.60499999999999 Q33.875 -75.72999999999999 39.69 -83.60499999999999 Q45.5 -91.47999999999999 55.0 -91.47999999999999 Q64.5 -91.47999999999999 70.31 -83.60499999999999 Q76.125 -75.72999999999999 76.125 -65.60499999999999 Q76.125 -55.47999999999999 70.31 -47.66999999999999 Q64.5 -39.85499999999999 55.0 -39.85499999999999 Z M59.0 -56.47999999999999 Q60.125 -57.47999999999999 60.19 -59.22999999999999 Q60.25 -60.97999999999999 59.25 -62.22999999999999 Q58.625 -62.97999999999999 58.19 -63.85499999999999 Q57.75 -64.72999999999999 57.75 -65.60499999999999 Q57.75 -66.60499999999999 58.19 -67.47999999999999 Q58.625 -68.35499999999999 59.25 -69.10499999999999 Q60.25 -70.35499999999999 60.25 -72.04499999999999 Q60.25 -73.72999999999999 59.125 -74.85499999999999 Q57.875 -75.97999999999999 56.25 -75.97999999999999 Q54.625 -75.97999999999999 53.375 -74.72999999999999 Q51.625 -72.97999999999999 50.69 -70.60499999999999 Q49.75 -68.22999999999999 49.75 -65.60499999999999 Q49.75 -63.10499999999999 50.625 -60.72999999999999 Q51.5 -58.35499999999999 53.25 -56.60499999999999 Q54.5 -55.35499999999999 56.125 -55.35499999999999 Q57.75 -55.35499999999999 59.0 -56.47999999999999 Z"/></g><g id="Regular-M" transform="matrix(1 0 0 1 1394.06 1126)"><path d="M65.0 19.77000000000001 Q55.875 19.77000000000001 50.44 12.14500000000001 Q45.0 4.52000000000001 45.0 -5.22999999999999 Q45.0 -14.97999999999999 50.44 -22.60499999999999 Q55.875 -30.22999999999999 65.0 -30.22999999999999 Q74.125 -30.22999999999999 79.565 -22.60499999999999 Q85.0 -14.97999999999999 85.0 -5.22999999999999 Q85.0 4.52000000000001 79.565 12.14500000000001 Q74.125 19.77000000000001 65.0 19.77000000000001 Z M22.25 16.27000000000001  12.75 13.27000000000001 Q16.625 1.5200000000000102 18.314999999999998 -10.664999999999992 Q20.0 -22.85499999999999 20.0 -35.22999999999999 Q20.0 -47.60499999999999 18.314999999999998 -59.79499999999999 Q16.625 -71.97999999999999 12.75 -83.72999999999999 L22.25 -86.72999999999999 Q26.375 -74.22999999999999 28.189999999999998 -61.35499999999999 Q30.0 -48.47999999999999 30.0 -35.22999999999999 Q30.0 -21.97999999999999 28.189999999999998 -9.10499999999999 Q26.375 3.7700000000000102 22.25 16.27000000000001 Z M97.75 16.27000000000001 Q93.625 3.7700000000000102 91.815 -9.10499999999999 Q90.0 -21.97999999999999 90.0 -35.22999999999999 Q90.0 -48.47999999999999 91.815 -61.35499999999999 Q93.625 -74.22999999999999 97.75 -86.72999999999999 L107.25 -83.72999999999999 Q103.375 -71.97999999999999 101.685 -59.79499999999999 Q100.0 -47.60499999999999 100.0 -35.22999999999999 Q100.0 -22.85499999999999 101.685 -10.664999999999992 Q103.375 1.5200000000000102 107.25 13.27000000000001 L97.75 16.27000000000001 Z M61.125 3.7700000000000102 Q62.25 4.77000000000001 63.75 4.77000000000001 Q65.25 4.77000000000001 66.375 3.6450000000000102 Q68.125 1.8950000000000102 69.06 -0.4199999999999875 Q70.0 -2.7299999999999898 70.0 -5.22999999999999 Q70.0 -7.72999999999999 69.125 -10.039999999999992 Q68.25 -12.35499999999999 66.5 -14.10499999999999 Q65.5 -15.22999999999999 63.94 -15.22999999999999 Q62.375 -15.22999999999999 61.25 -14.22999999999999 Q60.125 -13.22999999999999 60.06 -11.60499999999999 Q60.0 -9.97999999999999 61.0 -8.85499999999999 Q61.0 -8.85499999999999 61.75 -7.795000000000002 Q62.5 -6.72999999999999 62.5 -5.22999999999999 Q62.5 -3.7299999999999898 61.75 -2.664999999999978 Q61.0 -1.6049999999999898 61.0 -1.6049999999999898 Q59.875 -0.47999999999998977 59.94 1.1450000000000102 Q60.0 2.7700000000000102 61.125 3.7700000000000102 Z M55.0 -40.22999999999999 Q45.875 -40.22999999999999 40.44 -47.85499999999999 Q35.0 -55.47999999999999 35.0 -65.22999999999999 Q35.0 -74.97999999999999 40.44 -82.60499999999999 Q45.875 -90.22999999999999 55.0 -90.22999999999999 Q64.125 -90.22999999999999 69.565 -82.60499999999999 Q75.0 -74.97999999999999 75.0 -65.22999999999999 Q75.0 -55.47999999999999 69.565 -47.85499999999999 Q64.125 -40.22999999999999 55.0 -40.22999999999999 Z M58.75 -56.22999999999999 Q59.875 -57.22999999999999 59.94 -58.85499999999999 Q60.0 -60.47999999999999 59.0 -61.60499999999999 Q58.375 -62.35499999999999 57.94 -63.29499999999999 Q57.5 -64.22999999999999 57.5 -65.22999999999999 Q57.5 -66.22999999999999 57.94 -67.16499999999999 Q58.375 -68.10499999999999 59.0 -68.85499999999999 Q60.0 -69.97999999999999 60.0 -71.54499999999999 Q60.0 -73.10499999999999 58.875 -74.22999999999999 Q57.75 -75.22999999999999 56.25 -75.22999999999999 Q54.75 -75.22999999999999 53.625 -74.10499999999999 Q51.875 -72.35499999999999 50.940000000000005 -70.04499999999999 Q50.0 -67.72999999999999 50.0 -65.22999999999999 Q50.0 -62.72999999999999 50.875 -60.41499999999999 Q51.75 -58.10499999999999 53.5 -56.35499999999999 Q54.625 -55.22999999999999 56.125 -55.22999999999999 Q57.625 -55.22999999999999 58.75 -56.22999999999999 Z"/></g><g id="Light-M" transform="matrix(1 0 0 1 1098.18 1126)"><path d="M65.0 17.27000000000001 Q56.875 17.27000000000001 52.190000000000005 10.39500000000001 Q47.5 3.5200000000000102 47.5 -5.22999999999999 Q47.5 -13.97999999999999 52.190000000000005 -20.85499999999999 Q56.875 -27.72999999999999 65.0 -27.72999999999999 Q73.125 -27.72999999999999 77.81 -20.85499999999999 Q82.5 -13.97999999999999 82.5 -5.22999999999999 Q82.5 3.5200000000000102 77.81 10.39500000000001 Q73.125 17.27000000000001 65.0 17.27000000000001 Z M22.625 14.77000000000001  15.5 12.39500000000001 Q19.25 0.8950000000000102 20.875 -11.10499999999999 Q22.5 -23.10499999999999 22.5 -35.22999999999999 Q22.5 -47.35499999999999 20.875 -59.35499999999999 Q19.25 -71.35499999999999 15.5 -82.85499999999999 L22.625 -85.22999999999999 Q26.5 -72.97999999999999 28.25 -60.54499999999999 Q30.0 -48.10499999999999 30.0 -35.22999999999999 Q30.0 -22.35499999999999 28.25 -9.919999999999987 Q26.5 2.5200000000000102 22.625 14.77000000000001 Z M97.375 14.77000000000001 Q93.375 2.5200000000000102 91.685 -9.919999999999987 Q90.0 -22.35499999999999 90.0 -35.22999999999999 Q90.0 -48.10499999999999 91.685 -60.54499999999999 Q93.375 -72.97999999999999 97.375 -85.22999999999999 L104.375 -82.85499999999999 Q100.75 -71.35499999999999 99.125 -59.35499999999999 Q97.5 -47.35499999999999 97.5 -35.22999999999999 Q97.5 -23.10499999999999 99.125 -11.10499999999999 Q100.75 0.8950000000000102 104.375 12.39500000000001 L97.375 14.77000000000001 Z M61.625 3.1450000000000102 Q62.5 4.02000000000001 63.69 3.9550000000000125 Q64.875 3.8950000000000102 65.875 3.0200000000000102 Q67.5 1.5200000000000102 68.375 -0.664999999999992 Q69.25 -2.8549999999999898 69.25 -5.22999999999999 Q69.25 -7.60499999999999 68.375 -9.72999999999999 Q67.5 -11.85499999999999 65.875 -13.47999999999999 Q65.125 -14.35499999999999 63.94 -14.414999999999992 Q62.75 -14.47999999999999 61.75 -13.60499999999999 Q60.875 -12.85499999999999 60.815 -11.60499999999999 Q60.75 -10.35499999999999 61.625 -9.35499999999999 Q62.0 -8.97999999999999 62.625 -7.85499999999999 Q63.25 -6.72999999999999 63.25 -5.22999999999999 Q63.25 -3.7299999999999898 62.625 -2.6049999999999898 Q62.0 -1.4799999999999898 61.625 -1.1049999999999898 Q60.625 -0.10499999999998977 60.685 1.1450000000000102 Q60.75 2.3950000000000102 61.625 3.1450000000000102 Z M55.0 -42.72999999999999 Q46.875 -42.72999999999999 42.190000000000005 -49.60499999999999 Q37.5 -56.47999999999999 37.5 -65.22999999999999 Q37.5 -73.97999999999999 42.190000000000005 -80.85499999999999 Q46.875 -87.72999999999999 55.0 -87.72999999999999 Q63.125 -87.72999999999999 67.81 -80.85499999999999 Q72.5 -73.97999999999999 72.5 -65.22999999999999 Q72.5 -56.47999999999999 67.81 -49.60499999999999 Q63.125 -42.72999999999999 55.0 -42.72999999999999 Z M58.25 -56.85499999999999 Q59.125 -57.60499999999999 59.19 -58.85499999999999 Q59.25 -60.10499999999999 58.375 -61.10499999999999 Q57.625 -61.97999999999999 57.190000000000005 -63.04499999999999 Q56.75 -64.10499999999999 56.75 -65.22999999999999 Q56.75 -66.35499999999999 57.190000000000005 -67.41999999999999 Q57.625 -68.47999999999999 58.375 -69.35499999999999 Q59.25 -70.35499999999999 59.25 -71.54499999999999 Q59.25 -72.72999999999999 58.375 -73.60499999999999 Q57.5 -74.47999999999999 56.25 -74.47999999999999 Q55.0 -74.47999999999999 54.125 -73.60499999999999 Q52.5 -71.97999999999999 51.625 -69.79499999999999 Q50.75 -67.60499999999999 50.75 -65.22999999999999 Q50.75 -62.85499999999999 51.559999999999995 -60.72999999999999 Q52.375 -58.60499999999999 54.125 -56.97999999999999 Q55.0 -56.10499999999999 56.19 -56.04499999999999 Q57.375 -55.97999999999999 58.25 -56.85499999999999 Z"/></g><g id="Thin-M" transform="matrix(1 0 0 1 802.565 1126)"><path d="M65.0 14.77000000000001 Q58.0 14.77000000000001 54.0 8.64500000000001 Q50.0 2.5200000000000102 50.0 -5.22999999999999 Q50.0 -12.97999999999999 54.0 -19.10499999999999 Q58.0 -25.22999999999999 65.0 -25.22999999999999 Q72.0 -25.22999999999999 76.0 -19.10499999999999 Q80.0 -12.97999999999999 80.0 -5.22999999999999 Q80.0 2.5200000000000102 76.0 8.64500000000001 Q72.0 14.77000000000001 65.0 14.77000000000001 Z M23.0 13.14500000000001  18.375 11.64500000000001 Q21.875 0.14500000000001023 23.375 -11.60499999999999 Q24.875 -23.35499999999999 24.875 -35.22999999999999 Q24.875 -47.10499999999999 23.375 -58.85499999999999 Q21.875 -70.60499999999999 18.375 -82.10499999999999 L23.0 -83.60499999999999 Q26.625 -71.85499999999999 28.25 -59.72999999999999 Q29.875 -47.60499999999999 29.875 -35.22999999999999 Q29.875 -22.85499999999999 28.25 -10.72999999999999 Q26.625 1.3950000000000102 23.0 13.14500000000001 Z M96.875 13.14500000000001 Q93.25 1.3950000000000102 91.625 -10.72999999999999 Q90.0 -22.85499999999999 90.0 -35.22999999999999 Q90.0 -47.60499999999999 91.625 -59.72999999999999 Q93.25 -71.85499999999999 96.875 -83.60499999999999 L101.625 -82.10499999999999 Q98.125 -70.60499999999999 96.56 -58.85499999999999 Q95.0 -47.10499999999999 95.0 -35.22999999999999 Q95.0 -23.35499999999999 96.56 -11.60499999999999 Q98.125 0.14500000000001023 101.625 11.64500000000001 L96.875 13.14500000000001 Z M62.125 2.6450000000000102 Q62.875 3.2700000000000102 63.75 3.210000000000008 Q64.625 3.1450000000000102 65.375 2.5200000000000102 Q66.875 1.0200000000000102 67.69 -0.9799999999999898 Q68.5 -2.9799999999999898 68.5 -5.22999999999999 Q68.5 -7.47999999999999 67.625 -9.414999999999992 Q66.75 -11.35499999999999 65.375 -12.97999999999999 Q64.75 -13.60499999999999 63.875 -13.669999999999987 Q63.0 -13.72999999999999 62.25 -13.10499999999999 Q61.625 -12.47999999999999 61.559999999999995 -11.539999999999992 Q61.5 -10.60499999999999 62.125 -9.85499999999999 Q62.875 -9.10499999999999 63.440000000000005 -7.85499999999999 Q64.0 -6.60499999999999 64.0 -5.22999999999999 Q64.0 -3.8549999999999898 63.440000000000005 -2.6049999999999898 Q62.875 -1.3549999999999898 62.125 -0.6049999999999898 Q61.375 0.14500000000001023 61.44 1.0800000000000125 Q61.5 2.0200000000000102 62.125 2.6450000000000102 Z M55.0 -45.22999999999999 Q48.0 -45.22999999999999 44.0 -51.35499999999999 Q40.0 -57.47999999999999 40.0 -65.22999999999999 Q40.0 -72.97999999999999 44.0 -79.10499999999999 Q48.0 -85.22999999999999 55.0 -85.22999999999999 Q62.0 -85.22999999999999 66.0 -79.10499999999999 Q70.0 -72.97999999999999 70.0 -65.22999999999999 Q70.0 -57.47999999999999 66.0 -51.35499999999999 Q62.0 -45.22999999999999 55.0 -45.22999999999999 Z M57.75 -57.35499999999999 Q58.375 -57.97999999999999 58.440000000000005 -58.919999999999995 Q58.5 -59.85499999999999 57.875 -60.60499999999999 Q56.875 -61.47999999999999 56.44 -62.72999999999999 Q56.0 -63.97999999999999 56.0 -65.22999999999999 Q56.0 -66.47999999999999 56.44 -67.72999999999999 Q56.875 -68.97999999999999 57.875 -69.85499999999999 Q58.5 -70.60499999999999 58.5 -71.47999999999999 Q58.5 -72.35499999999999 57.875 -73.10499999999999 Q57.125 -73.72999999999999 56.25 -73.72999999999999 Q55.375 -73.72999999999999 54.625 -73.10499999999999 Q53.125 -71.47999999999999 52.315 -69.47999999999999 Q51.5 -67.47999999999999 51.5 -65.22999999999999 Q51.5 -62.97999999999999 52.315 -61.04499999999999 Q53.125 -59.10499999999999 54.625 -57.47999999999999 Q55.25 -56.85499999999999 56.125 -56.78999999999999 Q57.0 -56.72999999999999 57.75 -57.35499999999999 Z"/></g><g id="Ultralight-M" transform="matrix(1 0 0 1 506.415 1126)"><path d="M65.0 13.27000000000001 Q58.625 13.27000000000001 55.065 7.5800000000000125 Q51.5 1.8950000000000102 51.5 -5.22999999999999 Q51.5 -12.35499999999999 55.065 -18.039999999999992 Q58.625 -23.72999999999999 65.0 -23.72999999999999 Q71.375 -23.72999999999999 74.94 -18.039999999999992 Q78.5 -12.35499999999999 78.5 -5.22999999999999 Q78.5 1.8950000000000102 74.94 7.5800000000000125 Q71.375 13.27000000000001 65.0 13.27000000000001 Z M23.25 12.27000000000001  20.0 11.14500000000001 Q23.375 -0.22999999999998977 24.875 -11.85499999999999 Q26.375 -23.47999999999999 26.375 -35.22999999999999 Q26.375 -46.97999999999999 24.875 -58.60499999999999 Q23.375 -70.22999999999999 20.0 -81.60499999999999 L23.25 -82.72999999999999 Q26.75 -71.10499999999999 28.315 -59.22999999999999 Q29.875 -47.35499999999999 29.875 -35.22999999999999 Q29.875 -23.10499999999999 28.315 -11.22999999999999 Q26.75 0.6450000000000102 23.25 12.27000000000001 Z M96.625 12.27000000000001 Q93.125 0.6450000000000102 91.56 -11.22999999999999 Q90.0 -23.10499999999999 90.0 -35.22999999999999 Q90.0 -47.35499999999999 91.56 -59.22999999999999 Q93.125 -71.10499999999999 96.625 -82.72999999999999 L99.875 -81.60499999999999 Q96.5 -70.22999999999999 95.0 -58.60499999999999 Q93.5 -46.97999999999999 93.5 -35.22999999999999 Q93.5 -23.47999999999999 95.0 -11.85499999999999 Q96.5 -0.22999999999998977 99.875 11.14500000000001 L96.625 12.27000000000001 Z M62.5 2.2700000000000102 Q63.0 2.7700000000000102 63.69 2.7050000000000125 Q64.375 2.6450000000000102 65.0 2.1450000000000102 Q66.5 0.7700000000000102 67.25 -1.1699999999999875 Q68.0 -3.1049999999999898 68.0 -5.22999999999999 Q68.0 -7.35499999999999 67.19 -9.22999999999999 Q66.375 -11.10499999999999 65.0 -12.60499999999999 Q64.5 -13.10499999999999 63.875 -13.164999999999992 Q63.25 -13.22999999999999 62.625 -12.72999999999999 Q62.0 -12.22999999999999 62.0 -11.539999999999992 Q62.0 -10.85499999999999 62.5 -10.22999999999999 Q63.5 -9.22999999999999 64.0 -7.9199999999999875 Q64.5 -6.60499999999999 64.5 -5.22999999999999 Q64.5 -3.8549999999999898 64.0 -2.539999999999992 Q63.5 -1.2299999999999898 62.5 -0.22999999999998977 Q61.875 0.39500000000001023 61.875 1.0800000000000125 Q61.875 1.7700000000000102 62.5 2.2700000000000102 Z M55.0 -46.72999999999999 Q48.625 -46.72999999999999 45.065 -52.419999999999995 Q41.5 -58.10499999999999 41.5 -65.22999999999999 Q41.5 -72.35499999999999 45.065 -78.04499999999999 Q48.625 -83.72999999999999 55.0 -83.72999999999999 Q61.375 -83.72999999999999 64.94 -78.04499999999999 Q68.5 -72.35499999999999 68.5 -65.22999999999999 Q68.5 -58.10499999999999 64.94 -52.419999999999995 Q61.375 -46.72999999999999 55.0 -46.72999999999999 Z M57.375 -57.72999999999999 Q58.0 -58.22999999999999 58.0 -58.919999999999995 Q58.0 -59.60499999999999 57.5 -60.22999999999999 Q56.5 -61.22999999999999 56.0 -62.54499999999999 Q55.5 -63.85499999999999 55.5 -65.22999999999999 Q55.5 -66.60499999999999 56.0 -67.91999999999999 Q56.5 -69.22999999999999 57.5 -70.22999999999999 Q58.125 -70.85499999999999 58.125 -71.47999999999999 Q58.125 -72.10499999999999 57.5 -72.72999999999999 Q57.0 -73.22999999999999 56.25 -73.22999999999999 Q55.5 -73.22999999999999 55.0 -72.72999999999999 Q53.5 -71.22999999999999 52.75 -69.29499999999999 Q52.0 -67.35499999999999 52.0 -65.22999999999999 Q52.0 -63.10499999999999 52.75 -61.22999999999999 Q53.5 -59.35499999999999 55.0 -57.85499999999999 Q55.5 -57.35499999999999 56.19 -57.29499999999999 Q56.875 -57.22999999999999 57.375 -57.72999999999999 Z"/></g><g id="Bold-S" transform="matrix(1 0 0 1 2294.23 696)"><path d="M50.8905 11.319422000000003 Q42.705414000000005 11.319422000000003 37.32759 4.9095860000000044 Q31.9545 -1.500249999999994 31.9545 -10.177672000000001 Q31.9545 -18.859827999999993 37.32759 -25.269664 Q42.705414000000005 -31.67949999999999 50.8905 -31.67949999999999 Q59.075585999999994 -31.67949999999999 64.45341 -25.269664 Q69.8265 -18.859827999999993 69.8265 -10.177672000000001 Q69.8265 -1.500249999999994 64.45341 4.9095860000000044 Q59.075585999999994 11.319422000000003 50.8905 11.319422000000003 Z M14.495508 6.291914000000006  4.535172 2.443172000000004 Q8.185086 -6.627171999999987 10.012410000000001 -16.000491999999994 Q11.835 -25.369077999999995 11.835 -35.22999999999999 Q11.835 -45.09092199999999 10.012410000000001 -54.459508 Q8.185086 -63.83282799999999 4.535172 -72.903172 L14.400827999999999 -76.65249999999999 Q18.443664 -66.69216399999999 20.465082000000002 -56.334171999999995 Q22.4865 -45.98091399999999 22.4865 -35.22999999999999 Q22.4865 -24.479085999999988 20.512422 -14.073753999999994 Q18.543077999999998 -3.6684219999999925 14.495508 6.291914000000006 Z M80.27917199999999 6.19250000000001 Q76.236336 -3.7678359999999884 74.214918 -14.125827999999998 Q72.1935 -24.479085999999988 72.1935 -35.22999999999999 Q72.1935 -45.98091399999999 74.167578 -56.386246 Q76.136922 -66.79157799999999 80.18449199999999 -76.751914 L90.144828 -72.903172 Q86.49491400000001 -63.83282799999999 84.66759 -54.459508 Q82.845 -45.09092199999999 82.845 -35.22999999999999 Q82.845 -25.369077999999995 84.71966400000001 -16.000491999999994 Q86.594328 -6.627171999999987 90.239508 2.3484920000000074 L80.27917199999999 6.19250000000001 Z M50.497578 -2.981991999999991 Q52.367507999999994 -3.8672499999999985 53.603082 -5.595159999999993 Q54.833922 -7.318335999999988 55.132164 -9.486507999999986 Q55.330992 -11.559999999999988 54.48834 -13.48200399999999 Q53.650422 -15.40400799999999 52.173414 -16.78633599999999 Q51.382836 -17.576914000000002 50.398164 -17.624253999999993 Q49.413492000000005 -17.676327999999998 48.622914 -17.084577999999993 Q47.633508 -16.587507999999985 47.34 -15.702249999999992 Q47.046492 -14.816991999999999 47.538828 -13.827585999999997 Q47.93175 -12.94232799999999 48.324672 -11.806167999999985 Q48.722328 -10.670007999999996 49.01583599999999 -9.486507999999986 Q49.508172 -8.108913999999999 48.722328 -7.663917999999995 Q47.93175 -7.218921999999992 47.24058599999999 -7.318335999999988 Q46.450008 -7.318335999999988 46.74825 -6.579831999999996 Q47.046492 -5.841328000000004 47.141172 -4.558413999999999 Q47.538828 -3.474328 48.47616 -3.076671999999988 Q49.413492000000005 -2.683749999999989 50.497578 -2.981991999999991 Z M43.7895 -38.780499999999996 Q35.604414 -38.780499999999996 30.226589999999998 -45.190335999999995 Q24.8535 -51.60017199999999 24.8535 -60.28232799999999 Q24.8535 -68.95974999999999 30.226589999999998 -75.369586 Q35.604414 -81.779422 43.7895 -81.779422 Q51.974585999999995 -81.779422 57.35241 -75.369586 Q62.7255 -68.95974999999999 62.7255 -60.28232799999999 Q62.7255 -51.60017199999999 57.35241 -45.190335999999995 Q51.974585999999995 -38.780499999999996 43.7895 -38.780499999999996 Z M44.182422 -52.982499999999995 Q45.266507999999995 -52.68899199999999 46.20384 -53.18132799999999 Q47.141172 -53.67366399999999 47.439414000000006 -54.757749999999994 Q48.130578 -55.44891399999999 48.177918 -56.14007799999999 Q48.229992 -56.82650799999999 47.439414000000006 -57.323578 Q46.74825 -57.716499999999996 46.20384 -58.308249999999994 Q45.66416400000001 -58.89999999999999 45.66416400000001 -59.69057799999999 Q45.957672 -60.874078 46.355328 -62.00550399999999 Q46.74825 -63.14166399999999 47.141172 -63.83282799999999 Q47.633508 -64.718086 47.34 -65.70275799999999 Q47.046492 -66.69216399999999 46.1565 -67.18449999999999 Q45.266507999999995 -67.77624999999999 44.281836 -67.77624999999999 Q43.297164 -67.77624999999999 42.506586 -66.890992 Q41.029578 -65.40924999999999 40.19166 -63.586659999999995 Q39.349008 -61.75933599999999 39.547836 -59.59116399999999 Q39.746664 -57.422991999999994 41.076918 -55.643007999999995 Q42.407172 -53.872491999999994 44.182422 -52.982499999999995 Z"/></g><g id="Semibold-S" transform="matrix(1 0 0 1 1998.1 696)"><path d="M50.8905 9.643585999999999 Q43.297164 9.643585999999999 38.41641 3.479917999999998 Q33.530922000000004 -2.683749999999989 33.530922000000004 -10.769421999999992 Q33.530922000000004 -18.859827999999993 38.41641 -25.023495999999987 Q43.297164 -31.187163999999996 50.8905 -31.187163999999996 Q58.483836 -31.187163999999996 63.36459 -25.023495999999987 Q68.250078 -18.859827999999993 68.250078 -10.769421999999992 Q68.250078 -2.683749999999989 63.36459 3.479917999999998 Q58.483836 9.643585999999999 50.8905 9.643585999999999 Z M16.370172 5.302508000000017  7.792164 1.9508360000000096 Q11.442077999999999 -6.9254140000000035 13.165254000000001 -16.24665999999999 Q14.893163999999999 -25.563171999999994 14.893163999999999 -35.22999999999999 Q14.893163999999999 -44.89682799999999 13.165254000000001 -54.21333999999999 Q11.442077999999999 -63.53458599999999 7.792164 -72.41083599999999 L16.275492 -75.66782799999999 Q20.218913999999998 -66.00099999999999 22.140918 -55.841835999999994 Q24.062922 -45.682672 24.062922 -35.22999999999999 Q24.062922 -24.77732799999999 22.192992 -14.566089999999988 Q20.318327999999998 -4.359585999999993 16.370172 5.302508000000017 Z M78.404508 5.2078280000000206 Q74.461086 -4.458999999999989 72.53908200000001 -14.618163999999993 Q70.61707799999999 -24.77732799999999 70.61707799999999 -35.22999999999999 Q70.61707799999999 -45.682672 72.487008 -55.89390999999999 Q74.361672 -66.100414 78.30982800000001 -75.762508 L86.887836 -72.41083599999999 Q83.237922 -63.53458599999999 81.514746 -54.21333999999999 Q79.786836 -44.89682799999999 79.786836 -35.22999999999999 Q79.786836 -25.563171999999994 81.562086 -16.24665999999999 Q83.337336 -6.9254140000000035 86.98725 1.8514219999999995 L78.404508 5.2078280000000206 Z M50.79108599999999 -3.8672499999999985 Q52.56633599999999 -4.851921999999988 53.603082 -6.579831999999996 Q54.639828 -8.303007999999991 54.833922 -10.376499999999993 Q54.933336 -12.449991999999995 54.095417999999995 -14.272582 Q53.2575 -16.09517199999999 51.780492 -17.378085999999996 Q50.989914000000006 -18.069249999999997 50.052582 -18.069249999999997 Q49.11525 -18.069249999999997 48.324672 -17.378085999999996 Q47.439414000000006 -16.78633599999999 47.34 -15.901077999999998 Q47.24058599999999 -15.011085999999992 47.832336 -14.125827999999998 Q48.324672 -13.335249999999988 48.722328 -12.39791799999999 Q49.11525 -11.460585999999992 49.314078 -10.376499999999993 Q49.607586 -9.192999999999998 48.968495999999995 -8.648589999999999 Q48.324672 -8.108913999999999 47.633508 -7.910085999999993 Q46.847664 -7.61657799999999 46.994417999999996 -6.778659999999988 Q47.141172 -5.936008000000001 47.439414000000006 -4.851921999999988 Q47.93175 -3.9666639999999944 48.869082 -3.720495999999997 Q49.806414000000004 -3.474328 50.79108599999999 -3.8672499999999985 Z M43.7895 -39.27283599999999 Q36.196163999999996 -39.27283599999999 31.31541 -45.43650399999999 Q26.429922 -51.60017199999999 26.429922 -59.69057799999999 Q26.429922 -67.77624999999999 31.31541 -73.93991799999999 Q36.196163999999996 -80.10358599999999 43.7895 -80.10358599999999 Q51.382836 -80.10358599999999 56.26359 -73.93991799999999 Q61.149077999999996 -67.77624999999999 61.149077999999996 -59.69057799999999 Q61.149077999999996 -51.60017199999999 56.26359 -45.43650399999999 Q51.382836 -39.27283599999999 43.7895 -39.27283599999999 Z M43.88891400000001 -52.68899199999999 Q44.873585999999996 -52.291335999999994 45.810918 -52.58957799999999 Q46.74825 -52.88308599999999 47.141172 -53.872491999999994 Q47.832336 -54.558921999999995 47.832336 -55.34949999999999 Q47.832336 -56.14007799999999 47.046492 -56.73182799999999 Q46.355328 -57.22416399999999 45.862992000000006 -57.86325399999999 Q45.365922 -58.50707799999999 45.365922 -59.39233599999999 Q45.56475 -60.37700799999999 45.957672 -61.36641399999999 Q46.355328 -62.351085999999995 46.847664 -62.94283599999999 Q47.439414000000006 -63.733413999999996 47.34 -64.718086 Q47.24058599999999 -65.707492 46.450008 -66.294508 Q45.66416400000001 -66.985672 44.679492 -67.037746 Q43.690085999999994 -67.08508599999999 42.899508 -66.294508 Q41.4225 -64.91691399999999 40.584582000000005 -63.14166399999999 Q39.746664 -61.36641399999999 39.846078 -59.29292199999999 Q39.945492 -57.22416399999999 41.076918 -55.44891399999999 Q42.213077999999996 -53.67366399999999 43.88891400000001 -52.68899199999999 Z"/></g><g id="Medium-S" transform="matrix(1 0 0 1 1701.85 696)"><path d="M50.8905 8.360671999999994 Q43.690085999999994 8.360671999999994 39.154914000000005 2.395832000000013 Q34.615008 -3.5690079999999966 34.615008 -11.266492 Q34.615008 -18.95450799999999 39.154914000000005 -24.872007999999994 Q43.690085999999994 -30.78950799999999 50.8905 -30.78950799999999 Q58.090914000000005 -30.78950799999999 62.626085999999994 -24.872007999999994 Q67.165992 -18.95450799999999 67.165992 -11.266492 Q67.165992 -3.5690079999999966 62.626085999999994 2.395832000000013 Q58.090914000000005 8.360671999999994 50.8905 8.360671999999994 Z M17.7525 4.616078000000016  10.357992000000001 1.657328000000021 Q13.908492 -7.218921999999992 15.584328 -16.440754 Q17.260164 -25.66258599999999 17.260164 -35.22999999999999 Q17.260164 -44.797413999999996 15.584328 -54.019245999999995 Q13.908492 -63.24107799999999 10.357992000000001 -72.11732799999999 L17.653086000000002 -74.976664 Q21.501828 -65.40924999999999 23.324417999999998 -55.44891399999999 Q25.147008 -45.48857799999999 25.147008 -35.22999999999999 Q25.147008 -24.971421999999997 23.376492 -14.963745999999986 Q21.596508 -4.9513359999999835 17.7525 4.616078000000016 Z M77.026914 4.516664000000006 Q73.178172 -5.050749999999994 71.355582 -15.011085999999992 Q69.53299200000001 -24.971421999999997 69.53299200000001 -35.22999999999999 Q69.53299200000001 -45.48857799999999 71.303508 -55.49625399999999 Q73.083492 -65.508664 76.9275 -75.076078 L84.32200800000001 -72.11732799999999 Q80.77150800000001 -63.24107799999999 79.095672 -54.019245999999995 Q77.41983599999999 -44.797413999999996 77.41983599999999 -35.22999999999999 Q77.41983599999999 -25.66258599999999 79.14774600000001 -16.440754 Q80.870922 -7.218921999999992 84.42142199999999 1.557914000000011 L77.026914 4.516664000000006 Z M50.989914000000006 -4.558413999999999 Q52.66575 -5.642499999999998 53.603082 -7.318335999999988 Q54.540414000000006 -8.994171999999992 54.639828 -11.067663999999994 Q54.639828 -13.037007999999986 53.749835999999995 -14.816991999999999 Q52.864578 -16.587507999999985 51.382836 -17.87042199999999 Q50.596992 -18.462171999999995 49.707 -18.41483199999999 Q48.817007999999994 -18.367492 48.130578 -17.576914000000002 Q47.34 -16.885749999999987 47.34 -16.000491999999994 Q47.34 -15.110499999999988 48.031164000000004 -14.319921999999991 Q48.722328 -13.728172 49.11525 -12.890253999999999 Q49.508172 -12.052335999999983 49.508172 -11.067663999999994 Q49.707 -10.08299199999999 49.214664000000006 -9.39182799999999 Q48.722328 -8.700664000000003 48.031164000000004 -8.402421999999987 Q47.24058599999999 -7.910085999999993 47.24058599999999 -6.972753999999995 Q47.24058599999999 -6.035421999999983 47.633508 -5.150164000000004 Q48.229992 -4.260171999999983 49.214664000000006 -4.165491999999986 Q50.199335999999995 -4.0660780000000045 50.989914000000006 -4.558413999999999 Z M43.7895 -39.670491999999996 Q36.589086 -39.670491999999996 32.053914 -45.58799199999999 Q27.514008 -51.50549199999999 27.514008 -59.193507999999994 Q27.514008 -66.890992 32.053914 -72.85583199999999 Q36.589086 -78.82067199999999 43.7895 -78.82067199999999 Q50.989914000000006 -78.82067199999999 55.525085999999995 -72.85583199999999 Q60.064992000000004 -66.890992 60.064992000000004 -59.193507999999994 Q60.064992000000004 -51.50549199999999 55.525085999999995 -45.58799199999999 Q50.989914000000006 -39.670491999999996 43.7895 -39.670491999999996 Z M43.690085999999994 -52.49016399999999 Q44.480664000000004 -51.89841399999999 45.417995999999995 -52.092507999999995 Q46.355328 -52.291335999999994 46.947078 -53.18132799999999 Q47.633508 -53.96717199999999 47.538828 -54.80508999999999 Q47.439414000000006 -55.643007999999995 46.648835999999996 -56.23949199999999 Q45.957672 -56.82650799999999 45.56475 -57.51767199999999 Q45.171828 -58.20883599999999 45.171828 -59.098828 Q45.171828 -60.083499999999994 45.56475 -60.92141799999999 Q45.957672 -61.75933599999999 46.648835999999996 -62.251672 Q47.34 -62.94283599999999 47.34 -63.92750799999999 Q47.34 -64.91691399999999 46.648835999999996 -65.60807799999999 Q45.957672 -66.39392199999999 45.02034 -66.493336 Q44.083008 -66.59275 43.297164 -65.802172 Q41.815422 -64.52399199999999 40.930164000000005 -62.796082 Q40.040172 -61.06817199999999 40.040172 -59.098828 Q40.139585999999994 -57.025335999999996 41.128992000000004 -55.30215999999999 Q42.11366400000001 -53.57424999999999 43.690085999999994 -52.49016399999999 Z"/></g><g id="Regular-S" transform="matrix(1 0 0 1 1405.73 696)"><path d="M50.8905 7.376000000000005 Q43.988327999999996 7.376000000000005 39.746664 1.6052540000000022 Q35.505 -4.165491999999986 35.505 -11.559999999999988 Q35.505 -18.95450799999999 39.746664 -24.725254 Q43.988327999999996 -30.495999999999995 50.8905 -30.495999999999995 Q57.792672 -30.495999999999995 62.034335999999996 -24.725254 Q66.276 -18.95450799999999 66.276 -11.559999999999988 Q66.276 -4.165491999999986 62.034335999999996 1.6052540000000022 Q57.792672 7.376000000000005 50.8905 7.376000000000005 Z M18.737172 4.024328000000011  12.128507999999998 1.359086000000005 Q15.679008 -7.417749999999998 17.307504 -16.587507999999985 Q18.936 -25.761999999999993 18.936 -35.22999999999999 Q18.936 -44.69799999999999 17.307504 -53.872491999999994 Q15.679008 -63.042249999999996 12.128507999999998 -71.819086 L18.642492 -74.384914 Q22.4865 -65.01632799999999 24.26175 -55.20274599999999 Q26.037 -45.389163999999994 26.037 -35.22999999999999 Q26.037 -25.070835999999993 24.309089999999998 -15.209913999999998 Q22.585914 -5.348991999999981 18.737172 4.024328000000011 Z M76.037508 3.9249140000000153 Q72.1935 -5.443671999999992 70.41825 -15.257254000000003 Q68.643 -25.070835999999993 68.643 -35.22999999999999 Q68.643 -45.389163999999994 70.37091 -55.250085999999996 Q72.09408599999999 -65.111008 75.942828 -74.48432799999999 L82.551492 -71.819086 Q79.000992 -63.042249999999996 77.37249600000001 -53.872491999999994 Q75.744 -44.69799999999999 75.744 -35.22999999999999 Q75.744 -25.761999999999993 77.41983599999999 -16.587507999999985 Q79.095672 -7.417749999999998 82.64617199999999 1.2596719999999948 L76.037508 3.9249140000000153 Z M51.184008 -5.050749999999994 Q52.765164000000006 -6.234249999999989 53.603082 -7.910085999999993 Q54.441 -9.585921999999997 54.441 -11.559999999999988 Q54.441 -13.534077999999994 53.551007999999996 -15.257254000000003 Q52.66575 -16.985163999999997 51.184008 -18.168663999999993 Q50.398164 -18.760413999999997 49.508172 -18.660999999999994 Q48.622914 -18.56158599999999 47.93175 -17.771007999999995 Q47.24058599999999 -16.985163999999997 47.34 -16.09517199999999 Q47.439414000000006 -15.209913999999998 48.229992 -14.518749999999997 Q48.916422 -13.926999999999992 49.314078 -13.188495999999986 Q49.707 -12.449991999999995 49.707 -11.559999999999988 Q49.707 -10.670007999999996 49.314078 -9.93150399999999 Q48.916422 -9.192999999999998 48.229992 -8.700664000000003 Q47.439414000000006 -8.108913999999999 47.34 -7.119507999999996 Q47.24058599999999 -6.134835999999993 47.832336 -5.348991999999981 Q48.424085999999996 -4.558413999999999 49.413492000000005 -4.5063399999999945 Q50.398164 -4.458999999999989 51.184008 -5.050749999999994 Z M43.7895 -39.96399999999999 Q36.887328 -39.96399999999999 32.645664 -45.734745999999994 Q28.404 -51.50549199999999 28.404 -58.89999999999999 Q28.404 -66.294508 32.645664 -72.065254 Q36.887328 -77.836 43.7895 -77.836 Q50.691672000000004 -77.836 54.933336 -72.065254 Q59.175 -66.294508 59.175 -58.89999999999999 Q59.175 -51.50549199999999 54.933336 -45.734745999999994 Q50.691672000000004 -39.96399999999999 43.7895 -39.96399999999999 Z M43.495992 -52.291335999999994 Q44.281836 -51.699586 45.219167999999996 -51.79899999999999 Q46.1565 -51.89841399999999 46.74825 -52.68899199999999 Q47.439414000000006 -53.474835999999996 47.34 -54.36482799999999 Q47.24058599999999 -55.250085999999996 46.450008 -55.94125 Q45.763578 -56.532999999999994 45.365922 -57.27150399999999 Q44.973 -58.010008 44.973 -58.89999999999999 Q44.973 -59.78999199999999 45.365922 -60.52849599999999 Q45.763578 -61.266999999999996 46.450008 -61.75933599999999 Q47.24058599999999 -62.351085999999995 47.34 -63.335758 Q47.439414000000006 -64.325164 46.847664 -65.111008 Q46.1565 -65.901586 45.219167999999996 -66.04834 Q44.281836 -66.199828 43.495992 -65.508664 Q42.01425 -64.22574999999999 41.128992000000004 -62.549913999999994 Q40.239 -60.874078 40.239 -58.89999999999999 Q40.239 -56.92592199999999 41.128992000000004 -55.20274599999999 Q42.01425 -53.474835999999996 43.495992 -52.291335999999994 Z"/></g><g id="Light-S" transform="matrix(1 0 0 1 1109.75 696)"><path d="M50.8905 5.401921999999999 Q44.774172 5.401921999999999 41.128992000000004 0.2276600000000002 Q37.479078 -4.9513359999999835 37.479078 -11.559999999999988 Q37.479078 -18.168663999999993 41.128992000000004 -23.347659999999998 Q44.774172 -28.521921999999996 50.8905 -28.521921999999996 Q57.006828 -28.521921999999996 60.652007999999995 -23.347659999999998 Q64.301922 -18.168663999999993 64.301922 -11.559999999999988 Q64.301922 -4.9513359999999835 60.652007999999995 0.2276600000000002 Q57.006828 5.401921999999999 50.8905 5.401921999999999 Z M19.035414 2.840828000000016  14.301414 0.6679220000000043 Q17.7525 -7.910085999999993 19.328922000000002 -16.933089999999993 Q20.910078 -25.960827999999992 20.910078 -35.22999999999999 Q20.910078 -44.499171999999994 19.328922000000002 -53.526909999999994 Q17.7525 -62.549913999999994 14.301414 -71.127922 L18.936 -73.201414 Q22.585914 -64.026922 24.309089999999998 -54.558921999999995 Q26.037 -45.09092199999999 26.037 -35.22999999999999 Q26.037 -25.369077999999995 24.361164 -15.849003999999994 Q22.685328 -6.333663999999999 19.035414 2.840828000000016 Z M75.744 2.741414000000006 Q71.994672 -6.433077999999995 70.31883599999999 -15.901077999999998 Q68.643 -25.369077999999995 68.643 -35.22999999999999 Q68.643 -45.09092199999999 70.271496 -54.61099599999999 Q71.899992 -64.126336 75.64458599999999 -73.300828 L80.27917199999999 -71.127922 Q76.9275 -62.549913999999994 75.351078 -53.526909999999994 Q73.769922 -44.499171999999994 73.769922 -35.22999999999999 Q73.769922 -25.960827999999992 75.39841799999999 -16.933089999999993 Q77.026914 -7.910085999999993 80.378586 0.5685080000000085 L75.744 2.741414000000006 Z M51.581664 -5.543085999999988 Q52.963992000000005 -6.825999999999993 53.551007999999996 -8.553909999999988 Q54.147492 -10.277085999999983 54.048078 -12.052335999999983 Q53.948664 -13.827585999999997 53.011332 -15.456081999999995 Q52.074 -17.084577999999993 50.596992 -18.168663999999993 Q49.806414000000004 -18.660999999999994 48.916422 -18.41483199999999 Q48.031164000000004 -18.168663999999993 47.439414000000006 -17.278672 Q46.947078 -16.293999999999997 47.34 -15.456081999999995 Q47.732922 -14.618163999999993 48.622914 -14.026414000000003 Q49.508172 -13.63349199999999 49.905828 -13.188495999999986 Q50.29875 -12.743499999999997 50.199335999999995 -11.952922000000001 Q50.497578 -10.769421999999992 50.000507999999996 -9.983577999999994 Q49.508172 -9.192999999999998 48.817007999999994 -8.700664000000003 Q48.031164000000004 -8.108913999999999 48.031164000000004 -7.072167999999991 Q48.031164000000004 -6.035421999999983 48.324672 -4.9513359999999835 Q49.01583599999999 -4.260171999999983 50.000507999999996 -4.5063399999999945 Q50.989914000000006 -4.752508000000006 51.581664 -5.543085999999988 Z M43.7895 -41.93807799999999 Q37.673172 -41.93807799999999 34.027992 -47.11233999999999 Q30.378078 -52.291335999999994 30.378078 -58.89999999999999 Q30.378078 -65.508664 34.027992 -70.68766 Q37.673172 -75.86192199999999 43.7895 -75.86192199999999 Q49.905828 -75.86192199999999 53.551007999999996 -70.68766 Q57.200922 -65.508664 57.200922 -58.89999999999999 Q57.200922 -52.291335999999994 53.551007999999996 -47.11233999999999 Q49.905828 -41.93807799999999 43.7895 -41.93807799999999 Z M43.098335999999996 -52.783671999999996 Q43.690085999999994 -51.99782799999999 44.627418 -51.79899999999999 Q45.56475 -51.60017199999999 46.255914000000004 -52.291335999999994 Q46.847664 -53.18132799999999 46.74825 -54.166 Q46.648835999999996 -55.15067199999999 45.862992000000006 -55.94125 Q45.171828 -56.632414 44.774172 -57.470332 Q44.38125 -58.308249999999994 44.480664000000004 -59.29292199999999 Q44.38125 -60.083499999999994 44.774172 -60.52849599999999 Q45.171828 -60.97349199999999 46.057086 -61.266999999999996 Q47.046492 -61.75933599999999 47.34 -62.744007999999994 Q47.633508 -63.733413999999996 47.24058599999999 -64.718086 Q46.648835999999996 -65.60807799999999 45.763578 -65.85424599999999 Q44.873585999999996 -66.100414 44.083008 -65.508664 Q42.606 -64.325164 41.668668 -62.796082 Q40.731336 -61.266999999999996 40.731336 -59.39233599999999 Q40.532508 -57.61708599999999 41.176332 -55.841835999999994 Q41.815422 -54.066585999999994 43.098335999999996 -52.783671999999996 Z"/></g><g id="Thin-S" transform="matrix(1 0 0 1 814.015 696)"><path d="M50.8905 3.432578000000021 Q45.66416400000001 3.432578000000021 42.55866 -1.1546679999999867 Q39.448422 -5.741913999999994 39.448422 -11.559999999999988 Q39.448422 -17.378085999999996 42.55866 -21.965331999999997 Q45.66416400000001 -26.55257799999999 50.8905 -26.55257799999999 Q56.116836 -26.55257799999999 59.222339999999996 -21.965331999999997 Q62.332578 -17.378085999999996 62.332578 -11.559999999999988 Q62.332578 -5.741913999999994 59.222339999999996 -1.1546679999999867 Q56.116836 3.432578000000021 50.8905 3.432578000000021 Z M19.328922000000002 1.557914000000011  16.569 0.07617199999999968 Q19.825992 -8.501835999999983 21.303 -17.33074599999999 Q22.780008000000002 -26.154921999999992 22.780008000000002 -35.22999999999999 Q22.780008000000002 -44.305077999999995 21.303 -53.12925399999999 Q19.825992 -61.958164 16.569 -70.536172 L19.229508000000003 -71.9185 Q22.685328 -63.14166399999999 24.309089999999998 -53.919832 Q25.937586 -44.69799999999999 25.937586 -35.22999999999999 Q25.937586 -25.761999999999993 24.361164 -16.49282799999999 Q22.780008000000002 -7.218921999999992 19.328922000000002 1.557914000000011 Z M75.351078 1.4585000000000008 Q71.899992 -7.318335999999988 70.271496 -16.540167999999994 Q68.643 -25.761999999999993 68.643 -35.22999999999999 Q68.643 -44.69799999999999 70.219422 -53.96717199999999 Q71.800578 -63.24107799999999 75.251664 -72.01791399999999 L78.111 -70.536172 Q74.854008 -61.958164 73.32966 -53.12925399999999 Q71.800578 -44.305077999999995 71.800578 -35.22999999999999 Q71.800578 -26.154921999999992 73.377 -17.33074599999999 Q74.953422 -8.501835999999983 78.210414 -0.018507999999997082 L75.351078 1.4585000000000008 Z M51.974585999999995 -5.936008000000001 Q53.2575 -7.417749999999998 53.603082 -9.145659999999992 Q53.948664 -10.868835999999988 53.650422 -12.449991999999995 Q53.456328 -14.220507999999995 52.466922000000004 -15.702249999999992 Q51.48225 -17.18399199999999 50.000507999999996 -18.168663999999993 Q49.214664000000006 -18.56158599999999 48.324672 -18.168663999999993 Q47.439414000000006 -17.771007999999995 47.046492 -16.885749999999987 Q46.648835999999996 -15.702249999999992 47.29266 -14.86433199999999 Q47.93175 -14.026414000000003 49.01583599999999 -13.63349199999999 Q50.099922 -13.335249999999988 50.497578 -13.136421999999996 Q50.8905 -12.94232799999999 50.596992 -12.350577999999999 Q51.184008 -10.868835999999988 50.644332 -9.983577999999994 Q50.099922 -9.093585999999988 49.413492000000005 -8.700664000000003 Q48.622914 -8.208327999999995 48.670254 -7.072167999999991 Q48.722328 -5.936008000000001 48.722328 -4.558413999999999 Q49.607586 -4.0660780000000045 50.596992 -4.558413999999999 Q51.581664 -5.050749999999994 51.974585999999995 -5.936008000000001 Z M43.7895 -43.907422 Q38.563164 -43.907422 35.457660000000004 -48.49466799999999 Q32.347422 -53.081914 32.347422 -58.89999999999999 Q32.347422 -64.718086 35.457660000000004 -69.30533199999999 Q38.563164 -73.89257799999999 43.7895 -73.89257799999999 Q49.01583599999999 -73.89257799999999 52.12134 -69.30533199999999 Q55.231578 -64.718086 55.231578 -58.89999999999999 Q55.231578 -53.081914 52.12134 -48.49466799999999 Q49.01583599999999 -43.907422 43.7895 -43.907422 Z M42.705414000000005 -53.18132799999999 Q43.098335999999996 -52.291335999999994 44.035668 -51.84633999999999 Q44.973 -51.406077999999994 45.862992000000006 -51.89841399999999 Q46.255914000000004 -52.783671999999996 46.1565 -53.919832 Q46.057086 -55.05599199999999 45.266507999999995 -55.94125 Q44.580078 -56.73182799999999 44.182422 -57.716499999999996 Q43.7895 -58.70117199999999 44.083008 -59.69057799999999 Q43.7895 -60.28232799999999 44.182422 -60.47642199999999 Q44.580078 -60.67524999999999 45.66416400000001 -60.874078 Q46.74825 -61.16758599999999 47.34 -62.152257999999996 Q47.93175 -63.14166399999999 47.633508 -64.325164 Q47.141172 -65.210422 46.303254 -65.60807799999999 Q45.46533599999999 -66.00099999999999 44.679492 -65.508664 Q43.19775 -64.424578 42.260418 -63.042249999999996 Q41.323085999999996 -61.659921999999995 41.128992000000004 -59.78999199999999 Q40.731336 -58.20883599999999 41.128992000000004 -56.43358599999999 Q41.521914 -54.65833599999999 42.705414000000005 -53.18132799999999 Z"/></g><g id="Ultralight-S" transform="matrix(1 0 0 1 517.792 696)"><path d="M50.8905 2.2490780000000115 Q46.1565 2.2490780000000115 43.396578 -1.9925859999999886 Q40.631922 -6.234249999999989 40.631922 -11.559999999999988 Q40.631922 -16.885749999999987 43.396578 -21.127413999999995 Q46.1565 -25.369077999999995 50.8905 -25.369077999999995 Q55.6245 -25.369077999999995 58.384422 -21.127413999999995 Q61.149077999999996 -16.885749999999987 61.149077999999996 -11.559999999999988 Q61.149077999999996 -6.234249999999989 58.384422 -1.9925859999999886 Q55.6245 2.2490780000000115 50.8905 2.2490780000000115 Z M19.52775 0.8667500000000103  17.851914 -0.316749999999999 Q21.009491999999998 -8.800078 22.4865 -17.524839999999998 Q23.963508 -26.254335999999988 23.963508 -35.22999999999999 Q23.963508 -44.205664 22.4865 -52.935159999999996 Q21.009491999999998 -61.659921999999995 17.851914 -70.14325 L19.428336 -71.227336 Q22.780008000000002 -62.549913999999994 24.361164 -53.526909999999994 Q25.937586 -44.499171999999994 25.937586 -35.22999999999999 Q25.937586 -25.960827999999992 24.408503999999997 -16.885749999999987 Q22.879422 -7.810671999999997 19.52775 0.8667500000000103 Z M75.15225 0.7673360000000002 Q71.800578 -7.910085999999993 70.219422 -16.933089999999993 Q68.643 -25.960827999999992 68.643 -35.22999999999999 Q68.643 -44.499171999999994 70.172082 -53.57424999999999 Q71.701164 -62.649328 75.052836 -71.32674999999999 L76.72867199999999 -70.14325 Q73.575828 -61.659921999999995 72.09408599999999 -52.935159999999996 Q70.61707799999999 -44.205664 70.61707799999999 -35.22999999999999 Q70.61707799999999 -26.254335999999988 72.14616 -17.524839999999998 Q73.670508 -8.800078 76.828086 -0.41616399999999487 L75.15225 0.7673360000000002 Z M52.272828 -6.234249999999989 Q53.356914 -7.810671999999997 53.551007999999996 -9.538581999999991 Q53.749835999999995 -11.266492 53.356914 -12.743499999999997 Q53.158086 -14.419335999999987 52.12134 -15.849003999999994 Q51.089328 -17.278672 49.607586 -18.168663999999993 Q48.817007999999994 -18.462171999999995 47.97909 -18.02190999999999 Q47.141172 -17.576914000000002 46.74825 -16.587507999999985 Q46.450008 -15.309327999999994 47.29266 -14.471409999999992 Q48.130578 -13.63349199999999 49.314078 -13.335249999999988 Q50.398164 -13.136421999999996 50.84316 -13.136421999999996 Q51.283422 -13.136421999999996 50.8905 -12.644085999999987 Q51.681078 -10.968249999999998 51.089328 -10.030917999999986 Q50.497578 -9.093585999999988 49.806414000000004 -8.700664000000003 Q49.01583599999999 -8.208327999999995 49.11525 -7.024827999999999 Q49.214664000000006 -5.841328000000004 49.01583599999999 -4.260171999999983 Q50.000507999999996 -3.8672499999999985 50.93784 -4.558413999999999 Q51.875172 -5.249578 52.272828 -6.234249999999989 Z M43.7895 -45.09092199999999 Q39.0555 -45.09092199999999 36.295578 -49.33258599999999 Q33.530922000000004 -53.57424999999999 33.530922000000004 -58.89999999999999 Q33.530922000000004 -64.22574999999999 36.295578 -68.46741399999999 Q39.0555 -72.70907799999999 43.7895 -72.70907799999999 Q48.5235 -72.70907799999999 51.283422 -68.46741399999999 Q54.048078 -64.22574999999999 54.048078 -58.89999999999999 Q54.048078 -53.57424999999999 51.283422 -49.33258599999999 Q48.5235 -45.09092199999999 43.7895 -45.09092199999999 Z M42.407172 -53.474835999999996 Q42.804828 -52.49016399999999 43.690085999999994 -51.84633999999999 Q44.580078 -51.207249999999995 45.56475 -51.60017199999999 Q45.957672 -52.58957799999999 45.810918 -53.77307799999999 Q45.66416400000001 -54.95657799999999 44.873585999999996 -55.94125 Q44.182422 -56.82650799999999 43.83684 -57.86325399999999 Q43.495992 -58.89999999999999 43.7895 -59.98408599999999 Q43.495992 -60.47642199999999 43.88891400000001 -60.47642199999999 Q44.281836 -60.47642199999999 45.365922 -60.575835999999995 Q46.648835999999996 -60.774663999999994 47.34 -61.75933599999999 Q48.031164000000004 -62.744007999999994 47.93175 -64.026922 Q47.439414000000006 -65.01632799999999 46.648835999999996 -65.45658999999999 Q45.862992000000006 -65.901586 45.072414 -65.508664 Q43.590672 -64.52399199999999 42.606 -63.189004 Q41.621328 -61.85874999999999 41.4225 -60.083499999999994 Q40.930164000000005 -58.60649199999999 41.176332 -56.82650799999999 Q41.4225 -55.05599199999999 42.407172 -53.474835999999996 Z"/></g></g></svg>