<svg xmlns="http://www.w3.org/2000/svg" version="1.1" width="3300" height="2000"><g id="Notes"><style>
    text {
      font-family: monospace;
      text-anchor: middle;
    }
    text.emphasis {
      font-weight:bold;
    }
    text.lanchor {
      text-anchor: start;
    }
  </style><rect height="2200" id="artboard" fill="white" width="3300" x="0" y="0"/><line id="" style="fill:none;stroke:black;stroke-width:0.5;" x1="263" x2="3036" y1="292" y2="292"/><text class="lanchor emphasis" transform="matrix(1 0 0 1 263 322)">Weight/Scale Variations</text><text transform="matrix(1 0 0 1 559.711 322)">Ultralight</text><text transform="matrix(1 0 0 1 856.422 322)">Thin</text><text transform="matrix(1 0 0 1 1153.13 322)">Light</text><text transform="matrix(1 0 0 1 1449.84 322)">Regular</text><text transform="matrix(1 0 0 1 1746.56 322)">Medium</text><text transform="matrix(1 0 0 1 2043.27 322)">Semibold</text><text transform="matrix(1 0 0 1 2339.98 322)">Bold</text><text transform="matrix(1 0 0 1 2636.69 322)">Heavy</text><text transform="matrix(1 0 0 1 2933.4 322)">Black</text><text id="template-version" style="text-anchor: end;" transform="matrix(1 0 0 1 3036 1933)">Template v.1.0</text><text class="lanchor" transform="matrix(1 0 0 1 263 726)">Small</text><text class="lanchor" transform="matrix(1 0 0 1 263 1156)">Medium</text><text class="lanchor" transform="matrix(1 0 0 1 263 1586)">Large</text></g><g id="Guides"><g id="H-reference" style="fill:#27AAE1;stroke:none;" transform="matrix(1 0 0 1 339 696)"><path d="M 54.9316 0 L 57.666 0 L 30.5664 -70.459 L 28.0762 -70.459 L 0.976562 0 L 3.66211 0 L 12.9395 -24.4629 L 45.7031 -24.4629 Z M 29.1992 -67.0898 L 29.4434 -67.0898 L 44.8242 -26.709 L 13.8184 -26.709 Z"/></g><line id="Baseline-S" style="fill:none;stroke:#27AAE1;opacity:1;stroke-width:0.577;" x1="263" x2="3036" y1="696" y2="696"/><line id="Capline-S" style="fill:none;stroke:#27AAE1;opacity:1;stroke-width:0.577;" x1="263" x2="3036" y1="625.541" y2="625.541"/><g id="H-reference" style="fill:#27AAE1;stroke:none;" transform="matrix(1 0 0 1 339 1126)"><path d="M 54.9316 0 L 57.666 0 L 30.5664 -70.459 L 28.0762 -70.459 L 0.976562 0 L 3.66211 0 L 12.9395 -24.4629 L 45.7031 -24.4629 Z M 29.1992 -67.0898 L 29.4434 -67.0898 L 44.8242 -26.709 L 13.8184 -26.709 Z"/></g><line id="Baseline-M" style="fill:none;stroke:#27AAE1;opacity:1;stroke-width:0.577;" x1="263" x2="3036" y1="1126" y2="1126"/><line id="Capline-M" style="fill:none;stroke:#27AAE1;opacity:1;stroke-width:0.577;" x1="263" x2="3036" y1="1055.54" y2="1055.54"/><g id="H-reference" style="fill:#27AAE1;stroke:none;" transform="matrix(1 0 0 1 339 1556)"><path d="M 54.9316 0 L 57.666 0 L 30.5664 -70.459 L 28.0762 -70.459 L 0.976562 0 L 3.66211 0 L 12.9395 -24.4629 L 45.7031 -24.4629 Z M 29.1992 -67.0898 L 29.4434 -67.0898 L 44.8242 -26.709 L 13.8184 -26.709 Z"/></g><line id="Baseline-L" style="fill:none;stroke:#27AAE1;opacity:1;stroke-width:0.577;" x1="263" x2="3036" y1="1556" y2="1556"/><line id="Capline-L" style="fill:none;stroke:#27AAE1;opacity:1;stroke-width:0.577;" x1="263" x2="3036" y1="1485.54" y2="1485.54"/><rect height="119.336" id="left-margin" style="fill:darkred;stroke:none;opacity:0.4;" width="12.4512" x="1394.06" y="1030.79"/><rect height="119.336" id="right-margin" style="fill:darkgreen;stroke:none;opacity:0.4;" width="12.4512" x="1502.5112" y="1030.79"/><rect x="1406.5112" y="1045" width="96" height="96" fill="none" stroke="blue" stroke-dasharray="5"/><rect x="1394.06" y="1030.79" width="120.9024" height="119.336" fill="none" stroke="blue"/></g><g id="Symbols"><g id="Bold-L" transform="matrix(1 0 0 1 2266 1556)"><path d="M15.31875 26.851250000000014 V-97.4725 H139.6425 V26.851250000000014 H15.31875 Z M30.47625 -57.15999999999998 H124.32375 V-82.15374999999999 H30.47625 V-57.15999999999998 Z M30.47625 -22.97499999999998 H124.32375 V-47.484999999999985 H30.47625 V-22.97499999999998 Z M30.47625 11.693750000000016 H124.32375 V-13.299999999999983 H30.47625 V11.693750000000016 Z M40.635 -65.38374999999999 V-73.76874999999998 H49.18125 V-65.38374999999999 H40.635 Z M40.635 -31.03749999999998 V-39.422499999999985 H49.18125 V-31.03749999999998 H40.635 Z M40.635 3.3087500000000176 V-5.0762499999999875 H49.18125 V3.3087500000000176 H40.635 Z"/></g><g id="Semibold-L" transform="matrix(1 0 0 1 1970.27 1556)"><path d="M17.07137625 25.098623750000016 V-95.64973 H137.81973000000002 V25.098623750000016 H17.07137625 Z M29.84527875 -57.44041374999999 H124.95472125 V-82.78472124999999 H29.84527875 V-57.44041374999999 Z M29.84527875 -22.694586249999986 H124.95472125 V-47.76541374999999 H29.84527875 V-22.694586249999986 Z M29.84527875 12.324721250000017 H124.95472125 V-13.019586249999989 H29.84527875 V12.324721250000017 Z M40.004028749999996 -65.59401999999999 V-74.5398475 H49.0409625 V-65.59401999999999 H40.004028749999996 Z M40.004028749999996 -30.757086249999986 V-39.70291374999998 H49.0409625 V-30.757086249999986 H40.004028749999996 Z M40.004028749999996 4.079847500000014 V-4.865979999999986 H49.0409625 V4.079847500000014 H40.004028749999996 Z"/></g><g id="Medium-L" transform="matrix(1 0 0 1 1674.31 1556)"><path d="M18.3860475 23.783952500000016 V-94.28265249999998 H136.4526525 V23.783952500000016 H18.3860475 Z M29.37201 -57.650683749999985 H125.42799 V-83.25798999999998 H29.37201 V-57.650683749999985 Z M29.37201 -22.484316249999978 H125.42799 V-47.97568374999999 H29.37201 V-22.484316249999978 Z M29.37201 12.797990000000016 H125.42799 V-12.809316249999988 H29.37201 V12.797990000000016 Z M39.53076 -65.75188374999999 V-75.11841249999999 H48.9358275 V-65.75188374999999 H39.53076 Z M39.53076 -30.546816249999992 V-39.91318374999999 H48.9358275 V-30.546816249999992 H39.53076 Z M39.53076 4.6584125000000185 V-4.708116249999982 H48.9358275 V4.6584125000000185 H39.53076 Z"/></g><g id="Regular-L" transform="matrix(1 0 0 1 1378.56 1556)"><path d="M19.35 22.820000000000014 V-93.28 H135.45000000000002 V22.820000000000014 H19.35 Z M29.025000000000002 -57.80499999999999 H125.775 V-83.60499999999999 H29.025000000000002 V-57.80499999999999 Z M29.025000000000002 -22.329999999999984 H125.775 V-48.12999999999998 H29.025000000000002 V-22.329999999999984 Z M29.025000000000002 13.145000000000014 H125.775 V-12.654999999999987 H29.025000000000002 V13.145000000000014 Z M39.18375 -65.86749999999999 V-75.54249999999999 H48.85875 V-65.86749999999999 H39.18375 Z M39.18375 -30.392499999999984 V-40.06749999999998 H48.85875 V-30.392499999999984 H39.18375 Z M39.18375 5.082500000000017 V-4.592499999999987 H48.85875 V5.082500000000017 H39.18375 Z"/></g><g id="Light-L" transform="matrix(1 0 0 1 1082.77 1556)"><path d="M22.57516125 19.594838750000015 V-90.05483874999999 H132.22483875 V19.594838750000015 H22.57516125 Z M29.89333125 -55.94433624999999 H124.90666875000001 V-82.73666874999999 H29.89333125 V-55.94433624999999 Z M29.89333125 -21.833833749999982 H124.90666875000001 V-48.62616624999998 H29.89333125 V-21.833833749999982 Z M29.89333125 12.276668750000017 H124.90666875000001 V-14.51566374999998 H29.89333125 V12.276668750000017 Z M41.54058 -64.68908499999999 V-73.99192 H50.843576250000005 V-64.68908499999999 H41.54058 Z M41.54058 -30.578582499999982 V-39.88141749999998 H50.843576250000005 V-30.578582499999982 H41.54058 Z M41.54058 3.5319200000000137 V-5.770914999999981 H50.843576250000005 V3.5319200000000137 H41.54058 Z"/></g><g id="Thin-L" transform="matrix(1 0 0 1 787.282 1556)"><path d="M25.8 16.370000000000015 V-86.82999999999998 H129.0 V16.370000000000015 H25.8 Z M30.761501250000002 -54.08383374999998 H124.03849875 V-81.86849874999999 H30.761501250000002 V-54.08383374999998 Z M30.761501250000002 -21.337667499999988 H124.03849875 V-49.122332499999985 H30.761501250000002 V-21.337667499999988 Z M30.761501250000002 11.408498750000014 H124.03849875 V-16.376166249999983 H30.761501250000002 V11.408498750000014 Z M43.89724875 -63.51083124999998 V-72.44150124999999 H52.82791875 V-63.51083124999998 H43.89724875 Z M43.89724875 -30.76466499999998 V-39.695334999999986 H52.82791875 V-30.76466499999998 H43.89724875 Z M43.89724875 1.981501250000015 V-6.949168749999984 H52.82791875 V1.981501250000015 H43.89724875 Z"/></g><g id="Ultralight-L" transform="matrix(1 0 0 1 491.205 1556)"><path d="M27.735 14.435000000000016 V-84.89499999999998 H127.065 V14.435000000000016 H27.735 Z M31.282500000000002 -52.96749999999999 H123.5175 V-81.34749999999998 H31.282500000000002 V-52.96749999999999 Z M31.282500000000002 -21.039999999999985 H123.5175 V-49.41999999999999 H31.282500000000002 V-21.039999999999985 Z M31.282500000000002 10.887500000000014 H123.5175 V-17.492499999999986 H31.282500000000002 V10.887500000000014 Z M45.31125 -62.803749999999994 V-71.51124999999999 H54.018750000000004 V-62.803749999999994 H45.31125 Z M45.31125 -30.876249999999985 V-39.58374999999998 H54.018750000000004 V-30.876249999999985 H45.31125 Z M45.31125 1.0512500000000173 V-7.656249999999986 H54.018750000000004 V1.0512500000000173 H45.31125 Z"/></g><g id="Bold-M" transform="matrix(1 0 0 1 2281.8 1126)"><path d="M10.75 14.02000000000001 V-84.47999999999999 H109.25 V14.02000000000001 H10.75 Z M26.5 -52.97999999999999 H93.5 V-68.72999999999999 H26.5 V-52.97999999999999 Z M26.5 -27.47999999999999 H93.5 V-42.97999999999999 H26.5 V-27.47999999999999 Z M26.5 -1.7299999999999898 H93.5 V-17.47999999999999 H26.5 V-1.7299999999999898 Z M31.5 -56.47999999999999 V-65.10499999999999 H40.25 V-56.47999999999999 H31.5 Z M31.5 -30.85499999999999 V-39.60499999999999 H40.25 V-30.85499999999999 H31.5 Z M31.5 -5.35499999999999 V-13.97999999999999 H40.25 V-5.35499999999999 H31.5 Z"/></g><g id="Semibold-M" transform="matrix(1 0 0 1 1985.97 1126)"><path d="M12.59775 12.17225000000001 V-82.63224999999998 H107.40225 V12.17225000000001 H12.59775 Z M25.847875 -53.25174999999999 H94.152125 V-69.38212499999999 H25.847875 V-53.25174999999999 Z M25.847875 -27.208249999999992 H94.152125 V-43.25174999999999 H25.847875 V-27.208249999999992 Z M25.847875 -1.0778749999999881 H94.152125 V-17.208249999999992 H25.847875 V-1.0778749999999881 Z M30.847875 -56.697374999999994 V-65.92012499999998 H40.14125 V-56.697374999999994 H30.847875 Z M30.847875 -30.583249999999992 V-39.87674999999999 H40.14125 V-30.583249999999992 H30.847875 Z M30.847875 -4.5398749999999914 V-13.762624999999993 H40.14125 V-4.5398749999999914 H30.847875 Z"/></g><g id="Medium-M" transform="matrix(1 0 0 1 1689.91 1126)"><path d="M13.983625 10.78637500000001 V-81.24637499999999 H106.016375 V10.78637500000001 H13.983625 Z M25.35875 -53.45549999999999 H94.64125 V-69.87124999999999 H25.35875 V-53.45549999999999 Z M25.35875 -27.004499999999993 H94.64125 V-43.45549999999999 H25.35875 V-27.004499999999993 Z M25.35875 -0.5887499999999903 H94.64125 V-17.004499999999993 H25.35875 V-0.5887499999999903 Z M30.35875 -56.86037499999999 V-66.53162499999999 H40.05975 V-56.86037499999999 H30.35875 Z M30.35875 -30.379499999999993 V-40.08049999999999 H40.05975 V-30.379499999999993 H30.35875 Z M30.35875 -3.9283749999999884 V-13.599624999999989 H40.05975 V-3.9283749999999884 H30.35875 Z"/></g><g id="Regular-M" transform="matrix(1 0 0 1 1394.06 1126)"><path d="M15.0 9.77000000000001 V-80.22999999999999 H105.0 V9.77000000000001 H15.0 Z M25.0 -53.60499999999999 H95.0 V-70.22999999999999 H25.0 V-53.60499999999999 Z M25.0 -26.85499999999999 H95.0 V-43.60499999999999 H25.0 V-26.85499999999999 Z M25.0 -0.22999999999998977 H95.0 V-16.85499999999999 H25.0 V-0.22999999999998977 Z M30.0 -56.97999999999999 V-66.97999999999999 H40.0 V-56.97999999999999 H30.0 Z M30.0 -30.22999999999999 V-40.22999999999999 H40.0 V-30.22999999999999 H30.0 Z M30.0 -3.4799999999999898 V-13.47999999999999 H40.0 V-3.4799999999999898 H30.0 Z"/></g><g id="Light-M" transform="matrix(1 0 0 1 1098.18 1126)"><path d="M17.500125 7.26987500000001 V-77.72987499999999 H102.499875 V7.26987500000001 H17.500125 Z M25.0 -51.922124999999994 H95.0 V-70.22999999999999 H25.0 V-51.922124999999994 Z M25.0 -26.03762499999999 H95.0 V-44.42237499999999 H25.0 V-26.03762499999999 Z M25.0 -0.22999999999998977 H95.0 V-18.537874999999993 H25.0 V-0.22999999999998977 Z M31.92325 -56.59537499999999 V-65.63374999999999 H40.961625 V-56.59537499999999 H31.92325 Z M31.92325 -30.71074999999999 V-39.74924999999999 H40.961625 V-30.71074999999999 H31.92325 Z M31.92325 -4.826249999999991 V-13.86462499999999 H40.961625 V-4.826249999999991 H31.92325 Z"/></g><g id="Thin-M" transform="matrix(1 0 0 1 802.565 1126)"><path d="M20.0 4.77000000000001 V-75.22999999999999 H100.0 V4.77000000000001 H20.0 Z M25.0 -50.23962499999999 H95.0 V-70.22999999999999 H25.0 V-50.23962499999999 Z M25.0 -25.22037499999999 H95.0 V-45.23962499999999 H25.0 V-25.22037499999999 Z M25.0 -0.22999999999998977 H95.0 V-20.22037499999999 H25.0 V-0.22999999999998977 Z M33.846125 -56.21074999999999 V-64.28774999999999 H41.923125 V-56.21074999999999 H33.846125 Z M33.846125 -31.19149999999999 V-39.26849999999999 H41.923125 V-31.19149999999999 H33.846125 Z M33.846125 -6.172249999999991 V-14.24924999999999 H41.923125 V-6.172249999999991 H33.846125 Z"/></g><g id="Ultralight-M" transform="matrix(1 0 0 1 506.415 1126)"><path d="M21.5 3.2700000000000102 V-73.72999999999999 H98.5 V3.2700000000000102 H21.5 Z M25.0 -49.22999999999999 H95.0 V-70.22999999999999 H25.0 V-49.22999999999999 Z M25.0 -24.72999999999999 H95.0 V-45.72999999999999 H25.0 V-24.72999999999999 Z M25.0 -0.22999999999998977 H95.0 V-21.22999999999999 H25.0 V-0.22999999999998977 Z M35.0 -55.97999999999999 V-63.47999999999999 H42.5 V-55.97999999999999 H35.0 Z M35.0 -31.47999999999999 V-38.97999999999999 H42.5 V-31.47999999999999 H35.0 Z M35.0 -6.97999999999999 V-14.47999999999999 H42.5 V-6.97999999999999 H35.0 Z"/></g><g id="Bold-S" transform="matrix(1 0 0 1 2294.23 696)"><path d="M10.84875 1.2612500000000129 V-71.72124999999998 H83.83125 V1.2612500000000129 H10.84875 Z M22.4865 -48.14987499999999 H72.1935 V-60.08349999999999 H22.4865 V-48.14987499999999 Z M22.4865 -29.41112499999999 H72.1935 V-41.04887499999999 H22.4865 V-29.41112499999999 Z M22.4865 -10.376499999999986 H72.1935 V-22.310124999999985 H22.4865 V-10.376499999999986 Z M27.2205 -51.00999999999999 V-57.02612499999999 H33.33525 V-51.00999999999999 H27.2205 Z M27.2205 -32.17262499999999 V-38.28737499999999 H33.33525 V-32.17262499999999 H27.2205 Z M27.2205 -13.433874999999986 V-19.44999999999999 H33.33525 V-13.433874999999986 H27.2205 Z"/></g><g id="Semibold-S" transform="matrix(1 0 0 1 1998.1 696)"><path d="M12.306624750000001 -0.19662474999998736 V-70.26337524999998 H82.37337525 V-0.19662474999998736 H12.306624750000001 Z M21.971973375 -48.364285749999986 H72.708026625 V-60.59802662499999 H21.971973375 V-48.364285749999986 Z M21.971973375 -29.196714249999992 H72.708026625 V-41.26328574999999 H21.971973375 V-29.196714249999992 Z M21.971973375 -9.861973374999987 H72.708026625 V-22.095714249999993 H21.971973375 V-9.861973374999987 Z M26.705973375000003 -51.18150887499999 V-57.66925862499998 H33.24944625 V-51.18150887499999 H26.705973375000003 Z M26.705973375000003 -31.95821424999999 V-38.50178574999999 H33.24944625 V-31.95821424999999 H26.705973375000003 Z M26.705973375000003 -12.790741374999989 V-19.27849112499999 H33.24944625 V-12.790741374999989 H26.705973375000003 Z"/></g><g id="Medium-S" transform="matrix(1 0 0 1 1701.85 696)"><path d="M13.400080125 -1.290080124999987 V-69.16991987499999 H81.279919875 V-1.290080124999987 H13.400080125 Z M21.58605375 -48.525044499999986 H73.09394625 V-60.98394624999999 H21.58605375 V-48.525044499999986 Z M21.58605375 -29.035955499999993 H73.09394625 V-41.42404449999999 H21.58605375 V-29.035955499999993 Z M21.58605375 -9.476053749999988 H73.09394625 V-21.934955499999994 H21.58605375 V-9.476053749999988 Z M26.320053750000003 -51.31011587499999 V-58.151732124999995 H33.185142750000004 V-51.31011587499999 H26.320053750000003 Z M26.320053750000003 -31.79745549999999 V-38.66254449999999 H33.185142750000004 V-31.79745549999999 H26.320053750000003 Z M26.320053750000003 -12.308267874999988 V-19.149884124999986 H33.185142750000004 V-12.308267874999988 H26.320053750000003 Z"/></g><g id="Regular-S" transform="matrix(1 0 0 1 1405.73 696)"><path d="M14.202 -2.0919999999999863 V-68.368 H80.47800000000001 V-2.0919999999999863 H14.202 Z M21.303 -48.64299999999999 H73.37700000000001 V-61.266999999999996 H21.303 V-48.64299999999999 Z M21.303 -28.917999999999985 H73.37700000000001 V-41.54199999999999 H21.303 V-28.917999999999985 Z M21.303 -9.192999999999987 H73.37700000000001 V-21.816999999999986 H21.303 V-9.192999999999987 Z M26.037000000000003 -51.40449999999999 V-58.505499999999984 H33.138 V-51.40449999999999 H26.037000000000003 Z M26.037000000000003 -31.67949999999999 V-38.78049999999999 H33.138 V-31.67949999999999 H26.037000000000003 Z M26.037000000000003 -11.954499999999989 V-19.055499999999988 H33.138 V-11.954499999999989 H26.037000000000003 Z"/></g><g id="Light-S" transform="matrix(1 0 0 1 1109.75 696)"><path d="M16.174598625 -4.064598624999988 V-66.39540137499999 H78.505401375 V-4.064598624999988 H16.174598625 Z M21.303 -47.31521162499999 H73.37700000000001 V-61.266999999999996 H21.303 V-47.31521162499999 Z M21.303 -28.273091124999986 H73.37700000000001 V-42.186908874999986 H21.303 V-28.273091124999986 Z M21.303 -9.192999999999987 H73.37700000000001 V-23.14478837499999 H21.303 V-9.192999999999987 Z M27.554444250000003 -51.10103087499999 V-57.443308749999986 H33.896722125 V-51.10103087499999 H27.554444250000003 Z M27.554444250000003 -32.05881174999999 V-38.40118824999999 H33.896722125 V-32.05881174999999 H27.554444250000003 Z M27.554444250000003 -13.016691249999987 V-19.358969124999987 H33.896722125 V-13.016691249999987 H27.554444250000003 Z"/></g><g id="Thin-S" transform="matrix(1 0 0 1 814.015 696)"><path d="M18.147000000000002 -6.036999999999988 V-64.42299999999999 H76.533 V-6.036999999999988 H18.147000000000002 Z M21.303 -45.98771912499999 H73.37700000000001 V-61.266999999999996 H21.303 V-45.98771912499999 Z M21.303 -27.628280874999987 H73.37700000000001 V-42.831719124999985 H21.303 V-27.628280874999987 Z M21.303 -9.192999999999987 H73.37700000000001 V-24.47228087499999 H21.303 V-9.192999999999987 Z M29.071592625 -50.79756174999999 V-56.38131474999999 H34.655345625 V-50.79756174999999 H29.071592625 Z M29.071592625 -32.43812349999999 V-38.02187649999999 H34.655345625 V-32.43812349999999 H29.071592625 Z M29.071592625 -14.078685249999989 V-19.662438249999987 H34.655345625 V-14.078685249999989 H29.071592625 Z"/></g><g id="Ultralight-S" transform="matrix(1 0 0 1 517.792 696)"><path d="M19.3305 -7.220499999999987 V-63.23949999999999 H75.3495 V-7.220499999999987 H19.3305 Z M21.303 -45.191124999999985 H73.37700000000001 V-61.266999999999996 H21.303 V-45.191124999999985 Z M21.303 -27.24137499999999 H73.37700000000001 V-43.21862499999999 H21.303 V-27.24137499999999 Z M21.303 -9.192999999999987 H73.37700000000001 V-25.268874999999987 H21.303 V-9.192999999999987 Z M29.982000000000003 -50.61549999999999 V-55.743999999999986 H35.1105 V-50.61549999999999 H29.982000000000003 Z M29.982000000000003 -32.66574999999999 V-37.79424999999999 H35.1105 V-32.66574999999999 H29.982000000000003 Z M29.982000000000003 -14.715999999999987 V-19.84449999999999 H35.1105 V-14.715999999999987 H29.982000000000003 Z"/></g></g></svg>