<svg xmlns="http://www.w3.org/2000/svg" version="1.1" width="3300" height="2000"><g id="Notes"><style>
    text {
      font-family: monospace;
      text-anchor: middle;
    }
    text.emphasis {
      font-weight:bold;
    }
    text.lanchor {
      text-anchor: start;
    }
  </style><rect height="2200" id="artboard" fill="white" width="3300" x="0" y="0"/><line id="" style="fill:none;stroke:black;stroke-width:0.5;" x1="263" x2="3036" y1="292" y2="292"/><text class="lanchor emphasis" transform="matrix(1 0 0 1 263 322)">Weight/Scale Variations</text><text transform="matrix(1 0 0 1 559.711 322)">Ultralight</text><text transform="matrix(1 0 0 1 856.422 322)">Thin</text><text transform="matrix(1 0 0 1 1153.13 322)">Light</text><text transform="matrix(1 0 0 1 1449.84 322)">Regular</text><text transform="matrix(1 0 0 1 1746.56 322)">Medium</text><text transform="matrix(1 0 0 1 2043.27 322)">Semibold</text><text transform="matrix(1 0 0 1 2339.98 322)">Bold</text><text transform="matrix(1 0 0 1 2636.69 322)">Heavy</text><text transform="matrix(1 0 0 1 2933.4 322)">Black</text><text id="template-version" style="text-anchor: end;" transform="matrix(1 0 0 1 3036 1933)">Template v.1.0</text><text class="lanchor" transform="matrix(1 0 0 1 263 726)">Small</text><text class="lanchor" transform="matrix(1 0 0 1 263 1156)">Medium</text><text class="lanchor" transform="matrix(1 0 0 1 263 1586)">Large</text></g><g id="Guides"><g id="H-reference" style="fill:#27AAE1;stroke:none;" transform="matrix(1 0 0 1 339 696)"><path d="M 54.9316 0 L 57.666 0 L 30.5664 -70.459 L 28.0762 -70.459 L 0.976562 0 L 3.66211 0 L 12.9395 -24.4629 L 45.7031 -24.4629 Z M 29.1992 -67.0898 L 29.4434 -67.0898 L 44.8242 -26.709 L 13.8184 -26.709 Z"/></g><line id="Baseline-S" style="fill:none;stroke:#27AAE1;opacity:1;stroke-width:0.577;" x1="263" x2="3036" y1="696" y2="696"/><line id="Capline-S" style="fill:none;stroke:#27AAE1;opacity:1;stroke-width:0.577;" x1="263" x2="3036" y1="625.541" y2="625.541"/><g id="H-reference" style="fill:#27AAE1;stroke:none;" transform="matrix(1 0 0 1 339 1126)"><path d="M 54.9316 0 L 57.666 0 L 30.5664 -70.459 L 28.0762 -70.459 L 0.976562 0 L 3.66211 0 L 12.9395 -24.4629 L 45.7031 -24.4629 Z M 29.1992 -67.0898 L 29.4434 -67.0898 L 44.8242 -26.709 L 13.8184 -26.709 Z"/></g><line id="Baseline-M" style="fill:none;stroke:#27AAE1;opacity:1;stroke-width:0.577;" x1="263" x2="3036" y1="1126" y2="1126"/><line id="Capline-M" style="fill:none;stroke:#27AAE1;opacity:1;stroke-width:0.577;" x1="263" x2="3036" y1="1055.54" y2="1055.54"/><g id="H-reference" style="fill:#27AAE1;stroke:none;" transform="matrix(1 0 0 1 339 1556)"><path d="M 54.9316 0 L 57.666 0 L 30.5664 -70.459 L 28.0762 -70.459 L 0.976562 0 L 3.66211 0 L 12.9395 -24.4629 L 45.7031 -24.4629 Z M 29.1992 -67.0898 L 29.4434 -67.0898 L 44.8242 -26.709 L 13.8184 -26.709 Z"/></g><line id="Baseline-L" style="fill:none;stroke:#27AAE1;opacity:1;stroke-width:0.577;" x1="263" x2="3036" y1="1556" y2="1556"/><line id="Capline-L" style="fill:none;stroke:#27AAE1;opacity:1;stroke-width:0.577;" x1="263" x2="3036" y1="1485.54" y2="1485.54"/><rect height="119.336" id="left-margin" style="fill:darkred;stroke:none;opacity:0.4;" width="12.4512" x="1394.06" y="1030.79"/><rect height="119.336" id="right-margin" style="fill:darkgreen;stroke:none;opacity:0.4;" width="12.4512" x="1502.5112" y="1030.79"/><rect x="1406.5112" y="1045" width="96" height="96" fill="none" stroke="blue" stroke-dasharray="5"/><rect x="1394.06" y="1030.79" width="120.9024" height="119.336" fill="none" stroke="blue"/></g><g id="Symbols"><g id="Bold-L" transform="matrix(1 0 0 1 2266 1556)"><path d="M80.9475 -15.396249999999995 H99.00750000000001 Q103.84500000000001 -15.396249999999995 106.90875 -18.459999999999994 Q109.97250000000001 -21.523749999999993 109.97250000000001 -26.522499999999994 V-42.0025 Q109.97250000000001 -46.84 106.90875 -49.98437499999999 Q103.84500000000001 -53.12875 99.00750000000001 -53.12875 H80.78625000000001 V-69.0925 Q80.78625000000001 -69.0925 80.78625000000001 -69.0925 Q80.78625000000001 -69.0925 80.78625000000001 -69.0925 H103.03875000000001 V-80.0575 H80.9475 Q75.94875 -80.0575 72.885 -76.99374999999999 Q69.82124999999999 -73.92999999999999 69.82124999999999 -69.0925 V-26.522499999999994 Q69.82124999999999 -21.523749999999993 72.885 -18.459999999999994 Q75.94875 -15.396249999999995 80.9475 -15.396249999999995 Z M80.78625000000001 -42.0025 H99.00750000000001 Q99.00750000000001 -42.0025 99.00750000000001 -42.0025 Q99.00750000000001 -42.0025 99.00750000000001 -42.0025 V-26.522499999999994 Q99.00750000000001 -26.522499999999994 99.00750000000001 -26.522499999999994 Q99.00750000000001 -26.522499999999994 99.00750000000001 -26.522499999999994 H80.78625000000001 Q80.78625000000001 -26.522499999999994 80.78625000000001 -26.522499999999994 Q80.78625000000001 -26.522499999999994 80.78625000000001 -26.522499999999994 V-42.0025 Z M45.956250000000004 10.726250000000007 Q40.15125 10.726250000000007 35.716875 6.2918750000000045 Q31.2825 1.8575000000000017 31.2825 -3.9474999999999767 V-91.345 Q31.2825 -97.14999999999999 35.716875 -101.66499999999999 Q40.15125 -106.17999999999999 45.956250000000004 -106.17999999999999 H133.35375000000002 Q139.15875 -106.17999999999999 143.593125 -101.66499999999999 Q148.0275 -97.14999999999999 148.0275 -91.345 V-3.9474999999999767 Q148.0275 1.8575000000000017 143.593125 6.2918750000000045 Q139.15875 10.726250000000007 133.35375000000002 10.726250000000007 H45.956250000000004 Z M45.956250000000004 -3.9474999999999767 H133.35375000000002 Q133.35375000000002 -3.9474999999999767 133.35375000000002 -3.9474999999999767 Q133.35375000000002 -3.9474999999999767 133.35375000000002 -3.9474999999999767 V-91.345 Q133.35375000000002 -91.345 133.35375000000002 -91.345 Q133.35375000000002 -91.345 133.35375000000002 -91.345 H45.956250000000004 Q45.956250000000004 -91.345 45.956250000000004 -91.345 Q45.956250000000004 -91.345 45.956250000000004 -91.345 V-3.9474999999999767 Q45.956250000000004 -3.9474999999999767 45.956250000000004 -3.9474999999999767 Q45.956250000000004 -3.9474999999999767 45.956250000000004 -3.9474999999999767 Z M21.6075 35.07499999999999 Q15.64125 35.07499999999999 11.2875 30.640625 Q6.93375 26.20625000000001 6.93375 20.401250000000005 V-81.66999999999999 H21.6075 V20.401250000000005 Q21.6075 20.401250000000005 21.6075 20.401250000000005 Q21.6075 20.401250000000005 21.6075 20.401250000000005 H123.67875000000001 V35.07499999999999 H21.6075 Z"/></g><g id="Semibold-L" transform="matrix(1 0 0 1 1970.27 1556)"><path d="M80.625 -13.622499999999988 H97.7175 Q102.555 -13.622499999999988 105.77999999999999 -16.847499999999997 Q109.005 -20.07249999999999 109.005 -24.909999999999997 V-40.71249999999999 Q109.005 -45.55 105.77999999999999 -48.855624999999996 Q102.555 -52.161249999999995 97.7175 -52.161249999999995 H80.625 V-68.28625 Q80.625 -68.28625 80.625 -68.28625 Q80.625 -68.28625 80.625 -68.28625 H102.07124999999999 V-79.57374999999999 H80.625 Q75.78750000000001 -79.57374999999999 72.5625 -76.34875 Q69.3375 -73.12375 69.3375 -68.28625 V-24.909999999999997 Q69.3375 -20.07249999999999 72.5625 -16.847499999999997 Q75.78750000000001 -13.622499999999988 80.625 -13.622499999999988 Z M80.625 -40.71249999999999 H97.7175 Q97.7175 -40.71249999999999 97.7175 -40.71249999999999 Q97.7175 -40.71249999999999 97.7175 -40.71249999999999 V-24.909999999999997 Q97.7175 -24.909999999999997 97.7175 -24.909999999999997 Q97.7175 -24.909999999999997 97.7175 -24.909999999999997 H80.625 Q80.625 -24.909999999999997 80.625 -24.909999999999997 Q80.625 -24.909999999999997 80.625 -24.909999999999997 V-40.71249999999999 Z M44.505 11.371250000000018 Q39.18375 11.371250000000018 35.1525 7.340000000000018 Q31.121250000000003 3.3087500000000176 31.121250000000003 -2.012500000000003 V-90.86125 Q31.121250000000003 -96.1825 35.1525 -100.294375 Q39.18375 -104.40625 44.505 -104.40625 H133.515 Q138.83625 -104.40625 142.8675 -100.294375 Q146.89875 -96.1825 146.89875 -90.86125 V-2.012500000000003 Q146.89875 3.3087500000000176 142.8675 7.340000000000018 Q138.83625 11.371250000000018 133.515 11.371250000000018 H44.505 Z M44.505 -2.012500000000003 H133.515 Q133.515 -2.012500000000003 133.515 -2.012500000000003 Q133.515 -2.012500000000003 133.515 -2.012500000000003 V-90.86125 Q133.515 -90.86125 133.515 -90.86125 Q133.515 -90.86125 133.515 -90.86125 H44.505 Q44.505 -90.86125 44.505 -90.86125 Q44.505 -90.86125 44.505 -90.86125 V-2.012500000000003 Q44.505 -2.012500000000003 44.505 -2.012500000000003 Q44.505 -2.012500000000003 44.505 -2.012500000000003 Z M21.446250000000003 34.59125 Q16.125 34.59125 12.09375 30.479375000000005 Q8.0625 26.367500000000007 8.0625 21.046250000000015 V-81.18625 H21.446250000000003 V21.046250000000015 Q21.446250000000003 21.046250000000015 21.446250000000003 21.046250000000015 Q21.446250000000003 21.046250000000015 21.446250000000003 21.046250000000015 H123.84 V34.59125 H21.446250000000003 Z"/></g><g id="Medium-L" transform="matrix(1 0 0 1 1674.31 1556)"><path d="M80.46375 -12.17125 H96.75 Q101.42625 -12.17125 104.893125 -15.638124999999988 Q108.36000000000001 -19.10499999999999 108.36000000000001 -23.781249999999986 V-39.74499999999999 Q108.36000000000001 -44.42125 104.893125 -47.888125 Q101.42625 -51.355 96.75 -51.355 H80.46375 V-67.8025 Q80.46375 -67.8025 80.46375 -67.8025 Q80.46375 -67.8025 80.46375 -67.8025 H101.42625 V-79.25125 H80.46375 Q75.62625 -79.25125 72.24 -75.865 Q68.85375 -72.47874999999999 68.85375 -67.8025 V-23.781249999999986 Q68.85375 -19.10499999999999 72.24 -15.638124999999988 Q75.62625 -12.17125 80.46375 -12.17125 Z M80.46375 -39.74499999999999 H96.75 Q96.75 -39.74499999999999 96.75 -39.74499999999999 Q96.75 -39.74499999999999 96.75 -39.74499999999999 V-23.781249999999986 Q96.75 -23.781249999999986 96.75 -23.781249999999986 Q96.75 -23.781249999999986 96.75 -23.781249999999986 H80.46375 Q80.46375 -23.781249999999986 80.46375 -23.781249999999986 Q80.46375 -23.781249999999986 80.46375 -23.781249999999986 V-39.74499999999999 Z M43.5375 12.01625 Q38.53875 12.01625 34.749375 8.226875000000007 Q30.96 4.4375 30.96 -0.5612499999999869 V-90.53875 Q30.96 -95.5375 34.749375 -99.326875 Q38.53875 -103.11625 43.5375 -103.11625 H133.67625 Q138.51375000000002 -103.11625 142.303125 -99.326875 Q146.0925 -95.5375 146.0925 -90.53875 V-0.5612499999999869 Q146.0925 4.4375 142.303125 8.226875000000007 Q138.51375000000002 12.01625 133.67625 12.01625 H43.5375 Z M43.5375 -0.5612499999999869 H133.67625 Q133.67625 -0.5612499999999869 133.67625 -0.5612499999999869 Q133.67625 -0.5612499999999869 133.67625 -0.5612499999999869 V-90.53875 Q133.67625 -90.53875 133.67625 -90.53875 Q133.67625 -90.53875 133.67625 -90.53875 H43.5375 Q43.5375 -90.53875 43.5375 -90.53875 Q43.5375 -90.53875 43.5375 -90.53875 V-0.5612499999999869 Q43.5375 -0.5612499999999869 43.5375 -0.5612499999999869 Q43.5375 -0.5612499999999869 43.5375 -0.5612499999999869 Z M21.285 34.107500000000016 Q16.28625 34.107500000000016 12.5775 30.31812500000001 Q8.86875 26.528750000000002 8.86875 21.691249999999997 V-80.86375 H21.285 V21.691249999999997 Q21.285 21.691249999999997 21.285 21.691249999999997 Q21.285 21.691249999999997 21.285 21.691249999999997 H124.00125000000001 V34.107500000000016 H21.285 Z"/></g><g id="Regular-L" transform="matrix(1 0 0 1 1378.56 1556)"><path d="M80.3025 -11.20375 H96.105 Q100.78125 -11.20375 104.32875000000001 -14.751249999999985 Q107.87625000000001 -18.29875 107.87625000000001 -22.974999999999994 V-39.099999999999994 Q107.87625000000001 -43.77624999999999 104.32875000000001 -47.32374999999999 Q100.78125 -50.871249999999996 96.105 -50.871249999999996 H80.46375 V-67.31875 Q80.46375 -67.31875 80.46375 -67.31875 Q80.46375 -67.31875 80.46375 -67.31875 H100.94250000000001 V-79.09 H80.3025 Q75.62625 -79.09 72.07875000000001 -75.54249999999999 Q68.53125 -71.995 68.53125 -67.31875 V-22.974999999999994 Q68.53125 -18.29875 72.07875000000001 -14.751249999999985 Q75.62625 -11.20375 80.3025 -11.20375 Z M80.46375 -39.099999999999994 H96.105 Q96.105 -39.099999999999994 96.105 -39.099999999999994 Q96.105 -39.099999999999994 96.105 -39.099999999999994 V-22.974999999999994 Q96.105 -22.974999999999994 96.105 -22.974999999999994 Q96.105 -22.974999999999994 96.105 -22.974999999999994 H80.46375 Q80.46375 -22.974999999999994 80.46375 -22.974999999999994 Q80.46375 -22.974999999999994 80.46375 -22.974999999999994 V-39.099999999999994 Z M42.73125 12.338750000000005 Q38.05500000000001 12.338750000000005 34.5075 8.791250000000005 Q30.96 5.243750000000006 30.96 0.5675000000000097 V-90.3775 Q30.96 -95.05375 34.5075 -98.60125 Q38.05500000000001 -102.14874999999999 42.73125 -102.14874999999999 H133.67625 Q138.3525 -102.14874999999999 141.9 -98.60125 Q145.44750000000002 -95.05375 145.44750000000002 -90.3775 V0.5675000000000097 Q145.44750000000002 5.243750000000006 141.9 8.791250000000005 Q138.3525 12.338750000000005 133.67625 12.338750000000005 H42.73125 Z M42.73125 0.5675000000000097 H133.67625 Q133.67625 0.5675000000000097 133.67625 0.5675000000000097 Q133.67625 0.5675000000000097 133.67625 0.5675000000000097 V-90.3775 Q133.67625 -90.3775 133.67625 -90.3775 Q133.67625 -90.3775 133.67625 -90.3775 H42.73125 Q42.73125 -90.3775 42.73125 -90.3775 Q42.73125 -90.3775 42.73125 -90.3775 V0.5675000000000097 Q42.73125 0.5675000000000097 42.73125 0.5675000000000097 Q42.73125 0.5675000000000097 42.73125 0.5675000000000097 Z M21.285 33.785 Q16.60875 33.785 13.06125 30.23750000000001 Q9.513750000000002 26.690000000000026 9.513750000000002 22.013750000000016 V-80.70249999999999 H21.285 V22.013750000000016 Q21.285 22.013750000000016 21.285 22.013750000000016 Q21.285 22.013750000000016 21.285 22.013750000000016 H124.00125000000001 V33.785 H21.285 Z"/></g><g id="Light-L" transform="matrix(1 0 0 1 1082.77 1556)"><path d="M80.625 -13.783749999999998 H94.33125 Q98.84625 -13.783749999999998 102.31312500000001 -17.169999999999987 Q105.77999999999999 -20.55624999999999 105.77999999999999 -25.071249999999992 V-39.099999999999994 Q105.77999999999999 -43.77624999999999 102.31312500000001 -47.162499999999994 Q98.84625 -50.54874999999999 94.33125 -50.54874999999999 H78.85125 V-66.835 Q78.85125 -67.64125 79.415625 -68.205625 Q79.98 -68.77 80.78625000000001 -68.77 H99.00750000000001 V-78.28375 H80.625 Q75.94875 -78.28375 72.5625 -74.816875 Q69.17625 -71.35 69.17625 -66.835 V-25.071249999999992 Q69.17625 -20.55624999999999 72.5625 -17.169999999999987 Q75.94875 -13.783749999999998 80.625 -13.783749999999998 Z M78.85125 -41.19624999999999 H94.33125 Q95.1375 -41.19624999999999 95.7825 -40.631874999999994 Q96.4275 -40.067499999999995 96.4275 -39.099999999999994 V-25.071249999999992 Q96.4275 -24.265 95.7825 -23.700625000000002 Q95.1375 -23.13624999999999 94.33125 -23.13624999999999 H80.78625000000001 Q79.98 -23.13624999999999 79.415625 -23.700625000000002 Q78.85125 -24.265 78.85125 -25.071249999999992 V-41.19624999999999 Z M45.63375 7.340000000000018 Q41.11875 7.340000000000018 37.7325 3.9537499999999994 Q34.346250000000005 0.5675000000000097 34.346250000000005 -3.9474999999999767 V-87.475 Q34.346250000000005 -92.15125 37.7325 -95.5375 Q41.11875 -98.92375 45.63375 -98.92375 H129.16125 Q133.8375 -98.92375 137.22375 -95.5375 Q140.61 -92.15125 140.61 -87.475 V-3.9474999999999767 Q140.61 0.5675000000000097 137.22375 3.9537499999999994 Q133.8375 7.340000000000018 129.16125 7.340000000000018 H45.63375 Z M45.63375 -2.012500000000003 H129.16125 Q129.9675 -2.012500000000003 130.6125 -2.6574999999999847 Q131.25750000000002 -3.302499999999995 131.25750000000002 -3.9474999999999767 V-87.475 Q131.25750000000002 -88.28125 130.6125 -88.92625 Q129.9675 -89.57124999999999 129.16125 -89.57124999999999 H45.63375 Q44.988749999999996 -89.57124999999999 44.34375 -88.92625 Q43.698750000000004 -88.28125 43.698750000000004 -87.475 V-3.9474999999999767 Q43.698750000000004 -3.302499999999995 44.34375 -2.6574999999999847 Q44.988749999999996 -2.012500000000003 45.63375 -2.012500000000003 Z M25.8 27.335000000000008 Q21.12375 27.335000000000008 17.7375 23.948750000000018 Q14.35125 20.5625 14.35125 15.886250000000018 V-76.99374999999999 H23.70375 V15.886250000000018 Q23.70375 16.692500000000024 24.34875 17.337500000000006 Q24.993750000000002 17.982500000000016 25.8 17.982500000000016 H118.67999999999999 V27.335000000000008 H25.8 Z"/></g><g id="Thin-L" transform="matrix(1 0 0 1 787.282 1556)"><path d="M80.9475 -16.363749999999982 H92.5575 Q97.0725 -16.363749999999982 100.378125 -19.58874999999999 Q103.68375 -22.813749999999985 103.68375 -27.32875 V-39.26124999999999 Q103.68375 -43.77624999999999 100.378125 -47.001249999999985 Q97.0725 -50.226249999999986 92.5575 -50.226249999999986 H77.0775 V-66.35125 Q77.0775 -67.96375 78.20625 -69.0925 Q79.33500000000001 -70.22125 81.10875 -70.22125 H96.91125000000001 V-77.31625 H80.9475 Q76.27125 -77.31625 73.04625 -74.09125 Q69.82124999999999 -70.86625 69.82124999999999 -66.35125 V-27.32875 Q69.82124999999999 -22.813749999999985 73.04625 -19.58874999999999 Q76.27125 -16.363749999999982 80.9475 -16.363749999999982 Z M77.0775 -43.131249999999994 H92.5575 Q94.17 -43.131249999999994 95.379375 -42.083124999999995 Q96.58875 -41.035 96.58875 -39.26124999999999 V-27.32875 Q96.58875 -25.716250000000002 95.379375 -24.506874999999994 Q94.17 -23.2975 92.5575 -23.2975 H81.10875 Q79.49625 -23.2975 78.286875 -24.506874999999994 Q77.0775 -25.716250000000002 77.0775 -27.32875 V-43.131249999999994 Z M48.6975 2.3412500000000023 Q44.1825 2.3412500000000023 40.957499999999996 -0.883749999999992 Q37.7325 -4.108750000000001 37.7325 -8.623749999999987 V-84.73374999999999 Q37.7325 -89.08749999999999 40.957499999999996 -92.393125 Q44.1825 -95.69874999999999 48.6975 -95.69874999999999 H124.80750000000002 Q129.16125 -95.69874999999999 132.46687500000002 -92.393125 Q135.7725 -89.08749999999999 135.7725 -84.73374999999999 V-8.623749999999987 Q135.7725 -4.108750000000001 132.46687500000002 -0.883749999999992 Q129.16125 2.3412500000000023 124.80750000000002 2.3412500000000023 H48.6975 Z M48.6975 -4.592499999999987 H124.80750000000002 Q126.25874999999999 -4.592499999999987 127.468125 -5.882499999999993 Q128.6775 -7.172499999999985 128.6775 -8.623749999999987 V-84.73374999999999 Q128.6775 -86.185 127.468125 -87.394375 Q126.25874999999999 -88.60374999999999 124.80750000000002 -88.60374999999999 H48.6975 Q47.24625 -88.60374999999999 45.956250000000004 -87.394375 Q44.66625 -86.185 44.66625 -84.73374999999999 V-8.623749999999987 Q44.66625 -7.172499999999985 45.956250000000004 -5.882499999999993 Q47.24625 -4.592499999999987 48.6975 -4.592499999999987 Z M30.15375 20.88499999999999 Q25.63875 20.88499999999999 22.41375 17.579375 Q19.188750000000002 14.273750000000007 19.188750000000002 9.920000000000002 V-73.285 H26.28375 V9.920000000000002 Q26.28375 11.371250000000018 27.493125000000003 12.580625000000012 Q28.7025 13.79000000000002 30.15375 13.79000000000002 H113.35875 V20.88499999999999 H30.15375 Z"/></g><g id="Ultralight-L" transform="matrix(1 0 0 1 491.205 1556)"><path d="M81.10875 -17.814999999999998 H91.59 Q95.94375000000001 -17.814999999999998 99.16875 -21.039999999999992 Q102.39375 -24.265 102.39375 -28.61874999999999 V-39.26124999999999 Q102.39375 -43.77624999999999 99.16875 -46.92062499999999 Q95.94375000000001 -50.065 91.59 -50.065 H76.11000000000001 V-66.02875 Q76.11000000000001 -68.125 77.56125 -69.656875 Q79.0125 -71.18875 81.27 -71.18875 H95.7825 V-76.8325 H81.10875 Q76.59375 -76.8325 73.449375 -73.688125 Q70.305 -70.54374999999999 70.305 -66.02875 V-28.61874999999999 Q70.305 -24.265 73.449375 -21.039999999999992 Q76.59375 -17.814999999999998 81.10875 -17.814999999999998 Z M76.11000000000001 -44.42125 H91.59 Q93.68625 -44.42125 95.218125 -42.969999999999985 Q96.75 -41.51875 96.75 -39.26124999999999 V-28.61874999999999 Q96.75 -26.522499999999994 95.218125 -24.990624999999994 Q93.68625 -23.458749999999995 91.59 -23.458749999999995 H81.27 Q79.17375 -23.458749999999995 77.641875 -24.990624999999994 Q76.11000000000001 -26.522499999999994 76.11000000000001 -28.61874999999999 V-44.42125 Z M50.471250000000005 -0.5612499999999869 Q45.956250000000004 -0.5612499999999869 42.811875 -3.7862499999999955 Q39.667500000000004 -7.01124999999999 39.667500000000004 -11.364999999999995 V-82.96 Q39.667500000000004 -87.475 42.811875 -90.61937499999999 Q45.956250000000004 -93.76374999999999 50.471250000000005 -93.76374999999999 H122.06625000000001 Q126.58125 -93.76374999999999 129.725625 -90.61937499999999 Q132.87 -87.475 132.87 -82.96 V-11.364999999999995 Q132.87 -7.01124999999999 129.725625 -3.7862499999999955 Q126.58125 -0.5612499999999869 122.06625000000001 -0.5612499999999869 H50.471250000000005 Z M50.471250000000005 -6.204999999999998 H122.06625000000001 Q124.00125000000001 -6.204999999999998 125.61375000000001 -7.8174999999999955 Q127.22625000000001 -9.429999999999993 127.22625000000001 -11.364999999999995 V-82.96 Q127.22625000000001 -84.895 125.61375000000001 -86.5075 Q124.00125000000001 -88.12 122.06625000000001 -88.12 H50.471250000000005 Q48.53625 -88.12 46.923750000000005 -86.5075 Q45.31125 -84.895 45.31125 -82.96 V-11.364999999999995 Q45.31125 -9.429999999999993 46.923750000000005 -7.8174999999999955 Q48.53625 -6.204999999999998 50.471250000000005 -6.204999999999998 Z M32.894999999999996 17.015000000000015 Q28.380000000000003 17.015000000000015 25.235625000000002 13.79000000000002 Q22.09125 10.565000000000012 22.09125 6.211250000000007 V-71.0275 H27.735 V6.211250000000007 Q27.735 8.146250000000023 29.3475 9.75875000000002 Q30.96 11.371250000000018 32.894999999999996 11.371250000000018 H110.13374999999999 V17.015000000000015 H32.894999999999996 Z"/></g><g id="Bold-M" transform="matrix(1 0 0 1 2281.8 1126)"><path d="M69.375 -22.47999999999999 H78.125 Q84.125 -22.47999999999999 87.69 -26.044999999999987 Q91.25 -29.60499999999999 91.25 -35.60499999999999 V-41.47999999999999 Q91.25 -47.47999999999999 87.69 -51.10499999999999 Q84.125 -54.72999999999999 78.125 -54.72999999999999 H69.375 V-60.85499999999999 Q69.375 -60.85499999999999 69.375 -60.85499999999999 Q69.375 -60.85499999999999 69.375 -60.85499999999999 H86.25 V-73.97999999999999 H69.375 Q63.375 -73.97999999999999 59.75 -70.41499999999999 Q56.125 -66.85499999999999 56.125 -60.85499999999999 V-35.60499999999999 Q56.125 -29.60499999999999 59.75 -26.044999999999987 Q63.375 -22.47999999999999 69.375 -22.47999999999999 Z M69.5 -41.47999999999999 H78.25 Q78.25 -41.47999999999999 78.25 -41.47999999999999 Q78.25 -41.47999999999999 78.25 -41.47999999999999 V-35.60499999999999 Q78.25 -35.60499999999999 78.25 -35.60499999999999 Q78.25 -35.60499999999999 78.25 -35.60499999999999 H69.5 Q69.5 -35.60499999999999 69.5 -35.60499999999999 Q69.5 -35.60499999999999 69.5 -35.60499999999999 V-41.47999999999999 Z M44.75 -2.3549999999999898 Q37.75 -2.3549999999999898 32.75 -7.35499999999999 Q27.75 -12.35499999999999 27.75 -19.35499999999999 V-76.85499999999999 Q27.75 -83.85499999999999 32.75 -88.85499999999999 Q37.75 -93.85499999999999 44.75 -93.85499999999999 H102.25 Q109.25 -93.85499999999999 114.19 -88.85499999999999 Q119.125 -83.85499999999999 119.125 -76.85499999999999 V-19.35499999999999 Q119.125 -12.35499999999999 114.19 -7.35499999999999 Q109.25 -2.3549999999999898 102.25 -2.3549999999999898 H44.75 Z M44.75 -19.35499999999999 H102.25 Q102.25 -19.35499999999999 102.25 -19.35499999999999 Q102.25 -19.35499999999999 102.25 -19.35499999999999 V-76.85499999999999 Q102.25 -76.85499999999999 102.25 -76.85499999999999 Q102.25 -76.85499999999999 102.25 -76.85499999999999 H44.75 Q44.75 -76.85499999999999 44.75 -76.85499999999999 Q44.75 -76.85499999999999 44.75 -76.85499999999999 V-19.35499999999999 Q44.75 -19.35499999999999 44.75 -19.35499999999999 Q44.75 -19.35499999999999 44.75 -19.35499999999999 Z M17.75 24.52000000000001 Q10.75 24.52000000000001 5.81 19.580000000000013 Q0.875 14.64500000000001 0.875 7.64500000000001 V-66.85499999999999 H17.75 V7.64500000000001 Q17.75 7.64500000000001 17.75 7.64500000000001 Q17.75 7.64500000000001 17.75 7.64500000000001 H92.25 V24.52000000000001 H17.75 Z"/></g><g id="Semibold-M" transform="matrix(1 0 0 1 1985.97 1126)"><path d="M68.875 -20.72999999999999 H76.875 Q82.625 -20.72999999999999 86.31500000000001 -24.419999999999987 Q90.0 -28.10499999999999 90.0 -33.97999999999999 V-40.22999999999999 Q90.0 -46.10499999999999 86.31500000000001 -49.79499999999999 Q82.625 -53.47999999999999 76.875 -53.47999999999999 H69.0 V-60.10499999999999 Q69.0 -60.10499999999999 69.0 -60.10499999999999 Q69.0 -60.10499999999999 69.0 -60.10499999999999 H85.0 V-73.35499999999999 H68.875 Q63.0 -73.35499999999999 59.315 -69.66999999999999 Q55.625 -65.97999999999999 55.625 -60.10499999999999 V-33.97999999999999 Q55.625 -28.10499999999999 59.315 -24.419999999999987 Q63.0 -20.72999999999999 68.875 -20.72999999999999 Z M69.125 -40.22999999999999 H77.0 Q77.0 -40.22999999999999 77.0 -40.22999999999999 Q77.0 -40.22999999999999 77.0 -40.22999999999999 V-33.97999999999999 Q77.0 -33.97999999999999 77.0 -33.97999999999999 Q77.0 -33.97999999999999 77.0 -33.97999999999999 H69.125 Q69.125 -33.97999999999999 69.125 -33.97999999999999 Q69.125 -33.97999999999999 69.125 -33.97999999999999 V-40.22999999999999 Z M43.125 -1.9799999999999898 Q36.875 -1.9799999999999898 32.315 -6.47999999999999 Q27.75 -10.97999999999999 27.75 -17.35499999999999 V-76.35499999999999 Q27.75 -82.72999999999999 32.315 -87.22999999999999 Q36.875 -91.72999999999999 43.125 -91.72999999999999 H102.25 Q108.5 -91.72999999999999 113.0 -87.22999999999999 Q117.5 -82.72999999999999 117.5 -76.35499999999999 V-17.35499999999999 Q117.5 -10.97999999999999 113.0 -6.47999999999999 Q108.5 -1.9799999999999898 102.25 -1.9799999999999898 H43.125 Z M43.125 -17.35499999999999 H102.25 Q102.25 -17.35499999999999 102.25 -17.35499999999999 Q102.25 -17.35499999999999 102.25 -17.35499999999999 V-76.35499999999999 Q102.25 -76.35499999999999 102.25 -76.35499999999999 Q102.25 -76.35499999999999 102.25 -76.35499999999999 H43.125 Q43.125 -76.35499999999999 43.125 -76.35499999999999 Q43.125 -76.35499999999999 43.125 -76.35499999999999 V-17.35499999999999 Q43.125 -17.35499999999999 43.125 -17.35499999999999 Q43.125 -17.35499999999999 43.125 -17.35499999999999 Z M17.75 23.27000000000001 Q11.5 23.27000000000001 7.0 18.830000000000013 Q2.5 14.39500000000001 2.5 8.02000000000001 V-66.35499999999999 H17.75 V8.02000000000001 Q17.75 8.02000000000001 17.75 8.02000000000001 Q17.75 8.02000000000001 17.75 8.02000000000001 H92.25 V23.27000000000001 H17.75 Z"/></g><g id="Medium-M" transform="matrix(1 0 0 1 1689.91 1126)"><path d="M68.375 -19.47999999999999 H75.875 Q81.5 -19.47999999999999 85.31 -23.294999999999987 Q89.125 -27.10499999999999 89.125 -32.60499999999999 V-39.35499999999999 Q89.125 -44.97999999999999 85.31 -48.79499999999999 Q81.5 -52.60499999999999 75.875 -52.60499999999999 H68.625 V-59.60499999999999 Q68.625 -59.60499999999999 68.625 -59.60499999999999 Q68.625 -59.60499999999999 68.625 -59.60499999999999 H84.125 V-72.85499999999999 H68.375 Q62.875 -72.85499999999999 59.0 -69.04499999999999 Q55.125 -65.22999999999999 55.125 -59.60499999999999 V-32.60499999999999 Q55.125 -27.10499999999999 59.0 -23.294999999999987 Q62.875 -19.47999999999999 68.375 -19.47999999999999 Z M68.75 -39.35499999999999 H76.0 Q76.0 -39.35499999999999 76.0 -39.35499999999999 Q76.0 -39.35499999999999 76.0 -39.35499999999999 V-32.60499999999999 Q76.0 -32.60499999999999 76.0 -32.60499999999999 Q76.0 -32.60499999999999 76.0 -32.60499999999999 H68.75 Q68.75 -32.60499999999999 68.75 -32.60499999999999 Q68.75 -32.60499999999999 68.75 -32.60499999999999 V-39.35499999999999 Z M42.0 -1.7299999999999898 Q36.125 -1.7299999999999898 32.0 -5.85499999999999 Q27.875 -9.97999999999999 27.875 -15.85499999999999 V-75.97999999999999 Q27.875 -81.85499999999999 32.0 -85.97999999999999 Q36.125 -90.10499999999999 42.0 -90.10499999999999 H102.125 Q108.0 -90.10499999999999 112.125 -85.97999999999999 Q116.25 -81.85499999999999 116.25 -75.97999999999999 V-15.85499999999999 Q116.25 -9.97999999999999 112.125 -5.85499999999999 Q108.0 -1.7299999999999898 102.125 -1.7299999999999898 H42.0 Z M42.0 -15.85499999999999 H102.125 Q102.125 -15.85499999999999 102.125 -15.85499999999999 Q102.125 -15.85499999999999 102.125 -15.85499999999999 V-75.97999999999999 Q102.125 -75.97999999999999 102.125 -75.97999999999999 Q102.125 -75.97999999999999 102.125 -75.97999999999999 H42.0 Q42.0 -75.97999999999999 42.0 -75.97999999999999 Q42.0 -75.97999999999999 42.0 -75.97999999999999 V-15.85499999999999 Q42.0 -15.85499999999999 42.0 -15.85499999999999 Q42.0 -15.85499999999999 42.0 -15.85499999999999 Z M17.875 22.39500000000001 Q12.0 22.39500000000001 7.875 18.27000000000001 Q3.75 14.14500000000001 3.75 8.27000000000001 V-65.97999999999999 H17.875 V8.27000000000001 Q17.875 8.27000000000001 17.875 8.27000000000001 Q17.875 8.27000000000001 17.875 8.27000000000001 H92.125 V22.39500000000001 H17.875 Z"/></g><g id="Regular-M" transform="matrix(1 0 0 1 1394.06 1126)"><path d="M68.125 -18.47999999999999 H75.125 Q80.625 -18.47999999999999 84.5 -22.35499999999999 Q88.375 -26.22999999999999 88.375 -31.72999999999999 V-38.72999999999999 Q88.375 -44.22999999999999 84.5 -48.10499999999999 Q80.625 -51.97999999999999 75.125 -51.97999999999999 H68.375 V-59.22999999999999 Q68.375 -59.22999999999999 68.375 -59.22999999999999 Q68.375 -59.22999999999999 68.375 -59.22999999999999 H83.375 V-72.47999999999999 H68.125 Q62.625 -72.47999999999999 58.75 -68.60499999999999 Q54.875 -64.72999999999999 54.875 -59.22999999999999 V-31.72999999999999 Q54.875 -26.22999999999999 58.75 -22.35499999999999 Q62.625 -18.47999999999999 68.125 -18.47999999999999 Z M68.5 -38.72999999999999 H75.25 Q75.25 -38.72999999999999 75.25 -38.72999999999999 Q75.25 -38.72999999999999 75.25 -38.72999999999999 V-31.72999999999999 Q75.25 -31.72999999999999 75.25 -31.72999999999999 Q75.25 -31.72999999999999 75.25 -31.72999999999999 H68.5 Q68.5 -31.72999999999999 68.5 -31.72999999999999 Q68.5 -31.72999999999999 68.5 -31.72999999999999 V-38.72999999999999 Z M41.125 -1.4799999999999898 Q35.625 -1.4799999999999898 31.75 -5.35499999999999 Q27.875 -9.22999999999999 27.875 -14.72999999999999 V-75.72999999999999 Q27.875 -81.22999999999999 31.75 -85.10499999999999 Q35.625 -88.97999999999999 41.125 -88.97999999999999 H102.125 Q107.625 -88.97999999999999 111.5 -85.10499999999999 Q115.375 -81.22999999999999 115.375 -75.72999999999999 V-14.72999999999999 Q115.375 -9.22999999999999 111.5 -5.35499999999999 Q107.625 -1.4799999999999898 102.125 -1.4799999999999898 H41.125 Z M41.125 -14.72999999999999 H102.125 Q102.125 -14.72999999999999 102.125 -14.72999999999999 Q102.125 -14.72999999999999 102.125 -14.72999999999999 V-75.72999999999999 Q102.125 -75.72999999999999 102.125 -75.72999999999999 Q102.125 -75.72999999999999 102.125 -75.72999999999999 H41.125 Q41.125 -75.72999999999999 41.125 -75.72999999999999 Q41.125 -75.72999999999999 41.125 -75.72999999999999 V-14.72999999999999 Q41.125 -14.72999999999999 41.125 -14.72999999999999 Q41.125 -14.72999999999999 41.125 -14.72999999999999 Z M17.875 21.77000000000001 Q12.375 21.77000000000001 8.5 17.89500000000001 Q4.625 14.02000000000001 4.625 8.52000000000001 V-65.72999999999999 H17.875 V8.52000000000001 Q17.875 8.52000000000001 17.875 8.52000000000001 Q17.875 8.52000000000001 17.875 8.52000000000001 H92.125 V21.77000000000001 H17.875 Z"/></g><g id="Light-M" transform="matrix(1 0 0 1 1098.18 1126)"><path d="M67.125 -19.72999999999999 H73.625 Q78.75 -19.72999999999999 82.31 -23.294999999999987 Q85.875 -26.85499999999999 85.875 -31.97999999999999 V-38.47999999999999 Q85.875 -43.60499999999999 82.31 -47.16999999999999 Q78.75 -50.72999999999999 73.625 -50.72999999999999 H65.875 V-58.97999999999999 Q65.875 -59.60499999999999 66.315 -60.04499999999999 Q66.75 -60.47999999999999 67.375 -60.47999999999999 H80.875 V-71.22999999999999 H67.125 Q62.0 -71.22999999999999 58.440000000000005 -67.66999999999999 Q54.875 -64.10499999999999 54.875 -58.97999999999999 V-31.97999999999999 Q54.875 -26.85499999999999 58.440000000000005 -23.294999999999987 Q62.0 -19.72999999999999 67.125 -19.72999999999999 Z M66.0 -39.97999999999999 H73.75 Q74.375 -39.97999999999999 74.815 -39.54499999999999 Q75.25 -39.10499999999999 75.25 -38.47999999999999 V-31.97999999999999 Q75.25 -31.35499999999999 74.815 -30.919999999999987 Q74.375 -30.47999999999999 73.75 -30.47999999999999 H67.5 Q67.0 -30.47999999999999 66.5 -30.919999999999987 Q66.0 -31.35499999999999 66.0 -31.97999999999999 V-39.97999999999999 Z M41.375 -3.9799999999999898 Q36.25 -3.9799999999999898 32.685 -7.539999999999992 Q29.125 -11.10499999999999 29.125 -16.22999999999999 V-74.22999999999999 Q29.125 -79.35499999999999 32.685 -82.91999999999999 Q36.25 -86.47999999999999 41.375 -86.47999999999999 H99.375 Q104.5 -86.47999999999999 108.065 -82.91999999999999 Q111.625 -79.35499999999999 111.625 -74.22999999999999 V-16.22999999999999 Q111.625 -11.10499999999999 108.065 -7.539999999999992 Q104.5 -3.9799999999999898 99.375 -3.9799999999999898 H41.375 Z M41.375 -14.72999999999999 H99.375 Q99.875 -14.72999999999999 100.375 -15.22999999999999 Q100.875 -15.72999999999999 100.875 -16.22999999999999 V-74.22999999999999 Q100.875 -74.72999999999999 100.375 -75.22999999999999 Q99.875 -75.72999999999999 99.375 -75.72999999999999 H41.375 Q40.875 -75.72999999999999 40.375 -75.22999999999999 Q39.875 -74.72999999999999 39.875 -74.22999999999999 V-16.22999999999999 Q39.875 -15.72999999999999 40.375 -15.22999999999999 Q40.875 -14.72999999999999 41.375 -14.72999999999999 Z M20.625 16.77000000000001 Q15.5 16.77000000000001 11.94 13.210000000000008 Q8.375 9.64500000000001 8.375 4.52000000000001 V-64.22999999999999 H19.125 V4.52000000000001 Q19.125 5.02000000000001 19.625 5.52000000000001 Q20.125 6.02000000000001 20.625 6.02000000000001 H89.375 V16.77000000000001 H20.625 Z"/></g><g id="Thin-M" transform="matrix(1 0 0 1 802.565 1126)"><path d="M66.25 -20.97999999999999 H72.0 Q76.875 -20.97999999999999 80.125 -24.22999999999999 Q83.375 -27.47999999999999 83.375 -32.35499999999999 V-38.10499999999999 Q83.375 -42.97999999999999 80.125 -46.22999999999999 Q76.875 -49.47999999999999 72.0 -49.47999999999999 H63.375 V-58.60499999999999 Q63.375 -59.97999999999999 64.25 -60.85499999999999 Q65.125 -61.72999999999999 66.5 -61.72999999999999 H78.375 V-69.97999999999999 H66.25 Q61.375 -69.97999999999999 58.125 -66.72999999999999 Q54.875 -63.47999999999999 54.875 -58.60499999999999 V-32.35499999999999 Q54.875 -27.47999999999999 58.125 -24.22999999999999 Q61.375 -20.97999999999999 66.25 -20.97999999999999 Z M63.5 -41.22999999999999 H72.125 Q73.5 -41.22999999999999 74.375 -40.35499999999999 Q75.25 -39.47999999999999 75.25 -38.10499999999999 V-32.35499999999999 Q75.25 -30.97999999999999 74.375 -30.10499999999999 Q73.5 -29.22999999999999 72.125 -29.22999999999999 H66.625 Q65.375 -29.22999999999999 64.44 -30.10499999999999 Q63.5 -30.97999999999999 63.5 -32.35499999999999 V-41.22999999999999 Z M41.75 -6.47999999999999 Q36.875 -6.47999999999999 33.625 -9.72999999999999 Q30.375 -12.97999999999999 30.375 -17.85499999999999 V-72.60499999999999 Q30.375 -77.47999999999999 33.625 -80.72999999999999 Q36.875 -83.97999999999999 41.75 -83.97999999999999 H96.5 Q101.375 -83.97999999999999 104.625 -80.72999999999999 Q107.875 -77.47999999999999 107.875 -72.60499999999999 V-17.85499999999999 Q107.875 -12.97999999999999 104.625 -9.72999999999999 Q101.375 -6.47999999999999 96.5 -6.47999999999999 H41.75 Z M41.75 -14.72999999999999 H96.5 Q97.75 -14.72999999999999 98.69 -15.664999999999992 Q99.625 -16.60499999999999 99.625 -17.85499999999999 V-72.60499999999999 Q99.625 -73.85499999999999 98.69 -74.79499999999999 Q97.75 -75.72999999999999 96.5 -75.72999999999999 H41.75 Q40.5 -75.72999999999999 39.56 -74.79499999999999 Q38.625 -73.85499999999999 38.625 -72.60499999999999 V-17.85499999999999 Q38.625 -16.60499999999999 39.56 -15.664999999999992 Q40.5 -14.72999999999999 41.75 -14.72999999999999 Z M23.5 11.77000000000001 Q18.625 11.77000000000001 15.375 8.52000000000001 Q12.125 5.27000000000001 12.125 0.39500000000001023 V-62.60499999999999 H20.375 V0.39500000000001023 Q20.375 1.6450000000000102 21.314999999999998 2.5800000000000125 Q22.25 3.5200000000000102 23.5 3.5200000000000102 H86.5 V11.77000000000001 H23.5 Z"/></g><g id="Ultralight-M" transform="matrix(1 0 0 1 506.415 1126)"><path d="M65.625 -21.72999999999999 H71.125 Q75.75 -21.72999999999999 78.81 -24.794999999999987 Q81.875 -27.85499999999999 81.875 -32.47999999999999 V-37.97999999999999 Q81.875 -42.60499999999999 78.81 -45.66999999999999 Q75.75 -48.72999999999999 71.125 -48.72999999999999 H61.875 V-58.47999999999999 Q61.875 -60.22999999999999 63.0 -61.35499999999999 Q64.125 -62.47999999999999 65.875 -62.47999999999999 H76.875 V-69.22999999999999 H65.625 Q61.0 -69.22999999999999 57.94 -66.16999999999999 Q54.875 -63.10499999999999 54.875 -58.47999999999999 V-32.47999999999999 Q54.875 -27.85499999999999 57.94 -24.794999999999987 Q61.0 -21.72999999999999 65.625 -21.72999999999999 Z M62.0 -41.97999999999999 H71.25 Q73.0 -41.97999999999999 74.125 -40.85499999999999 Q75.25 -39.72999999999999 75.25 -37.97999999999999 V-32.47999999999999 Q75.25 -30.72999999999999 74.125 -29.60499999999999 Q73.0 -28.47999999999999 71.25 -28.47999999999999 H66.0 Q64.5 -28.47999999999999 63.25 -29.60499999999999 Q62.0 -30.72999999999999 62.0 -32.47999999999999 V-41.97999999999999 Z M41.875 -7.97999999999999 Q37.25 -7.97999999999999 34.19 -11.044999999999987 Q31.125 -14.10499999999999 31.125 -18.72999999999999 V-71.72999999999999 Q31.125 -76.35499999999999 34.19 -79.41999999999999 Q37.25 -82.47999999999999 41.875 -82.47999999999999 H94.875 Q99.5 -82.47999999999999 102.56500000000001 -79.41999999999999 Q105.625 -76.35499999999999 105.625 -71.72999999999999 V-18.72999999999999 Q105.625 -14.10499999999999 102.56500000000001 -11.044999999999987 Q99.5 -7.97999999999999 94.875 -7.97999999999999 H41.875 Z M41.875 -14.72999999999999 H94.875 Q96.375 -14.72999999999999 97.625 -15.97999999999999 Q98.875 -17.22999999999999 98.875 -18.72999999999999 V-71.72999999999999 Q98.875 -73.22999999999999 97.625 -74.47999999999999 Q96.375 -75.72999999999999 94.875 -75.72999999999999 H41.875 Q40.375 -75.72999999999999 39.125 -74.47999999999999 Q37.875 -73.22999999999999 37.875 -71.72999999999999 V-18.72999999999999 Q37.875 -17.22999999999999 39.125 -15.97999999999999 Q40.375 -14.72999999999999 41.875 -14.72999999999999 Z M25.125 8.77000000000001 Q20.5 8.77000000000001 17.44 5.710000000000008 Q14.375 2.6450000000000102 14.375 -1.9799999999999898 V-61.72999999999999 H21.125 V-1.9799999999999898 Q21.125 -0.47999999999998977 22.375 0.7700000000000102 Q23.625 2.0200000000000102 25.125 2.0200000000000102 H84.875 V8.77000000000001 H25.125 Z"/></g><g id="Bold-S" transform="matrix(1 0 0 1 2294.23 696)"><path d="M53.158086 -27.537249999999993 H61.641414000000005 Q66.077172 -27.537249999999993 68.643 -30.10307799999999 Q71.208828 -32.66417199999999 71.208828 -37.104664 V-39.76517199999999 Q71.208828 -44.205664 68.643 -46.81883199999999 Q66.077172 -49.431999999999995 61.641414000000005 -49.431999999999995 H53.158086 V-52.291335999999994 Q53.158086 -52.291335999999994 53.158086 -52.291335999999994 Q53.158086 -52.291335999999994 53.158086 -52.291335999999994 H66.474828 V-61.85874999999999 H53.158086 Q48.722328 -61.85874999999999 46.10916 -59.29292199999999 Q43.495992 -56.73182799999999 43.495992 -52.291335999999994 V-37.104664 Q43.495992 -32.66417199999999 46.10916 -30.10307799999999 Q48.722328 -27.537249999999993 53.158086 -27.537249999999993 Z M53.2575 -39.76517199999999 H61.740828 Q61.740828 -39.76517199999999 61.740828 -39.76517199999999 Q61.740828 -39.76517199999999 61.740828 -39.76517199999999 V-37.104664 Q61.740828 -37.104664 61.740828 -37.104664 Q61.740828 -37.104664 61.740828 -37.104664 H53.2575 Q53.2575 -37.104664 53.2575 -37.104664 Q53.2575 -37.104664 53.2575 -37.104664 V-39.76517199999999 Z M34.520328 -9.292413999999994 Q29.388672 -9.292413999999994 25.644078 -13.037007999999986 Q21.89475 -16.78633599999999 21.89475 -21.917991999999998 V-67.283914 Q21.89475 -72.41083599999999 25.644078 -76.160164 Q29.388672 -79.909492 34.520328 -79.909492 H79.88625 Q85.013172 -79.909492 88.71516 -76.160164 Q92.412414 -72.41083599999999 92.412414 -67.283914 V-21.917991999999998 Q92.412414 -16.78633599999999 88.71516 -13.037007999999986 Q85.013172 -9.292413999999994 79.88625 -9.292413999999994 H34.520328 Z M34.520328 -21.917991999999998 H79.88625 Q79.88625 -21.917991999999998 79.88625 -21.917991999999998 Q79.88625 -21.917991999999998 79.88625 -21.917991999999998 V-67.283914 Q79.88625 -67.283914 79.88625 -67.283914 Q79.88625 -67.283914 79.88625 -67.283914 H34.520328 Q34.520328 -67.283914 34.520328 -67.283914 Q34.520328 -67.283914 34.520328 -67.283914 V-21.917991999999998 Q34.520328 -21.917991999999998 34.520328 -21.917991999999998 Q34.520328 -21.917991999999998 34.520328 -21.917991999999998 Z M14.79375 10.33475 Q9.666827999999999 10.33475 5.96484 6.637496000000013 Q2.267586 2.935508000000013 2.267586 -2.1914139999999946 V-60.182914 H14.79375 V-2.1914139999999946 Q14.79375 -2.1914139999999946 14.79375 -2.1914139999999946 Q14.79375 -2.1914139999999946 14.79375 -2.1914139999999946 H72.78525 V10.33475 H14.79375 Z"/></g><g id="Semibold-S" transform="matrix(1 0 0 1 1998.1 696)"><path d="M52.765164000000006 -26.154921999999992 H60.652007999999995 Q64.798992 -26.154921999999992 67.50684 -28.867503999999997 Q70.219422 -31.580085999999987 70.219422 -35.821749999999994 V-38.780499999999996 Q70.219422 -43.022164 67.50684 -45.734745999999994 Q64.798992 -48.44732799999999 60.652007999999995 -48.44732799999999 H52.864578 V-51.699586 Q52.864578 -51.699586 52.864578 -51.699586 Q52.864578 -51.699586 52.864578 -51.699586 H65.485422 V-61.36641399999999 H52.765164000000006 Q48.424085999999996 -61.36641399999999 45.763578 -58.653831999999994 Q43.098335999999996 -55.94125 43.098335999999996 -51.699586 V-35.821749999999994 Q43.098335999999996 -31.580085999999987 45.810918 -28.867503999999997 Q48.5235 -26.154921999999992 52.765164000000006 -26.154921999999992 Z M52.963992000000005 -38.780499999999996 H60.751422 Q60.751422 -38.780499999999996 60.751422 -38.780499999999996 Q60.751422 -38.780499999999996 60.751422 -38.780499999999996 V-35.821749999999994 Q60.751422 -35.821749999999994 60.751422 -35.821749999999994 Q60.751422 -35.821749999999994 60.751422 -35.821749999999994 H52.963992000000005 Q52.963992000000005 -35.821749999999994 52.963992000000005 -35.821749999999994 Q52.963992000000005 -35.821749999999994 52.963992000000005 -35.821749999999994 V-38.780499999999996 Z M33.237414 -8.994171999999992 Q28.602828 -8.994171999999992 25.246422 -12.350577999999999 Q21.89475 -15.702249999999992 21.89475 -20.33683599999999 V-66.890992 Q21.89475 -71.525578 25.246422 -74.87724999999999 Q28.602828 -78.228922 33.237414 -78.228922 H79.88625 Q84.520836 -78.228922 87.82516799999999 -74.87724999999999 Q91.1295 -71.525578 91.1295 -66.890992 V-20.33683599999999 Q91.1295 -15.702249999999992 87.82516799999999 -12.350577999999999 Q84.520836 -8.994171999999992 79.88625 -8.994171999999992 H33.237414 Z M33.237414 -20.33683599999999 H79.88625 Q79.88625 -20.33683599999999 79.88625 -20.33683599999999 Q79.88625 -20.33683599999999 79.88625 -20.33683599999999 V-66.890992 Q79.88625 -66.890992 79.88625 -66.890992 Q79.88625 -66.890992 79.88625 -66.890992 H33.237414 Q33.237414 -66.890992 33.237414 -66.890992 Q33.237414 -66.890992 33.237414 -66.890992 V-20.33683599999999 Q33.237414 -20.33683599999999 33.237414 -20.33683599999999 Q33.237414 -20.33683599999999 33.237414 -20.33683599999999 Z M14.79375 9.35007800000001 Q10.159163999999999 9.35007800000001 6.854832 6.045746000000008 Q3.5505 2.741414000000006 3.5505 -1.8931719999999927 V-59.78999199999999 H14.79375 V-1.8931719999999927 Q14.79375 -1.8931719999999927 14.79375 -1.8931719999999927 Q14.79375 -1.8931719999999927 14.79375 -1.8931719999999927 H72.78525 V9.35007800000001 H14.79375 Z"/></g><g id="Medium-S" transform="matrix(1 0 0 1 1701.85 696)"><path d="M52.367507999999994 -25.170249999999996 H59.866164000000005 Q63.909 -25.170249999999996 66.720996 -27.930171999999992 Q69.53299200000001 -30.694827999999994 69.53299200000001 -34.737663999999995 V-38.08933599999999 Q69.53299200000001 -42.23158599999999 66.720996 -44.991507999999996 Q63.909 -47.75616399999999 59.866164000000005 -47.75616399999999 H52.56633599999999 V-51.306664 Q52.56633599999999 -51.306664 52.56633599999999 -51.306664 Q52.56633599999999 -51.306664 52.56633599999999 -51.306664 H64.798992 V-60.97349199999999 H52.367507999999994 Q48.324672 -60.97349199999999 45.51741 -58.20883599999999 Q42.705414000000005 -55.44891399999999 42.705414000000005 -51.306664 V-34.737663999999995 Q42.705414000000005 -30.694827999999994 45.51741 -27.930171999999992 Q48.324672 -25.170249999999996 52.367507999999994 -25.170249999999996 Z M52.66575 -38.08933599999999 H59.965578 Q59.965578 -38.08933599999999 59.965578 -38.08933599999999 Q59.965578 -38.08933599999999 59.965578 -38.08933599999999 V-34.737663999999995 Q59.965578 -34.737663999999995 59.965578 -34.737663999999995 Q59.965578 -34.737663999999995 59.965578 -34.737663999999995 H52.66575 Q52.66575 -34.737663999999995 52.66575 -34.737663999999995 Q52.66575 -34.737663999999995 52.66575 -34.737663999999995 V-38.08933599999999 Z M32.347422 -8.800078 Q28.110491999999997 -8.800078 25.052328 -11.85350799999999 Q21.994163999999998 -14.911671999999996 21.994163999999998 -19.15333599999999 V-66.59275 Q21.994163999999998 -70.834414 25.052328 -73.89257799999999 Q28.110491999999997 -76.94600799999999 32.347422 -76.94600799999999 H79.786836 Q84.127914 -76.94600799999999 87.13400399999999 -73.89257799999999 Q90.144828 -70.834414 90.144828 -66.59275 V-19.15333599999999 Q90.144828 -14.911671999999996 87.13400399999999 -11.85350799999999 Q84.127914 -8.800078 79.786836 -8.800078 H32.347422 Z M32.347422 -19.15333599999999 H79.786836 Q79.786836 -19.15333599999999 79.786836 -19.15333599999999 Q79.786836 -19.15333599999999 79.786836 -19.15333599999999 V-66.59275 Q79.786836 -66.59275 79.786836 -66.59275 Q79.786836 -66.59275 79.786836 -66.59275 H32.347422 Q32.347422 -66.59275 32.347422 -66.59275 Q32.347422 -66.59275 32.347422 -66.59275 V-19.15333599999999 Q32.347422 -19.15333599999999 32.347422 -19.15333599999999 Q32.347422 -19.15333599999999 32.347422 -19.15333599999999 Z M14.893163999999999 8.65891400000001 Q10.552086000000001 8.65891400000001 7.545996000000001 5.6480900000000105 Q4.535172 2.64200000000001 4.535172 -1.699078 V-59.491749999999996 H14.893163999999999 V-1.699078 Q14.893163999999999 -1.699078 14.893163999999999 -1.699078 Q14.893163999999999 -1.699078 14.893163999999999 -1.699078 H72.685836 V8.65891400000001 H14.893163999999999 Z"/></g><g id="Regular-S" transform="matrix(1 0 0 1 1405.73 696)"><path d="M52.173414 -24.379671999999992 H59.274414 Q63.217836 -24.379671999999992 66.077172 -27.23900799999999 Q68.936508 -30.10307799999999 68.936508 -34.046499999999995 V-37.596999999999994 Q68.936508 -41.54042199999999 66.077172 -44.404492 Q63.217836 -47.26382799999999 59.274414 -47.26382799999999 H52.367507999999994 V-51.008421999999996 Q52.367507999999994 -51.008421999999996 52.367507999999994 -51.008421999999996 Q52.367507999999994 -51.008421999999996 52.367507999999994 -51.008421999999996 H64.202508 V-60.67524999999999 H52.173414 Q48.130578 -60.67524999999999 45.318582 -57.81591399999999 Q42.506586 -54.95657799999999 42.506586 -51.008421999999996 V-34.046499999999995 Q42.506586 -30.10307799999999 45.365922 -27.23900799999999 Q48.229992 -24.379671999999992 52.173414 -24.379671999999992 Z M52.466922000000004 -37.596999999999994 H59.373827999999996 Q59.373827999999996 -37.596999999999994 59.373827999999996 -37.596999999999994 Q59.373827999999996 -37.596999999999994 59.373827999999996 -37.596999999999994 V-34.046499999999995 Q59.373827999999996 -34.046499999999995 59.373827999999996 -34.046499999999995 Q59.373827999999996 -34.046499999999995 59.373827999999996 -34.046499999999995 H52.466922000000004 Q52.466922000000004 -34.046499999999995 52.466922000000004 -34.046499999999995 Q52.466922000000004 -34.046499999999995 52.466922000000004 -34.046499999999995 V-37.596999999999994 Z M31.660992 -8.601249999999993 Q27.712836 -8.601249999999993 24.8535 -11.460585999999992 Q21.994163999999998 -14.319921999999991 21.994163999999998 -18.26807799999999 V-66.39392199999999 Q21.994163999999998 -70.34207799999999 24.8535 -73.201414 Q27.712836 -76.06075 31.660992 -76.06075 H79.786836 Q83.73499199999999 -76.06075 86.594328 -73.201414 Q89.453664 -70.34207799999999 89.453664 -66.39392199999999 V-18.26807799999999 Q89.453664 -14.319921999999991 86.594328 -11.460585999999992 Q83.73499199999999 -8.601249999999993 79.786836 -8.601249999999993 H31.660992 Z M31.660992 -18.26807799999999 H79.786836 Q79.786836 -18.26807799999999 79.786836 -18.26807799999999 Q79.786836 -18.26807799999999 79.786836 -18.26807799999999 V-66.39392199999999 Q79.786836 -66.39392199999999 79.786836 -66.39392199999999 Q79.786836 -66.39392199999999 79.786836 -66.39392199999999 H31.660992 Q31.660992 -66.39392199999999 31.660992 -66.39392199999999 Q31.660992 -66.39392199999999 31.660992 -66.39392199999999 V-18.26807799999999 Q31.660992 -18.26807799999999 31.660992 -18.26807799999999 Q31.660992 -18.26807799999999 31.660992 -18.26807799999999 Z M14.893163999999999 8.166578000000015 Q10.945008 8.166578000000015 8.085672 5.302508000000017 Q5.226336000000001 2.443172000000004 5.226336000000001 -1.500249999999994 V-59.29292199999999 H14.893163999999999 V-1.500249999999994 Q14.893163999999999 -1.500249999999994 14.893163999999999 -1.500249999999994 Q14.893163999999999 -1.500249999999994 14.893163999999999 -1.500249999999994 H72.685836 V8.166578000000015 H14.893163999999999 Z"/></g><g id="Light-S" transform="matrix(1 0 0 1 1109.75 696)"><path d="M51.382836 -25.369077999999995 H58.090914000000005 Q61.740828 -25.369077999999995 64.353996 -27.98224599999999 Q66.967164 -30.595413999999998 66.967164 -34.24532799999999 V-37.398171999999995 Q66.967164 -41.04808599999999 64.353996 -43.661254 Q61.740828 -46.274421999999994 58.090914000000005 -46.274421999999994 H50.398164 V-50.81432799999999 Q50.398164 -51.306664 50.743745999999994 -51.65224599999999 Q51.089328 -51.99782799999999 51.581664 -51.99782799999999 H62.233164 V-59.69057799999999 H51.382836 Q47.633508 -59.69057799999999 45.072414 -57.07740999999999 Q42.506586 -54.459508 42.506586 -50.81432799999999 V-34.24532799999999 Q42.506586 -30.595413999999998 45.119754 -27.98224599999999 Q47.732922 -25.369077999999995 51.382836 -25.369077999999995 Z M50.497578 -38.581672 H58.190328 Q58.682664 -38.581672 59.028245999999996 -38.23608999999999 Q59.373827999999996 -37.89050799999999 59.373827999999996 -37.398171999999995 V-34.24532799999999 Q59.373827999999996 -33.752992 59.028245999999996 -33.40740999999999 Q58.682664 -33.06182799999999 58.190328 -33.06182799999999 H51.681078 Q51.283422 -33.06182799999999 50.8905 -33.40740999999999 Q50.497578 -33.752992 50.497578 -34.24532799999999 V-38.581672 Z M31.855086 -10.575327999999999 Q28.205172 -10.575327999999999 25.592004 -13.188495999999986 Q22.978836 -15.801664000000002 22.978836 -19.45157799999999 V-65.210422 Q22.978836 -68.86033599999999 25.592004 -71.47350399999999 Q28.205172 -74.086672 31.855086 -74.086672 H77.61866400000001 Q81.268578 -74.086672 83.881746 -71.47350399999999 Q86.49491400000001 -68.86033599999999 86.49491400000001 -65.210422 V-19.45157799999999 Q86.49491400000001 -15.801664000000002 83.881746 -13.188495999999986 Q81.268578 -10.575327999999999 77.61866400000001 -10.575327999999999 H31.855086 Z M31.855086 -18.26807799999999 H77.61866400000001 Q78.011586 -18.26807799999999 78.404508 -18.660999999999994 Q78.802164 -19.053921999999993 78.802164 -19.45157799999999 V-65.210422 Q78.802164 -65.60807799999999 78.404508 -66.00099999999999 Q78.011586 -66.39392199999999 77.61866400000001 -66.39392199999999 H31.855086 Q31.462163999999998 -66.39392199999999 31.064508 -66.00099999999999 Q30.671586 -65.60807799999999 30.671586 -65.210422 V-19.45157799999999 Q30.671586 -19.053921999999993 31.064508 -18.660999999999994 Q31.462163999999998 -18.26807799999999 31.855086 -18.26807799999999 Z M17.061336 4.218422000000004 Q13.411422 4.218422000000004 10.798254 1.6052540000000022 Q8.185086 -1.0079139999999995 8.185086 -4.657827999999995 V-58.109421999999995 H15.877836 V-4.657827999999995 Q15.877836 -4.260171999999983 16.275492 -3.8672499999999985 Q16.668414 -3.474328 17.061336 -3.474328 H70.51766400000001 V4.218422000000004 H17.061336 Z"/></g><g id="Thin-S" transform="matrix(1 0 0 1 814.015 696)"><path d="M50.691672000000004 -26.35374999999999 H56.808 Q60.259085999999996 -26.35374999999999 62.626085999999994 -28.720749999999995 Q64.99308599999999 -31.087749999999993 64.99308599999999 -34.53883599999999 V-37.104664 Q64.99308599999999 -40.555749999999996 62.626085999999994 -42.92274999999999 Q60.259085999999996 -45.28974999999999 56.808 -45.28974999999999 H48.424085999999996 V-50.516085999999994 Q48.424085999999996 -51.60017199999999 49.11525 -52.291335999999994 Q49.806414000000004 -52.982499999999995 50.8905 -52.982499999999995 H60.259085999999996 V-58.70117199999999 H50.691672000000004 Q47.141172 -58.70117199999999 44.826246 -56.334171999999995 Q42.506586 -53.96717199999999 42.506586 -50.516085999999994 V-34.53883599999999 Q42.506586 -31.087749999999993 44.873585999999996 -28.720749999999995 Q47.24058599999999 -26.35374999999999 50.691672000000004 -26.35374999999999 Z M48.5235 -39.57107799999999 H56.907414 Q57.9915 -39.57107799999999 58.682664 -38.879914 Q59.373827999999996 -38.18874999999999 59.373827999999996 -37.104664 V-34.53883599999999 Q59.373827999999996 -33.45474999999999 58.682664 -32.76358599999999 Q57.9915 -32.072421999999996 56.907414 -32.072421999999996 H50.989914000000006 Q50.000507999999996 -32.072421999999996 49.262004000000005 -32.76358599999999 Q48.5235 -33.45474999999999 48.5235 -34.53883599999999 V-39.57107799999999 Z M32.153328 -12.544671999999991 Q28.697508000000003 -12.544671999999991 26.330508000000002 -14.911671999999996 Q23.963508 -17.278672 23.963508 -20.734491999999996 V-63.92750799999999 Q23.963508 -67.38332799999999 26.330508000000002 -69.750328 Q28.697508000000003 -72.11732799999999 32.153328 -72.11732799999999 H75.351078 Q78.802164 -72.11732799999999 81.16916400000001 -69.750328 Q83.536164 -67.38332799999999 83.536164 -63.92750799999999 V-20.734491999999996 Q83.536164 -17.278672 81.16916400000001 -14.911671999999996 Q78.802164 -12.544671999999991 75.351078 -12.544671999999991 H32.153328 Z M32.153328 -18.26807799999999 H75.351078 Q76.33575 -18.26807799999999 77.074254 -19.006581999999995 Q77.81749199999999 -19.745085999999986 77.81749199999999 -20.734491999999996 V-63.92750799999999 Q77.81749199999999 -64.91691399999999 77.074254 -65.655418 Q76.33575 -66.39392199999999 75.351078 -66.39392199999999 H32.153328 Q31.163922 -66.39392199999999 30.425417999999997 -65.655418 Q29.686913999999998 -64.91691399999999 29.686913999999998 -63.92750799999999 V-20.734491999999996 Q29.686913999999998 -19.745085999999986 30.425417999999997 -19.006581999999995 Q31.163922 -18.26807799999999 32.153328 -18.26807799999999 Z M19.328922000000002 0.2750000000000057 Q15.877836 0.2750000000000057 13.510836000000001 -2.0919999999999987 Q11.143836 -4.458999999999989 11.143836 -7.910085999999993 V-56.82650799999999 H16.862508 V-7.910085999999993 Q16.862508 -6.9254140000000035 17.605746 -6.186909999999983 Q18.34425 -5.443671999999992 19.328922000000002 -5.443671999999992 H68.250078 V0.2750000000000057 H19.328922000000002 Z"/></g><g id="Ultralight-S" transform="matrix(1 0 0 1 517.792 696)"><path d="M50.199335999999995 -26.945499999999996 H56.116836 Q59.373827999999996 -26.945499999999996 61.58934 -29.16574599999999 Q63.809585999999996 -31.385991999999995 63.809585999999996 -34.63824999999999 V-37.00525 Q63.809585999999996 -40.25750799999999 61.58934 -42.477754 Q59.373827999999996 -44.69799999999999 56.116836 -44.69799999999999 H47.24058599999999 V-50.41667199999999 Q47.24058599999999 -51.79899999999999 48.130578 -52.68899199999999 Q49.01583599999999 -53.57424999999999 50.398164 -53.57424999999999 H59.075585999999994 V-58.109421999999995 H50.199335999999995 Q46.847664 -58.109421999999995 44.679492 -55.89390999999999 Q42.506586 -53.67366399999999 42.506586 -50.41667199999999 V-34.63824999999999 Q42.506586 -31.385991999999995 44.726832 -29.16574599999999 Q46.947078 -26.945499999999996 50.199335999999995 -26.945499999999996 Z M47.34 -40.16282799999999 H56.21625 Q57.598577999999996 -40.16282799999999 58.483836 -39.27283599999999 Q59.373827999999996 -38.38757799999999 59.373827999999996 -37.00525 V-34.63824999999999 Q59.373827999999996 -33.25592199999999 58.483836 -32.370664 Q57.598577999999996 -31.48067199999999 56.21625 -31.48067199999999 H50.497578 Q49.314078 -31.48067199999999 48.324672 -32.370664 Q47.34 -33.25592199999999 47.34 -34.63824999999999 V-40.16282799999999 Z M32.248008 -13.728172 Q28.99575 -13.728172 26.775503999999998 -15.94841799999999 Q24.559991999999998 -18.168663999999993 24.559991999999998 -21.420921999999997 V-63.24107799999999 Q24.559991999999998 -66.493336 26.775503999999998 -68.71358199999999 Q28.99575 -70.93382799999999 32.248008 -70.93382799999999 H74.06816400000001 Q77.320422 -70.93382799999999 79.540668 -68.71358199999999 Q81.760914 -66.493336 81.760914 -63.24107799999999 V-21.420921999999997 Q81.760914 -18.168663999999993 79.540668 -15.94841799999999 Q77.320422 -13.728172 74.06816400000001 -13.728172 H32.248008 Z M32.248008 -18.26807799999999 H74.06816400000001 Q75.251664 -18.26807799999999 76.236336 -19.252749999999992 Q77.22100800000001 -20.237421999999995 77.22100800000001 -21.420921999999997 V-63.24107799999999 Q77.22100800000001 -64.424578 76.236336 -65.40924999999999 Q75.251664 -66.39392199999999 74.06816400000001 -66.39392199999999 H32.248008 Q31.064508 -66.39392199999999 30.079836 -65.40924999999999 Q29.095164 -64.424578 29.095164 -63.24107799999999 V-21.420921999999997 Q29.095164 -20.237421999999995 30.079836 -19.252749999999992 Q31.064508 -18.26807799999999 32.248008 -18.26807799999999 Z M20.611836 -2.0919999999999987 Q17.359578 -2.0919999999999987 15.139332 -4.312246000000002 Q12.919086 -6.532491999999991 12.919086 -9.784749999999988 V-56.14007799999999 H17.458992000000002 V-9.784749999999988 Q17.458992000000002 -8.601249999999993 18.443664 -7.61657799999999 Q19.428336 -6.627171999999987 20.611836 -6.627171999999987 H66.967164 V-2.0919999999999987 H20.611836 Z"/></g></g></svg>