<svg xmlns="http://www.w3.org/2000/svg" version="1.1" width="3300" height="2000"><g id="Notes"><style>
    text {
      font-family: monospace;
      text-anchor: middle;
    }
    text.emphasis {
      font-weight:bold;
    }
    text.lanchor {
      text-anchor: start;
    }
  </style><rect height="2200" id="artboard" fill="white" width="3300" x="0" y="0"/><line id="" style="fill:none;stroke:black;stroke-width:0.5;" x1="263" x2="3036" y1="292" y2="292"/><text class="lanchor emphasis" transform="matrix(1 0 0 1 263 322)">Weight/Scale Variations</text><text transform="matrix(1 0 0 1 559.711 322)">Ultralight</text><text transform="matrix(1 0 0 1 856.422 322)">Thin</text><text transform="matrix(1 0 0 1 1153.13 322)">Light</text><text transform="matrix(1 0 0 1 1449.84 322)">Regular</text><text transform="matrix(1 0 0 1 1746.56 322)">Medium</text><text transform="matrix(1 0 0 1 2043.27 322)">Semibold</text><text transform="matrix(1 0 0 1 2339.98 322)">Bold</text><text transform="matrix(1 0 0 1 2636.69 322)">Heavy</text><text transform="matrix(1 0 0 1 2933.4 322)">Black</text><text id="template-version" style="text-anchor: end;" transform="matrix(1 0 0 1 3036 1933)">Template v.1.0</text><text class="lanchor" transform="matrix(1 0 0 1 263 726)">Small</text><text class="lanchor" transform="matrix(1 0 0 1 263 1156)">Medium</text><text class="lanchor" transform="matrix(1 0 0 1 263 1586)">Large</text></g><g id="Guides"><g id="H-reference" style="fill:#27AAE1;stroke:none;" transform="matrix(1 0 0 1 339 696)"><path d="M 54.9316 0 L 57.666 0 L 30.5664 -70.459 L 28.0762 -70.459 L 0.976562 0 L 3.66211 0 L 12.9395 -24.4629 L 45.7031 -24.4629 Z M 29.1992 -67.0898 L 29.4434 -67.0898 L 44.8242 -26.709 L 13.8184 -26.709 Z"/></g><line id="Baseline-S" style="fill:none;stroke:#27AAE1;opacity:1;stroke-width:0.577;" x1="263" x2="3036" y1="696" y2="696"/><line id="Capline-S" style="fill:none;stroke:#27AAE1;opacity:1;stroke-width:0.577;" x1="263" x2="3036" y1="625.541" y2="625.541"/><g id="H-reference" style="fill:#27AAE1;stroke:none;" transform="matrix(1 0 0 1 339 1126)"><path d="M 54.9316 0 L 57.666 0 L 30.5664 -70.459 L 28.0762 -70.459 L 0.976562 0 L 3.66211 0 L 12.9395 -24.4629 L 45.7031 -24.4629 Z M 29.1992 -67.0898 L 29.4434 -67.0898 L 44.8242 -26.709 L 13.8184 -26.709 Z"/></g><line id="Baseline-M" style="fill:none;stroke:#27AAE1;opacity:1;stroke-width:0.577;" x1="263" x2="3036" y1="1126" y2="1126"/><line id="Capline-M" style="fill:none;stroke:#27AAE1;opacity:1;stroke-width:0.577;" x1="263" x2="3036" y1="1055.54" y2="1055.54"/><g id="H-reference" style="fill:#27AAE1;stroke:none;" transform="matrix(1 0 0 1 339 1556)"><path d="M 54.9316 0 L 57.666 0 L 30.5664 -70.459 L 28.0762 -70.459 L 0.976562 0 L 3.66211 0 L 12.9395 -24.4629 L 45.7031 -24.4629 Z M 29.1992 -67.0898 L 29.4434 -67.0898 L 44.8242 -26.709 L 13.8184 -26.709 Z"/></g><line id="Baseline-L" style="fill:none;stroke:#27AAE1;opacity:1;stroke-width:0.577;" x1="263" x2="3036" y1="1556" y2="1556"/><line id="Capline-L" style="fill:none;stroke:#27AAE1;opacity:1;stroke-width:0.577;" x1="263" x2="3036" y1="1485.54" y2="1485.54"/><rect height="119.336" id="left-margin" style="fill:darkred;stroke:none;opacity:0.4;" width="12.4512" x="1394.06" y="1030.79"/><rect height="119.336" id="right-margin" style="fill:darkgreen;stroke:none;opacity:0.4;" width="12.4512" x="1502.5112" y="1030.79"/><rect x="1406.5112" y="1045" width="96" height="96" fill="none" stroke="blue" stroke-dasharray="5"/><rect x="1394.06" y="1030.79" width="120.9024" height="119.336" fill="none" stroke="blue"/></g><g id="Symbols"><g id="Bold-L" transform="matrix(1 0 0 1 2266 1556)"><path d="M119.16375000000001 24.432500000000015 Q121.340625 24.432500000000015 122.791875 23.061875000000015 Q124.243125 21.691250000000014 124.243125 19.514375000000015 Q124.243125 17.337500000000016 122.77575 15.886250000000015 Q121.308375 14.435000000000016 119.244375 14.435000000000016 Q116.986875 14.435000000000016 115.61625000000001 15.886250000000015 Q114.245625 17.337500000000016 114.245625 19.514375000000015 Q114.245625 21.691250000000014 115.61625000000001 23.061875000000015 Q116.986875 24.432500000000015 119.16375000000001 24.432500000000015 Z M115.455 7.501250000000013 H122.8725 V-15.073749999999983 H115.455 V7.501250000000013 Z M63.129375 -76.99374999999999 H91.670625 V-91.10312499999998 H63.129375 V-76.99374999999999 Z M119.2498575 34.83312500000002 Q107.07000000000001 34.83312500000002 98.120625 26.066607500000014 Q89.17125 17.300251250000017 89.17125 4.862232500000012 Q89.17125 -7.575624999999988 98.1151425 -16.444374999999987 Q107.05919625 -25.313124999999985 119.2388925 -25.313124999999985 Q131.58 -25.313124999999985 140.44875 -16.471142499999985 Q149.3175 -7.629159999999985 149.3175 4.915767500000015 Q149.3175 17.327018750000015 140.4542325 26.080152500000015 Q131.59080375 34.83312500000002 119.2498575 34.83312500000002 Z M9.675 26.609375000000014 V-76.99374999999999 H48.375 V-106.01874999999998 H106.425 V-76.99374999999999 H145.28625 V-24.99062499999998 Q139.7266725 -29.46934374999998 133.0012575 -32.027091249999984 Q126.2758425 -34.58499999999998 119.22228375000002 -34.58499999999998 Q103.2 -34.58499999999998 91.5496875 -23.01434499999999 Q79.899375 -11.443528749999992 79.899375 4.924636250000013 Q79.899375 10.837190000000014 81.5925 16.264220000000016 Q83.285625 21.691250000000014 86.59125 26.609375000000014 H9.675 Z"/></g><g id="Semibold-L" transform="matrix(1 0 0 1 1970.27 1556)"><path d="M118.3926525 23.731385000000017 Q120.28911375000001 23.731385000000017 121.56508500000001 22.536038750000017 Q122.84105625 21.340692500000014 122.84105625 19.40924000000002 Q122.84105625 17.477787500000016 121.54896000000001 16.236807500000015 Q120.25686375000001 14.995827500000015 118.4732775 14.995827500000015 Q116.49619125 14.995827500000015 115.300845 16.236807500000015 Q114.1053375 17.477787500000016 114.1053375 19.40924000000002 Q114.1053375 21.340692500000014 115.300845 22.536038750000017 Q116.49619125 23.731385000000017 118.3926525 23.731385000000017 Z M115.1044425 8.272347500000016 H121.68070125000001 V-14.302652499999986 H115.1044425 V8.272347500000016 Z M62.35827750000001 -75.38141124999999 H92.44172250000001 V-90.33202749999998 H62.35827750000001 V-75.38141124999999 Z M118.47859875 34.83312500000002 Q106.22875875000001 34.83312500000002 97.314375 26.066607500000014 Q88.40015249999999 17.300251250000017 88.40015249999999 4.862232500000012 Q88.40015249999999 -7.575624999999988 97.30905375 -16.444374999999987 Q106.217955 -25.313124999999985 118.467795 -25.313124999999985 Q130.8089025 -25.313124999999985 139.6776525 -16.471142499999985 Q148.5464025 -7.629159999999985 148.5464025 4.915767500000015 Q148.5464025 17.327018750000015 139.68297375 26.080152500000015 Q130.81970625 34.83312500000002 118.47859875 34.83312500000002 Z M11.42762625 24.646478750000014 V-75.38141124999999 H49.987338750000006 V-102.79391124999998 H104.81266125 V-75.38141124999999 H143.46348 V-25.69173999999998 Q138.11417250000002 -29.88988374999998 131.6648175 -32.23752249999998 Q125.21530125 -34.58499999999998 118.45118625 -34.58499999999998 Q102.42890249999999 -34.58499999999998 90.77859 -23.01434499999999 Q79.12827750000001 -11.443528749999992 79.12827750000001 4.924636250000013 Q79.12827750000001 10.276362500000015 80.54098875 15.177556250000013 Q81.9537 20.078911250000015 84.69849749999999 24.646478750000014 H11.42762625 Z"/></g><g id="Medium-L" transform="matrix(1 0 0 1 1674.31 1556)"><path d="M117.8140875 23.205548750000016 Q119.50027875 23.205548750000016 120.64483125 22.141782500000016 Q121.78938375 21.077855000000014 121.78938375 19.330388750000015 Q121.78938375 17.582922500000013 120.62870625000001 16.499645000000015 Q119.46802874999999 15.416528750000012 117.8947125 15.416528750000012 Q116.1280575 15.416528750000012 115.06413 16.499645000000015 Q114.0002025 17.582922500000013 114.0002025 19.330388750000015 Q114.0002025 21.077855000000014 115.06413 22.141782500000016 Q116.1280575 23.205548750000016 117.8140875 23.205548750000016 Z M114.841605 8.850912500000014 H120.78673125000002 V-13.724087499999982 H114.841605 V8.850912500000014 Z M61.7797125 -74.17187499999999 H93.02028750000001 V-89.75346249999998 H61.7797125 V-74.17187499999999 Z M117.900195 34.83312500000002 Q105.59778750000001 34.83312500000002 96.7096875 26.066607500000014 Q87.8215875 17.300251250000017 87.8215875 4.862232500000012 Q87.8215875 -7.575624999999988 96.704205 -16.444374999999987 Q105.58682250000001 -25.313124999999985 117.88939125 -25.313124999999985 Q130.2303375 -25.313124999999985 139.0990875 -16.471142499999985 Q147.9678375 -7.629159999999985 147.9678375 4.915767500000015 Q147.9678375 17.327018750000015 139.10457 26.080152500000015 Q130.2413025 34.83312500000002 117.900195 34.83312500000002 Z M12.742297500000001 23.174105000000015 V-74.17187499999999 H51.196875 V-100.375 H103.603125 V-74.17187499999999 H142.0964025 V-26.21757624999998 Q136.9047975 -30.205449999999985 130.66232625 -32.39522499999998 Q124.41969375000001 -34.58499999999998 117.87278250000001 -34.58499999999998 Q101.85033750000001 -34.58499999999998 90.200025 -23.01434499999999 Q78.5497125 -11.443528749999992 78.5497125 4.924636250000013 Q78.5497125 9.855661250000011 79.75215375 14.362598750000014 Q80.954595 18.869375000000016 83.27869125 23.174105000000015 H12.742297500000001 Z"/></g><g id="Regular-L" transform="matrix(1 0 0 1 1378.56 1556)"><path d="M117.39 22.820000000000014 Q118.921875 22.820000000000014 119.97 21.852500000000017 Q121.018125 20.885000000000016 121.018125 19.272500000000015 Q121.018125 17.660000000000014 119.953875 16.692500000000017 Q118.889625 15.725000000000016 117.470625 15.725000000000016 Q115.858125 15.725000000000016 114.890625 16.692500000000017 Q113.923125 17.660000000000014 113.923125 19.272500000000015 Q113.923125 20.885000000000016 114.890625 21.852500000000017 Q115.858125 22.820000000000014 117.39 22.820000000000014 Z M114.64875 9.275000000000013 H120.13125000000001 V-13.299999999999983 H114.64875 V9.275000000000013 Z M61.355625 -73.28499999999998 H93.44437500000001 V-89.329375 H61.355625 V-73.28499999999998 Z M117.4761075 34.83312500000002 Q105.135 34.83312500000002 96.26625 26.066607500000014 Q87.39750000000001 17.300251250000017 87.39750000000001 4.862232500000012 Q87.39750000000001 -7.575624999999988 96.2607675 -16.444374999999987 Q105.12419625 -25.313124999999985 117.4651425 -25.313124999999985 Q129.80625 -25.313124999999985 138.675 -16.471142499999985 Q147.54375000000002 -7.629159999999985 147.54375000000002 4.915767500000015 Q147.54375000000002 17.327018750000015 138.6804825 26.080152500000015 Q129.81705375 34.83312500000002 117.4761075 34.83312500000002 Z M13.70625 22.094375000000014 V-73.28499999999998 H52.08375 V-98.60125 H102.71625 V-73.28499999999998 H141.09375 V-26.60312499999999 Q136.0179225 -30.43684374999998 129.9271875 -32.510841249999984 Q123.8364525 -34.58499999999998 117.44853375000001 -34.58499999999998 Q101.42625 -34.58499999999998 89.7759375 -23.01434499999999 Q78.125625 -11.443528749999992 78.125625 4.924636250000013 Q78.125625 9.547190000000015 79.17375 13.764845000000015 Q80.221875 17.982500000000016 82.2375 22.094375000000014 H13.70625 Z"/></g><g id="Light-L" transform="matrix(1 0 0 1 1082.77 1556)"><path d="M116.45958750000001 19.78076000000001 Q117.89842125000001 19.78076000000001 118.88462625000001 18.875341250000016 Q119.87067 17.969922500000013 119.87067 16.481423750000015 Q119.87067 14.992925000000017 118.86850125 14.056546250000014 Q117.86617125 13.120006250000014 116.54021250000001 13.120006250000014 Q115.02075375000001 13.120006250000014 114.08437500000001 14.056546250000014 Q113.147835 14.992925000000017 113.147835 16.481423750000015 Q113.147835 17.969922500000013 114.08437500000001 18.875341250000016 Q115.02075375000001 19.78076000000001 116.45958750000001 19.78076000000001 Z M113.96650125000001 6.918170000000011 H118.95283500000001 V-13.362081249999981 H113.96650125000001 V6.918170000000011 Z M62.19299625 -70.30784125 H92.60700375 V-85.514845 H62.19299625 V-70.30784125 Z M116.50844625 30.708511250000015 Q105.19708125 30.708511250000015 97.10362125 22.715348750000015 Q89.01016125 14.722025000000016 89.01016125 3.2476362500000135 Q89.01016125 -8.13322749999999 97.1044275 -16.211529999999982 Q105.19869375 -24.289671249999984 116.51005875 -24.289671249999984 Q127.82142375000001 -24.289671249999984 135.91488375 -16.236201249999986 Q144.00834375000002 -8.182569999999984 144.00834375000002 3.3053637500000193 Q144.00834375000002 14.752985000000017 135.91407750000002 22.730828750000015 Q127.81981125000001 30.708511250000015 116.50844625 30.708511250000015 Z M16.6213275 19.148176250000017 V-70.30784125 H55.12299 V-92.5850125 H99.67701000000001 V-70.30784125 H138.1786725 V-29.08411749999999 Q133.4405025 -32.26590249999998 127.85577 -34.04561874999999 Q122.2710375 -35.825496249999986 116.4886125 -35.825496249999986 Q100.51180124999999 -35.825496249999986 88.99306875 -24.36642624999999 Q77.47433625000001 -12.907356249999985 77.47433625000001 3.3029450000000153 Q77.47433625000001 7.505120000000012 78.35185875 11.441393750000014 Q79.22954250000001 15.377506250000014 80.99700375 19.148176250000017 H16.6213275 Z"/></g><g id="Thin-L" transform="matrix(1 0 0 1 787.282 1556)"><path d="M115.5294975 16.742165000000014 Q116.87529 16.742165000000014 117.79941375 15.898666250000016 Q118.72337625 15.055167500000017 118.72337625 13.690831250000013 Q118.72337625 12.326333750000014 117.78328875 11.420915000000015 Q116.84303999999999 10.515496250000016 115.6101225 10.515496250000016 Q114.18354375 10.515496250000016 113.278125 11.420915000000015 Q112.37270625000001 12.326333750000014 112.37270625000001 13.690831250000013 Q112.37270625000001 15.055167500000017 113.278125 15.898666250000016 Q114.18354375 16.742165000000014 115.5294975 16.742165000000014 Z M113.28441375 4.561501250000013 H117.77458125 V-13.42400124999999 H113.28441375 V4.561501250000013 Z M63.03020625 -67.33116624999998 H91.76979375 V-81.70112124999999 H63.03020625 V-67.33116624999998 Z M115.54094625 26.584703750000017 Q105.25900125 26.584703750000017 97.94083125 19.364412500000014 Q90.6225 12.144282500000017 90.6225 1.6332012500000133 Q90.6225 -8.690668749999986 97.947765 -15.978684999999992 Q105.27319125 -23.266539999999978 115.55513625 -23.266539999999978 Q125.83708125 -23.266539999999978 133.15525125 -16.001259999999988 Q140.4735825 -8.73597999999999 140.4735825 1.694960000000016 Q140.4735825 12.179435000000016 133.1483175 19.381988750000016 Q125.82289125000001 26.584703750000017 115.54094625 26.584703750000017 Z M19.5360825 16.202622500000015 V-67.33116624999998 H58.161585 V-86.56958125 H96.638415 V-67.33116624999998 H135.2639175 V-31.56462624999999 Q130.863405 -34.09463874999999 125.78451375 -35.58023499999999 Q120.70578375 -37.06583124999999 115.52869125000001 -37.06583124999999 Q99.59751375 -37.06583124999999 88.21036125 -25.718346249999982 Q76.82320875 -14.371022499999988 76.82320875 1.6814150000000154 Q76.82320875 5.463372500000013 77.53029000000001 9.11810375000001 Q78.23721 12.772996250000016 79.75666875 16.202622500000015 H19.5360825 Z"/></g><g id="Ultralight-L" transform="matrix(1 0 0 1 491.205 1556)"><path d="M114.97125 14.918750000000014 Q116.26125 14.918750000000014 117.14812500000001 14.112500000000015 Q118.035 13.306250000000016 118.035 12.016250000000014 Q118.035 10.726250000000014 117.132 9.839375000000018 Q116.229 8.952500000000015 115.05187500000001 8.952500000000015 Q113.68125 8.952500000000015 112.794375 9.839375000000018 Q111.9075 10.726250000000014 111.9075 12.016250000000014 Q111.9075 13.306250000000016 112.794375 14.112500000000015 Q113.68125 14.918750000000014 114.97125 14.918750000000014 Z M112.875 3.147500000000015 H117.06750000000001 V-13.461249999999986 H112.875 V3.147500000000015 Z M63.5325 -65.54499999999999 H91.2675 V-79.4125 H63.5325 V-65.54499999999999 Z M114.96044625 24.110000000000014 Q105.29625 24.110000000000014 98.44312500000001 17.353786250000017 Q91.59 10.597411250000015 91.59 0.6644112500000148 Q91.59 -9.02526249999999 98.45392875 -15.838881249999986 Q105.3178575 -22.65249999999999 114.98205375 -22.65249999999999 Q124.64625000000001 -22.65249999999999 131.49937500000001 -15.860327499999983 Q138.3525 -9.067993749999985 138.3525 0.7287500000000122 Q138.3525 10.635143750000015 131.48857125 17.372491250000017 Q124.62464250000001 24.110000000000014 114.96044625 24.110000000000014 Z M21.285 14.435000000000016 V-65.54499999999999 H59.985 V-82.96 H94.815 V-65.54499999999999 H133.51500000000001 V-33.05312499999998 Q129.3170175 -35.19210624999998 124.54176 -36.50097249999999 Q119.76650250000002 -37.80999999999999 114.95270625 -37.80999999999999 Q99.04894125 -37.80999999999999 87.74080125 -26.529594999999986 Q76.4325 -15.249189999999992 76.4325 0.708432500000022 Q76.4325 4.238195000000019 77.0371875 7.724097500000013 Q77.641875 11.210000000000015 79.0125 14.435000000000016 H21.285 Z"/></g><g id="Bold-M" transform="matrix(1 0 0 1 2281.8 1126)"><path d="M91.5 10.52000000000001 Q93.25 10.52000000000001 94.375 9.39500000000001 Q95.5 8.27000000000001 95.5 6.52000000000001 Q95.5 4.77000000000001 94.375 3.5825000000000102 Q93.25 2.3950000000000102 91.5 2.3950000000000102 Q89.75 2.3950000000000102 88.625 3.5825000000000102 Q87.5 4.77000000000001 87.5 6.52000000000001 Q87.5 8.27000000000001 88.625 9.39500000000001 Q89.75 10.52000000000001 91.5 10.52000000000001 Z M88.125 -2.7299999999999898 H94.875 V-21.97999999999999 H88.125 V-2.7299999999999898 Z M52.0 -68.10499999999999 H68.0 V-75.97999999999999 H52.0 V-68.10499999999999 Z M91.508375 18.39500000000001 Q81.5 18.39500000000001 74.4375 11.34087500000001 Q67.375 4.2867500000000085 67.375 -5.721624999999989 Q67.375 -15.72999999999999 74.429125 -22.79249999999999 Q81.48325 -29.85499999999999 91.491625 -29.85499999999999 Q101.5 -29.85499999999999 108.5625 -22.80087499999999 Q115.625 -15.746749999999992 115.625 -5.738374999999991 Q115.625 4.27000000000001 108.570875 11.33250000000001 Q101.51675 18.39500000000001 91.508375 18.39500000000001 Z M7.0 13.27000000000001 V-68.10499999999999 H36.875 V-91.10499999999999 H83.125 V-68.10499999999999 H113.0 V-31.41749999999999 Q108.44025 -35.26437499999999 102.882 -37.24712499999999 Q97.323875 -39.22999999999999 91.494625 -39.22999999999999 Q77.625 -39.22999999999999 67.8125 -29.41924999999999 Q58.0 -19.60862499999999 58.0 -5.72999999999999 Q58.0 -0.6049999999999898 59.5 4.20750000000001 Q61.0 9.02000000000001 63.875 13.27000000000001 H7.0 Z"/></g><g id="Semibold-M" transform="matrix(1 0 0 1 1985.97 1126)"><path d="M90.684875 9.75912500000001 Q92.10875 9.75912500000001 93.07075 8.79725000000001 Q94.03275 7.835250000000009 94.03275 6.41125000000001 Q94.03275 4.987375000000011 93.07075 3.9901250000000097 Q92.10875 2.9927500000000116 90.684875 2.9927500000000116 Q89.260875 2.9927500000000116 88.298875 3.9901250000000097 Q87.337 4.987375000000011 87.337 6.41125000000001 Q87.337 7.835250000000009 88.298875 8.79725000000001 Q89.260875 9.75912500000001 90.684875 9.75912500000001 Z M87.744625 -1.9691249999999911 H93.625125 V-21.21912499999999 H87.744625 V-1.9691249999999911 Z M51.184875 -66.42037499999999 H68.815125 V-75.164875 H51.184875 V-66.42037499999999 Z M90.69325 18.39500000000001 Q80.684875 18.39500000000001 73.622375 11.34087500000001 Q66.559875 4.2867500000000085 66.559875 -5.721624999999989 Q66.559875 -15.72999999999999 73.614 -22.79249999999999 Q80.668 -29.85499999999999 90.6765 -29.85499999999999 Q100.684875 -29.85499999999999 107.747375 -22.80087499999999 Q114.809875 -15.746749999999992 114.809875 -5.738374999999991 Q114.809875 4.27000000000001 107.75575 11.33250000000001 Q100.701625 18.39500000000001 90.69325 18.39500000000001 Z M8.84775 11.25925000000001 V-66.42037499999999 H38.559625 V-87.78999999999999 H81.440375 V-66.42037499999999 H111.15225 V-32.17837499999999 Q106.7555 -35.64474999999999 101.482625 -37.43737499999999 Q96.209625 -39.22999999999999 90.679375 -39.22999999999999 Q76.809875 -39.22999999999999 66.997375 -29.41924999999999 Q57.184875 -19.60862499999999 57.184875 -5.72999999999999 Q57.184875 -1.202749999999991 58.386 3.0935000000000095 Q59.587 7.389625000000009 61.918625 11.25925000000001 H8.84775 Z"/></g><g id="Medium-M" transform="matrix(1 0 0 1 1689.91 1126)"><path d="M90.073375 9.18850000000001 Q91.25275 9.18850000000001 92.092375 8.34875000000001 Q92.932125 7.509125000000012 92.932125 6.329750000000011 Q92.932125 5.150375000000011 92.092375 4.295750000000009 Q91.25275 3.441250000000011 90.073375 3.441250000000011 Q88.894 3.441250000000011 88.054375 4.295750000000009 Q87.214625 5.150375000000011 87.214625 6.329750000000011 Q87.214625 7.509125000000012 88.054375 8.34875000000001 Q88.894 9.18850000000001 90.073375 9.18850000000001 Z M87.45925 -1.3984999999999914 H92.6875 V-20.64849999999999 H87.45925 V-1.3984999999999914 Z M50.573375 -65.15662499999999 H69.426625 V-74.55337499999999 H50.573375 V-65.15662499999999 Z M90.08175 18.39500000000001 Q80.073375 18.39500000000001 73.010875 11.34087500000001 Q65.948375 4.2867500000000085 65.948375 -5.721624999999989 Q65.948375 -15.72999999999999 73.0025 -22.79249999999999 Q80.056625 -29.85499999999999 90.065 -29.85499999999999 Q100.073375 -29.85499999999999 107.135875 -22.80087499999999 Q114.198375 -15.746749999999992 114.198375 -5.738374999999991 Q114.198375 4.27000000000001 107.14425 11.33250000000001 Q100.090125 18.39500000000001 90.08175 18.39500000000001 Z M10.233625 9.75100000000001 V-65.15662499999999 H39.823375 V-85.30337499999999 H80.176625 V-65.15662499999999 H109.766375 V-32.74899999999999 Q105.491875 -35.93012499999999 100.432875 -37.57999999999999 Q95.37375 -39.22999999999999 90.068 -39.22999999999999 Q76.198375 -39.22999999999999 66.385875 -29.41924999999999 Q56.573375 -19.60862499999999 56.573375 -5.72999999999999 Q56.573375 -1.6512499999999903 57.55025 2.2577500000000086 Q58.52725 6.166750000000011 60.451125 9.75100000000001 H10.233625 Z"/></g><g id="Regular-M" transform="matrix(1 0 0 1 1394.06 1126)"><path d="M89.625 8.77000000000001 Q90.625 8.77000000000001 91.375 8.02000000000001 Q92.125 7.27000000000001 92.125 6.27000000000001 Q92.125 5.27000000000001 91.375 4.52000000000001 Q90.625 3.7700000000000102 89.625 3.7700000000000102 Q88.625 3.7700000000000102 87.875 4.52000000000001 Q87.125 5.27000000000001 87.125 6.27000000000001 Q87.125 7.27000000000001 87.875 8.02000000000001 Q88.625 8.77000000000001 89.625 8.77000000000001 Z M87.25 -0.9799999999999898 H92.0 V-20.22999999999999 H87.25 V-0.9799999999999898 Z M50.125 -64.22999999999999 H69.875 V-74.10499999999999 H50.125 V-64.22999999999999 Z M89.633375 18.39500000000001 Q79.625 18.39500000000001 72.5625 11.34087500000001 Q65.5 4.2867500000000085 65.5 -5.721624999999989 Q65.5 -15.72999999999999 72.554125 -22.79249999999999 Q79.60825 -29.85499999999999 89.616625 -29.85499999999999 Q99.625 -29.85499999999999 106.6875 -22.80087499999999 Q113.75 -15.746749999999992 113.75 -5.738374999999991 Q113.75 4.27000000000001 106.695875 11.33250000000001 Q99.64175 18.39500000000001 89.633375 18.39500000000001 Z M11.25 8.64500000000001 V-64.22999999999999 H40.75 V-83.47999999999999 H79.25 V-64.22999999999999 H108.75 V-33.16749999999999 Q104.56525 -36.13937499999999 99.663 -37.68462499999999 Q94.760875 -39.22999999999999 89.619625 -39.22999999999999 Q75.75 -39.22999999999999 65.9375 -29.41924999999999 Q56.125 -19.60862499999999 56.125 -5.72999999999999 Q56.125 -1.9799999999999898 56.9375 1.6450000000000102 Q57.75 5.27000000000001 59.375 8.64500000000001 H11.25 Z"/></g><g id="Light-M" transform="matrix(1 0 0 1 1098.18 1126)"><path d="M89.216375 6.558250000000012 Q90.216375 6.558250000000012 90.91825 5.8563750000000105 Q91.620125 5.154500000000009 91.620125 4.154500000000009 Q91.620125 3.1545000000000094 90.91825 2.4525000000000112 Q90.216375 1.75062500000001 89.216375 1.75062500000001 Q88.216375 1.75062500000001 87.514375 2.4525000000000112 Q86.8125 3.1545000000000094 86.8125 4.154500000000009 Q86.8125 5.154500000000009 87.514375 5.8563750000000105 Q88.216375 6.558250000000012 89.216375 6.558250000000012 Z M87.10575 -2.8551249999999904 H91.326875 V-19.74924999999999 H87.10575 V-2.8551249999999904 Z M50.101 -61.922124999999994 H69.899 V-71.821125 H50.101 V-61.922124999999994 Z M89.223125 15.197625000000011 Q80.153875 15.197625000000011 73.7885 8.83912500000001 Q67.42325 2.48050000000001 67.42325 -6.58862499999999 Q67.42325 -15.65787499999999 73.78175 -22.02324999999999 Q80.140375 -28.388499999999986 89.2095 -28.388499999999986 Q98.27875 -28.388499999999986 104.644125 -22.029999999999987 Q111.009375 -15.67137499999999 111.009375 -6.602249999999991 Q111.009375 2.4670000000000094 104.650875 8.83237500000001 Q98.29225 15.197625000000011 89.223125 15.197625000000011 Z M13.50975 6.361125000000012 V-61.922124999999994 H43.106 V-78.81625 H76.894 V-61.922124999999994 H106.49025 V-33.74449999999999 Q102.6535 -36.21099999999999 98.244625 -37.52812499999999 Q93.835875 -38.84537499999999 89.211875 -38.84537499999999 Q75.8585 -38.84537499999999 66.4125 -29.402874999999987 Q56.966375 -19.960249999999988 56.966375 -6.6024999999999885 Q56.966375 -3.2263749999999902 57.646625 0.036125000000009067 Q58.327 3.298750000000009 59.711625 6.361125000000012 H13.50975 Z"/></g><g id="Thin-M" transform="matrix(1 0 0 1 802.565 1126)"><path d="M88.80775 4.347000000000012 Q89.80775 4.347000000000012 90.4615 3.693125000000009 Q91.115375 3.0392500000000098 91.115375 2.0392500000000098 Q91.115375 1.0392500000000098 90.4615 0.38537500000001046 Q89.80775 -0.26837499999998826 88.80775 -0.26837499999998826 Q87.80775 -0.26837499999998826 87.153875 0.38537500000001046 Q86.5 1.0392500000000098 86.5 2.0392500000000098 Q86.5 3.0392500000000098 87.153875 3.693125000000009 Q87.80775 4.347000000000012 88.80775 4.347000000000012 Z M86.9615 -4.72999999999999 H90.653875 V-19.26849999999999 H86.9615 V-4.72999999999999 Z M50.076875 -59.61462499999999 H69.923125 V-69.53774999999999 H50.076875 V-59.61462499999999 Z M88.812875 12.00075000000001 Q80.682625 12.00075000000001 75.014375 6.33775000000001 Q69.346125 0.6746250000000096 69.346125 -7.455624999999991 Q69.346125 -15.58574999999999 75.00925 -21.25399999999999 Q80.672375 -26.922374999999988 88.8025 -26.922374999999988 Q96.93275 -26.922374999999988 102.601 -21.259249999999987 Q108.26925 -15.596124999999986 108.26925 -7.46587499999999 Q108.26925 0.6642500000000098 102.606125 6.33250000000001 Q96.943 12.00075000000001 88.812875 12.00075000000001 Z M15.76925 4.077750000000009 V-59.61462499999999 H45.4615 V-74.15312499999999 H74.5385 V-59.61462499999999 H104.23075 V-34.32137499999999 Q100.742125 -36.28262499999999 96.8265 -37.37162499999999 Q92.910875 -38.46074999999999 88.804375 -38.46074999999999 Q75.967 -38.46074999999999 66.887375 -29.386374999999987 Q57.807625 -20.31199999999999 57.807625 -7.474999999999987 Q57.807625 -4.47262499999999 58.35575 -1.572499999999991 Q58.903875 1.3277500000000089 60.048125 4.077750000000009 H15.76925 Z"/></g><g id="Ultralight-M" transform="matrix(1 0 0 1 506.415 1126)"><path d="M88.5625 3.0200000000000102 Q89.5625 3.0200000000000102 90.1875 2.3950000000000102 Q90.8125 1.7700000000000102 90.8125 0.7700000000000102 Q90.8125 -0.22999999999998977 90.1875 -0.8549999999999898 Q89.5625 -1.4799999999999898 88.5625 -1.4799999999999898 Q87.5625 -1.4799999999999898 86.9375 -0.8549999999999898 Q86.3125 -0.22999999999998977 86.3125 0.7700000000000102 Q86.3125 1.7700000000000102 86.9375 2.3950000000000102 Q87.5625 3.0200000000000102 88.5625 3.0200000000000102 Z M86.875 -5.85499999999999 H90.25 V-18.97999999999999 H86.875 V-5.85499999999999 Z M50.0625 -58.22999999999999 H69.9375 V-68.16749999999999 H50.0625 V-58.22999999999999 Z M88.56675 10.08250000000001 Q81.0 10.08250000000001 75.75 4.836750000000009 Q70.5 -0.40912499999998886 70.5 -7.975749999999991 Q70.5 -15.54249999999999 75.74575 -20.79249999999999 Q80.991625 -26.04249999999999 88.55825 -26.04249999999999 Q96.125 -26.04249999999999 101.375 -20.79674999999999 Q106.625 -15.55087499999999 106.625 -7.984249999999989 Q106.625 -0.41749999999998977 101.37925 4.83250000000001 Q96.133375 10.08250000000001 88.56675 10.08250000000001 Z M17.125 2.7075000000000102 V-58.22999999999999 H46.875 V-71.35499999999999 H73.125 V-58.22999999999999 H102.875 V-34.66749999999999 Q99.595125 -36.32562499999999 95.9755 -37.27774999999999 Q92.356 -38.22999999999999 88.55975 -38.22999999999999 Q76.032125 -38.22999999999999 67.172375 -29.376499999999993 Q58.3125 -20.52299999999999 58.3125 -7.998499999999993 Q58.3125 -5.220499999999991 58.78125 -2.5377499999999884 Q59.25 0.14500000000001023 60.25 2.7075000000000102 H17.125 Z"/></g><g id="Bold-S" transform="matrix(1 0 0 1 2294.23 696)"><path d="M72.1935 -1.500249999999987 Q73.73205 -1.500249999999987 74.738025 -2.5062249999999864 Q75.744 -3.5121999999999876 75.744 -5.0507499999999865 Q75.744 -6.589299999999987 74.738025 -7.644587499999989 Q73.73205 -8.699874999999988 72.1935 -8.699874999999988 Q70.65495 -8.699874999999988 69.64897500000001 -7.644587499999989 Q68.643 -6.589299999999987 68.643 -5.0507499999999865 Q68.643 -3.5121999999999876 69.64897500000001 -2.5062249999999864 Q70.65495 -1.500249999999987 72.1935 -1.500249999999987 Z M69.136125 -13.532499999999988 H75.25087500000001 V-22.40874999999999 H69.136125 V-13.532499999999988 Z M41.817 -61.16837499999998 H52.863 V-66.59275 H41.817 V-61.16837499999998 Z M72.177818625 6.291125000000013 Q64.59937500000001 6.291125000000013 59.273625 0.9496936250000125 Q53.947875 -4.391737749999987 53.947875 -11.970181374999985 Q53.947875 -19.548624999999987 59.289306375 -24.874374999999986 Q64.63073775 -30.200124999999986 72.209181375 -30.200124999999986 Q79.787625 -30.200124999999986 85.113375 -24.858693624999987 Q90.439125 -19.51726224999999 90.439125 -11.938818624999989 Q90.439125 -4.360374999999987 85.097693625 0.9653750000000123 Q79.75626225 6.291125000000013 72.177818625 6.291125000000013 Z M7.101 0.6695000000000135 V-61.16837499999998 H30.672375000000002 V-77.73737499999999 H64.007625 V-61.16837499999998 H87.57900000000001 V-31.432937499999987 Q84.3058335 -34.08131462499999 80.30067225 -35.44460799999999 Q76.295412375 -36.807999999999986 72.189259125 -36.807999999999986 Q61.837875000000004 -36.807999999999986 54.5889375 -29.56044324999999 Q47.34 -22.31298512499999 47.34 -11.954499999999989 Q47.34 -8.542272249999986 48.32625 -5.366448624999986 Q49.3125 -2.1906249999999865 51.08775 0.6695000000000135 H7.101 Z"/></g><g id="Semibold-S" transform="matrix(1 0 0 1 1998.1 696)"><path d="M71.55036637500001 -2.1005803749999856 Q72.83160375 -2.1005803749999856 73.70897175 -2.9778497499999865 Q74.58633975 -3.8552177499999853 74.58633975 -5.136553749999987 Q74.58633975 -6.417791124999987 73.70897175 -7.322971374999987 Q72.83160375 -8.228250249999988 71.55036637500001 -8.228250249999988 Q70.269030375 -8.228250249999988 69.39166237500001 -7.322971374999987 Q68.51439300000001 -6.417791124999987 68.51439300000001 -5.136553749999987 Q68.51439300000001 -3.8552177499999853 69.39166237500001 -2.9778497499999865 Q70.269030375 -2.1005803749999856 71.55036637500001 -2.1005803749999856 Z M68.836009125 -12.93216962499999 H74.264723625 V-21.808419624999992 H68.836009125 V-12.93216962499999 Z M41.173866375 -59.83920587499999 H53.506133625 V-65.94961637499999 H41.173866375 V-59.83920587499999 Z M71.53468500000001 6.291125000000013 Q63.956241375000005 6.291125000000013 58.630491375000005 0.9496936250000125 Q53.304741375000006 -4.391737749999987 53.304741375000006 -11.970181374999985 Q53.304741375000006 -19.548624999999987 58.646172750000005 -24.874374999999986 Q63.987604125000004 -30.200124999999986 71.56604775000001 -30.200124999999986 Q79.144491375 -30.200124999999986 84.47024137500001 -24.858693624999987 Q89.79599137500001 -19.51726224999999 89.79599137500001 -11.938818624999989 Q89.79599137500001 -4.360374999999987 84.45456000000001 0.9653750000000123 Q79.113128625 6.291125000000013 71.53468500000001 6.291125000000013 Z M8.55887475 -0.916981749999989 V-59.83920587499999 H32.001544125 V-75.12183999999999 H62.678455875000004 V-59.83920587499999 H86.12112525 V-32.033267874999986 Q82.97666437500001 -34.38143049999999 79.19646675 -35.594715249999986 Q75.416269125 -36.807999999999986 71.546026875 -36.807999999999986 Q61.19474137500001 -36.807999999999986 53.94580387500001 -29.56044324999999 Q46.696866375 -22.31298512499999 46.696866375 -11.954499999999989 Q46.696866375 -9.013896999999986 47.447304 -6.2454932499999884 Q48.19764300000001 -3.476990874999988 49.544170125 -0.916981749999989 H8.55887475 Z"/></g><g id="Medium-S" transform="matrix(1 0 0 1 1701.85 696)"><path d="M71.067892875 -2.5508034999999865 Q72.15621975 -2.5508034999999865 72.937033875 -3.331716249999987 Q73.717946625 -4.112530374999988 73.717946625 -5.200857249999988 Q73.717946625 -6.289184124999984 72.937033875 -7.081833249999988 Q72.15621975 -7.874383749999986 71.067892875 -7.874383749999986 Q69.979566 -7.874383749999986 69.198751875 -7.081833249999988 Q68.417839125 -6.289184124999984 68.417839125 -5.200857249999988 Q68.417839125 -4.112530374999988 69.198751875 -3.331716249999987 Q69.979566 -2.5508034999999865 71.067892875 -2.5508034999999865 Z M68.61084825 -12.481946499999989 H73.52493750000001 V-21.35819649999999 H68.61084825 V-12.481946499999989 Z M40.691392875 -58.842107124999984 H53.988607125 V-65.467142875 H40.691392875 V-58.842107124999984 Z M71.0522115 6.291125000000013 Q63.473767875 6.291125000000013 58.148017875 0.9496936250000125 Q52.822267875 -4.391737749999987 52.822267875 -11.970181374999985 Q52.822267875 -19.548624999999987 58.16369925 -24.874374999999986 Q63.505130625 -30.200124999999986 71.08357425 -30.200124999999986 Q78.662017875 -30.200124999999986 83.987767875 -24.858693624999987 Q89.313517875 -19.51726224999999 89.313517875 -11.938818624999989 Q89.313517875 -4.360374999999987 83.9720865 0.9653750000000123 Q78.630655125 6.291125000000013 71.0522115 6.291125000000013 Z M9.652330125 -2.1069909999999865 V-58.842107124999984 H32.998642875 V-73.15989287499998 H61.681357125000005 V-58.842107124999984 H85.027669875 V-32.48349099999999 Q81.97966425 -34.60659137499999 78.368214 -35.70724637499999 Q74.75676375 -36.807999999999986 71.063652 -36.807999999999986 Q60.712267875 -36.807999999999986 53.463330375 -29.56044324999999 Q46.214392875 -22.31298512499999 46.214392875 -11.954499999999989 Q46.214392875 -9.367763499999988 46.78789725 -6.9048013749999875 Q47.361500250000006 -4.441839249999987 48.386312625 -2.1069909999999865 H9.652330125 Z"/></g><g id="Regular-S" transform="matrix(1 0 0 1 1405.73 696)"><path d="M70.71412500000001 -2.880999999999988 Q71.660925 -2.880999999999988 72.371025 -3.5910999999999866 Q73.081125 -4.301199999999987 73.081125 -5.247999999999987 Q73.081125 -6.1947999999999865 72.371025 -6.904899999999987 Q71.660925 -7.614999999999988 70.71412500000001 -7.614999999999988 Q69.767325 -7.614999999999988 69.057225 -6.904899999999987 Q68.347125 -6.1947999999999865 68.347125 -5.247999999999987 Q68.347125 -4.301199999999987 69.057225 -3.5910999999999866 Q69.767325 -2.880999999999988 70.71412500000001 -2.880999999999988 Z M68.44575 -12.15174999999999 H72.9825 V-21.027999999999984 H68.44575 V-12.15174999999999 Z M40.337625 -58.11099999999999 H54.342375000000004 V-65.11337499999999 H40.337625 V-58.11099999999999 Z M70.69844362500001 6.291125000000013 Q63.120000000000005 6.291125000000013 57.794250000000005 0.9496936250000125 Q52.4685 -4.391737749999987 52.4685 -11.970181374999985 Q52.4685 -19.548624999999987 57.809931375000005 -24.874374999999986 Q63.151362750000004 -30.200124999999986 70.729806375 -30.200124999999986 Q78.30825 -30.200124999999986 83.634 -24.858693624999987 Q88.95975 -19.51726224999999 88.95975 -11.938818624999989 Q88.95975 -4.360374999999987 83.618318625 0.9653750000000123 Q78.27688725 6.291125000000013 70.69844362500001 6.291125000000013 Z M10.45425 -2.979624999999986 V-58.11099999999999 H33.72975 V-71.72124999999998 H60.950250000000004 V-58.11099999999999 H84.22575 V-32.813687499999986 Q81.2484585 -34.771689624999986 77.76088125000001 -35.78979549999999 Q74.273205375 -36.807999999999986 70.709884125 -36.807999999999986 Q60.3585 -36.807999999999986 53.1095625 -29.56044324999999 Q45.860625 -22.31298512499999 45.860625 -11.954499999999989 Q45.860625 -9.627147249999986 46.3044375 -7.388261124999985 Q46.74825 -5.1493749999999885 47.53725 -2.979624999999986 H10.45425 Z"/></g><g id="Light-S" transform="matrix(1 0 0 1 1109.75 696)"><path d="M70.391719875 -4.626070749999986 Q71.338519875 -4.626070749999986 72.01064925 -5.298200124999987 Q72.682778625 -5.970329499999988 72.682778625 -6.917129499999987 Q72.682778625 -7.863929499999987 72.01064925 -8.536157499999987 Q71.338519875 -9.208286874999988 70.391719875 -9.208286874999988 Q69.444919875 -9.208286874999988 68.772691875 -8.536157499999987 Q68.10056250000001 -7.863929499999987 68.10056250000001 -6.917129499999987 Q68.10056250000001 -5.970329499999988 68.772691875 -5.298200124999987 Q69.444919875 -4.626070749999986 70.391719875 -4.626070749999986 Z M68.33193675 -13.631223624999986 H72.45140437500001 V-20.648688249999985 H68.33193675 V-13.631223624999986 Z M40.318689 -56.29008662499999 H54.361311 V-63.311397625 H40.318689 V-56.29008662499999 Z M70.374756375 3.768396125000013 Q63.537282375000004 3.768396125000013 58.761564 -1.0241871249999868 Q53.985944249999996 -5.816868999999986 53.985944249999996 -12.654342999999987 Q53.985944249999996 -19.491718374999987 58.7785275 -24.267436749999987 Q63.57120937500001 -29.043056499999985 70.40858475 -29.043056499999985 Q77.24605875 -29.043056499999985 82.021777125 -24.250473249999985 Q86.797396875 -19.45779137499999 86.797396875 -12.620415999999988 Q86.797396875 -5.782941999999988 82.004813625 -1.0072236249999875 Q77.21213175 3.768396125000013 70.374756375 3.768396125000013 Z M12.23719275 -4.781602374999984 V-56.29008662499999 H35.588634000000006 V-68.04155125 H59.09136600000001 V-56.29008662499999 H82.44280725 V-33.268940499999985 Q79.74018637500001 -34.828201749999984 76.641783375 -35.666316999999985 Q73.543380375 -36.504530874999986 70.388169375 -36.504530874999986 Q60.44410650000001 -36.504530874999986 53.484337499999995 -29.547523374999983 Q46.524469875 -22.590417249999987 46.524469875 -12.642902499999987 Q46.524469875 -10.610635749999986 46.863937125 -8.657663499999988 Q47.203503 -6.704691249999989 47.802847125 -4.781602374999984 H12.23719275 Z"/></g><g id="Thin-S" transform="matrix(1 0 0 1 814.015 696)"><path d="M70.06931475 -6.370746999999987 Q71.01611475 -6.370746999999987 71.6502735 -7.005004374999988 Q72.284530875 -7.639261749999989 72.284530875 -8.586061749999988 Q72.284530875 -9.532861749999988 71.6502735 -10.167119124999989 Q71.01611475 -10.801277874999986 70.06931475 -10.801277874999986 Q69.12251475 -10.801277874999986 68.488257375 -10.167119124999989 Q67.854 -9.532861749999988 67.854 -8.586061749999988 Q67.854 -7.639261749999989 68.488257375 -7.005004374999988 Q69.12251475 -6.370746999999987 70.06931475 -6.370746999999987 Z M68.2181235 -15.110499999999988 H71.920407375 V-20.269376499999986 H68.2181235 V-15.110499999999988 Z M40.299654375 -54.46946912499999 H54.380345625000004 V-61.50981474999999 H40.299654375 V-54.46946912499999 Z M70.05106912500001 1.2460617500000133 Q63.954466125 1.2460617500000133 59.728779375 -2.9978706249999867 Q55.503092625 -7.241802999999987 55.503092625 -13.338307374999989 Q55.503092625 -19.434811749999987 59.747025 -23.66049849999999 Q63.99095737500001 -27.88628387499999 70.08746175 -27.88628387499999 Q76.18406475 -27.88628387499999 80.4097515 -23.64235149999999 Q84.63543825 -19.398419124999986 84.63543825 -13.301816124999988 Q84.63543825 -7.205311749999989 80.39150587500001 -2.979624999999986 Q76.14757350000001 1.2460617500000133 70.05106912500001 1.2460617500000133 Z M14.019938250000001 -6.583185249999989 V-54.46946912499999 H37.447123500000004 V-64.36234562499999 H57.2328765 V-54.46946912499999 H80.66006175 V-33.724094874999984 Q78.232012875 -34.88471387499999 75.522784125 -35.54293712499999 Q72.813555375 -36.20106174999999 70.06665187499999 -36.20106174999999 Q60.529713 -36.20106174999999 53.85901387500001 -29.53450487499999 Q47.188216125000004 -22.86794799999999 47.188216125000004 -13.331304999999986 Q47.188216125000004 -11.593926999999987 47.42343675 -9.926868624999987 Q47.658657375000004 -8.259810249999987 48.068345625 -6.583185249999989 H14.019938250000001 Z"/></g><g id="Ultralight-S" transform="matrix(1 0 0 1 517.792 696)"><path d="M69.87581250000001 -7.417749999999987 Q70.8226125 -7.417749999999987 71.4340875 -8.029224999999986 Q72.0455625 -8.640699999999988 72.0455625 -9.587499999999988 Q72.0455625 -10.534299999999988 71.4340875 -11.14577499999999 Q70.8226125 -11.757249999999988 69.87581250000001 -11.757249999999988 Q68.9290125 -11.757249999999988 68.31753750000001 -11.14577499999999 Q67.7060625 -10.534299999999988 67.7060625 -9.587499999999988 Q67.7060625 -8.640699999999988 68.31753750000001 -8.029224999999986 Q68.9290125 -7.417749999999987 69.87581250000001 -7.417749999999987 Z M68.14987500000001 -15.998124999999987 H71.60175000000001 V-20.041749999999986 H68.14987500000001 V-15.998124999999987 Z M40.2883125 -53.376999999999995 H54.3916875 V-60.428687499999995 H40.2883125 V-53.376999999999995 Z M69.856777875 -0.26743749999998734 Q64.204875 -0.26743749999998734 60.3091875 -4.18215962499999 Q56.4135 -8.096783124999988 56.4135 -13.748784624999985 Q56.4135 -19.40068749999999 60.328222125 -23.29637499999999 Q64.242845625 -27.19206249999999 69.894847125 -27.19206249999999 Q75.54675 -27.19206249999999 79.4424375 -23.277340374999987 Q83.338125 -19.36271687499999 83.338125 -13.710715374999989 Q83.338125 -8.058812499999988 79.42340287500001 -4.163124999999987 Q75.508779375 -0.26743749999998734 69.856777875 -0.26743749999998734 Z M15.089625 -7.664312499999987 V-53.376999999999995 H38.562375 V-62.154624999999996 H56.117625000000004 V-53.376999999999995 H79.59037500000001 V-33.99718749999999 Q77.32702987500001 -34.91864087499999 74.851345125 -35.46886974999999 Q72.375759 -36.01899999999999 69.87364275 -36.01899999999999 Q60.581096625 -36.01899999999999 54.083878875 -29.526713499999993 Q47.5865625 -23.034426999999987 47.5865625 -13.744346499999988 Q47.5865625 -12.183901749999986 47.759156250000004 -10.688450874999987 Q47.93175 -9.192999999999987 48.227625 -7.664312499999987 H15.089625 Z"/></g></g></svg>