<svg xmlns="http://www.w3.org/2000/svg" version="1.1" width="3300" height="2000"><g id="Notes"><style>
    text {
      font-family: monospace;
      text-anchor: middle;
    }
    text.emphasis {
      font-weight:bold;
    }
    text.lanchor {
      text-anchor: start;
    }
  </style><rect height="2200" id="artboard" fill="white" width="3300" x="0" y="0"/><line id="" style="fill:none;stroke:black;stroke-width:0.5;" x1="263" x2="3036" y1="292" y2="292"/><text class="lanchor emphasis" transform="matrix(1 0 0 1 263 322)">Weight/Scale Variations</text><text transform="matrix(1 0 0 1 559.711 322)">Ultralight</text><text transform="matrix(1 0 0 1 856.422 322)">Thin</text><text transform="matrix(1 0 0 1 1153.13 322)">Light</text><text transform="matrix(1 0 0 1 1449.84 322)">Regular</text><text transform="matrix(1 0 0 1 1746.56 322)">Medium</text><text transform="matrix(1 0 0 1 2043.27 322)">Semibold</text><text transform="matrix(1 0 0 1 2339.98 322)">Bold</text><text transform="matrix(1 0 0 1 2636.69 322)">Heavy</text><text transform="matrix(1 0 0 1 2933.4 322)">Black</text><text id="template-version" style="text-anchor: end;" transform="matrix(1 0 0 1 3036 1933)">Template v.1.0</text><text class="lanchor" transform="matrix(1 0 0 1 263 726)">Small</text><text class="lanchor" transform="matrix(1 0 0 1 263 1156)">Medium</text><text class="lanchor" transform="matrix(1 0 0 1 263 1586)">Large</text></g><g id="Guides"><g id="H-reference" style="fill:#27AAE1;stroke:none;" transform="matrix(1 0 0 1 339 696)"><path d="M 54.9316 0 L 57.666 0 L 30.5664 -70.459 L 28.0762 -70.459 L 0.976562 0 L 3.66211 0 L 12.9395 -24.4629 L 45.7031 -24.4629 Z M 29.1992 -67.0898 L 29.4434 -67.0898 L 44.8242 -26.709 L 13.8184 -26.709 Z"/></g><line id="Baseline-S" style="fill:none;stroke:#27AAE1;opacity:1;stroke-width:0.577;" x1="263" x2="3036" y1="696" y2="696"/><line id="Capline-S" style="fill:none;stroke:#27AAE1;opacity:1;stroke-width:0.577;" x1="263" x2="3036" y1="625.541" y2="625.541"/><g id="H-reference" style="fill:#27AAE1;stroke:none;" transform="matrix(1 0 0 1 339 1126)"><path d="M 54.9316 0 L 57.666 0 L 30.5664 -70.459 L 28.0762 -70.459 L 0.976562 0 L 3.66211 0 L 12.9395 -24.4629 L 45.7031 -24.4629 Z M 29.1992 -67.0898 L 29.4434 -67.0898 L 44.8242 -26.709 L 13.8184 -26.709 Z"/></g><line id="Baseline-M" style="fill:none;stroke:#27AAE1;opacity:1;stroke-width:0.577;" x1="263" x2="3036" y1="1126" y2="1126"/><line id="Capline-M" style="fill:none;stroke:#27AAE1;opacity:1;stroke-width:0.577;" x1="263" x2="3036" y1="1055.54" y2="1055.54"/><g id="H-reference" style="fill:#27AAE1;stroke:none;" transform="matrix(1 0 0 1 339 1556)"><path d="M 54.9316 0 L 57.666 0 L 30.5664 -70.459 L 28.0762 -70.459 L 0.976562 0 L 3.66211 0 L 12.9395 -24.4629 L 45.7031 -24.4629 Z M 29.1992 -67.0898 L 29.4434 -67.0898 L 44.8242 -26.709 L 13.8184 -26.709 Z"/></g><line id="Baseline-L" style="fill:none;stroke:#27AAE1;opacity:1;stroke-width:0.577;" x1="263" x2="3036" y1="1556" y2="1556"/><line id="Capline-L" style="fill:none;stroke:#27AAE1;opacity:1;stroke-width:0.577;" x1="263" x2="3036" y1="1485.54" y2="1485.54"/><rect height="119.336" id="left-margin" style="fill:darkred;stroke:none;opacity:0.4;" width="12.4512" x="1394.06" y="1030.79"/><rect height="119.336" id="right-margin" style="fill:darkgreen;stroke:none;opacity:0.4;" width="12.4512" x="1502.5112" y="1030.79"/><rect x="1406.5112" y="1045" width="96" height="96" fill="none" stroke="blue" stroke-dasharray="5"/><rect x="1394.06" y="1030.79" width="120.9024" height="119.336" fill="none" stroke="blue"/></g><g id="Symbols"><g id="Bold-L" transform="matrix(1 0 0 1 2266 1556)"><path d="M49.987500000000004 -8.462500000000006 H59.17875000000001 L95.46000000000001 -44.74374999999999 L86.1075 -54.09625 L49.987500000000004 -17.653749999999988 V-8.462500000000006 Z M98.685 -47.968749999999986  107.55375000000001 -56.998749999999994  98.20125 -66.35125  89.17125 -57.16  98.685 -47.968749999999986 Z M77.4 32.65625 Q63.371249999999996 32.65625 50.955000000000005 27.415625000000006 Q38.53875 22.17500000000001 29.266875 12.903125000000003 Q19.995 3.6312499999999943 14.754375000000001 -8.784999999999982 Q9.513750000000002 -21.201249999999987 9.513750000000002 -35.22999999999999 Q9.513750000000002 -49.25875 14.754375000000001 -61.67499999999999 Q19.995 -74.09125 29.266875 -83.363125 Q38.53875 -92.63499999999999 50.955000000000005 -97.95625 Q63.371249999999996 -103.2775 77.23875 -103.2775 Q91.42875000000001 -103.2775 103.92562500000001 -97.95625 Q116.42250000000001 -92.63499999999999 125.61375000000001 -83.363125 Q134.805 -74.09125 140.12625 -61.67499999999999 Q145.44750000000002 -49.25875 145.44750000000002 -35.068749999999994 Q145.44750000000002 -21.201249999999987 140.12625 -8.784999999999982 Q134.805 3.6312499999999943 125.533125 12.903125000000003 Q116.26124999999999 22.17500000000001 103.84500000000001 27.415625000000006 Q91.42875000000001 32.65625 77.4 32.65625 Z M77.4 17.982500000000016 Q99.49125000000001 17.982500000000016 115.051875 2.421875 Q130.6125 -13.138749999999987 130.6125 -35.22999999999999 Q130.6125 -57.32125 115.051875 -72.881875 Q99.49125000000001 -88.4425 77.4 -88.4425 Q55.308749999999996 -88.4425 39.748125 -72.881875 Q24.1875 -57.32125 24.1875 -35.22999999999999 Q24.1875 -13.138749999999987 39.748125 2.421875 Q55.308749999999996 17.982500000000016 77.4 17.982500000000016 Z"/></g><g id="Semibold-L" transform="matrix(1 0 0 1 1970.27 1556)"><path d="M48.6975 -6.8500000000000085 H58.85625 L95.94375000000001 -43.937499999999986 L85.62375 -54.257499999999986 L48.6975 -17.169999999999987 V-6.8500000000000085 Z M99.16875 -47.162499999999994  108.84375 -56.998749999999994  98.52375 -67.1575  88.6875 -57.32125  99.16875 -47.162499999999994 Z M77.4 32.33375000000001 Q63.5325 32.33375000000001 51.11625 27.01249999999999 Q38.7 21.691249999999997 29.589375000000004 12.580625000000012 Q20.478749999999998 3.470000000000013 15.1575 -8.946249999999992 Q9.83625 -21.362499999999997 9.83625 -35.22999999999999 Q9.83625 -49.25875 15.1575 -61.594375 Q20.478749999999998 -73.92999999999999 29.669999999999998 -83.12124999999999 Q38.861250000000005 -92.3125 51.196875 -97.553125 Q63.5325 -102.79374999999999 77.23875 -102.79374999999999 Q91.2675 -102.79374999999999 103.68375 -97.553125 Q116.10000000000001 -92.3125 125.29125 -83.12124999999999 Q134.48250000000002 -73.92999999999999 139.723125 -61.594375 Q144.96375 -49.25875 144.96375 -35.068749999999994 Q144.96375 -21.201249999999987 139.723125 -8.946249999999992 Q134.48250000000002 3.3087500000000176 125.29125 12.5 Q116.10000000000001 21.691249999999997 103.76437499999999 27.01249999999999 Q91.42875000000001 32.33375000000001 77.4 32.33375000000001 Z M77.4 18.94999999999999 Q99.81375 18.94999999999999 115.696875 3.0668750000000102 Q131.57999999999998 -12.816249999999997 131.57999999999998 -35.22999999999999 Q131.57999999999998 -57.64374999999999 115.696875 -73.52687499999999 Q99.81375 -89.41 77.4 -89.41 Q54.986250000000005 -89.41 39.103125 -73.52687499999999 Q23.220000000000002 -57.64374999999999 23.220000000000002 -35.22999999999999 Q23.220000000000002 -12.816249999999997 39.103125 3.0668750000000102 Q54.986250000000005 18.94999999999999 77.4 18.94999999999999 Z"/></g><g id="Medium-L" transform="matrix(1 0 0 1 1674.31 1556)"><path d="M47.730000000000004 -5.721249999999998 H58.695 L96.26625000000001 -43.45375 L85.30125 -54.41874999999999 L47.730000000000004 -16.686249999999987 V-5.721249999999998 Z M99.49125000000001 -46.678749999999994  109.81124999999999 -56.83749999999999  98.84625 -67.8025  88.365 -57.48249999999999  99.49125000000001 -46.678749999999994 Z M77.4 32.01125000000002 Q63.5325 32.01125000000002 51.2775 26.690000000000026 Q39.0225 21.368750000000006 29.911875000000002 12.258125000000007 Q20.80125 3.147500000000008 15.48 -9.107499999999987 Q10.15875 -21.362499999999997 10.15875 -35.22999999999999 Q10.15875 -49.25875 15.48 -61.513749999999995 Q20.80125 -73.76874999999998 29.911875000000002 -82.879375 Q39.0225 -91.99 51.2775 -97.23062499999999 Q63.5325 -102.47125 77.4 -102.47125 Q91.2675 -102.47125 103.603125 -97.23062499999999 Q115.93875000000001 -91.99 125.049375 -82.879375 Q134.16 -73.76874999999998 139.40062500000002 -61.433125 Q144.64125 -49.0975 144.64125 -35.068749999999994 Q144.64125 -21.362499999999997 139.40062500000002 -9.107499999999987 Q134.16 3.147500000000008 125.049375 12.258125000000007 Q115.93875000000001 21.368750000000006 103.603125 26.690000000000026 Q91.2675 32.01125000000002 77.4 32.01125000000002 Z M77.4 19.595 Q100.13625 19.595 116.18062499999999 3.470000000000013 Q132.225 -12.654999999999987 132.225 -35.22999999999999 Q132.225 -57.966249999999995 116.18062499999999 -74.010625 Q100.13625 -90.05499999999999 77.4 -90.05499999999999 Q54.825 -90.05499999999999 38.7 -74.010625 Q22.575 -57.966249999999995 22.575 -35.22999999999999 Q22.575 -12.654999999999987 38.7 3.470000000000013 Q54.825 19.595 77.4 19.595 Z"/></g><g id="Regular-L" transform="matrix(1 0 0 1 1378.56 1556)"><path d="M47.085 -4.914999999999992 H58.53375 L96.58875 -42.969999999999985 L85.14 -54.41874999999999 L47.085 -16.363749999999982 V-4.914999999999992 Z M99.81375 -46.19499999999999  110.45625 -56.83749999999999  99.00750000000001 -68.28625  88.20375000000001 -57.48249999999999  99.81375 -46.19499999999999 Z M77.4 31.849999999999994 Q63.5325 31.849999999999994 51.358125 26.528750000000002 Q39.18375 21.20750000000001 30.073124999999997 12.096874999999997 Q20.962500000000002 2.9862500000000125 15.64125 -9.268749999999997 Q10.32 -21.523749999999993 10.32 -35.22999999999999 Q10.32 -49.0975 15.64125 -61.35249999999999 Q20.962500000000002 -73.60749999999999 30.073124999999997 -82.71812499999999 Q39.18375 -91.82875 51.43875 -97.069375 Q63.69375 -102.31 77.4 -102.31 Q91.2675 -102.31 103.52250000000001 -97.069375 Q115.7775 -91.82875 124.888125 -82.71812499999999 Q133.99875 -73.60749999999999 139.239375 -61.35249999999999 Q144.48 -49.0975 144.48 -35.068749999999994 Q144.48 -21.362499999999997 139.239375 -9.188124999999985 Q133.99875 2.9862500000000125 124.888125 12.096874999999997 Q115.7775 21.20750000000001 103.52250000000001 26.528750000000002 Q91.2675 31.849999999999994 77.4 31.849999999999994 Z M77.4 20.078750000000014 Q100.45875 20.078750000000014 116.58375 3.8731250000000017 Q132.70875 -12.332499999999982 132.70875 -35.22999999999999 Q132.70875 -58.288749999999986 116.58375 -74.41375 Q100.45875 -90.53875 77.4 -90.53875 Q54.5025 -90.53875 38.296875 -74.41375 Q22.09125 -58.288749999999986 22.09125 -35.22999999999999 Q22.09125 -12.332499999999982 38.296875 3.8731250000000017 Q54.5025 20.078750000000014 77.4 20.078750000000014 Z"/></g><g id="Light-L" transform="matrix(1 0 0 1 1082.77 1556)"><path d="M48.21375 -6.043750000000003 H57.88875 L96.75 -44.90499999999999 L87.075 -54.57999999999999 L48.21375 -15.718749999999986 V-6.043750000000003 Z M100.13625 -48.29124999999999  109.3275 -57.48249999999999  99.6525 -67.1575  90.13875 -57.80499999999999  100.13625 -48.29124999999999 Z M77.4 28.625 Q64.1775 28.625 52.5675 23.545625 Q40.957499999999996 18.466250000000002 32.330625000000005 9.839375000000018 Q23.70375 1.2124999999999915 18.624375 -10.397499999999994 Q13.545000000000002 -22.007499999999993 13.545000000000002 -35.22999999999999 Q13.545000000000002 -48.4525 18.624375 -60.143125 Q23.70375 -71.83375 32.41125 -80.460625 Q41.11875 -89.08749999999999 52.648125 -94.08624999999999 Q64.1775 -99.085 77.23875 -99.085 Q90.6225 -99.085 102.31312500000001 -94.08624999999999 Q114.00375000000001 -89.08749999999999 122.630625 -80.460625 Q131.25750000000002 -71.83375 136.25625 -60.143125 Q141.255 -48.4525 141.255 -35.22999999999999 Q141.255 -22.007499999999993 136.25625 -10.478124999999991 Q131.25750000000002 1.0512500000000102 122.630625 9.75875000000002 Q114.00375000000001 18.466250000000002 102.31312500000001 23.545625 Q90.6225 28.625 77.4 28.625 Z M77.4 19.272500000000008 Q99.97500000000001 19.272500000000008 115.93875000000001 3.3087500000000176 Q131.9025 -12.654999999999987 131.9025 -35.22999999999999 Q131.9025 -57.80499999999999 115.93875000000001 -73.76874999999998 Q99.97500000000001 -89.73249999999999 77.4 -89.73249999999999 Q54.825 -89.73249999999999 38.861250000000005 -73.76874999999998 Q22.8975 -57.80499999999999 22.8975 -35.22999999999999 Q22.8975 -12.654999999999987 38.861250000000005 3.3087500000000176 Q54.825 19.272500000000008 77.4 19.272500000000008 Z"/></g><g id="Thin-L" transform="matrix(1 0 0 1 787.282 1556)"><path d="M49.18125 -7.01124999999999 H57.24375 L96.91125000000001 -46.678749999999994 L88.84875000000001 -54.741249999999994 L49.18125 -15.07374999999999 V-7.01124999999999 Z M100.62 -50.226249999999986  108.36000000000001 -58.1275  100.29750000000001 -66.19  92.07375 -57.966249999999995  100.62 -50.226249999999986 Z M77.4 25.400000000000006 Q64.8225 25.400000000000006 53.8575 20.5625 Q42.892500000000005 15.724999999999994 34.66875 7.501250000000013 Q26.444999999999997 -0.7224999999999824 21.6075 -11.687499999999986 Q16.77 -22.652500000000003 16.77 -35.22999999999999 Q16.77 -47.80749999999999 21.6075 -58.85312499999999 Q26.444999999999997 -69.89874999999999 34.66875 -78.1225 Q42.892500000000005 -86.34625 53.8575 -91.10312499999999 Q64.8225 -95.86 77.23875 -95.86 Q89.81625000000001 -95.86 100.94250000000001 -91.18374999999999 Q112.06875000000001 -86.5075 120.29249999999999 -78.203125 Q128.51625 -69.89874999999999 133.27312500000002 -58.85312499999999 Q138.03 -47.80749999999999 138.03 -35.22999999999999 Q138.03 -22.652500000000003 133.35375000000002 -11.687499999999986 Q128.6775 -0.7224999999999824 120.37312500000002 7.501250000000013 Q112.06875000000001 15.724999999999994 101.02312500000001 20.5625 Q89.97749999999999 25.400000000000006 77.4 25.400000000000006 Z M77.4 18.305000000000007 Q99.6525 18.305000000000007 115.29375 2.6637500000000074 Q130.935 -12.977499999999992 130.935 -35.22999999999999 Q130.935 -57.48249999999999 115.29375 -73.12375 Q99.6525 -88.76499999999999 77.4 -88.76499999999999 Q55.14750000000001 -88.76499999999999 39.50625 -73.12375 Q23.865000000000002 -57.48249999999999 23.865000000000002 -35.22999999999999 Q23.865000000000002 -12.977499999999992 39.50625 2.6637500000000074 Q55.14750000000001 18.305000000000007 77.4 18.305000000000007 Z"/></g><g id="Ultralight-L" transform="matrix(1 0 0 1 491.205 1556)"><path d="M49.82625 -7.65625 H56.92124999999999 L97.0725 -47.80749999999999 L89.97749999999999 -54.902499999999996 L49.82625 -14.751249999999985 V-7.65625 Z M100.78125 -51.51625  107.715 -58.44999999999999  100.62 -65.54499999999999  93.2025 -58.1275  100.78125 -51.51625 Z M77.4 23.465000000000003 Q65.145 23.465000000000003 54.583125 18.78875000000002 Q44.02125 14.112499999999997 36.03937500000001 6.211250000000007 Q28.057499999999997 -1.6899999999999977 23.38125 -12.332499999999982 Q18.705 -22.974999999999994 18.705 -35.22999999999999 Q18.705 -47.32374999999999 23.38125 -58.04687499999999 Q28.057499999999997 -68.77 36.03937500000001 -76.75187499999998 Q44.02125 -84.73374999999999 54.583125 -89.329375 Q65.145 -93.925 77.23875 -93.925 Q89.49375 -93.925 100.216875 -89.329375 Q110.94 -84.73374999999999 118.921875 -76.75187499999998 Q126.90375 -68.77 131.499375 -58.04687499999999 Q136.095 -47.32374999999999 136.095 -35.22999999999999 Q136.095 -22.974999999999994 131.499375 -12.413124999999994 Q126.90375 -1.8512499999999932 118.921875 6.130625000000023 Q110.94 14.112499999999997 100.216875 18.78875000000002 Q89.49375 23.465000000000003 77.4 23.465000000000003 Z M77.4 17.82125000000002 Q99.49125000000001 17.82125000000002 114.97125 2.3412500000000023 Q130.45125000000002 -13.138749999999987 130.45125000000002 -35.22999999999999 Q130.45125000000002 -57.32125 114.97125 -72.80125 Q99.49125000000001 -88.28125 77.4 -88.28125 Q55.308749999999996 -88.28125 39.82875 -72.80125 Q24.34875 -57.32125 24.34875 -35.22999999999999 Q24.34875 -13.138749999999987 39.82875 2.3412500000000023 Q55.308749999999996 17.82125000000002 77.4 17.82125000000002 Z"/></g><g id="Bold-M" transform="matrix(1 0 0 1 2281.8 1126)"><path d="M36.75 -12.72999999999999 H48.25 L75.5 -39.97999999999999 L63.875 -51.60499999999999 L36.75 -24.22999999999999 V-12.72999999999999 Z M78.5 -42.97999999999999  85.375 -49.85499999999999  73.75 -61.47999999999999  66.5 -54.22999999999999  78.5 -42.97999999999999 Z M60.0 20.52000000000001 Q48.375 20.52000000000001 38.19 16.210000000000008 Q28.0 11.89500000000001 20.44 4.335000000000008 Q12.875 -3.2299999999999898 8.565000000000001 -13.420000000000002 Q4.25 -23.60499999999999 4.25 -35.22999999999999 Q4.25 -46.85499999999999 8.565000000000001 -57.044999999999995 Q12.875 -67.22999999999999 20.44 -74.79499999999999 Q28.0 -82.35499999999999 38.19 -86.66999999999999 Q48.375 -90.97999999999999 60.0 -90.97999999999999 Q71.625 -90.97999999999999 81.815 -86.66999999999999 Q92.0 -82.35499999999999 99.565 -74.79499999999999 Q107.125 -67.22999999999999 111.44 -57.044999999999995 Q115.75 -46.85499999999999 115.75 -35.22999999999999 Q115.75 -23.60499999999999 111.44 -13.420000000000002 Q107.125 -3.2299999999999898 99.565 4.335000000000008 Q92.0 11.89500000000001 81.815 16.210000000000008 Q71.625 20.52000000000001 60.0 20.52000000000001 Z M60.0 3.5200000000000102 Q76.375 3.5200000000000102 87.56 -7.6699999999999875 Q98.75 -18.85499999999999 98.75 -35.22999999999999 Q98.75 -51.60499999999999 87.56 -62.79499999999999 Q76.375 -73.97999999999999 60.0 -73.97999999999999 Q43.625 -73.97999999999999 32.435 -62.79499999999999 Q21.25 -51.60499999999999 21.25 -35.22999999999999 Q21.25 -18.85499999999999 32.435 -7.6699999999999875 Q43.625 3.5200000000000102 60.0 3.5200000000000102 Z"/></g><g id="Semibold-M" transform="matrix(1 0 0 1 1985.97 1126)"><path d="M35.75 -11.35499999999999 H48.0 L75.875 -39.22999999999999 L63.5 -51.60499999999999 L35.75 -23.60499999999999 V-11.35499999999999 Z M78.875 -42.22999999999999  86.375 -49.85499999999999  74.125 -62.10499999999999  66.25 -54.22999999999999  78.875 -42.22999999999999 Z M60.0 19.77000000000001 Q48.625 19.77000000000001 38.565 15.455000000000013 Q28.5 11.14500000000001 21.065 3.710000000000008 Q13.625 -3.7299999999999898 9.315 -13.789999999999992 Q5.0 -23.85499999999999 5.0 -35.22999999999999 Q5.0 -46.72999999999999 9.315 -56.78999999999999 Q13.625 -66.85499999999999 21.065 -74.28999999999999 Q28.5 -81.72999999999999 38.565 -85.97999999999999 Q48.625 -90.22999999999999 60.0 -90.22999999999999 Q71.5 -90.22999999999999 81.56 -85.97999999999999 Q91.625 -81.72999999999999 99.06 -74.28999999999999 Q106.5 -66.85499999999999 110.75 -56.78999999999999 Q115.0 -46.72999999999999 115.0 -35.22999999999999 Q115.0 -23.72999999999999 110.75 -13.72999999999999 Q106.5 -3.7299999999999898 99.06 3.710000000000008 Q91.625 11.14500000000001 81.56 15.455000000000013 Q71.5 19.77000000000001 60.0 19.77000000000001 Z M60.0 4.39500000000001 Q76.625 4.39500000000001 88.125 -7.10499999999999 Q99.625 -18.60499999999999 99.625 -35.22999999999999 Q99.625 -51.85499999999999 88.125 -63.35499999999999 Q76.625 -74.85499999999999 60.0 -74.85499999999999 Q43.375 -74.85499999999999 31.875 -63.35499999999999 Q20.375 -51.85499999999999 20.375 -35.22999999999999 Q20.375 -18.60499999999999 31.875 -7.10499999999999 Q43.375 4.39500000000001 60.0 4.39500000000001 Z"/></g><g id="Medium-M" transform="matrix(1 0 0 1 1689.91 1126)"><path d="M35.0 -10.35499999999999 H47.75 L76.125 -38.72999999999999 L63.25 -51.60499999999999 L35.0 -23.22999999999999 V-10.35499999999999 Z M79.125 -41.72999999999999  87.125 -49.72999999999999  74.375 -62.60499999999999  66.0 -54.35499999999999  79.125 -41.72999999999999 Z M60.0 19.14500000000001 Q48.75 19.14500000000001 38.815 14.89500000000001 Q28.875 10.64500000000001 21.5 3.2700000000000102 Q14.125 -4.10499999999999 9.875 -14.039999999999992 Q5.625 -23.97999999999999 5.625 -35.22999999999999 Q5.625 -46.60499999999999 9.875 -56.54499999999999 Q14.125 -66.47999999999999 21.5 -73.85499999999999 Q28.875 -81.22999999999999 38.815 -85.41999999999999 Q48.75 -89.60499999999999 60.0 -89.60499999999999 Q71.375 -89.60499999999999 81.31 -85.41999999999999 Q91.25 -81.22999999999999 98.625 -73.85499999999999 Q106.0 -66.47999999999999 110.19 -56.54499999999999 Q114.375 -46.60499999999999 114.375 -35.22999999999999 Q114.375 -23.85499999999999 110.19 -13.97999999999999 Q106.0 -4.10499999999999 98.625 3.2700000000000102 Q91.25 10.64500000000001 81.31 14.89500000000001 Q71.375 19.14500000000001 60.0 19.14500000000001 Z M60.0 5.02000000000001 Q76.875 5.02000000000001 88.56 -6.6699999999999875 Q100.25 -18.35499999999999 100.25 -35.22999999999999 Q100.25 -52.10499999999999 88.56 -63.79499999999999 Q76.875 -75.47999999999999 60.0 -75.47999999999999 Q43.125 -75.47999999999999 31.435 -63.79499999999999 Q19.75 -52.10499999999999 19.75 -35.22999999999999 Q19.75 -18.35499999999999 31.435 -6.6699999999999875 Q43.125 5.02000000000001 60.0 5.02000000000001 Z"/></g><g id="Regular-M" transform="matrix(1 0 0 1 1394.06 1126)"><path d="M34.375 -9.60499999999999 H47.625 L76.375 -38.35499999999999 L63.125 -51.60499999999999 L34.375 -22.85499999999999 V-9.60499999999999 Z M79.375 -41.35499999999999  87.75 -49.72999999999999  74.5 -62.97999999999999  65.875 -54.35499999999999  79.375 -41.35499999999999 Z M60.0 18.77000000000001 Q48.75 18.77000000000001 38.935 14.52000000000001 Q29.125 10.27000000000001 21.815 2.960000000000022 Q14.5 -4.35499999999999 10.25 -14.169999999999987 Q6.0 -23.97999999999999 6.0 -35.22999999999999 Q6.0 -46.47999999999999 10.25 -56.35499999999999 Q14.5 -66.22999999999999 21.815 -73.53999999999999 Q29.125 -80.85499999999999 38.935 -85.04499999999999 Q48.75 -89.22999999999999 60.0 -89.22999999999999 Q71.25 -89.22999999999999 81.125 -85.04499999999999 Q91.0 -80.85499999999999 98.315 -73.53999999999999 Q105.625 -66.22999999999999 109.81 -56.35499999999999 Q114.0 -46.47999999999999 114.0 -35.22999999999999 Q114.0 -23.97999999999999 109.81 -14.169999999999987 Q105.625 -4.35499999999999 98.315 2.960000000000022 Q91.0 10.27000000000001 81.125 14.52000000000001 Q71.25 18.77000000000001 60.0 18.77000000000001 Z M60.0 5.52000000000001 Q77.125 5.52000000000001 88.94 -6.2949999999999875 Q100.75 -18.10499999999999 100.75 -35.22999999999999 Q100.75 -52.35499999999999 88.94 -64.16999999999999 Q77.125 -75.97999999999999 60.0 -75.97999999999999 Q42.875 -75.97999999999999 31.065 -64.16999999999999 Q19.25 -52.35499999999999 19.25 -35.22999999999999 Q19.25 -18.10499999999999 31.065 -6.2949999999999875 Q42.875 5.52000000000001 60.0 5.52000000000001 Z"/></g><g id="Light-M" transform="matrix(1 0 0 1 1098.18 1126)"><path d="M35.375 -10.60499999999999 H46.5 L76.375 -40.47999999999999 L65.25 -51.60499999999999 L35.375 -21.72999999999999 V-10.60499999999999 Z M79.375 -43.47999999999999  86.75 -50.85499999999999  75.625 -61.97999999999999  67.875 -54.22999999999999  79.375 -43.47999999999999 Z M60.0 16.27000000000001 Q49.375 16.27000000000001 39.940000000000005 12.210000000000008 Q30.5 8.14500000000001 23.565 1.210000000000008 Q16.625 -5.72999999999999 12.565 -15.10499999999999 Q8.5 -24.47999999999999 8.5 -35.22999999999999 Q8.5 -45.97999999999999 12.565 -55.41999999999999 Q16.625 -64.85499999999999 23.565 -71.79499999999999 Q30.5 -78.72999999999999 39.940000000000005 -82.72999999999999 Q49.375 -86.72999999999999 60.0 -86.72999999999999 Q70.75 -86.72999999999999 80.19 -82.72999999999999 Q89.625 -78.72999999999999 96.56 -71.79499999999999 Q103.5 -64.85499999999999 107.5 -55.41999999999999 Q111.5 -45.97999999999999 111.5 -35.22999999999999 Q111.5 -24.47999999999999 107.5 -15.10499999999999 Q103.5 -5.72999999999999 96.56 1.210000000000008 Q89.625 8.14500000000001 80.19 12.210000000000008 Q70.75 16.27000000000001 60.0 16.27000000000001 Z M60.0 5.52000000000001 Q77.125 5.52000000000001 88.94 -6.2949999999999875 Q100.75 -18.10499999999999 100.75 -35.22999999999999 Q100.75 -52.35499999999999 88.94 -64.16999999999999 Q77.125 -75.97999999999999 60.0 -75.97999999999999 Q42.875 -75.97999999999999 31.065 -64.16999999999999 Q19.25 -52.35499999999999 19.25 -35.22999999999999 Q19.25 -18.10499999999999 31.065 -6.2949999999999875 Q42.875 5.52000000000001 60.0 5.52000000000001 Z"/></g><g id="Thin-M" transform="matrix(1 0 0 1 802.565 1126)"><path d="M36.375 -11.60499999999999 H45.375 L76.25 -42.47999999999999 L67.25 -51.47999999999999 L36.375 -20.60499999999999 V-11.60499999999999 Z M79.25 -45.47999999999999  85.75 -51.97999999999999  76.75 -60.97999999999999  69.875 -54.10499999999999  79.25 -45.47999999999999 Z M60.0 13.77000000000001 Q49.875 13.77000000000001 40.940000000000005 9.89500000000001 Q32.0 6.02000000000001 25.375 -0.6049999999999898 Q18.75 -7.22999999999999 14.875 -16.169999999999987 Q11.0 -25.10499999999999 11.0 -35.22999999999999 Q11.0 -45.35499999999999 14.875 -54.35499999999999 Q18.75 -63.35499999999999 25.375 -69.97999999999999 Q32.0 -76.60499999999999 40.940000000000005 -80.41999999999999 Q49.875 -84.22999999999999 60.0 -84.22999999999999 Q70.125 -84.22999999999999 79.125 -80.41999999999999 Q88.125 -76.60499999999999 94.75 -69.97999999999999 Q101.375 -63.35499999999999 105.19 -54.41999999999999 Q109.0 -45.47999999999999 109.0 -35.22999999999999 Q109.0 -24.97999999999999 105.19 -16.10499999999999 Q101.375 -7.22999999999999 94.75 -0.6049999999999898 Q88.125 6.02000000000001 79.19 9.89500000000001 Q70.25 13.77000000000001 60.0 13.77000000000001 Z M60.0 5.52000000000001 Q77.125 5.52000000000001 88.94 -6.2949999999999875 Q100.75 -18.10499999999999 100.75 -35.22999999999999 Q100.75 -52.35499999999999 88.94 -64.16999999999999 Q77.125 -75.97999999999999 60.0 -75.97999999999999 Q42.875 -75.97999999999999 31.065 -64.16999999999999 Q19.25 -52.35499999999999 19.25 -35.22999999999999 Q19.25 -18.10499999999999 31.065 -6.2949999999999875 Q42.875 5.52000000000001 60.0 5.52000000000001 Z"/></g><g id="Ultralight-M" transform="matrix(1 0 0 1 506.415 1126)"><path d="M37.0 -12.22999999999999 H44.75 L76.25 -43.72999999999999 L68.5 -51.47999999999999 L37.0 -19.97999999999999 V-12.22999999999999 Z M79.25 -46.72999999999999  85.125 -52.60499999999999  77.375 -60.35499999999999  71.0 -53.97999999999999  79.25 -46.72999999999999 Z M60.0 12.27000000000001 Q50.125 12.27000000000001 41.5 8.52000000000001 Q32.875 4.77000000000001 26.435 -1.6049999999999898 Q20.0 -7.97999999999999 16.25 -16.669999999999987 Q12.5 -25.35499999999999 12.5 -35.22999999999999 Q12.5 -45.10499999999999 16.25 -53.79499999999999 Q20.0 -62.47999999999999 26.435 -68.91999999999999 Q32.875 -75.35499999999999 41.5 -79.04499999999999 Q50.125 -82.72999999999999 60.0 -82.72999999999999 Q69.875 -82.72999999999999 78.565 -79.04499999999999 Q87.25 -75.35499999999999 93.69 -68.91999999999999 Q100.125 -62.47999999999999 103.81500000000001 -53.79499999999999 Q107.5 -45.10499999999999 107.5 -35.22999999999999 Q107.5 -25.35499999999999 103.81500000000001 -16.72999999999999 Q100.125 -8.10499999999999 93.69 -1.6699999999999875 Q87.25 4.77000000000001 78.565 8.52000000000001 Q69.875 12.27000000000001 60.0 12.27000000000001 Z M60.0 5.52000000000001 Q77.125 5.52000000000001 88.94 -6.2949999999999875 Q100.75 -18.10499999999999 100.75 -35.22999999999999 Q100.75 -52.35499999999999 88.94 -64.16999999999999 Q77.125 -75.97999999999999 60.0 -75.97999999999999 Q42.875 -75.97999999999999 31.065 -64.16999999999999 Q19.25 -52.35499999999999 19.25 -35.22999999999999 Q19.25 -18.10499999999999 31.065 -6.2949999999999875 Q42.875 5.52000000000001 60.0 5.52000000000001 Z"/></g><g id="Bold-S" transform="matrix(1 0 0 1 2294.23 696)"><path d="M28.99575 -17.477499999999992 H38.165507999999996 L59.075585999999994 -38.38757799999999 L49.806414000000004 -47.55733599999999 L28.99575 -26.651991999999993 V-17.477499999999992 Z M61.835508 -41.147499999999994  67.360086 -46.67207799999999  58.090914000000005 -55.94125  52.272828 -50.123163999999996  61.835508 -41.147499999999994 Z M47.34 7.177171999999999 Q38.563164 7.177171999999999 30.81834 3.9249140000000153 Q23.07825 0.6679220000000043 17.260164 -5.150164000000004 Q11.442077999999999 -10.968249999999998 8.185086 -18.708339999999993 Q4.932828 -26.453163999999994 4.932828 -35.22999999999999 Q4.932828 -44.106249999999996 8.185086 -51.79899999999999 Q11.442077999999999 -59.491749999999996 17.260164 -65.30983599999999 Q23.07825 -71.127922 30.81834 -74.384914 Q38.563164 -77.63717199999999 47.34 -77.63717199999999 Q56.21625 -77.63717199999999 63.909 -74.384914 Q71.60175 -71.127922 77.41983599999999 -65.30983599999999 Q83.237922 -59.491749999999996 86.49491400000001 -51.79899999999999 Q89.74717199999999 -44.106249999999996 89.74717199999999 -35.22999999999999 Q89.74717199999999 -26.453163999999994 86.49491400000001 -18.708339999999993 Q83.237922 -10.968249999999998 77.41983599999999 -5.150164000000004 Q71.60175 0.6679220000000043 63.909 3.9249140000000153 Q56.21625 7.177171999999999 47.34 7.177171999999999 Z M47.34 -5.443671999999992 Q59.866164000000005 -5.443671999999992 68.496246 -14.073753999999994 Q77.126328 -22.70383599999999 77.126328 -35.22999999999999 Q77.126328 -47.75616399999999 68.496246 -56.386246 Q59.866164000000005 -65.01632799999999 47.34 -65.01632799999999 Q34.813836 -65.01632799999999 26.183753999999997 -56.386246 Q17.553672000000002 -47.75616399999999 17.553672000000002 -35.22999999999999 Q17.553672000000002 -22.70383599999999 26.183753999999997 -14.073753999999994 Q34.813836 -5.443671999999992 47.34 -5.443671999999992 Z"/></g><g id="Semibold-S" transform="matrix(1 0 0 1 1998.1 696)"><path d="M28.205172 -16.393413999999993 H37.971414 L59.373827999999996 -37.79582799999999 L49.508172 -47.55733599999999 L28.205172 -26.154921999999992 V-16.393413999999993 Z M62.13375 -40.555749999999996  68.150664 -46.67207799999999  58.384422 -56.43358599999999  52.074 -50.123163999999996  62.13375 -40.555749999999996 Z M47.34 6.585421999999994 Q38.761992 6.585421999999994 31.116582 3.3331640000000107 Q23.471172 0.07617199999999968 17.7525 -5.642499999999998 Q12.033828 -11.361171999999996 8.776836000000001 -19.006581999999995 Q5.524578 -26.651991999999993 5.524578 -35.22999999999999 Q5.524578 -44.00683599999999 8.776836000000001 -51.60017199999999 Q12.033828 -59.193507999999994 17.7525 -64.91691399999999 Q23.471172 -70.63558599999999 31.116582 -73.840504 Q38.761992 -77.04542199999999 47.34 -77.04542199999999 Q56.116836 -77.04542199999999 63.710172 -73.840504 Q71.303508 -70.63558599999999 77.026914 -64.91691399999999 Q82.745586 -59.193507999999994 85.950504 -51.60017199999999 Q89.15542199999999 -44.00683599999999 89.15542199999999 -35.22999999999999 Q89.15542199999999 -26.55257799999999 85.950504 -18.95450799999999 Q82.745586 -11.361171999999996 77.026914 -5.642499999999998 Q71.303508 0.07617199999999968 63.710172 3.3331640000000107 Q56.116836 6.585421999999994 47.34 6.585421999999994 Z M47.34 -4.752508000000006 Q60.064992000000004 -4.752508000000006 68.936508 -13.63349199999999 Q77.81749199999999 -22.50500799999999 77.81749199999999 -35.22999999999999 Q77.81749199999999 -47.95499199999999 68.936508 -56.82650799999999 Q60.064992000000004 -65.707492 47.34 -65.707492 Q34.615008 -65.707492 25.743492 -56.82650799999999 Q16.862508 -47.95499199999999 16.862508 -35.22999999999999 Q16.862508 -22.50500799999999 25.743492 -13.63349199999999 Q34.615008 -4.752508000000006 47.34 -4.752508000000006 Z"/></g><g id="Medium-S" transform="matrix(1 0 0 1 1701.85 696)"><path d="M27.613422 -15.602835999999996 H37.772586 L59.567922 -37.398171999999995 L49.314078 -47.55733599999999 L27.613422 -25.861413999999996 V-15.602835999999996 Z M62.332578 -40.16282799999999  68.742414 -46.572663999999996  58.58325 -56.82650799999999  51.875172 -50.22257799999999  62.332578 -40.16282799999999 Z M47.34 6.093086 Q38.856672 6.093086 31.31541 2.8881680000000074 Q23.769414 -0.316749999999999 18.098081999999998 -5.9880819999999915 Q12.42675 -11.659413999999998 9.221832 -19.205409999999993 Q6.016914 -26.746671999999997 6.016914 -35.22999999999999 Q6.016914 -43.907422 9.221832 -51.406077999999994 Q12.42675 -58.89999999999999 18.098081999999998 -64.571332 Q23.769414 -70.24266399999999 31.31541 -73.39550799999999 Q38.856672 -76.553086 47.34 -76.553086 Q56.017422 -76.553086 63.516078 -73.39550799999999 Q71.01 -70.24266399999999 76.681332 -64.571332 Q82.352664 -58.89999999999999 85.505508 -51.406077999999994 Q88.66308599999999 -43.907422 88.66308599999999 -35.22999999999999 Q88.66308599999999 -26.651991999999993 85.505508 -19.15333599999999 Q82.352664 -11.659413999999998 76.681332 -5.9880819999999915 Q71.01 -0.316749999999999 63.516078 2.8881680000000074 Q56.017422 6.093086 47.34 6.093086 Z M47.34 -4.260171999999983 Q60.259085999999996 -4.260171999999983 69.28209 -13.287909999999997 Q78.30982800000001 -22.310913999999997 78.30982800000001 -35.22999999999999 Q78.30982800000001 -48.149086 69.28209 -57.17209 Q60.259085999999996 -66.199828 47.34 -66.199828 Q34.420913999999996 -66.199828 25.39791 -57.17209 Q16.370172 -48.149086 16.370172 -35.22999999999999 Q16.370172 -22.310913999999997 25.39791 -13.287909999999997 Q34.420913999999996 -4.260171999999983 47.34 -4.260171999999983 Z"/></g><g id="Regular-S" transform="matrix(1 0 0 1 1405.73 696)"><path d="M27.121086000000002 -15.011085999999992 H37.673172 L59.76675 -37.104664 L49.214664000000006 -47.55733599999999 L27.121086000000002 -25.563171999999994 V-15.011085999999992 Z M62.526672 -39.86458599999999  69.23475 -46.572663999999996  58.682664 -57.12474999999999  51.780492 -50.22257799999999  62.526672 -39.86458599999999 Z M47.34 5.799578000000011 Q38.856672 5.799578000000011 31.41009 2.5946600000000046 Q23.963508 -0.6149919999999867 18.34425 -6.234249999999989 Q12.724992 -11.85350799999999 9.515339999999998 -19.30008999999999 Q6.310422 -26.746671999999997 6.310422 -35.22999999999999 Q6.310422 -43.808007999999994 9.515339999999998 -51.25458999999999 Q12.724992 -58.70117199999999 18.34425 -64.325164 Q23.963508 -69.94442199999999 31.41009 -73.10199999999999 Q38.856672 -76.25957799999999 47.34 -76.25957799999999 Q55.918008 -76.25957799999999 63.36459 -73.10199999999999 Q70.811172 -69.94442199999999 76.435164 -64.325164 Q82.05442199999999 -58.70117199999999 85.212 -51.25458999999999 Q88.369578 -43.808007999999994 88.369578 -35.22999999999999 Q88.369578 -26.746671999999997 85.212 -19.30008999999999 Q82.05442199999999 -11.85350799999999 76.435164 -6.234249999999989 Q70.811172 -0.6149919999999867 63.36459 2.5946600000000046 Q55.918008 5.799578000000011 47.34 5.799578000000011 Z M47.34 -3.8672499999999985 Q60.457914 -3.8672499999999985 69.580332 -12.989667999999995 Q78.70275 -22.11208599999999 78.70275 -35.22999999999999 Q78.70275 -48.347913999999996 69.580332 -57.470332 Q60.457914 -66.59275 47.34 -66.59275 Q34.222086 -66.59275 25.099667999999998 -57.470332 Q15.97725 -48.347913999999996 15.97725 -35.22999999999999 Q15.97725 -22.11208599999999 25.099667999999998 -12.989667999999995 Q34.222086 -3.8672499999999985 47.34 -3.8672499999999985 Z"/></g><g id="Light-S" transform="matrix(1 0 0 1 1109.75 696)"><path d="M27.911664 -15.801664000000002 H36.787914 L59.76675 -38.780499999999996 L50.8905 -47.55733599999999 L27.911664 -24.677913999999994 V-15.801664000000002 Z M62.526672 -41.54042199999999  68.444172 -47.457921999999996  59.567922 -56.334171999999995  53.356914 -50.123163999999996  62.526672 -41.54042199999999 Z M47.34 3.8255000000000052 Q39.349008 3.8255000000000052 32.200668 0.7673360000000002 Q25.052328 -2.2908280000000047 19.726578 -7.61657799999999 Q14.400827999999999 -12.94232799999999 11.342664 -20.043327999999995 Q8.2845 -27.144327999999994 8.2845 -35.22999999999999 Q8.2845 -43.41508599999999 11.342664 -50.516085999999994 Q14.400827999999999 -57.61708599999999 19.726578 -62.94283599999999 Q25.052328 -68.268586 32.200668 -71.27941 Q39.349008 -74.2855 47.34 -74.2855 Q55.525085999999995 -74.2855 62.626085999999994 -71.27941 Q69.727086 -68.268586 75.052836 -62.94283599999999 Q80.378586 -57.61708599999999 83.38941 -50.516085999999994 Q86.3955 -43.41508599999999 86.3955 -35.22999999999999 Q86.3955 -27.144327999999994 83.38941 -20.043327999999995 Q80.378586 -12.94232799999999 75.052836 -7.61657799999999 Q69.727086 -2.2908280000000047 62.626085999999994 0.7673360000000002 Q55.525085999999995 3.8255000000000052 47.34 3.8255000000000052 Z M47.34 -3.8672499999999985 Q60.457914 -3.8672499999999985 69.580332 -12.989667999999995 Q78.70275 -22.11208599999999 78.70275 -35.22999999999999 Q78.70275 -48.347913999999996 69.580332 -57.470332 Q60.457914 -66.59275 47.34 -66.59275 Q34.222086 -66.59275 25.099667999999998 -57.470332 Q15.97725 -48.347913999999996 15.97725 -35.22999999999999 Q15.97725 -22.11208599999999 25.099667999999998 -12.989667999999995 Q34.222086 -3.8672499999999985 47.34 -3.8672499999999985 Z"/></g><g id="Thin-S" transform="matrix(1 0 0 1 814.015 696)"><path d="M28.697508000000003 -16.587507999999985 H35.897922 L59.667336 -40.356922 L52.466922000000004 -47.457921999999996 L28.697508000000003 -23.787921999999995 V-16.587507999999985 Z M62.431992 -43.12157799999999  67.658328 -48.347913999999996  60.457914 -55.54832799999999  54.933336 -50.02374999999999  62.431992 -43.12157799999999 Z M47.34 1.8514219999999995 Q39.746664 1.8514219999999995 32.991246000000004 -1.0552539999999908 Q26.235827999999998 -3.9666639999999944 21.156246000000003 -9.046245999999996 Q16.076664 -14.125827999999998 13.165254000000001 -20.88124599999999 Q10.258578 -27.636663999999996 10.258578 -35.22999999999999 Q10.258578 -42.92274999999999 13.165254000000001 -49.67816799999999 Q16.076664 -56.43358599999999 21.156246000000003 -61.51316799999999 Q26.235827999999998 -66.59275 32.991246000000004 -69.452086 Q39.746664 -72.311422 47.34 -72.311422 Q55.03275 -72.311422 61.788168 -69.452086 Q68.54358599999999 -66.59275 73.62316799999999 -61.51316799999999 Q78.70275 -56.43358599999999 81.562086 -49.725508 Q84.42142199999999 -43.022164 84.42142199999999 -35.22999999999999 Q84.42142199999999 -27.537249999999993 81.562086 -20.829171999999993 Q78.70275 -14.125827999999998 73.62316799999999 -9.046245999999996 Q68.54358599999999 -3.9666639999999944 61.835508 -1.0552539999999908 Q55.132164 1.8514219999999995 47.34 1.8514219999999995 Z M47.34 -3.8672499999999985 Q60.457914 -3.8672499999999985 69.580332 -12.989667999999995 Q78.70275 -22.11208599999999 78.70275 -35.22999999999999 Q78.70275 -48.347913999999996 69.580332 -57.470332 Q60.457914 -66.59275 47.34 -66.59275 Q34.222086 -66.59275 25.099667999999998 -57.470332 Q15.97725 -48.347913999999996 15.97725 -35.22999999999999 Q15.97725 -22.11208599999999 25.099667999999998 -12.989667999999995 Q34.222086 -3.8672499999999985 47.34 -3.8672499999999985 Z"/></g><g id="Ultralight-S" transform="matrix(1 0 0 1 517.792 696)"><path d="M29.194578 -17.084577999999993 H35.405586 L59.667336 -41.34632799999999 L53.456328 -47.457921999999996 L29.194578 -23.295585999999993 V-17.084577999999993 Z M62.431992 -44.106249999999996  67.165992 -48.84024999999999  60.95025 -55.05599199999999  55.823328 -49.924336  62.431992 -44.106249999999996 Z M47.34 0.6679220000000043 Q39.945492 0.6679220000000043 33.431508 -2.1393400000000042 Q26.926992 -4.9513359999999835 21.994163999999998 -9.832089999999994 Q17.061336 -14.717577999999989 14.249339999999998 -21.27416799999999 Q11.442077999999999 -27.835491999999995 11.442077999999999 -35.22999999999999 Q11.442077999999999 -42.723921999999995 14.249339999999998 -49.233171999999996 Q17.061336 -55.74242199999999 21.994163999999998 -60.67524999999999 Q26.926992 -65.60807799999999 33.431508 -68.368 Q39.945492 -71.127922 47.34 -71.127922 Q54.833922 -71.127922 61.343172 -68.368 Q67.852422 -65.60807799999999 72.78525 -60.67524999999999 Q77.718078 -55.74242199999999 80.478 -49.233171999999996 Q83.237922 -42.723921999999995 83.237922 -35.22999999999999 Q83.237922 -27.835491999999995 80.478 -21.321507999999987 Q77.718078 -14.816991999999999 72.78525 -9.884163999999998 Q67.852422 -4.9513359999999835 61.343172 -2.1393400000000042 Q54.833922 0.6679220000000043 47.34 0.6679220000000043 Z M47.34 -3.8672499999999985 Q60.457914 -3.8672499999999985 69.580332 -12.989667999999995 Q78.70275 -22.11208599999999 78.70275 -35.22999999999999 Q78.70275 -48.347913999999996 69.580332 -57.470332 Q60.457914 -66.59275 47.34 -66.59275 Q34.222086 -66.59275 25.099667999999998 -57.470332 Q15.97725 -48.347913999999996 15.97725 -35.22999999999999 Q15.97725 -22.11208599999999 25.099667999999998 -12.989667999999995 Q34.222086 -3.8672499999999985 47.34 -3.8672499999999985 Z"/></g></g></svg>