<svg xmlns="http://www.w3.org/2000/svg" version="1.1" width="3300" height="2000"><g id="Notes"><style>
    text {
      font-family: monospace;
      text-anchor: middle;
    }
    text.emphasis {
      font-weight:bold;
    }
    text.lanchor {
      text-anchor: start;
    }
  </style><rect height="2200" id="artboard" fill="white" width="3300" x="0" y="0"/><line id="" style="fill:none;stroke:black;stroke-width:0.5;" x1="263" x2="3036" y1="292" y2="292"/><text class="lanchor emphasis" transform="matrix(1 0 0 1 263 322)">Weight/Scale Variations</text><text transform="matrix(1 0 0 1 559.711 322)">Ultralight</text><text transform="matrix(1 0 0 1 856.422 322)">Thin</text><text transform="matrix(1 0 0 1 1153.13 322)">Light</text><text transform="matrix(1 0 0 1 1449.84 322)">Regular</text><text transform="matrix(1 0 0 1 1746.56 322)">Medium</text><text transform="matrix(1 0 0 1 2043.27 322)">Semibold</text><text transform="matrix(1 0 0 1 2339.98 322)">Bold</text><text transform="matrix(1 0 0 1 2636.69 322)">Heavy</text><text transform="matrix(1 0 0 1 2933.4 322)">Black</text><text id="template-version" style="text-anchor: end;" transform="matrix(1 0 0 1 3036 1933)">Template v.1.0</text><text class="lanchor" transform="matrix(1 0 0 1 263 726)">Small</text><text class="lanchor" transform="matrix(1 0 0 1 263 1156)">Medium</text><text class="lanchor" transform="matrix(1 0 0 1 263 1586)">Large</text></g><g id="Guides"><g id="H-reference" style="fill:#27AAE1;stroke:none;" transform="matrix(1 0 0 1 339 696)"><path d="M 54.9316 0 L 57.666 0 L 30.5664 -70.459 L 28.0762 -70.459 L 0.976562 0 L 3.66211 0 L 12.9395 -24.4629 L 45.7031 -24.4629 Z M 29.1992 -67.0898 L 29.4434 -67.0898 L 44.8242 -26.709 L 13.8184 -26.709 Z"/></g><line id="Baseline-S" style="fill:none;stroke:#27AAE1;opacity:1;stroke-width:0.577;" x1="263" x2="3036" y1="696" y2="696"/><line id="Capline-S" style="fill:none;stroke:#27AAE1;opacity:1;stroke-width:0.577;" x1="263" x2="3036" y1="625.541" y2="625.541"/><g id="H-reference" style="fill:#27AAE1;stroke:none;" transform="matrix(1 0 0 1 339 1126)"><path d="M 54.9316 0 L 57.666 0 L 30.5664 -70.459 L 28.0762 -70.459 L 0.976562 0 L 3.66211 0 L 12.9395 -24.4629 L 45.7031 -24.4629 Z M 29.1992 -67.0898 L 29.4434 -67.0898 L 44.8242 -26.709 L 13.8184 -26.709 Z"/></g><line id="Baseline-M" style="fill:none;stroke:#27AAE1;opacity:1;stroke-width:0.577;" x1="263" x2="3036" y1="1126" y2="1126"/><line id="Capline-M" style="fill:none;stroke:#27AAE1;opacity:1;stroke-width:0.577;" x1="263" x2="3036" y1="1055.54" y2="1055.54"/><g id="H-reference" style="fill:#27AAE1;stroke:none;" transform="matrix(1 0 0 1 339 1556)"><path d="M 54.9316 0 L 57.666 0 L 30.5664 -70.459 L 28.0762 -70.459 L 0.976562 0 L 3.66211 0 L 12.9395 -24.4629 L 45.7031 -24.4629 Z M 29.1992 -67.0898 L 29.4434 -67.0898 L 44.8242 -26.709 L 13.8184 -26.709 Z"/></g><line id="Baseline-L" style="fill:none;stroke:#27AAE1;opacity:1;stroke-width:0.577;" x1="263" x2="3036" y1="1556" y2="1556"/><line id="Capline-L" style="fill:none;stroke:#27AAE1;opacity:1;stroke-width:0.577;" x1="263" x2="3036" y1="1485.54" y2="1485.54"/><rect height="119.336" id="left-margin" style="fill:darkred;stroke:none;opacity:0.4;" width="12.4512" x="1394.06" y="1030.79"/><rect height="119.336" id="right-margin" style="fill:darkgreen;stroke:none;opacity:0.4;" width="12.4512" x="1502.5112" y="1030.79"/><rect x="1406.5112" y="1045" width="96" height="96" fill="none" stroke="blue" stroke-dasharray="5"/><rect x="1394.06" y="1030.79" width="120.9024" height="119.336" fill="none" stroke="blue"/></g><g id="Symbols"><g id="Bold-L" transform="matrix(1 0 0 1 2266 1556)"><path d="M95.46000000000001 -37.97125 H109.16625 V-56.515 H95.46000000000001 V-37.97125 Z M22.73625 20.401250000000005  19.188750000000002 6.372500000000002 H32.25 V-14.428749999999994 Q29.508750000000003 -13.299999999999997 26.92875 -12.332499999999982 Q24.34875 -11.364999999999995 21.93 -10.397499999999994 L19.188750000000002 -24.10374999999999 Q22.41375 -25.232499999999987 25.63875 -26.441874999999982 Q28.86375 -27.65124999999999 32.25 -29.424999999999997 V-56.515 H22.575 V-70.54374999999999 H32.25 V-91.0225 H46.27875 V-70.54374999999999 H57.566250000000004 V-56.515 H46.27875 V-37.00375 Q48.6975 -38.455 50.955000000000005 -40.067499999999995 Q53.2125 -41.67999999999999 55.308749999999996 -43.131249999999994 V-27.16749999999999 Q53.2125 -25.554999999999993 50.955000000000005 -24.10374999999999 Q48.6975 -22.652500000000003 46.27875 -21.201249999999987 V20.401250000000005 H22.73625 Z M69.17625 20.401250000000005  61.43625 8.952500000000015 Q68.69250000000001 3.470000000000013 74.09437500000001 -5.559999999999988 Q79.49625 -14.590000000000003 80.78625000000001 -23.942499999999995 H69.9825 V-37.97125 H81.43125 V-56.515 H73.2075 V-70.54374999999999 H132.225 V-56.515 H123.19500000000001 V-37.97125 H135.45000000000002 V-23.942499999999995 H123.19500000000001 V20.401250000000005 H109.16625 V-23.942499999999995 H95.1375 Q93.68625 -11.364999999999995 86.43 0.9706250000000125 Q79.17375 13.306250000000006 69.17625 20.401250000000005 Z M117.39 -67.64125  105.135 -72.96249999999999 Q107.715 -77.31625 110.859375 -82.71812499999999 Q114.00375000000001 -88.12 116.42250000000001 -92.9575 L129.48375 -88.4425 Q126.90375 -83.60499999999999 123.5175 -77.96124999999999 Q120.13125000000001 -72.3175 117.39 -67.64125 Z M86.43 -69.89874999999999 Q83.36625000000001 -74.09125 79.73812500000001 -79.25125 Q76.11000000000001 -84.41125 72.72375000000001 -88.28125 L85.30125 -94.40875 Q88.52625 -90.3775 92.07375 -85.459375 Q95.62125 -80.54124999999999 98.3625 -76.34875 L86.43 -69.89874999999999 Z"/></g><g id="Semibold-L" transform="matrix(1 0 0 1 1970.27 1556)"><path d="M93.2025 -36.84249999999999 H108.03750000000001 V-56.998749999999994 H93.2025 V-36.84249999999999 Z M25.31625 18.627500000000026  22.2525 6.533750000000012 H34.99125 V-17.169999999999987 Q32.25 -15.879999999999995 29.669999999999998 -14.912499999999994 Q27.090000000000003 -13.944999999999993 24.509999999999998 -12.977499999999992 L22.2525 -24.748749999999987 Q25.31625 -25.716250000000002 28.541249999999998 -27.006249999999994 Q31.76625 -28.29625 34.99125 -29.908749999999998 V-56.998749999999994 H25.31625 V-69.25375 H34.99125 V-89.24875 H47.24625 V-69.25375 H58.53375 V-56.998749999999994 H47.24625 V-36.51999999999998 Q49.665 -37.97125 51.92250000000001 -39.583749999999995 Q54.18000000000001 -41.19624999999999 56.27625 -42.647499999999994 V-28.941249999999997 Q54.18000000000001 -27.32875 51.92250000000001 -25.877499999999998 Q49.665 -24.426249999999982 47.24625 -22.974999999999994 V18.627500000000026 H25.31625 Z M68.20875 18.627500000000026  61.43625 8.791250000000005 Q68.85375 3.147500000000008 74.175 -5.963124999999977 Q79.49625 -15.07374999999999 80.625 -24.58749999999999 H69.015 V-36.84249999999999 H81.10875 V-56.998749999999994 H72.24 V-69.25375 H129.48375 V-56.998749999999994 H120.13125000000001 V-36.84249999999999 H132.70875 V-24.58749999999999 H120.13125000000001 V18.627500000000026 H108.03750000000001 V-24.58749999999999 H93.04125 Q91.59 -12.493749999999991 84.736875 -0.4000000000000057 Q77.88374999999999 11.693749999999994 68.20875 18.627500000000026 Z M115.13250000000001 -67.1575  104.65125000000002 -71.6725 Q107.07000000000001 -75.70375 109.97250000000001 -80.70249999999999 Q112.875 -85.70124999999999 115.13250000000001 -90.05499999999999 L126.25874999999999 -86.185 Q124.00125000000001 -81.83125 120.856875 -76.59062499999999 Q117.7125 -71.35 115.13250000000001 -67.1575 Z M84.81750000000001 -68.93124999999999 Q82.2375 -72.80125 78.85125 -77.47749999999999 Q75.465 -82.15375 72.40125 -85.70124999999999 L83.205 -91.0225 Q86.1075 -87.31375 89.3325 -82.79875 Q92.5575 -78.28375 95.1375 -74.41375 L84.81750000000001 -68.93124999999999 Z"/></g><g id="Medium-L" transform="matrix(1 0 0 1 1674.31 1556)"><path d="M91.59 -35.874999999999986 H107.07000000000001 V-57.48249999999999 H91.59 V-35.874999999999986 Z M27.25125 17.337500000000006  24.509999999999998 6.695000000000007 H37.0875 V-19.26625 Q34.346250000000005 -17.976249999999993 31.685624999999998 -16.928124999999994 Q29.025000000000002 -15.879999999999995 26.444999999999997 -14.912499999999994 L24.509999999999998 -25.232499999999987 Q27.573750000000004 -26.19999999999999 30.718125 -27.489999999999995 Q33.862500000000004 -28.779999999999987 37.0875 -30.3925 V-57.48249999999999 H27.4125 V-68.28625 H37.0875 V-87.7975 H47.89125 V-68.28625 H59.17875000000001 V-57.48249999999999 H47.89125 V-36.19749999999999 Q50.31 -37.64874999999999 52.5675 -39.26124999999999 Q54.825 -40.87374999999999 56.92124999999999 -42.16374999999999 V-30.23124999999999 Q54.986250000000005 -28.61874999999999 52.728750000000005 -27.16749999999999 Q50.471250000000005 -25.716250000000002 47.89125 -24.426249999999982 V17.337500000000006 H27.25125 Z M67.4025 17.337500000000006  61.597500000000004 8.63000000000001 Q69.015 2.9862500000000125 74.255625 -6.285624999999982 Q79.49625 -15.55749999999999 80.46375 -25.232499999999987 H68.20875 V-35.874999999999986 H80.78625000000001 V-57.48249999999999 H71.43375 V-68.28625 H127.3875 V-57.48249999999999 H117.87375 V-35.874999999999986 H130.6125 V-25.232499999999987 H117.87375 V17.337500000000006 H107.07000000000001 V-25.232499999999987 H91.2675 Q90.13875 -13.138749999999987 83.5275 -1.2868749999999949 Q76.91625 10.565000000000012 67.4025 17.337500000000006 Z M113.52000000000001 -66.67374999999998  104.32875000000001 -70.70499999999998 Q106.58624999999999 -74.41375 109.3275 -79.09 Q112.06875000000001 -83.76625 114.16499999999999 -87.95875 L124.00125000000001 -84.57249999999999 Q121.74375 -80.38 118.76062500000002 -75.46187499999999 Q115.7775 -70.54374999999999 113.52000000000001 -66.67374999999998 Z M83.68875 -68.125 Q81.27 -71.83375 78.12562500000001 -76.106875 Q74.98125 -80.38 72.07875000000001 -83.76625 L81.5925 -88.4425 Q84.33375 -85.05624999999999 87.316875 -80.86375 Q90.3 -76.67124999999999 92.71875 -72.96249999999999 L83.68875 -68.125 Z"/></g><g id="Regular-L" transform="matrix(1 0 0 1 1378.56 1556)"><path d="M90.3 -35.22999999999999 H106.425 V-57.80499999999999 H90.3 V-35.22999999999999 Z M28.7025 16.370000000000005  26.28375 6.695000000000007 H38.7 V-20.717499999999987 Q35.95875 -19.427499999999995 33.2175 -18.379374999999982 Q30.47625 -17.331249999999997 27.896250000000002 -16.363749999999982 L26.1225 -25.554999999999993 Q29.186250000000005 -26.522499999999994 32.330625000000005 -27.812499999999986 Q35.475 -29.102499999999992 38.7 -30.715000000000003 V-57.80499999999999 H29.025000000000002 V-67.47999999999999 H38.7 V-86.83 H48.375 V-67.47999999999999 H59.6625 V-57.80499999999999 H48.375 V-36.036249999999995 Q50.79375 -37.4875 53.051249999999996 -39.019375 Q55.308749999999996 -40.55124999999998 57.405 -41.84125 V-31.19874999999999 Q55.47 -29.586249999999993 53.2125 -28.13499999999999 Q50.955000000000005 -26.683750000000003 48.375 -25.393749999999997 V16.370000000000005 H28.7025 Z M66.91875 16.370000000000005  61.597500000000004 8.46875 Q69.015 2.825000000000003 74.255625 -6.527500000000003 Q79.49625 -15.879999999999995 80.46375 -25.554999999999993 H67.72500000000001 V-35.22999999999999 H80.625 V-57.80499999999999 H70.95 V-67.47999999999999 H125.775 V-57.80499999999999 H116.10000000000001 V-35.22999999999999 H129.0 V-25.554999999999993 H116.10000000000001 V16.370000000000005 H106.425 V-25.554999999999993 H90.13875 Q89.01 -13.783749999999998 82.640625 -2.0931250000000006 Q76.27125 9.597499999999997 66.91875 16.370000000000005 Z M112.22999999999999 -66.35125  104.00625000000001 -69.89874999999999 Q106.26375000000002 -73.60749999999999 108.84375 -78.041875 Q111.42375 -82.47625 113.35875 -86.34625 L122.22749999999999 -83.2825 Q120.13125000000001 -79.4125 117.309375 -74.73624999999998 Q114.4875 -70.06 112.22999999999999 -66.35125 Z M82.8825 -67.64125 Q80.625 -71.0275 77.641875 -75.05875 Q74.65875 -79.09 71.9175 -82.315 L80.46375 -86.5075 Q83.04375 -83.2825 85.86562500000001 -79.331875 Q88.6875 -75.38125 90.945 -71.995 L82.8825 -67.64125 Z"/></g><g id="Light-L" transform="matrix(1 0 0 1 1082.77 1556)"><path d="M88.0425 -34.10124999999999 H105.61875 V-56.998749999999994 H88.0425 V-34.10124999999999 Z M31.2825 13.14500000000001  29.508750000000003 5.888750000000002 H41.6025 V-24.426249999999982 Q38.7 -23.13624999999999 35.95875 -22.08812499999999 Q33.2175 -21.039999999999992 30.47625 -20.07249999999999 L29.186250000000005 -26.844999999999985 Q32.25 -27.812499999999986 35.31375 -29.102499999999992 Q38.377500000000005 -30.3925 41.6025 -31.843749999999986 V-56.998749999999994 H31.927500000000002 V-64.255 H41.6025 V-83.60499999999999 H48.85875 V-64.255 H58.53375 V-56.998749999999994 H48.85875 V-35.71374999999999 Q51.2775 -37.16499999999999 53.535000000000004 -38.616249999999994 Q55.792500000000004 -40.067499999999995 57.88875 -41.35749999999999 V-33.29499999999999 Q55.792500000000004 -31.68249999999999 53.535000000000004 -30.3925 Q51.2775 -29.102499999999992 48.85875 -27.812499999999986 V13.14500000000001 H31.2825 Z M66.1125 13.14500000000001  62.081250000000004 7.178750000000008 Q69.82124999999999 1.5349999999999966 74.98125 -7.736874999999998 Q80.14125000000001 -17.008749999999992 80.78625000000001 -26.844999999999985 H67.88625 V-34.10124999999999 H80.78625000000001 V-56.998749999999994 H71.11125 V-64.255 H122.55 V-56.998749999999994 H112.875 V-34.10124999999999 H125.775 V-26.844999999999985 H112.875 V13.14500000000001 H105.61875 V-26.844999999999985 H88.0425 Q87.39750000000001 -15.396249999999995 81.43125 -4.431250000000006 Q75.465 6.533750000000012 66.1125 13.14500000000001 Z M109.48875000000001 -63.771249999999995  103.36125 -66.35125 Q105.61875 -69.89874999999999 107.87625000000001 -73.76874999999998 Q110.13374999999999 -77.63874999999999 112.06875000000001 -81.18625 L118.51875 -78.92875 Q116.74500000000002 -75.22 114.24562499999999 -71.18875 Q111.74625 -67.1575 109.48875000000001 -63.771249999999995 Z M82.56 -65.38374999999999 Q80.46375 -68.60874999999999 77.80312500000001 -72.15625 Q75.1425 -75.70375 72.72375000000001 -78.76749999999998 L79.0125 -81.83125 Q81.43125 -78.76749999999998 83.93062499999999 -75.300625 Q86.43 -71.83375 88.52625 -68.60874999999999 L82.56 -65.38374999999999 Z"/></g><g id="Thin-L" transform="matrix(1 0 0 1 787.282 1556)"><path d="M85.78500000000001 -33.13374999999999 H104.8125 V-56.03124999999999 H85.78500000000001 V-33.13374999999999 Z M33.862500000000004 9.920000000000002  32.5725 4.921250000000015 H44.34375 V-27.973749999999995 Q41.6025 -26.683750000000003 38.7 -25.63562499999999 Q35.7975 -24.58749999999999 33.05625 -23.61999999999999 L32.25 -28.13499999999999 Q35.31375 -29.102499999999992 38.377500000000005 -30.311875 Q41.44125 -31.521249999999995 44.34375 -32.9725 V-56.03124999999999 H34.66875 V-61.029999999999994 H44.34375 V-80.38 H49.3425 V-61.029999999999994 H57.24375 V-56.03124999999999 H49.3425 V-35.552499999999995 Q51.6 -36.68124999999999 53.8575 -38.051874999999995 Q56.114999999999995 -39.4225 58.37250000000001 -40.71249999999999 V-35.22999999999999 Q56.27625 -33.77875 54.018750000000004 -32.569374999999994 Q51.761250000000004 -31.36 49.3425 -30.23124999999999 V9.920000000000002 H33.862500000000004 Z M65.4675 9.920000000000002  62.565 5.888750000000002 Q70.78875 0.0837500000000233 75.78750000000001 -9.02687499999999 Q80.78625000000001 -18.13749999999999 81.10875 -28.13499999999999 H68.0475 V-33.13374999999999 H80.9475 V-56.03124999999999 H71.27250000000001 V-61.029999999999994 H119.48625 V-56.03124999999999 H109.81124999999999 V-33.13374999999999 H122.71124999999999 V-28.13499999999999 H109.81124999999999 V9.920000000000002 H104.8125 V-28.13499999999999 H86.1075 Q85.62375 -16.847499999999997 80.14125000000001 -6.688749999999985 Q74.65875 3.470000000000013 65.4675 9.920000000000002 Z M106.7475 -61.19125  102.71625 -62.964999999999996 Q104.97375 -66.02875 106.989375 -69.334375 Q109.005 -72.63999999999999 110.77875 -76.02625 L114.97125 -74.73624999999998 Q113.35875 -71.0275 111.10125000000001 -67.72187499999998 Q108.84375 -64.41624999999999 106.7475 -61.19125 Z M82.2375 -63.12624999999999 Q80.3025 -66.19 78.045 -69.25375 Q75.78750000000001 -72.3175 73.53 -75.05875 L77.56125 -77.155 Q79.81875000000001 -74.2525 81.995625 -71.269375 Q84.17250000000001 -68.28625 86.26875 -65.2225 L82.2375 -63.12624999999999 Z"/></g><g id="Ultralight-L" transform="matrix(1 0 0 1 491.205 1556)"><path d="M84.495 -32.48874999999998 H104.32875000000001 V-55.5475 H84.495 V-32.48874999999998 Z M35.31375 7.984999999999999  34.5075 4.4375 H46.11750000000001 V-30.23124999999999 Q43.215 -28.941249999999997 40.3125 -27.893124999999998 Q37.41 -26.844999999999985 34.5075 -25.877499999999998 L34.185 -28.941249999999997 Q37.24875 -29.908749999999998 40.231875 -31.118124999999992 Q43.215 -32.3275 46.11750000000001 -33.61749999999999 V-55.5475 H36.4425 V-59.09499999999999 H46.11750000000001 V-78.445 H49.665 V-59.09499999999999 H56.59875 V-55.5475 H49.665 V-35.39125 Q51.92250000000001 -36.51999999999998 54.18000000000001 -37.81 Q56.4375 -39.099999999999994 58.695 -40.39 V-36.51999999999998 Q56.4375 -35.068749999999994 54.18000000000001 -33.94 Q51.92250000000001 -32.81124999999999 49.665 -31.68249999999999 V7.984999999999999 H35.31375 Z M64.98375 7.984999999999999  62.8875 5.08250000000001 Q71.27250000000001 -0.7224999999999824 76.190625 -9.752499999999998 Q81.10875 -18.782499999999985 81.27 -28.941249999999997 H68.0475 V-32.48874999999998 H80.9475 V-55.5475 H71.27250000000001 V-59.09499999999999 H117.55125000000001 V-55.5475 H107.87625000000001 V-32.48874999999998 H120.77625000000002 V-28.941249999999997 H107.87625000000001 V7.984999999999999 H104.32875000000001 V-28.941249999999997 H84.81750000000001 Q84.65625 -17.814999999999998 79.415625 -8.059375000000003 Q74.175 1.6962500000000205 64.98375 7.984999999999999 Z M105.135 -59.74  102.39375 -60.86874999999999 Q104.49 -63.771249999999995 106.34437500000001 -66.754375 Q108.19874999999999 -69.73749999999998 109.97250000000001 -72.96249999999999 L112.71375000000002 -72.15625 Q111.2625 -68.60874999999999 109.246875 -65.625625 Q107.23125 -62.64249999999999 105.135 -59.74 Z M82.07625 -61.83624999999999 Q80.14125000000001 -64.73875 78.12562500000001 -67.47999999999999 Q76.11000000000001 -70.22125 74.01375 -72.96249999999999 L76.75500000000001 -74.2525 Q78.85125 -71.51124999999999 80.866875 -68.850625 Q82.8825 -66.19 84.81750000000001 -63.287499999999994 L82.07625 -61.83624999999999 Z"/></g><g id="Bold-M" transform="matrix(1 0 0 1 2281.8 1126)"><path d="M75.25 -37.97999999999999 H82.75 V-48.85499999999999 H75.25 V-37.97999999999999 Z M16.25 9.02000000000001  12.625 -5.47999999999999 H23.25 V-16.85499999999999 Q21.25 -16.10499999999999 19.375 -15.35499999999999 Q17.5 -14.60499999999999 15.75 -13.97999999999999 L12.875 -28.47999999999999 Q15.375 -29.10499999999999 18.0 -29.919999999999987 Q20.625 -30.72999999999999 23.25 -31.85499999999999 V-48.85499999999999 H15.75 V-63.35499999999999 H23.25 V-79.47999999999999 H37.75 V-63.35499999999999 H45.25 V-48.85499999999999 H37.75 V-39.22999999999999 Q39.625 -40.35499999999999 41.375 -41.53999999999999 Q43.125 -42.72999999999999 44.75 -43.97999999999999 V-28.47999999999999 Q43.125 -27.22999999999999 41.375 -26.044999999999987 Q39.625 -24.85499999999999 37.75 -23.72999999999999 V9.02000000000001 H16.25 Z M52.625 9.02000000000001  44.625 -2.9799999999999898 Q49.625 -6.22999999999999 53.625 -11.789999999999992 Q57.625 -17.35499999999999 59.5 -23.47999999999999 H52.25 V-37.97999999999999 H60.75 V-48.85499999999999 H54.75 V-63.35499999999999 H104.125 V-48.85499999999999 H97.25 V-37.97999999999999 H106.625 V-23.47999999999999 H97.25 V9.02000000000001 H82.75 V-23.47999999999999 H74.375 Q72.25 -13.85499999999999 66.315 -5.039999999999992 Q60.375 3.7700000000000102 52.625 9.02000000000001 Z M91.5 -57.85499999999999  78.75 -63.35499999999999 Q81.25 -67.60499999999999 84.25 -72.60499999999999 Q87.25 -77.60499999999999 89.125 -82.10499999999999 L102.75 -77.22999999999999 Q100.375 -72.72999999999999 97.25 -67.47999999999999 Q94.125 -62.22999999999999 91.5 -57.85499999999999 Z M66.25 -59.85499999999999 Q63.375 -63.85499999999999 59.94 -68.66999999999999 Q56.5 -73.47999999999999 53.25 -77.10499999999999 L66.5 -83.35499999999999 Q69.375 -79.72999999999999 72.69 -75.10499999999999 Q76.0 -70.47999999999999 78.625 -66.60499999999999 L66.25 -59.85499999999999 Z"/></g><g id="Semibold-M" transform="matrix(1 0 0 1 1985.97 1126)"><path d="M73.0 -36.72999999999999 H81.5 V-49.47999999999999 H73.0 V-36.72999999999999 Z M19.0 7.14500000000001  15.875 -5.35499999999999 H26.125 V-19.72999999999999 Q24.125 -18.85499999999999 22.189999999999998 -18.10499999999999 Q20.25 -17.35499999999999 18.5 -16.72999999999999 L16.0 -29.10499999999999 Q18.375 -29.72999999999999 21.0 -30.539999999999992 Q23.625 -31.35499999999999 26.125 -32.47999999999999 V-49.47999999999999 H18.625 V-61.97999999999999 H26.125 V-77.60499999999999 H38.75 V-61.97999999999999 H46.25 V-49.47999999999999 H38.75 V-38.85499999999999 Q40.625 -39.97999999999999 42.375 -41.10499999999999 Q44.125 -42.22999999999999 45.75 -43.47999999999999 V-30.35499999999999 Q44.125 -29.10499999999999 42.375 -27.919999999999987 Q40.625 -26.72999999999999 38.75 -25.60499999999999 V7.14500000000001 H19.0 Z M51.625 7.14500000000001  44.625 -3.2299999999999898 Q49.75 -6.60499999999999 53.69 -12.294999999999987 Q57.625 -17.97999999999999 59.375 -24.22999999999999 H51.25 V-36.72999999999999 H60.375 V-49.47999999999999 H53.75 V-61.97999999999999 H101.25 V-49.47999999999999 H94.125 V-36.72999999999999 H103.75 V-24.22999999999999 H94.125 V7.14500000000001 H81.5 V-24.22999999999999 H72.125 Q70.125 -14.97999999999999 64.625 -6.414999999999978 Q59.125 2.1450000000000102 51.625 7.14500000000001 Z M89.25 -57.22999999999999  78.25 -61.97999999999999 Q80.5 -65.85499999999999 83.315 -70.41999999999999 Q86.125 -74.97999999999999 87.75 -79.10499999999999 L99.5 -74.85499999999999 Q97.375 -70.72999999999999 94.5 -65.97999999999999 Q91.625 -61.22999999999999 89.25 -57.22999999999999 Z M64.625 -58.85499999999999 Q62.125 -62.47999999999999 59.0 -66.78999999999999 Q55.875 -71.10499999999999 52.875 -74.47999999999999 L64.375 -79.85499999999999 Q67.0 -76.47999999999999 69.94 -72.28999999999999 Q72.875 -68.10499999999999 75.25 -64.60499999999999 L64.625 -58.85499999999999 Z"/></g><g id="Medium-M" transform="matrix(1 0 0 1 1689.91 1126)"><path d="M71.25 -35.85499999999999 H80.625 V-49.85499999999999 H71.25 V-35.85499999999999 Z M21.0 5.77000000000001  18.25 -5.22999999999999 H28.375 V-21.85499999999999 Q26.25 -20.97999999999999 24.315 -20.169999999999987 Q22.375 -19.35499999999999 20.5 -18.72999999999999 L18.25 -29.60499999999999 Q20.75 -30.10499999999999 23.315 -30.97999999999999 Q25.875 -31.85499999999999 28.375 -32.85499999999999 V-49.85499999999999 H20.875 V-60.97999999999999 H28.375 V-76.22999999999999 H39.5 V-60.97999999999999 H47.0 V-49.85499999999999 H39.5 V-38.47999999999999 Q41.375 -39.60499999999999 43.125 -40.72999999999999 Q44.875 -41.85499999999999 46.5 -42.97999999999999 V-31.72999999999999 Q44.875 -30.47999999999999 43.125 -29.289999999999992 Q41.375 -28.10499999999999 39.5 -27.10499999999999 V5.77000000000001 H21.0 Z M50.875 5.77000000000001  44.75 -3.3549999999999898 Q49.875 -6.85499999999999 53.75 -12.60499999999999 Q57.625 -18.35499999999999 59.25 -24.85499999999999 H50.5 V-35.85499999999999 H60.125 V-49.85499999999999 H53.0 V-60.97999999999999 H99.125 V-49.85499999999999 H91.75 V-35.85499999999999 H101.625 V-24.85499999999999 H91.75 V5.77000000000001 H80.625 V-24.85499999999999 H70.5 Q68.625 -15.72999999999999 63.375 -7.4199999999999875 Q58.125 0.8950000000000102 50.875 5.77000000000001 Z M87.5 -56.85499999999999  77.875 -60.97999999999999 Q80.0 -64.60499999999999 82.56500000000001 -68.79499999999999 Q85.125 -72.97999999999999 86.75 -76.85499999999999 L97.0 -73.10499999999999 Q95.0 -69.35499999999999 92.375 -64.91999999999999 Q89.75 -60.47999999999999 87.5 -56.85499999999999 Z M63.5 -58.10499999999999 Q61.25 -61.35499999999999 58.315 -65.35499999999999 Q55.375 -69.35499999999999 52.625 -72.47999999999999 L62.75 -77.22999999999999 Q65.125 -74.10499999999999 67.875 -70.22999999999999 Q70.625 -66.35499999999999 72.875 -63.22999999999999 L63.5 -58.10499999999999 Z"/></g><g id="Regular-M" transform="matrix(1 0 0 1 1394.06 1126)"><path d="M70.0 -35.22999999999999 H80.0 V-50.22999999999999 H70.0 V-35.22999999999999 Z M22.5 4.77000000000001  20.0 -5.22999999999999 H30.0 V-23.35499999999999 Q27.875 -22.47999999999999 25.875 -21.669999999999987 Q23.875 -20.85499999999999 22.0 -20.22999999999999 L20.0 -29.97999999999999 Q22.375 -30.47999999999999 24.94 -31.35499999999999 Q27.5 -32.22999999999999 30.0 -33.22999999999999 V-50.22999999999999 H22.5 V-60.22999999999999 H30.0 V-75.22999999999999 H40.0 V-60.22999999999999 H47.5 V-50.22999999999999 H40.0 V-38.22999999999999 Q41.875 -39.35499999999999 43.625 -40.47999999999999 Q45.375 -41.60499999999999 47.0 -42.72999999999999 V-32.72999999999999 Q45.5 -31.47999999999999 43.75 -30.289999999999992 Q42.0 -29.10499999999999 40.0 -28.10499999999999 V4.77000000000001 H22.5 Z M50.25 4.77000000000001  44.75 -3.4799999999999898 Q50.0 -6.97999999999999 53.81 -12.85499999999999 Q57.625 -18.72999999999999 59.125 -25.22999999999999 H50.0 V-35.22999999999999 H60.0 V-50.22999999999999 H52.5 V-60.22999999999999 H97.5 V-50.22999999999999 H90.0 V-35.22999999999999 H100.0 V-25.22999999999999 H90.0 V4.77000000000001 H80.0 V-25.22999999999999 H69.25 Q67.5 -16.35499999999999 62.44 -8.164999999999992 Q57.375 0.020000000000010232 50.25 4.77000000000001 Z M86.25 -56.47999999999999  77.625 -60.22999999999999 Q79.625 -63.60499999999999 82.065 -67.60499999999999 Q84.5 -71.60499999999999 86.0 -75.22999999999999 L95.25 -71.85499999999999 Q93.375 -68.22999999999999 90.875 -64.10499999999999 Q88.375 -59.97999999999999 86.25 -56.47999999999999 Z M62.625 -57.47999999999999 Q60.5 -60.60499999999999 57.75 -64.35499999999999 Q55.0 -68.10499999999999 52.5 -70.97999999999999 L61.5 -75.22999999999999 Q63.75 -72.35499999999999 66.31 -68.72999999999999 Q68.875 -65.10499999999999 71.0 -62.10499999999999 L62.625 -57.47999999999999 Z"/></g><g id="Light-M" transform="matrix(1 0 0 1 1098.18 1126)"><path d="M68.25 -34.35499999999999 H80.0 V-50.22999999999999 H68.25 V-34.35499999999999 Z M24.375 2.2700000000000102  22.5 -5.22999999999999 H32.25 V-26.35499999999999 Q30.125 -25.35499999999999 28.0 -24.60499999999999 Q25.875 -23.85499999999999 23.875 -23.10499999999999 L22.5 -30.35499999999999 Q24.875 -30.97999999999999 27.315 -31.85499999999999 Q29.75 -32.72999999999999 32.25 -33.72999999999999 V-50.22999999999999 H24.75 V-57.72999999999999 H32.25 V-72.72999999999999 H39.75 V-57.72999999999999 H46.25 V-50.22999999999999 H39.75 V-37.35499999999999 Q41.5 -38.47999999999999 43.25 -39.54499999999999 Q45.0 -40.60499999999999 46.75 -41.72999999999999 V-34.10499999999999 Q45.125 -32.97999999999999 43.375 -31.85499999999999 Q41.625 -30.72999999999999 39.75 -29.85499999999999 V2.2700000000000102 H24.375 Z M50.125 2.2700000000000102  46.0 -3.8549999999999898 Q51.625 -7.72999999999999 55.375 -13.85499999999999 Q59.125 -19.97999999999999 60.25 -26.85499999999999 H50.75 V-34.35499999999999 H60.75 V-50.22999999999999 H53.25 V-57.72999999999999 H95.0 V-50.22999999999999 H87.5 V-34.35499999999999 H97.5 V-26.85499999999999 H87.5 V2.2700000000000102 H80.0 V-26.85499999999999 H67.75 Q66.625 -18.22999999999999 61.94 -10.35499999999999 Q57.25 -2.4799999999999898 50.125 2.2700000000000102 Z M84.375 -55.22999999999999  78.0 -57.97999999999999 Q79.875 -61.10499999999999 81.94000000000001 -64.47999999999999 Q84.0 -67.85499999999999 85.5 -71.10499999999999 L92.25 -68.72999999999999 Q90.625 -65.35499999999999 88.44 -61.85499999999999 Q86.25 -58.35499999999999 84.375 -55.22999999999999 Z M62.875 -56.47999999999999 Q60.875 -59.35499999999999 58.565 -62.54499999999999 Q56.25 -65.72999999999999 54.0 -68.35499999999999 L60.625 -71.47999999999999 Q62.75 -68.85499999999999 64.94 -65.79499999999999 Q67.125 -62.72999999999999 69.0 -59.97999999999999 L62.875 -56.47999999999999 Z"/></g><g id="Thin-M" transform="matrix(1 0 0 1 802.565 1126)"><path d="M66.5 -33.60499999999999 H80.125 V-50.22999999999999 H66.5 V-33.60499999999999 Z M26.375 -0.22999999999998977  25.125 -5.22999999999999 H34.375 V-29.35499999999999 Q32.25 -28.35499999999999 30.064999999999998 -27.60499999999999 Q27.875 -26.85499999999999 25.75 -26.10499999999999 L24.875 -30.72999999999999 Q27.375 -31.47999999999999 29.75 -32.35499999999999 Q32.125 -33.22999999999999 34.375 -34.22999999999999 V-50.22999999999999 H26.875 V-55.22999999999999 H34.375 V-70.22999999999999 H39.375 V-55.22999999999999 H45.0 V-50.22999999999999 H39.375 V-36.60499999999999 Q41.25 -37.47999999999999 43.0 -38.54499999999999 Q44.75 -39.60499999999999 46.375 -40.60499999999999 V-35.47999999999999 Q44.75 -34.47999999999999 43.0 -33.47999999999999 Q41.25 -32.47999999999999 39.375 -31.60499999999999 V-0.22999999999998977 H26.375 Z M50.0 -0.22999999999998977  47.125 -4.35499999999999 Q53.25 -8.47999999999999 57.0 -14.919999999999987 Q60.75 -21.35499999999999 61.375 -28.60499999999999 H51.5 V-33.60499999999999 H61.5 V-50.22999999999999 H54.0 V-55.22999999999999 H92.625 V-50.22999999999999 H85.125 V-33.60499999999999 H95.125 V-28.60499999999999 H85.125 V-0.22999999999998977 H80.125 V-28.60499999999999 H66.375 Q65.625 -19.97999999999999 61.375 -12.47999999999999 Q57.125 -4.97999999999999 50.0 -0.22999999999998977 Z M82.375 -54.10499999999999  78.25 -55.85499999999999 Q80.125 -58.47999999999999 81.815 -61.35499999999999 Q83.5 -64.22999999999999 85.0 -67.10499999999999 L89.25 -65.47999999999999 Q87.875 -62.47999999999999 86.06 -59.664999999999985 Q84.25 -56.85499999999999 82.375 -54.10499999999999 Z M63.0 -55.60499999999999 Q61.25 -58.10499999999999 59.315 -60.72999999999999 Q57.375 -63.35499999999999 55.5 -65.72999999999999 L59.75 -67.85499999999999 Q61.625 -65.47999999999999 63.5 -62.91999999999999 Q65.375 -60.35499999999999 67.0 -57.72999999999999 L63.0 -55.60499999999999 Z"/></g><g id="Ultralight-M" transform="matrix(1 0 0 1 506.415 1126)"><path d="M65.5 -33.10499999999999 H80.125 V-50.22999999999999 H65.5 V-33.10499999999999 Z M27.5 -1.7299999999999898  26.625 -5.22999999999999 H35.75 V-31.10499999999999 Q33.625 -30.10499999999999 31.375 -29.35499999999999 Q29.125 -28.60499999999999 26.875 -27.85499999999999 L26.375 -30.97999999999999 Q28.875 -31.72999999999999 31.19 -32.60499999999999 Q33.5 -33.47999999999999 35.75 -34.47999999999999 V-50.22999999999999 H28.25 V-53.72999999999999 H35.75 V-68.72999999999999 H39.25 V-53.72999999999999 H44.25 V-50.22999999999999 H39.25 V-36.10499999999999 Q41.0 -36.97999999999999 42.75 -37.97999999999999 Q44.5 -38.97999999999999 46.25 -39.97999999999999 V-36.35499999999999 Q44.5 -35.35499999999999 42.75 -34.41999999999999 Q41.0 -33.47999999999999 39.25 -32.60499999999999 V-1.7299999999999898 H27.5 Z M49.875 -1.7299999999999898  47.875 -4.60499999999999 Q54.25 -8.85499999999999 57.94 -15.47999999999999 Q61.625 -22.10499999999999 62.0 -29.60499999999999 H52.0 V-33.10499999999999 H62.0 V-50.22999999999999 H54.5 V-53.72999999999999 H91.125 V-50.22999999999999 H83.625 V-33.10499999999999 H93.625 V-29.60499999999999 H83.625 V-1.7299999999999898 H80.125 V-29.60499999999999 H65.5 Q65.125 -21.10499999999999 61.065 -13.789999999999992 Q57.0 -6.47999999999999 49.875 -1.7299999999999898 Z M81.25 -53.35499999999999  78.5 -54.47999999999999 Q80.25 -56.97999999999999 81.75 -59.47999999999999 Q83.25 -61.97999999999999 84.625 -64.60499999999999 L87.5 -63.60499999999999 Q86.25 -60.72999999999999 84.625 -58.294999999999995 Q83.0 -55.85499999999999 81.25 -53.35499999999999 Z M63.125 -54.97999999999999 Q61.5 -57.35499999999999 59.815 -59.66999999999999 Q58.125 -61.97999999999999 56.375 -64.22999999999999 L59.25 -65.60499999999999 Q61.0 -63.35499999999999 62.625 -61.10499999999999 Q64.25 -58.85499999999999 65.875 -56.47999999999999 L63.125 -54.97999999999999 Z"/></g><g id="Bold-S" transform="matrix(1 0 0 1 2294.23 696)"><path d="M58.58325 -37.398171999999995 H63.710172 V-43.613913999999994 H58.58325 V-37.398171999999995 Z M15.778422 -3.474328  13.117913999999999 -14.125827999999998 H20.71125 V-21.619749999999996 Q19.328922000000002 -21.127413999999995 17.998668 -20.635077999999993 Q16.668414 -20.138007999999992 15.3855 -19.645671999999998 L13.312007999999999 -30.396585999999992 Q15.091992000000001 -30.98833599999999 16.914582 -31.48067199999999 Q18.737172 -31.973007999999993 20.71125 -32.86299999999999 V-43.613913999999994 H15.3855 V-54.26541399999999 H20.71125 V-66.985672 H31.36275 V-54.26541399999999 H36.6885 V-43.613913999999994 H31.36275 V-38.08933599999999 Q32.745078 -38.879914 33.975918 -39.717831999999994 Q35.211492 -40.555749999999996 36.295578 -41.44100799999999 V-30.003664 Q35.112078 -29.21308599999999 33.876504 -28.375167999999988 Q32.645664 -27.537249999999993 31.36275 -26.651991999999993 V-3.474328 H15.778422 Z M42.213077999999996 -3.474328  36.394992 -12.350577999999999 Q39.945492 -14.618163999999993 42.852168 -18.514245999999986 Q45.763578 -22.410327999999993 47.141172 -26.746671999999997 H42.01425 V-37.398171999999995 H47.93175 V-43.613913999999994 H43.7895 V-54.26541399999999 H79.19508599999999 V-43.613913999999994 H74.361672 V-37.398171999999995 H80.97033599999999 V-26.746671999999997 H74.361672 V-3.474328 H63.710172 V-26.746671999999997 H58.090914000000005 Q56.708586 -19.943914 52.272828 -13.581417999999985 Q47.832336 -7.218921999999992 42.213077999999996 -3.474328 Z M70.219422 -51.406077999999994  60.457914 -54.95657799999999 Q62.332578 -58.109421999999995 64.600164 -61.85874999999999 Q66.86775 -65.60807799999999 68.250078 -69.059164 L78.30982800000001 -65.508664 Q76.72867199999999 -62.251672 74.5605 -58.308249999999994 Q72.39232799999999 -54.36482799999999 70.219422 -51.406077999999994 Z M51.581664 -52.783671999999996 Q49.806414000000004 -55.841835999999994 47.34 -59.344995999999995 Q44.873585999999996 -62.84342199999999 42.506586 -65.40924999999999 L52.367507999999994 -70.043836 Q54.540414000000006 -67.47800799999999 56.907414 -64.07899599999999 Q59.274414 -60.67524999999999 61.149077999999996 -57.81591399999999 L51.581664 -52.783671999999996 Z"/></g><g id="Semibold-S" transform="matrix(1 0 0 1 1998.1 696)"><path d="M56.808 -36.41349999999999 H62.7255 V-44.106249999999996 H56.808 V-36.41349999999999 Z M17.951328 -4.9513359999999835  15.679008 -14.026414000000003 H22.978836 V-23.88733599999999 Q21.596508 -23.295585999999993 20.218913999999998 -22.80324999999999 Q18.836586 -22.310913999999997 17.553672000000002 -21.818577999999995 L15.778422 -30.888921999999994 Q17.458992000000002 -31.48067199999999 19.281582 -31.973007999999993 Q21.104172000000002 -32.470077999999994 22.978836 -33.35533599999999 V-44.106249999999996 H17.653086000000002 V-53.18132799999999 H22.978836 V-65.508664 H32.153328 V-53.18132799999999 H37.479078 V-44.106249999999996 H32.153328 V-37.79582799999999 Q33.431508 -38.581672 34.714422 -39.372249999999994 Q35.997336 -40.16282799999999 37.081422 -41.04808599999999 V-31.48067199999999 Q35.897922 -30.694827999999994 34.667082 -29.856909999999992 Q33.431508 -29.018991999999997 32.153328 -28.12899999999999 V-4.9513359999999835 H17.951328 Z M41.4225 -4.9513359999999835  36.394992 -12.544671999999991 Q40.139585999999994 -14.911671999999996 42.951582 -18.90716799999999 Q45.763578 -22.902663999999994 47.046492 -27.338421999999994 H41.223672 V-36.41349999999999 H47.633508 V-44.106249999999996 H42.998922 V-53.18132799999999 H76.9275 V-44.106249999999996 H71.899992 V-36.41349999999999 H78.70275 V-27.338421999999994 H71.899992 V-4.9513359999999835 H62.7255 V-27.338421999999994 H56.315664000000005 Q55.03275 -20.829171999999993 50.93784 -14.665503999999999 Q46.847664 -8.501835999999983 41.4225 -4.9513359999999835 Z M68.444172 -50.90900799999999  60.064992000000004 -53.872491999999994 Q61.740828 -56.73182799999999 63.809585999999996 -60.182914 Q65.883078 -63.63399999999999 67.165992 -66.69216399999999 L75.744 -63.63399999999999 Q74.361672 -60.67524999999999 72.39232799999999 -57.12474999999999 Q70.41825 -53.57424999999999 68.444172 -50.90900799999999 Z M50.29875 -51.99782799999999 Q48.817007999999994 -54.757749999999994 46.601496 -57.86325399999999 Q44.38125 -60.97349199999999 42.213077999999996 -63.34049199999999 L50.691672000000004 -67.283914 Q52.66575 -64.91691399999999 54.734508 -61.85874999999999 Q56.808 -58.800585999999996 58.483836 -56.23949199999999 L50.29875 -51.99782799999999 Z"/></g><g id="Medium-S" transform="matrix(1 0 0 1 1701.85 696)"><path d="M55.425672 -35.72233599999999 H62.034335999999996 V-44.404492 H55.425672 V-35.72233599999999 Z M19.52775 -6.035421999999983  17.553672000000002 -13.926999999999992 H24.754086 V-25.563171999999994 Q23.277078 -24.971421999999997 21.89475 -24.43174599999999 Q20.512422 -23.88733599999999 19.134828 -23.394999999999996 L17.553672000000002 -31.28657799999999 Q19.328922000000002 -31.778914 21.104172000000002 -32.31858999999999 Q22.879422 -32.86299999999999 24.754086 -33.653577999999996 V-44.404492 H19.428336 V-52.39075 H24.754086 V-64.424578 H32.745078 V-52.39075 H38.070828 V-44.404492 H32.745078 V-37.49758599999999 Q34.027992 -38.288163999999995 35.306172000000004 -39.07400799999999 Q36.589086 -39.86458599999999 37.673172 -40.655164 V-32.569492 Q36.489672 -31.778914 35.258832000000005 -30.94099599999999 Q34.027992 -30.10307799999999 32.745078 -29.312499999999993 V-6.035421999999983 H19.52775 Z M40.83075 -6.035421999999983  36.489672 -12.644085999999987 Q40.239 -15.110499999999988 42.998922 -19.205409999999993 Q45.763578 -23.295585999999993 46.947078 -27.835491999999995 H40.631922 V-35.72233599999999 H47.439414000000006 V-44.404492 H42.407172 V-52.39075 H75.251664 V-44.404492 H70.025328 V-35.72233599999999 H77.026914 V-27.835491999999995 H70.025328 V-6.035421999999983 H62.034335999999996 V-27.835491999999995 H55.03275 Q53.84925 -21.420921999999997 49.953168 -15.456081999999995 Q46.057086 -9.486507999999986 40.83075 -6.035421999999983 Z M67.06657799999999 -50.6155  59.76675 -53.081914 Q61.343172 -55.74242199999999 63.26991 -58.89999999999999 Q65.191914 -62.05757799999999 66.375414 -64.91691399999999 L73.769922 -62.251672 Q72.487008 -59.59116399999999 70.716492 -56.286832 Q68.936508 -52.982499999999995 67.06657799999999 -50.6155 Z M49.413492000000005 -51.406077999999994 Q48.130578 -53.872491999999994 46.057086 -56.73182799999999 Q43.988327999999996 -59.59116399999999 42.01425 -61.75933599999999 L49.413492000000005 -65.210422 Q51.184008 -63.042249999999996 53.110746 -60.23025399999999 Q55.03275 -57.422991999999994 56.609172 -55.15067199999999 L49.413492000000005 -51.406077999999994 Z"/></g><g id="Regular-S" transform="matrix(1 0 0 1 1405.73 696)"><path d="M54.441 -35.22999999999999 H61.542 V-44.69799999999999 H54.441 V-35.22999999999999 Z M20.71125 -6.825999999999993  18.936 -13.926999999999992 H26.037 V-26.746671999999997 Q24.559991999999998 -26.154921999999992 23.12559 -25.615245999999992 Q21.695922 -25.070835999999993 20.318327999999998 -24.57849999999999 L18.936 -31.580085999999987 Q20.611836 -32.072421999999996 22.387086 -32.616831999999995 Q24.162336 -33.15650799999999 26.037 -33.94708599999999 V-44.69799999999999 H20.71125 V-51.79899999999999 H26.037 V-63.63399999999999 H33.138 V-51.79899999999999 H38.46375 V-44.69799999999999 H33.138 V-37.303492 Q34.520328 -38.08933599999999 35.751168 -38.879914 Q36.982008 -39.670491999999996 38.070828 -40.456335999999986 V-33.35533599999999 Q36.982008 -32.569492 35.751168 -31.726839999999996 Q34.520328 -30.888921999999994 33.138 -30.10307799999999 V-6.825999999999993 H20.71125 Z M40.338414 -6.825999999999993  36.489672 -12.743499999999997 Q40.239 -15.209913999999998 42.998922 -19.352163999999995 Q45.763578 -23.494414 46.847664 -28.12899999999999 H40.239 V-35.22999999999999 H47.34 V-44.69799999999999 H42.01425 V-51.79899999999999 H73.96875 V-44.69799999999999 H68.643 V-35.22999999999999 H75.744 V-28.12899999999999 H68.643 V-6.825999999999993 H61.542 V-28.12899999999999 H54.048078 Q52.963992000000005 -21.917991999999998 49.214664000000006 -16.047832 Q45.46533599999999 -10.177672000000001 40.338414 -6.825999999999993 Z M66.077172 -50.321991999999995  59.567922 -52.49016399999999 Q61.04966400000001 -54.95657799999999 62.872254000000005 -57.962667999999994 Q64.699578 -60.97349199999999 65.783664 -63.63399999999999 L72.39232799999999 -61.266999999999996 Q71.208828 -58.70117199999999 69.53299200000001 -55.643007999999995 Q67.852422 -52.58957799999999 66.077172 -50.321991999999995 Z M48.722328 -50.90900799999999 Q47.538828 -53.27600799999999 45.61209 -55.94125 Q43.690085999999994 -58.60649199999999 41.914835999999994 -60.575835999999995 L48.424085999999996 -63.63399999999999 Q50.099922 -61.659921999999995 51.875172 -59.04675399999999 Q53.650422 -56.43358599999999 55.132164 -54.26541399999999 L48.722328 -50.90900799999999 Z"/></g><g id="Light-S" transform="matrix(1 0 0 1 1109.75 696)"><path d="M53.058672 -34.53883599999999 H61.542 V-44.69799999999999 H53.058672 V-34.53883599999999 Z M22.192992 -8.800078  20.910078 -13.926999999999992 H27.81225 V-29.113671999999994 Q26.235827999999998 -28.521921999999996 24.754086 -27.98224599999999 Q23.277078 -27.43783599999999 21.795336 -26.846085999999993 L20.910078 -31.87832799999999 Q22.585914 -32.470077999999994 24.26175 -33.009753999999994 Q25.937586 -33.554164 27.81225 -34.34000799999999 V-44.69799999999999 H22.4865 V-49.824921999999994 H27.81225 V-61.659921999999995 H32.939172 V-49.824921999999994 H37.479078 V-44.69799999999999 H32.939172 V-36.61232799999999 Q34.222086 -37.398171999999995 35.457660000000004 -38.14140999999999 Q36.6885 -38.879914 37.872 -39.670491999999996 V-34.43942199999999 Q36.6885 -33.752992 35.457660000000004 -32.962413999999995 Q34.222086 -32.17183599999999 32.939172 -31.48067199999999 V-8.800078 H22.192992 Z M40.239 -8.800078  37.479078 -13.037007999999986 Q41.521914 -15.801664000000002 44.234496 -20.190081999999997 Q46.947078 -24.57849999999999 47.732922 -29.411913999999996 H40.83075 V-34.53883599999999 H47.93175 V-44.69799999999999 H42.606 V-49.824921999999994 H71.994672 V-44.69799999999999 H66.668922 V-34.53883599999999 H73.769922 V-29.411913999999996 H66.668922 V-8.800078 H61.542 V-29.411913999999996 H52.864578 Q52.272828 -23.394999999999996 48.817007999999994 -17.771007999999995 Q45.365922 -12.151749999999993 40.239 -8.800078 Z M64.600164 -49.33258599999999  59.866164000000005 -50.71491399999999 Q61.248492000000006 -52.982499999999995 62.77284 -55.49625399999999 Q64.301922 -58.010008 65.386008 -60.37700799999999 L70.025328 -58.800585999999996 Q69.035922 -56.43358599999999 67.606254 -53.867757999999995 Q66.176586 -51.306664 64.600164 -49.33258599999999 Z M48.916422 -50.123163999999996 Q47.832336 -52.291335999999994 46.255914000000004 -54.51158199999999 Q44.679492 -56.73182799999999 43.098335999999996 -58.50707799999999 L47.732922 -60.67524999999999 Q49.314078 -58.89999999999999 50.79108599999999 -56.73182799999999 Q52.272828 -54.558921999999995 53.551007999999996 -52.58957799999999 L48.916422 -50.123163999999996 Z"/></g><g id="Thin-S" transform="matrix(1 0 0 1 814.015 696)"><path d="M51.681078 -33.94708599999999 H61.641414000000005 V-44.69799999999999 H51.681078 V-33.94708599999999 Z M23.769414 -10.769421999999992  22.978836 -13.926999999999992 H29.488086 V-31.48067199999999 Q28.011077999999998 -30.78950799999999 26.429922 -30.297171999999996 Q24.8535 -29.804835999999987 23.277078 -29.21308599999999 L22.780008000000002 -32.17183599999999 Q24.559991999999998 -32.86299999999999 26.183753999999997 -33.40740999999999 Q27.81225 -33.94708599999999 29.488086 -34.737663999999995 V-44.69799999999999 H24.162336 V-47.855577999999994 H29.488086 V-59.69057799999999 H32.645664 V-47.855577999999994 H36.489672 V-44.69799999999999 H32.645664 V-36.02057799999999 Q33.928578 -36.61232799999999 35.211492 -37.350832 Q36.489672 -38.08933599999999 37.578492 -38.780499999999996 V-35.52350799999999 Q36.394992 -34.936491999999994 35.159417999999995 -34.24532799999999 Q33.928578 -33.554164 32.645664 -32.86299999999999 V-10.769421999999992 H23.769414 Z M40.139585999999994 -10.769421999999992  38.364335999999994 -13.434663999999998 Q42.899508 -16.393413999999993 45.56475 -20.980659999999993 Q48.229992 -25.563171999999994 48.622914 -30.78950799999999 H41.4225 V-33.94708599999999 H48.5235 V-44.69799999999999 H43.19775 V-47.855577999999994 H70.120008 V-44.69799999999999 H64.798992 V-33.94708599999999 H71.899992 V-30.78950799999999 H64.798992 V-10.769421999999992 H61.641414000000005 V-30.78950799999999 H51.780492 Q51.48225 -24.77732799999999 48.376746 -19.45157799999999 Q45.266507999999995 -14.125827999999998 40.139585999999994 -10.769421999999992 Z M63.019008 -48.44732799999999  60.064992000000004 -49.03907799999999 Q61.442586 -51.008421999999996 62.67816 -53.02983999999999 Q63.909 -55.05599199999999 64.99308599999999 -57.22416399999999 L67.658328 -56.23949199999999 Q66.86775 -54.166 65.73159 -52.144582 Q64.600164 -50.123163999999996 63.019008 -48.44732799999999 Z M49.01583599999999 -49.431999999999995 Q48.130578 -51.306664 46.847664 -53.081914 Q45.56475 -54.857164 44.281836 -56.43358599999999 L47.046492 -57.81591399999999 Q48.424085999999996 -56.23949199999999 49.65966 -54.412167999999994 Q50.8905 -52.58957799999999 51.974585999999995 -50.81432799999999 L49.01583599999999 -49.431999999999995 Z"/></g><g id="Ultralight-S" transform="matrix(1 0 0 1 517.792 696)"><path d="M50.8905 -33.554164 H61.641414000000005 V-44.69799999999999 H50.8905 V-33.554164 Z M24.654672 -11.952922000000001  24.162336 -13.926999999999992 H30.572172000000002 V-32.86299999999999 Q29.095164 -32.17183599999999 27.466668 -31.67949999999999 Q25.838172 -31.187163999999996 24.162336 -30.595413999999998 L23.963508 -32.370664 Q25.743492 -33.06182799999999 27.319914 -33.601504 Q28.896336 -34.145914 30.572172000000002 -34.936491999999994 V-44.69799999999999 H25.246422 V-46.67207799999999 H30.572172000000002 V-58.50707799999999 H32.54625 V-46.67207799999999 H35.897922 V-44.69799999999999 H32.54625 V-35.622921999999996 Q33.829164 -36.21467199999999 35.060004 -36.90583599999999 Q36.295578 -37.596999999999994 37.479078 -38.288163999999995 V-36.21467199999999 Q36.196163999999996 -35.622921999999996 34.960589999999996 -34.98383199999999 Q33.72975 -34.34000799999999 32.54625 -33.653577999999996 V-11.952922000000001 H24.654672 Z M40.040172 -11.952922000000001  38.956086 -13.63349199999999 Q43.590672 -16.686921999999996 46.255914000000004 -21.420921999999997 Q48.916422 -26.154921999999992 49.11525 -31.580085999999987 H41.815422 V-33.554164 H48.916422 V-44.69799999999999 H43.590672 V-46.67207799999999 H68.936508 V-44.69799999999999 H63.615492 V-33.554164 H70.716492 V-31.580085999999987 H63.615492 V-11.952922000000001 H61.641414000000005 V-31.580085999999987 H51.089328 Q51.089328 -25.66258599999999 48.130578 -20.483589999999992 Q45.171828 -15.309327999999994 40.040172 -11.952922000000001 Z M62.13375 -47.855577999999994  60.259085999999996 -47.95499199999999 Q61.542 -49.725508 62.626085999999994 -51.552831999999995 Q63.710172 -53.37542199999999 64.699578 -55.250085999999996 L66.276 -54.757749999999994 Q65.584836 -52.783671999999996 64.600164 -51.06049599999999 Q63.615492 -49.33258599999999 62.13375 -47.855577999999994 Z M49.11525 -48.93966399999999 Q48.324672 -50.71491399999999 47.24058599999999 -52.243995999999996 Q46.1565 -53.77307799999999 44.973 -55.250085999999996 L46.648835999999996 -56.04066399999999 Q47.93175 -54.558921999999995 48.968495999999995 -53.02983999999999 Q50.000507999999996 -51.50549199999999 51.089328 -49.824921999999994 L49.11525 -48.93966399999999 Z"/></g></g></svg>