<svg xmlns="http://www.w3.org/2000/svg" version="1.1" width="3300" height="2000"><g id="Notes"><style>
    text {
      font-family: monospace;
      text-anchor: middle;
    }
    text.emphasis {
      font-weight:bold;
    }
    text.lanchor {
      text-anchor: start;
    }
  </style><rect height="2200" id="artboard" fill="white" width="3300" x="0" y="0"/><line id="" style="fill:none;stroke:black;stroke-width:0.5;" x1="263" x2="3036" y1="292" y2="292"/><text class="lanchor emphasis" transform="matrix(1 0 0 1 263 322)">Weight/Scale Variations</text><text transform="matrix(1 0 0 1 559.711 322)">Ultralight</text><text transform="matrix(1 0 0 1 856.422 322)">Thin</text><text transform="matrix(1 0 0 1 1153.13 322)">Light</text><text transform="matrix(1 0 0 1 1449.84 322)">Regular</text><text transform="matrix(1 0 0 1 1746.56 322)">Medium</text><text transform="matrix(1 0 0 1 2043.27 322)">Semibold</text><text transform="matrix(1 0 0 1 2339.98 322)">Bold</text><text transform="matrix(1 0 0 1 2636.69 322)">Heavy</text><text transform="matrix(1 0 0 1 2933.4 322)">Black</text><text id="template-version" style="text-anchor: end;" transform="matrix(1 0 0 1 3036 1933)">Template v.1.0</text><text class="lanchor" transform="matrix(1 0 0 1 263 726)">Small</text><text class="lanchor" transform="matrix(1 0 0 1 263 1156)">Medium</text><text class="lanchor" transform="matrix(1 0 0 1 263 1586)">Large</text></g><g id="Guides"><g id="H-reference" style="fill:#27AAE1;stroke:none;" transform="matrix(1 0 0 1 339 696)"><path d="M 54.9316 0 L 57.666 0 L 30.5664 -70.459 L 28.0762 -70.459 L 0.976562 0 L 3.66211 0 L 12.9395 -24.4629 L 45.7031 -24.4629 Z M 29.1992 -67.0898 L 29.4434 -67.0898 L 44.8242 -26.709 L 13.8184 -26.709 Z"/></g><line id="Baseline-S" style="fill:none;stroke:#27AAE1;opacity:1;stroke-width:0.577;" x1="263" x2="3036" y1="696" y2="696"/><line id="Capline-S" style="fill:none;stroke:#27AAE1;opacity:1;stroke-width:0.577;" x1="263" x2="3036" y1="625.541" y2="625.541"/><g id="H-reference" style="fill:#27AAE1;stroke:none;" transform="matrix(1 0 0 1 339 1126)"><path d="M 54.9316 0 L 57.666 0 L 30.5664 -70.459 L 28.0762 -70.459 L 0.976562 0 L 3.66211 0 L 12.9395 -24.4629 L 45.7031 -24.4629 Z M 29.1992 -67.0898 L 29.4434 -67.0898 L 44.8242 -26.709 L 13.8184 -26.709 Z"/></g><line id="Baseline-M" style="fill:none;stroke:#27AAE1;opacity:1;stroke-width:0.577;" x1="263" x2="3036" y1="1126" y2="1126"/><line id="Capline-M" style="fill:none;stroke:#27AAE1;opacity:1;stroke-width:0.577;" x1="263" x2="3036" y1="1055.54" y2="1055.54"/><g id="H-reference" style="fill:#27AAE1;stroke:none;" transform="matrix(1 0 0 1 339 1556)"><path d="M 54.9316 0 L 57.666 0 L 30.5664 -70.459 L 28.0762 -70.459 L 0.976562 0 L 3.66211 0 L 12.9395 -24.4629 L 45.7031 -24.4629 Z M 29.1992 -67.0898 L 29.4434 -67.0898 L 44.8242 -26.709 L 13.8184 -26.709 Z"/></g><line id="Baseline-L" style="fill:none;stroke:#27AAE1;opacity:1;stroke-width:0.577;" x1="263" x2="3036" y1="1556" y2="1556"/><line id="Capline-L" style="fill:none;stroke:#27AAE1;opacity:1;stroke-width:0.577;" x1="263" x2="3036" y1="1485.54" y2="1485.54"/><rect height="119.336" id="left-margin" style="fill:darkred;stroke:none;opacity:0.4;" width="12.4512" x="1394.06" y="1030.79"/><rect height="119.336" id="right-margin" style="fill:darkgreen;stroke:none;opacity:0.4;" width="12.4512" x="1502.5112" y="1030.79"/><rect x="1406.5112" y="1045" width="96" height="96" fill="none" stroke="blue" stroke-dasharray="5"/><rect x="1394.06" y="1030.79" width="120.9024" height="119.336" fill="none" stroke="blue"/></g><g id="Symbols"><g id="Bold-L" transform="matrix(1 0 0 1 2266 1556)"><path d="M110.94 38.30000000000001 V27.173750000000013 Q122.8725 27.173750000000013 131.41875000000002 18.708125000000024 Q139.965 10.242500000000007 139.965 -1.8512499999999932 H151.09125 Q151.09125 14.757500000000007 139.239375 26.528750000000002 Q127.3875 38.30000000000001 110.94 38.30000000000001 Z M3.87 -68.77 Q3.87 -85.2175 15.64125 -97.069375 Q27.4125 -108.92125 44.02125 -108.92125 V-97.795 Q31.927500000000002 -97.795 23.461875000000003 -89.24875 Q14.996250000000002 -80.70249999999999 14.996250000000002 -68.77 H3.87 Z M20.478749999999998 21.53 Q11.77125 12.983750000000015 7.57875 2.180000000000007 Q3.3862500000000004 -8.623749999999987 3.3862500000000004 -19.991874999999993 Q3.3862500000000004 -31.36 7.74 -42.16374999999999 Q12.09375 -52.967499999999994 20.478749999999998 -61.513749999999995 L49.18125 -90.21625 Q52.083749999999995 -92.9575 55.792500000000004 -93.038125 Q59.50125 -93.11874999999999 62.40375000000001 -90.53875 Q65.145 -87.475 65.22562500000001 -83.76625 Q65.30625 -80.0575 62.565 -77.31625 L37.41 -52.161249999999995 Q43.698750000000004 -45.55 43.940625000000004 -36.923124999999985 Q44.1825 -28.29625 37.57125 -21.685000000000002 L41.925000000000004 -17.331249999999997 Q48.375 -23.61999999999999 49.82625 -33.21437499999999 Q51.2775 -42.80875 45.63375 -51.51625 L94.815 -100.69749999999999 Q97.55625 -103.6 101.265 -103.6 Q104.97375 -103.6 107.87625000000001 -100.69749999999999 Q110.61749999999999 -97.795 110.77875 -94.166875 Q110.94 -90.53875 107.87625000000001 -87.63624999999999 L73.04625 -52.64499999999999 L77.23875 -48.4525 L121.26 -92.3125 Q124.00125000000001 -95.05375 127.790625 -95.05375 Q131.57999999999998 -95.05375 134.32125 -92.3125 Q137.22375 -89.41 137.22375 -85.70124999999999 Q137.22375 -81.99249999999999 134.32125 -79.25125 L90.46125 -35.22999999999999 L94.97625000000001 -30.876249999999985 L131.74125 -67.47999999999999 Q134.32125 -70.3825 138.03 -70.3825 Q141.73875 -70.3825 144.64125 -67.47999999999999 Q147.38250000000002 -64.73875 147.38250000000002 -60.949374999999996 Q147.38250000000002 -57.16 144.64125 -54.41874999999999 L103.36125 -13.138749999999987 L107.715 -8.784999999999982 L135.1275 -36.19749999999999 Q137.86875 -38.938749999999985 141.65812499999998 -38.85812499999999 Q145.44750000000002 -38.7775 148.18875000000003 -36.19749999999999 Q150.93 -33.29499999999999 151.010625 -29.586249999999993 Q151.09125 -25.877499999999998 148.18875000000003 -22.974999999999994 L103.68375 21.53 Q94.97625000000001 30.23750000000001 84.17250000000001 34.510625000000005 Q73.36875 38.783750000000026 62.081250000000004 38.94500000000002 Q50.79375 39.10624999999999 39.99 34.752500000000026 Q29.186250000000005 30.398750000000007 20.478749999999998 21.53 Z"/></g><g id="Semibold-L" transform="matrix(1 0 0 1 1970.27 1556)"><path d="M111.42375 38.94500000000002 V27.6575 Q123.35625 27.6575 131.9025 19.19187500000001 Q140.44875 10.726250000000007 140.44875 -1.3674999999999926 H151.73624999999998 Q151.73624999999998 15.241250000000008 139.884375 27.093125000000015 Q128.0325 38.94500000000002 111.42375 38.94500000000002 Z M3.225 -69.25375 Q3.225 -85.70124999999999 14.996250000000002 -97.63374999999999 Q26.767500000000002 -109.56625 43.5375 -109.56625 V-98.27875 Q31.44375 -98.27875 22.978125000000002 -89.73249999999999 Q14.512500000000001 -81.18625 14.512500000000001 -69.25375 H3.225 Z M20.3175 21.53 Q11.610000000000001 12.983750000000015 7.336875 2.180000000000007 Q3.0637499999999998 -8.623749999999987 3.0637499999999998 -19.991874999999993 Q3.0637499999999998 -31.36 7.4174999999999995 -42.24437499999999 Q11.77125 -53.12875 20.3175 -61.83624999999999 L48.53625 -89.89375 Q51.2775 -92.63499999999999 54.90562499999999 -92.71562499999999 Q58.53375 -92.79624999999999 61.43625 -90.21625 Q64.01625 -87.31375 64.096875 -83.60499999999999 Q64.1775 -79.89625 61.43625 -77.31625 L36.12 -51.83874999999999 Q43.215 -44.74374999999999 43.618125 -35.471875 Q44.02125 -26.19999999999999 37.0875 -18.943749999999994 L41.76375 -14.267499999999998 Q48.85875 -21.362499999999997 49.987500000000004 -31.763125000000002 Q51.11625 -42.16374999999999 44.988749999999996 -51.193749999999994 L94.17 -100.21374999999999 Q96.75 -103.11625 100.378125 -103.11625 Q104.00625000000001 -103.11625 106.90875 -100.21374999999999 Q109.65 -97.4725 109.730625 -93.844375 Q109.81124999999999 -90.21625 106.90875 -87.475 L71.75625000000001 -52.161249999999995 L76.4325 -47.485 L121.09875 -92.15125 Q123.67875000000001 -94.73124999999999 127.468125 -94.73124999999999 Q131.25750000000002 -94.73124999999999 133.8375 -92.15125 Q136.74 -89.24875 136.74 -85.62062499999999 Q136.74 -81.99249999999999 133.8375 -79.25125 L89.3325 -34.584999999999994 L94.17 -29.747500000000002 L132.38625 -67.96375 Q134.96625 -70.70499999999998 138.594375 -70.70499999999998 Q142.2225 -70.70499999999998 145.125 -67.96375 Q147.86625 -65.2225 147.86625 -61.433125 Q147.86625 -57.64374999999999 145.125 -55.06374999999999 L102.39375 -12.332499999999982 L107.23125 -7.65625 L136.25625 -36.68124999999999 Q138.9975 -39.4225 142.70625 -39.34187499999999 Q146.415 -39.26124999999999 149.15625 -36.68124999999999 Q151.8975 -33.94 151.8975 -30.311875 Q151.8975 -26.683750000000003 149.15625 -23.781249999999986 L103.68375 21.53 Q94.97625000000001 30.23750000000001 84.17250000000001 34.59125 Q73.36875 38.94500000000002 62.00062500000001 39.02562499999999 Q50.6325 39.10624999999999 39.748125 34.752500000000026 Q28.86375 30.398750000000007 20.3175 21.53 Z"/></g><g id="Medium-L" transform="matrix(1 0 0 1 1674.31 1556)"><path d="M111.74625 39.59000000000003 V27.980000000000018 Q123.67875000000001 27.980000000000018 132.225 19.514375 Q140.77125 11.048750000000013 140.77125 -1.0449999999999875 H152.38125 Q152.38125 15.724999999999994 140.368125 27.6575 Q128.355 39.59000000000003 111.74625 39.59000000000003 Z M2.58 -69.57624999999999 Q2.58 -86.185 14.512500000000001 -98.19812499999999 Q26.444999999999997 -110.21124999999999 43.215 -110.21124999999999 V-98.60125 Q31.121250000000003 -98.60125 22.655625 -90.05499999999999 Q14.190000000000001 -81.50874999999999 14.190000000000001 -69.57624999999999 H2.58 Z M20.15625 21.691249999999997 Q11.44875 13.14500000000001 7.095000000000001 2.180000000000007 Q2.74125 -8.784999999999982 2.74125 -20.15312499999999 Q2.74125 -31.521249999999995 7.095000000000001 -42.405625 Q11.44875 -53.29 20.15625 -61.997499999999995 L47.89125 -89.73249999999999 Q50.6325 -92.3125 54.260625 -92.393125 Q57.88875 -92.47375 60.63 -89.89375 Q63.371249999999996 -87.15249999999999 63.371249999999996 -83.52437499999999 Q63.371249999999996 -79.89625 60.791250000000005 -77.155 L35.1525 -51.51625 Q42.73125 -44.098749999999995 43.295625 -34.343125 Q43.86 -24.58749999999999 36.765 -17.008749999999992 L41.76375 -12.009999999999991 Q49.3425 -19.749999999999986 50.14875000000001 -30.63437499999999 Q50.955000000000005 -41.51875 44.505 -50.871249999999996 L93.525 -99.89125 Q96.26625000000001 -102.6325 99.81375 -102.6325 Q103.36125 -102.6325 106.10249999999999 -99.89125 Q108.84375 -97.14999999999999 108.924375 -93.521875 Q109.005 -89.89375 106.10249999999999 -87.31375 L70.78875 -51.83874999999999 L75.78750000000001 -46.84 L120.9375 -91.99 Q123.5175 -94.57 127.22625000000001 -94.57 Q130.935 -94.57 133.515 -91.99 Q136.25625 -89.08749999999999 136.25625 -85.459375 Q136.25625 -81.83125 133.515 -79.25125 L88.52625 -34.10124999999999 L93.68625 -29.102499999999992 L132.87 -68.28625 Q135.45000000000002 -71.0275 139.078125 -71.0275 Q142.70625 -71.0275 145.44750000000002 -68.28625 Q148.18875000000003 -65.54499999999999 148.18875000000003 -61.83624999999999 Q148.18875000000003 -58.1275 145.44750000000002 -55.5475 L101.5875 -11.848749999999995 L106.7475 -6.688749999999985 L137.22375 -37.16499999999999 Q139.80375 -39.74499999999999 143.51250000000002 -39.74499999999999 Q147.22125 -39.74499999999999 149.80125 -37.16499999999999 Q152.5425 -34.42375 152.5425 -30.795624999999987 Q152.5425 -27.16749999999999 149.80125 -24.426249999999982 L103.84500000000001 21.691249999999997 Q95.1375 30.398750000000007 84.17250000000001 34.752500000000026 Q73.2075 39.10624999999999 61.839375000000004 39.10624999999999 Q50.471250000000005 39.10624999999999 39.586875 34.752500000000026 Q28.7025 30.398750000000007 20.15625 21.691249999999997 Z"/></g><g id="Regular-L" transform="matrix(1 0 0 1 1378.56 1556)"><path d="M111.90750000000001 39.912499999999994 V28.141250000000014 Q123.84 28.141250000000014 132.38625 19.675624999999997 Q140.9325 11.210000000000008 140.9325 -0.883749999999992 H152.70375 Q152.70375 16.047500000000014 140.690625 27.980000000000018 Q128.6775 39.912499999999994 111.90750000000001 39.912499999999994 Z M2.2575 -69.73749999999998 Q2.2575 -86.5075 14.190000000000001 -98.520625 Q26.1225 -110.53375 43.05375 -110.53375 V-98.76249999999999 Q30.96 -98.76249999999999 22.494374999999998 -90.21625 Q14.028749999999999 -81.66999999999999 14.028749999999999 -69.73749999999998 H2.2575 Z M19.995 21.691249999999997 Q11.2875 13.14500000000001 6.93375 2.180000000000007 Q2.58 -8.784999999999982 2.58 -20.15312499999999 Q2.58 -31.521249999999995 6.93375 -42.48625 Q11.2875 -53.45124999999999 19.995 -62.15874999999999 L47.56875 -89.57124999999999 Q50.14875000000001 -92.15125 53.776875000000004 -92.231875 Q57.405 -92.3125 60.146249999999995 -89.73249999999999 Q62.72625 -86.99125 62.72625 -83.363125 Q62.72625 -79.735 60.146249999999995 -77.155 L34.346250000000005 -51.355 Q42.408750000000005 -43.614999999999995 43.05375 -33.536874999999995 Q43.698750000000004 -23.458749999999995 36.60375 -15.55749999999999 L41.76375 -10.236249999999998 Q49.665 -18.459999999999994 50.229375 -29.828124999999986 Q50.79375 -41.19624999999999 44.1825 -50.709999999999994 L93.2025 -99.72999999999999 Q95.7825 -102.31 99.33 -102.31 Q102.8775 -102.31 105.61875 -99.72999999999999 Q108.19874999999999 -96.98875 108.27937500000002 -93.360625 Q108.36000000000001 -89.73249999999999 105.61875 -87.15249999999999 L70.14375 -51.51625 L75.30375000000001 -46.35624999999999 L120.77625000000002 -91.82875 Q123.35625 -94.40875 127.065 -94.40875 Q130.77375 -94.40875 133.35375000000002 -91.82875 Q135.93375 -89.08749999999999 135.93375 -85.459375 Q135.93375 -81.83125 133.35375000000002 -79.25125 L87.88125000000001 -33.77875 L93.2025 -28.457499999999982 L133.1925 -68.44749999999999 Q135.7725 -71.18875 139.40062500000002 -71.18875 Q143.02875 -71.18875 145.77 -68.44749999999999 Q148.35 -65.86749999999999 148.35 -62.15874999999999 Q148.35 -58.44999999999999 145.77 -55.86999999999999 L101.10375 -11.364999999999995 L106.425 -6.043750000000003 L137.86875 -37.4875 Q140.44875 -40.067499999999995 144.076875 -40.067499999999995 Q147.70499999999998 -40.067499999999995 150.285 -37.4875 Q153.02625 -34.74625 153.02625 -31.19874999999999 Q153.02625 -27.65124999999999 150.285 -24.909999999999997 L103.84500000000001 21.691249999999997 Q95.1375 30.398750000000007 84.17250000000001 34.752500000000026 Q73.2075 39.10624999999999 61.839375000000004 39.10624999999999 Q50.471250000000005 39.10624999999999 39.50625 34.752500000000026 Q28.541249999999998 30.398750000000007 19.995 21.691249999999997 Z"/></g><g id="Light-L" transform="matrix(1 0 0 1 1082.77 1556)"><path d="M112.875 38.94500000000002 V29.108750000000015 Q124.64625 28.786250000000024 133.03125 20.401250000000005 Q141.41625000000002 12.01625 141.9 0.0837500000000233 H151.57500000000002 Q151.41375000000002 16.370000000000005 139.80375 27.6575 Q128.19375 38.94500000000002 112.875 38.94500000000002 Z M3.3862500000000004 -70.70499999999998 Q3.5475000000000003 -86.5075 14.834999999999999 -97.875625 Q26.1225 -109.24374999999999 42.08625000000001 -109.405 V-99.72999999999999 Q30.15375 -99.4075 21.849375000000002 -90.941875 Q13.545000000000002 -82.47625 13.06125 -70.70499999999998 H3.3862500000000004 Z M25.155 18.14375000000001 Q16.77 10.081249999999997 12.658125 -0.07750000000000057 Q8.54625 -10.236249999999998 8.54625 -20.717499999999987 Q8.54625 -31.19874999999999 12.658125 -41.35749999999999 Q16.77 -51.51625 25.155 -59.74 L50.471250000000005 -85.05624999999999 Q53.051249999999996 -87.63624999999999 56.35687500000001 -87.63624999999999 Q59.6625 -87.63624999999999 62.24250000000001 -85.2175 Q64.8225 -82.47625 64.8225 -79.170625 Q64.8225 -75.865 62.24250000000001 -73.44624999999999 L40.3125 -51.355 Q48.53625 -41.51875 48.375 -31.440624999999997 Q48.21375 -21.362499999999997 41.925000000000004 -13.461249999999993 L46.60125 -8.623749999999987 Q54.18000000000001 -17.976249999999993 54.583125 -28.941249999999997 Q54.986250000000005 -39.906249999999986 48.6975 -50.38749999999999 L93.68625 -95.37625 Q96.26625000000001 -97.795 99.571875 -97.795 Q102.8775 -97.795 105.45750000000001 -95.37625 Q108.03750000000001 -92.63499999999999 108.03750000000001 -89.24875 Q108.03750000000001 -85.8625 105.45750000000001 -83.44375 L71.75625000000001 -49.58124999999999 L76.4325 -44.90499999999999 L120.13125000000001 -88.60374999999999 Q122.71124999999999 -91.18374999999999 126.09750000000001 -91.18374999999999 Q129.48375 -91.18374999999999 132.06375 -88.60374999999999 Q134.48250000000002 -86.02374999999999 134.48250000000002 -82.63749999999999 Q134.48250000000002 -79.25125 132.06375 -76.8325 L88.365 -33.13374999999999 L93.04125 -28.29625 L131.41875000000002 -66.51249999999999 Q133.8375 -69.25375 137.22375 -69.25375 Q140.61 -69.25375 143.19 -66.51249999999999 Q145.60875 -64.09375 145.60875 -60.70749999999999 Q145.60875 -57.32125 143.19 -54.741249999999994 L100.29750000000001 -12.009999999999991 L104.97375 -7.172499999999985 L134.805 -37.00375 Q137.22375 -39.26124999999999 140.52937500000002 -39.34187499999999 Q143.835 -39.4225 146.25375 -37.00375 Q148.995 -34.26249999999999 148.914375 -30.956874999999997 Q148.83375 -27.65124999999999 146.25375 -25.232499999999987 L103.03875000000001 18.14375000000001 Q94.815 26.528750000000002 84.65625 30.640625 Q74.4975 34.752500000000026 64.01625 34.752500000000026 Q53.535000000000004 34.752500000000026 43.37625 30.640625 Q33.2175 26.528750000000002 25.155 18.14375000000001 Z"/></g><g id="Thin-L" transform="matrix(1 0 0 1 787.282 1556)"><path d="M113.84249999999999 37.97750000000002 V30.076250000000016 Q125.4525 29.431250000000006 133.67625 21.126875000000013 Q141.9 12.822500000000005 142.8675 1.0512500000000102 H150.60750000000002 Q149.9625 16.53125 138.916875 27.25437500000001 Q127.87125 37.97750000000002 113.84249999999999 37.97750000000002 Z M4.353750000000001 -71.6725 Q4.99875 -86.66874999999999 15.48 -97.23062499999999 Q25.961250000000003 -107.79249999999999 41.11875 -108.4375 V-100.69749999999999 Q29.3475 -100.0525 21.204375000000002 -91.66749999999999 Q13.06125 -83.2825 12.09375 -71.6725 H4.353750000000001 Z M30.15375 14.757500000000007 Q22.2525 7.0175000000000125 18.3825 -2.3349999999999795 Q14.512500000000001 -11.687499999999986 14.512500000000001 -21.281875 Q14.512500000000001 -30.876249999999985 18.3825 -40.22874999999999 Q22.2525 -49.58124999999999 30.15375 -57.48249999999999 L53.535000000000004 -80.70249999999999 Q55.95375000000001 -83.12124999999999 58.936875 -83.04062499999999 Q61.92 -82.96 64.5 -80.70249999999999 Q66.91875 -78.1225 66.91875 -75.05875 Q66.91875 -71.995 64.5 -69.57624999999999 L46.11750000000001 -51.193749999999994 Q54.5025 -39.583749999999995 53.535000000000004 -29.424999999999997 Q52.5675 -19.26625 47.085 -11.364999999999995 L51.2775 -7.01124999999999 Q58.85625 -17.492499999999993 59.017500000000005 -27.973749999999995 Q59.17875000000001 -38.455 53.37375 -49.903749999999995 L94.33125 -90.86125 Q96.58875 -93.28 99.733125 -93.28 Q102.8775 -93.28 105.29625 -90.86125 Q107.87625000000001 -88.28125 107.79562499999999 -85.13687499999999 Q107.715 -81.99249999999999 105.29625 -79.89625 L73.36875 -47.646249999999995 L77.72250000000001 -43.45375 L119.48625 -85.53999999999999 Q122.06625000000001 -87.95875 125.21062500000001 -87.95875 Q128.355 -87.95875 130.6125 -85.53999999999999 Q133.03125 -82.96 133.03125 -79.81562499999998 Q133.03125 -76.67124999999999 130.6125 -74.2525 L88.6875 -32.48874999999998 L92.88000000000001 -28.13499999999999 L129.645 -64.73875 Q131.9025 -67.1575 134.96625 -67.1575 Q138.03 -67.1575 140.61 -64.73875 Q143.02875 -62.31999999999999 143.02875 -59.256249999999994 Q143.02875 -56.192499999999995 140.61 -53.77374999999999 L99.33 -12.654999999999987 L103.52250000000001 -8.462500000000006 L131.74125 -36.35875 Q133.8375 -38.455 136.90125 -38.616249999999994 Q139.965 -38.7775 142.38375 -36.35875 Q144.96375 -33.77875 144.8025 -30.795624999999987 Q144.64125 -27.812499999999986 142.38375 -25.393749999999997 L102.39375 14.757500000000007 Q94.4925 22.658750000000026 85.14 26.528750000000002 Q75.78750000000001 30.398750000000007 66.193125 30.398750000000007 Q56.59875 30.398750000000007 47.24625 26.528750000000002 Q37.893750000000004 22.658750000000026 30.15375 14.757500000000007 Z"/></g><g id="Ultralight-L" transform="matrix(1 0 0 1 491.205 1556)"><path d="M114.4875 37.33250000000001 V30.560000000000002 Q125.93625 29.753749999999997 134.079375 21.53 Q142.2225 13.306250000000006 143.35125000000002 1.6962500000000205 H149.9625 Q149.15625 16.692500000000024 138.3525 27.01249999999999 Q127.54875 37.33250000000001 114.4875 37.33250000000001 Z M4.99875 -72.3175 Q5.805000000000001 -86.66874999999999 15.883125 -96.82749999999999 Q25.961250000000003 -106.98625 40.47375 -107.79249999999999 V-101.18124999999999 Q28.86375 -100.375 20.80125 -92.07062499999999 Q12.738750000000001 -83.76625 11.610000000000001 -72.3175 H4.99875 Z M33.2175 12.66125000000001 Q25.63875 5.243750000000006 21.849375000000002 -3.625 Q18.06 -12.493749999999991 18.06 -21.60437499999999 Q18.06 -30.715000000000003 21.849375000000002 -39.583749999999995 Q25.63875 -48.4525 33.2175 -56.03124999999999 L55.308749999999996 -77.96124999999999 Q57.7275 -80.38 60.549375 -80.299375 Q63.371249999999996 -80.21875 65.78999999999999 -77.96124999999999 Q68.20875 -75.38125 68.20875 -72.55937499999999 Q68.20875 -69.73749999999998 65.78999999999999 -67.31875 L49.665 -51.193749999999994 Q58.21125000000001 -38.29374999999999 56.760000000000005 -28.13499999999999 Q55.308749999999996 -17.976249999999993 50.31 -10.074999999999989 L54.18000000000001 -6.043750000000003 Q61.597500000000004 -17.169999999999987 61.597500000000004 -27.409374999999997 Q61.597500000000004 -37.64874999999999 56.114999999999995 -49.74249999999999 L94.65375 -88.28125 Q96.91125000000001 -90.53875 99.89437500000001 -90.53875 Q102.8775 -90.53875 105.29625 -88.28125 Q107.715 -85.70124999999999 107.634375 -82.71812499999999 Q107.55375000000001 -79.735 105.29625 -77.63874999999999 L74.33625 -46.5175 L78.3675 -42.647499999999994 L119.16375000000001 -83.60499999999999 Q121.58250000000001 -86.02374999999999 124.565625 -86.02374999999999 Q127.54875 -86.02374999999999 129.80625 -83.60499999999999 Q132.225 -81.02499999999999 132.225 -78.1225 Q132.225 -75.22 129.80625 -72.80125 L89.01 -32.004999999999995 L92.88000000000001 -27.973749999999995 L128.51625 -63.61 Q130.77375 -66.02875 133.67625 -66.02875 Q136.57875 -66.02875 138.9975 -63.61 Q141.41625000000002 -61.19125 141.41625000000002 -58.369375 Q141.41625000000002 -55.5475 138.9975 -53.12875 L98.84625 -12.977499999999992 L102.71625 -9.107499999999987 L129.80625 -36.036249999999995 Q131.9025 -37.97125 134.805 -38.21312499999999 Q137.7075 -38.455 139.965 -36.036249999999995 Q142.54500000000002 -33.45625 142.38375 -30.63437499999999 Q142.2225 -27.812499999999986 139.965 -25.554999999999993 L101.91000000000001 12.66125000000001 Q94.33125 20.24000000000001 85.4625 24.029375000000016 Q76.59375 27.818749999999994 67.483125 27.818749999999994 Q58.37250000000001 27.818749999999994 49.503750000000004 24.029375000000016 Q40.635 20.24000000000001 33.2175 12.66125000000001 Z"/></g><g id="Bold-M" transform="matrix(1 0 0 1 2281.8 1126)"><path d="M88.125 26.14500000000001 V15.39500000000001 Q97.5 15.39500000000001 104.06 8.830000000000013 Q110.625 2.2700000000000102 110.625 -7.10499999999999 H121.375 Q121.375 6.64500000000001 111.625 16.39500000000001 Q101.875 26.14500000000001 88.125 26.14500000000001 Z M-1.375 -63.35499999999999 Q-1.375 -77.10499999999999 8.375 -86.85499999999999 Q18.125 -96.60499999999999 31.875 -96.60499999999999 V-85.85499999999999 Q22.5 -85.85499999999999 15.940000000000001 -79.28999999999999 Q9.375 -72.72999999999999 9.375 -63.35499999999999 H-1.375 Z M13.75 10.52000000000001 Q6.125 2.8950000000000102 2.315 -6.72999999999999 Q-1.5 -16.35499999999999 -1.5 -26.35499999999999 Q-1.5 -36.35499999999999 2.315 -45.91999999999999 Q6.125 -55.47999999999999 13.75 -63.10499999999999 L34.0 -83.22999999999999 Q36.625 -85.72999999999999 39.815 -85.79499999999999 Q43.0 -85.85499999999999 45.5 -83.35499999999999 Q48.0 -80.72999999999999 48.065 -77.47999999999999 Q48.125 -74.22999999999999 45.625 -71.72999999999999 L26.75 -52.97999999999999 Q33.25 -45.47999999999999 32.375 -37.54499999999999 Q31.5 -29.60499999999999 26.5 -24.10499999999999 L30.375 -20.22999999999999 Q36.5 -26.72999999999999 37.5 -35.16999999999999 Q38.5 -43.60499999999999 33.875 -51.97999999999999 L71.875 -89.97999999999999 Q74.375 -92.60499999999999 77.625 -92.60499999999999 Q80.875 -92.60499999999999 83.375 -89.97999999999999 Q85.875 -87.47999999999999 85.94 -84.29499999999999 Q86.0 -81.10499999999999 83.375 -78.47999999999999 L56.125 -51.35499999999999 L60.25 -47.47999999999999 L95.0 -82.10499999999999 Q97.5 -84.60499999999999 100.75 -84.60499999999999 Q104.0 -84.60499999999999 106.5 -82.10499999999999 Q109.125 -79.60499999999999 109.125 -76.35499999999999 Q109.125 -73.10499999999999 106.5 -70.60499999999999 L71.75 -35.85499999999999 L75.625 -31.97999999999999 L106.0 -62.10499999999999 Q108.5 -64.72999999999999 111.69 -64.66999999999999 Q114.875 -64.60499999999999 117.375 -62.10499999999999 Q119.875 -59.60499999999999 119.875 -56.35499999999999 Q119.875 -53.10499999999999 117.375 -50.60499999999999 L83.625 -16.72999999999999 L87.625 -12.85499999999999 L110.875 -36.22999999999999 Q113.375 -38.72999999999999 116.685 -38.669999999999995 Q120.0 -38.60499999999999 122.375 -36.22999999999999 Q125.0 -33.60499999999999 125.0 -30.419999999999987 Q125.0 -27.22999999999999 122.375 -24.60499999999999 L87.375 10.52000000000001 Q79.75 18.14500000000001 70.19 21.960000000000008 Q60.625 25.77000000000001 50.625 25.830000000000013 Q40.625 25.89500000000001 31.065 22.080000000000013 Q21.5 18.27000000000001 13.75 10.52000000000001 Z"/></g><g id="Semibold-M" transform="matrix(1 0 0 1 1985.97 1126)"><path d="M88.25 26.27000000000001 V15.52000000000001 Q97.625 15.52000000000001 104.19 8.955000000000013 Q110.75 2.3950000000000102 110.75 -6.97999999999999 H121.5 Q121.5 6.77000000000001 111.75 16.52000000000001 Q102.0 26.27000000000001 88.25 26.27000000000001 Z M-1.5 -63.47999999999999 Q-1.5 -77.22999999999999 8.25 -86.97999999999999 Q18.0 -96.72999999999999 31.75 -96.72999999999999 V-85.97999999999999 Q22.375 -85.97999999999999 15.815 -79.41999999999999 Q9.25 -72.85499999999999 9.25 -63.47999999999999 H-1.5 Z M13.75 10.39500000000001 Q6.25 2.8950000000000102 2.5 -6.6699999999999875 Q-1.25 -16.22999999999999 -1.25 -26.10499999999999 Q-1.25 -35.97999999999999 2.5 -45.41999999999999 Q6.25 -54.85499999999999 13.75 -62.35499999999999 L33.875 -82.35499999999999 Q36.25 -84.72999999999999 39.375 -84.72999999999999 Q42.5 -84.72999999999999 44.875 -82.35499999999999 Q47.25 -79.85499999999999 47.315 -76.72999999999999 Q47.375 -73.60499999999999 45.0 -71.22999999999999 L25.75 -52.10499999999999 Q32.875 -44.35499999999999 32.25 -35.97999999999999 Q31.625 -27.60499999999999 26.5 -21.60499999999999 L30.625 -17.35499999999999 Q37.125 -24.60499999999999 37.81 -33.60499999999999 Q38.5 -42.60499999999999 33.5 -51.10499999999999 L71.375 -89.10499999999999 Q73.75 -91.47999999999999 76.875 -91.47999999999999 Q80.0 -91.47999999999999 82.5 -89.10499999999999 Q84.875 -86.60499999999999 84.875 -83.47999999999999 Q84.875 -80.35499999999999 82.5 -77.97999999999999 L55.0 -50.47999999999999 L59.375 -46.35499999999999 L94.625 -81.60499999999999 Q97.125 -83.97999999999999 100.25 -83.97999999999999 Q103.375 -83.97999999999999 105.75 -81.60499999999999 Q108.25 -79.22999999999999 108.25 -76.04499999999999 Q108.25 -72.85499999999999 105.75 -70.47999999999999 L70.5 -35.10499999999999 L74.625 -30.97999999999999 L106.125 -62.22999999999999 Q108.5 -64.72999999999999 111.625 -64.66999999999999 Q114.75 -64.60499999999999 117.125 -62.22999999999999 Q119.5 -59.85499999999999 119.5 -56.66999999999999 Q119.5 -53.47999999999999 117.125 -51.10499999999999 L82.25 -16.22999999999999 L86.5 -11.97999999999999 L111.25 -36.72999999999999 Q113.625 -39.10499999999999 116.815 -39.03999999999999 Q120.0 -38.97999999999999 122.375 -36.72999999999999 Q124.875 -34.22999999999999 124.815 -31.169999999999987 Q124.75 -28.10499999999999 122.375 -25.47999999999999 L86.5 10.39500000000001 Q79.0 17.89500000000001 69.565 21.64500000000001 Q60.125 25.39500000000001 50.25 25.455000000000013 Q40.375 25.52000000000001 30.875 21.705000000000013 Q21.375 17.89500000000001 13.75 10.39500000000001 Z"/></g><g id="Medium-M" transform="matrix(1 0 0 1 1689.91 1126)"><path d="M88.375 26.39500000000001 V15.64500000000001 Q97.75 15.64500000000001 104.315 9.085000000000008 Q110.875 2.5200000000000102 110.875 -6.85499999999999 H121.625 Q121.625 6.89500000000001 111.875 16.64500000000001 Q102.125 26.39500000000001 88.375 26.39500000000001 Z M-1.625 -63.60499999999999 Q-1.625 -77.35499999999999 8.125 -87.10499999999999 Q17.875 -96.85499999999999 31.625 -96.85499999999999 V-86.10499999999999 Q22.25 -86.10499999999999 15.69 -79.54499999999999 Q9.125 -72.97999999999999 9.125 -63.60499999999999 H-1.625 Z M13.875 10.27000000000001 Q6.375 2.7700000000000102 2.625 -6.6699999999999875 Q-1.125 -16.10499999999999 -1.125 -25.85499999999999 Q-1.125 -35.60499999999999 2.625 -45.04499999999999 Q6.375 -54.47999999999999 13.875 -61.85499999999999 L33.75 -81.60499999999999 Q36.0 -83.97999999999999 39.06 -83.97999999999999 Q42.125 -83.97999999999999 44.5 -81.60499999999999 Q46.75 -79.35499999999999 46.75 -76.22999999999999 Q46.75 -73.10499999999999 44.5 -70.72999999999999 L25.0 -51.35499999999999 Q32.5 -43.60499999999999 32.125 -34.919999999999995 Q31.75 -26.22999999999999 26.375 -19.72999999999999 L30.75 -15.22999999999999 Q37.625 -22.97999999999999 38.065000000000005 -32.419999999999995 Q38.5 -41.85499999999999 33.125 -50.47999999999999 L71.0 -88.35499999999999 Q73.375 -90.72999999999999 76.44 -90.72999999999999 Q79.5 -90.72999999999999 81.75 -88.35499999999999 Q84.125 -86.10499999999999 84.125 -82.97999999999999 Q84.125 -79.85499999999999 81.75 -77.47999999999999 L54.125 -49.97999999999999 L58.75 -45.47999999999999 L94.375 -81.10499999999999 Q96.75 -83.47999999999999 99.875 -83.47999999999999 Q103.0 -83.47999999999999 105.25 -81.10499999999999 Q107.625 -78.85499999999999 107.625 -75.72999999999999 Q107.625 -72.60499999999999 105.25 -70.35499999999999 L69.625 -34.60499999999999 L73.875 -30.22999999999999 L106.25 -62.35499999999999 Q108.625 -64.85499999999999 111.625 -64.79499999999999 Q114.625 -64.72999999999999 117.0 -62.35499999999999 Q119.25 -60.10499999999999 119.25 -56.97999999999999 Q119.25 -53.85499999999999 117.0 -51.60499999999999 L81.25 -15.72999999999999 L85.75 -11.22999999999999 L111.5 -37.10499999999999 Q113.875 -39.35499999999999 116.94000000000001 -39.35499999999999 Q120.0 -39.35499999999999 122.25 -37.10499999999999 Q124.75 -34.72999999999999 124.69 -31.669999999999987 Q124.625 -28.60499999999999 122.25 -26.22999999999999 L86.0 10.27000000000001 Q78.5 17.64500000000001 69.06 21.39500000000001 Q59.625 25.14500000000001 49.875 25.14500000000001 Q40.125 25.14500000000001 30.689999999999998 21.39500000000001 Q21.25 17.64500000000001 13.875 10.27000000000001 Z"/></g><g id="Regular-M" transform="matrix(1 0 0 1 1394.06 1126)"><path d="M88.375 26.39500000000001 V15.64500000000001 Q97.75 15.64500000000001 104.315 9.085000000000008 Q110.875 2.5200000000000102 110.875 -6.85499999999999 H121.625 Q121.625 6.89500000000001 111.875 16.64500000000001 Q102.125 26.39500000000001 88.375 26.39500000000001 Z M-1.625 -63.60499999999999 Q-1.625 -77.35499999999999 8.125 -87.10499999999999 Q17.875 -96.85499999999999 31.625 -96.85499999999999 V-86.10499999999999 Q22.25 -86.10499999999999 15.69 -79.54499999999999 Q9.125 -72.97999999999999 9.125 -63.60499999999999 H-1.625 Z M13.875 10.14500000000001 Q6.5 2.7700000000000102 2.75 -6.60499999999999 Q-1.0 -15.97999999999999 -1.0 -25.669999999999987 Q-1.0 -35.35499999999999 2.6900000000000004 -44.72999999999999 Q6.375 -54.10499999999999 13.875 -61.47999999999999 L33.625 -81.10499999999999 Q35.875 -83.35499999999999 38.875 -83.35499999999999 Q41.875 -83.35499999999999 44.125 -81.10499999999999 Q46.375 -78.85499999999999 46.375 -75.79499999999999 Q46.375 -72.72999999999999 44.125 -70.47999999999999 L24.5 -50.85499999999999 Q32.25 -42.97999999999999 32.06 -34.04499999999999 Q31.875 -25.10499999999999 26.375 -18.35499999999999 L30.875 -13.72999999999999 Q38.0 -21.72999999999999 38.25 -31.544999999999987 Q38.5 -41.35499999999999 32.875 -49.97999999999999 L70.75 -87.85499999999999 Q73.0 -90.10499999999999 76.0 -90.10499999999999 Q79.0 -90.10499999999999 81.25 -87.85499999999999 Q83.5 -85.60499999999999 83.5 -82.54499999999999 Q83.5 -79.47999999999999 81.25 -77.22999999999999 L53.5 -49.47999999999999 L58.25 -44.85499999999999 L94.25 -80.85499999999999 Q96.5 -83.10499999999999 99.565 -83.10499999999999 Q102.625 -83.10499999999999 104.875 -80.85499999999999 Q107.125 -78.60499999999999 107.125 -75.54499999999999 Q107.125 -72.47999999999999 104.875 -70.22999999999999 L68.875 -34.22999999999999 L73.375 -29.60499999999999 L106.25 -62.47999999999999 Q108.625 -64.85499999999999 111.625 -64.79499999999999 Q114.625 -64.72999999999999 116.875 -62.47999999999999 Q119.125 -60.22999999999999 119.125 -57.16999999999999 Q119.125 -54.10499999999999 116.875 -51.85499999999999 L80.5 -15.47999999999999 L85.125 -10.72999999999999 L111.75 -37.35499999999999 Q114.0 -39.60499999999999 117.0 -39.60499999999999 Q120.0 -39.60499999999999 122.25 -37.35499999999999 Q124.625 -35.10499999999999 124.565 -32.10499999999999 Q124.5 -29.10499999999999 122.25 -26.72999999999999 L85.5 10.14500000000001 Q78.125 17.52000000000001 68.75 21.210000000000008 Q59.375 24.89500000000001 49.690000000000005 24.89500000000001 Q40.0 24.89500000000001 30.625 21.210000000000008 Q21.25 17.52000000000001 13.875 10.14500000000001 Z"/></g><g id="Light-M" transform="matrix(1 0 0 1 1098.18 1126)"><path d="M89.125 25.64500000000001 V16.39500000000001 Q98.375 16.14500000000001 104.81 9.64500000000001 Q111.25 3.1450000000000102 111.625 -6.10499999999999 H120.75 Q120.625 7.14500000000001 111.19 16.39500000000001 Q101.75 25.64500000000001 89.125 25.64500000000001 Z M-0.75 -64.35499999999999 Q-0.625 -77.35499999999999 8.625 -86.60499999999999 Q17.875 -95.85499999999999 30.875 -95.97999999999999 V-86.85499999999999 Q21.625 -86.60499999999999 15.19 -80.10499999999999 Q8.75 -73.60499999999999 8.375 -64.35499999999999 H-0.75 Z M17.875 7.39500000000001 Q10.75 0.39500000000001023 7.1899999999999995 -8.35499999999999 Q3.625 -17.10499999999999 3.625 -26.10499999999999 Q3.625 -35.10499999999999 7.125 -43.85499999999999 Q10.625 -52.60499999999999 17.875 -59.60499999999999 L35.875 -77.60499999999999 Q38.125 -79.85499999999999 40.875 -79.79499999999999 Q43.625 -79.72999999999999 45.75 -77.60499999999999 Q48.0 -75.35499999999999 48.0 -72.54499999999999 Q48.0 -69.72999999999999 45.75 -67.60499999999999 L29.125 -50.85499999999999 Q37.0 -41.35499999999999 36.190000000000005 -32.419999999999995 Q35.375 -23.47999999999999 30.5 -16.72999999999999 L34.625 -12.47999999999999 Q41.5 -21.35499999999999 41.625 -30.85499999999999 Q41.75 -40.35499999999999 36.375 -49.72999999999999 L71.125 -84.47999999999999 Q73.375 -86.60499999999999 76.19 -86.60499999999999 Q79.0 -86.60499999999999 81.125 -84.47999999999999 Q83.375 -82.22999999999999 83.315 -79.35499999999999 Q83.25 -76.47999999999999 81.125 -74.35499999999999 L54.75 -47.97999999999999 L59.125 -43.72999999999999 L93.75 -78.35499999999999 Q96.0 -80.60499999999999 98.81500000000001 -80.60499999999999 Q101.625 -80.60499999999999 103.875 -78.35499999999999 Q106.0 -76.22999999999999 106.0 -73.35499999999999 Q106.0 -70.47999999999999 103.875 -68.35499999999999 L69.25 -33.72999999999999 L73.25 -29.47999999999999 L104.875 -60.97999999999999 Q107.125 -63.35499999999999 109.94 -63.29499999999999 Q112.75 -63.22999999999999 114.875 -60.97999999999999 Q117.0 -58.85499999999999 117.0 -56.04499999999999 Q117.0 -53.22999999999999 114.875 -50.97999999999999 L79.875 -15.97999999999999 L84.0 -11.60499999999999 L109.375 -36.97999999999999 Q111.5 -38.97999999999999 114.25 -39.03999999999999 Q117.0 -39.10499999999999 119.125 -36.97999999999999 Q121.5 -34.72999999999999 121.375 -31.919999999999987 Q121.25 -29.10499999999999 119.125 -26.97999999999999 L84.875 7.39500000000001 Q77.875 14.52000000000001 69.125 18.02000000000001 Q60.375 21.52000000000001 51.375 21.52000000000001 Q42.375 21.52000000000001 33.625 18.02000000000001 Q24.875 14.52000000000001 17.875 7.39500000000001 Z"/></g><g id="Thin-M" transform="matrix(1 0 0 1 802.565 1126)"><path d="M89.875 24.89500000000001 V17.14500000000001 Q99.0 16.64500000000001 105.31 10.205000000000013 Q111.625 3.7700000000000102 112.375 -5.35499999999999 H120.0 Q119.5 7.27000000000001 110.5 16.080000000000013 Q101.5 24.89500000000001 89.875 24.89500000000001 Z M0.0 -65.10499999999999 Q0.5 -77.47999999999999 9.125 -86.10499999999999 Q17.75 -94.72999999999999 30.125 -95.22999999999999 V-87.60499999999999 Q21.0 -87.10499999999999 14.690000000000001 -80.66999999999999 Q8.375 -74.22999999999999 7.625 -65.10499999999999 H0.0 Z M21.75 4.77000000000001 Q15.0 -1.9799999999999898 11.625 -10.10499999999999 Q8.25 -18.22999999999999 8.25 -26.539999999999992 Q8.25 -34.85499999999999 11.559999999999999 -42.97999999999999 Q14.875 -51.10499999999999 21.75 -57.85499999999999 L38.25 -74.22999999999999 Q40.375 -76.35499999999999 42.875 -76.22999999999999 Q45.375 -76.10499999999999 47.5 -74.10499999999999 Q49.625 -71.97999999999999 49.625 -69.35499999999999 Q49.625 -66.72999999999999 47.5 -64.60499999999999 L33.625 -50.72999999999999 Q41.625 -39.85499999999999 40.19 -30.85499999999999 Q38.75 -21.85499999999999 34.5 -15.10499999999999 L38.25 -11.22999999999999 Q45.125 -20.97999999999999 45.06 -30.10499999999999 Q45.0 -39.22999999999999 40.0 -49.35499999999999 L71.625 -80.97999999999999 Q73.625 -83.10499999999999 76.315 -83.10499999999999 Q79.0 -83.10499999999999 81.0 -80.97999999999999 Q83.25 -78.85499999999999 83.125 -76.16999999999999 Q83.0 -73.47999999999999 81.0 -71.60499999999999 L56.0 -46.47999999999999 L60.125 -42.60499999999999 L93.25 -75.97999999999999 Q95.5 -78.10499999999999 98.125 -78.10499999999999 Q100.75 -78.10499999999999 102.75 -75.97999999999999 Q104.875 -73.85499999999999 104.875 -71.16999999999999 Q104.875 -68.47999999999999 102.75 -66.35499999999999 L69.5 -33.22999999999999 L73.125 -29.35499999999999 L103.5 -59.60499999999999 Q105.625 -61.72999999999999 108.19000000000001 -61.66999999999999 Q110.75 -61.60499999999999 112.875 -59.60499999999999 Q115.0 -57.47999999999999 115.0 -54.919999999999995 Q115.0 -52.35499999999999 112.875 -50.22999999999999 L79.125 -16.47999999999999 L82.875 -12.60499999999999 L107.0 -36.47999999999999 Q108.875 -38.35499999999999 111.44 -38.47999999999999 Q114.0 -38.60499999999999 116.125 -36.47999999999999 Q118.375 -34.35499999999999 118.19000000000001 -31.789999999999985 Q118.0 -29.22999999999999 116.125 -27.10499999999999 L84.375 4.77000000000001 Q77.625 11.52000000000001 69.5 14.835000000000022 Q61.375 18.14500000000001 53.065 18.14500000000001 Q44.75 18.14500000000001 36.625 14.835000000000022 Q28.5 11.52000000000001 21.75 4.77000000000001 Z"/></g><g id="Ultralight-M" transform="matrix(1 0 0 1 506.415 1126)"><path d="M90.375 24.39500000000001 V17.52000000000001 Q99.375 16.89500000000001 105.625 10.52000000000001 Q111.875 4.14500000000001 112.75 -4.85499999999999 H119.5 Q118.875 7.39500000000001 110.06500000000001 15.89500000000001 Q101.25 24.39500000000001 90.375 24.39500000000001 Z M0.5 -65.60499999999999 Q1.125 -77.47999999999999 9.44 -85.79499999999999 Q17.75 -94.10499999999999 29.625 -94.72999999999999 V-87.97999999999999 Q20.625 -87.35499999999999 14.375 -80.97999999999999 Q8.125 -74.60499999999999 7.25 -65.60499999999999 H0.5 Z M24.125 3.1450000000000102 Q17.625 -3.3549999999999898 14.315 -11.10499999999999 Q11.0 -18.85499999999999 11.0 -26.789999999999992 Q11.0 -34.72999999999999 14.25 -42.47999999999999 Q17.5 -50.22999999999999 24.125 -56.72999999999999 L39.625 -72.10499999999999 Q41.75 -74.22999999999999 44.125 -74.10499999999999 Q46.5 -73.97999999999999 48.5 -71.97999999999999 Q50.625 -69.85499999999999 50.625 -67.41999999999999 Q50.625 -64.97999999999999 48.5 -62.85499999999999 L36.375 -50.72999999999999 Q44.5 -38.85499999999999 42.69 -29.85499999999999 Q40.875 -20.85499999999999 37.0 -14.10499999999999 L40.5 -10.47999999999999 Q47.25 -20.72999999999999 47.065 -29.664999999999992 Q46.875 -38.60499999999999 42.125 -49.22999999999999 L71.875 -78.97999999999999 Q73.875 -80.97999999999999 76.44 -80.97999999999999 Q79.0 -80.97999999999999 81.0 -78.97999999999999 Q83.125 -76.85499999999999 83.0 -74.29499999999999 Q82.875 -71.72999999999999 81.0 -69.85499999999999 L56.75 -45.60499999999999 L60.625 -41.97999999999999 L93.0 -74.47999999999999 Q95.125 -76.60499999999999 97.625 -76.60499999999999 Q100.125 -76.60499999999999 102.125 -74.47999999999999 Q104.25 -72.35499999999999 104.25 -69.85499999999999 Q104.25 -67.35499999999999 102.125 -65.22999999999999 L69.75 -32.85499999999999 L73.125 -29.22999999999999 L102.625 -58.72999999999999 Q104.75 -60.85499999999999 107.19 -60.794999999999995 Q109.625 -60.72999999999999 111.625 -58.72999999999999 Q113.75 -56.60499999999999 113.75 -54.22999999999999 Q113.75 -51.85499999999999 111.625 -49.72999999999999 L78.75 -16.72999999999999 L82.25 -13.10499999999999 L105.5 -36.22999999999999 Q107.375 -37.97999999999999 109.815 -38.16999999999999 Q112.25 -38.35499999999999 114.25 -36.22999999999999 Q116.5 -34.10499999999999 116.31500000000001 -31.669999999999987 Q116.125 -29.22999999999999 114.25 -27.22999999999999 L84.0 3.1450000000000102 Q77.5 9.64500000000001 69.75 12.89500000000001 Q62.0 16.14500000000001 54.059999999999995 16.14500000000001 Q46.125 16.14500000000001 38.375 12.89500000000001 Q30.625 9.64500000000001 24.125 3.1450000000000102 Z"/></g><g id="Bold-S" transform="matrix(1 0 0 1 2294.23 696)"><path d="M68.742414 12.403508000000016 V5.1084140000000104 Q76.63399199999999 5.1084140000000104 82.153836 -0.41616399999999487 Q87.678414 -5.936008000000001 87.678414 -13.827585999999997 H94.97350800000001 Q94.97350800000001 -2.981991999999991 87.28549199999999 4.715491999999998 Q79.588008 12.403508000000016 68.742414 12.403508000000016 Z M-0.293508 -56.632414 Q-0.293508 -67.47800799999999 7.394508 -75.17549199999999 Q15.091992000000001 -82.863508 25.937586 -82.863508 V-75.56841399999999 Q18.046008 -75.56841399999999 12.526164 -70.043836 Q7.0015860000000005 -64.52399199999999 7.0015860000000005 -56.632414 H-0.293508 Z M11.835 -0.11792199999999298 Q5.718672 -6.234249999999989 2.660508 -13.926999999999992 Q-0.392922 -21.619749999999996 -0.392922 -29.658081999999993 Q-0.392922 -37.696414 2.660508 -45.33708999999999 Q5.718672 -52.982499999999995 11.835 -59.098828 L28.205172 -75.17549199999999 Q30.278664 -77.144836 32.59359 -77.09749599999999 Q34.91325 -77.04542199999999 36.787914 -75.17549199999999 Q38.761992 -73.10199999999999 38.809332000000005 -70.73499999999999 Q38.856672 -68.368 36.887328 -66.39392199999999 L21.303 -50.90900799999999 Q26.926992 -44.69799999999999 25.890246 -38.23608999999999 Q24.8535 -31.778914 21.402414 -27.835491999999995 L25.052328 -24.185577999999992 Q30.278664 -30.003664 30.969828 -36.512913999999995 Q31.660992 -43.022164 28.110491999999997 -50.02374999999999 L58.285008 -80.20299999999999 Q60.159672 -82.177078 62.67816 -82.177078 Q65.191914 -82.177078 67.06657799999999 -80.10358599999999 Q69.035922 -78.12950799999999 68.936508 -75.71516799999999 Q68.84182799999999 -73.300828 66.967164 -71.426164 L45.365922 -49.924336 L49.314078 -46.17500799999999 L76.33575 -73.10199999999999 Q78.30982800000001 -75.076078 80.72416799999999 -75.076078 Q83.138508 -75.076078 85.112586 -73.10199999999999 Q87.18607800000001 -71.127922 87.18607800000001 -68.71358199999999 Q87.18607800000001 -66.294508 85.112586 -64.325164 L58.090914000000005 -37.398171999999995 L61.641414000000005 -33.752992 L85.212 -57.12474999999999 Q87.086664 -59.098828 89.55307800000001 -59.04675399999999 Q92.019492 -58.999413999999994 93.889422 -57.12474999999999 Q95.8635 -55.15067199999999 95.8635 -52.73633199999999 Q95.8635 -50.321991999999995 93.889422 -48.347913999999996 L67.165992 -21.420921999999997 L70.910586 -17.87042199999999 L88.563672 -35.622921999999996 Q90.338922 -37.398171999999995 92.85740999999999 -37.45024599999999 Q95.37116400000001 -37.49758599999999 97.245828 -35.622921999999996 Q99.31458599999999 -33.554164 99.215172 -31.087749999999993 Q99.120492 -28.621335999999992 97.245828 -26.746671999999997 L70.811172 -0.11792199999999298 Q64.699578 5.993672000000004 57.054168 9.051836000000009 Q49.413492000000005 12.110000000000014 41.37516 12.15734000000002 Q33.336828 12.20941400000001 25.691418 9.151250000000005 Q18.046008 6.093086 11.835 -0.11792199999999298 Z"/></g><g id="Semibold-S" transform="matrix(1 0 0 1 1998.1 696)"><path d="M68.84182799999999 12.502921999999998 V5.2078280000000206 Q76.72867199999999 5.2078280000000206 82.25325 -0.316749999999999 Q87.77782800000001 -5.841328000000004 87.77782800000001 -13.728172 H95.07292199999999 Q95.07292199999999 -2.882577999999995 87.38017199999999 4.810171999999994 Q79.687422 12.502921999999998 68.84182799999999 12.502921999999998 Z M-0.392922 -56.73182799999999 Q-0.392922 -67.577422 7.299828 -75.27017199999999 Q14.992578 -82.96292199999999 25.838172 -82.96292199999999 V-75.66782799999999 Q17.951328 -75.66782799999999 12.42675 -70.14325 Q6.902172 -64.61867199999999 6.902172 -56.73182799999999 H-0.392922 Z M11.835 -0.21733599999998887 Q5.818086 -6.234249999999989 2.8119959999999997 -13.879660000000001 Q-0.198828 -21.520335999999986 -0.198828 -29.459253999999994 Q-0.198828 -37.398171999999995 2.8119959999999997 -44.94416799999999 Q5.818086 -52.49016399999999 11.835 -58.50707799999999 L28.110491999999997 -74.48432799999999 Q29.980422 -76.35899199999999 32.248008 -76.25957799999999 Q34.520328 -76.160164 36.295578 -74.384914 Q38.165507999999996 -72.41083599999999 38.217582 -70.14325 Q38.264922 -67.875664 36.394992 -66.00099999999999 L20.512422 -50.22257799999999 Q26.62875 -43.808007999999994 25.790832 -37.00525 Q24.952914 -30.202492 21.402414 -25.861413999999996 L25.246422 -21.917991999999998 Q30.771 -28.32782799999999 31.215996 -35.277339999999995 Q31.660992 -42.23158599999999 27.81225 -49.33258599999999 L57.892086 -79.51183599999999 Q59.667336 -81.28708599999999 62.08641 -81.28708599999999 Q64.50075 -81.28708599999999 66.375414 -79.41242199999999 Q68.250078 -77.443078 68.09859 -75.076078 Q67.951836 -72.70907799999999 66.276 -71.02850799999999 L44.480664000000004 -49.233171999999996 L48.622914 -45.28974999999999 L76.037508 -72.70907799999999 Q78.011586 -74.57900799999999 80.33124600000001 -74.57900799999999 Q82.64617199999999 -74.57900799999999 84.520836 -72.70907799999999 Q86.49491400000001 -70.834414 86.49491400000001 -68.46741399999999 Q86.49491400000001 -66.100414 84.520836 -64.22574999999999 L57.101507999999995 -36.80642199999999 L60.850835999999994 -32.962413999999995 L85.311414 -57.22416399999999 Q87.086664 -59.098828 89.501004 -59.04675399999999 Q91.920078 -58.999413999999994 93.695328 -57.22416399999999 Q95.569992 -55.34949999999999 95.569992 -52.982499999999995 Q95.569992 -50.6155 93.695328 -48.740835999999994 L66.077172 -21.02799999999999 L70.025328 -17.18399199999999 L88.861914 -36.02057799999999 Q90.53775 -37.696414 92.95209000000001 -37.743753999999996 Q95.37116400000001 -37.79582799999999 97.245828 -36.02057799999999 Q99.215172 -34.046499999999995 99.068418 -31.67949999999999 Q98.921664 -29.312499999999993 97.245828 -27.43783599999999 L70.120008 -0.21733599999998887 Q64.107828 5.799578000000011 56.561832 8.805668000000011 Q49.01583599999999 11.816491999999997 41.076918 11.863832000000002 Q33.138 11.911171999999993 25.544664 8.853008000000017 Q17.951328 5.799578000000011 11.835 -0.21733599999998887 Z"/></g><g id="Medium-S" transform="matrix(1 0 0 1 1701.85 696)"><path d="M68.936508 12.602336000000008 V5.302508000000017 Q76.828086 5.302508000000017 82.352664 -0.21733599999998887 Q87.87250800000001 -5.741913999999994 87.87250800000001 -13.63349199999999 H95.172336 Q95.172336 -2.7831639999999993 87.479586 4.9095860000000044 Q79.786836 12.602336000000008 68.936508 12.602336000000008 Z M-0.492336 -56.82650799999999 Q-0.492336 -67.676836 7.200413999999999 -75.369586 Q14.893163999999999 -83.06233599999999 25.743492 -83.06233599999999 V-75.762508 Q17.851914 -75.762508 12.327336 -70.24266399999999 Q6.807492 -64.718086 6.807492 -56.82650799999999 H-0.492336 Z M11.934414 -0.316749999999999 Q5.9175 -6.333663999999999 2.91141 -13.879660000000001 Q-0.099414 -21.420921999999997 -0.099414 -29.265159999999995 Q-0.099414 -37.104664 2.91141 -44.650659999999995 Q5.9175 -52.19192199999999 11.934414 -58.109421999999995 L28.011077999999998 -73.89257799999999 Q29.786327999999997 -75.762508 32.00184 -75.66782799999999 Q34.222086 -75.56841399999999 35.997336 -73.79316399999999 Q37.772586 -72.01791399999999 37.772586 -69.750328 Q37.772586 -67.47800799999999 35.997336 -65.60807799999999 L19.920672 -49.630827999999994 Q26.330508000000002 -43.220991999999995 25.691418 -36.167331999999995 Q25.052328 -29.113671999999994 21.303 -24.379671999999992 L25.345836000000002 -20.237421999999995 Q31.163922 -27.044914 31.41009 -34.34000799999999 Q31.660992 -41.63983599999999 27.514008 -48.84024999999999 L57.598577999999996 -78.920086 Q59.373827999999996 -80.695336 61.740828 -80.695336 Q64.107828 -80.695336 65.783664 -78.82067199999999 Q67.658328 -77.04542199999999 67.50684 -74.678422 Q67.360086 -72.311422 65.68425 -70.63558599999999 L43.7895 -48.84024999999999 L48.130578 -44.59858599999999 L75.84341400000001 -72.311422 Q77.718078 -74.18608599999999 80.03300399999999 -74.18608599999999 Q82.352664 -74.18608599999999 84.127914 -72.311422 Q86.00257800000001 -70.536172 86.00257800000001 -68.221246 Q86.00257800000001 -65.901586 84.127914 -64.126336 L56.415078 -36.41349999999999 L60.259085999999996 -32.370664 L85.41082800000001 -57.323578 Q87.18607800000001 -59.193507999999994 89.501004 -59.14616799999999 Q91.82066400000001 -59.098828 93.59591400000001 -57.323578 Q95.37116400000001 -55.54832799999999 95.37116400000001 -53.22866799999999 Q95.37116400000001 -50.90900799999999 93.59591400000001 -49.13849199999999 L65.291328 -20.635077999999993 L69.433578 -16.587507999999985 L89.056008 -36.31408599999999 Q90.73657800000001 -37.89050799999999 93.051504 -37.98992199999999 Q95.37116400000001 -38.08933599999999 97.14641400000001 -36.31408599999999 Q99.120492 -34.43942199999999 98.969004 -32.072421999999996 Q98.82225 -29.70542199999999 97.14641400000001 -28.029585999999988 L69.727086 -0.316749999999999 Q63.710172 5.600750000000005 56.168910000000004 8.60684000000002 Q48.622914 11.617664000000005 40.78341 11.617664000000005 Q32.939172 11.617664000000005 25.39791 8.60684000000002 Q17.851914 5.600750000000005 11.934414 -0.316749999999999 Z"/></g><g id="Regular-S" transform="matrix(1 0 0 1 1405.73 696)"><path d="M68.936508 12.602336000000008 V5.302508000000017 Q76.828086 5.302508000000017 82.352664 -0.21733599999998887 Q87.87250800000001 -5.741913999999994 87.87250800000001 -13.63349199999999 H95.172336 Q95.172336 -2.7831639999999993 87.479586 4.9095860000000044 Q79.786836 12.602336000000008 68.936508 12.602336000000008 Z M-0.492336 -56.82650799999999 Q-0.492336 -67.676836 7.200413999999999 -75.369586 Q14.893163999999999 -83.06233599999999 25.743492 -83.06233599999999 V-75.762508 Q17.851914 -75.762508 12.327336 -70.24266399999999 Q6.807492 -64.718086 6.807492 -56.82650799999999 H-0.492336 Z M11.934414 -0.41616399999999487 Q6.016914 -6.333663999999999 3.00609 -13.827585999999997 Q0.0 -21.321507999999987 0.0 -29.113671999999994 Q0.0 -36.90583599999999 2.95875 -44.404492 Q5.9175 -51.89841399999999 11.934414 -57.81591399999999 L27.911664 -73.49492199999999 Q29.686913999999998 -75.27017199999999 31.855086 -75.17075799999999 Q34.027992 -75.076078 35.703828 -73.39550799999999 Q37.479078 -71.62499199999999 37.479078 -69.40474599999999 Q37.479078 -67.18449999999999 35.703828 -65.40924999999999 L19.52775 -49.233171999999996 Q26.136414 -42.723921999999995 25.644078 -35.476167999999994 Q25.147008 -28.228413999999994 21.303 -23.295585999999993 L25.44525 -19.053921999999993 Q31.462163999999998 -26.05550799999999 31.561578 -33.653577999999996 Q31.660992 -41.246914 27.319914 -48.44732799999999 L57.39975 -78.527164 Q59.075585999999994 -80.20299999999999 61.395246 -80.20299999999999 Q63.710172 -80.20299999999999 65.386008 -78.42774999999999 Q67.165992 -76.65249999999999 67.014504 -74.33283999999999 Q66.86775 -72.01791399999999 65.291328 -70.441492 L43.297164 -48.44732799999999 L47.732922 -44.106249999999996 L75.744 -72.11732799999999 Q77.51925 -73.89257799999999 79.786836 -73.89257799999999 Q82.05442199999999 -73.89257799999999 83.82967199999999 -72.11732799999999 Q85.60492199999999 -70.34207799999999 85.60492199999999 -68.069758 Q85.60492199999999 -65.802172 83.82967199999999 -64.026922 L55.823328 -36.119991999999996 L59.866164000000005 -31.87832799999999 L85.41082800000001 -57.422991999999994 Q87.18607800000001 -59.193507999999994 89.501004 -59.14616799999999 Q91.82066400000001 -59.098828 93.4965 -57.422991999999994 Q95.27175 -55.643007999999995 95.27175 -53.37542199999999 Q95.27175 -51.10783599999999 93.4965 -49.33258599999999 L64.699578 -20.436249999999994 L68.936508 -16.194585999999987 L89.254836 -36.512913999999995 Q90.83599199999999 -38.08933599999999 93.10357800000001 -38.18874999999999 Q95.37116400000001 -38.288163999999995 97.14641400000001 -36.512913999999995 Q99.021078 -34.737663999999995 98.86959 -32.418003999999996 Q98.722836 -30.10307799999999 97.14641400000001 -28.422507999999993 L69.334164 -0.41616399999999487 Q63.416664000000004 5.501336000000009 55.918008 8.460086000000004 Q48.424085999999996 11.418835999999999 40.631922 11.418835999999999 Q32.844491999999995 11.418835999999999 25.345836000000002 8.460086000000004 Q17.851914 5.501336000000009 11.934414 -0.41616399999999487 Z"/></g><g id="Light-S" transform="matrix(1 0 0 1 1109.75 696)"><path d="M69.53299200000001 12.010586000000004 V5.898992000000007 Q77.320422 5.700164000000015 82.745586 0.2276600000000002 Q88.17075 -5.249578 88.468992 -13.037007999999986 H94.48117199999999 Q94.38649199999999 -2.5843359999999933 86.93991 4.715491999999998 Q79.493328 12.010586000000004 69.53299200000001 12.010586000000004 Z M0.198828 -57.422991999999994 Q0.293508 -67.676836 7.593336000000001 -74.976664 Q14.893163999999999 -82.27649199999999 25.147008 -82.37117199999999 V-76.35899199999999 Q17.359578 -76.160164 11.934414 -70.68766 Q6.50925 -65.210422 6.2110080000000005 -57.422991999999994 H0.198828 Z M15.091992000000001 -2.5843359999999933 Q9.368586 -8.208327999999995 6.50925 -15.209913999999998 Q3.649914 -22.211499999999994 3.649914 -29.459253999999994 Q3.649914 -36.70700799999999 6.46191 -43.71332799999999 Q9.269172 -50.71491399999999 15.091992000000001 -56.334171999999995 L29.686913999999998 -70.73499999999999 Q31.462163999999998 -72.51025 33.431508 -72.363496 Q35.405586 -72.212008 36.982008 -70.63558599999999 Q38.761992 -68.86033599999999 38.761992 -66.83891799999999 Q38.761992 -64.8175 36.982008 -63.14166399999999 L23.177664 -49.233171999999996 Q29.881008 -41.44100799999999 28.896336 -34.193253999999996 Q27.911664 -26.945499999999996 24.559991999999998 -22.012671999999995 L28.404 -18.069249999999997 Q34.222086 -25.761999999999993 34.222086 -33.10916799999999 Q34.222086 -40.456335999999986 30.079836 -48.24849999999999 L57.697992 -75.86192199999999 Q59.373827999999996 -77.443078 61.542 -77.443078 Q63.710172 -77.443078 65.291328 -75.762508 Q67.06657799999999 -73.991992 66.86775 -71.819086 Q66.668922 -69.650914 65.191914 -68.16917199999999 L44.281836 -47.26382799999999 L48.424085999999996 -43.220991999999995 L75.351078 -70.14325 Q77.126328 -71.9185 79.19508599999999 -71.9185 Q81.268578 -71.9185 83.043828 -70.14325 Q84.71966400000001 -68.46741399999999 84.71966400000001 -66.346582 Q84.71966400000001 -64.22574999999999 83.043828 -62.549913999999994 L56.116836 -35.72233599999999 L59.76675 -31.778914 L84.32200800000001 -56.23949199999999 Q86.00257800000001 -58.010008 88.17075 -57.962667999999994 Q90.338922 -57.91532799999999 91.920078 -56.23949199999999 Q93.59591400000001 -54.558921999999995 93.59591400000001 -52.49016399999999 Q93.59591400000001 -50.41667199999999 91.920078 -48.64142199999999 L64.202508 -20.829171999999993 L68.05125 -16.885749999999987 L87.38017199999999 -36.21467199999999 Q88.861914 -37.596999999999994 90.93067199999999 -37.743753999999996 Q93.004164 -37.89050799999999 94.68 -36.21467199999999 Q96.554664 -34.43942199999999 96.355836 -32.271249999999995 Q96.157008 -30.10307799999999 94.68 -28.621335999999992 L68.84182799999999 -2.5843359999999933 Q63.217836 3.1343360000000047 56.21625 5.946332000000012 Q49.214664000000006 8.75832800000002 41.96691 8.75832800000002 Q34.714422 8.75832800000002 27.712836 5.946332000000012 Q20.71125 3.1343360000000047 15.091992000000001 -2.5843359999999933 Z"/></g><g id="Thin-S" transform="matrix(1 0 0 1 814.015 696)"><path d="M70.120008 11.418835999999999 V6.486008000000012 Q77.81749199999999 6.093086 83.138508 0.6679220000000043 Q88.468992 -4.752508000000006 89.056008 -12.449991999999995 H93.889422 Q93.4965 -2.484921999999983 86.3955 4.464590000000015 Q79.2945 11.418835999999999 70.120008 11.418835999999999 Z M0.790578 -58.010008 Q1.1835 -67.77624999999999 7.990991999999999 -74.57900799999999 Q14.79375 -81.3865 24.559991999999998 -81.779422 V-76.94600799999999 Q16.862508 -76.553086 11.541492000000002 -71.127922 Q6.2110080000000005 -65.707492 5.623991999999999 -58.010008 H0.790578 Z M18.145422 -4.657827999999995 Q12.724992 -10.08299199999999 10.012410000000001 -16.587507999999985 Q7.299828 -23.101491999999993 7.299828 -29.804835999999987 Q7.299828 -36.512913999999995 9.960336 -43.022164 Q12.625577999999999 -49.53141399999999 18.145422 -54.95657799999999 L31.561578 -68.07449199999999 Q33.237414 -69.750328 35.012664 -69.55149999999999 Q36.787914 -69.352672 38.364335999999994 -67.875664 Q40.040172 -66.199828 40.040172 -64.325164 Q40.040172 -62.45049999999999 38.364335999999994 -60.774663999999994 L26.728164 -49.13849199999999 Q33.530922000000004 -40.25750799999999 32.053914 -32.962413999999995 Q30.572172000000002 -25.66258599999999 27.712836 -20.734491999999996 L31.263336 -17.084577999999993 Q37.081422 -25.468491999999998 36.934667999999995 -32.51741799999999 Q36.787914 -39.57107799999999 32.939172 -47.95499199999999 L58.090914000000005 -73.10199999999999 Q59.567922 -74.678422 61.641414000000005 -74.678422 Q63.710172 -74.678422 65.191914 -73.002586 Q66.967164 -71.32674999999999 66.720996 -69.30533199999999 Q66.474828 -67.283914 65.0925 -66.00099999999999 L45.266507999999995 -46.080327999999994 L49.214664000000006 -42.330999999999996 L74.953422 -68.268586 Q76.72867199999999 -69.94442199999999 78.65540999999999 -69.94442199999999 Q80.577414 -69.94442199999999 82.153836 -68.268586 Q83.82967199999999 -66.59275 83.82967199999999 -64.61867199999999 Q83.82967199999999 -62.649328 82.153836 -60.97349199999999 L56.315664000000005 -35.329414 L59.667336 -31.67949999999999 L83.237922 -55.15067199999999 Q84.819078 -56.73182799999999 86.788422 -56.67975399999999 Q88.7625 -56.632414 90.338922 -55.15067199999999 Q92.019492 -53.474835999999996 92.019492 -51.60017199999999 Q92.019492 -49.725508 90.338922 -48.049671999999994 L63.615492 -21.22682799999999 L67.165992 -17.676327999999998 L85.505508 -35.821749999999994 Q86.788422 -37.104664 88.71516 -37.303492 Q90.637164 -37.49758599999999 92.313 -35.821749999999994 Q94.08825 -34.145914 93.842082 -32.17183599999999 Q93.59591400000001 -30.202492 92.313 -28.720749999999995 L68.444172 -4.657827999999995 Q63.019008 0.7673360000000002 56.514492000000004 3.432578000000021 Q50.000507999999996 6.093086 43.297164 6.093086 Q36.589086 6.093086 30.079836 3.432578000000021 Q23.570586 0.7673360000000002 18.145422 -4.657827999999995 Z"/></g><g id="Ultralight-S" transform="matrix(1 0 0 1 517.792 696)"><path d="M70.51766400000001 11.025914000000014 V6.78425 Q78.111 6.291914000000006 83.38941 0.9140900000000158 Q88.66308599999999 -4.458999999999989 89.35425 -12.052335999999983 H93.4965 Q93.004164 -2.3855080000000015 86.04991799999999 4.317836 Q79.095672 11.025914000000014 70.51766400000001 11.025914000000014 Z M1.1835 -58.407664 Q1.6758359999999999 -67.77624999999999 8.23716 -74.33283999999999 Q14.79375 -80.89416399999999 24.162336 -81.3865 V-77.24425 Q16.569 -76.751914 11.290589999999998 -71.37409 Q6.016914 -66.00099999999999 5.32575 -58.407664 H1.1835 Z M20.020086 -5.936008000000001 Q14.79375 -11.16707799999999 12.128507999999998 -17.378085999999996 Q9.468 -23.593827999999995 9.468 -30.003664 Q9.468 -36.41349999999999 12.081168 -42.62450799999999 Q14.694336 -48.84024999999999 20.020086 -54.066585999999994 L32.645664 -66.39392199999999 Q34.3215 -68.07449199999999 35.997336 -67.875664 Q37.673172 -67.676836 39.154914000000005 -66.199828 Q40.83075 -64.52399199999999 40.83075 -62.796082 Q40.83075 -61.06817199999999 39.154914000000005 -59.39233599999999 L28.896336 -49.13849199999999 Q35.798508 -39.471664 34.027992 -32.17183599999999 Q32.248008 -24.872007999999994 29.686913999999998 -19.943914 L33.038586 -16.49282799999999 Q38.761992 -25.269664 38.511089999999996 -32.17183599999999 Q38.264922 -39.07400799999999 34.615008 -47.855577999999994 L58.285008 -71.525578 Q59.76675 -73.002586 61.740828 -73.002586 Q63.710172 -73.002586 65.191914 -71.426164 Q66.86775 -69.750328 66.621582 -67.82359 Q66.375414 -65.901586 65.0925 -64.61867199999999 L45.862992000000006 -45.389163999999994 L49.607586 -41.838663999999994 L74.759328 -67.08508599999999 Q76.435164 -68.760922 78.25775399999999 -68.760922 Q80.08507800000001 -68.760922 81.6615 -67.08508599999999 Q83.337336 -65.40924999999999 83.337336 -63.586659999999995 Q83.337336 -61.75933599999999 81.6615 -60.083499999999994 L56.514492000000004 -35.03117199999999 L59.667336 -31.580085999999987 L82.551492 -54.459508 Q84.127914 -56.04066399999999 86.00257800000001 -55.98858999999999 Q87.87250800000001 -55.94125 89.35425 -54.459508 Q91.030086 -52.783671999999996 91.030086 -51.06049599999999 Q91.030086 -49.33258599999999 89.35425 -47.656749999999995 L63.31725 -21.420921999999997 L66.668922 -18.069249999999997 L84.32200800000001 -35.622921999999996 Q85.60492199999999 -36.80642199999999 87.432246 -37.052589999999995 Q89.254836 -37.303492 90.83599199999999 -35.622921999999996 Q92.606508 -33.94708599999999 92.36034000000001 -32.072421999999996 Q92.114172 -30.202492 90.83599199999999 -28.820164 L68.150664 -5.936008000000001 Q62.924327999999996 -0.7096719999999834 56.708586 1.9034960000000183 Q50.497578 4.516664000000006 44.083008 4.516664000000006 Q37.673172 4.516664000000006 31.462163999999998 1.9034960000000183 Q25.246422 -0.7096719999999834 20.020086 -5.936008000000001 Z"/></g></g></svg>