<svg xmlns="http://www.w3.org/2000/svg" version="1.1" width="3300" height="2000"><g id="Notes"><style>
    text {
      font-family: monospace;
      text-anchor: middle;
    }
    text.emphasis {
      font-weight:bold;
    }
    text.lanchor {
      text-anchor: start;
    }
  </style><rect height="2200" id="artboard" fill="white" width="3300" x="0" y="0"/><line id="" style="fill:none;stroke:black;stroke-width:0.5;" x1="263" x2="3036" y1="292" y2="292"/><text class="lanchor emphasis" transform="matrix(1 0 0 1 263 322)">Weight/Scale Variations</text><text transform="matrix(1 0 0 1 559.711 322)">Ultralight</text><text transform="matrix(1 0 0 1 856.422 322)">Thin</text><text transform="matrix(1 0 0 1 1153.13 322)">Light</text><text transform="matrix(1 0 0 1 1449.84 322)">Regular</text><text transform="matrix(1 0 0 1 1746.56 322)">Medium</text><text transform="matrix(1 0 0 1 2043.27 322)">Semibold</text><text transform="matrix(1 0 0 1 2339.98 322)">Bold</text><text transform="matrix(1 0 0 1 2636.69 322)">Heavy</text><text transform="matrix(1 0 0 1 2933.4 322)">Black</text><text id="template-version" style="text-anchor: end;" transform="matrix(1 0 0 1 3036 1933)">Template v.1.0</text><text class="lanchor" transform="matrix(1 0 0 1 263 726)">Small</text><text class="lanchor" transform="matrix(1 0 0 1 263 1156)">Medium</text><text class="lanchor" transform="matrix(1 0 0 1 263 1586)">Large</text></g><g id="Guides"><g id="H-reference" style="fill:#27AAE1;stroke:none;" transform="matrix(1 0 0 1 339 696)"><path d="M 54.9316 0 L 57.666 0 L 30.5664 -70.459 L 28.0762 -70.459 L 0.976562 0 L 3.66211 0 L 12.9395 -24.4629 L 45.7031 -24.4629 Z M 29.1992 -67.0898 L 29.4434 -67.0898 L 44.8242 -26.709 L 13.8184 -26.709 Z"/></g><line id="Baseline-S" style="fill:none;stroke:#27AAE1;opacity:1;stroke-width:0.577;" x1="263" x2="3036" y1="696" y2="696"/><line id="Capline-S" style="fill:none;stroke:#27AAE1;opacity:1;stroke-width:0.577;" x1="263" x2="3036" y1="625.541" y2="625.541"/><g id="H-reference" style="fill:#27AAE1;stroke:none;" transform="matrix(1 0 0 1 339 1126)"><path d="M 54.9316 0 L 57.666 0 L 30.5664 -70.459 L 28.0762 -70.459 L 0.976562 0 L 3.66211 0 L 12.9395 -24.4629 L 45.7031 -24.4629 Z M 29.1992 -67.0898 L 29.4434 -67.0898 L 44.8242 -26.709 L 13.8184 -26.709 Z"/></g><line id="Baseline-M" style="fill:none;stroke:#27AAE1;opacity:1;stroke-width:0.577;" x1="263" x2="3036" y1="1126" y2="1126"/><line id="Capline-M" style="fill:none;stroke:#27AAE1;opacity:1;stroke-width:0.577;" x1="263" x2="3036" y1="1055.54" y2="1055.54"/><g id="H-reference" style="fill:#27AAE1;stroke:none;" transform="matrix(1 0 0 1 339 1556)"><path d="M 54.9316 0 L 57.666 0 L 30.5664 -70.459 L 28.0762 -70.459 L 0.976562 0 L 3.66211 0 L 12.9395 -24.4629 L 45.7031 -24.4629 Z M 29.1992 -67.0898 L 29.4434 -67.0898 L 44.8242 -26.709 L 13.8184 -26.709 Z"/></g><line id="Baseline-L" style="fill:none;stroke:#27AAE1;opacity:1;stroke-width:0.577;" x1="263" x2="3036" y1="1556" y2="1556"/><line id="Capline-L" style="fill:none;stroke:#27AAE1;opacity:1;stroke-width:0.577;" x1="263" x2="3036" y1="1485.54" y2="1485.54"/><rect height="119.336" id="left-margin" style="fill:darkred;stroke:none;opacity:0.4;" width="12.4512" x="1394.06" y="1030.79"/><rect height="119.336" id="right-margin" style="fill:darkgreen;stroke:none;opacity:0.4;" width="12.4512" x="1502.5112" y="1030.79"/><rect x="1406.5112" y="1045" width="96" height="96" fill="none" stroke="blue" stroke-dasharray="5"/><rect x="1394.06" y="1030.79" width="120.9024" height="119.336" fill="none" stroke="blue"/></g><g id="Symbols"><g id="Bold-L" transform="matrix(1 0 0 1 2266 1556)"><path d="M82.72125 32.49500000000002 V-21.684999999999988 H88.5523725 L93.40406250000001 -12.171249999999986 H104.03317875 L98.73869625 -22.894374999999982 H109.30476375 L114.73566375 -12.176248749999985 H125.409285 L120.0322425 -22.894374999999982 H130.7863275 L136.02904875000002 -12.176248749999985 H146.65735875000001 L141.39706125 -22.894374999999982 H153.913125 V32.49500000000002 H82.72125 Z M94.089375 21.288125000000015 H142.70625 V-0.9643749999999827 H94.089375 V21.288125000000015 Z M59.422560000000004 32.49500000000002  56.115 11.129375000000014 Q54.838383750000006 10.870568750000018 52.0905225 9.306766250000017 Q49.3425 7.743125000000013 46.60125 5.888750000000016 L26.767500000000002 15.080000000000016 L8.465625000000001 -17.331249999999983 L26.686875 -30.55374999999998 Q26.525625 -31.495772499999987 26.445 -32.80238124999998 Q26.364375 -34.10898999999999 26.364375 -35.21629374999999 Q26.364375 -36.081722499999984 26.445 -37.50717249999998 Q26.525625 -38.932783749999984 26.686875 -40.06749999999998 L8.465625000000001 -53.45124999999999 L26.767500000000002 -85.459375 L47.125957500000005 -76.34874999999998 Q48.53625 -77.55812499999999 51.1565625 -79.04968749999999 Q53.776875000000004 -80.54124999999999 56.115 -81.26687499999998 L59.49850875 -103.19687499999998 H95.379375 L98.765625 -81.50874999999999 Q100.8976725 -80.71943124999999 103.58071125000001 -79.25979625 Q106.26375 -77.79999999999998 108.03750000000001 -76.34874999999998 L128.274375 -85.459375 L146.415 -53.45124999999999 L127.790625 -40.222138749999985 Q127.71000000000001 -39.26124999999999 127.9115625 -37.890624999999986 Q128.113125 -36.51999999999998 128.113125 -35.55249999999998 Q128.113125 -35.55249999999998 128.113125 -35.55249999999998 Q128.113125 -35.55249999999998 128.113125 -35.55249999999998 H97.314375 Q97.314375 -35.55249999999998 97.314375 -35.55249999999998 Q97.314375 -35.55249999999998 97.314375 -35.55249999999998 Q97.153125 -43.926051249999986 91.14527249999999 -49.857632499999994 Q85.13758125000001 -55.78937499999999 76.92447375 -55.78937499999999 Q68.1606975 -55.78937499999999 62.25878625 -49.75797999999999 Q56.356875 -43.726584999999986 56.356875 -35.204199999999986 Q56.356875 -28.376874999999984 60.226875 -23.055624999999992 Q64.096875 -17.734374999999986 70.224375 -15.871937499999987 V32.49500000000002 H59.422560000000004 Z"/></g><g id="Semibold-L" transform="matrix(1 0 0 1 1970.27 1556)"><path d="M82.79139375 30.742373750000016 V-21.684999999999988 H88.35258375000001 L92.98336125 -12.59195124999998 H103.145175 L98.084505 -22.824231249999983 H108.203265 L113.3635875 -12.596949999999985 H123.54313875 L118.41313125 -22.824231249999983 H128.67330750000002 L133.692375 -12.596949999999985 H143.88127875 L138.81722249999999 -22.824231249999983 H150.75843 V30.742373750000016 H82.79139375 Z M93.59869125 20.026182500000015 H140.04223875000002 V-1.8757599999999854 H93.59869125 V20.026182500000015 Z M60.99910125 30.742373750000016  57.72733875000001 9.937576250000014 Q56.05936875 9.475756250000018 52.98142875 7.733127500000016 Q49.9033275 5.990498750000015 46.811519999999994 3.855710000000016 L27.468615000000003 12.766546250000015 L10.77907875 -16.77042249999998 L28.5796275 -29.712508749999984 Q28.348395 -30.87415374999999 28.267770000000002 -32.384743749999984 Q28.187145 -33.89533374999999 28.187145 -35.22225999999999 Q28.187145 -36.307311249999984 28.267770000000002 -37.93674249999998 Q28.348395 -39.56633499999998 28.5796275 -40.90874124999998 L10.77907875 -53.94193374999999 L27.468615000000003 -83.21606499999999 L47.1782025 -74.31571 Q49.026933750000005 -75.8756425 51.997803749999996 -77.57747499999999 Q54.96867375000001 -79.27930749999999 57.72733875000001 -80.14521999999998 L61.04199375 -101.37410499999999 H93.83701875 L97.15328625 -80.38709499999999 Q99.69039375 -79.4502325 102.73173 -77.78387499999998 Q105.77306625 -76.11751749999999 107.82723 -74.31571 L127.5032775 -83.21606499999999 L144.10154625 -53.94193374999999 L125.96785500000001 -41.063379999999995 Q125.95737375 -39.82207749999999 126.123945 -38.276173749999984 Q126.290355 -36.730269999999976 126.290355 -35.48235624999998 Q126.290355 -35.48235624999998 126.290355 -35.48235624999998 Q126.290355 -35.48235624999998 126.290355 -35.48235624999998 H97.4546625 Q97.4546625 -35.48235624999998 97.4546625 -35.48235624999998 Q97.4546625 -35.48235624999998 97.4546625 -35.48235624999998 Q97.363395 -43.926051249999986 91.37021625 -49.857632499999994 Q85.37687625000001 -55.78937499999999 77.0646 -55.78937499999999 Q68.37096749999999 -55.78937499999999 62.434065 -49.75797999999999 Q56.4971625 -43.726584999999986 56.4971625 -35.204199999999986 Q56.4971625 -28.376874999999984 60.33201 -23.090616249999982 Q64.16701875 -17.804518749999986 70.29451875000001 -15.840332499999988 V30.742373750000016 H60.99910125 Z"/></g><g id="Medium-L" transform="matrix(1 0 0 1 1674.31 1556)"><path d="M82.84396124999999 29.427702500000017 V-21.684999999999988 H88.20278250000001 L92.66795624999999 -12.907356249999985 H102.47905125 L97.59366 -22.771663749999988 H107.37685875000001 L112.33449 -12.912354999999984 H122.1433275 L117.19859625 -22.771663749999988 H127.08822 L131.93942625 -12.912354999999984 H141.79889625 L136.88206125 -22.771663749999988 H148.39208625 V29.427702500000017 H82.84396124999999 Z M93.2305575 19.079645000000017 H138.04402875 V-2.5592987499999893 H93.2305575 V19.079645000000017 Z M62.1815475 29.427702500000017  58.936875 9.043606250000018 Q56.97526875 8.42972750000002 53.649648750000004 6.552777500000012 Q50.32402875 4.675827500000018 46.969383750000006 2.3307687500000185 L27.99445125 11.031173750000015 L12.514451249999999 -16.349721249999988 L29.99943375 -29.081537499999982 Q29.715472500000004 -30.40781874999999 29.634847500000003 -32.07143499999998 Q29.5542225 -33.735051249999984 29.5542225 -35.22677499999999 Q29.5542225 -36.47646249999998 29.634847500000003 -38.259081249999994 Q29.715472500000004 -40.04153874999999 29.99943375 -41.53971249999998 L12.514451249999999 -54.31006749999999 L27.99445125 -81.53326 L47.2175475 -72.79076874999998 Q49.3950675 -74.61353874999999 52.628775 -76.47323499999999 Q55.862643750000004 -78.33276999999998 58.936875 -79.3038175 L62.199768750000004 -100.00702749999999 H92.68021125 L95.94375000000001 -79.54569249999999 Q98.7846525 -78.4982125 102.0947925 -76.67673249999999 Q105.4049325 -74.85541375 107.66936625 -72.79076874999998 L126.9247125 -81.53326 L142.36617375 -54.31006749999999 L124.60077749999999 -41.69435125 Q124.6427025 -40.242778749999985 124.78299 -38.56545624999998 Q124.9232775 -36.888133749999994 124.9232775 -35.429788749999986 Q124.9232775 -35.429788749999986 124.9232775 -35.429788749999986 Q124.9232775 -35.429788749999986 124.9232775 -35.429788749999986 H97.55979750000002 Q97.55979750000002 -35.429788749999986 97.55979750000002 -35.429788749999986 Q97.55979750000002 -35.429788749999986 97.55979750000002 -35.429788749999986 Q97.52125875 -43.926051249999986 91.53888375 -49.857632499999994 Q85.55650874999999 -55.78937499999999 77.169735 -55.78937499999999 Q68.52883125000001 -55.78937499999999 62.56548375 -49.75797999999999 Q56.6022975 -43.726584999999986 56.6022975 -35.204199999999986 Q56.6022975 -28.376874999999984 60.41086125 -23.116899999999987 Q64.21958625 -17.857086249999988 70.34708625 -15.816789999999983 V29.427702500000017 H62.1815475 Z"/></g><g id="Regular-L" transform="matrix(1 0 0 1 1378.56 1556)"><path d="M82.88250000000001 28.463750000000015 V-21.684999999999988 H88.09281 L92.43656250000001 -13.138749999999987 H101.99062500000001 L97.23375 -22.733124999999987 H106.77088125 L111.57983999999999 -13.143748749999986 H121.11697125 L116.3080125 -22.733124999999987 H125.92576874999999 L130.65410250000002 -13.143748749999986 H140.27185875 L135.46306125 -22.733124999999987 H146.656875 V28.463750000000015 H82.88250000000001 Z M92.96062500000001 18.385625000000015 H136.57875 V-3.0606249999999875 H92.96062500000001 V18.385625000000015 Z M63.04875 28.463750000000015  59.823750000000004 8.388125000000016 Q57.646875 7.662500000000016 54.1396875 5.6871875000000145 Q50.6325 3.7118750000000134 47.085 1.2125000000000128 L28.380000000000003 9.758750000000013 L13.786875 -16.041249999999984 L31.040625000000002 -28.61874999999999 Q30.718125 -30.065968749999996 30.6375 -31.841653749999992 Q30.556875 -33.61749999999999 30.556875 -35.22999999999999 Q30.556875 -36.60062499999998 30.6375 -38.49531249999998 Q30.718125 -40.389999999999986 31.040625000000002 -42.00249999999998 L13.786875 -54.579999999999984 L28.380000000000003 -80.29937499999998 L47.24625 -71.67249999999999 Q49.665 -73.68812499999999 53.0915625 -75.66343749999999 Q56.518125000000005 -77.63874999999999 59.823750000000004 -78.68687499999999 L63.04875 -99.00437499999998 H91.831875 L95.056875 -78.92875 Q98.120625 -77.79999999999998 101.6278125 -75.86499999999998 Q105.135 -73.92999999999999 107.55375000000001 -71.67249999999999 L126.500625 -80.29937499999998 L141.09375 -54.579999999999984 L123.59812500000001 -42.15713874999997 Q123.67875000000001 -40.55124999999998 123.7996875 -38.77749999999999 Q123.920625 -37.00374999999998 123.920625 -35.391249999999985 Q123.920625 -35.391249999999985 123.920625 -35.391249999999985 Q123.920625 -35.391249999999985 123.920625 -35.391249999999985 H97.636875 Q97.636875 -35.391249999999985 97.636875 -35.391249999999985 Q97.636875 -35.391249999999985 97.636875 -35.391249999999985 Q97.636875 -43.926051249999986 91.66240125 -49.857632499999994 Q85.68808875 -55.78937499999999 77.24697375 -55.78937499999999 Q68.6444475 -55.78937499999999 62.66191125 -49.75797999999999 Q56.679375 -43.726584999999986 56.679375 -35.204199999999986 Q56.679375 -28.376874999999984 60.46875 -23.13624999999999 Q64.258125 -17.89562499999999 70.385625 -15.799374999999984 V28.463750000000015 H63.04875 Z"/></g><g id="Light-L" transform="matrix(1 0 0 1 1082.77 1556)"><path d="M84.09203624999999 25.548672500000016 V-20.878749999999982 H88.93018125 L92.9209575 -12.98362749999999 H101.7735825 L97.3888725 -21.86479374999999 H106.20489375 L110.6649075 -12.988787499999987 H119.50431 L115.04429625 -21.86479374999999 H123.96432374999999 L128.3437125 -12.988787499999987 H137.26374 L132.80372625 -21.86479374999999 H143.18355 V25.548672500000016 H84.09203624999999 Z M92.0302125 17.610335000000017 H135.2452125 V-5.045451249999992 H92.0302125 V17.610335000000017 Z M64.94053500000001 25.548672500000016  62.02561875 6.310257500000013 Q59.228415 5.429671250000013 55.3335825 3.25279625000001 Q51.43875 1.0759212500000146 48.077332500000004 -1.6095362499999837 L30.271785 6.502467500000016 L17.632365 -15.886127499999986 L33.83170125 -27.750418749999994 Q33.478241249999996 -29.476761249999996 33.351015000000004 -31.40756874999998 Q33.22395 -33.33837624999998 33.22395 -35.167918749999984 Q33.22395 -36.755747499999984 33.351015000000004 -38.78991624999999 Q33.478241249999996 -40.82424624999999 33.80074125 -42.80874999999999 L17.632365 -54.79704249999999 L30.271785 -76.95005124999999 L48.14554125 -68.91238374999999 Q50.9675775 -71.20713249999999 54.68874375 -73.3840075 Q58.40991 -75.56088249999999 61.9635375 -76.64012874999999 L64.94053500000001 -96.05817625 H89.97121125000001 L92.88596625000001 -76.75784125 Q96.38396250000001 -75.47412999999999 99.98419125000001 -73.44608874999999 Q103.58442000000001 -71.41804749999999 106.43725500000001 -68.91238374999999 L124.70188125000001 -76.95005124999999 L137.27922 -54.79704249999999 L120.6830475 -42.77730624999998 Q120.91863375000001 -40.861333749999986 121.05505125 -38.97906249999998 Q121.19163 -37.09679124999998 121.19163 -35.329168749999994 Q121.19163 -35.329168749999994 121.19163 -35.329168749999994 Q121.19163 -35.329168749999994 121.19163 -35.329168749999994 H94.9698 Q94.9698 -35.329168749999994 94.9698 -35.329168749999994 Q94.9698 -35.329168749999994 94.9698 -35.329168749999994 Q94.9698 -42.83132499999998 89.76610124999999 -47.99229249999998 Q84.5624025 -53.153421249999994 77.1539325 -53.153421249999994 Q69.63678 -53.153421249999994 64.42953375 -47.90892624999999 Q59.2222875 -42.66443124999999 59.2222875 -35.19758874999998 Q59.2222875 -29.369207499999987 62.34489375 -24.919513749999993 Q65.46766124999999 -20.469658749999986 70.5717075 -18.553202499999983 V25.548672500000016 H64.94053500000001 Z"/></g><g id="Thin-L" transform="matrix(1 0 0 1 787.282 1556)"><path d="M85.30125 22.633917500000017 V-20.072499999999984 H89.76739125 L93.4053525 -12.828666249999984 H101.55654 L97.54383375 -20.996623749999983 H105.6390675 L109.7502975 -12.83366499999999 H117.89197125000001 L113.78074124999999 -20.996623749999983 H122.00320125 L126.033645 -12.83366499999999 H134.256105 L130.144875 -20.996623749999983 H139.71070875 V22.633917500000017 H85.30125 Z M91.1001225 16.835206250000013 H133.9119975 V-7.029793749999989 H91.1001225 V16.835206250000013 Z M66.83183625000001 22.633917500000017  64.227165 4.232873750000017 Q60.809793750000004 3.1971650000000125 56.5274775 0.8187275000000156 Q52.245000000000005 -1.5597099999999884 49.069665 -4.431249999999984 L32.163086250000006 3.246830000000017 L21.477210000000003 -15.731166249999987 L36.622293750000004 -26.882248749999988 Q36.23787375 -28.88755374999998 36.0642075 -30.973483749999986 Q35.89054125 -33.059252499999985 35.89054125 -35.10599874999998 Q35.89054125 -36.91070874999998 36.0642075 -39.08451999999998 Q36.23787375 -41.25833124999998 36.560373750000004 -43.61499999999998 L21.477210000000003 -55.014084999999994 L32.163086250000006 -73.60137249999998 L49.0448325 -66.15275125 Q52.2698325 -68.72662374999999 56.2856025 -71.10506124999999 Q60.30121125 -73.48349874999998 64.1030025 -74.59370499999999 L66.83183625000001 -93.11262249999999 H88.11070875 L90.71554125 -74.58741624999999 Q94.6476225 -73.14858249999999 98.34073125 -71.02749999999999 Q102.03400125 -68.90641749999999 105.3210825 -66.15275125 L122.90346000000001 -73.60137249999998 L133.46549625 -55.014084999999994 L117.7682925 -43.397473749999975 Q118.15900125 -41.17141749999999 118.31106 -39.18062499999999 Q118.4629575 -37.18983249999998 118.4629575 -35.26724874999998 Q118.4629575 -35.26724874999998 118.4629575 -35.26724874999998 Q118.4629575 -35.26724874999998 118.4629575 -35.26724874999998 H92.30320875 Q92.30320875 -35.26724874999998 92.30320875 -35.26724874999998 Q92.30320875 -35.26724874999998 92.30320875 -35.26724874999998 Q92.30320875 -41.736759999999975 87.8699625 -46.127275 Q83.4368775 -50.51778999999999 77.06089125 -50.51778999999999 Q70.6291125 -50.51778999999999 66.196995 -46.06003374999999 Q61.764877500000004 -41.602277499999985 61.764877500000004 -35.19113874999999 Q61.764877500000004 -30.36153999999999 64.22087625 -26.70229374999998 Q66.676875 -23.04320874999999 70.75779 -21.306707499999987 V22.633917500000017 H66.83183625000001 Z"/></g><g id="Ultralight-L" transform="matrix(1 0 0 1 491.205 1556)"><path d="M86.026875 20.885000000000016 V-19.588749999999983 H90.26968500000001 L93.69592499999999 -12.735624999999985 H101.42625 L97.636875 -20.475624999999987 H105.299475 L109.2014025 -12.740623749999983 H116.92447125000001 L113.02254375 -20.475624999999987 H120.82623749999999 L124.64754 -12.740623749999983 H132.45123375 L128.54946750000002 -20.475624999999987 H137.626875 V20.885000000000016 H86.026875 Z M90.541875 16.370000000000015 H133.111875 V-8.220624999999984 H90.541875 V16.370000000000015 Z M67.966875 20.885000000000016  65.548125 2.9862500000000125 Q61.75875 1.857500000000016 57.24375 -0.6418749999999847 Q52.72875 -3.141249999999985 49.665 -6.124374999999986 L33.298125 1.2931250000000176 L23.784375 -15.638124999999988 L38.296875 -26.361249999999984 Q37.893750000000004 -28.534093749999997 37.6921875 -30.712903749999995 Q37.490625 -32.891874999999985 37.490625 -35.06874999999998 Q37.490625 -37.00374999999998 37.6921875 -39.26124999999999 Q37.893750000000004 -41.51874999999998 38.21625 -44.09874999999998 L23.784375 -55.14437499999998 L33.298125 -71.59187499999999 L49.584375 -64.49687499999999 Q53.05125 -67.23812499999998 57.24375 -69.73749999999998 Q61.43625 -72.23687499999998 65.386875 -73.365625 L67.966875 -91.345 H86.994375 L89.41312500000001 -73.28499999999998 Q93.605625 -71.75312499999998 97.3546875 -69.57624999999999 Q101.10375 -67.39937499999999 104.65125 -64.49687499999999 L121.824375 -71.59187499999999 L131.176875 -55.14437499999998 L116.019375 -43.769638749999984 Q116.503125 -41.35749999999999 116.664375 -39.30156249999999 Q116.825625 -37.24562499999999 116.825625 -35.22999999999999 Q116.825625 -35.22999999999999 116.825625 -35.22999999999999 Q116.825625 -35.22999999999999 116.825625 -35.22999999999999 H90.703125 Q90.703125 -35.22999999999999 90.703125 -35.22999999999999 Q90.703125 -35.22999999999999 90.703125 -35.22999999999999 Q90.703125 -41.079988749999984 86.73234375 -45.00803874999998 Q82.76140125 -48.93624999999999 77.00509875 -48.93624999999999 Q71.2244475 -48.93624999999999 67.25753625 -44.950633749999994 Q63.290625 -40.96501749999999 63.290625 -35.18710749999998 Q63.290625 -30.956874999999982 65.3465625 -27.772187499999987 Q67.4025 -24.58749999999999 70.869375 -22.958874999999978 V20.885000000000016 H67.966875 Z"/></g><g id="Bold-M" transform="matrix(1 0 0 1 2281.8 1126)"><path d="M64.3125 17.77000000000001  64.1875 -24.97999999999999 H68.914 L72.78125 -17.41749999999999 H81.208375 L76.979125 -25.91749999999999 H85.393125 L89.6835 -17.42137499999999 H98.18075 L93.932125 -25.91749999999999 H102.429375 L106.636375 -17.42137499999999 H115.050375 L110.885125 -25.91749999999999 H120.8125 V17.77000000000001 H64.3125 Z M73.6875 8.39500000000001 H111.4375 V-8.04249999999999 H73.6875 V8.39500000000001 Z M43.3125 17.77000000000001  41.0625 0.7700000000000102 Q41.760375 1.0693750000000115 41.00525 0.6696250000000106 Q40.25 0.27000000000001023 38.125 -0.6674999999999898 L22.4375 5.95750000000001 L5.5625 -23.54249999999999 L19.1875 -33.85499999999999 Q19.1875 -34.14312499999999 19.1875 -34.41062499999999 Q19.1875 -34.67812499999999 19.1875 -35.21937499999999 Q19.1875 -35.44812499999999 19.21875 -35.83899999999999 Q19.25 -36.22999999999999 19.25 -36.85499999999999 L5.5625 -47.04249999999999 L22.4375 -76.16749999999999 L38.5625 -69.54249999999999 Q39.0625 -69.91749999999999 39.59375 -70.22999999999999 Q40.125 -70.54249999999999 41.0625 -70.91749999999999 L43.3125 -88.35499999999999 H76.6875 L78.9375 -71.10499999999999 Q79.739625 -70.81224999999999 80.36975 -70.45862499999998 Q81.0 -70.10499999999999 81.625 -69.54249999999999 L97.5625 -76.16749999999999 L114.4375 -47.04249999999999 L100.3125 -36.59987499999999 Q100.3125 -36.35499999999999 100.3125 -36.07374999999999 Q100.3125 -35.79249999999999 100.3125 -35.35499999999999 Q100.3125 -35.35499999999999 100.3125 -35.35499999999999 Q100.3125 -35.35499999999999 100.3125 -35.35499999999999 H76.4375 Q76.4375 -35.35499999999999 76.4375 -35.35499999999999 Q76.4375 -35.35499999999999 76.4375 -35.35499999999999 Q76.3125 -42.34612499999999 71.40525 -47.2255 Q66.498125 -52.10499999999999 59.556125 -52.10499999999999 Q52.5625 -52.10499999999999 47.625 -47.15724999999999 Q42.6875 -42.209374999999994 42.6875 -35.20999999999999 Q42.6875 -29.41749999999999 46.1875 -24.94874999999999 Q49.6875 -20.47999999999999 54.9375 -19.04249999999999 V17.77000000000001 H43.3125 Z"/></g><g id="Semibold-M" transform="matrix(1 0 0 1 1985.97 1126)"><path d="M64.366875 15.92225000000001  64.29625 -24.97999999999999 H68.723875 L72.3465 -17.85224999999999 H80.302625 L76.308875 -25.86312499999999 H84.251875 L88.2705 -17.85612499999999 H96.260625 L92.265625 -25.86312499999999 H100.255625 L104.227125 -17.85612499999999 H112.170125 L108.22225 -25.86312499999999 H117.551875 V15.92225000000001 H64.366875 Z M73.198375 7.0907500000000105 H108.72025 V-9.020749999999992 H73.198375 V7.0907500000000105 Z M44.8885 15.92225000000001  42.747125 -0.47987499999998917 Q43.033 -0.3378749999999897 41.91325 -0.9577499999999901 Q40.7935 -1.577749999999991 38.342375 -2.7868749999999913 L23.198375 3.5663750000000114 L7.953625 -22.998999999999988 L21.143875 -32.98549999999999 Q21.0895 -33.50024999999999 21.0895 -33.97812499999999 Q21.0895 -34.45612499999999 21.0895 -35.22399999999999 Q21.0895 -35.67937499999999 21.12075 -36.28074999999999 Q21.152 -36.88212499999999 21.206375 -37.72449999999999 L7.953625 -47.585999999999984 L23.198375 -73.88499999999999 L38.67125 -67.477375 Q39.49725 -68.12412499999999 40.46325 -68.681125 Q41.42925 -69.23825 42.747125 -69.77624999999999 L44.8885 -86.50724999999998 H75.1115 L77.252875 -69.96374999999999 Q78.467 -69.49937499999999 79.46175 -68.90549999999999 Q80.4565 -68.31162499999999 81.407625 -67.477375 L96.801625 -73.88499999999999 L112.046375 -47.585999999999984 L98.4105 -37.46937499999999 Q98.46475 -36.95274999999999 98.46475 -36.48137499999999 Q98.46475 -36.00987499999999 98.46475 -35.30062499999999 Q98.46475 -35.30062499999999 98.46475 -35.30062499999999 Q98.46475 -35.30062499999999 98.46475 -35.30062499999999 H76.6005 Q76.6005 -35.30062499999999 76.6005 -35.30062499999999 Q76.6005 -35.30062499999999 76.6005 -35.30062499999999 Q76.529875 -42.29174999999999 71.60675 -47.198374999999984 Q66.683625 -52.10499999999999 59.71925 -52.10499999999999 Q52.7255 -52.10499999999999 47.788 -47.15724999999999 Q42.8505 -42.209374999999994 42.8505 -35.20999999999999 Q42.8505 -29.41749999999999 46.269 -24.975874999999988 Q49.6875 -20.53437499999999 54.991875 -19.04249999999999 V15.92225000000001 H44.8885 Z"/></g><g id="Medium-M" transform="matrix(1 0 0 1 1689.91 1126)"><path d="M64.407625 14.53637500000001  64.37775 -24.97999999999999 H68.581125 L72.020375 -18.17837499999999 H79.62325 L75.806125 -25.822374999999987 H83.395875 L87.210625 -18.18224999999999 H94.82025 L91.0155 -25.822374999999987 H98.625125 L102.42 -18.18224999999999 H110.009625 L106.22475 -25.822374999999987 H115.106 V14.53637500000001 H64.407625 Z M72.8315 6.112375000000011 H106.682125 V-9.754499999999993 H72.8315 V6.112375000000011 Z M46.070625 14.53637500000001  44.010875 -1.4174999999999898 Q43.9875 -1.3934999999999889 42.59425 -2.1786249999999896 Q41.201125 -2.9636249999999897 38.505375 -4.376749999999991 L23.769 1.7727500000000092 L9.74725 -22.591374999999992 L22.611375 -32.33324999999999 Q22.51625 -33.01799999999999 22.51625 -33.65374999999999 Q22.51625 -34.28962499999999 22.51625 -35.22749999999999 Q22.51625 -35.85274999999999 22.5475 -36.61199999999999 Q22.57875 -37.37124999999999 22.673875 -38.37674999999999 L9.74725 -47.993624999999994 L23.769 -72.17299999999999 L38.75275 -65.92837499999999 Q39.823375 -66.77887499999999 41.1155 -67.519375 Q42.407625 -68.259875 44.010875 -68.92025 L46.070625 -85.12137499999999 H73.929375 L75.989125 -69.10775 Q77.5125 -68.514625 78.78075 -67.74049999999998 Q80.048875 -66.96637499999999 81.244625 -65.92837499999999 L96.231 -72.17299999999999 L110.25275 -47.993624999999994 L96.98375 -38.12162499999999 Q97.078875 -37.40124999999999 97.078875 -36.78699999999999 Q97.078875 -36.17287499999999 97.078875 -35.25987499999999 Q97.078875 -35.25987499999999 97.078875 -35.25987499999999 Q97.078875 -35.25987499999999 97.078875 -35.25987499999999 H76.722875 Q76.722875 -35.25987499999999 76.722875 -35.25987499999999 Q76.722875 -35.25987499999999 76.722875 -35.25987499999999 Q76.692875 -42.25099999999999 71.757875 -47.17799999999998 Q66.822875 -52.10499999999999 59.8415 -52.10499999999999 Q52.847875 -52.10499999999999 47.910375 -47.15724999999999 Q42.972875 -42.209374999999994 42.972875 -35.20999999999999 Q42.972875 -29.41749999999999 46.330125 -24.99624999999999 Q49.6875 -20.575124999999993 55.032625 -19.04249999999999 V14.53637500000001 H46.070625 Z"/></g><g id="Regular-M" transform="matrix(1 0 0 1 1394.06 1126)"><path d="M64.4375 13.52000000000001 V-24.97999999999999 H68.4765 L71.78125 -18.41749999999999 H79.125 L75.4375 -25.79249999999999 H82.768125 L86.4335 -18.42137499999999 H93.764125 L90.09875 -25.79249999999999 H97.429375 L101.09475 -18.42137499999999 H108.425375 L104.760125 -25.79249999999999 H113.3125 V13.52000000000001 H64.4375 Z M72.5625 5.39500000000001 H105.1875 V-10.29249999999999 H72.5625 V5.39500000000001 Z M46.9375 13.52000000000001  44.9375 -2.1049999999999898 Q44.6875 -2.1674999999999898 43.09375 -3.0737499999999898 Q41.5 -3.9799999999999898 38.625 -5.54249999999999 L24.1875 0.45750000000001023 L11.0625 -22.29249999999999 L23.6875 -31.85499999999999 Q23.5625 -32.66437499999999 23.5625 -33.41587499999999 Q23.5625 -34.16749999999999 23.5625 -35.22999999999999 Q23.5625 -35.97999999999999 23.59375 -36.85499999999999 Q23.625 -37.72999999999999 23.75 -38.85499999999999 L11.0625 -48.29249999999999 L24.1875 -70.91749999999999 L38.8125 -64.79249999999999 Q40.0625 -65.79249999999999 41.59375 -66.66749999999999 Q43.125 -67.54249999999999 44.9375 -68.29249999999999 L46.9375 -84.10499999999999 H73.0625 L75.0625 -68.47999999999999 Q76.8125 -67.79249999999999 78.28125 -66.88624999999999 Q79.75 -65.97999999999999 81.125 -64.79249999999999 L95.8125 -70.91749999999999 L108.9375 -48.29249999999999 L95.9375 -38.59987499999999 Q96.0625 -37.72999999999999 96.0625 -37.01124999999999 Q96.0625 -36.29249999999999 96.0625 -35.22999999999999 Q96.0625 -35.22999999999999 96.0625 -35.22999999999999 Q96.0625 -35.22999999999999 96.0625 -35.22999999999999 H76.8125 Q76.8125 -35.22999999999999 76.8125 -35.22999999999999 Q76.8125 -35.22999999999999 76.8125 -35.22999999999999 Q76.8125 -42.22112499999999 71.868625 -47.163 Q66.924875 -52.10499999999999 59.931125 -52.10499999999999 Q52.9375 -52.10499999999999 48.0 -47.15724999999999 Q43.0625 -42.209374999999994 43.0625 -35.20999999999999 Q43.0625 -29.41749999999999 46.375 -25.01124999999999 Q49.6875 -20.60499999999999 55.0625 -19.04249999999999 V13.52000000000001 H46.9375 Z"/></g><g id="Light-M" transform="matrix(1 0 0 1 1098.18 1126)"><path d="M65.230875 11.26025000000001 V-24.35499999999999 H68.981375 L72.0125 -18.29724999999999 H78.8125 L75.4135 -25.11937499999999 H82.185125 L85.58 -18.30124999999999 H92.36975 L88.974875 -25.11937499999999 H95.764625 L99.1595 -18.30124999999999 H105.94925 L102.554375 -25.11937499999999 H110.47575 V11.26025000000001 H65.230875 Z M71.697 4.794000000000011 H104.0095 V-11.831124999999993 H71.697 V4.794000000000011 Z M49.029 11.26025000000001  47.125125 -3.6676249999999904 Q46.202 -3.898374999999991 43.97125 -5.129249999999988 Q41.740375 -6.359999999999989 38.865375 -8.210999999999991 L25.125125 -2.451374999999988 L14.091625 -21.643374999999992 L26.0915 -30.70112499999999 Q25.894375 -31.774874999999987 25.83425 -32.83899999999999 Q25.77425 -33.90299999999999 25.77425 -35.18187499999999 Q25.77425 -36.14824999999999 25.8655 -37.29974999999999 Q25.956875 -38.45124999999999 26.13 -39.96087499999999 L14.091625 -48.94162499999999 L25.125125 -67.9365 L38.98075 -62.123999999999995 Q40.6875 -63.53274999999999 42.75975 -64.73225 Q44.831875 -65.93175 47.077125 -66.753875 L49.029 -81.821125 H70.995 L72.898875 -66.84525 Q75.225875 -65.98949999999999 77.07925 -64.866875 Q78.932625 -63.744249999999994 80.788375 -62.123999999999995 L94.899 -67.9365 L105.9325 -48.94162499999999 L93.437375 -39.60949999999998 Q93.6825 -38.40312499999999 93.718625 -37.43199999999999 Q93.754625 -36.46074999999999 93.754625 -35.22999999999999 Q93.754625 -35.22999999999999 93.754625 -35.22999999999999 Q93.754625 -35.22999999999999 93.754625 -35.22999999999999 H74.312375 Q74.312375 -35.22999999999999 74.312375 -35.22999999999999 Q74.312375 -35.22999999999999 74.312375 -35.22999999999999 Q74.312375 -41.26112499999999 70.0785 -45.49312499999999 Q65.84475 -49.724999999999994 59.811 -49.724999999999994 Q53.754875 -49.724999999999994 49.538625 -45.485749999999996 Q45.32225 -41.24649999999998 45.32225 -35.20487499999999 Q45.32225 -30.379124999999988 47.99775 -26.681999999999988 Q50.673125 -22.984999999999992 55.0625 -21.542624999999987 V11.26025000000001 H49.029 Z"/></g><g id="Thin-M" transform="matrix(1 0 0 1 802.565 1126)"><path d="M66.024 9.00075000000001 V-23.72999999999999 H69.486125 L72.24375 -18.17712499999999 H78.5 L75.389375 -24.44637499999999 H81.60225 L84.72675 -18.18099999999999 H90.975625 L87.85125 -24.44637499999999 H94.100125 L97.224625 -18.18099999999999 H103.4735 L100.349 -24.44637499999999 H107.6395 V9.00075000000001 H66.024 Z M70.83175 4.193125000000009 H102.83175 V-13.369374999999991 H70.83175 V4.193125000000009 Z M51.120125 9.00075000000001  49.3125 -5.22999999999999 Q47.716375 -5.628999999999991 44.8485 -7.184249999999988 Q41.98075 -8.73962499999999 39.10575 -10.87899999999999 L26.0625 -5.359749999999991 L17.120125 -20.99437499999999 L28.495125 -29.547374999999988 Q28.225875 -30.885499999999993 28.10575 -32.26212499999999 Q27.9855 -33.63862499999999 27.9855 -35.13387499999999 Q27.9855 -36.31649999999999 28.137 -37.74437499999999 Q28.288375 -39.17224999999999 28.509625 -41.06649999999999 L17.120125 -49.59062499999999 L26.0625 -64.95599999999999 L39.149 -59.45599999999999 Q41.3125 -61.27324999999999 43.9255 -62.79737499999999 Q46.5385 -64.32137499999999 49.216375 -65.21562499999999 L51.120125 -79.53774999999999 H68.927875 L70.735625 -65.21074999999999 Q73.6395 -64.18674999999999 75.877375 -62.84787499999999 Q78.115375 -61.50887499999999 80.451875 -59.45599999999999 L93.985625 -64.95599999999999 L102.927875 -49.59062499999999 L90.9375 -40.619125 Q91.302875 -39.07612499999999 91.375 -37.85262499999999 Q91.447125 -36.62899999999999 91.447125 -35.22999999999999 Q91.447125 -35.22999999999999 91.447125 -35.22999999999999 Q91.447125 -35.22999999999999 91.447125 -35.22999999999999 H71.8125 Q71.8125 -35.22999999999999 71.8125 -35.22999999999999 Q71.8125 -35.22999999999999 71.8125 -35.22999999999999 Q71.8125 -40.30149999999999 68.28875 -43.823374999999984 Q64.764875 -47.34537499999999 59.69075 -47.34537499999999 Q54.572125 -47.34537499999999 51.076875 -43.81462499999999 Q47.58175 -40.28374999999998 47.58175 -35.19987499999999 Q47.58175 -31.34062499999999 49.620125 -28.35262499999999 Q51.658625 -25.36462499999999 55.0625 -24.04249999999999 V9.00075000000001 H51.120125 Z"/></g><g id="Ultralight-M" transform="matrix(1 0 0 1 506.415 1126)"><path d="M66.5 7.64500000000001 V-23.35499999999999 H69.789 L72.3825 -18.10499999999999 H78.3125 L75.375 -24.04249999999999 H81.2525 L84.21475 -18.10887499999999 H90.139125 L87.176875 -24.04249999999999 H93.10125 L96.0635 -18.10887499999999 H101.987875 L99.02575 -24.04249999999999 H105.9375 V7.64500000000001 H66.5 Z M70.3125 3.8325000000000102 H102.125 V-14.29249999999999 H70.3125 V3.8325000000000102 Z M52.375 7.64500000000001  50.625 -6.16749999999999 Q48.625 -6.66749999999999 45.375 -8.41749999999999 Q42.125 -10.16749999999999 39.25 -12.47999999999999 L26.625 -7.10499999999999 L18.9375 -20.60499999999999 L29.9375 -28.85499999999999 Q29.625 -30.351874999999993 29.46875 -31.915874999999993 Q29.3125 -33.47999999999999 29.3125 -35.10499999999999 Q29.3125 -36.41749999999999 29.5 -38.01124999999999 Q29.6875 -39.60499999999999 29.9375 -41.72999999999999 L18.9375 -49.97999999999999 L26.625 -63.16749999999999 L39.25 -57.85499999999999 Q41.6875 -59.91749999999999 44.625 -61.63624999999999 Q47.5625 -63.35499999999999 50.5 -64.29249999999999 L52.375 -78.16749999999999 H67.6875 L69.4375 -64.22999999999999 Q72.6875 -63.10499999999999 75.15625 -61.63624999999999 Q77.625 -60.16749999999999 80.25 -57.85499999999999 L93.4375 -63.16749999999999 L101.125 -49.97999999999999 L89.4375 -41.22487499999998 Q89.875 -39.47999999999999 89.96875 -38.10499999999999 Q90.0625 -36.72999999999999 90.0625 -35.22999999999999 Q90.0625 -35.22999999999999 90.0625 -35.22999999999999 Q90.0625 -35.22999999999999 90.0625 -35.22999999999999 H70.3125 Q70.3125 -35.22999999999999 70.3125 -35.22999999999999 Q70.3125 -35.22999999999999 70.3125 -35.22999999999999 Q70.3125 -39.7255 67.214625 -42.821499999999986 Q64.116875 -45.91749999999999 59.618625 -45.91749999999999 Q55.0625 -45.91749999999999 52.0 -42.81174999999999 Q48.9375 -39.70599999999999 48.9375 -35.19674999999999 Q48.9375 -31.91749999999999 50.59375 -29.35499999999999 Q52.25 -26.79249999999999 55.0625 -25.54249999999999 V7.64500000000001 H52.375 Z"/></g><g id="Bold-S" transform="matrix(1 0 0 1 2294.23 696)"><path d="M51.5315625 5.009000000000014  51.4329375 -26.156499999999987 H56.641521000000004 L59.39690625 -20.78143749999999 H64.862407875 L62.117279625 -26.304437499999985 H67.57242562500001 L70.3657815 -20.784494874999986 H75.88661175 L73.126196625 -26.304437499999985 H78.647026875 L81.374599875 -20.784494874999986 H86.829745875 L84.135113625 -26.304437499999985 H94.53206250000001 V5.009000000000014 H51.5315625 Z M57.744937500000006 -1.2043749999999864 H88.31868750000001 V-14.56806249999999 H57.744937500000006 V-1.2043749999999864 Z M37.4281875 5.009000000000014  35.0611875 -7.023249999999987 Q34.625560875000005 -7.181543124999987 33.04351725 -7.9900708749999865 Q31.461375 -8.798499999999986 28.99575 -10.327187499999987 L17.5059375 -6.382187499999986 L7.446187500000001 -24.036062499999986 L16.618312500000002 -31.975374999999985 Q16.5196875 -32.69583062499999 16.4210625 -33.449325624999986 Q16.3224375 -34.20282062499999 16.3224375 -35.22161687499999 Q16.3224375 -35.993850624999986 16.44571875 -36.84468849999999 Q16.569 -37.695624999999986 16.667625 -38.68187499999999 L7.446187500000001 -46.62118749999999 L17.5059375 -63.979187499999995 L29.340937500000003 -59.93556249999999 Q30.5244375 -61.020437499999986 31.88053125 -61.76012499999999 Q33.236625000000004 -62.49981249999999 35.0611875 -63.19018749999999 L37.4281875 -75.56762499999999 H57.2518125 L59.618812500000004 -63.33812499999999 Q61.237939125000004 -62.712645249999994 62.72135775 -61.94051012499999 Q64.204875 -61.16837499999998 65.48700000000001 -59.93556249999999 L77.1740625 -63.880562499999996 L87.2338125 -46.52256249999999 L77.6671875 -38.480581374999986 Q77.76581250000001 -37.79424999999999 77.86443750000001 -37.02990624999999 Q77.9630625 -36.26556249999999 77.9630625 -35.32862499999999 Q77.86443750000001 -34.73687499999999 77.86443750000001 -34.145124999999986 Q77.86443750000001 -33.55337499999999 77.76581250000001 -32.96162499999999 H60.3091875 Q60.506437500000004 -33.45474999999999 60.506437500000004 -34.145124999999986 Q60.506437500000004 -34.83549999999999 60.506437500000004 -35.32862499999999 Q60.407812500000006 -41.04187262499999 56.43736725 -44.99032449999999 Q52.467020625 -48.93887499999999 46.792532625 -48.93887499999999 Q41.077312500000005 -48.93887499999999 37.083 -44.93647524999999 Q33.0886875 -40.93397687499999 33.0886875 -35.21421999999998 Q33.0886875 -30.052187499999988 36.5405625 -26.181156249999987 Q39.9924375 -22.310124999999985 44.9236875 -21.66906249999999 V5.009000000000014 H37.4281875 Z"/></g><g id="Semibold-S" transform="matrix(1 0 0 1 1998.1 696)"><path d="M51.574464375 3.5511252500000143  51.518741250000005 -26.156499999999987 H56.491512375000006 L59.053888500000006 -21.12445524999999 H64.147771125 L61.588452375 -26.261535624999986 H66.671979375 L69.2509245 -21.127512624999987 H74.371633125 L71.811328125 -26.261535624999986 H76.931938125 L79.473701625 -21.127512624999987 H84.55722862500001 L82.03410525000001 -26.261535624999986 H91.959429375 V3.5511252500000143 H51.574464375 Z M57.359017875 -2.233428249999987 H86.17477725 V-15.339901749999989 H57.359017875 V-2.233428249999987 Z M38.6716515 3.5511252500000143  36.390356625 -8.009401374999985 Q35.629662 -8.291863374999988 33.75992925 -9.274069749999988 Q31.890196500000002 -10.256374749999988 29.167258874999998 -11.999374374999988 L18.106267875 -8.268785124999987 L9.332785125000001 -23.607240999999988 L18.161892375 -31.28933949999999 Q18.0203655 -32.18860224999999 17.921740500000002 -33.10808312499999 Q17.8231155 -34.02766262499999 17.8231155 -35.22526599999999 Q17.8231155 -36.176306874999995 17.94639675 -37.19322924999999 Q18.069678000000003 -38.21015162499999 18.211204875000004 -39.367910499999994 L9.332785125000001 -47.05000899999998 L18.106267875 -62.17829499999999 L29.426741250000003 -58.306178875 Q30.867455250000003 -59.605464624999996 32.56656675 -60.538062624999995 Q34.26567825 -61.470759249999986 36.390356625 -62.28974124999999 L38.6716515 -74.10975024999999 H56.00834850000001 L58.289643375000004 -62.43767874999999 Q60.233838 -61.67678687499999 62.00494575 -60.71509449999999 Q63.77605350000001 -59.753402124999994 65.315491125 -58.306178875 L76.573732125 -62.07966999999999 L85.347214875 -46.95138399999998 L76.1665095 -39.16661687499999 Q76.30793775 -38.26587474999999 76.40656275 -37.35152237499999 Q76.50518775 -36.43707137499999 76.50518775 -35.28572312499999 Q76.40656275 -34.693973124999985 76.40656275 -34.10222312499999 Q76.40656275 -33.51047312499999 76.30793775 -32.918723124999985 H60.4377945 Q60.6350445 -33.41184812499999 60.6350445 -34.10222312499999 Q60.6350445 -34.79259812499999 60.6350445 -35.28572312499999 Q60.579321375000006 -40.99897074999999 56.596350750000006 -44.96892287499998 Q52.613380125000006 -48.93887499999999 46.92123825 -48.93887499999999 Q41.2059195 -48.93887499999999 37.211607 -44.93647524999999 Q33.2172945 -40.93397687499999 33.2172945 -35.21421999999998 Q33.2172945 -30.052187499999988 36.604866 -26.20255787499999 Q39.9924375 -22.35302687499999 44.966589375000005 -21.66906249999999 V3.5511252500000143 H38.6716515 Z"/></g><g id="Medium-S" transform="matrix(1 0 0 1 1701.85 696)"><path d="M51.606616125 2.457669875000013  51.583044750000006 -26.156499999999987 H56.378882625 L58.796575875 -21.381767874999987 H63.61174425 L61.191782624999995 -26.229383874999982 H65.99659537500001 L68.414683125 -21.384825249999984 H73.23517725 L70.82497950000001 -26.229383874999982 H75.645473625 L78.04788 -21.384825249999984 H82.85259412500001 L80.45807775 -26.229383874999982 H90.029634 V2.457669875000013 H51.606616125 Z M57.069553500000005 -3.005366124999986 H84.566696625 V-15.918830499999991 H57.069553500000005 V-3.005366124999986 Z M39.604348125 2.457669875000013  37.387455375 -8.749187499999987 Q36.3827625 -9.124751499999988 34.29723825000001 -10.237340124999989 Q32.211812625 -11.349830124999986 29.295865875 -13.253785749999984 L18.556491 -9.68395524999999 L10.74795525 -23.28562487499999 L19.319749875 -30.774714249999988 Q19.146071250000002 -31.808106999999985 19.04744625 -32.852151249999984 Q18.94882125 -33.89629412499998 18.94882125 -35.22802749999999 Q18.94882125 -36.31309974999999 19.0721025 -37.454585499999986 Q19.19538375 -38.59607124999999 19.369062375 -39.88253574999999 L10.74795525 -47.371625124999994 L18.556491 -60.82752699999999 L29.49104475 -57.08401787499999 Q31.124767875 -58.54406237499998 33.081192 -59.62144187499999 Q35.03761612500001 -60.698821374999994 37.387455375 -61.61435725 L39.604348125 -73.01629487499999 H55.075651875 L57.292544625000005 -61.762294749999995 Q59.480737500000004 -60.89981912499999 61.467636750000004 -59.79590949999998 Q63.454437375 -58.69199987499998 65.186884125 -57.08401787499999 L76.123509 -60.72890199999999 L83.93204475 -47.273000124999996 L75.04080375000001 -39.68124212499999 Q75.214482375 -38.61974124999999 75.313107375 -37.59266049999999 Q75.411732375 -36.56567837499999 75.411732375 -35.253571374999986 Q75.313107375 -34.66182137499999 75.313107375 -34.07007137499998 Q75.313107375 -33.478321374999986 75.214482375 -32.88657137499999 H60.53434837500001 Q60.731598375000004 -33.37969637499999 60.731598375000004 -34.07007137499998 Q60.731598375000004 -34.76044637499999 60.731598375000004 -35.253571374999986 Q60.707928375 -40.96681899999999 56.715588375 -44.952846999999984 Q52.723248375 -48.93887499999999 47.01769350000001 -48.93887499999999 Q41.302473375000005 -48.93887499999999 37.308160875000006 -44.93647524999999 Q33.313848375000006 -40.93397687499999 33.313848375000006 -35.21421999999998 Q33.313848375000006 -30.052187499999988 36.653093625000004 -26.218633749999988 Q39.9924375 -22.385178624999988 44.998741125 -21.66906249999999 V2.457669875000013 H39.604348125 Z"/></g><g id="Regular-S" transform="matrix(1 0 0 1 1405.73 696)"><path d="M51.630187500000005 1.6557500000000136 V-26.156499999999987 H56.2963335 L58.60790625 -21.57043749999999 H63.218625 L60.900937500000005 -26.205812499999986 H65.501300625 L67.8015315 -21.573494874999987 H72.40189462500001 L70.10166375 -26.205812499999986 H74.702026875 L77.00225775000001 -21.573494874999987 H81.602620875 L79.30248862500001 -26.205812499999986 H88.6145625 V1.6557500000000136 H51.630187500000005 Z M56.8573125 -3.5713749999999873 H83.3874375 V-16.34331249999999 H56.8573125 V-3.5713749999999873 Z M40.2883125 1.6557500000000136  38.1185625 -9.291624999999986 Q36.9350625 -9.735437499999989 34.69134375 -10.943593749999987 Q32.447625 -12.15174999999999 29.39025 -14.173562499999989 L18.8866875 -10.721687499999987 L11.7856875 -23.049812499999987 L20.1688125 -30.39737499999999 Q19.9715625 -31.529096874999993 19.872937500000003 -32.66446787499999 Q19.7743125 -33.79993749999999 19.7743125 -35.22999999999999 Q19.7743125 -36.41349999999999 19.897593750000002 -37.646312499999986 Q20.020875 -38.87912499999999 20.218125 -40.25987499999999 L11.7856875 -47.60743749999999 L18.8866875 -59.83693749999999 L29.538187500000003 -56.18781249999999 Q31.313437500000003 -57.765812499999996 33.45853125 -58.94931249999999 Q35.603625 -60.132812499999986 38.1185625 -61.119062499999984 L40.2883125 -72.21437499999999 H54.3916875 L56.561437500000004 -61.266999999999996 Q58.9284375 -60.33006249999998 61.07353125 -59.121906249999995 Q63.218625 -57.91374999999999 65.0925 -56.18781249999999 L75.7933125 -59.73831249999999 L82.8943125 -47.50881249999999 L74.21531250000001 -40.05858137499998 Q74.4125625 -38.87912499999999 74.5111875 -37.76959374999999 Q74.6098125 -36.66006249999999 74.6098125 -35.22999999999999 Q74.5111875 -34.638249999999985 74.5111875 -34.04649999999999 Q74.5111875 -33.45474999999999 74.4125625 -32.862999999999985 H60.6050625 Q60.8023125 -33.35612499999999 60.8023125 -34.04649999999999 Q60.8023125 -34.73687499999999 60.8023125 -35.22999999999999 Q60.8023125 -40.943247624999984 56.802970125 -44.94101199999999 Q52.803726375000004 -48.93887499999999 47.088407625 -48.93887499999999 Q41.3731875 -48.93887499999999 37.378875 -44.93647524999999 Q33.3845625 -40.93397687499999 33.3845625 -35.21421999999998 Q33.3845625 -30.052187499999988 36.688500000000005 -26.230468749999986 Q39.9924375 -22.40874999999999 45.022312500000005 -21.66906249999999 V1.6557500000000136 H40.2883125 Z"/></g><g id="Light-S" transform="matrix(1 0 0 1 1109.75 696)"><path d="M52.256160375 -0.12719274999998653 V-25.663374999999988 H56.694679875000006 L58.79036250000001 -21.475560249999987 H62.9720625 L60.8820015 -25.674716874999987 H65.041313625 L67.12812 -21.478716249999984 H71.30173275 L69.214926375 -25.674716874999987 H73.388539125 L75.4753455 -21.478716249999984 H79.64895825 L77.562151875 -25.674716874999987 H86.37636675 V-0.12719274999998653 H52.256160375 Z M56.17443300000001 -4.045563999999985 H82.45799550000001 V-17.55728762499999 H56.17443300000001 V-4.045563999999985 Z M41.938506000000004 -0.12719274999998653  39.844598624999996 -10.524536124999987 Q38.130003 -11.101097874999986 35.38369125 -12.565383249999986 Q32.637280875 -14.029569999999989 29.579905875 -16.279008999999988 L19.626473625000003 -13.016789874999986 L14.175667125 -22.537652874999992 L22.0655685 -29.48696762499999 Q21.811411875 -30.827281374999984 21.66534825 -32.209313499999986 Q21.51938325 -33.59124699999999 21.51938325 -35.19202937499999 Q21.51938325 -36.54624924999999 21.6900045 -37.99722024999999 Q21.860724375 -39.44819124999999 22.095945 -41.132410374999985 L14.175667125 -48.119597124999984 L19.626473625000003 -57.484928499999995 L29.670936750000003 -54.08236599999999 Q31.806562500000002 -55.98286974999999 34.378505249999996 -57.422400249999995 Q36.950349375 -58.86193075 39.806726625 -59.905087374999994 L41.938506000000004 -70.412397625 H52.76043000000001 L54.85433737500001 -59.97718225 Q57.676590375 -58.907495499999996 60.125153250000004 -57.52861937499999 Q62.573716125000004 -56.149743249999986 64.826902875 -54.08236599999999 L75.07256100000001 -57.3863035 L80.5233675 -48.020972124999986 L72.242713875 -40.85517549999998 Q72.53474250000001 -39.41022062499999 72.66187012500001 -38.101565499999985 Q72.788899125 -36.79281174999999 72.788899125 -35.22999999999999 Q72.690274125 -34.638249999999985 72.690274125 -34.04649999999999 Q72.690274125 -33.45474999999999 72.591649125 -32.862999999999985 H58.632463875000006 Q58.829713875 -33.35612499999999 58.829713875 -34.04649999999999 Q58.829713875 -34.73687499999999 58.829713875 -35.22999999999999 Q58.829713875 -40.18580762499999 55.390561500000004 -43.62348062499999 Q51.951507750000005 -47.061054999999996 46.993629 -47.061054999999996 Q42.018096375 -47.061054999999996 38.592850125000005 -43.617661749999996 Q35.16750525 -40.17426849999998 35.16750525 -35.21017637499999 Q35.16750525 -30.810909624999987 37.968849750000004 -27.548690499999985 Q40.770095625 -24.28656999999999 45.022312500000005 -23.641661124999985 V-0.12719274999998653 H41.938506000000004 Z"/></g><g id="Thin-S" transform="matrix(1 0 0 1 814.015 696)"><path d="M52.881936 -1.9099382499999873 V-25.17024999999999 H57.092927625 L58.97281875000001 -21.38078162499999 H62.725500000000004 L60.862966875000005 -25.143719874999988 H64.58142525 L66.45490575 -21.383838999999988 H70.201768125 L68.32838625 -25.143719874999988 H72.07524862500001 L73.948729125 -21.383838999999988 H77.6955915 L75.822111 -25.143719874999988 H84.1385655 V-1.9099382499999873 H52.881936 Z M55.49175075 -4.519654374999988 H81.52875075 V-18.77096687499999 H55.49175075 V-4.519654374999988 Z M43.588403625000005 -1.9099382499999873  41.570437500000004 -11.757249999999988 Q39.324844875000004 -12.466560999999988 36.0758415 -14.186778249999989 Q32.82693675 -15.907094124999986 29.76956175 -18.38406099999999 L20.3660625 -15.31149774999999 L16.565153625 -22.02559187499999 L23.962028625000002 -28.576658874999985 Q23.650965375 -30.12556449999999 23.45756175 -31.754159124999987 Q23.2640595 -33.38265512499999 23.2640595 -35.15415737499999 Q23.2640595 -36.67899849999999 23.482218000000003 -38.34802937499999 Q23.700277875 -40.01706024999999 23.973469125 -42.00474849999999 L16.565153625 -48.63165812499999 L20.3660625 -55.133313999999984 L29.803686000000003 -51.97731399999999 Q32.299687500000005 -54.20012424999999 35.298282 -55.89578387499999 Q38.2968765 -57.59134487499999 41.494594875000004 -58.691408124999995 L43.588403625000005 -68.61081474999999 H51.129468375 L53.147533125 -58.687561749999986 Q56.4249405 -57.485125749999995 59.176873875000005 -55.93562837499999 Q61.928905875000005 -54.386032374999985 64.56140437500001 -51.97731399999999 L74.35190812500001 -55.034688999999986 L78.152718375 -48.53303312499999 L70.2703125 -41.65176962499999 Q70.657218375 -39.941217624999986 70.81275000000001 -38.43343862499999 Q70.968281625 -36.92556099999999 70.968281625 -35.22999999999999 Q70.869656625 -34.638249999999985 70.869656625 -34.04649999999999 Q70.869656625 -33.45474999999999 70.771031625 -32.862999999999985 H56.6600625 Q56.8573125 -33.35612499999999 56.8573125 -34.04649999999999 Q56.8573125 -34.73687499999999 56.8573125 -35.22999999999999 Q56.8573125 -39.42866349999999 53.97844875 -42.30604787499998 Q51.099486375000005 -45.18353087499999 46.89875175 -45.18353087499999 Q42.662906625000005 -45.18353087499999 39.806529375000004 -42.29914412499999 Q36.95025075 -39.41465874999999 36.95025075 -35.20623137499999 Q36.95025075 -31.569533124999985 39.248903625000004 -28.866813624999985 Q41.547655125000006 -26.16409412499999 45.022312500000005 -25.61406249999999 V-1.9099382499999873 H43.588403625000005 Z"/></g><g id="Ultralight-S" transform="matrix(1 0 0 1 517.792 696)"><path d="M53.2575 -2.979624999999986 V-24.874374999999986 H57.331896 L59.082292499999994 -21.323874999999987 H62.577562500000006 L60.851625000000006 -24.825062499999987 H64.30547250000001 L66.05093775 -21.32693237499999 H69.54176962500001 L67.796304375 -24.825062499999987 H71.28713625 L73.03260150000001 -21.32693237499999 H76.52343337500001 L74.77806675000001 -24.825062499999987 H82.7956875 V-2.979624999999986 H53.2575 Z M55.0820625 -4.804187499999987 H80.971125 V-19.499312499999988 H55.0820625 V-4.804187499999987 Z M44.578500000000005 -2.979624999999986  42.606 -12.496937499999987 Q40.04175 -13.285937499999989 36.49125 -15.159812499999987 Q32.94075 -17.03368749999999 29.883375 -19.64724999999999 L20.809875 -16.688499999999987 L17.9990625 -21.718374999999988 L25.1000625 -28.030374999999985 Q24.754875000000002 -29.704534374999987 24.532968750000002 -31.48096787499999 Q24.311062500000002 -33.257499999999986 24.311062500000002 -35.13137499999999 Q24.311062500000002 -36.758687499999986 24.557625 -38.558593749999986 Q24.8041875 -40.358499999999985 25.1000625 -42.528249999999986 L17.9990625 -48.93887499999999 L20.809875 -53.72218749999999 L29.883375 -50.71412499999999 Q32.5955625 -53.130437499999985 35.850187500000004 -54.97965624999999 Q39.1048125 -56.828875 42.507375 -57.96306249999999 L44.578500000000005 -67.5296875 H50.1508125 L52.123312500000004 -57.91374999999999 Q55.673812500000004 -56.631624999999985 58.60790625 -54.97965624999999 Q61.542 -53.327687499999996 64.402125 -50.71412499999999 L73.9194375 -53.62356249999999 L76.73025 -48.84024999999999 L69.08681250000001 -42.129706374999984 Q69.530625 -40.25987499999999 69.70321875 -38.63256249999999 Q69.87581250000001 -37.00524999999999 69.87581250000001 -35.22999999999999 Q69.7771875 -34.638249999999985 69.7771875 -34.04649999999999 Q69.7771875 -33.45474999999999 69.6785625 -32.862999999999985 H55.4765625 Q55.673812500000004 -33.35612499999999 55.673812500000004 -34.04649999999999 Q55.673812500000004 -34.73687499999999 55.673812500000004 -35.22999999999999 Q55.673812500000004 -38.9741995 53.130964125 -41.515568499999986 Q50.588214375 -44.05693749999999 46.841845125000006 -44.05693749999999 Q43.0498125 -44.05693749999999 40.534875 -41.50787574999999 Q38.019937500000005 -38.95881399999999 38.019937500000005 -35.20376574999999 Q38.019937500000005 -32.02468749999999 40.01709375 -29.657687499999987 Q42.014250000000004 -27.29068749999999 45.022312500000005 -26.79756249999999 V-2.979624999999986 H44.578500000000005 Z"/></g></g></svg>