<svg xmlns="http://www.w3.org/2000/svg" version="1.1" width="3300" height="2000"><g id="Notes"><style>
    text {
      font-family: monospace;
      text-anchor: middle;
    }
    text.emphasis {
      font-weight:bold;
    }
    text.lanchor {
      text-anchor: start;
    }
  </style><rect height="2200" id="artboard" fill="white" width="3300" x="0" y="0"/><line id="" style="fill:none;stroke:black;stroke-width:0.5;" x1="263" x2="3036" y1="292" y2="292"/><text class="lanchor emphasis" transform="matrix(1 0 0 1 263 322)">Weight/Scale Variations</text><text transform="matrix(1 0 0 1 559.711 322)">Ultralight</text><text transform="matrix(1 0 0 1 856.422 322)">Thin</text><text transform="matrix(1 0 0 1 1153.13 322)">Light</text><text transform="matrix(1 0 0 1 1449.84 322)">Regular</text><text transform="matrix(1 0 0 1 1746.56 322)">Medium</text><text transform="matrix(1 0 0 1 2043.27 322)">Semibold</text><text transform="matrix(1 0 0 1 2339.98 322)">Bold</text><text transform="matrix(1 0 0 1 2636.69 322)">Heavy</text><text transform="matrix(1 0 0 1 2933.4 322)">Black</text><text id="template-version" style="text-anchor: end;" transform="matrix(1 0 0 1 3036 1933)">Template v.1.0</text><text class="lanchor" transform="matrix(1 0 0 1 263 726)">Small</text><text class="lanchor" transform="matrix(1 0 0 1 263 1156)">Medium</text><text class="lanchor" transform="matrix(1 0 0 1 263 1586)">Large</text></g><g id="Guides"><g id="H-reference" style="fill:#27AAE1;stroke:none;" transform="matrix(1 0 0 1 339 696)"><path d="M 54.9316 0 L 57.666 0 L 30.5664 -70.459 L 28.0762 -70.459 L 0.976562 0 L 3.66211 0 L 12.9395 -24.4629 L 45.7031 -24.4629 Z M 29.1992 -67.0898 L 29.4434 -67.0898 L 44.8242 -26.709 L 13.8184 -26.709 Z"/></g><line id="Baseline-S" style="fill:none;stroke:#27AAE1;opacity:1;stroke-width:0.577;" x1="263" x2="3036" y1="696" y2="696"/><line id="Capline-S" style="fill:none;stroke:#27AAE1;opacity:1;stroke-width:0.577;" x1="263" x2="3036" y1="625.541" y2="625.541"/><g id="H-reference" style="fill:#27AAE1;stroke:none;" transform="matrix(1 0 0 1 339 1126)"><path d="M 54.9316 0 L 57.666 0 L 30.5664 -70.459 L 28.0762 -70.459 L 0.976562 0 L 3.66211 0 L 12.9395 -24.4629 L 45.7031 -24.4629 Z M 29.1992 -67.0898 L 29.4434 -67.0898 L 44.8242 -26.709 L 13.8184 -26.709 Z"/></g><line id="Baseline-M" style="fill:none;stroke:#27AAE1;opacity:1;stroke-width:0.577;" x1="263" x2="3036" y1="1126" y2="1126"/><line id="Capline-M" style="fill:none;stroke:#27AAE1;opacity:1;stroke-width:0.577;" x1="263" x2="3036" y1="1055.54" y2="1055.54"/><g id="H-reference" style="fill:#27AAE1;stroke:none;" transform="matrix(1 0 0 1 339 1556)"><path d="M 54.9316 0 L 57.666 0 L 30.5664 -70.459 L 28.0762 -70.459 L 0.976562 0 L 3.66211 0 L 12.9395 -24.4629 L 45.7031 -24.4629 Z M 29.1992 -67.0898 L 29.4434 -67.0898 L 44.8242 -26.709 L 13.8184 -26.709 Z"/></g><line id="Baseline-L" style="fill:none;stroke:#27AAE1;opacity:1;stroke-width:0.577;" x1="263" x2="3036" y1="1556" y2="1556"/><line id="Capline-L" style="fill:none;stroke:#27AAE1;opacity:1;stroke-width:0.577;" x1="263" x2="3036" y1="1485.54" y2="1485.54"/><rect height="119.336" id="left-margin" style="fill:darkred;stroke:none;opacity:0.4;" width="12.4512" x="1394.06" y="1030.79"/><rect height="119.336" id="right-margin" style="fill:darkgreen;stroke:none;opacity:0.4;" width="12.4512" x="1502.5112" y="1030.79"/><rect x="1406.5112" y="1045" width="96" height="96" fill="none" stroke="blue" stroke-dasharray="5"/><rect x="1394.06" y="1030.79" width="120.9024" height="119.336" fill="none" stroke="blue"/></g><g id="Symbols"><g id="Bold-L" transform="matrix(1 0 0 1 2266 1556)"><path d="M76.27125 -23.942499999999995 V-35.71374999999999 L120.13125000000001 -79.735 L132.06375 -67.8025 L88.20375000000001 -23.942499999999995 H76.27125 Z M136.4175 -72.15625  146.0925 -81.83125  134.32125 -93.60249999999999  124.48500000000001 -83.9275  136.4175 -72.15625 Z M18.86625 13.467500000000015 V-1.8512499999999932 H33.862500000000004 V-46.678749999999994 Q33.862500000000004 -61.83624999999999 42.650625 -73.92999999999999 Q51.43875 -86.02374999999999 65.62875000000001 -89.08749999999999 V-104.40625 H89.17125 V-88.92625 Q94.4925 -88.28125 98.3625 -85.8625 Q102.2325 -83.44375 106.425 -79.57374999999999 L94.815 -67.96375 Q91.10625 -71.6725 86.994375 -73.52687499999999 Q82.8825 -75.38125 77.4 -75.38125 Q65.30625 -75.38125 57.16312500000001 -67.076875 Q49.019999999999996 -58.772499999999994 49.019999999999996 -46.678749999999994 V-1.8512499999999932 H105.94125000000001 V-27.973749999999995 L121.26 -43.29249999999999 V-1.8512499999999932 H136.095 V13.467500000000015 H18.86625 Z M77.56125 33.30125000000001 Q71.595 33.30125000000001 67.4025 29.108750000000015 Q63.21000000000001 24.91624999999999 63.21000000000001 19.111250000000013 H91.75125 Q91.75125 25.077500000000015 87.55875 29.189375000000013 Q83.36625000000001 33.30125000000001 77.56125 33.30125000000001 Z"/></g><g id="Semibold-L" transform="matrix(1 0 0 1 1970.27 1556)"><path d="M77.0775 -24.748749999999987 V-34.907499999999985 L117.87375 -75.865 L128.19375 -65.54499999999999 L87.23625 -24.748749999999987 H77.0775 Z M132.38625 -69.89874999999999  141.41625000000002 -78.76749999999998  131.25750000000002 -88.92625  122.22749999999999 -80.0575  132.38625 -69.89874999999999 Z M21.93 11.855000000000018 V-0.883749999999992 H36.28125 V-47.80749999999999 Q36.28125 -62.31999999999999 44.746875 -73.688125 Q53.2125 -85.05624999999999 66.7575 -87.95875 V-102.31 H88.0425 V-87.95875 Q93.525 -87.15249999999999 97.7175 -84.491875 Q101.91000000000001 -81.83125 106.10249999999999 -77.63874999999999 L96.58875 -68.125 Q92.5575 -72.15625 87.96187499999999 -74.333125 Q83.36625000000001 -76.50999999999999 77.4 -76.50999999999999 Q65.30625 -76.50999999999999 57.16312500000001 -68.205625 Q49.019999999999996 -59.90124999999999 49.019999999999996 -47.80749999999999 V-0.883749999999992 H105.94125000000001 V-29.586249999999993 L118.84125 -42.48625 V-0.883749999999992 H133.03125 V11.855000000000018 H21.93 Z M77.4 31.527500000000032 Q71.75625000000001 31.527500000000032 67.72500000000001 27.496250000000003 Q63.69375 23.465000000000003 63.69375 17.982500000000016 H91.10625 Q91.10625 23.62625 87.075 27.576875 Q83.04375 31.527500000000032 77.4 31.527500000000032 Z"/></g><g id="Medium-L" transform="matrix(1 0 0 1 1674.31 1556)"><path d="M77.56125 -25.232499999999987 V-34.26249999999999 L116.26124999999999 -72.80125 L125.13 -63.9325 L86.59125 -25.232499999999987 H77.56125 Z M129.48375 -68.125  137.86875 -76.50999999999999  129.0 -85.53999999999999  120.45375000000001 -76.99374999999999  129.48375 -68.125 Z M24.1875 10.726250000000007 V-0.2387499999999818 H38.05500000000001 V-48.4525 Q38.05500000000001 -62.64249999999999 46.359375 -73.44624999999999 Q54.66375 -84.25 67.72500000000001 -87.15249999999999 V-100.85875 H87.075 V-86.99125 Q92.88000000000001 -86.185 97.23375 -83.363125 Q101.5875 -80.54124999999999 105.94125000000001 -76.1875 L97.87875000000001 -68.28625 Q93.525 -72.63999999999999 88.606875 -74.8975 Q83.68875 -77.155 77.4 -77.155 Q65.30625 -77.155 57.16312500000001 -68.850625 Q49.019999999999996 -60.54625 49.019999999999996 -48.4525 V-0.2387499999999818 H105.94125000000001 V-30.876249999999985 L116.90625 -42.0025 V-0.2387499999999818 H130.77375 V10.726250000000007 H24.1875 Z M77.4 30.23750000000001 Q71.9175 30.23750000000001 68.0475 26.367500000000007 Q64.1775 22.497500000000002 64.1775 17.015000000000015 H90.6225 Q90.6225 22.497500000000002 86.7525 26.367500000000007 Q82.8825 30.23750000000001 77.4 30.23750000000001 Z"/></g><g id="Regular-L" transform="matrix(1 0 0 1 1378.56 1556)"><path d="M78.045 -25.716250000000002 V-33.77875 L114.97125 -70.70499999999998 L123.03375 -62.64249999999999 L86.1075 -25.716250000000002 H78.045 Z M127.22625000000001 -66.835  135.28875000000002 -74.8975  127.22625000000001 -82.96  119.16375000000001 -74.8975  127.22625000000001 -66.835 Z M25.8 9.920000000000002 V0.24500000000000455 H39.345 V-49.0975 Q39.345 -62.803749999999994 47.488125000000004 -73.285 Q55.63125 -83.76625 68.37 -86.5075 V-99.72999999999999 H86.43 V-86.5075 Q92.39625 -85.53999999999999 96.91125000000001 -82.55687499999999 Q101.42625 -79.57374999999999 105.77999999999999 -75.22 L98.84625 -68.28625 Q94.33125 -72.96249999999999 89.17125 -75.38125 Q84.01125 -77.79999999999998 77.4 -77.79999999999998 Q65.30625 -77.79999999999998 57.16312500000001 -69.49562499999999 Q49.019999999999996 -61.19125 49.019999999999996 -49.0975 V0.24500000000000455 H105.94125000000001 V-31.843749999999986 L115.61625000000001 -41.51875 V0.24500000000000455 H129.0 V9.920000000000002 H25.8 Z M77.4 29.27000000000001 Q72.07875000000001 29.27000000000001 68.289375 25.480625000000003 Q64.5 21.691249999999997 64.5 16.370000000000005 H90.3 Q90.3 21.691249999999997 86.510625 25.480625000000003 Q82.72125 29.27000000000001 77.4 29.27000000000001 Z"/></g><g id="Light-L" transform="matrix(1 0 0 1 1082.77 1556)"><path d="M79.6575 -27.32875 V-35.068749999999994 L115.61625000000001 -71.0275 L123.35625 -63.287499999999994 L87.39750000000001 -27.32875 H79.6575 Z M127.54875 -67.64125  134.96625 -75.05875  127.3875 -82.63749999999999  119.97000000000001 -75.22  127.54875 -67.64125 Z M27.4125 9.11375000000001 V1.6962500000000205 H40.79625 V-48.129999999999995 Q40.79625 -61.19125 48.85875 -71.51124999999999 Q56.92124999999999 -81.83125 69.82124999999999 -84.25 V-96.1825 H84.97875 V-84.25 Q90.3 -83.44375 94.89562500000001 -80.783125 Q99.49125000000001 -78.1225 103.68375 -73.92999999999999 L98.52375 -68.77 Q94.00874999999999 -73.12375 88.768125 -75.38125 Q83.5275 -77.63874999999999 77.4 -77.63874999999999 Q64.98375 -77.63874999999999 56.518125 -69.011875 Q48.0525 -60.385 48.0525 -48.129999999999995 V1.6962500000000205 H106.7475 V-32.004999999999995 L114.16499999999999 -39.26124999999999 V1.6962500000000205 H127.3875 V9.11375000000001 H27.4125 Z M77.4 27.980000000000018 Q72.5625 27.980000000000018 69.17625 24.59375 Q65.78999999999999 21.20750000000001 65.78999999999999 16.370000000000005 H89.01 Q89.01 21.20750000000001 85.62375 24.59375 Q82.2375 27.980000000000018 77.4 27.980000000000018 Z"/></g><g id="Thin-L" transform="matrix(1 0 0 1 787.282 1556)"><path d="M81.43125 -29.102499999999992 V-36.19749999999999 L116.26124999999999 -71.18875 L123.5175 -63.9325 L88.52625 -29.102499999999992 H81.43125 Z M128.0325 -68.44749999999999  134.64375 -75.22  127.54875 -82.315  120.77625000000002 -75.70375  128.0325 -68.44749999999999 Z M29.025000000000002 8.146250000000023 V3.147500000000008 H42.2475 V-47.162499999999994 Q42.2475 -59.57875 50.31 -69.656875 Q58.37250000000001 -79.735 71.27250000000001 -81.99249999999999 V-92.47375 H83.5275 V-81.99249999999999 Q88.0425 -81.3475 92.799375 -79.00937499999999 Q97.55625 -76.67124999999999 101.74875 -72.80125 L98.20125 -69.0925 Q93.84750000000001 -73.12375 88.52625 -75.300625 Q83.205 -77.47749999999999 77.4 -77.47749999999999 Q64.66125000000001 -77.47749999999999 55.873125 -68.60874999999999 Q47.085 -59.74 47.085 -47.162499999999994 V3.147500000000008 H107.715 V-32.16624999999999 L112.71375000000002 -37.00375 V3.147500000000008 H125.775 V8.146250000000023 H29.025000000000002 Z M77.4 26.85125000000002 Q72.885 26.85125000000002 69.901875 23.86812500000002 Q66.91875 20.88499999999999 66.91875 16.370000000000005 H87.88125000000001 Q87.88125000000001 20.88499999999999 84.898125 23.86812500000002 Q81.91499999999999 26.85125000000002 77.4 26.85125000000002 Z"/></g><g id="Ultralight-L" transform="matrix(1 0 0 1 491.205 1556)"><path d="M82.39875 -30.069999999999993 V-37.00375 L116.74500000000002 -71.35 L123.67875000000001 -64.41624999999999 L89.3325 -30.069999999999993 H82.39875 Z M128.19375 -68.93124999999999  134.48250000000002 -75.38125  127.54875 -82.15375  121.26 -75.865  128.19375 -68.93124999999999 Z M29.992500000000003 7.662499999999994 V4.115000000000023 H43.05375 V-46.5175 Q43.05375 -58.61124999999999 51.11625 -68.60874999999999 Q59.17875000000001 -78.60624999999999 72.07875000000001 -80.70249999999999 V-90.3775 H82.72125 V-80.70249999999999 Q86.7525 -80.0575 91.59 -77.880625 Q96.4275 -75.70375 100.45875 -71.995 L98.03999999999999 -69.41499999999999 Q93.68625 -73.285 88.284375 -75.300625 Q82.8825 -77.31625 77.4 -77.31625 Q64.5 -77.31625 55.550625000000004 -68.28625 Q46.60125 -59.256249999999994 46.60125 -46.5175 V4.115000000000023 H108.19874999999999 V-32.16624999999999 L111.74625 -35.71374999999999 V4.115000000000023 H124.80750000000002 V7.662499999999994 H29.992500000000003 Z M77.4 26.045000000000016 Q73.2075 26.045000000000016 70.46625 23.303750000000008 Q67.72500000000001 20.5625 67.72500000000001 16.370000000000005 H87.075 Q87.075 20.5625 84.33375 23.303750000000008 Q81.5925 26.045000000000016 77.4 26.045000000000016 Z"/></g><g id="Bold-M" transform="matrix(1 0 0 1 2281.8 1126)"><path d="M61.125 -28.35499999999999 V-41.10499999999999 L93.25 -73.22999999999999 L106.0 -60.35499999999999 L74.0 -28.35499999999999 H61.125 Z M109.5 -63.85499999999999  117.25 -71.60499999999999  104.5 -84.35499999999999  96.625 -76.60499999999999  109.5 -63.85499999999999 Z M12.75 3.3950000000000102 V-12.35499999999999 H24.25 V-42.72999999999999 Q24.25 -54.85499999999999 31.314999999999998 -64.47999999999999 Q38.375 -74.10499999999999 49.625 -76.85499999999999 V-89.97999999999999 H70.375 V-76.85499999999999 Q72.75 -76.22999999999999 74.875 -75.41999999999999 Q77.0 -74.60499999999999 79.125 -73.22999999999999 L67.125 -61.22999999999999 Q65.625 -61.97999999999999 63.875 -62.35499999999999 Q62.125 -62.72999999999999 60.0 -62.72999999999999 Q51.75 -62.72999999999999 45.875 -56.85499999999999 Q40.0 -50.97999999999999 40.0 -42.72999999999999 V-12.35499999999999 H80.0 V-20.22999999999999 L95.75 -35.97999999999999 V-12.35499999999999 H107.25 V3.3950000000000102 H12.75 Z M60.125 19.02000000000001 Q55.375 19.02000000000001 52.0 15.710000000000008 Q48.625 12.39500000000001 48.625 7.64500000000001 H71.5 Q71.5 12.39500000000001 68.19 15.710000000000008 Q64.875 19.02000000000001 60.125 19.02000000000001 Z"/></g><g id="Semibold-M" transform="matrix(1 0 0 1 1985.97 1126)"><path d="M62.0 -29.22999999999999 V-40.22999999999999 L90.875 -69.22999999999999 L102.0 -58.10499999999999 L73.125 -29.22999999999999 H62.0 Z M105.375 -61.47999999999999  112.375 -68.47999999999999  101.375 -79.60499999999999  94.25 -72.47999999999999  105.375 -61.47999999999999 Z M15.875 1.7700000000000102 V-11.47999999999999 H26.75 V-43.85499999999999 Q26.75 -55.22999999999999 33.5 -64.16999999999999 Q40.25 -73.10499999999999 50.875 -75.72999999999999 V-87.85499999999999 H69.125 V-75.72999999999999 Q71.875 -74.97999999999999 74.25 -73.91999999999999 Q76.625 -72.85499999999999 78.875 -71.22999999999999 L69.0 -61.35499999999999 Q67.125 -62.60499999999999 64.875 -63.22999999999999 Q62.625 -63.85499999999999 60.0 -63.85499999999999 Q51.75 -63.85499999999999 45.875 -57.97999999999999 Q40.0 -52.10499999999999 40.0 -43.85499999999999 V-11.47999999999999 H80.0 V-21.97999999999999 L93.25 -35.22999999999999 V-11.47999999999999 H104.125 V1.7700000000000102 H15.875 Z M60.125 17.14500000000001 Q55.625 17.14500000000001 52.44 14.02000000000001 Q49.25 10.89500000000001 49.25 6.39500000000001 H70.875 Q70.875 10.89500000000001 67.69 14.02000000000001 Q64.5 17.14500000000001 60.125 17.14500000000001 Z"/></g><g id="Medium-M" transform="matrix(1 0 0 1 1689.91 1126)"><path d="M62.5 -29.72999999999999 V-39.60499999999999 L89.125 -66.22999999999999 L99.0 -56.35499999999999 L72.375 -29.72999999999999 H62.5 Z M102.25 -59.72999999999999  108.75 -66.22999999999999  99.0 -75.97999999999999  92.5 -69.47999999999999  102.25 -59.72999999999999 Z M18.25 0.6450000000000102 V-10.72999999999999 H28.625 V-44.60499999999999 Q28.625 -55.60499999999999 35.185 -63.97999999999999 Q41.75 -72.35499999999999 51.75 -74.85499999999999 V-86.35499999999999 H68.25 V-74.85499999999999 Q71.125 -74.10499999999999 73.75 -72.85499999999999 Q76.375 -71.60499999999999 78.625 -69.85499999999999 L70.375 -61.47999999999999 Q68.25 -62.97999999999999 65.625 -63.79499999999999 Q63.0 -64.60499999999999 60.0 -64.60499999999999 Q51.75 -64.60499999999999 45.875 -58.72999999999999 Q40.0 -52.85499999999999 40.0 -44.60499999999999 V-10.72999999999999 H80.0 V-23.22999999999999 L91.375 -34.60499999999999 V-10.72999999999999 H101.75 V0.6450000000000102 H18.25 Z M60.0 15.77000000000001 Q55.75 15.77000000000001 52.69 12.77000000000001 Q49.625 9.77000000000001 49.625 5.52000000000001 H70.375 Q70.375 9.77000000000001 67.315 12.77000000000001 Q64.25 15.77000000000001 60.0 15.77000000000001 Z"/></g><g id="Regular-M" transform="matrix(1 0 0 1 1394.06 1126)"><path d="M63.0 -30.22999999999999 V-39.10499999999999 L87.875 -63.97999999999999 L96.75 -55.10499999999999 L71.875 -30.22999999999999 H63.0 Z M100.0 -58.35499999999999  106.125 -64.47999999999999  97.25 -73.35499999999999  91.125 -67.22999999999999  100.0 -58.35499999999999 Z M20.0 -0.22999999999998977 V-10.22999999999999 H30.0 V-45.22999999999999 Q30.0 -55.85499999999999 36.375 -63.79499999999999 Q42.75 -71.72999999999999 52.5 -74.22999999999999 V-85.22999999999999 H67.5 V-74.22999999999999 Q70.625 -73.47999999999999 73.375 -72.04499999999999 Q76.125 -70.60499999999999 78.5 -68.72999999999999 L71.375 -61.60499999999999 Q69.0 -63.35499999999999 66.125 -64.28999999999999 Q63.25 -65.22999999999999 60.0 -65.22999999999999 Q51.75 -65.22999999999999 45.875 -59.35499999999999 Q40.0 -53.47999999999999 40.0 -45.22999999999999 V-10.22999999999999 H80.0 V-24.22999999999999 L90.0 -34.22999999999999 V-10.22999999999999 H100.0 V-0.22999999999998977 H20.0 Z M60.0 14.77000000000001 Q55.875 14.77000000000001 52.94 11.835000000000008 Q50.0 8.89500000000001 50.0 4.77000000000001 H70.0 Q70.0 8.89500000000001 67.065 11.835000000000008 Q64.125 14.77000000000001 60.0 14.77000000000001 Z"/></g><g id="Light-M" transform="matrix(1 0 0 1 1098.18 1126)"><path d="M63.625 -30.85499999999999 V-38.72999999999999 L88.75 -63.85499999999999 L96.5 -55.97999999999999 L71.5 -30.85499999999999 H63.625 Z M99.875 -59.35499999999999  105.5 -64.97999999999999  97.75 -72.85499999999999  92.125 -67.22999999999999  99.875 -59.35499999999999 Z M21.25 -0.8549999999999898 V-8.35499999999999 H31.25 V-44.60499999999999 Q31.25 -54.85499999999999 37.565 -62.669999999999995 Q43.875 -70.47999999999999 53.75 -72.72999999999999 V-82.47999999999999 H66.25 V-72.72999999999999 Q69.25 -71.97999999999999 72.25 -70.60499999999999 Q75.25 -69.22999999999999 77.875 -67.10499999999999 L72.5 -61.72999999999999 Q69.875 -63.72999999999999 66.625 -64.78999999999999 Q63.375 -65.85499999999999 60.0 -65.85499999999999 Q51.25 -65.85499999999999 45.0 -59.66999999999999 Q38.75 -53.47999999999999 38.75 -44.60499999999999 V-8.35499999999999 H81.25 V-26.60499999999999 L88.75 -34.10499999999999 V-8.35499999999999 H98.75 V-0.8549999999999898 H21.25 Z M60.0 13.77000000000001 Q56.25 13.77000000000001 53.625 11.14500000000001 Q51.0 8.52000000000001 51.0 4.77000000000001 H69.0 Q69.0 8.52000000000001 66.375 11.14500000000001 Q63.75 13.77000000000001 60.0 13.77000000000001 Z"/></g><g id="Thin-M" transform="matrix(1 0 0 1 802.565 1126)"><path d="M64.25 -31.60499999999999 V-38.35499999999999 L89.625 -63.72999999999999 L96.375 -56.97999999999999 L71.0 -31.60499999999999 H64.25 Z M99.75 -60.35499999999999  105.0 -65.47999999999999  98.25 -72.35499999999999  93.0 -67.10499999999999  99.75 -60.35499999999999 Z M22.5 -1.6049999999999898 V-6.60499999999999 H32.5 V-44.10499999999999 Q32.5 -53.72999999999999 38.75 -61.47999999999999 Q45.0 -69.22999999999999 55.0 -71.10499999999999 V-79.60499999999999 H65.0 V-71.10499999999999 Q67.875 -70.60499999999999 71.19 -69.22999999999999 Q74.5 -67.85499999999999 77.25 -65.47999999999999 L73.625 -61.85499999999999 Q70.875 -64.10499999999999 67.19 -65.35499999999999 Q63.5 -66.60499999999999 60.0 -66.60499999999999 Q50.75 -66.60499999999999 44.125 -59.97999999999999 Q37.5 -53.35499999999999 37.5 -44.10499999999999 V-6.60499999999999 H82.5 V-28.97999999999999 L87.5 -33.97999999999999 V-6.60499999999999 H97.5 V-1.6049999999999898 H22.5 Z M60.0 12.89500000000001 Q56.5 12.89500000000001 54.19 10.585000000000008 Q51.875 8.27000000000001 51.875 4.77000000000001 H68.125 Q68.125 8.27000000000001 65.815 10.585000000000008 Q63.5 12.89500000000001 60.0 12.89500000000001 Z"/></g><g id="Ultralight-M" transform="matrix(1 0 0 1 506.415 1126)"><path d="M64.625 -31.97999999999999 V-38.10499999999999 L90.125 -63.60499999999999 L96.25 -57.47999999999999 L70.75 -31.97999999999999 H64.625 Z M99.75 -60.97999999999999  104.625 -65.85499999999999  98.5 -71.97999999999999  93.625 -67.10499999999999  99.75 -60.97999999999999 Z M23.25 -1.9799999999999898 V-5.47999999999999 H33.25 V-43.72999999999999 Q33.25 -53.10499999999999 39.5 -60.794999999999995 Q45.75 -68.47999999999999 55.75 -70.22999999999999 V-77.97999999999999 H64.25 V-70.22999999999999 Q67.0 -69.72999999999999 70.5 -68.35499999999999 Q74.0 -66.97999999999999 76.875 -64.47999999999999 L74.375 -61.97999999999999 Q71.375 -64.35499999999999 67.5 -65.66999999999999 Q63.625 -66.97999999999999 60.0 -66.97999999999999 Q50.375 -66.97999999999999 43.565 -60.169999999999995 Q36.75 -53.35499999999999 36.75 -43.72999999999999 V-5.47999999999999 H83.25 V-30.35499999999999 L86.75 -33.85499999999999 V-5.47999999999999 H96.75 V-1.9799999999999898 H23.25 Z M60.0 12.27000000000001 Q56.75 12.27000000000001 54.625 10.14500000000001 Q52.5 8.02000000000001 52.5 4.77000000000001 H67.5 Q67.5 8.02000000000001 65.375 10.14500000000001 Q63.25 12.27000000000001 60.0 12.27000000000001 Z"/></g><g id="Bold-S" transform="matrix(1 0 0 1 2294.23 696)"><path d="M46.255914000000004 -27.835491999999995 V-38.18874999999999 L73.86933599999999 -65.802172 L84.22732800000001 -55.34949999999999 L56.708586 -27.835491999999995 H46.255914000000004 Z M86.887836 -58.010008  92.805336 -63.92750799999999  82.452078 -74.2855  76.435164 -68.368  86.887836 -58.010008 Z M10.05975 -4.752508000000006 V-17.576914000000002 H19.134828 V-41.147499999999994 Q19.134828 -50.71491399999999 24.607332000000003 -58.20883599999999 Q30.079836 -65.707492 38.956086 -67.875664 V-78.42774999999999 H55.723914 V-67.875664 Q57.598577999999996 -67.283914 59.175 -66.739504 Q60.751422 -66.199828 62.431992 -65.210422 L52.66575 -55.44891399999999 Q51.48225 -55.841835999999994 50.25141 -56.14007799999999 Q49.01583599999999 -56.43358599999999 47.34 -56.43358599999999 Q41.029578 -56.43358599999999 36.489672 -51.945753999999994 Q31.9545 -47.457921999999996 31.9545 -41.147499999999994 V-17.576914000000002 H62.7255 V-23.00207799999999 L75.545172 -35.821749999999994 V-17.576914000000002 H84.62025 V-4.752508000000006 H10.05975 Z M47.439414000000006 7.574828000000011 Q43.590672 7.574828000000011 40.977504 5.009 Q38.364335999999994 2.443172000000004 38.364335999999994 -1.400835999999984 H56.415078 Q56.415078 2.443172000000004 53.84925 5.009 Q51.283422 7.574828000000011 47.439414000000006 7.574828000000011 Z"/></g><g id="Semibold-S" transform="matrix(1 0 0 1 1998.1 696)"><path d="M46.947078 -28.521921999999996 V-37.49758599999999 L71.994672 -62.649328 L81.06975 -53.57424999999999 L56.017422 -28.521921999999996 H46.947078 Z M83.63557800000001 -56.14007799999999  88.96132800000001 -61.46582799999999  79.985664 -70.536172  74.5605 -65.111008  83.63557800000001 -56.14007799999999 Z M12.526164 -6.035421999999983 V-16.885749999999987 H21.104172000000002 V-42.03749199999999 Q21.104172000000002 -51.008421999999996 26.330508000000002 -57.962667999999994 Q31.561578 -64.91691399999999 39.945492 -66.985672 V-76.751914 H54.734508 V-66.985672 Q56.907414 -66.294508 58.682664 -65.556004 Q60.457914 -64.8175 62.233164 -63.63399999999999 L54.147492 -55.54832799999999 Q52.66575 -56.334171999999995 51.037254000000004 -56.82650799999999 Q49.413492000000005 -57.323578 47.34 -57.323578 Q41.029578 -57.323578 36.489672 -52.83574599999999 Q31.9545 -48.347913999999996 31.9545 -42.03749199999999 V-16.885749999999987 H62.7255 V-24.379671999999992 L73.575828 -35.22999999999999 V-16.885749999999987 H82.153836 V-6.035421999999983 H12.526164 Z M47.439414000000006 6.093086 Q43.7895 6.093086 41.323085999999996 3.678746000000018 Q38.856672 1.2596719999999948 38.856672 -2.3855080000000015 H55.918008 Q55.918008 1.2596719999999948 53.456328 3.678746000000018 Q50.989914000000006 6.093086 47.439414000000006 6.093086 Z"/></g><g id="Medium-S" transform="matrix(1 0 0 1 1701.85 696)"><path d="M47.34 -28.919577999999994 V-37.00525 L70.61707799999999 -60.28232799999999 L78.70275 -52.19192199999999 L55.425672 -28.919577999999994 H47.34 Z M81.16916400000001 -54.757749999999994  86.101992 -59.69057799999999  78.111 -67.676836  73.178172 -62.744007999999994  81.16916400000001 -54.757749999999994 Z M14.400827999999999 -6.9254140000000035 V-16.293999999999997 H22.585914 V-42.62450799999999 Q22.585914 -51.306664 27.665496 -57.81591399999999 Q32.745078 -64.325164 40.631922 -66.294508 V-75.56841399999999 H54.048078 V-66.294508 Q56.315664000000005 -65.60807799999999 58.285008 -64.718086 Q60.259085999999996 -63.83282799999999 62.034335999999996 -62.549913999999994 L55.231578 -55.643007999999995 Q53.551007999999996 -56.632414 51.629004 -57.27150399999999 Q49.707 -57.91532799999999 47.34 -57.91532799999999 Q41.029578 -57.91532799999999 36.489672 -53.42749599999999 Q31.9545 -48.93966399999999 31.9545 -42.62450799999999 V-16.293999999999997 H62.7255 V-25.369077999999995 L72.09408599999999 -34.737663999999995 V-16.293999999999997 H80.27917199999999 V-6.9254140000000035 H14.400827999999999 Z M47.34 5.009 Q43.88891400000001 5.009 41.521914 2.6893400000000156 Q39.154914000000005 0.3744140000000158 39.154914000000005 -3.076671999999988 H55.525085999999995 Q55.525085999999995 0.3744140000000158 53.158086 2.6893400000000156 Q50.79108599999999 5.009 47.34 5.009 Z"/></g><g id="Regular-S" transform="matrix(1 0 0 1 1405.73 696)"><path d="M47.732922 -29.312499999999993 V-36.61232799999999 L69.627672 -58.50707799999999 L76.9275 -51.207249999999995 L55.03275 -29.312499999999993 H47.732922 Z M79.39391400000001 -53.67366399999999  84.0285 -58.308249999999994  76.72867199999999 -65.60807799999999  72.09408599999999 -60.97349199999999  79.39391400000001 -53.67366399999999 Z M15.778422 -7.61657799999999 V-15.901077999999998 H23.67 V-43.12157799999999 Q23.67 -51.50549199999999 28.602828 -57.66915999999999 Q33.530922000000004 -63.83282799999999 41.223672 -65.802172 V-74.678422 H53.456328 V-65.802172 Q55.918008 -65.111008 57.9915 -64.07899599999999 Q60.064992000000004 -63.042249999999996 61.934922 -61.659921999999995 L56.017422 -55.74242199999999 Q54.147492 -56.92592199999999 52.02666 -57.66915999999999 Q49.905828 -58.407664 47.34 -58.407664 Q41.029578 -58.407664 36.489672 -53.919832 Q31.9545 -49.431999999999995 31.9545 -43.12157799999999 V-15.901077999999998 H62.7255 V-26.154921999999992 L71.01 -34.43942199999999 V-15.901077999999998 H78.901578 V-7.61657799999999 H15.778422 Z M47.34 4.218422000000004 Q43.988327999999996 4.218422000000004 41.716007999999995 1.9508360000000096 Q39.448422 -0.316749999999999 39.448422 -3.6684219999999925 H55.231578 Q55.231578 -0.316749999999999 52.963992000000005 1.9508360000000096 Q50.691672000000004 4.218422000000004 47.34 4.218422000000004 Z"/></g><g id="Light-S" transform="matrix(1 0 0 1 1109.75 696)"><path d="M48.229992 -29.804835999999987 V-36.31408599999999 L70.31883599999999 -58.407664 L76.72867199999999 -51.89841399999999 L54.734508 -29.804835999999987 H48.229992 Z M79.2945 -54.459508  83.536164 -58.70117199999999  77.126328 -65.210422  72.884664 -60.97349199999999  79.2945 -54.459508 Z M16.767827999999998 -8.108913999999999 V-14.419335999999987 H24.654672 V-42.62450799999999 Q24.654672 -50.71491399999999 29.54016 -56.77916799999999 Q34.420913999999996 -62.84342199999999 42.213077999999996 -64.61867199999999 V-72.51025 H52.466922000000004 V-64.61867199999999 Q54.833922 -63.92750799999999 57.101507999999995 -62.94283599999999 Q59.373827999999996 -61.958164 61.442586 -60.37700799999999 L56.907414 -55.841835999999994 Q54.833922 -57.22416399999999 52.419582 -58.062082 Q50.000507999999996 -58.89999999999999 47.34 -58.89999999999999 Q40.631922 -58.89999999999999 35.798508 -54.166 Q30.969828 -49.431999999999995 30.969828 -42.62450799999999 V-14.419335999999987 H63.710172 V-28.029585999999988 L70.025328 -34.34000799999999 V-14.419335999999987 H77.912172 V-8.108913999999999 H16.767827999999998 Z M47.34 3.432578000000021 Q44.281836 3.432578000000021 42.260418 1.4111599999999953 Q40.239 -0.6149919999999867 40.239 -3.6684219999999925 H54.441 Q54.441 -0.6149919999999867 52.419582 1.4111599999999953 Q50.398164 3.432578000000021 47.34 3.432578000000021 Z"/></g><g id="Thin-S" transform="matrix(1 0 0 1 814.015 696)"><path d="M48.722328 -30.396585999999992 V-36.02057799999999 L71.01 -58.308249999999994 L76.63399199999999 -52.68899199999999 L54.341586 -30.396585999999992 H48.722328 Z M79.19508599999999 -55.250085999999996  83.138508 -59.098828  77.51925 -64.8175  73.575828 -60.874078  79.19508599999999 -55.250085999999996 Z M17.7525 -8.700664000000003 V-13.037007999999986 H25.644078 V-42.23158599999999 Q25.644078 -49.824921999999994 30.477491999999998 -55.841835999999994 Q35.306172000000004 -61.85874999999999 43.19775 -63.34049199999999 V-70.24266399999999 H51.48225 V-63.34049199999999 Q53.749835999999995 -62.84342199999999 56.26359 -61.85874999999999 Q58.782078 -60.874078 60.95025 -59.098828 L57.792672 -55.94125 Q55.6245 -57.51767199999999 52.864578 -58.50707799999999 Q50.099922 -59.491749999999996 47.34 -59.491749999999996 Q40.239 -59.491749999999996 35.112078 -54.412167999999994 Q29.980422 -49.33258599999999 29.980422 -42.23158599999999 V-13.037007999999986 H64.699578 V-29.90424999999999 L69.035922 -34.24532799999999 V-13.037007999999986 H76.9275 V-8.700664000000003 H17.7525 Z M47.34 2.741414000000006 Q44.480664000000004 2.741414000000006 42.705414000000005 0.9661640000000062 Q40.930164000000005 -0.8090859999999935 40.930164000000005 -3.6684219999999925 H53.749835999999995 Q53.749835999999995 -0.8090859999999935 51.974585999999995 0.9661640000000062 Q50.199335999999995 2.741414000000006 47.34 2.741414000000006 Z"/></g><g id="Ultralight-S" transform="matrix(1 0 0 1 517.792 696)"><path d="M49.01583599999999 -30.694827999999994 V-35.821749999999994 L71.402922 -58.20883599999999 L76.53457800000001 -53.081914 L54.147492 -30.694827999999994 H49.01583599999999 Z M79.19508599999999 -55.74242199999999  82.845 -59.39233599999999  77.718078 -64.52399199999999  74.06816400000001 -60.874078  79.19508599999999 -55.74242199999999 Z M18.34425 -8.994171999999992 V-12.151749999999993 H26.235827999999998 V-41.93807799999999 Q26.235827999999998 -49.33258599999999 31.064508 -55.30215999999999 Q35.897922 -61.266999999999996 43.7895 -62.649328 V-68.95974999999999 H50.8905 V-62.649328 Q53.058672 -62.15699199999999 55.723914 -61.16758599999999 Q58.384422 -60.182914 60.652007999999995 -58.308249999999994 L58.384422 -56.04066399999999 Q56.017422 -57.716499999999996 53.110746 -58.75324599999999 Q50.199335999999995 -59.78999199999999 47.34 -59.78999199999999 Q39.945492 -59.78999199999999 34.667082 -54.558921999999995 Q29.388672 -49.33258599999999 29.388672 -41.93807799999999 V-12.151749999999993 H65.291328 V-30.98833599999999 L68.444172 -34.145914 V-12.151749999999993 H76.33575 V-8.994171999999992 H18.34425 Z M47.34 2.2490780000000115 Q44.679492 2.2490780000000115 43.050996 0.6205820000000131 Q41.4225 -1.0079139999999995 41.4225 -3.6684219999999925 H53.2575 Q53.2575 -1.0079139999999995 51.629004 0.6205820000000131 Q50.000507999999996 2.2490780000000115 47.34 2.2490780000000115 Z"/></g></g></svg>