<svg xmlns="http://www.w3.org/2000/svg" version="1.1" width="3300" height="2000"><g id="Notes"><style>
    text {
      font-family: monospace;
      text-anchor: middle;
    }
    text.emphasis {
      font-weight:bold;
    }
    text.lanchor {
      text-anchor: start;
    }
  </style><rect height="2200" id="artboard" fill="white" width="3300" x="0" y="0"/><line id="" style="fill:none;stroke:black;stroke-width:0.5;" x1="263" x2="3036" y1="292" y2="292"/><text class="lanchor emphasis" transform="matrix(1 0 0 1 263 322)">Weight/Scale Variations</text><text transform="matrix(1 0 0 1 559.711 322)">Ultralight</text><text transform="matrix(1 0 0 1 856.422 322)">Thin</text><text transform="matrix(1 0 0 1 1153.13 322)">Light</text><text transform="matrix(1 0 0 1 1449.84 322)">Regular</text><text transform="matrix(1 0 0 1 1746.56 322)">Medium</text><text transform="matrix(1 0 0 1 2043.27 322)">Semibold</text><text transform="matrix(1 0 0 1 2339.98 322)">Bold</text><text transform="matrix(1 0 0 1 2636.69 322)">Heavy</text><text transform="matrix(1 0 0 1 2933.4 322)">Black</text><text id="template-version" style="text-anchor: end;" transform="matrix(1 0 0 1 3036 1933)">Template v.1.0</text><text class="lanchor" transform="matrix(1 0 0 1 263 726)">Small</text><text class="lanchor" transform="matrix(1 0 0 1 263 1156)">Medium</text><text class="lanchor" transform="matrix(1 0 0 1 263 1586)">Large</text></g><g id="Guides"><g id="H-reference" style="fill:#27AAE1;stroke:none;" transform="matrix(1 0 0 1 339 696)"><path d="M 54.9316 0 L 57.666 0 L 30.5664 -70.459 L 28.0762 -70.459 L 0.976562 0 L 3.66211 0 L 12.9395 -24.4629 L 45.7031 -24.4629 Z M 29.1992 -67.0898 L 29.4434 -67.0898 L 44.8242 -26.709 L 13.8184 -26.709 Z"/></g><line id="Baseline-S" style="fill:none;stroke:#27AAE1;opacity:1;stroke-width:0.577;" x1="263" x2="3036" y1="696" y2="696"/><line id="Capline-S" style="fill:none;stroke:#27AAE1;opacity:1;stroke-width:0.577;" x1="263" x2="3036" y1="625.541" y2="625.541"/><g id="H-reference" style="fill:#27AAE1;stroke:none;" transform="matrix(1 0 0 1 339 1126)"><path d="M 54.9316 0 L 57.666 0 L 30.5664 -70.459 L 28.0762 -70.459 L 0.976562 0 L 3.66211 0 L 12.9395 -24.4629 L 45.7031 -24.4629 Z M 29.1992 -67.0898 L 29.4434 -67.0898 L 44.8242 -26.709 L 13.8184 -26.709 Z"/></g><line id="Baseline-M" style="fill:none;stroke:#27AAE1;opacity:1;stroke-width:0.577;" x1="263" x2="3036" y1="1126" y2="1126"/><line id="Capline-M" style="fill:none;stroke:#27AAE1;opacity:1;stroke-width:0.577;" x1="263" x2="3036" y1="1055.54" y2="1055.54"/><g id="H-reference" style="fill:#27AAE1;stroke:none;" transform="matrix(1 0 0 1 339 1556)"><path d="M 54.9316 0 L 57.666 0 L 30.5664 -70.459 L 28.0762 -70.459 L 0.976562 0 L 3.66211 0 L 12.9395 -24.4629 L 45.7031 -24.4629 Z M 29.1992 -67.0898 L 29.4434 -67.0898 L 44.8242 -26.709 L 13.8184 -26.709 Z"/></g><line id="Baseline-L" style="fill:none;stroke:#27AAE1;opacity:1;stroke-width:0.577;" x1="263" x2="3036" y1="1556" y2="1556"/><line id="Capline-L" style="fill:none;stroke:#27AAE1;opacity:1;stroke-width:0.577;" x1="263" x2="3036" y1="1485.54" y2="1485.54"/><rect height="119.336" id="left-margin" style="fill:darkred;stroke:none;opacity:0.4;" width="12.4512" x="1394.06" y="1030.79"/><rect height="119.336" id="right-margin" style="fill:darkgreen;stroke:none;opacity:0.4;" width="12.4512" x="1502.5112" y="1030.79"/><rect x="1406.5112" y="1045" width="96" height="96" fill="none" stroke="blue" stroke-dasharray="5"/><rect x="1394.06" y="1030.79" width="120.9024" height="119.336" fill="none" stroke="blue"/></g><g id="Symbols"><g id="Bold-L" transform="matrix(1 0 0 1 2266 1556)"><path d="M136.4175 37.655  118.51875 19.917500000000018 H24.1875 Q18.06 19.917500000000018 13.786875000000002 15.644374999999997 Q9.513750000000002 11.371250000000018 9.513750000000002 5.243750000000006 V-75.70375 Q9.513750000000002 -80.70249999999999 12.738750000000001 -84.814375 Q15.963750000000001 -88.92625 20.80125 -90.05499999999999 H24.02625 V-74.41375 L4.03125 -94.57 L11.932500000000001 -102.47125 L144.15750000000003 29.753749999999997 L136.4175 37.655 Z M24.1875 5.243750000000006 H103.68375 L39.18375 -59.57875 H24.1875 V5.243750000000006 Q24.1875 5.243750000000006 24.1875 5.243750000000006 Q24.1875 5.243750000000006 24.1875 5.243750000000006 Z M143.19 12.338750000000005  130.6125 0.0837500000000233 V-59.57875 H71.11125 L40.15125 -90.53875 H130.6125 Q136.74 -90.53875 141.09375 -86.185 Q145.44750000000002 -81.83125 145.44750000000002 -75.70375 V5.243750000000006 Q145.44750000000002 7.340000000000018 144.64125 9.11375000000001 Q143.835 10.887500000000003 143.19 12.338750000000005 Z M116.10000000000001 -14.428749999999994  82.39875 -48.129999999999995 H116.10000000000001 V-14.428749999999994 Z"/></g><g id="Semibold-L" transform="matrix(1 0 0 1 1970.27 1556)"><path d="M135.7725 37.655  117.39 19.433750000000003 H23.220000000000002 Q17.57625 19.433750000000003 13.70625 15.563749999999999 Q9.83625 11.693749999999994 9.83625 6.049999999999997 V-76.50999999999999 Q9.83625 -81.3475 13.141875 -85.13687499999999 Q16.447499999999998 -88.92625 21.12375 -89.73249999999999 H24.34875 V-73.60749999999999 L3.3862500000000004 -94.73124999999999 L11.44875 -102.79374999999999 L143.835 29.431250000000006 L135.7725 37.655 Z M23.220000000000002 6.049999999999997 H104.00625000000001 L36.60375 -61.513749999999995 H23.220000000000002 V6.049999999999997 Q23.220000000000002 6.049999999999997 23.220000000000002 6.049999999999997 Q23.220000000000002 6.049999999999997 23.220000000000002 6.049999999999997 Z M142.70625 12.983750000000015  131.57999999999998 2.180000000000007 V-61.513749999999995 H68.0475 L39.50625 -90.05499999999999 H131.57999999999998 Q137.22375 -90.05499999999999 141.09375 -86.104375 Q144.96375 -82.15375 144.96375 -76.50999999999999 V6.049999999999997 Q144.96375 7.984999999999999 144.238125 9.75875000000002 Q143.51250000000002 11.532500000000013 142.70625 12.983750000000015 Z M116.10000000000001 -13.299999999999997  81.27 -48.129999999999995 H116.10000000000001 V-13.299999999999997 Z"/></g><g id="Medium-L" transform="matrix(1 0 0 1 1674.31 1556)"><path d="M135.28875000000002 37.493750000000006  116.74500000000002 19.111250000000013 H22.575 Q17.25375 19.111250000000013 13.70625 15.483125000000001 Q10.15875 11.855000000000018 10.15875 6.533750000000012 V-76.99374999999999 Q10.15875 -81.83125 13.464375 -85.459375 Q16.77 -89.08749999999999 21.446250000000003 -89.41 H24.67125 V-72.96249999999999 L2.9025000000000003 -94.8925 L11.12625 -103.11625 L143.51250000000002 29.27000000000001 L135.28875000000002 37.493750000000006 Z M22.575 6.533750000000012 H104.16749999999999 L34.830000000000005 -62.964999999999996 H22.575 V6.533750000000012 Q22.575 6.533750000000012 22.575 6.533750000000012 Q22.575 6.533750000000012 22.575 6.533750000000012 Z M142.38375 13.628749999999997  132.225 3.6312499999999943 V-62.964999999999996 H65.78999999999999 L39.0225 -89.57124999999999 H132.225 Q137.54625 -89.57124999999999 141.09375 -85.943125 Q144.64125 -82.315 144.64125 -76.99374999999999 V6.533750000000012 Q144.64125 8.63000000000001 143.915625 10.403750000000002 Q143.19 12.177500000000023 142.38375 13.628749999999997 Z M116.10000000000001 -12.493749999999991  80.46375 -48.129999999999995 H116.10000000000001 V-12.493749999999991 Z"/></g><g id="Regular-L" transform="matrix(1 0 0 1 1378.56 1556)"><path d="M134.96625 37.493750000000006  116.10000000000001 18.78875000000002 H22.09125 Q17.0925 18.78875000000002 13.70625 15.402500000000003 Q10.32 12.01625 10.32 7.0175000000000125 V-77.47749999999999 Q10.32 -82.15375 13.625625 -85.62062499999999 Q16.931250000000002 -89.08749999999999 21.6075 -89.24875 H24.8325 V-72.47874999999999 L2.58 -94.8925 L10.965 -103.2775 L143.35125000000002 29.108750000000015 L134.96625 37.493750000000006 Z M22.09125 7.0175000000000125 H104.32875000000001 L33.37875 -63.9325 H22.09125 V7.0175000000000125 Q22.09125 7.0175000000000125 22.09125 7.0175000000000125 Q22.09125 7.0175000000000125 22.09125 7.0175000000000125 Z M142.06125 13.951250000000002  132.70875 4.760000000000005 V-63.9325 H64.01625 L38.7 -89.24875 H132.70875 Q137.7075 -89.24875 141.09375 -85.8625 Q144.48 -82.47625 144.48 -77.47749999999999 V7.0175000000000125 Q144.48 8.952500000000015 143.754375 10.726250000000007 Q143.02875 12.5 142.06125 13.951250000000002 Z M116.10000000000001 -11.848749999999995  79.81875000000001 -48.129999999999995 H116.10000000000001 V-11.848749999999995 Z"/></g><g id="Light-L" transform="matrix(1 0 0 1 1082.77 1556)"><path d="M136.4175 35.55875000000003  116.26124999999999 15.563749999999999 H24.993750000000002 Q20.15625 15.563749999999999 16.850625 12.258125000000007 Q13.545000000000002 8.952500000000015 13.545000000000002 4.115000000000023 V-74.57499999999999 Q13.545000000000002 -79.09 16.77 -82.47625 Q19.995 -85.8625 24.509999999999998 -86.02374999999999 H28.057499999999997 V-72.63999999999999 L6.611249999999999 -94.2475 L13.222499999999998 -101.02 L143.02875 28.786250000000024 L136.4175 35.55875000000003 Z M24.993750000000002 6.211250000000007 H106.7475 L37.41 -63.287499999999994 H22.8975 V4.115000000000023 Q22.8975 5.08250000000001 23.461875000000003 5.646874999999994 Q24.02625 6.211250000000007 24.993750000000002 6.211250000000007 Z M139.32000000000002 10.242500000000007  131.9025 2.825000000000003 V-63.287499999999994 H65.78999999999999 L43.05375 -86.02374999999999 H129.80625 Q134.64375 -86.02374999999999 137.949375 -82.71812499999999 Q141.255 -79.4125 141.255 -74.57499999999999 V4.115000000000023 Q141.255 5.7275000000000205 140.690625 7.259375000000006 Q140.12625 8.791250000000005 139.32000000000002 10.242500000000007 Z M116.10000000000001 -12.977499999999992  80.9475 -48.129999999999995 H116.10000000000001 V-12.977499999999992 Z"/></g><g id="Thin-L" transform="matrix(1 0 0 1 787.282 1556)"><path d="M137.86875 33.62375  116.42250000000001 12.338750000000005 H27.735 Q23.220000000000002 12.338750000000005 19.995 9.11375000000001 Q16.77 5.888750000000002 16.77 1.3737500000000153 V-71.83375 Q16.77 -76.02625 19.914375 -79.331875 Q23.058750000000003 -82.63749999999999 27.25125 -82.79875 H31.2825 V-72.80125 L10.481250000000001 -93.60249999999999 L15.48 -98.76249999999999 L142.8675 28.625 L137.86875 33.62375 Z M27.735 5.243750000000006 H109.3275 L41.6025 -62.64249999999999 H23.865000000000002 V1.3737500000000153 Q23.865000000000002 2.9862500000000125 24.993750000000002 4.115000000000023 Q26.1225 5.243750000000006 27.735 5.243750000000006 Z M136.57875 6.372500000000002  130.935 0.7287500000000051 V-62.64249999999999 H67.56375 L47.4075 -82.79875 H127.065 Q131.57999999999998 -82.79875 134.805 -79.57374999999999 Q138.03 -76.34875 138.03 -71.83375 V1.3737500000000153 Q138.03 2.6637500000000074 137.54625 3.9537499999999994 Q137.0625 5.243750000000006 136.57875 6.372500000000002 Z M116.10000000000001 -14.106249999999989  82.07625 -48.129999999999995 H116.10000000000001 V-14.106249999999989 Z"/></g><g id="Ultralight-L" transform="matrix(1 0 0 1 491.205 1556)"><path d="M138.83625 32.495000000000005  116.42250000000001 10.403750000000002 H29.508750000000003 Q24.993750000000002 10.403750000000002 21.849375000000002 7.259375000000006 Q18.705 4.115000000000023 18.705 -0.4000000000000057 V-70.06 Q18.705 -74.2525 21.76875 -77.47749999999999 Q24.8325 -80.70249999999999 29.025000000000002 -80.86375 H33.2175 V-72.80125 L12.9 -93.28 L16.931250000000002 -97.31125 L142.70625 28.463750000000005 L138.83625 32.495000000000005 Z M29.508750000000003 4.760000000000005 H110.77875 L44.02125 -62.15874999999999 H24.34875 V-0.4000000000000057 Q24.34875 1.8575000000000017 25.8 3.3087500000000176 Q27.25125 4.760000000000005 29.508750000000003 4.760000000000005 Z M134.96625 4.115000000000023  130.45125000000002 -0.4000000000000057 V-62.15874999999999 H68.69250000000001 L49.987500000000004 -80.86375 H125.29125 Q129.80625 -80.86375 132.950625 -77.719375 Q136.095 -74.57499999999999 136.095 -70.06 V-0.4000000000000057 Q136.095 0.7287500000000051 135.691875 1.8575000000000017 Q135.28875000000002 2.9862500000000125 134.96625 4.115000000000023 Z M116.10000000000001 -14.751249999999985  82.72125 -48.129999999999995 H116.10000000000001 V-14.751249999999985 Z"/></g><g id="Bold-M" transform="matrix(1 0 0 1 2281.8 1126)"><path d="M104.75 25.14500000000001  90.0 10.52000000000001 H21.25 Q14.125 10.52000000000001 9.190000000000001 5.585000000000008 Q4.25 0.6450000000000102 4.25 -6.47999999999999 V-63.97999999999999 Q4.25 -69.97999999999999 7.94 -74.60499999999999 Q11.625 -79.22999999999999 17.375 -80.60499999999999 V-62.10499999999999 L1.625 -77.85499999999999 L10.875 -87.10499999999999 L114.0 15.89500000000001 L104.75 25.14500000000001 Z M21.25 -6.47999999999999 H73.0 L28.375 -51.22999999999999 H21.25 V-6.47999999999999 Q21.25 -6.47999999999999 21.25 -6.47999999999999 Q21.25 -6.47999999999999 21.25 -6.47999999999999 Z M114.625 -0.22999999999998977  98.75 -16.10499999999999 V-51.22999999999999 H63.625 L33.875 -80.97999999999999 H98.75 Q105.875 -80.97999999999999 110.815 -76.04499999999999 Q115.75 -71.10499999999999 115.75 -63.97999999999999 V-6.47999999999999 Q115.75 -4.85499999999999 115.44 -3.2949999999999875 Q115.125 -1.7299999999999898 114.625 -0.22999999999998977 Z M90.0 -24.85499999999999  69.625 -45.22999999999999 H90.0 V-24.85499999999999 Z"/></g><g id="Semibold-M" transform="matrix(1 0 0 1 1985.97 1126)"><path d="M104.0 24.77000000000001  88.75 9.64500000000001 H20.375 Q13.875 9.64500000000001 9.44 5.2050000000000125 Q5.0 0.7700000000000102 5.0 -5.72999999999999 V-64.72999999999999 Q5.0 -70.35499999999999 8.69 -74.66999999999999 Q12.375 -78.97999999999999 17.875 -79.85499999999999 V-61.22999999999999 L1.25 -77.97999999999999 L10.5 -87.22999999999999 L113.375 15.52000000000001 L104.0 24.77000000000001 Z M20.375 -5.72999999999999 H73.375 L26.0 -53.22999999999999 H20.375 V-5.72999999999999 Q20.375 -5.72999999999999 20.375 -5.72999999999999 Q20.375 -5.72999999999999 20.375 -5.72999999999999 Z M113.75 0.27000000000001023  99.625 -13.85499999999999 V-53.22999999999999 H60.25 L33.375 -80.10499999999999 H99.625 Q106.125 -80.10499999999999 110.565 -75.66999999999999 Q115.0 -71.22999999999999 115.0 -64.72999999999999 V-5.72999999999999 Q115.0 -4.10499999999999 114.69 -2.6049999999999898 Q114.375 -1.1049999999999898 113.75 0.27000000000001023 Z M90.0 -23.47999999999999  68.25 -45.22999999999999 H90.0 V-23.47999999999999 Z"/></g><g id="Medium-M" transform="matrix(1 0 0 1 1689.91 1126)"><path d="M103.5 24.52000000000001  87.875 9.02000000000001 H19.75 Q13.75 9.02000000000001 9.69 4.960000000000008 Q5.625 0.8950000000000102 5.625 -5.10499999999999 V-65.35499999999999 Q5.625 -70.72999999999999 9.25 -74.79499999999999 Q12.875 -78.85499999999999 18.25 -79.35499999999999 V-60.72999999999999 L0.875 -78.10499999999999 L10.25 -87.35499999999999 L112.875 15.27000000000001 L103.5 24.52000000000001 Z M19.75 -5.10499999999999 H73.75 L24.25 -54.60499999999999 H19.75 V-5.10499999999999 Q19.75 -5.10499999999999 19.75 -5.10499999999999 Q19.75 -5.10499999999999 19.75 -5.10499999999999 Z M113.25 0.7700000000000102  100.25 -12.22999999999999 V-54.60499999999999 H57.875 L33.0 -79.47999999999999 H100.25 Q106.25 -79.47999999999999 110.31 -75.41999999999999 Q114.375 -71.35499999999999 114.375 -65.35499999999999 V-5.10499999999999 Q114.375 -3.6049999999999898 114.06 -2.1700000000000017 Q113.75 -0.7299999999999898 113.25 0.7700000000000102 Z M90.0 -22.47999999999999  67.25 -45.22999999999999 H90.0 V-22.47999999999999 Z"/></g><g id="Regular-M" transform="matrix(1 0 0 1 1394.06 1126)"><path d="M103.125 24.39500000000001  87.25 8.52000000000001 H19.25 Q13.625 8.52000000000001 9.815000000000001 4.710000000000008 Q6.0 0.8950000000000102 6.0 -4.72999999999999 V-65.72999999999999 Q6.0 -70.97999999999999 9.625 -74.85499999999999 Q13.25 -78.72999999999999 18.5 -78.97999999999999 V-60.22999999999999 L0.625 -78.10499999999999 L10.0 -87.47999999999999 L112.5 15.02000000000001 L103.125 24.39500000000001 Z M19.25 -4.72999999999999 H74.0 L23.0 -55.72999999999999 H19.25 V-4.72999999999999 Q19.25 -4.72999999999999 19.25 -4.72999999999999 Q19.25 -4.72999999999999 19.25 -4.72999999999999 Z M112.75 1.0200000000000102  100.75 -10.97999999999999 V-55.72999999999999 H56.0 L32.75 -78.97999999999999 H100.75 Q106.375 -78.97999999999999 110.19 -75.16999999999999 Q114.0 -71.35499999999999 114.0 -65.72999999999999 V-4.72999999999999 Q114.0 -3.2299999999999898 113.69 -1.789999999999992 Q113.375 -0.35499999999998977 112.75 1.0200000000000102 Z M90.0 -21.72999999999999  66.5 -45.22999999999999 H90.0 V-21.72999999999999 Z"/></g><g id="Light-M" transform="matrix(1 0 0 1 1098.18 1126)"><path d="M104.75 22.52000000000001  88.25 6.02000000000001 H20.75 Q15.5 6.02000000000001 12.0 2.5200000000000102 Q8.5 -0.9799999999999898 8.5 -6.22999999999999 V-64.22999999999999 Q8.5 -69.10499999999999 11.815 -72.66999999999999 Q15.125 -76.22999999999999 20.0 -76.47999999999999 H21.0 V-61.22999999999999 L3.75 -78.60499999999999 L11.25 -86.22999999999999 L112.375 14.89500000000001 L104.75 22.52000000000001 Z M20.75 -4.72999999999999 H77.5 L26.5 -55.72999999999999 H19.25 V-6.22999999999999 Q19.25 -5.60499999999999 19.69 -5.164999999999978 Q20.125 -4.72999999999999 20.75 -4.72999999999999 Z M110.5 -1.2299999999999898  100.75 -10.85499999999999 V-55.72999999999999 H55.875 L35.125 -76.47999999999999 H99.25 Q104.5 -76.47999999999999 108.0 -72.97999999999999 Q111.5 -69.47999999999999 111.5 -64.22999999999999 V-6.22999999999999 Q111.5 -4.97999999999999 111.19 -3.7299999999999898 Q110.875 -2.4799999999999898 110.5 -1.2299999999999898 Z M90.0 -21.60499999999999  66.375 -45.22999999999999 H90.0 V-21.60499999999999 Z"/></g><g id="Thin-M" transform="matrix(1 0 0 1 802.565 1126)"><path d="M106.375 20.52000000000001  89.375 3.5200000000000102 H22.375 Q17.5 3.5200000000000102 14.25 0.27000000000001023 Q11.0 -2.9799999999999898 11.0 -7.85499999999999 V-62.60499999999999 Q11.0 -67.10499999999999 14.059999999999999 -70.41999999999999 Q17.125 -73.72999999999999 21.625 -73.97999999999999 H23.5 V-62.35499999999999 L6.75 -79.10499999999999 L12.625 -84.85499999999999 L112.25 14.77000000000001 L106.375 20.52000000000001 Z M22.375 -4.72999999999999 H81.125 L30.125 -55.72999999999999 H19.25 V-7.85499999999999 Q19.25 -6.47999999999999 20.125 -5.60499999999999 Q21.0 -4.72999999999999 22.375 -4.72999999999999 Z M108.125 -3.3549999999999898  100.75 -10.72999999999999 V-55.72999999999999 H55.75 L37.5 -73.97999999999999 H97.625 Q102.5 -73.97999999999999 105.75 -70.72999999999999 Q109.0 -67.47999999999999 109.0 -62.60499999999999 V-7.85499999999999 Q109.0 -6.72999999999999 108.75 -5.60499999999999 Q108.5 -4.47999999999999 108.125 -3.3549999999999898 Z M90.0 -21.47999999999999  66.25 -45.22999999999999 H90.0 V-21.47999999999999 Z"/></g><g id="Ultralight-M" transform="matrix(1 0 0 1 506.415 1126)"><path d="M107.375 19.39500000000001  90.0 2.0200000000000102 H23.25 Q18.625 2.0200000000000102 15.56 -1.0449999999999875 Q12.5 -4.10499999999999 12.5 -8.72999999999999 V-61.72999999999999 Q12.5 -65.97999999999999 15.375 -69.10499999999999 Q18.25 -72.22999999999999 22.5 -72.47999999999999 H25.0 V-62.97999999999999 L8.625 -79.35499999999999 L13.375 -84.10499999999999 L112.125 14.64500000000001 L107.375 19.39500000000001 Z M23.25 -4.72999999999999 H83.25 L32.25 -55.72999999999999 H19.25 V-8.72999999999999 Q19.25 -6.97999999999999 20.375 -5.85499999999999 Q21.5 -4.72999999999999 23.25 -4.72999999999999 Z M106.75 -4.72999999999999  100.75 -10.72999999999999 V-55.72999999999999 H55.75 L39.0 -72.47999999999999 H96.75 Q101.375 -72.47999999999999 104.44000000000001 -69.41999999999999 Q107.5 -66.35499999999999 107.5 -61.72999999999999 V-8.72999999999999 Q107.5 -7.72999999999999 107.25 -6.72999999999999 Q107.0 -5.72999999999999 106.75 -4.72999999999999 Z M90.0 -21.47999999999999  66.25 -45.22999999999999 H90.0 V-21.47999999999999 Z"/></g><g id="Bold-S" transform="matrix(1 0 0 1 2294.23 696)"><path d="M81.16916400000001 9.643585999999999  69.035922 -2.2908280000000047 H17.553672000000002 Q12.227922000000001 -2.2908280000000047 8.578008 -5.936008000000001 Q4.932828 -9.585921999999997 4.932828 -14.911671999999996 V-55.54832799999999 Q4.932828 -59.98408599999999 7.69275 -63.387831999999996 Q10.452672000000002 -66.79157799999999 14.79375 -67.875664 H15.877836 V-55.54832799999999 L4.241664 -67.18449999999999 L10.945008 -73.79316399999999 L87.77782800000001 2.935508000000013 L81.16916400000001 9.643585999999999 Z M17.553672000000002 -14.911671999999996 H56.415078 L25.147008 -46.274421999999994 H17.553672000000002 V-14.911671999999996 Q17.553672000000002 -14.911671999999996 17.553672000000002 -14.911671999999996 Q17.553672000000002 -14.911671999999996 17.553672000000002 -14.911671999999996 Z M87.97192199999999 -8.899491999999995  77.126328 -19.745085999999986 V-46.274421999999994 H50.596992 L28.697508000000003 -68.16917199999999 H77.126328 Q82.452078 -68.16917199999999 86.101992 -64.519258 Q89.74717199999999 -60.874078 89.74717199999999 -55.54832799999999 V-14.911671999999996 Q89.74717199999999 -13.235835999999992 89.207496 -11.659413999999998 Q88.66308599999999 -10.08299199999999 87.97192199999999 -8.899491999999995 Z M71.01 -25.861413999999996  54.540414000000006 -42.330999999999996 H71.01 V-25.861413999999996 Z"/></g><g id="Semibold-S" transform="matrix(1 0 0 1 1998.1 696)"><path d="M80.577414 9.35007800000001  68.05125 -2.981991999999991 H16.862508 Q12.128507999999998 -2.981991999999991 8.82891 -6.234249999999989 Q5.524578 -9.486507999999986 5.524578 -14.319921999999991 V-56.14007799999999 Q5.524578 -60.28232799999999 8.2845 -63.435171999999994 Q11.044422 -66.59275 15.186672000000002 -67.283914 H16.275492 V-54.857164 L3.943422 -67.283914 L10.6515 -73.89257799999999 L87.28549199999999 2.64200000000001 L80.577414 9.35007800000001 Z M16.862508 -14.319921999999991 H56.708586 L23.277078 -47.855577999999994 H16.862508 V-14.319921999999991 Q16.862508 -14.319921999999991 16.862508 -14.319921999999991 Q16.862508 -14.319921999999991 16.862508 -14.319921999999991 Z M87.28549199999999 -8.501835999999983  77.81749199999999 -17.969835999999987 V-47.855577999999994 H47.93175 L28.304586 -67.47800799999999 H77.81749199999999 Q82.551492 -67.47800799999999 85.85109000000001 -64.22574999999999 Q89.15542199999999 -60.97349199999999 89.15542199999999 -56.14007799999999 V-14.319921999999991 Q89.15542199999999 -12.743499999999997 88.615746 -11.16707799999999 Q88.071336 -9.585921999999997 87.28549199999999 -8.501835999999983 Z M71.01 -24.77732799999999  53.456328 -42.330999999999996 H71.01 V-24.77732799999999 Z"/></g><g id="Medium-S" transform="matrix(1 0 0 1 1701.85 696)"><path d="M80.18449199999999 9.151250000000005  67.360086 -3.474328 H16.370172 Q11.934414 -3.474328 8.975664 -6.480417999999986 Q6.016914 -9.486507999999986 6.016914 -13.827585999999997 V-56.632414 Q6.016914 -60.575835999999995 8.729496000000001 -63.53458599999999 Q11.442077999999999 -66.493336 15.484914 -66.890992 H16.569 V-54.459508 L3.649914 -67.38332799999999 L10.452672000000002 -73.991992 L86.887836 2.443172000000004 L80.18449199999999 9.151250000000005 Z M16.370172 -13.827585999999997 H57.006828 L21.89475 -48.93966399999999 H16.370172 V-13.827585999999997 Q16.370172 -13.827585999999997 16.370172 -13.827585999999997 Q16.370172 -13.827585999999997 16.370172 -13.827585999999997 Z M86.887836 -8.108913999999999  78.30982800000001 -16.686921999999996 V-48.93966399999999 H46.057086 L28.011077999999998 -66.985672 H78.30982800000001 Q82.745586 -66.985672 85.704336 -63.97958199999999 Q88.66308599999999 -60.97349199999999 88.66308599999999 -56.632414 V-13.827585999999997 Q88.66308599999999 -12.251164000000003 88.12340999999999 -10.769421999999992 Q87.579 -9.292413999999994 86.887836 -8.108913999999999 Z M71.01 -23.986749999999994  52.66575 -42.330999999999996 H71.01 V-23.986749999999994 Z"/></g><g id="Regular-S" transform="matrix(1 0 0 1 1405.73 696)"><path d="M79.88625 9.051836000000009  66.86775 -3.8672499999999985 H15.97725 Q11.835 -3.8672499999999985 9.075078 -6.627171999999987 Q6.310422 -9.39182799999999 6.310422 -13.534077999999994 V-56.92592199999999 Q6.310422 -60.774663999999994 9.023004 -63.586659999999995 Q11.735586 -66.39392199999999 15.679008 -66.59275 H16.767827999999998 V-54.066585999999994 L3.451086 -67.38332799999999 L10.258578 -74.086672 L86.594328 2.2490780000000115 L79.88625 9.051836000000009 Z M15.97725 -13.534077999999994 H57.200922 L20.910078 -49.824921999999994 H15.97725 V-13.534077999999994 Q15.97725 -13.534077999999994 15.97725 -13.534077999999994 Q15.97725 -13.534077999999994 15.97725 -13.534077999999994 Z M86.49491400000001 -7.910085999999993  78.70275 -15.702249999999992 V-49.824921999999994 H44.580078 L27.81225 -66.59275 H78.70275 Q82.845 -66.59275 85.60492199999999 -63.83282799999999 Q88.369578 -61.06817199999999 88.369578 -56.92592199999999 V-13.534077999999994 Q88.369578 -11.952922000000001 87.82516799999999 -10.475914000000003 Q87.28549199999999 -8.994171999999992 86.49491400000001 -7.910085999999993 Z M71.01 -23.394999999999996  52.074 -42.330999999999996 H71.01 V-23.394999999999996 Z"/></g><g id="Light-S" transform="matrix(1 0 0 1 1109.75 696)"><path d="M81.16916400000001 7.574828000000011  67.658328 -5.841328000000004 H17.16075 Q13.411422 -5.841328000000004 10.850328 -8.402421999999987 Q8.2845 -10.968249999999998 8.2845 -14.717577999999989 V-55.74242199999999 Q8.2845 -59.29292199999999 10.750914 -61.85874999999999 Q13.217327999999998 -64.424578 16.862508 -64.61867199999999 H18.737172 V-54.857164 L5.9175 -67.77624999999999 L11.24325 -73.10199999999999 L86.49491400000001 2.1496640000000156 L81.16916400000001 7.574828000000011 Z M17.16075 -13.534077999999994 H59.965578 L23.67 -49.824921999999994 H15.97725 V-14.717577999999989 Q15.97725 -14.220507999999995 16.322832 -13.879660000000001 Q16.668414 -13.534077999999994 17.16075 -13.534077999999994 Z M84.71966400000001 -9.685335999999992  78.70275 -15.602835999999996 V-49.824921999999994 H44.480664000000004 L29.686913999999998 -64.61867199999999 H77.51925 Q81.268578 -64.61867199999999 83.82967199999999 -62.05757799999999 Q86.3955 -59.491749999999996 86.3955 -55.74242199999999 V-14.717577999999989 Q86.3955 -13.335249999999988 85.85109000000001 -12.004995999999991 Q85.311414 -10.670007999999996 84.71966400000001 -9.685335999999992 Z M71.01 -23.295585999999993  51.974585999999995 -42.330999999999996 H71.01 V-23.295585999999993 Z"/></g><g id="Thin-S" transform="matrix(1 0 0 1 814.015 696)"><path d="M82.452078 5.993672000000004  68.54358599999999 -7.810671999999997 H18.443664 Q14.893163999999999 -7.810671999999997 12.573504 -10.130331999999996 Q10.258578 -12.449991999999995 10.258578 -16.000491999999994 V-54.558921999999995 Q10.258578 -57.716499999999996 12.526164 -60.083499999999994 Q14.79375 -62.45049999999999 18.145422 -62.649328 H20.71125 V-55.74242199999999 L8.2845 -68.16917199999999 L12.327336 -72.01791399999999 L86.3955 2.0502500000000055 L82.452078 5.993672000000004 Z M18.443664 -13.534077999999994 H62.82491400000001 L26.529336 -49.824921999999994 H15.97725 V-16.000491999999994 Q15.97725 -14.911671999999996 16.668414 -14.220507999999995 Q17.359578 -13.534077999999994 18.443664 -13.534077999999994 Z M82.845 -11.361171999999996  78.70275 -15.503422 V-49.824921999999994 H44.38125 L31.561578 -62.649328 H76.236336 Q79.786836 -62.649328 82.106496 -60.32966799999999 Q84.42142199999999 -58.010008 84.42142199999999 -54.459508 V-16.000491999999994 Q84.42142199999999 -14.717577999999989 83.929086 -13.48200399999999 Q83.43675 -12.251164000000003 82.845 -11.361171999999996 Z M71.01 -23.196171999999997  51.875172 -42.330999999999996 H71.01 V-23.196171999999997 Z"/></g><g id="Ultralight-S" transform="matrix(1 0 0 1 517.792 696)"><path d="M83.237922 5.1084140000000104  69.035922 -8.994171999999992 H19.134828 Q15.778422 -8.994171999999992 13.61025 -11.16707799999999 Q11.442077999999999 -13.335249999999988 11.442077999999999 -16.686921999999996 V-53.77307799999999 Q11.442077999999999 -56.82650799999999 13.56291 -59.04675399999999 Q15.679008 -61.266999999999996 18.836586 -61.46582799999999 H21.89475 V-56.23949199999999 L9.761508 -68.368 L12.919086 -71.426164 L86.296086 1.9508360000000096 L83.237922 5.1084140000000104 Z M19.134828 -13.534077999999994 H64.50075 L28.205172 -49.824921999999994 H15.97725 V-16.686921999999996 Q15.97725 -15.309327999999994 16.862508 -14.419335999999987 Q17.7525 -13.534077999999994 19.134828 -13.534077999999994 Z M81.760914 -12.449991999999995  78.70275 -15.503422 V-49.824921999999994 H44.38125 L32.745078 -61.46582799999999 H75.545172 Q78.901578 -61.46582799999999 81.06975 -59.29292199999999 Q83.237922 -57.12474999999999 83.237922 -53.77307799999999 V-16.686921999999996 Q83.237922 -15.503422 82.745586 -14.371995999999996 Q82.25325 -13.235835999999992 81.760914 -12.449991999999995 Z M71.01 -23.196171999999997  51.875172 -42.330999999999996 H71.01 V-23.196171999999997 Z"/></g></g></svg>