<svg xmlns="http://www.w3.org/2000/svg" version="1.1" width="3300" height="2000"><g id="Notes"><style>
    text {
      font-family: monospace;
      text-anchor: middle;
    }
    text.emphasis {
      font-weight:bold;
    }
    text.lanchor {
      text-anchor: start;
    }
  </style><rect height="2200" id="artboard" fill="white" width="3300" x="0" y="0"/><line id="" style="fill:none;stroke:black;stroke-width:0.5;" x1="263" x2="3036" y1="292" y2="292"/><text class="lanchor emphasis" transform="matrix(1 0 0 1 263 322)">Weight/Scale Variations</text><text transform="matrix(1 0 0 1 559.711 322)">Ultralight</text><text transform="matrix(1 0 0 1 856.422 322)">Thin</text><text transform="matrix(1 0 0 1 1153.13 322)">Light</text><text transform="matrix(1 0 0 1 1449.84 322)">Regular</text><text transform="matrix(1 0 0 1 1746.56 322)">Medium</text><text transform="matrix(1 0 0 1 2043.27 322)">Semibold</text><text transform="matrix(1 0 0 1 2339.98 322)">Bold</text><text transform="matrix(1 0 0 1 2636.69 322)">Heavy</text><text transform="matrix(1 0 0 1 2933.4 322)">Black</text><text id="template-version" style="text-anchor: end;" transform="matrix(1 0 0 1 3036 1933)">Template v.1.0</text><text class="lanchor" transform="matrix(1 0 0 1 263 726)">Small</text><text class="lanchor" transform="matrix(1 0 0 1 263 1156)">Medium</text><text class="lanchor" transform="matrix(1 0 0 1 263 1586)">Large</text></g><g id="Guides"><g id="H-reference" style="fill:#27AAE1;stroke:none;" transform="matrix(1 0 0 1 339 696)"><path d="M 54.9316 0 L 57.666 0 L 30.5664 -70.459 L 28.0762 -70.459 L 0.976562 0 L 3.66211 0 L 12.9395 -24.4629 L 45.7031 -24.4629 Z M 29.1992 -67.0898 L 29.4434 -67.0898 L 44.8242 -26.709 L 13.8184 -26.709 Z"/></g><line id="Baseline-S" style="fill:none;stroke:#27AAE1;opacity:1;stroke-width:0.577;" x1="263" x2="3036" y1="696" y2="696"/><line id="Capline-S" style="fill:none;stroke:#27AAE1;opacity:1;stroke-width:0.577;" x1="263" x2="3036" y1="625.541" y2="625.541"/><g id="H-reference" style="fill:#27AAE1;stroke:none;" transform="matrix(1 0 0 1 339 1126)"><path d="M 54.9316 0 L 57.666 0 L 30.5664 -70.459 L 28.0762 -70.459 L 0.976562 0 L 3.66211 0 L 12.9395 -24.4629 L 45.7031 -24.4629 Z M 29.1992 -67.0898 L 29.4434 -67.0898 L 44.8242 -26.709 L 13.8184 -26.709 Z"/></g><line id="Baseline-M" style="fill:none;stroke:#27AAE1;opacity:1;stroke-width:0.577;" x1="263" x2="3036" y1="1126" y2="1126"/><line id="Capline-M" style="fill:none;stroke:#27AAE1;opacity:1;stroke-width:0.577;" x1="263" x2="3036" y1="1055.54" y2="1055.54"/><g id="H-reference" style="fill:#27AAE1;stroke:none;" transform="matrix(1 0 0 1 339 1556)"><path d="M 54.9316 0 L 57.666 0 L 30.5664 -70.459 L 28.0762 -70.459 L 0.976562 0 L 3.66211 0 L 12.9395 -24.4629 L 45.7031 -24.4629 Z M 29.1992 -67.0898 L 29.4434 -67.0898 L 44.8242 -26.709 L 13.8184 -26.709 Z"/></g><line id="Baseline-L" style="fill:none;stroke:#27AAE1;opacity:1;stroke-width:0.577;" x1="263" x2="3036" y1="1556" y2="1556"/><line id="Capline-L" style="fill:none;stroke:#27AAE1;opacity:1;stroke-width:0.577;" x1="263" x2="3036" y1="1485.54" y2="1485.54"/><rect height="119.336" id="left-margin" style="fill:darkred;stroke:none;opacity:0.4;" width="12.4512" x="1394.06" y="1030.79"/><rect height="119.336" id="right-margin" style="fill:darkgreen;stroke:none;opacity:0.4;" width="12.4512" x="1502.5112" y="1030.79"/><rect x="1406.5112" y="1045" width="96" height="96" fill="none" stroke="blue" stroke-dasharray="5"/><rect x="1394.06" y="1030.79" width="120.9024" height="119.336" fill="none" stroke="blue"/></g><g id="Symbols"><g id="Bold-L" transform="matrix(1 0 0 1 2266 1556)"><path d="M49.181 5.566 V-79.735 H54.019 Q54.019 -89.732 61.067 -96.182 Q68.115 -102.632 77.277 -102.632 Q86.587 -102.632 93.523 -96.23 Q100.459 -89.827 100.459 -79.735 H105.457 V5.566 H49.181 Z M64.661 -79.735 H89.816 Q89.816 -85.056 86.027 -88.442 Q82.237 -91.829 77.239 -91.829 Q72.24 -91.829 68.451 -88.442 Q64.661 -85.056 64.661 -79.735 Z M111.585 5.566 V-79.735 H117.874 Q124.076 -79.735 128.553 -75.257 Q133.031 -70.78 133.031 -64.577 V-9.43 Q133.031 -3.456 128.553 1.055 Q124.076 5.566 117.874 5.566 H111.585 Z M36.604 5.566 Q30.468 5.566 26.038 1.055 Q21.608 -3.456 21.608 -9.43 V-64.577 Q21.608 -70.78 26.038 -75.257 Q30.468 -79.735 36.604 -79.735 H42.892 V5.566 H36.604 Z M16.924 30.238 Q13.501 30.238 11.426 28.168 Q9.353 26.097 9.353 22.768 Q9.353 19.623 11.426 17.432 Q13.501 15.241 16.924 15.241 H138.037 Q141.275 15.241 143.361 17.418 Q145.447 19.595 145.447 22.82 Q145.447 26.045 143.361 28.141 Q141.275 30.238 138.037 30.238 H16.924 Z"/></g><g id="Semibold-L" transform="matrix(1 0 0 1 1970.27 1556)"><path d="M50.373 4.795 V-77.562 H55.351 Q55.351 -87.068 61.946 -93.133 Q68.541 -99.197 77.26 -99.197 Q86.063 -99.197 92.595 -93.183 Q99.127 -87.168 99.127 -77.562 H104.196 V4.795 H50.373 Z M64.661 -77.562 H89.816 Q89.816 -82.953 86.027 -86.304 Q82.237 -89.656 77.239 -89.656 Q72.24 -89.656 68.451 -86.304 Q64.661 -82.953 64.661 -77.562 Z M110.954 4.795 V-77.562 H118.435 Q123.763 -77.562 127.661 -73.664 Q131.559 -69.766 131.559 -64.437 V-8.238 Q131.559 -3.039 127.661 0.878 Q123.763 4.795 118.435 4.795 H110.954 Z M36.043 4.795 Q30.752 4.795 26.881 0.878 Q23.01 -3.039 23.01 -8.238 V-64.437 Q23.01 -69.766 26.881 -73.664 Q30.752 -77.562 36.043 -77.562 H43.523 V4.795 H36.043 Z M17.278 27.504 Q14.342 27.504 12.513 25.679 Q10.684 23.854 10.684 20.974 Q10.684 18.279 12.513 16.375 Q14.342 14.47 17.278 14.47 H137.684 Q140.434 14.47 142.275 16.36 Q144.116 18.251 144.116 21.026 Q144.116 23.802 142.275 25.653 Q140.434 27.504 137.684 27.504 H17.278 Z"/></g><g id="Medium-L" transform="matrix(1 0 0 1 1674.31 1556)"><path d="M51.267 4.217 V-75.932 H56.35 Q56.35 -85.07 62.605 -90.845 Q68.861 -96.621 77.248 -96.621 Q85.67 -96.621 91.899 -90.898 Q98.128 -85.175 98.128 -75.932 H103.249 V4.217 H51.267 Z M64.661 -75.932 H89.816 Q89.816 -81.376 86.027 -84.701 Q82.237 -88.025 77.239 -88.025 Q72.24 -88.025 68.451 -84.701 Q64.661 -81.376 64.661 -75.932 Z M110.481 4.217 V-75.932 H118.855 Q123.528 -75.932 126.991 -72.468 Q130.455 -69.005 130.455 -64.332 V-7.344 Q130.455 -2.726 126.991 0.746 Q123.528 4.217 118.855 4.217 H110.481 Z M35.622 4.217 Q30.965 4.217 27.513 0.746 Q24.061 -2.726 24.061 -7.344 V-64.332 Q24.061 -69.005 27.513 -72.468 Q30.965 -75.932 35.622 -75.932 H43.997 V4.217 H35.622 Z M17.543 25.453 Q14.973 25.453 13.328 23.812 Q11.684 22.171 11.684 19.628 Q11.684 17.271 13.328 15.581 Q14.973 13.892 17.543 13.892 H137.418 Q139.803 13.892 141.46 15.567 Q143.116 17.242 143.116 19.681 Q143.116 22.119 141.46 23.786 Q139.803 25.453 137.418 25.453 H17.543 Z"/></g><g id="Regular-L" transform="matrix(1 0 0 1 1378.56 1556)"><path d="M51.922 3.793 V-74.736 H57.083 Q57.083 -83.605 63.089 -89.168 Q69.096 -94.731 77.239 -94.731 Q85.382 -94.731 91.388 -89.222 Q97.395 -83.713 97.395 -74.736 H102.555 V3.793 H51.922 Z M64.661 -74.736 H89.816 Q89.816 -80.219 86.027 -83.524 Q82.237 -86.83 77.239 -86.83 Q72.24 -86.83 68.451 -83.524 Q64.661 -80.219 64.661 -74.736 Z M110.134 3.793 V-74.736 H119.164 Q123.356 -74.736 126.501 -71.592 Q129.645 -68.447 129.645 -64.255 V-6.689 Q129.645 -2.496 126.501 0.648 Q123.356 3.793 119.164 3.793 H110.134 Z M35.314 3.793 Q31.121 3.793 27.977 0.648 Q24.832 -2.496 24.832 -6.689 V-64.255 Q24.832 -68.447 27.977 -71.592 Q31.121 -74.736 35.314 -74.736 H44.344 V3.793 H35.314 Z M17.738 23.949 Q15.436 23.949 13.926 22.443 Q12.416 20.937 12.416 18.642 Q12.416 16.531 13.926 14.999 Q15.436 13.468 17.738 13.468 H137.224 Q139.34 13.468 140.862 14.985 Q142.384 16.503 142.384 18.694 Q142.384 20.885 140.862 22.417 Q139.34 23.949 137.224 23.949 H17.738 Z"/></g><g id="Light-L" transform="matrix(1 0 0 1 1082.77 1556)"><path d="M51.86 0.071 V-71.511 H59.191 Q59.191 -79.325 64.578 -84.423 Q69.964 -89.521 77.27 -89.521 Q84.576 -89.521 89.962 -84.477 Q95.348 -79.433 95.348 -71.521 H102.741 V0.071 H51.86 Z M65.468 -71.511 H89.072 Q89.072 -76.621 85.562 -79.803 Q82.051 -82.985 77.27 -82.985 Q72.488 -82.985 68.978 -79.803 Q65.468 -76.621 65.468 -71.511 Z M108.955 0.071 V-71.511 H116.311 Q120.427 -71.511 123.423 -68.515 Q126.42 -65.518 126.42 -61.402 V-10.038 Q126.42 -5.922 123.423 -2.925 Q120.427 0.071 116.311 0.071 H108.955 Z M38.229 0.071 Q34.112 0.071 31.116 -2.925 Q28.12 -5.922 28.12 -10.038 V-61.402 Q28.12 -65.518 31.116 -68.515 Q34.112 -71.511 38.229 -71.511 H45.584 V0.071 H38.229 Z M21.025 18.739 Q19.224 18.739 18.053 17.571 Q16.882 16.403 16.882 14.607 Q16.882 12.996 18.053 11.805 Q19.224 10.614 21.025 10.614 H133.937 Q135.552 10.614 136.735 11.794 Q137.918 12.974 137.918 14.666 Q137.918 16.357 136.735 17.548 Q135.552 18.739 133.937 18.739 H21.025 Z"/></g><g id="Thin-L" transform="matrix(1 0 0 1 787.282 1556)"><path d="M51.798 -3.65 V-68.286 H61.3 Q61.3 -75.046 66.066 -79.679 Q70.832 -84.312 77.301 -84.312 Q83.769 -84.312 88.536 -79.733 Q93.302 -75.154 93.302 -68.307 H102.927 V-3.65 H51.798 Z M66.274 -68.286 H88.328 Q88.328 -73.025 85.097 -76.082 Q81.865 -79.14 77.301 -79.14 Q72.736 -79.14 69.505 -76.082 Q66.274 -73.025 66.274 -68.286 Z M107.777 -3.65 V-68.286 H113.458 Q117.499 -68.286 120.347 -65.438 Q123.195 -62.59 123.195 -58.549 V-13.387 Q123.195 -9.346 120.347 -6.498 Q117.499 -3.65 113.458 -3.65 H107.777 Z M41.144 -3.65 Q37.103 -3.65 34.255 -6.498 Q31.407 -9.346 31.407 -13.387 V-58.549 Q31.407 -62.59 34.255 -65.438 Q37.103 -68.286 41.144 -68.286 H46.825 V-3.65 H41.144 Z M24.312 13.53 Q23.011 13.53 22.179 12.7 Q21.347 11.87 21.347 10.573 Q21.347 9.461 22.179 8.611 Q23.011 7.762 24.312 7.762 H130.65 Q131.765 7.762 132.609 8.604 Q133.453 9.446 133.453 10.638 Q133.453 11.83 132.609 12.68 Q131.765 13.53 130.65 13.53 H24.312 Z"/></g><g id="Ultralight-L" transform="matrix(1 0 0 1 491.205 1556)"><path d="M51.761 -5.882 V-66.351 H62.565 Q62.565 -72.479 66.959 -76.832 Q71.353 -81.186 77.319 -81.186 Q83.286 -81.186 87.68 -76.886 Q92.074 -72.586 92.074 -66.378 H103.039 V-5.882 H51.761 Z M66.758 -66.351 H87.881 Q87.881 -70.866 84.817 -73.849 Q81.754 -76.832 77.319 -76.832 Q72.885 -76.832 69.821 -73.849 Q66.758 -70.866 66.758 -66.351 Z M107.07 -5.882 V-66.351 H111.746 Q115.741 -66.351 118.501 -63.592 Q121.26 -60.832 121.26 -56.837 V-15.396 Q121.26 -11.401 118.501 -8.642 Q115.741 -5.882 111.746 -5.882 H107.07 Z M42.892 -5.882 Q38.898 -5.882 36.138 -8.642 Q33.379 -11.401 33.379 -15.396 V-56.837 Q33.379 -60.832 36.138 -63.592 Q38.898 -66.351 42.892 -66.351 H47.569 V-5.882 H42.892 Z M26.284 10.404 Q25.284 10.404 24.655 9.776 Q24.026 9.149 24.026 8.152 Q24.026 7.34 24.655 6.695 Q25.284 6.05 26.284 6.05 H128.678 Q129.492 6.05 130.133 6.689 Q130.774 7.329 130.774 8.221 Q130.774 9.114 130.133 9.759 Q129.492 10.404 128.678 10.404 H26.284 Z"/></g><g id="Bold-M" transform="matrix(1 0 0 1 2281.8 1126)"><path d="M40.5 -7.73 V-71.855 H40.875 Q41 -79.855 46.656 -85.48 Q52.312 -91.105 60.029 -91.105 Q67.996 -91.105 73.561 -85.496 Q79.125 -79.886 79.125 -71.855 H79.5 V-7.73 H40.5 Z M52.5 -71.855 H67.5 Q67.5 -74.98 65.375 -77.167 Q63.25 -79.355 60 -79.355 Q56.75 -79.355 54.625 -77.167 Q52.5 -74.98 52.5 -71.855 Z M86.25 -7.73 V-71.855 H88.375 Q95.25 -71.855 99.938 -67.167 Q104.625 -62.48 104.625 -55.605 V-23.98 Q104.625 -17.23 99.938 -12.48 Q95.25 -7.73 88.375 -7.73 H86.25 Z M31.625 -7.73 Q24.75 -7.73 20.062 -12.48 Q15.375 -17.23 15.375 -23.98 V-55.605 Q15.375 -62.48 20.062 -67.167 Q24.75 -71.855 31.625 -71.855 H33.75 V-7.73 H31.625 Z M13.994 18.395 Q10.484 18.395 8.18 16.094 Q5.875 13.792 5.875 10.344 Q5.875 6.895 8.18 4.583 Q10.484 2.27 13.994 2.27 H106.006 Q109.516 2.27 111.82 4.572 Q114.125 6.873 114.125 10.322 Q114.125 13.77 111.82 16.083 Q109.516 18.395 106.006 18.395 H13.994 Z"/></g><g id="Semibold-M" transform="matrix(1 0 0 1 1985.97 1126)"><path d="M41.696 -8.599 V-69.518 H42.342 Q42.413 -76.92 47.607 -82.138 Q52.802 -87.355 60.017 -87.355 Q67.373 -87.355 72.515 -82.156 Q77.658 -76.956 77.658 -69.518 H78.304 V-8.599 H41.696 Z M52.5 -69.518 H67.5 Q67.5 -72.697 65.375 -74.858 Q63.25 -77.018 60 -77.018 Q56.75 -77.018 54.625 -74.858 Q52.5 -72.697 52.5 -69.518 Z M85.598 -8.599 V-69.518 H88.973 Q94.924 -69.518 98.987 -65.456 Q103.049 -61.393 103.049 -55.442 V-22.676 Q103.049 -16.795 98.987 -12.697 Q94.924 -8.599 88.973 -8.599 H85.598 Z M31.027 -8.599 Q25.076 -8.599 21.014 -12.697 Q16.951 -16.795 16.951 -22.676 V-55.442 Q16.951 -61.393 21.014 -65.456 Q25.076 -69.518 31.027 -69.518 H34.402 V-8.599 H31.027 Z M14.377 15.406 Q11.354 15.406 9.348 13.403 Q7.342 11.401 7.342 8.414 Q7.342 5.428 9.348 3.414 Q11.354 1.401 14.377 1.401 H105.623 Q108.646 1.401 110.652 3.403 Q112.658 5.406 112.658 8.392 Q112.658 11.379 110.652 13.393 Q108.646 15.406 105.623 15.406 H14.377 Z"/></g><g id="Medium-M" transform="matrix(1 0 0 1 1689.91 1126)"><path d="M42.592 -9.252 V-67.765 H43.443 Q43.473 -74.719 48.321 -79.631 Q53.169 -84.542 60.007 -84.542 Q66.905 -84.542 71.731 -79.65 Q76.557 -74.758 76.557 -67.765 H77.408 V-9.252 H42.592 Z M52.5 -67.765 H67.5 Q67.5 -70.985 65.375 -73.125 Q63.25 -75.265 60 -75.265 Q56.75 -75.265 54.625 -73.125 Q52.5 -70.985 52.5 -67.765 Z M85.109 -9.252 V-67.765 H89.421 Q94.679 -67.765 98.273 -64.172 Q101.867 -60.578 101.867 -55.32 V-21.697 Q101.867 -16.469 98.273 -12.86 Q94.679 -9.252 89.421 -9.252 H85.109 Z M30.579 -9.252 Q25.321 -9.252 21.727 -12.86 Q18.133 -16.469 18.133 -21.697 V-55.32 Q18.133 -60.578 21.727 -64.172 Q25.321 -67.765 30.579 -67.765 H34.891 V-9.252 H30.579 Z M14.664 13.164 Q12.006 13.164 10.225 11.386 Q8.443 9.607 8.443 6.967 Q8.443 4.327 10.225 2.538 Q12.006 0.748 14.664 0.748 H105.336 Q107.994 0.748 109.775 2.527 Q111.557 4.305 111.557 6.945 Q111.557 9.585 109.775 11.375 Q107.994 13.164 105.336 13.164 H14.664 Z"/></g><g id="Regular-M" transform="matrix(1 0 0 1 1394.06 1126)"><path d="M43.25 -9.73 V-66.48 H44.25 Q44.25 -73.105 48.844 -77.792 Q53.438 -82.48 60 -82.48 Q66.562 -82.48 71.156 -77.813 Q75.75 -73.147 75.75 -66.48 H76.75 V-9.73 H43.25 Z M52.5 -66.48 H67.5 Q67.5 -69.73 65.375 -71.855 Q63.25 -73.98 60 -73.98 Q56.75 -73.98 54.625 -71.855 Q52.5 -69.73 52.5 -66.48 Z M84.75 -9.73 V-66.48 H89.75 Q94.5 -66.48 97.75 -63.23 Q101 -59.98 101 -55.23 V-20.98 Q101 -16.23 97.75 -12.98 Q94.5 -9.73 89.75 -9.73 H84.75 Z M30.25 -9.73 Q25.5 -9.73 22.25 -12.98 Q19 -16.23 19 -20.98 V-55.23 Q19 -59.98 22.25 -63.23 Q25.5 -66.48 30.25 -66.48 H35.25 V-9.73 H30.25 Z M14.875 11.52 Q12.484 11.52 10.867 9.906 Q9.25 8.292 9.25 5.906 Q9.25 3.52 10.867 1.895 Q12.484 0.27 14.875 0.27 H105.125 Q107.516 0.27 109.133 1.884 Q110.75 3.498 110.75 5.884 Q110.75 8.27 109.133 9.895 Q107.516 11.52 105.125 11.52 H14.875 Z"/></g><g id="Light-M" transform="matrix(1 0 0 1 1098.18 1126)"><path d="M42.481 -11.269 V-63.98 H45.789 Q45.789 -69.932 49.95 -74.186 Q54.111 -78.441 60 -78.441 Q65.889 -78.441 70.05 -74.207 Q74.211 -69.973 74.211 -63.98 H77.519 V-11.269 H42.481 Z M52.5 -63.98 H67.5 Q67.5 -67.23 65.375 -69.355 Q63.25 -71.48 60 -71.48 Q56.75 -71.48 54.625 -69.355 Q52.5 -67.23 52.5 -63.98 Z M83.981 -11.269 V-63.98 H88.211 Q92.625 -63.98 95.562 -61.042 Q98.5 -58.105 98.5 -53.691 V-21.557 Q98.5 -17.143 95.562 -14.206 Q92.625 -11.269 88.211 -11.269 H83.981 Z M31.789 -11.269 Q27.375 -11.269 24.438 -14.206 Q21.5 -17.143 21.5 -21.557 V-53.691 Q21.5 -58.105 24.438 -61.042 Q27.375 -63.98 31.789 -63.98 H36.019 V-11.269 H31.789 Z M17.087 7.481 Q15.227 7.481 13.97 6.226 Q12.712 4.971 12.712 3.116 Q12.712 1.26 13.97 -0.004 Q15.227 -1.269 17.087 -1.269 H102.913 Q104.773 -1.269 106.03 -0.013 Q107.288 1.242 107.288 3.097 Q107.288 4.953 106.03 6.217 Q104.773 7.481 102.913 7.481 H17.087 Z"/></g><g id="Thin-M" transform="matrix(1 0 0 1 802.565 1126)"><path d="M41.712 -12.807 V-61.48 H47.327 Q47.327 -66.759 51.055 -70.581 Q54.784 -74.403 60 -74.403 Q65.216 -74.403 68.945 -70.602 Q72.673 -66.8 72.673 -61.48 H78.288 V-12.807 H41.712 Z M52.5 -61.48 H67.5 Q67.5 -64.73 65.375 -66.855 Q63.25 -68.98 60 -68.98 Q56.75 -68.98 54.625 -66.855 Q52.5 -64.73 52.5 -61.48 Z M83.212 -12.807 V-61.48 H86.673 Q90.75 -61.48 93.375 -58.855 Q96 -56.23 96 -52.153 V-22.134 Q96 -18.057 93.375 -15.432 Q90.75 -12.807 86.673 -12.807 H83.212 Z M33.327 -12.807 Q29.25 -12.807 26.625 -15.432 Q24 -18.057 24 -22.134 V-52.153 Q24 -56.23 26.625 -58.855 Q29.25 -61.48 33.327 -61.48 H36.788 V-12.807 H33.327 Z M19.298 3.443 Q17.97 3.443 17.072 2.547 Q16.173 1.651 16.173 0.326 Q16.173 -0.999 17.072 -1.903 Q17.97 -2.807 19.298 -2.807 H100.702 Q102.03 -2.807 102.928 -1.911 Q103.827 -1.014 103.827 0.311 Q103.827 1.635 102.928 2.539 Q102.03 3.443 100.702 3.443 H19.298 Z"/></g><g id="Ultralight-M" transform="matrix(1 0 0 1 506.415 1126)"><path d="M41.25 -13.73 V-59.98 H48.25 Q48.25 -64.855 51.719 -68.417 Q55.188 -71.98 60 -71.98 Q64.812 -71.98 68.281 -68.438 Q71.75 -64.897 71.75 -59.98 H78.75 V-13.73 H41.25 Z M52.5 -59.98 H67.5 Q67.5 -63.23 65.375 -65.355 Q63.25 -67.48 60 -67.48 Q56.75 -67.48 54.625 -65.355 Q52.5 -63.23 52.5 -59.98 Z M82.75 -13.73 V-59.98 H85.75 Q89.625 -59.98 92.062 -57.542 Q94.5 -55.105 94.5 -51.23 V-22.48 Q94.5 -18.605 92.062 -16.167 Q89.625 -13.73 85.75 -13.73 H82.75 Z M34.25 -13.73 Q30.375 -13.73 27.938 -16.167 Q25.5 -18.605 25.5 -22.48 V-51.23 Q25.5 -55.105 27.938 -57.542 Q30.375 -59.98 34.25 -59.98 H37.25 V-13.73 H34.25 Z M20.625 1.02 Q19.616 1.02 18.933 0.339 Q18.25 -0.342 18.25 -1.348 Q18.25 -2.355 18.933 -3.042 Q19.616 -3.73 20.625 -3.73 H99.375 Q100.384 -3.73 101.067 -3.049 Q101.75 -2.368 101.75 -1.362 Q101.75 -0.355 101.067 0.333 Q100.384 1.02 99.375 1.02 H20.625 Z"/></g><g id="Bold-S" transform="matrix(1 0 0 1 2294.23 696)"><path d="M31.56 -11.954 V-61.76 H32.25 Q32.349 -68.072 36.812 -72.51 Q41.275 -76.948 47.363 -76.948 Q53.649 -76.948 58.039 -72.523 Q62.43 -68.097 62.43 -61.76 H63.12 V-11.954 H31.56 Z M40.239 -61.76 H54.441 Q54.441 -64.62 52.37 -66.741 Q50.299 -68.861 47.34 -68.861 Q44.381 -68.861 42.31 -66.741 Q40.239 -64.62 40.239 -61.76 Z M67.262 -11.954 V-61.76 H69.728 Q74.856 -62.056 78.308 -58.502 Q81.76 -54.949 81.76 -49.728 V-23.987 Q81.76 -19.068 78.308 -15.61 Q74.856 -12.152 69.728 -11.954 H67.262 Z M24.952 -11.954 Q19.824 -12.152 16.372 -15.61 Q12.92 -19.068 12.92 -23.987 V-49.728 Q12.92 -54.949 16.372 -58.502 Q19.824 -62.056 24.952 -61.76 H27.418 V-11.954 H24.952 Z M14.621 7.08 Q12.02 7.08 10.3 5.384 Q8.58 3.687 8.58 1.143 Q8.58 -1.402 10.285 -3.128 Q11.989 -4.853 14.59 -4.853 H80.059 Q82.66 -4.853 84.38 -3.157 Q86.1 -1.46 86.1 1.084 Q86.1 3.628 84.395 5.354 Q82.691 7.08 80.09 7.08 H14.621 Z"/></g><g id="Semibold-S" transform="matrix(1 0 0 1 1998.1 696)"><path d="M32.503 -12.641 V-59.916 H33.408 Q33.464 -65.757 37.562 -69.873 Q41.66 -73.99 47.353 -73.99 Q53.157 -73.99 57.215 -69.887 Q61.272 -65.785 61.272 -59.916 H62.177 V-12.641 H32.503 Z M40.239 -59.916 H54.441 Q54.441 -62.819 52.37 -64.918 Q50.299 -67.017 47.34 -67.017 Q44.381 -67.017 42.31 -64.918 Q40.239 -62.819 40.239 -59.916 Z M66.748 -12.641 V-59.916 H70.199 Q74.599 -60.212 77.558 -57.152 Q80.517 -54.091 80.517 -49.599 V-22.958 Q80.517 -18.725 77.558 -15.781 Q74.599 -12.838 70.199 -12.641 H66.748 Z M24.481 -12.641 Q20.081 -12.838 17.122 -15.781 Q14.163 -18.725 14.163 -22.958 V-49.599 Q14.163 -54.091 17.122 -57.152 Q20.081 -60.212 24.481 -59.916 H27.932 V-12.641 H24.481 Z M14.923 4.722 Q12.706 4.722 11.222 3.261 Q9.738 1.8 9.738 -0.379 Q9.738 -2.559 11.207 -4.049 Q12.675 -5.54 14.893 -5.54 H79.757 Q81.974 -5.54 83.458 -4.079 Q84.942 -2.618 84.942 -0.438 Q84.942 1.742 83.473 3.232 Q82.005 4.722 79.787 4.722 H14.923 Z"/></g><g id="Medium-S" transform="matrix(1 0 0 1 1701.85 696)"><path d="M33.211 -13.155 V-58.533 H34.276 Q34.3 -64.02 38.125 -67.895 Q41.95 -71.771 47.346 -71.771 Q52.788 -71.771 56.596 -67.911 Q60.404 -64.051 60.404 -58.533 H61.469 V-13.155 H33.211 Z M40.239 -58.533 H54.441 Q54.441 -61.469 52.37 -63.551 Q50.299 -65.634 47.34 -65.634 Q44.381 -65.634 42.31 -63.551 Q40.239 -61.469 40.239 -58.533 Z M66.362 -13.155 V-58.533 H70.553 Q74.406 -58.829 76.995 -56.139 Q79.584 -53.448 79.584 -49.503 V-22.186 Q79.584 -18.467 76.995 -15.91 Q74.406 -13.352 70.553 -13.155 H66.362 Z M24.127 -13.155 Q20.274 -13.352 17.685 -15.91 Q15.096 -18.467 15.096 -22.186 V-49.503 Q15.096 -53.448 17.685 -56.139 Q20.274 -58.829 24.127 -58.533 H28.318 V-13.155 H24.127 Z M15.15 2.953 Q13.221 2.953 11.914 1.669 Q10.606 0.385 10.606 -1.521 Q10.606 -3.428 11.898 -4.741 Q13.19 -6.054 15.119 -6.054 H79.53 Q81.459 -6.054 82.766 -4.77 Q84.074 -3.487 84.074 -1.58 Q84.074 0.326 82.782 1.64 Q81.49 2.953 79.561 2.953 H15.15 Z"/></g><g id="Regular-S" transform="matrix(1 0 0 1 1405.73 696)"><path d="M33.73 -13.532 V-57.519 H34.913 Q34.913 -62.746 38.538 -66.445 Q42.162 -70.143 47.34 -70.143 Q52.518 -70.143 56.142 -66.461 Q59.767 -62.779 59.767 -57.519 H60.95 V-13.532 H33.73 Z M40.239 -57.519 H54.441 Q54.441 -60.478 52.37 -62.549 Q50.299 -64.62 47.34 -64.62 Q44.381 -64.62 42.31 -62.549 Q40.239 -60.478 40.239 -57.519 Z M66.079 -13.532 V-57.519 H70.813 Q74.265 -57.815 76.582 -55.396 Q78.9 -52.976 78.9 -49.432 V-21.62 Q78.9 -18.279 76.582 -16.004 Q74.265 -13.73 70.813 -13.532 H66.079 Z M23.867 -13.532 Q20.415 -13.73 18.098 -16.004 Q15.78 -18.279 15.78 -21.62 V-49.432 Q15.78 -52.976 18.098 -55.396 Q20.415 -57.815 23.867 -57.519 H28.601 V-13.532 H23.867 Z M15.316 1.656 Q13.598 1.656 12.421 0.502 Q11.243 -0.652 11.243 -2.358 Q11.243 -4.064 12.405 -5.248 Q13.567 -6.431 15.285 -6.431 H79.364 Q81.082 -6.431 82.259 -5.277 Q83.437 -4.123 83.437 -2.417 Q83.437 -0.711 82.275 0.472 Q81.113 1.656 79.395 1.656 H15.316 Z"/></g><g id="Light-S" transform="matrix(1 0 0 1 1109.75 696)"><path d="M33.123 -14.746 V-55.547 H36.127 Q36.127 -60.243 39.41 -63.6 Q42.693 -66.957 47.34 -66.957 Q51.987 -66.957 55.27 -63.616 Q58.553 -60.276 58.553 -55.547 H61.557 V-14.746 H33.123 Z M40.239 -55.547 H54.441 Q54.441 -58.505 52.37 -60.577 Q50.299 -62.648 47.34 -62.648 Q44.381 -62.648 42.31 -60.577 Q40.239 -58.505 40.239 -55.547 Z M65.472 -14.746 V-55.547 H69.599 Q72.785 -55.843 74.856 -53.67 Q76.927 -51.497 76.927 -48.218 V-22.075 Q76.927 -19 74.856 -16.972 Q72.785 -14.944 69.599 -14.746 H65.472 Z M25.081 -14.746 Q21.895 -14.944 19.824 -16.972 Q17.753 -19 17.753 -22.075 V-48.218 Q17.753 -51.497 19.824 -53.67 Q21.895 -55.843 25.081 -55.547 H29.208 V-14.746 H25.081 Z M17.061 -1.531 Q15.762 -1.531 14.868 -2.402 Q13.975 -3.273 13.975 -4.56 Q13.975 -5.847 14.853 -6.746 Q15.732 -7.645 17.03 -7.645 H77.619 Q78.918 -7.645 79.812 -6.775 Q80.705 -5.904 80.705 -4.616 Q80.705 -3.329 79.827 -2.43 Q78.948 -1.531 77.65 -1.531 H17.061 Z"/></g><g id="Thin-S" transform="matrix(1 0 0 1 814.015 696)"><path d="M32.516 -15.96 V-53.574 H37.341 Q37.341 -57.739 40.283 -60.755 Q43.224 -63.771 47.34 -63.771 Q51.456 -63.771 54.397 -60.771 Q57.339 -57.772 57.339 -53.574 H62.164 V-15.96 H32.516 Z M40.239 -53.574 H54.441 Q54.441 -56.533 52.37 -58.604 Q50.299 -60.675 47.34 -60.675 Q44.381 -60.675 42.31 -58.604 Q40.239 -56.533 40.239 -53.574 Z M64.865 -15.96 V-53.574 H68.385 Q71.306 -53.87 73.13 -51.944 Q74.955 -50.018 74.955 -47.004 V-22.53 Q74.955 -19.72 73.13 -17.939 Q71.306 -16.157 68.385 -15.96 H64.865 Z M26.295 -15.96 Q23.374 -16.157 21.55 -17.939 Q19.725 -19.72 19.725 -22.53 V-47.004 Q19.725 -50.018 21.55 -51.944 Q23.374 -53.87 26.295 -53.574 H29.815 V-15.96 H26.295 Z M18.806 -4.717 Q17.926 -4.717 17.316 -5.305 Q16.705 -5.892 16.705 -6.761 Q16.705 -7.63 17.301 -8.245 Q17.896 -8.859 18.775 -8.859 H75.874 Q76.754 -8.859 77.364 -8.271 Q77.975 -7.684 77.975 -6.815 Q77.975 -5.946 77.379 -5.331 Q76.784 -4.717 75.905 -4.717 H18.806 Z"/></g><g id="Ultralight-S" transform="matrix(1 0 0 1 517.792 696)"><path d="M32.152 -16.688 V-52.391 H38.069 Q38.069 -56.237 40.806 -59.048 Q43.543 -61.859 47.34 -61.859 Q51.137 -61.859 53.874 -59.064 Q56.611 -56.27 56.611 -52.391 H62.528 V-16.688 H32.152 Z M40.239 -52.391 H54.441 Q54.441 -55.349 52.37 -57.421 Q50.299 -59.492 47.34 -59.492 Q44.381 -59.492 42.31 -57.421 Q40.239 -55.349 40.239 -52.391 Z M64.501 -16.688 V-52.391 H67.657 Q70.418 -52.687 72.095 -50.908 Q73.772 -49.13 73.772 -46.276 V-22.803 Q73.772 -20.153 72.095 -18.519 Q70.418 -16.886 67.657 -16.688 H64.501 Z M27.023 -16.688 Q24.262 -16.886 22.585 -18.519 Q20.909 -20.153 20.909 -22.803 V-46.276 Q20.909 -49.13 22.585 -50.908 Q24.262 -52.687 27.023 -52.391 H30.179 V-16.688 H27.023 Z M19.853 -6.629 Q19.224 -6.629 18.784 -7.047 Q18.344 -7.464 18.344 -8.082 Q18.344 -8.7 18.769 -9.144 Q19.194 -9.587 19.822 -9.587 H74.827 Q75.456 -9.587 75.896 -9.17 Q76.336 -8.752 76.336 -8.134 Q76.336 -7.516 75.911 -7.073 Q75.486 -6.629 74.858 -6.629 H19.853 Z"/></g></g></svg>