<svg xmlns="http://www.w3.org/2000/svg" version="1.1" width="3300" height="2000"><g id="Notes"><style>
    text {
      font-family: monospace;
      text-anchor: middle;
    }
    text.emphasis {
      font-weight:bold;
    }
    text.lanchor {
      text-anchor: start;
    }
  </style><rect height="2200" id="artboard" fill="white" width="3300" x="0" y="0"/><line id="" style="fill:none;stroke:black;stroke-width:0.5;" x1="263" x2="3036" y1="292" y2="292"/><text class="lanchor emphasis" transform="matrix(1 0 0 1 263 322)">Weight/Scale Variations</text><text transform="matrix(1 0 0 1 559.711 322)">Ultralight</text><text transform="matrix(1 0 0 1 856.422 322)">Thin</text><text transform="matrix(1 0 0 1 1153.13 322)">Light</text><text transform="matrix(1 0 0 1 1449.84 322)">Regular</text><text transform="matrix(1 0 0 1 1746.56 322)">Medium</text><text transform="matrix(1 0 0 1 2043.27 322)">Semibold</text><text transform="matrix(1 0 0 1 2339.98 322)">Bold</text><text transform="matrix(1 0 0 1 2636.69 322)">Heavy</text><text transform="matrix(1 0 0 1 2933.4 322)">Black</text><text id="template-version" style="text-anchor: end;" transform="matrix(1 0 0 1 3036 1933)">Template v.1.0</text><text class="lanchor" transform="matrix(1 0 0 1 263 726)">Small</text><text class="lanchor" transform="matrix(1 0 0 1 263 1156)">Medium</text><text class="lanchor" transform="matrix(1 0 0 1 263 1586)">Large</text></g><g id="Guides"><g id="H-reference" style="fill:#27AAE1;stroke:none;" transform="matrix(1 0 0 1 339 696)"><path d="M 54.9316 0 L 57.666 0 L 30.5664 -70.459 L 28.0762 -70.459 L 0.976562 0 L 3.66211 0 L 12.9395 -24.4629 L 45.7031 -24.4629 Z M 29.1992 -67.0898 L 29.4434 -67.0898 L 44.8242 -26.709 L 13.8184 -26.709 Z"/></g><line id="Baseline-S" style="fill:none;stroke:#27AAE1;opacity:1;stroke-width:0.577;" x1="263" x2="3036" y1="696" y2="696"/><line id="Capline-S" style="fill:none;stroke:#27AAE1;opacity:1;stroke-width:0.577;" x1="263" x2="3036" y1="625.541" y2="625.541"/><g id="H-reference" style="fill:#27AAE1;stroke:none;" transform="matrix(1 0 0 1 339 1126)"><path d="M 54.9316 0 L 57.666 0 L 30.5664 -70.459 L 28.0762 -70.459 L 0.976562 0 L 3.66211 0 L 12.9395 -24.4629 L 45.7031 -24.4629 Z M 29.1992 -67.0898 L 29.4434 -67.0898 L 44.8242 -26.709 L 13.8184 -26.709 Z"/></g><line id="Baseline-M" style="fill:none;stroke:#27AAE1;opacity:1;stroke-width:0.577;" x1="263" x2="3036" y1="1126" y2="1126"/><line id="Capline-M" style="fill:none;stroke:#27AAE1;opacity:1;stroke-width:0.577;" x1="263" x2="3036" y1="1055.54" y2="1055.54"/><g id="H-reference" style="fill:#27AAE1;stroke:none;" transform="matrix(1 0 0 1 339 1556)"><path d="M 54.9316 0 L 57.666 0 L 30.5664 -70.459 L 28.0762 -70.459 L 0.976562 0 L 3.66211 0 L 12.9395 -24.4629 L 45.7031 -24.4629 Z M 29.1992 -67.0898 L 29.4434 -67.0898 L 44.8242 -26.709 L 13.8184 -26.709 Z"/></g><line id="Baseline-L" style="fill:none;stroke:#27AAE1;opacity:1;stroke-width:0.577;" x1="263" x2="3036" y1="1556" y2="1556"/><line id="Capline-L" style="fill:none;stroke:#27AAE1;opacity:1;stroke-width:0.577;" x1="263" x2="3036" y1="1485.54" y2="1485.54"/><rect height="119.336" id="left-margin" style="fill:darkred;stroke:none;opacity:0.4;" width="12.4512" x="1394.06" y="1030.79"/><rect height="119.336" id="right-margin" style="fill:darkgreen;stroke:none;opacity:0.4;" width="12.4512" x="1502.5112" y="1030.79"/><rect x="1406.5112" y="1045" width="96" height="96" fill="none" stroke="blue" stroke-dasharray="5"/><rect x="1394.06" y="1030.79" width="120.9024" height="119.336" fill="none" stroke="blue"/></g><g id="Symbols"><g id="Bold-L" transform="matrix(1 0 0 1 2266 1556)"><path d="M39.50625 32.656250000000014 Q26.92875 32.656250000000014 17.979375 23.962295000000015 Q9.030000000000001 15.268340000000016 9.030000000000001 2.825000000000017 Q9.030000000000001 -4.9940124999999895 12.9 -11.727006249999988 Q16.77 -18.459999999999987 23.22 -22.329999999999984 H9.675 V-34.74624999999999 H49.02 V4.598750000000017 H36.765 V-14.751249999999985 Q30.19551375 -13.563482499999985 25.82080125 -8.756297499999988 Q21.44625 -3.949112499999984 21.44625 2.808068750000018 Q21.44625 10.054805000000016 26.683166250000003 15.228027500000017 Q31.920243750000004 20.401250000000015 39.50625 20.401250000000015 V32.656250000000014 Z M45.795 -57.48249999999999 H109.16625 V-66.67374999999998 H45.795 V-57.48249999999999 Z M58.695 26.367500000000014 V-3.947499999999984 H89.49375 V-13.192446249999989 H58.695 V-30.500053749999978 H109.16625 V-39.74499999999999 H58.614375 V-44.421249999999986 H15.8025 V-82.15374999999999 Q15.8025 -88.21481499999999 20.14206 -92.60178249999998 Q24.481781249999997 -96.98874999999998 30.47625 -96.98874999999998 H124.32375 Q130.384815 -96.98874999999998 134.7717825 -92.60178249999998 Q139.15875 -88.21481499999999 139.15875 -82.15374999999999 V11.693750000000016 Q139.15875 17.68821875000002 134.7717825 22.027940000000015 Q130.384815 26.367500000000014 124.32375 26.367500000000014 H58.695 Z"/></g><g id="Semibold-L" transform="matrix(1 0 0 1 1970.27 1556)"><path d="M39.22583625 32.30569250000001 Q26.64833625 32.30569250000001 17.769105 23.684622500000014 Q8.8897125 15.063552500000014 8.8897125 2.6847125000000176 Q8.8897125 -5.192833749999984 12.794865 -11.896479999999983 Q16.69985625 -18.600287499999986 23.22 -22.470287499999984 H9.95541375 V-34.60596249999999 H48.52931625 V3.967778750000015 H36.48458625 V-14.961519999999979 Q29.896878750000003 -13.869534999999985 25.461213750000002 -9.014136249999986 Q21.02554875 -4.158737499999987 21.02554875 2.6052162500000122 Q21.02554875 9.913388750000017 26.31519375 15.087256250000014 Q31.6046775 20.260962500000016 39.22583625 20.260962500000016 V32.30569250000001 Z M44.74348875 -57.34221249999999 H110.14777875 V-67.65527874999998 H44.74348875 V-57.34221249999999 Z M58.20431625 25.736528750000016 V-2.9659712499999884 H89.77416375000001 V-13.309352499999981 H58.20431625 V-30.032589999999985 H110.14777875 V-40.37597124999999 H58.12369125 V-44.28096249999999 H16.43347125 V-82.78472124999999 Q16.43347125 -88.22432874999998 20.43827625 -92.25606249999998 Q24.443242500000004 -96.287635 29.84527875 -96.287635 H124.95472125 Q130.39432875 -96.287635 134.4260625 -92.25606249999998 Q138.457635 -88.22432874999998 138.457635 -82.78472124999999 V12.324721250000017 Q138.457635 17.726757500000012 134.4260625 21.731723750000015 Q130.39432875 25.736528750000016 124.95472125 25.736528750000016 H58.20431625 Z"/></g><g id="Medium-L" transform="matrix(1 0 0 1 1674.31 1556)"><path d="M39.01556625 32.04285500000002 Q26.43806625 32.04285500000002 17.61124125 23.476448750000014 Q8.784577500000001 14.910042500000014 8.784577500000001 2.5795775000000134 Q8.784577500000001 -5.3419899999999885 12.71601375 -12.023706249999982 Q16.64728875 -18.705422499999983 23.22 -22.575422499999988 H10.165845 V-34.500827499999986 H48.161182499999995 V3.4945100000000124 H36.27431625 V-15.11938374999999 Q29.6729025 -14.099154999999989 25.191603750000002 -9.207474999999988 Q20.71014375 -4.315956249999992 20.71014375 2.4528350000000145 Q20.71014375 9.807286250000011 26.03913375 14.981637500000012 Q31.368123750000002 20.155827500000015 39.01556625 20.155827500000015 V32.04285500000002 Z M43.95465375 -57.237077499999984 H110.883885 V-68.391385 H43.95465375 V-57.237077499999984 Z M57.8361825 25.263260000000017 V-2.2298649999999895 H89.98443375000001 V-13.396911249999988 H57.8361825 V-29.68203249999999 H110.883885 V-40.84923999999998 H57.755557499999995 V-44.17582749999998 H16.90674 V-83.25798999999998 Q16.90674 -88.231585 20.660478750000003 -91.99677249999999 Q24.41437875 -95.76179874999997 29.37201 -95.76179874999997 H125.42799 Q130.401585 -95.76179874999997 134.1667725 -91.99677249999999 Q137.93179874999998 -88.231585 137.93179874999998 -83.25798999999998 V12.797990000000016 Q137.93179874999998 17.755621250000015 134.1667725 21.509521250000013 Q130.401585 25.263260000000017 125.42799 25.263260000000017 H57.8361825 Z"/></g><g id="Regular-L" transform="matrix(1 0 0 1 1378.56 1556)"><path d="M38.86125 31.850000000000016 Q26.28375 31.850000000000016 17.495625 23.323745000000013 Q8.7075 14.797328750000016 8.7075 2.502500000000012 Q8.7075 -5.4514787499999855 12.658125 -12.116908749999986 Q16.60875 -18.782499999999985 23.22 -22.65249999999999 H10.32 V-34.423749999999984 H47.89125 V3.147500000000015 H36.120000000000005 V-15.234999999999985 Q29.50875 -14.267499999999984 24.993750000000002 -9.349374999999988 Q20.47875 -4.431249999999984 20.47875 2.3412500000000165 Q20.47875 9.72940250000002 25.836603750000002 14.904076250000013 Q31.194618750000004 20.078750000000014 38.86125 20.078750000000014 V31.850000000000016 Z M43.37625 -57.15999999999998 H111.42375 V-68.93124999999999 H43.37625 V-57.15999999999998 Z M57.566250000000004 24.916250000000016 V-1.6899999999999835 H90.13875 V-13.461249999999986 H57.566250000000004 V-29.424999999999983 H111.42375 V-41.19624999999999 H57.485625 V-44.09874999999998 H17.25375 V-83.60499999999999 Q17.25375 -88.23690625 20.823341250000002 -91.80649749999998 Q24.393093750000002 -95.37625 29.025000000000002 -95.37625 H125.775 Q130.40690625000002 -95.37625 133.9764975 -91.80649749999998 Q137.54625000000001 -88.23690625 137.54625000000001 -83.60499999999999 V13.145000000000014 Q137.54625000000001 17.776906250000014 133.9764975 21.346658750000014 Q130.40690625000002 24.916250000000016 125.775 24.916250000000016 H57.566250000000004 Z"/></g><g id="Light-L" transform="matrix(1 0 0 1 1082.77 1556)"><path d="M41.21808 28.624838750000016 Q29.13061875 28.624838750000016 20.6867625 20.442691250000017 Q12.242906249999999 12.260543750000014 12.242906249999999 0.45575375000002083 Q12.242906249999999 -7.4058287499999835 16.37961375 -14.055456249999985 Q20.51632125 -20.705244999999984 27.3134925 -24.14099874999998 H13.545161250000001 V-33.55541874999999 H47.2710825 V0.1703412500000141 H37.856662500000006 V-18.39824124999999 Q30.996603750000002 -17.18660874999999 26.326965 -11.973557499999984 Q21.657165 -6.760506249999985 21.657165 0.28676375000001997 Q21.657165 8.183337500000015 27.35622375 13.696958750000015 Q33.055282500000004 19.210418750000017 41.21808 19.210418750000017 V28.624838750000016 Z M45.1129125 -57.84224874999998 H109.6870875 V-67.25666874999999 H45.1129125 V-57.84224874999998 Z M59.05474875 21.691088750000013 V-3.3645812499999863 H88.89825375000001 V-12.779001249999986 H59.05474875 V-30.603414999999984 H109.6870875 V-40.01783499999999 H58.974123750000004 V-45.33924624999999 H20.478911250000003 V-80.7518425 Q20.478911250000003 -85.30779999999997 23.90063625 -88.72936374999998 Q27.3222 -92.15108874999999 31.8781575 -92.15108874999999 H122.92184250000001 Q127.47779999999999 -92.15108874999999 130.89936375 -88.72936374999998 Q134.32108875 -85.30779999999997 134.32108875 -80.7518425 V10.291842500000016 Q134.32108875 14.847800000000017 130.89936375 18.269363750000014 Q127.47779999999999 21.691088750000013 122.92184250000001 21.691088750000013 H59.05474875 Z"/></g><g id="Thin-L" transform="matrix(1 0 0 1 787.282 1556)"><path d="M43.57474875 25.400000000000016 Q31.977003749999998 25.400000000000016 23.87741625 17.562121250000015 Q15.777667500000002 9.724242500000017 15.777667500000002 -1.5906699999999887 Q15.777667500000002 -9.359856249999986 20.1004575 -15.993842499999985 Q24.423086250000004 -22.627667499999987 31.40650125 -25.629336249999994 H16.77 V-32.68724874999998 H46.650915 V-2.806333749999986 H39.593002500000004 V-21.560998749999982 Q32.484135 -20.105394999999987 27.6598575 -14.597417499999985 Q22.835418750000002 -9.089601249999987 22.835418750000002 -1.7673999999999879 Q22.835418750000002 6.637433750000014 28.875521250000002 12.489841250000016 Q34.91562375 18.342248750000014 43.57474875 18.342248750000014 V25.400000000000016 Z M46.849252500000006 -58.52433624999999 H107.9507475 V-65.58224874999999 H46.849252500000006 V-58.52433624999999 Z M60.54308625 18.466250000000016 V-5.039001249999984 H87.65791875000001 V-12.096913749999985 H60.54308625 V-31.781668749999994 H107.9507475 V-38.83958124999998 H60.462461250000004 V-46.57958124999999 H23.70375 V-77.89932999999999 Q23.70375 -82.3791775 26.97728625 -85.65271374999998 Q30.2508225 -88.92624999999998 34.730669999999996 -88.92624999999998 H120.06933000000001 Q124.54917750000001 -88.92624999999998 127.82271374999999 -85.65271374999998 Q131.09625 -82.3791775 131.09625 -77.89932999999999 V7.4393300000000195 Q131.09625 11.919177500000014 127.82271374999999 15.192713750000017 Q124.54917750000001 18.466250000000016 120.06933000000001 18.466250000000016 H60.54308625 Z"/></g><g id="Ultralight-L" transform="matrix(1 0 0 1 491.205 1556)"><path d="M44.98875 23.465000000000014 Q33.685125 23.465000000000014 25.7919375 15.833682500000016 Q17.89875 8.202203750000017 17.89875 -2.818749999999987 Q17.89875 -10.532466249999985 22.333125 -17.15677749999999 Q26.767500000000002 -23.781249999999986 33.862500000000004 -26.52249999999998 H18.705000000000002 V-32.16624999999999 H46.27875 V-4.592499999999987 H40.635 V-23.45874999999998 Q33.376815 -21.85673124999998 28.459657500000002 -16.17186249999999 Q23.5425 -10.48715499999998 23.5425 -2.9999949999999913 Q23.5425 5.709923750000016 29.78722875 11.765506250000016 Q36.03211875 17.821250000000017 44.98875 17.821250000000017 V23.465000000000014 Z M47.89125 -58.93374999999999 H106.90875 V-64.57749999999999 H47.89125 V-58.93374999999999 Z M61.43625 16.531250000000014 V-6.043749999999989 H86.91375000000001 V-11.687499999999986 H61.43625 V-32.48874999999998 H106.90875 V-38.13249999999999 H61.355625 V-47.32374999999999 H25.63875 V-76.18749999999999 Q25.63875 -80.62187499999999 28.8234375 -83.80656249999998 Q32.008125 -86.99124999999998 36.4425 -86.99124999999998 H118.3575 Q122.791875 -86.99124999999998 125.9765625 -83.80656249999998 Q129.16125 -80.62187499999999 129.16125 -76.18749999999999 V5.727500000000013 Q129.16125 10.161875000000016 125.9765625 13.346562500000015 Q122.791875 16.531250000000014 118.3575 16.531250000000014 H61.43625 Z"/></g><g id="Bold-M" transform="matrix(1 0 0 1 2281.8 1126)"><path d="M29.375 20.52000000000001 Q18.5 20.52000000000001 10.9375 13.19700000000001 Q3.375 5.874000000000009 3.375 -4.47999999999999 Q3.375 -10.60499999999999 6.125 -15.79249999999999 Q8.875 -20.97999999999999 13.625 -24.47999999999999 H4.5 V-38.97999999999999 H40.25 V-3.2299999999999898 H25.75 V-14.72999999999999 Q22.25 -13.60499999999999 20.0625 -10.862624999999987 Q17.875 -8.120124999999987 17.875 -4.60499999999999 Q17.875 -0.2731249999999896 21.252875 2.87337500000001 Q24.630625 6.02000000000001 29.375 6.02000000000001 V20.52000000000001 Z M35.0 -48.97999999999999 H85.0 V-60.22999999999999 H35.0 V-48.97999999999999 Z M50.25 15.27000000000001 V-10.35499999999999 H71.375 V-21.60499999999999 H50.25 V-29.60499999999999 H85.0 V-40.85499999999999 H50.25 V-48.97999999999999 H9.5 V-68.72999999999999 Q9.5 -75.87062499999999 14.42975 -80.80024999999999 Q19.359375 -85.72999999999999 26.5 -85.72999999999999 H93.5 Q100.640625 -85.72999999999999 105.57025 -80.80024999999999 Q110.5 -75.87062499999999 110.5 -68.72999999999999 V-1.7299999999999898 Q110.5 5.41062500000001 105.57025 10.34025000000001 Q100.640625 15.27000000000001 93.5 15.27000000000001 H50.25 Z"/></g><g id="Semibold-M" transform="matrix(1 0 0 1 1985.97 1126)"><path d="M29.429375 19.75912500000001 Q18.663 19.75912500000001 11.182 12.52437500000001 Q3.701 5.289625000000012 3.701 -4.969124999999991 Q3.701 -11.202749999999988 6.55975 -16.41749999999999 Q9.418375 -21.632124999999988 14.3315 -25.02349999999999 H5.152125 V-38.97999999999999 H39.81525 V-4.316874999999989 H25.85875 V-15.490874999999988 Q22.25 -14.420124999999992 19.95375 -11.565749999999987 Q17.657625 -8.71137499999999 17.657625 -5.094124999999991 Q17.657625 -0.6002499999999884 21.124375 2.601250000000011 Q24.591125 5.80262500000001 29.429375 5.80262500000001 V19.75912500000001 Z M34.1305 -48.97999999999999 H85.8695 V-61.09949999999999 H34.1305 V-48.97999999999999 Z M49.81525 14.291750000000011 V-9.539874999999988 H71.538 V-21.65937499999999 H49.81525 V-29.22462499999999 H85.8695 V-41.34412499999999 H49.81525 V-48.97999999999999 H10.47825 V-69.38212499999999 Q10.47825 -75.79449999999999 14.956875 -80.273125 Q19.4355 -84.75174999999999 25.847875 -84.75174999999999 H94.152125 Q100.5645 -84.75174999999999 105.043125 -80.273125 Q109.52175 -75.79449999999999 109.52175 -69.38212499999999 V-1.0778749999999881 Q109.52175 5.334500000000009 105.043125 9.81312500000001 Q100.5645 14.291750000000011 94.152125 14.291750000000011 H49.81525 Z"/></g><g id="Medium-M" transform="matrix(1 0 0 1 1689.91 1126)"><path d="M29.470125 19.188500000000012 Q18.785375 19.188500000000012 11.3655 12.01987500000001 Q3.945625 4.851250000000011 3.945625 -5.335999999999991 Q3.945625 -11.65124999999999 6.885875 -16.88624999999999 Q9.826125 -22.12124999999999 14.861375 -25.431124999999987 H5.64125 V-38.97999999999999 H39.489125 V-5.132124999999991 H25.94025 V-16.061499999999988 Q22.25 -15.031624999999991 19.87225 -12.09324999999999 Q17.494625 -9.154749999999993 17.494625 -5.460999999999991 Q17.494625 -0.8454999999999906 21.028 2.397000000000009 Q24.5615 5.639625000000009 29.470125 5.639625000000009 V19.188500000000012 Z M33.47825 -48.97999999999999 H86.52175 V-61.75174999999999 H33.47825 V-48.97999999999999 Z M49.489125 13.55800000000001 V-8.928374999999988 H71.660375 V-21.700124999999993 H49.489125 V-28.939249999999987 H86.52175 V-41.710999999999984 H49.489125 V-48.97999999999999 H11.212 V-69.87124999999999 Q11.212 -75.73749999999998 15.35225 -79.87774999999999 Q19.4925 -84.01799999999999 25.35875 -84.01799999999999 H94.64125 Q100.5075 -84.01799999999999 104.64775 -79.87774999999999 Q108.788 -75.73749999999998 108.788 -69.87124999999999 V-0.5887499999999903 Q108.788 5.2775000000000105 104.64775 9.41775000000001 Q100.5075 13.55800000000001 94.64125 13.55800000000001 H49.489125 Z"/></g><g id="Regular-M" transform="matrix(1 0 0 1 1394.06 1126)"><path d="M29.5 18.77000000000001 Q18.875 18.77000000000001 11.5 11.64987500000001 Q4.125 4.529875000000011 4.125 -5.60499999999999 Q4.125 -11.97999999999999 7.125 -17.22999999999999 Q10.125 -22.47999999999999 15.25 -25.72999999999999 H6.0 V-38.97999999999999 H39.25 V-5.72999999999999 H26.0 V-16.47999999999999 Q22.25 -15.47999999999999 19.8125 -12.47999999999999 Q17.375 -9.47999999999999 17.375 -5.72999999999999 Q17.375 -1.0254999999999903 20.957375 2.2472500000000117 Q24.53975 5.52000000000001 29.5 5.52000000000001 V18.77000000000001 Z M33.0 -48.97999999999999 H87.0 V-62.22999999999999 H33.0 V-48.97999999999999 Z M49.25 13.02000000000001 V-8.47999999999999 H71.75 V-21.72999999999999 H49.25 V-28.72999999999999 H87.0 V-41.97999999999999 H49.25 V-48.97999999999999 H11.75 V-70.22999999999999 Q11.75 -75.69562499999999 15.642125 -79.58774999999999 Q19.534375 -83.47999999999999 25.0 -83.47999999999999 H95.0 Q100.465625 -83.47999999999999 104.35775 -79.58774999999999 Q108.25 -75.69562499999999 108.25 -70.22999999999999 V-0.22999999999998977 Q108.25 5.2356250000000095 104.35775 9.12787500000001 Q100.465625 13.02000000000001 95.0 13.02000000000001 H49.25 Z"/></g><g id="Light-M" transform="matrix(1 0 0 1 1098.18 1126)"><path d="M30.9905 16.26987500000001 Q20.88525 16.26987500000001 13.875375 9.52900000000001 Q6.865625 2.7881250000000115 6.865625 -6.8069999999999915 Q6.865625 -13.01424999999999 9.93775 -18.13174999999999 Q13.009875 -23.24924999999999 18.134875 -26.21074999999999 H8.500125 V-36.96062499999999 H38.096125 V-7.364749999999987 H27.34625 V-18.980124999999987 Q23.114875 -17.88712499999999 20.365125 -14.538374999999988 Q17.615375 -11.189499999999988 17.615375 -6.98599999999999 Q17.615375 -1.746624999999991 21.534375 1.8866250000000093 Q25.45325 5.52000000000001 30.9905 5.52000000000001 V16.26987500000001 Z M34.250125 -50.23012499999999 H85.749875 V-60.97987499999999 H34.250125 V-50.23012499999999 Z M49.057625 10.51987500000001 V-9.730124999999987 H70.499875 V-20.479874999999993 H49.057625 V-29.980124999999987 H85.749875 V-40.72987499999999 H49.057625 V-47.92224999999999 H14.250125 V-68.691375 Q14.250125 -73.8205 17.829875 -77.40012499999999 Q21.4095 -80.97987499999999 26.538625 -80.97987499999999 H93.461375 Q98.5905 -80.97987499999999 102.170125 -77.40012499999999 Q105.749875 -73.8205 105.749875 -68.691375 V-1.7686249999999895 Q105.749875 3.360500000000009 102.170125 6.940125000000009 Q98.5905 10.51987500000001 93.461375 10.51987500000001 H49.057625 Z"/></g><g id="Thin-M" transform="matrix(1 0 0 1 802.565 1126)"><path d="M32.48075 13.77000000000001 Q22.89525 13.77000000000001 16.2505 7.4082500000000095 Q9.60575 1.0466250000000095 9.60575 -8.008874999999989 Q9.60575 -14.048249999999989 12.75 -19.033374999999992 Q15.89425 -24.01849999999999 21.01925 -26.69149999999999 H11.0 V-34.94162499999999 H36.942375 V-8.99924999999999 H28.69225 V-21.47999999999999 Q23.979625 -20.29399999999999 20.91775 -16.596374999999988 Q17.85575 -12.898749999999993 17.85575 -8.241874999999993 Q17.85575 -2.467749999999988 22.11125 1.526125000000011 Q26.366625 5.52000000000001 32.48075 5.52000000000001 V13.77000000000001 Z M35.5 -51.47999999999999 H84.5 V-59.72999999999999 H35.5 V-51.47999999999999 Z M48.865375 8.02000000000001 V-10.97999999999999 H69.25 V-19.22999999999999 H48.865375 V-31.22999999999999 H84.5 V-39.47999999999999 H48.865375 V-46.86462499999999 H16.75 V-67.15312499999999 Q16.75 -71.94562499999999 20.017125 -75.212875 Q23.284375 -78.47999999999999 28.076875 -78.47999999999999 H91.923125 Q96.715625 -78.47999999999999 99.982875 -75.212875 Q103.25 -71.94562499999999 103.25 -67.15312499999999 V-3.306874999999991 Q103.25 1.4856250000000095 99.982875 4.75287500000001 Q96.715625 8.02000000000001 91.923125 8.02000000000001 H48.865375 Z"/></g><g id="Ultralight-M" transform="matrix(1 0 0 1 506.415 1126)"><path d="M33.375 12.27000000000001 Q24.101375 12.27000000000001 17.675625 6.135750000000009 Q11.25 0.0016250000000113118 11.25 -8.72999999999999 Q11.25 -14.668749999999989 14.4375 -19.57437499999999 Q17.625 -24.47999999999999 22.75 -26.97999999999999 H12.5 V-33.72999999999999 H36.25 V-9.97999999999999 H29.5 V-22.97999999999999 Q24.4985 -21.73812499999999 21.24925 -17.83124999999999 Q18.0 -13.924499999999988 18.0 -8.995499999999993 Q18.0 -2.9004999999999903 22.457375 1.3097500000000117 Q26.91475 5.52000000000001 33.375 5.52000000000001 V12.27000000000001 Z M36.25 -52.22999999999999 H83.75 V-58.97999999999999 H36.25 V-52.22999999999999 Z M48.75 6.52000000000001 V-11.72999999999999 H68.5 V-18.47999999999999 H48.75 V-31.97999999999999 H83.75 V-38.72999999999999 H48.75 V-46.22999999999999 H18.25 V-66.22999999999999 Q18.25 -70.82062499999999 21.329625 -73.90024999999999 Q24.409375 -76.97999999999999 29.0 -76.97999999999999 H91.0 Q95.590625 -76.97999999999999 98.67025 -73.90024999999999 Q101.75 -70.82062499999999 101.75 -66.22999999999999 V-4.22999999999999 Q101.75 0.3606250000000095 98.67025 3.44037500000001 Q95.590625 6.52000000000001 91.0 6.52000000000001 H48.75 Z"/></g><g id="Bold-S" transform="matrix(1 0 0 1 2294.23 696)"><path d="M20.612625 7.178750000000013 Q11.933625000000001 7.178750000000013 5.9668125000000005 1.400903000000012 Q0.0 -4.3769439999999875 0.0 -12.644874999999988 Q0.0 -17.280249999999988 2.0218125000000002 -21.373187499999986 Q4.0436250000000005 -25.46612499999999 7.495500000000001 -28.326249999999987 H0.3945 V-38.977749999999986 H28.60125 V-10.770999999999987 H17.94975 V-21.915624999999984 Q14.695125 -21.027999999999984 12.6733125 -18.568391124999987 Q10.6515 -16.108683624999987 10.6515 -12.842124999999989 Q10.6515 -9.011924499999985 13.513893375 -6.242337249999988 Q16.376188125 -3.472749999999987 20.612625 -3.472749999999987 V7.178750000000013 Z M28.404 -46.07874999999999 H66.276 V-54.16599999999998 H28.404 V-46.07874999999999 Z M35.70225 2.247500000000013 V-16.39262499999999 H57.892875000000004 V-24.479874999999986 H35.70225 V-31.18637499999999 H66.276 V-39.27362499999999 H35.70225 V-46.07874999999999 H9.8625 V-60.10805762499999 Q9.8625 -65.421578125 13.520205375 -69.06448974999999 Q17.178009375000002 -72.7075 22.4865 -72.7075 H72.1935 Q77.501990625 -72.7075 81.15969600000001 -69.049696 Q84.81750000000001 -65.39199062499999 84.81750000000001 -60.08349999999999 V-10.376499999999986 Q84.81750000000001 -5.068009374999988 81.15969600000001 -1.410205374999986 Q77.501990625 2.247500000000013 72.1935 2.247500000000013 H35.70225 Z"/></g><g id="Semibold-S" transform="matrix(1 0 0 1 1998.1 696)"><path d="M20.655526875 6.578419625000013 Q12.062232000000002 6.578419625000013 6.1597230000000005 0.8702018750000136 Q0.257312625 -4.838015874999986 0.257312625 -13.030794624999988 Q0.257312625 -17.751874749999985 2.3648302500000002 -21.866312499999985 Q4.4723478750000005 -25.980651624999986 8.0529285 -28.755071499999993 H0.9090266250000001 V-38.977749999999986 H28.25823225 V-11.628544374999986 H18.035553750000002 V-22.51595537499999 Q14.695125 -21.67113362499999 12.58750875 -19.123156749999985 Q10.479991125 -16.57517987499999 10.479991125 -13.228044624999988 Q10.479991125 -9.269927499999987 13.412506875000002 -6.457142499999986 Q16.345022625000002 -3.644258874999988 20.655526875 -3.644258874999988 V6.578419625000013 Z M27.7179645 -46.07874999999999 H66.9620355 V-54.852035499999985 H27.7179645 V-46.07874999999999 Z M35.35923225 1.4756607500000136 V-15.749491374999987 H58.021482 V-24.52277687499999 H35.35923225 V-30.886259124999988 H66.9620355 V-39.65954462499999 H35.35923225 V-46.07874999999999 H10.63433925 V-60.62258424999999 Q10.63433925 -65.36151549999998 13.936205625000001 -68.64858812499999 Q17.238072 -71.93566074999998 21.971973375 -71.93566074999998 H72.708026625 Q77.441928 -71.93566074999998 80.74379437500001 -68.633794375 Q84.04566075 -65.33192799999999 84.04566075 -60.59802662499999 V-9.861973374999987 Q84.04566075 -5.128071999999985 80.74379437500001 -1.8262056249999876 Q77.441928 1.4756607500000136 72.708026625 1.4756607500000136 H35.35923225 Z"/></g><g id="Medium-S" transform="matrix(1 0 0 1 1701.85 696)"><path d="M20.687678625 6.128196500000013 Q12.158785875000001 6.128196500000013 6.3045045 0.4721513750000135 Q0.45022312500000006 -5.183893749999985 0.45022312500000006 -13.32025899999999 Q0.45022312500000006 -18.105741249999987 2.622142875 -22.236156249999986 Q4.7940626250000005 -26.366571249999986 8.470999875 -29.076687624999984 H1.2949462500000002 V-38.977749999999986 H28.000919625 V-12.27177662499999 H18.09985725 V-22.966178499999984 Q14.695125 -22.153607124999986 12.52320525 -19.539354249999988 Q10.351384125 -16.92500274999999 10.351384125 -13.51750899999999 Q10.351384125 -9.463528374999989 13.336466999999999 -6.618197124999988 Q16.3216485 -3.7728658749999884 20.687678625 -3.7728658749999884 V6.128196500000013 Z M27.203339250000003 -46.07874999999999 H67.47666075000001 V-55.366660749999994 H27.203339250000003 V-46.07874999999999 Z M35.101919625 0.8967320000000125 V-15.267017874999986 H58.118035875000004 V-24.554928624999988 H35.101919625 V-30.661098249999988 H67.47666075000001 V-39.94900899999998 H35.101919625 V-46.07874999999999 H11.213268000000001 V-61.00850387499999 Q11.213268000000001 -65.31654249999998 14.2481565 -68.33663725 Q17.283045 -71.356732 21.58605375 -71.356732 H73.09394625 Q77.396955 -71.356732 80.43184350000001 -68.3218435 Q83.46673200000001 -65.28695499999999 83.46673200000001 -60.98394624999999 V-9.476053749999988 Q83.46673200000001 -5.173044999999988 80.43184350000001 -2.1381564999999867 Q77.396955 0.8967320000000125 73.09394625 0.8967320000000125 H35.101919625 Z"/></g><g id="Regular-S" transform="matrix(1 0 0 1 1405.73 696)"><path d="M20.71125 5.798000000000013 Q12.2295 5.798000000000013 6.4106250000000005 0.18022137500001278 Q0.59175 -5.437458624999987 0.59175 -13.532499999999988 Q0.59175 -18.36512499999999 2.8108125 -22.50737499999999 Q5.0298750000000005 -26.649624999999986 8.777625 -29.312499999999986 H1.578 V-38.977749999999986 H27.812250000000002 V-12.743499999999987 H18.147000000000002 V-23.29637499999999 Q14.695125 -22.50737499999999 12.476062500000001 -19.84449999999999 Q10.257 -17.181624999999986 10.257 -13.729749999999989 Q10.257 -9.605449749999988 13.280743875 -6.736349874999988 Q16.304487750000003 -3.867249999999988 20.71125 -3.867249999999988 V5.798000000000013 Z M26.826 -46.07874999999999 H67.854 V-55.743999999999986 H26.826 V-46.07874999999999 Z M34.913250000000005 0.47225000000001316 V-14.913249999999987 H58.188750000000006 V-24.57849999999999 H34.913250000000005 V-30.495999999999988 H67.854 V-40.16124999999999 H34.913250000000005 V-46.07874999999999 H11.63775 V-61.291557624999996 Q11.63775 -65.283503125 14.476966500000001 -68.10782724999999 Q17.316084375 -70.93225 21.303 -70.93225 H73.37700000000001 Q77.363915625 -70.93225 80.203132125 -68.09313212499998 Q83.04225000000001 -65.25391562499999 83.04225000000001 -61.266999999999996 V-9.192999999999987 Q83.04225000000001 -5.206084374999985 80.203132125 -2.3669664999999878 Q77.363915625 0.47225000000001316 73.37700000000001 0.47225000000001316 H34.913250000000005 Z"/></g><g id="Light-S" transform="matrix(1 0 0 1 1109.75 696)"><path d="M21.8872545 3.8254013750000126 Q13.81558725 3.8254013750000126 8.284795875 -1.4931489999999865 Q2.7541031250000003 -6.811699374999986 2.7541031250000003 -14.480877999999986 Q2.7541031250000003 -19.18114824999999 5.030072250000001 -23.21885574999999 Q7.3060413749999995 -27.256563249999985 11.053791375 -29.691811749999985 H3.5506972500000002 V-37.38446312499999 H26.901842625 V-14.033317749999984 H19.209191250000003 V-25.268973624999987 Q15.377511375000001 -24.40659662499999 12.912083625 -21.468557874999988 Q10.446655875000001 -18.530420499999988 10.446655875000001 -14.720733999999986 Q10.446655875000001 -10.174417374999987 13.735996875000001 -7.020882999999987 Q17.025239250000002 -3.867249999999988 21.8872545 -3.867249999999988 V3.8254013750000126 Z M27.812348625 -47.06509862499998 H66.86765137500001 V-54.757651374999995 H27.812348625 V-47.06509862499998 Z M34.761466125000005 -1.5003486249999867 V-15.899598624999985 H57.20240137500001 V-23.592151374999993 H34.761466125000005 V-31.482348624999986 H66.86765137500001 V-39.17490137499999 H34.761466125000005 V-45.24418524999999 H13.610348625 V-60.07758249999999 Q13.610348625 -63.8040295 16.203002625 -66.38179112499999 Q18.795558 -68.95965137499999 22.516975125000002 -68.95965137499999 H72.163024875 Q75.884442 -68.95965137499999 78.47699737500001 -66.366997375 Q81.069651375 -63.77444199999999 81.069651375 -60.05302487499999 V-10.406975124999988 Q81.069651375 -6.685557999999986 78.47699737500001 -4.093002624999986 Q75.884442 -1.5003486249999867 72.163024875 -1.5003486249999867 H34.761466125000005 Z"/></g><g id="Thin-S" transform="matrix(1 0 0 1 814.015 696)"><path d="M23.063061750000003 1.853000000000014 Q15.401477250000001 1.853000000000014 10.158769500000002 -3.166420749999988 Q4.91606175 -8.185742874999988 4.91606175 -15.429157374999988 Q4.91606175 -19.996974249999987 7.2489375 -23.93023787499999 Q9.58181325 -27.863501499999984 13.32956325 -30.07112349999999 H5.523000000000001 V-35.791472124999984 H25.991533875 V-15.322938249999986 H20.271185250000002 V-27.24137499999999 Q16.059799125 -26.305620999999988 13.348104750000003 -23.092319874999987 Q10.63631175 -19.87901874999999 10.63631175 -15.71161937499999 Q10.63631175 -10.743384999999986 14.191151249999999 -7.305317499999987 Q17.745892125 -3.867249999999988 23.063061750000003 -3.867249999999988 V1.853000000000014 Z M28.7985 -48.05124999999999 H65.8815 V-53.77149999999999 H28.7985 V-48.05124999999999 Z M34.609780875 -3.472749999999987 V-16.885749999999987 H56.21625 V-22.605999999999987 H34.609780875 V-32.46849999999999 H65.8815 V-38.18874999999999 H34.609780875 V-44.40971912499999 H15.58275 V-58.863804625 Q15.58275 -62.32475312499999 17.928742875 -64.65605087499999 Q20.274834375 -66.98724999999999 23.730654375 -66.98724999999999 H70.949345625 Q74.405165625 -66.98724999999999 76.751257125 -64.64125712499998 Q79.09725 -62.29516562499998 79.09725 -58.83934562499999 V-11.620654374999987 Q79.09725 -8.164834374999987 76.751257125 -5.818742874999987 Q74.405165625 -3.472749999999987 70.949345625 -3.472749999999987 H34.609780875 Z"/></g><g id="Ultralight-S" transform="matrix(1 0 0 1 517.792 696)"><path d="M23.768625 0.6695000000000135 Q16.353109875 0.6695000000000135 11.283193125 -4.170423249999988 Q6.213375 -9.010247874999987 6.213375 -15.998124999999987 Q6.213375 -20.48654874999999 8.580375 -24.357086874999986 Q10.947375000000001 -28.22762499999999 14.695125 -30.29874999999999 H6.7065 V-34.83549999999999 H25.44525 V-16.096749999999986 H20.9085 V-28.424874999999986 Q16.4691915 -27.44503562499999 13.60965825 -24.066636249999988 Q10.750125 -20.688335499999987 10.750125 -16.30622949999999 Q10.750125 -11.084824749999985 14.464243875 -7.476037374999986 Q18.17836275 -3.867249999999988 23.768625 -3.867249999999988 V0.6695000000000135 Z M29.39025 -48.64299999999999 H65.28975 V-53.179749999999984 H29.39025 V-48.64299999999999 Z M34.518750000000004 -4.656249999999986 V-17.47749999999999 H55.624500000000005 V-22.01424999999999 H34.518750000000004 V-33.06024999999999 H65.28975 V-37.59699999999999 H34.518750000000004 V-43.90899999999999 H16.76625 V-58.13555762499999 Q16.76625 -61.43712812499999 18.964404000000002 -63.62038974999999 Q21.162459375 -65.80375 24.459 -65.80375 H70.221 Q73.517540625 -65.80375 75.715694625 -63.605694624999984 Q77.91375000000001 -61.40754062499998 77.91375000000001 -58.11099999999999 V-12.348999999999986 Q77.91375000000001 -9.052459374999987 75.715694625 -6.854403999999988 Q73.517540625 -4.656249999999986 70.221 -4.656249999999986 H34.518750000000004 Z"/></g></g></svg>