<svg xmlns="http://www.w3.org/2000/svg" version="1.1" width="3300" height="2000"><g id="Notes"><style>
    text {
      font-family: monospace;
      text-anchor: middle;
    }
    text.emphasis {
      font-weight:bold;
    }
    text.lanchor {
      text-anchor: start;
    }
  </style><rect height="2200" id="artboard" fill="white" width="3300" x="0" y="0"/><line id="" style="fill:none;stroke:black;stroke-width:0.5;" x1="263" x2="3036" y1="292" y2="292"/><text class="lanchor emphasis" transform="matrix(1 0 0 1 263 322)">Weight/Scale Variations</text><text transform="matrix(1 0 0 1 559.711 322)">Ultralight</text><text transform="matrix(1 0 0 1 856.422 322)">Thin</text><text transform="matrix(1 0 0 1 1153.13 322)">Light</text><text transform="matrix(1 0 0 1 1449.84 322)">Regular</text><text transform="matrix(1 0 0 1 1746.56 322)">Medium</text><text transform="matrix(1 0 0 1 2043.27 322)">Semibold</text><text transform="matrix(1 0 0 1 2339.98 322)">Bold</text><text transform="matrix(1 0 0 1 2636.69 322)">Heavy</text><text transform="matrix(1 0 0 1 2933.4 322)">Black</text><text id="template-version" style="text-anchor: end;" transform="matrix(1 0 0 1 3036 1933)">Template v.1.0</text><text class="lanchor" transform="matrix(1 0 0 1 263 726)">Small</text><text class="lanchor" transform="matrix(1 0 0 1 263 1156)">Medium</text><text class="lanchor" transform="matrix(1 0 0 1 263 1586)">Large</text></g><g id="Guides"><g id="H-reference" style="fill:#27AAE1;stroke:none;" transform="matrix(1 0 0 1 339 696)"><path d="M 54.9316 0 L 57.666 0 L 30.5664 -70.459 L 28.0762 -70.459 L 0.976562 0 L 3.66211 0 L 12.9395 -24.4629 L 45.7031 -24.4629 Z M 29.1992 -67.0898 L 29.4434 -67.0898 L 44.8242 -26.709 L 13.8184 -26.709 Z"/></g><line id="Baseline-S" style="fill:none;stroke:#27AAE1;opacity:1;stroke-width:0.577;" x1="263" x2="3036" y1="696" y2="696"/><line id="Capline-S" style="fill:none;stroke:#27AAE1;opacity:1;stroke-width:0.577;" x1="263" x2="3036" y1="625.541" y2="625.541"/><g id="H-reference" style="fill:#27AAE1;stroke:none;" transform="matrix(1 0 0 1 339 1126)"><path d="M 54.9316 0 L 57.666 0 L 30.5664 -70.459 L 28.0762 -70.459 L 0.976562 0 L 3.66211 0 L 12.9395 -24.4629 L 45.7031 -24.4629 Z M 29.1992 -67.0898 L 29.4434 -67.0898 L 44.8242 -26.709 L 13.8184 -26.709 Z"/></g><line id="Baseline-M" style="fill:none;stroke:#27AAE1;opacity:1;stroke-width:0.577;" x1="263" x2="3036" y1="1126" y2="1126"/><line id="Capline-M" style="fill:none;stroke:#27AAE1;opacity:1;stroke-width:0.577;" x1="263" x2="3036" y1="1055.54" y2="1055.54"/><g id="H-reference" style="fill:#27AAE1;stroke:none;" transform="matrix(1 0 0 1 339 1556)"><path d="M 54.9316 0 L 57.666 0 L 30.5664 -70.459 L 28.0762 -70.459 L 0.976562 0 L 3.66211 0 L 12.9395 -24.4629 L 45.7031 -24.4629 Z M 29.1992 -67.0898 L 29.4434 -67.0898 L 44.8242 -26.709 L 13.8184 -26.709 Z"/></g><line id="Baseline-L" style="fill:none;stroke:#27AAE1;opacity:1;stroke-width:0.577;" x1="263" x2="3036" y1="1556" y2="1556"/><line id="Capline-L" style="fill:none;stroke:#27AAE1;opacity:1;stroke-width:0.577;" x1="263" x2="3036" y1="1485.54" y2="1485.54"/><rect height="119.336" id="left-margin" style="fill:darkred;stroke:none;opacity:0.4;" width="12.4512" x="1394.06" y="1030.79"/><rect height="119.336" id="right-margin" style="fill:darkgreen;stroke:none;opacity:0.4;" width="12.4512" x="1502.5112" y="1030.79"/><rect x="1406.5112" y="1045" width="96" height="96" fill="none" stroke="blue" stroke-dasharray="5"/><rect x="1394.06" y="1030.79" width="120.9024" height="119.336" fill="none" stroke="blue"/></g><g id="Symbols"><g id="Bold-L" transform="matrix(1 0 0 1 2266 1556)"><path d="M30.47625 33.30125000000001 Q24.1875 33.30125000000001 19.753125 28.86687500000002 Q15.31875 24.432500000000005 15.31875 18.14375000000001 V-78.92875 Q15.31875 -85.2175 19.753125 -89.73249999999999 Q24.1875 -94.2475 30.47625 -94.2475 H39.50625 V-97.4725 Q39.50625 -100.0525 41.44125 -101.9875 Q43.37625 -103.9225 46.27875 -103.9225 Q48.85875 -103.9225 50.79375 -101.906875 Q52.728750000000005 -99.89125 52.728750000000005 -97.31125 V-94.2475 H102.07124999999999 V-97.4725 Q102.07124999999999 -100.0525 104.00625000000001 -101.9875 Q105.94125000000001 -103.9225 108.84375 -103.9225 Q111.42375 -103.9225 113.35875 -101.906875 Q115.29375 -99.89125 115.29375 -97.31125 V-94.2475 H124.32374999999999 Q130.6125 -94.2475 135.1275 -89.73249999999999 Q139.64249999999998 -85.2175 139.64249999999998 -78.92875 V18.14375000000001 Q139.64249999999998 24.432500000000005 135.1275 28.86687500000002 Q130.6125 33.30125000000001 124.32374999999999 33.30125000000001 H30.47625 Z M30.47625 18.14375000000001 H124.32374999999999 Q124.32374999999999 18.14375000000001 124.32374999999999 18.14375000000001 Q124.32374999999999 18.14375000000001 124.32374999999999 18.14375000000001 V-49.74249999999999 H30.47625 V18.14375000000001 Q30.47625 18.14375000000001 30.47625 18.14375000000001 Q30.47625 18.14375000000001 30.47625 18.14375000000001 Z M30.47625 -59.4175 H124.32374999999999 V-78.92875 Q124.32374999999999 -78.92875 124.32374999999999 -78.92875 Q124.32374999999999 -78.92875 124.32374999999999 -78.92875 H30.47625 Q30.47625 -78.92875 30.47625 -78.92875 Q30.47625 -78.92875 30.47625 -78.92875 V-59.4175 Z"/></g><g id="Semibold-L" transform="matrix(1 0 0 1 1970.27 1556)"><path d="M29.83125 31.527500000000032 Q24.67125 31.527500000000032 20.881875 27.738124999999997 Q17.0925 23.948750000000018 17.0925 18.78875000000002 V-79.57374999999999 Q17.0925 -84.895 20.881875 -88.68437499999999 Q24.67125 -92.47375 29.83125 -92.47375 H39.50625 V-96.34375 Q39.50625 -98.60125 41.28 -100.375 Q43.05375 -102.14874999999999 45.4725 -102.14874999999999 Q48.0525 -102.14874999999999 49.82625 -100.294375 Q51.6 -98.44 51.6 -96.1825 V-92.47375 H103.2 V-96.34375 Q103.2 -98.60125 104.97375 -100.375 Q106.7475 -102.14874999999999 109.3275 -102.14874999999999 Q111.74625 -102.14874999999999 113.52000000000001 -100.294375 Q115.29375 -98.44 115.29375 -96.1825 V-92.47375 H124.96875 Q130.29 -92.47375 134.079375 -88.68437499999999 Q137.86875 -84.895 137.86875 -79.57374999999999 V18.78875000000002 Q137.86875 23.948750000000018 134.079375 27.738124999999997 Q130.29 31.527500000000032 124.96875 31.527500000000032 H29.83125 Z M29.83125 18.78875000000002 H124.96875 Q124.96875 18.78875000000002 124.96875 18.78875000000002 Q124.96875 18.78875000000002 124.96875 18.78875000000002 V-49.74249999999999 H29.83125 V18.78875000000002 Q29.83125 18.78875000000002 29.83125 18.78875000000002 Q29.83125 18.78875000000002 29.83125 18.78875000000002 Z M29.83125 -59.4175 H124.96875 V-79.57374999999999 Q124.96875 -79.57374999999999 124.96875 -79.57374999999999 Q124.96875 -79.57374999999999 124.96875 -79.57374999999999 H29.83125 Q29.83125 -79.57374999999999 29.83125 -79.57374999999999 Q29.83125 -79.57374999999999 29.83125 -79.57374999999999 V-59.4175 Z"/></g><g id="Medium-L" transform="matrix(1 0 0 1 1674.31 1556)"><path d="M29.3475 30.23750000000001 Q24.993750000000002 30.23750000000001 21.688125 26.93187499999999 Q18.3825 23.62625 18.3825 19.272500000000008 V-80.0575 Q18.3825 -84.57249999999999 21.688125 -87.7975 Q24.993750000000002 -91.0225 29.3475 -91.0225 H39.50625 V-95.37625 Q39.50625 -97.63374999999999 41.11875 -99.16562499999999 Q42.73125 -100.69749999999999 44.988749999999996 -100.69749999999999 Q47.4075 -100.69749999999999 49.019999999999996 -99.085 Q50.6325 -97.4725 50.6325 -95.21499999999999 V-91.0225 H104.16749999999999 V-95.37625 Q104.16749999999999 -97.63374999999999 105.77999999999999 -99.16562499999999 Q107.3925 -100.69749999999999 109.65 -100.69749999999999 Q112.06875000000001 -100.69749999999999 113.68125 -99.085 Q115.29375 -97.4725 115.29375 -95.21499999999999 V-91.0225 H125.4525 Q129.9675 -91.0225 133.1925 -87.7975 Q136.4175 -84.57249999999999 136.4175 -80.0575 V19.272500000000008 Q136.4175 23.62625 133.1925 26.93187499999999 Q129.9675 30.23750000000001 125.4525 30.23750000000001 H29.3475 Z M29.3475 19.272500000000008 H125.4525 Q125.4525 19.272500000000008 125.4525 19.272500000000008 Q125.4525 19.272500000000008 125.4525 19.272500000000008 V-49.74249999999999 H29.3475 V19.272500000000008 Q29.3475 19.272500000000008 29.3475 19.272500000000008 Q29.3475 19.272500000000008 29.3475 19.272500000000008 Z M29.3475 -59.4175 H125.4525 V-80.0575 Q125.4525 -80.0575 125.4525 -80.0575 Q125.4525 -80.0575 125.4525 -80.0575 H29.3475 Q29.3475 -80.0575 29.3475 -80.0575 Q29.3475 -80.0575 29.3475 -80.0575 V-59.4175 Z"/></g><g id="Regular-L" transform="matrix(1 0 0 1 1378.56 1556)"><path d="M29.025000000000002 29.27000000000001 Q25.155 29.27000000000001 22.2525 26.367500000000007 Q19.35 23.465000000000003 19.35 19.595 V-80.38 Q19.35 -84.25 22.2525 -87.15249999999999 Q25.155 -90.05499999999999 29.025000000000002 -90.05499999999999 H39.50625 V-94.73124999999999 Q39.50625 -96.82749999999999 40.957499999999996 -98.27875 Q42.408750000000005 -99.72999999999999 44.66625 -99.72999999999999 Q46.923750000000005 -99.72999999999999 48.455625000000005 -98.27875 Q49.987500000000004 -96.82749999999999 49.987500000000004 -94.57 V-90.05499999999999 H104.8125 V-94.73124999999999 Q104.8125 -96.82749999999999 106.26375000000002 -98.27875 Q107.715 -99.72999999999999 109.97250000000001 -99.72999999999999 Q112.22999999999999 -99.72999999999999 113.761875 -98.27875 Q115.29375 -96.82749999999999 115.29375 -94.57 V-90.05499999999999 H125.775 Q129.645 -90.05499999999999 132.5475 -87.15249999999999 Q135.45000000000002 -84.25 135.45000000000002 -80.38 V19.595 Q135.45000000000002 23.465000000000003 132.5475 26.367500000000007 Q129.645 29.27000000000001 125.775 29.27000000000001 H29.025000000000002 Z M29.025000000000002 19.595 H125.775 Q125.775 19.595 125.775 19.595 Q125.775 19.595 125.775 19.595 V-49.74249999999999 H29.025000000000002 V19.595 Q29.025000000000002 19.595 29.025000000000002 19.595 Q29.025000000000002 19.595 29.025000000000002 19.595 Z M29.025000000000002 -59.4175 H125.775 V-80.38 Q125.775 -80.38 125.775 -80.38 Q125.775 -80.38 125.775 -80.38 H29.025000000000002 Q29.025000000000002 -80.38 29.025000000000002 -80.38 Q29.025000000000002 -80.38 29.025000000000002 -80.38 V-59.4175 Z"/></g><g id="Light-L" transform="matrix(1 0 0 1 1082.77 1556)"><path d="M31.927500000000002 26.045000000000016 Q28.057499999999997 26.045000000000016 25.31625 23.303750000000008 Q22.575 20.5625 22.575 16.692500000000024 V-76.67124999999999 Q22.575 -80.38 25.31625 -83.201875 Q28.057499999999997 -86.02374999999999 31.927500000000002 -86.02374999999999 H43.86 V-93.28 Q43.86 -94.8925 44.988749999999996 -96.10187499999999 Q46.11750000000001 -97.31125 47.730000000000004 -97.31125 Q49.503750000000004 -97.31125 50.713125 -96.10187499999999 Q51.92250000000001 -94.8925 51.92250000000001 -93.28 V-86.02374999999999 H103.2 V-93.44125 Q103.2 -95.05375 104.32875000000001 -96.1825 Q105.45750000000001 -97.31125 107.07000000000001 -97.31125 Q108.84375 -97.31125 109.97250000000001 -96.1825 Q111.10125000000001 -95.05375 111.10125000000001 -93.28 V-86.02374999999999 H122.8725 Q126.74249999999999 -86.02374999999999 129.48375 -83.201875 Q132.225 -80.38 132.225 -76.67124999999999 V16.692500000000024 Q132.225 20.5625 129.48375 23.303750000000008 Q126.74249999999999 26.045000000000016 122.8725 26.045000000000016 H31.927500000000002 Z M31.927500000000002 18.78875000000002 H122.8725 Q123.84 18.78875000000002 124.40437500000002 18.22437500000001 Q124.96875 17.659999999999997 124.96875 16.692500000000024 V-47.32374999999999 H29.83125 V16.692500000000024 Q29.83125 17.659999999999997 30.395625000000003 18.22437500000001 Q30.96 18.78875000000002 31.927500000000002 18.78875000000002 Z M29.83125 -54.57999999999999 H124.96875 V-76.67124999999999 Q124.96875 -77.47749999999999 124.40437500000002 -78.041875 Q123.84 -78.60624999999999 122.8725 -78.60624999999999 H31.927500000000002 Q30.96 -78.60624999999999 30.395625000000003 -78.041875 Q29.83125 -77.47749999999999 29.83125 -76.67124999999999 V-54.57999999999999 Z"/></g><g id="Thin-L" transform="matrix(1 0 0 1 787.282 1556)"><path d="M34.66875 22.82000000000002 Q30.96 22.82000000000002 28.380000000000003 20.24000000000001 Q25.8 17.659999999999997 25.8 13.951250000000002 V-72.96249999999999 Q25.8 -76.67124999999999 28.380000000000003 -79.25125 Q30.96 -81.83125 34.66875 -81.83125 H48.0525 V-91.99 Q48.0525 -93.11874999999999 48.85875 -93.925 Q49.665 -94.73124999999999 50.79375 -94.73124999999999 Q52.083749999999995 -94.73124999999999 52.970625000000005 -93.925 Q53.8575 -93.11874999999999 53.8575 -91.82875 V-81.83125 H101.42625 V-92.3125 Q101.42625 -93.28 102.2325 -94.005625 Q103.03875000000001 -94.73124999999999 104.16749999999999 -94.73124999999999 Q105.29625 -94.73124999999999 106.10249999999999 -94.005625 Q106.90875 -93.28 106.90875 -92.15125 V-81.83125 H120.13125000000001 Q123.84 -81.83125 126.42000000000002 -79.25125 Q129.0 -76.67124999999999 129.0 -72.96249999999999 V13.951250000000002 Q129.0 17.659999999999997 126.42000000000002 20.24000000000001 Q123.84 22.82000000000002 120.13125000000001 22.82000000000002 H34.66875 Z M34.66875 17.82125000000002 H120.13125000000001 Q121.74375 17.82125000000002 122.8725 16.692500000000024 Q124.00125000000001 15.563749999999999 124.00125000000001 13.951250000000002 V-44.90499999999999 H30.798750000000002 V13.951250000000002 Q30.798750000000002 15.563749999999999 31.927500000000002 16.692500000000024 Q33.05625 17.82125000000002 34.66875 17.82125000000002 Z M30.798750000000002 -49.903749999999995 H124.00125000000001 V-72.96249999999999 Q124.00125000000001 -74.73624999999998 122.8725 -75.78437499999998 Q121.74375 -76.8325 120.13125000000001 -76.8325 H34.66875 Q33.05625 -76.8325 31.927500000000002 -75.78437499999998 Q30.798750000000002 -74.73624999999998 30.798750000000002 -72.96249999999999 V-49.903749999999995 Z"/></g><g id="Ultralight-L" transform="matrix(1 0 0 1 491.205 1556)"><path d="M36.4425 20.88499999999999 Q32.73375 20.88499999999999 30.234375 18.385625000000005 Q27.735 15.886250000000018 27.735 12.177500000000023 V-70.70499999999998 Q27.735 -74.41375 30.234375 -76.913125 Q32.73375 -79.4125 36.4425 -79.4125 H50.6325 V-91.18374999999999 Q50.6325 -91.99 51.196875 -92.63499999999999 Q51.761250000000004 -93.28 52.728750000000005 -93.28 Q53.69625 -93.28 54.34125000000001 -92.63499999999999 Q54.986250000000005 -91.99 54.986250000000005 -91.0225 V-79.4125 H100.45875 V-91.50625 Q100.45875 -92.3125 101.02312500000001 -92.79624999999999 Q101.5875 -93.28 102.39375 -93.28 Q103.2 -93.28 103.76437499999999 -92.71562499999999 Q104.32875000000001 -92.15125 104.32875000000001 -91.345 V-79.4125 H118.35750000000002 Q122.06625000000001 -79.4125 124.565625 -76.913125 Q127.065 -74.41375 127.065 -70.70499999999998 V12.177500000000023 Q127.065 15.886250000000018 124.565625 18.385625000000005 Q122.06625000000001 20.88499999999999 118.35750000000002 20.88499999999999 H36.4425 Z M36.4425 17.337500000000006 H118.35750000000002 Q120.615 17.337500000000006 122.06625000000001 15.886250000000018 Q123.5175 14.435000000000002 123.5175 12.177500000000023 V-43.45375 H31.2825 V12.177500000000023 Q31.2825 14.435000000000002 32.73375 15.886250000000018 Q34.185 17.337500000000006 36.4425 17.337500000000006 Z M31.2825 -47.001249999999985 H123.5175 V-70.70499999999998 Q123.5175 -72.96249999999999 122.06625000000001 -74.41375 Q120.615 -75.865 118.35750000000002 -75.865 H36.4425 Q34.185 -75.865 32.73375 -74.41375 Q31.2825 -72.96249999999999 31.2825 -70.70499999999998 V-47.001249999999985 Z"/></g><g id="Bold-M" transform="matrix(1 0 0 1 2281.8 1126)"><path d="M26.5 19.02000000000001 Q19.875 19.02000000000001 15.309999999999999 14.460000000000008 Q10.75 9.89500000000001 10.75 3.2700000000000102 V-63.72999999999999 Q10.75 -70.35499999999999 15.309999999999999 -74.91999999999999 Q19.875 -79.47999999999999 26.5 -79.47999999999999 H30.0 V-83.10499999999999 Q30.0 -85.72999999999999 31.875 -87.60499999999999 Q33.75 -89.47999999999999 36.5 -89.47999999999999 Q39.125 -89.47999999999999 41.0 -87.54499999999999 Q42.875 -85.60499999999999 42.875 -82.97999999999999 V-79.47999999999999 H77.125 V-83.10499999999999 Q77.125 -85.72999999999999 79.0 -87.60499999999999 Q80.875 -89.47999999999999 83.625 -89.47999999999999 Q86.25 -89.47999999999999 88.125 -87.54499999999999 Q90.0 -85.60499999999999 90.0 -82.97999999999999 V-79.47999999999999 H93.5 Q100.125 -79.47999999999999 104.69 -74.91999999999999 Q109.25 -70.35499999999999 109.25 -63.72999999999999 V3.2700000000000102 Q109.25 9.89500000000001 104.69 14.460000000000008 Q100.125 19.02000000000001 93.5 19.02000000000001 H26.5 Z M26.5 3.2700000000000102 H93.5 Q93.5 3.2700000000000102 93.5 3.2700000000000102 Q93.5 3.2700000000000102 93.5 3.2700000000000102 V-45.22999999999999 H26.5 V3.2700000000000102 Q26.5 3.2700000000000102 26.5 3.2700000000000102 Q26.5 3.2700000000000102 26.5 3.2700000000000102 Z M26.5 -55.22999999999999 H93.5 V-63.72999999999999 Q93.5 -63.72999999999999 93.5 -63.72999999999999 Q93.5 -63.72999999999999 93.5 -63.72999999999999 H26.5 Q26.5 -63.72999999999999 26.5 -63.72999999999999 Q26.5 -63.72999999999999 26.5 -63.72999999999999 V-55.22999999999999 Z"/></g><g id="Semibold-M" transform="matrix(1 0 0 1 1985.97 1126)"><path d="M25.875 17.14500000000001 Q20.25 17.14500000000001 16.439999999999998 13.330000000000013 Q12.625 9.52000000000001 12.625 3.8950000000000102 V-64.35499999999999 Q12.625 -69.97999999999999 16.439999999999998 -73.79499999999999 Q20.25 -77.60499999999999 25.875 -77.60499999999999 H30.0 V-81.85499999999999 Q30.0 -84.35499999999999 31.69 -85.97999999999999 Q33.375 -87.60499999999999 35.875 -87.60499999999999 Q38.25 -87.60499999999999 39.940000000000005 -85.91999999999999 Q41.625 -84.22999999999999 41.625 -81.72999999999999 V-77.60499999999999 H78.375 V-81.85499999999999 Q78.375 -84.35499999999999 80.06500000000001 -85.97999999999999 Q81.75 -87.60499999999999 84.25 -87.60499999999999 Q86.625 -87.60499999999999 88.315 -85.91999999999999 Q90.0 -84.22999999999999 90.0 -81.72999999999999 V-77.60499999999999 H94.125 Q99.75 -77.60499999999999 103.565 -73.79499999999999 Q107.375 -69.97999999999999 107.375 -64.35499999999999 V3.8950000000000102 Q107.375 9.52000000000001 103.565 13.330000000000013 Q99.75 17.14500000000001 94.125 17.14500000000001 H25.875 Z M25.875 3.8950000000000102 H94.125 Q94.125 3.8950000000000102 94.125 3.8950000000000102 Q94.125 3.8950000000000102 94.125 3.8950000000000102 V-45.22999999999999 H25.875 V3.8950000000000102 Q25.875 3.8950000000000102 25.875 3.8950000000000102 Q25.875 3.8950000000000102 25.875 3.8950000000000102 Z M25.875 -55.22999999999999 H94.125 V-64.35499999999999 Q94.125 -64.35499999999999 94.125 -64.35499999999999 Q94.125 -64.35499999999999 94.125 -64.35499999999999 H25.875 Q25.875 -64.35499999999999 25.875 -64.35499999999999 Q25.875 -64.35499999999999 25.875 -64.35499999999999 V-55.22999999999999 Z"/></g><g id="Medium-M" transform="matrix(1 0 0 1 1689.91 1126)"><path d="M25.375 15.77000000000001 Q20.625 15.77000000000001 17.315 12.460000000000008 Q14.0 9.14500000000001 14.0 4.39500000000001 V-64.85499999999999 Q14.0 -69.60499999999999 17.315 -72.91999999999999 Q20.625 -76.22999999999999 25.375 -76.22999999999999 H30.0 V-80.97999999999999 Q30.0 -83.22999999999999 31.560000000000002 -84.72999999999999 Q33.125 -86.22999999999999 35.375 -86.22999999999999 Q37.625 -86.22999999999999 39.19 -84.66999999999999 Q40.75 -83.10499999999999 40.75 -80.85499999999999 V-76.22999999999999 H79.25 V-80.97999999999999 Q79.25 -83.22999999999999 80.815 -84.72999999999999 Q82.375 -86.22999999999999 84.625 -86.22999999999999 Q86.875 -86.22999999999999 88.44 -84.66999999999999 Q90.0 -83.10499999999999 90.0 -80.85499999999999 V-76.22999999999999 H94.625 Q99.375 -76.22999999999999 102.69 -72.91999999999999 Q106.0 -69.60499999999999 106.0 -64.85499999999999 V4.39500000000001 Q106.0 9.14500000000001 102.69 12.460000000000008 Q99.375 15.77000000000001 94.625 15.77000000000001 H25.375 Z M25.375 4.39500000000001 H94.625 Q94.625 4.39500000000001 94.625 4.39500000000001 Q94.625 4.39500000000001 94.625 4.39500000000001 V-45.22999999999999 H25.375 V4.39500000000001 Q25.375 4.39500000000001 25.375 4.39500000000001 Q25.375 4.39500000000001 25.375 4.39500000000001 Z M25.375 -55.22999999999999 H94.625 V-64.85499999999999 Q94.625 -64.85499999999999 94.625 -64.85499999999999 Q94.625 -64.85499999999999 94.625 -64.85499999999999 H25.375 Q25.375 -64.85499999999999 25.375 -64.85499999999999 Q25.375 -64.85499999999999 25.375 -64.85499999999999 V-55.22999999999999 Z"/></g><g id="Regular-M" transform="matrix(1 0 0 1 1394.06 1126)"><path d="M25.0 14.77000000000001 Q20.875 14.77000000000001 17.935000000000002 11.835000000000008 Q15.0 8.89500000000001 15.0 4.77000000000001 V-65.22999999999999 Q15.0 -69.35499999999999 17.935000000000002 -72.28999999999999 Q20.875 -75.22999999999999 25.0 -75.22999999999999 H30.0 V-80.35499999999999 Q30.0 -82.47999999999999 31.435 -83.85499999999999 Q32.875 -85.22999999999999 35.0 -85.22999999999999 Q37.125 -85.22999999999999 38.565 -83.79499999999999 Q40.0 -82.35499999999999 40.0 -80.22999999999999 V-75.22999999999999 H80.0 V-80.35499999999999 Q80.0 -82.47999999999999 81.44 -83.85499999999999 Q82.875 -85.22999999999999 85.0 -85.22999999999999 Q87.125 -85.22999999999999 88.56 -83.79499999999999 Q90.0 -82.35499999999999 90.0 -80.22999999999999 V-75.22999999999999 H95.0 Q99.125 -75.22999999999999 102.065 -72.28999999999999 Q105.0 -69.35499999999999 105.0 -65.22999999999999 V4.77000000000001 Q105.0 8.89500000000001 102.065 11.835000000000008 Q99.125 14.77000000000001 95.0 14.77000000000001 H25.0 Z M25.0 4.77000000000001 H95.0 Q95.0 4.77000000000001 95.0 4.77000000000001 Q95.0 4.77000000000001 95.0 4.77000000000001 V-45.22999999999999 H25.0 V4.77000000000001 Q25.0 4.77000000000001 25.0 4.77000000000001 Q25.0 4.77000000000001 25.0 4.77000000000001 Z M25.0 -55.22999999999999 H95.0 V-65.22999999999999 Q95.0 -65.22999999999999 95.0 -65.22999999999999 Q95.0 -65.22999999999999 95.0 -65.22999999999999 H25.0 Q25.0 -65.22999999999999 25.0 -65.22999999999999 Q25.0 -65.22999999999999 25.0 -65.22999999999999 V-55.22999999999999 Z"/></g><g id="Light-M" transform="matrix(1 0 0 1 1098.18 1126)"><path d="M26.5 12.27000000000001 Q22.75 12.27000000000001 20.125 9.64500000000001 Q17.5 7.02000000000001 17.5 3.2700000000000102 V-63.72999999999999 Q17.5 -67.47999999999999 20.125 -70.10499999999999 Q22.75 -72.72999999999999 26.5 -72.72999999999999 H33.5 V-79.60499999999999 Q33.5 -81.22999999999999 34.56 -82.29499999999999 Q35.625 -83.35499999999999 37.25 -83.35499999999999 Q39.0 -83.35499999999999 40.06 -82.22999999999999 Q41.125 -81.10499999999999 41.125 -79.47999999999999 V-72.72999999999999 H79.0 V-79.72999999999999 Q79.0 -81.22999999999999 80.125 -82.29499999999999 Q81.25 -83.35499999999999 82.75 -83.35499999999999 Q84.375 -83.35499999999999 85.435 -82.22999999999999 Q86.5 -81.10499999999999 86.5 -79.60499999999999 V-72.72999999999999 H93.5 Q97.25 -72.72999999999999 99.875 -70.10499999999999 Q102.5 -67.47999999999999 102.5 -63.72999999999999 V3.2700000000000102 Q102.5 7.02000000000001 99.875 9.64500000000001 Q97.25 12.27000000000001 93.5 12.27000000000001 H26.5 Z M26.5 4.77000000000001 H93.5 Q94.125 4.77000000000001 94.565 4.335000000000008 Q95.0 3.8950000000000102 95.0 3.2700000000000102 V-43.72999999999999 H25.0 V3.2700000000000102 Q25.0 3.8950000000000102 25.44 4.335000000000008 Q25.875 4.77000000000001 26.5 4.77000000000001 Z M25.0 -51.22999999999999 H95.0 V-63.72999999999999 Q95.0 -64.35499999999999 94.565 -64.78999999999999 Q94.125 -65.22999999999999 93.5 -65.22999999999999 H26.5 Q25.875 -65.22999999999999 25.44 -64.78999999999999 Q25.0 -64.35499999999999 25.0 -63.72999999999999 V-51.22999999999999 Z"/></g><g id="Thin-M" transform="matrix(1 0 0 1 802.565 1126)"><path d="M28.125 9.77000000000001 Q24.625 9.77000000000001 22.315 7.460000000000008 Q20.0 5.14500000000001 20.0 1.6450000000000102 V-62.10499999999999 Q20.0 -65.60499999999999 22.315 -67.91499999999999 Q24.625 -70.22999999999999 28.125 -70.22999999999999 H36.875 V-78.85499999999999 Q36.875 -79.85499999999999 37.685 -80.60499999999999 Q38.5 -81.35499999999999 39.625 -81.35499999999999 Q40.75 -81.35499999999999 41.5 -80.60499999999999 Q42.25 -79.85499999999999 42.25 -78.72999999999999 V-70.22999999999999 H78.125 V-78.97999999999999 Q78.125 -79.97999999999999 78.81 -80.66999999999999 Q79.5 -81.35499999999999 80.625 -81.35499999999999 Q81.625 -81.35499999999999 82.375 -80.66999999999999 Q83.125 -79.97999999999999 83.125 -78.85499999999999 V-70.22999999999999 H91.875 Q95.375 -70.22999999999999 97.69 -67.91499999999999 Q100.0 -65.60499999999999 100.0 -62.10499999999999 V1.6450000000000102 Q100.0 5.14500000000001 97.69 7.460000000000008 Q95.375 9.77000000000001 91.875 9.77000000000001 H28.125 Z M28.125 4.77000000000001 H91.875 Q93.25 4.77000000000001 94.125 3.8950000000000102 Q95.0 3.0200000000000102 95.0 1.6450000000000102 V-42.10499999999999 H25.0 V1.6450000000000102 Q25.0 3.0200000000000102 25.875 3.8950000000000102 Q26.75 4.77000000000001 28.125 4.77000000000001 Z M25.0 -47.10499999999999 H95.0 V-62.10499999999999 Q95.0 -63.47999999999999 94.125 -64.35499999999999 Q93.25 -65.22999999999999 91.875 -65.22999999999999 H28.125 Q26.75 -65.22999999999999 25.875 -64.35499999999999 Q25.0 -63.47999999999999 25.0 -62.10499999999999 V-47.10499999999999 Z"/></g><g id="Ultralight-M" transform="matrix(1 0 0 1 506.415 1126)"><path d="M29.0 8.27000000000001 Q25.75 8.27000000000001 23.625 6.14500000000001 Q21.5 4.02000000000001 21.5 0.7700000000000102 V-61.22999999999999 Q21.5 -64.47999999999999 23.625 -66.60499999999999 Q25.75 -68.72999999999999 29.0 -68.72999999999999 H39.0 V-78.35499999999999 Q39.0 -79.10499999999999 39.565 -79.66999999999999 Q40.125 -80.22999999999999 41.0 -80.22999999999999 Q41.875 -80.22999999999999 42.44 -79.66999999999999 Q43.0 -79.10499999999999 43.0 -78.22999999999999 V-68.72999999999999 H77.5 V-78.60499999999999 Q77.5 -79.22999999999999 78.0 -79.72999999999999 Q78.5 -80.22999999999999 79.25 -80.22999999999999 Q80.0 -80.22999999999999 80.5 -79.72999999999999 Q81.0 -79.22999999999999 81.0 -78.47999999999999 V-68.72999999999999 H91.0 Q94.25 -68.72999999999999 96.375 -66.60499999999999 Q98.5 -64.47999999999999 98.5 -61.22999999999999 V0.7700000000000102 Q98.5 4.02000000000001 96.375 6.14500000000001 Q94.25 8.27000000000001 91.0 8.27000000000001 H29.0 Z M29.0 4.77000000000001 H91.0 Q92.75 4.77000000000001 93.875 3.6450000000000102 Q95.0 2.5200000000000102 95.0 0.7700000000000102 V-41.22999999999999 H25.0 V0.7700000000000102 Q25.0 2.5200000000000102 26.125 3.6450000000000102 Q27.25 4.77000000000001 29.0 4.77000000000001 Z M25.0 -44.72999999999999 H95.0 V-61.22999999999999 Q95.0 -62.97999999999999 93.875 -64.10499999999999 Q92.75 -65.22999999999999 91.0 -65.22999999999999 H29.0 Q27.25 -65.22999999999999 26.125 -64.10499999999999 Q25.0 -62.97999999999999 25.0 -61.22999999999999 V-44.72999999999999 Z"/></g><g id="Bold-S" transform="matrix(1 0 0 1 2294.23 696)"><path d="M21.303 7.574828000000011 Q15.877836 7.574828000000011 12.180582 3.8728400000000107 Q8.483328 0.1755860000000098 8.483328 -5.249578 V-56.92592199999999 Q8.483328 -62.351085999999995 12.180582 -66.04834 Q15.877836 -69.750328 21.303 -69.750328 H23.277078 V-72.808492 Q23.277078 -74.87724999999999 24.806160000000002 -76.453672 Q26.330508000000002 -78.03482799999999 28.602828 -78.03482799999999 Q30.671586 -78.03482799999999 32.248008 -76.40633199999999 Q33.829164 -74.777836 33.829164 -72.70907799999999 V-69.750328 H60.850835999999994 V-72.808492 Q60.850835999999994 -74.87724999999999 62.379917999999996 -76.453672 Q63.909 -78.03482799999999 66.176586 -78.03482799999999 Q68.250078 -78.03482799999999 69.8265 -76.40633199999999 Q71.402922 -74.777836 71.402922 -72.70907799999999 V-69.750328 H73.377 Q78.802164 -69.750328 82.49941799999999 -66.04834 Q86.19667199999999 -62.351085999999995 86.19667199999999 -56.92592199999999 V-5.249578 Q86.19667199999999 0.1755860000000098 82.49941799999999 3.8728400000000107 Q78.802164 7.574828000000011 73.377 7.574828000000011 H21.303 Z M21.303 -5.249578 H73.377 Q73.377 -5.249578 73.377 -5.249578 Q73.377 -5.249578 73.377 -5.249578 V-42.92274999999999 H21.303 V-5.249578 Q21.303 -5.249578 21.303 -5.249578 Q21.303 -5.249578 21.303 -5.249578 Z M21.303 -51.207249999999995 H73.377 V-56.92592199999999 Q73.377 -56.92592199999999 73.377 -56.92592199999999 Q73.377 -56.92592199999999 73.377 -56.92592199999999 H21.303 Q21.303 -56.92592199999999 21.303 -56.92592199999999 Q21.303 -56.92592199999999 21.303 -56.92592199999999 V-51.207249999999995 Z"/></g><g id="Semibold-S" transform="matrix(1 0 0 1 1998.1 696)"><path d="M20.810664 6.093086 Q16.275492 6.093086 13.117913999999999 2.935508000000013 Q9.960336 -0.21733599999998887 9.960336 -4.752508000000006 V-57.422991999999994 Q9.960336 -61.958164 13.117913999999999 -65.111008 Q16.275492 -68.268586 20.810664 -68.268586 H23.277078 V-71.819086 Q23.277078 -73.79316399999999 24.654672 -75.17075799999999 Q26.037 -76.553086 28.110491999999997 -76.553086 Q29.980422 -76.553086 31.41009 -75.12341799999999 Q32.844491999999995 -73.69375 32.844491999999995 -71.71967199999999 V-68.268586 H61.835508 V-71.819086 Q61.835508 -73.79316399999999 63.217836 -75.17075799999999 Q64.600164 -76.553086 66.668922 -76.553086 Q68.54358599999999 -76.553086 69.973254 -75.12341799999999 Q71.402922 -73.69375 71.402922 -71.71967199999999 V-68.268586 H73.86933599999999 Q78.404508 -68.268586 81.562086 -65.111008 Q84.71966400000001 -61.958164 84.71966400000001 -57.422991999999994 V-4.752508000000006 Q84.71966400000001 -0.21733599999998887 81.562086 2.935508000000013 Q78.404508 6.093086 73.86933599999999 6.093086 H20.810664 Z M20.810664 -4.752508000000006 H73.86933599999999 Q73.86933599999999 -4.752508000000006 73.86933599999999 -4.752508000000006 Q73.86933599999999 -4.752508000000006 73.86933599999999 -4.752508000000006 V-42.92274999999999 H20.810664 V-4.752508000000006 Q20.810664 -4.752508000000006 20.810664 -4.752508000000006 Q20.810664 -4.752508000000006 20.810664 -4.752508000000006 Z M20.810664 -51.207249999999995 H73.86933599999999 V-57.422991999999994 Q73.86933599999999 -57.422991999999994 73.86933599999999 -57.422991999999994 Q73.86933599999999 -57.422991999999994 73.86933599999999 -57.422991999999994 H20.810664 Q20.810664 -57.422991999999994 20.810664 -57.422991999999994 Q20.810664 -57.422991999999994 20.810664 -57.422991999999994 V-51.207249999999995 Z"/></g><g id="Medium-S" transform="matrix(1 0 0 1 1701.85 696)"><path d="M20.413008 5.009 Q16.469586 5.009 13.757004 2.2964180000000027 Q11.044422 -0.41616399999999487 11.044422 -4.359585999999993 V-57.81591399999999 Q11.044422 -61.75933599999999 13.757004 -64.47191799999999 Q16.469586 -67.18449999999999 20.413008 -67.18449999999999 H23.277078 V-71.127922 Q23.277078 -72.903172 24.559991999999998 -74.18608599999999 Q25.838172 -75.469 27.712836 -75.469 Q29.488086 -75.469 30.81834 -74.138746 Q32.153328 -72.808492 32.153328 -71.02850799999999 V-67.18449999999999 H62.526672 V-71.127922 Q62.526672 -72.903172 63.809585999999996 -74.18608599999999 Q65.0925 -75.469 66.967164 -75.469 Q68.742414 -75.469 70.072668 -74.138746 Q71.402922 -72.808492 71.402922 -71.02850799999999 V-67.18449999999999 H74.266992 Q78.210414 -67.18449999999999 80.92299600000001 -64.47191799999999 Q83.63557800000001 -61.75933599999999 83.63557800000001 -57.81591399999999 V-4.359585999999993 Q83.63557800000001 -0.41616399999999487 80.92299600000001 2.2964180000000027 Q78.210414 5.009 74.266992 5.009 H20.413008 Z M20.413008 -4.359585999999993 H74.266992 Q74.266992 -4.359585999999993 74.266992 -4.359585999999993 Q74.266992 -4.359585999999993 74.266992 -4.359585999999993 V-42.92274999999999 H20.413008 V-4.359585999999993 Q20.413008 -4.359585999999993 20.413008 -4.359585999999993 Q20.413008 -4.359585999999993 20.413008 -4.359585999999993 Z M20.413008 -51.207249999999995 H74.266992 V-57.81591399999999 Q74.266992 -57.81591399999999 74.266992 -57.81591399999999 Q74.266992 -57.81591399999999 74.266992 -57.81591399999999 H20.413008 Q20.413008 -57.81591399999999 20.413008 -57.81591399999999 Q20.413008 -57.81591399999999 20.413008 -57.81591399999999 V-51.207249999999995 Z"/></g><g id="Regular-S" transform="matrix(1 0 0 1 1405.73 696)"><path d="M20.1195 4.218422000000004 Q16.668414 4.218422000000004 14.249339999999998 1.8040820000000082 Q11.835 -0.6149919999999867 11.835 -4.0660780000000045 V-58.109421999999995 Q11.835 -61.560508 14.249339999999998 -63.97958199999999 Q16.668414 -66.39392199999999 20.1195 -66.39392199999999 H23.277078 V-70.63558599999999 Q23.277078 -72.311422 24.460577999999998 -73.49492199999999 Q25.644078 -74.678422 27.419328 -74.678422 Q29.095164 -74.678422 30.326003999999998 -73.447582 Q31.561578 -72.212008 31.561578 -70.536172 V-66.39392199999999 H63.118422 V-70.63558599999999 Q63.118422 -72.311422 64.301922 -73.49492199999999 Q65.485422 -74.678422 67.260672 -74.678422 Q68.936508 -74.678422 70.172082 -73.447582 Q71.402922 -72.212008 71.402922 -70.536172 V-66.39392199999999 H74.5605 Q78.011586 -66.39392199999999 80.43065999999999 -63.97958199999999 Q82.845 -61.560508 82.845 -58.109421999999995 V-4.0660780000000045 Q82.845 -0.6149919999999867 80.43065999999999 1.8040820000000082 Q78.011586 4.218422000000004 74.5605 4.218422000000004 H20.1195 Z M20.1195 -4.0660780000000045 H74.5605 Q74.5605 -4.0660780000000045 74.5605 -4.0660780000000045 Q74.5605 -4.0660780000000045 74.5605 -4.0660780000000045 V-42.92274999999999 H20.1195 V-4.0660780000000045 Q20.1195 -4.0660780000000045 20.1195 -4.0660780000000045 Q20.1195 -4.0660780000000045 20.1195 -4.0660780000000045 Z M20.1195 -51.207249999999995 H74.5605 V-58.109421999999995 Q74.5605 -58.109421999999995 74.5605 -58.109421999999995 Q74.5605 -58.109421999999995 74.5605 -58.109421999999995 H20.1195 Q20.1195 -58.109421999999995 20.1195 -58.109421999999995 Q20.1195 -58.109421999999995 20.1195 -58.109421999999995 V-51.207249999999995 Z"/></g><g id="Light-S" transform="matrix(1 0 0 1 1109.75 696)"><path d="M21.303 2.2490780000000115 Q18.145422 2.2490780000000115 15.97725 0.07617199999999968 Q13.809078 -2.0919999999999987 13.809078 -5.249578 V-56.92592199999999 Q13.809078 -60.083499999999994 15.97725 -62.251672 Q18.145422 -64.424578 21.303 -64.424578 H26.037 V-70.043836 Q26.037 -71.32674999999999 26.926992 -72.26408199999999 Q27.81225 -73.201414 29.194578 -73.201414 Q30.572172000000002 -73.201414 31.509504 -72.212008 Q32.446836 -71.227336 32.446836 -69.94442199999999 V-64.424578 H62.332578 V-70.14325 Q62.332578 -71.32674999999999 63.26991 -72.26408199999999 Q64.202508 -73.201414 65.485422 -73.201414 Q66.76833599999999 -73.201414 67.705668 -72.212008 Q68.643 -71.227336 68.643 -70.043836 V-64.424578 H73.377 Q76.53457800000001 -64.424578 78.70275 -62.251672 Q80.870922 -60.083499999999994 80.870922 -56.92592199999999 V-5.249578 Q80.870922 -2.0919999999999987 78.70275 0.07617199999999968 Q76.53457800000001 2.2490780000000115 73.377 2.2490780000000115 H21.303 Z M21.303 -4.0660780000000045 H73.377 Q73.86933599999999 -4.0660780000000045 74.214918 -4.4116599999999835 Q74.5605 -4.752508000000006 74.5605 -5.249578 V-41.73924999999999 H20.1195 V-5.249578 Q20.1195 -4.752508000000006 20.465082000000002 -4.4116599999999835 Q20.810664 -4.0660780000000045 21.303 -4.0660780000000045 Z M20.1195 -48.049671999999994 H74.5605 V-56.92592199999999 Q74.5605 -57.422991999999994 74.214918 -57.76383999999999 Q73.86933599999999 -58.109421999999995 73.377 -58.109421999999995 H21.303 Q20.810664 -58.109421999999995 20.465082000000002 -57.76383999999999 Q20.1195 -57.422991999999994 20.1195 -56.92592199999999 V-48.049671999999994 Z"/></g><g id="Thin-S" transform="matrix(1 0 0 1 814.015 696)"><path d="M22.585914 0.2750000000000057 Q19.627164 0.2750000000000057 17.70516 -1.6470039999999813 Q15.778422 -3.5690079999999966 15.778422 -6.532491999999991 V-55.643007999999995 Q15.778422 -58.60649199999999 17.70516 -60.52849599999999 Q19.627164 -62.45049999999999 22.585914 -62.45049999999999 H28.697508000000003 V-69.452086 Q28.697508000000003 -70.24266399999999 29.388672 -70.93382799999999 Q30.079836 -71.62499199999999 31.064508 -71.62499199999999 Q31.9545 -71.62499199999999 32.645664 -70.93382799999999 Q33.336828 -70.24266399999999 33.336828 -69.352672 V-62.45049999999999 H61.641414000000005 V-69.55149999999999 Q61.641414000000005 -70.34207799999999 62.233164 -70.981168 Q62.82491400000001 -71.62499199999999 63.809585999999996 -71.62499199999999 Q64.600164 -71.62499199999999 65.291328 -70.981168 Q65.98249200000001 -70.34207799999999 65.98249200000001 -69.452086 V-62.45049999999999 H72.09408599999999 Q75.052836 -62.45049999999999 76.97484 -60.52849599999999 Q78.901578 -58.60649199999999 78.901578 -55.643007999999995 V-6.532491999999991 Q78.901578 -3.5690079999999966 76.97484 -1.6470039999999813 Q75.052836 0.2750000000000057 72.09408599999999 0.2750000000000057 H22.585914 Z M22.585914 -4.0660780000000045 H72.09408599999999 Q73.178172 -4.0660780000000045 73.86933599999999 -4.752508000000006 Q74.5605 -5.443671999999992 74.5605 -6.532491999999991 V-40.456335999999986 H20.1195 V-6.532491999999991 Q20.1195 -5.443671999999992 20.810664 -4.752508000000006 Q21.501828 -4.0660780000000045 22.585914 -4.0660780000000045 Z M20.1195 -44.797413999999996 H74.5605 V-55.643007999999995 Q74.5605 -56.73182799999999 73.86933599999999 -57.418257999999994 Q73.178172 -58.109421999999995 72.09408599999999 -58.109421999999995 H22.585914 Q21.501828 -58.109421999999995 20.810664 -57.418257999999994 Q20.1195 -56.73182799999999 20.1195 -55.643007999999995 V-44.797413999999996 Z"/></g><g id="Ultralight-S" transform="matrix(1 0 0 1 517.792 696)"><path d="M23.277078 -0.9084999999999894 Q20.512422 -0.9084999999999894 18.737172 -2.683749999999989 Q16.961922 -4.458999999999989 16.961922 -7.218921999999992 V-54.95657799999999 Q16.961922 -57.716499999999996 18.737172 -59.491749999999996 Q20.512422 -61.266999999999996 23.277078 -61.266999999999996 H30.378078 V-69.059164 Q30.378078 -69.650914 30.870414 -70.19058999999999 Q31.36275 -70.73499999999999 32.153328 -70.73499999999999 Q32.844491999999995 -70.73499999999999 33.384167999999995 -70.19058999999999 Q33.928578 -69.650914 33.928578 -68.95974999999999 V-61.266999999999996 H61.149077999999996 V-69.257992 Q61.149077999999996 -69.750328 61.58934 -70.24266399999999 Q62.034335999999996 -70.73499999999999 62.7255 -70.73499999999999 Q63.31725 -70.73499999999999 63.809585999999996 -70.24266399999999 Q64.301922 -69.750328 64.301922 -69.15857799999999 V-61.266999999999996 H71.402922 Q74.167578 -61.266999999999996 75.942828 -59.491749999999996 Q77.718078 -57.716499999999996 77.718078 -54.95657799999999 V-7.218921999999992 Q77.718078 -4.458999999999989 75.942828 -2.683749999999989 Q74.167578 -0.9084999999999894 71.402922 -0.9084999999999894 H23.277078 Z M23.277078 -4.0660780000000045 H71.402922 Q72.78525 -4.0660780000000045 73.670508 -4.9513359999999835 Q74.5605 -5.841328000000004 74.5605 -7.218921999999992 V-39.76517199999999 H20.1195 V-7.218921999999992 Q20.1195 -5.841328000000004 21.009491999999998 -4.9513359999999835 Q21.89475 -4.0660780000000045 23.277078 -4.0660780000000045 Z M20.1195 -42.92274999999999 H74.5605 V-54.95657799999999 Q74.5605 -56.334171999999995 73.670508 -57.22416399999999 Q72.78525 -58.109421999999995 71.402922 -58.109421999999995 H23.277078 Q21.89475 -58.109421999999995 21.009491999999998 -57.22416399999999 Q20.1195 -56.334171999999995 20.1195 -54.95657799999999 V-42.92274999999999 Z"/></g></g></svg>