<svg xmlns="http://www.w3.org/2000/svg" version="1.1" width="3300" height="2000"><g id="Notes"><style>
    text {
      font-family: monospace;
      text-anchor: middle;
    }
    text.emphasis {
      font-weight:bold;
    }
    text.lanchor {
      text-anchor: start;
    }
  </style><rect height="2200" id="artboard" fill="white" width="3300" x="0" y="0"/><line id="" style="fill:none;stroke:black;stroke-width:0.5;" x1="263" x2="3036" y1="292" y2="292"/><text class="lanchor emphasis" transform="matrix(1 0 0 1 263 322)">Weight/Scale Variations</text><text transform="matrix(1 0 0 1 559.711 322)">Ultralight</text><text transform="matrix(1 0 0 1 856.422 322)">Thin</text><text transform="matrix(1 0 0 1 1153.13 322)">Light</text><text transform="matrix(1 0 0 1 1449.84 322)">Regular</text><text transform="matrix(1 0 0 1 1746.56 322)">Medium</text><text transform="matrix(1 0 0 1 2043.27 322)">Semibold</text><text transform="matrix(1 0 0 1 2339.98 322)">Bold</text><text transform="matrix(1 0 0 1 2636.69 322)">Heavy</text><text transform="matrix(1 0 0 1 2933.4 322)">Black</text><text id="template-version" style="text-anchor: end;" transform="matrix(1 0 0 1 3036 1933)">Template v.1.0</text><text class="lanchor" transform="matrix(1 0 0 1 263 726)">Small</text><text class="lanchor" transform="matrix(1 0 0 1 263 1156)">Medium</text><text class="lanchor" transform="matrix(1 0 0 1 263 1586)">Large</text></g><g id="Guides"><g id="H-reference" style="fill:#27AAE1;stroke:none;" transform="matrix(1 0 0 1 339 696)"><path d="M 54.9316 0 L 57.666 0 L 30.5664 -70.459 L 28.0762 -70.459 L 0.976562 0 L 3.66211 0 L 12.9395 -24.4629 L 45.7031 -24.4629 Z M 29.1992 -67.0898 L 29.4434 -67.0898 L 44.8242 -26.709 L 13.8184 -26.709 Z"/></g><line id="Baseline-S" style="fill:none;stroke:#27AAE1;opacity:1;stroke-width:0.577;" x1="263" x2="3036" y1="696" y2="696"/><line id="Capline-S" style="fill:none;stroke:#27AAE1;opacity:1;stroke-width:0.577;" x1="263" x2="3036" y1="625.541" y2="625.541"/><g id="H-reference" style="fill:#27AAE1;stroke:none;" transform="matrix(1 0 0 1 339 1126)"><path d="M 54.9316 0 L 57.666 0 L 30.5664 -70.459 L 28.0762 -70.459 L 0.976562 0 L 3.66211 0 L 12.9395 -24.4629 L 45.7031 -24.4629 Z M 29.1992 -67.0898 L 29.4434 -67.0898 L 44.8242 -26.709 L 13.8184 -26.709 Z"/></g><line id="Baseline-M" style="fill:none;stroke:#27AAE1;opacity:1;stroke-width:0.577;" x1="263" x2="3036" y1="1126" y2="1126"/><line id="Capline-M" style="fill:none;stroke:#27AAE1;opacity:1;stroke-width:0.577;" x1="263" x2="3036" y1="1055.54" y2="1055.54"/><g id="H-reference" style="fill:#27AAE1;stroke:none;" transform="matrix(1 0 0 1 339 1556)"><path d="M 54.9316 0 L 57.666 0 L 30.5664 -70.459 L 28.0762 -70.459 L 0.976562 0 L 3.66211 0 L 12.9395 -24.4629 L 45.7031 -24.4629 Z M 29.1992 -67.0898 L 29.4434 -67.0898 L 44.8242 -26.709 L 13.8184 -26.709 Z"/></g><line id="Baseline-L" style="fill:none;stroke:#27AAE1;opacity:1;stroke-width:0.577;" x1="263" x2="3036" y1="1556" y2="1556"/><line id="Capline-L" style="fill:none;stroke:#27AAE1;opacity:1;stroke-width:0.577;" x1="263" x2="3036" y1="1485.54" y2="1485.54"/><rect height="119.336" id="left-margin" style="fill:darkred;stroke:none;opacity:0.4;" width="12.4512" x="1394.06" y="1030.79"/><rect height="119.336" id="right-margin" style="fill:darkgreen;stroke:none;opacity:0.4;" width="12.4512" x="1502.5112" y="1030.79"/><rect x="1406.5112" y="1045" width="96" height="96" fill="none" stroke="blue" stroke-dasharray="5"/><rect x="1394.06" y="1030.79" width="120.9024" height="119.336" fill="none" stroke="blue"/></g><g id="Symbols"><g id="Bold-L" transform="matrix(1 0 0 1 2266 1556)"><path d="M8.385 34.91375000000002 V-105.69624999999999 H96.26625000000001 V34.91375000000002 H8.385 Z M21.93 -44.25999999999999 Q24.8325 -46.35624999999999 28.541249999999998 -47.646249999999995 Q32.25 -48.936249999999994 36.28125 -48.936249999999994 H68.20875 Q72.24 -48.936249999999994 75.94875 -47.646249999999995 Q79.6575 -46.35624999999999 82.72125 -44.25999999999999 V-92.15125 H21.93 V-44.25999999999999 Z M52.245 -56.998749999999994 Q47.24625 -56.998749999999994 43.86 -60.385 Q40.47375 -63.771249999999995 40.47375 -68.93124999999999 Q40.47375 -73.92999999999999 43.86 -77.396875 Q47.24625 -80.86375 52.245 -80.86375 Q57.405 -80.86375 60.871875 -77.396875 Q64.33875 -73.92999999999999 64.33875 -68.77 Q64.33875 -63.771249999999995 60.871875 -60.385 Q57.405 -56.998749999999994 52.245 -56.998749999999994 Z M126.42000000000002 -5.0762499999999875  116.74500000000002 -14.590000000000003  126.90375 -24.909999999999997 H103.2 V-38.455 H126.90375 L116.74500000000002 -48.613749999999996 L126.42000000000002 -58.288749999999986 L153.02625 -31.68249999999999 L126.42000000000002 -5.0762499999999875 Z M45.956250000000004 9.597499999999997 H58.37250000000001 V-0.883749999999992 H68.85375 V-13.138749999999987 H58.37250000000001 V-23.61999999999999 H45.956250000000004 V-13.138749999999987 H35.475 V-0.883749999999992 H45.956250000000004 V9.597499999999997 Z"/></g><g id="Semibold-L" transform="matrix(1 0 0 1 1970.27 1556)"><path d="M10.481250000000001 32.33375000000001 V-102.955 H96.4275 V32.33375000000001 H10.481250000000001 Z M22.09125 -43.29249999999999 Q25.155 -45.71124999999999 29.105625000000003 -47.081875 Q33.05625 -48.4525 37.41 -48.4525 H69.3375 Q73.69125000000001 -48.4525 77.641875 -47.081875 Q81.5925 -45.71124999999999 84.65625 -43.29249999999999 V-91.345 H22.09125 V-43.29249999999999 Z M53.37375 -56.515 Q48.375 -56.515 45.069375 -59.90124999999999 Q41.76375 -63.287499999999994 41.76375 -68.28625 Q41.76375 -73.285 45.15 -76.67124999999999 Q48.53625 -80.0575 53.37375 -80.0575 Q58.37250000000001 -80.0575 61.75875 -76.67124999999999 Q65.145 -73.285 65.145 -68.28625 Q65.145 -63.287499999999994 61.75875 -59.90124999999999 Q58.37250000000001 -56.515 53.37375 -56.515 Z M126.09750000000001 -8.462500000000006  117.87375 -16.686249999999987  128.355 -27.32875 H103.2 V-39.099999999999994 H128.355 L117.87375 -49.74249999999999 L126.09750000000001 -57.966249999999995 L150.76875 -33.29499999999999 L126.09750000000001 -8.462500000000006 Z M47.730000000000004 8.952500000000015 H58.85625 V-2.4962500000000034 H70.46625 V-13.622499999999988 H58.85625 V-25.071249999999992 H47.730000000000004 V-13.622499999999988 H36.28125 V-2.4962500000000034 H47.730000000000004 V8.952500000000015 Z"/></g><g id="Medium-L" transform="matrix(1 0 0 1 1674.31 1556)"><path d="M11.932500000000001 30.398750000000007 V-101.02 H96.58875 V30.398750000000007 H11.932500000000001 Z M22.2525 -42.647499999999994 Q25.477500000000003 -45.22749999999999 29.508750000000003 -46.678749999999994 Q33.54 -48.129999999999995 38.05500000000001 -48.129999999999995 H70.305 Q74.82 -48.129999999999995 78.931875 -46.678749999999994 Q83.04375 -45.22749999999999 86.26875 -42.647499999999994 V-90.69999999999999 H22.2525 V-42.647499999999994 Z M54.18000000000001 -56.192499999999995 Q49.3425 -56.192499999999995 46.036875 -59.57875 Q42.73125 -62.964999999999996 42.73125 -67.8025 Q42.73125 -72.63999999999999 46.036875 -76.02625 Q49.3425 -79.4125 54.18000000000001 -79.4125 Q59.17875000000001 -79.4125 62.484375 -76.02625 Q65.78999999999999 -72.63999999999999 65.78999999999999 -67.8025 Q65.78999999999999 -62.964999999999996 62.484375 -59.57875 Q59.17875000000001 -56.192499999999995 54.18000000000001 -56.192499999999995 Z M125.93625 -11.04249999999999  118.67999999999999 -18.29875  129.48375 -29.263749999999987 H103.36125 V-39.583749999999995 H129.48375 L118.67999999999999 -50.38749999999999 L125.93625 -57.64374999999999 L149.3175 -34.42375 L125.93625 -11.04249999999999 Z M49.18125 8.46875 H59.17875000000001 V-3.9474999999999767 H71.595 V-13.944999999999993 H59.17875000000001 V-26.19999999999999 H49.18125 V-13.944999999999993 H36.926249999999996 V-3.9474999999999767 H49.18125 V8.46875 Z"/></g><g id="Regular-L" transform="matrix(1 0 0 1 1378.56 1556)"><path d="M13.222499999999998 28.94749999999999 V-99.56875 H96.58875 V28.94749999999999 H13.222499999999998 Z M22.41375 -42.16374999999999 Q25.63875 -44.90499999999999 29.83125 -46.436875 Q34.02375 -47.968749999999986 38.7 -47.968749999999986 H70.95 Q75.62625 -47.968749999999986 79.81875000000001 -46.436875 Q84.01125 -44.90499999999999 87.39750000000001 -42.16374999999999 V-90.3775 H22.41375 V-42.16374999999999 Z M54.825 -56.03124999999999 Q49.987500000000004 -56.03124999999999 46.681875 -59.336875 Q43.37625 -62.64249999999999 43.37625 -67.47999999999999 Q43.37625 -72.3175 46.681875 -75.70375 Q49.987500000000004 -79.09 54.825 -79.09 Q59.6625 -79.09 63.048750000000005 -75.70375 Q66.435 -72.3175 66.435 -67.47999999999999 Q66.435 -62.64249999999999 63.048750000000005 -59.336875 Q59.6625 -56.03124999999999 54.825 -56.03124999999999 Z M125.775 -12.977499999999992  119.325 -19.427499999999995  130.29 -30.715000000000003 H103.52250000000001 V-39.906249999999986 H130.29 L119.325 -51.03249999999999 L125.775 -57.64374999999999 L148.18875000000003 -35.22999999999999 L125.775 -12.977499999999992 Z M50.31 7.984999999999999 H59.50125 V-4.914999999999992 H72.40125 V-14.106249999999989 H59.50125 V-27.006249999999994 H50.31 V-14.106249999999989 H37.41 V-4.914999999999992 H50.31 V7.984999999999999 Z"/></g><g id="Light-L" transform="matrix(1 0 0 1 1082.77 1556)"><path d="M17.0925 25.88375000000002 V-96.505 H94.17 V25.88375000000002 H17.0925 Z M24.1875 -38.7775 Q27.090000000000003 -41.67999999999999 31.040625000000002 -43.29249999999999 Q34.99125 -44.90499999999999 39.50625 -44.90499999999999 H71.75625000000001 Q76.27125 -44.90499999999999 80.14125000000001 -43.29249999999999 Q84.01125 -41.67999999999999 87.075 -38.7775 V-89.41 H24.1875 V-38.7775 Z M55.63125 -55.70875 Q51.2775 -55.70875 48.375 -58.61124999999999 Q45.4725 -61.513749999999995 45.4725 -65.86749999999999 Q45.4725 -70.22125 48.375 -73.204375 Q51.2775 -76.1875 55.63125 -76.1875 Q59.98500000000001 -76.1875 62.8875 -73.204375 Q65.78999999999999 -70.22125 65.78999999999999 -65.86749999999999 Q65.78999999999999 -61.513749999999995 62.8875 -58.61124999999999 Q59.98500000000001 -55.70875 55.63125 -55.70875 Z M124.16250000000001 -15.235  119.16375000000001 -20.07249999999999  130.77375 -31.68249999999999 H103.36125 V-38.7775 H130.77375 L119.16375000000001 -50.38749999999999 L124.16250000000001 -55.38625 L144.31875 -35.22999999999999 L124.16250000000001 -15.235 Z M52.083749999999995 7.0175000000000125 H59.17875000000001 V-5.882499999999993 H72.07875000000001 V-12.977499999999992 H59.17875000000001 V-25.877499999999998 H52.083749999999995 V-12.977499999999992 H39.18375 V-5.882499999999993 H52.083749999999995 V7.0175000000000125 Z"/></g><g id="Thin-L" transform="matrix(1 0 0 1 787.282 1556)"><path d="M20.962500000000002 22.658750000000026 V-93.28 H91.75125 V22.658750000000026 H20.962500000000002 Z M25.8 -35.552499999999995 Q28.541249999999998 -38.29374999999999 32.169375 -39.986875 Q35.7975 -41.67999999999999 40.15125 -41.67999999999999 H72.40125 Q76.75500000000001 -41.67999999999999 80.383125 -39.986875 Q84.01125 -38.29374999999999 86.91375 -35.552499999999995 V-88.4425 H25.8 V-35.552499999999995 Z M56.27625 -55.38625 Q52.40625 -55.38625 49.906875 -57.88562499999999 Q47.4075 -60.385 47.4075 -64.255 Q47.4075 -68.125 49.906875 -70.70499999999998 Q52.40625 -73.285 56.27625 -73.285 Q60.146249999999995 -73.285 62.72625 -70.70499999999998 Q65.30625 -68.125 65.30625 -64.255 Q65.30625 -60.385 62.72625 -57.88562499999999 Q60.146249999999995 -55.38625 56.27625 -55.38625 Z M122.55 -17.331249999999997  119.16375000000001 -20.717499999999987  131.09625 -32.81124999999999 H103.36125 V-37.81 H131.09625 L119.16375000000001 -49.74249999999999 L122.55 -53.29 L140.61 -35.22999999999999 L122.55 -17.331249999999997 Z M54.018750000000004 5.888750000000002 H58.85625 V-7.01124999999999 H71.75625000000001 V-12.009999999999991 H58.85625 V-24.909999999999997 H54.018750000000004 V-12.009999999999991 H41.11875 V-7.01124999999999 H54.018750000000004 V5.888750000000002 Z"/></g><g id="Ultralight-L" transform="matrix(1 0 0 1 491.205 1556)"><path d="M23.38125 20.723750000000024 V-91.50625 H90.46125 V20.723750000000024 H23.38125 Z M26.92875 -33.61749999999999 Q29.508750000000003 -36.35875 32.975625 -38.13249999999999 Q36.4425 -39.906249999999986 40.635 -39.906249999999986 H72.885 Q77.0775 -39.906249999999986 80.625 -38.13249999999999 Q84.17250000000001 -36.35875 86.91375 -33.61749999999999 V-87.95875 H26.92875 V-33.61749999999999 Z M56.760000000000005 -55.224999999999994 Q53.2125 -55.224999999999994 50.955000000000005 -57.48249999999999 Q48.6975 -59.74 48.6975 -63.287499999999994 Q48.6975 -66.99625 50.955000000000005 -69.334375 Q53.2125 -71.6725 56.760000000000005 -71.6725 Q60.46875 -71.6725 62.806875000000005 -69.25375 Q65.145 -66.835 65.145 -63.287499999999994 Q65.145 -59.74 62.72625 -57.48249999999999 Q60.3075 -55.224999999999994 56.760000000000005 -55.224999999999994 Z M121.58250000000001 -18.782499999999985  119.16375000000001 -21.039999999999992  131.41875000000002 -33.61749999999999 H103.36125 V-37.16499999999999 H131.41875000000002 L119.16375000000001 -49.41999999999999 L121.58250000000001 -51.99999999999999 L138.3525 -35.22999999999999 L121.58250000000001 -18.782499999999985 Z M55.14750000000001 5.08250000000001 H58.695 V-7.8174999999999955 H71.595 V-11.364999999999995 H58.695 V-24.265 H55.14750000000001 V-11.364999999999995 H42.2475 V-7.8174999999999955 H55.14750000000001 V5.08250000000001 Z"/></g><g id="Bold-M" transform="matrix(1 0 0 1 2281.8 1126)"><path d="M5.375 20.64500000000001 V-91.22999999999999 H74.375 V20.64500000000001 H5.375 Z M19.25 -44.22999999999999 Q21.125 -44.97999999999999 23.189999999999998 -45.47999999999999 Q25.25 -45.97999999999999 27.5 -45.97999999999999 H52.125 Q54.375 -45.97999999999999 56.5 -45.47999999999999 Q58.625 -44.97999999999999 60.5 -44.22999999999999 V-77.35499999999999 H19.25 V-44.22999999999999 Z M39.875 -50.97999999999999 Q35.375 -50.97999999999999 32.315 -54.03999999999999 Q29.25 -57.10499999999999 29.25 -61.60499999999999 Q29.25 -66.10499999999999 32.315 -69.22999999999999 Q35.375 -72.35499999999999 39.875 -72.35499999999999 Q44.375 -72.35499999999999 47.5 -69.22999999999999 Q50.625 -66.10499999999999 50.625 -61.60499999999999 Q50.625 -57.10499999999999 47.5 -54.03999999999999 Q44.375 -50.97999999999999 39.875 -50.97999999999999 Z M98.125 -10.10499999999999  88.375 -19.72999999999999  93.125 -24.60499999999999 H80.0 V-38.47999999999999 H93.125 L88.375 -43.22999999999999 L98.125 -52.97999999999999 L119.625 -31.47999999999999 L98.125 -10.10499999999999 Z M33.375 1.1450000000000102 H46.0 V-6.35499999999999 H53.5 V-18.97999999999999 H46.0 V-26.47999999999999 H33.375 V-18.97999999999999 H25.875 V-6.35499999999999 H33.375 V1.1450000000000102 Z"/></g><g id="Semibold-M" transform="matrix(1 0 0 1 1985.97 1126)"><path d="M7.5 18.02000000000001 V-88.47999999999999 H74.5 V18.02000000000001 H7.5 Z M19.375 -43.22999999999999 Q21.5 -44.35499999999999 23.814999999999998 -44.919999999999995 Q26.125 -45.47999999999999 28.625 -45.47999999999999 H53.375 Q55.875 -45.47999999999999 58.19 -44.919999999999995 Q60.5 -44.35499999999999 62.5 -43.22999999999999 V-76.47999999999999 H19.375 V-43.22999999999999 Z M41.0 -50.47999999999999 Q36.625 -50.47999999999999 33.565 -53.54499999999999 Q30.5 -56.60499999999999 30.5 -60.97999999999999 Q30.5 -65.35499999999999 33.565 -68.41999999999999 Q36.625 -71.47999999999999 41.0 -71.47999999999999 Q45.375 -71.47999999999999 48.440000000000005 -68.41999999999999 Q51.5 -65.35499999999999 51.5 -60.97999999999999 Q51.5 -56.60499999999999 48.440000000000005 -53.54499999999999 Q45.375 -50.47999999999999 41.0 -50.47999999999999 Z M97.875 -13.60499999999999  89.5 -21.85499999999999  94.625 -27.10499999999999 H80.125 V-39.10499999999999 H94.625 L89.5 -44.35499999999999 L97.875 -52.60499999999999 L117.375 -33.10499999999999 L97.875 -13.60499999999999 Z M35.25 0.39500000000001023 H46.5 V-8.10499999999999 H55.125 V-19.35499999999999 H46.5 V-27.97999999999999 H35.25 V-19.35499999999999 H26.625 V-8.10499999999999 H35.25 V0.39500000000001023 Z"/></g><g id="Medium-M" transform="matrix(1 0 0 1 1689.91 1126)"><path d="M9.125 15.89500000000001 V-86.35499999999999 H74.625 V15.89500000000001 H9.125 Z M19.625 -42.60499999999999 Q21.75 -43.85499999999999 24.25 -44.47999999999999 Q26.75 -45.10499999999999 29.375 -45.10499999999999 H54.25 Q57.0 -45.10499999999999 59.5 -44.47999999999999 Q62.0 -43.85499999999999 64.125 -42.60499999999999 V-75.97999999999999 H19.625 V-42.60499999999999 Z M41.875 -50.10499999999999 Q37.5 -50.10499999999999 34.5 -53.16999999999999 Q31.5 -56.22999999999999 31.5 -60.60499999999999 Q31.5 -64.85499999999999 34.5 -67.91999999999999 Q37.5 -70.97999999999999 41.875 -70.97999999999999 Q46.125 -70.97999999999999 49.19 -67.91999999999999 Q52.25 -64.85499999999999 52.25 -60.60499999999999 Q52.25 -56.22999999999999 49.25 -53.16999999999999 Q46.25 -50.10499999999999 41.875 -50.10499999999999 Z M97.625 -16.22999999999999  90.25 -23.47999999999999  95.75 -29.10499999999999 H80.25 V-39.60499999999999 H95.75 L90.25 -45.10499999999999 L97.625 -52.47999999999999 L115.75 -34.35499999999999 L97.625 -16.22999999999999 Z M36.75 -0.10499999999998977 H46.875 V-9.47999999999999 H56.25 V-19.72999999999999 H46.875 V-29.10499999999999 H36.75 V-19.72999999999999 H27.375 V-9.47999999999999 H36.75 V-0.10499999999998977 Z"/></g><g id="Regular-M" transform="matrix(1 0 0 1 1394.06 1126)"><path d="M10.375 14.39500000000001 V-84.97999999999999 H74.75 V14.39500000000001 H10.375 Z M19.75 -42.10499999999999 Q22.0 -43.47999999999999 24.625 -44.22999999999999 Q27.25 -44.97999999999999 30.0 -44.97999999999999 H55.0 Q57.875 -44.97999999999999 60.5 -44.22999999999999 Q63.125 -43.47999999999999 65.375 -42.10499999999999 V-75.60499999999999 H19.75 V-42.10499999999999 Z M42.5 -49.97999999999999 Q38.25 -49.97999999999999 35.25 -52.97999999999999 Q32.25 -55.97999999999999 32.25 -60.22999999999999 Q32.25 -64.47999999999999 35.25 -67.54499999999999 Q38.25 -70.60499999999999 42.5 -70.60499999999999 Q46.75 -70.60499999999999 49.815 -67.54499999999999 Q52.875 -64.47999999999999 52.875 -60.22999999999999 Q52.875 -55.97999999999999 49.815 -52.97999999999999 Q46.75 -49.97999999999999 42.5 -49.97999999999999 Z M97.5 -18.22999999999999  91.0 -24.72999999999999  96.625 -30.60499999999999 H80.375 V-39.97999999999999 H96.625 L91.0 -45.72999999999999 L97.5 -52.35499999999999 L114.625 -35.22999999999999 L97.5 -18.22999999999999 Z M37.875 -0.6049999999999898 H47.25 V-10.60499999999999 H57.25 V-19.97999999999999 H47.25 V-29.97999999999999 H37.875 V-19.97999999999999 H27.875 V-10.60499999999999 H37.875 V-0.6049999999999898 Z"/></g><g id="Light-M" transform="matrix(1 0 0 1 1098.18 1126)"><path d="M13.375 12.02000000000001 V-82.47999999999999 H72.875 V12.02000000000001 H13.375 Z M20.375 -38.97999999999999 Q22.5 -40.72999999999999 25.064999999999998 -41.60499999999999 Q27.625 -42.47999999999999 30.625 -42.47999999999999 H55.625 Q58.5 -42.47999999999999 61.125 -41.60499999999999 Q63.75 -40.72999999999999 65.875 -38.97999999999999 V-75.47999999999999 H20.375 V-38.97999999999999 Z M43.125 -49.97999999999999 Q39.375 -49.97999999999999 36.75 -52.60499999999999 Q34.125 -55.22999999999999 34.125 -58.97999999999999 Q34.125 -62.72999999999999 36.75 -65.35499999999999 Q39.375 -67.97999999999999 43.125 -67.97999999999999 Q46.875 -67.97999999999999 49.5 -65.35499999999999 Q52.125 -62.72999999999999 52.125 -58.97999999999999 Q52.125 -55.22999999999999 49.5 -52.60499999999999 Q46.875 -49.97999999999999 43.125 -49.97999999999999 Z M96.25 -19.85499999999999  91.375 -24.72999999999999  98.25 -31.72999999999999 H80.25 V-38.72999999999999 H98.25 L91.375 -45.72999999999999 L96.25 -50.60499999999999 L111.625 -35.22999999999999 L96.25 -19.85499999999999 Z M39.625 -1.7299999999999898 H46.625 V-11.72999999999999 H56.625 V-18.72999999999999 H46.625 V-28.72999999999999 H39.625 V-18.72999999999999 H29.625 V-11.72999999999999 H39.625 V-1.7299999999999898 Z"/></g><g id="Thin-M" transform="matrix(1 0 0 1 802.565 1126)"><path d="M16.375 9.52000000000001 V-80.10499999999999 H71.0 V9.52000000000001 H16.375 Z M21.0 -35.97999999999999 Q23.0 -37.85499999999999 25.565 -38.97999999999999 Q28.125 -40.10499999999999 31.125 -40.10499999999999 H56.125 Q59.125 -40.10499999999999 61.75 -38.97999999999999 Q64.375 -37.85499999999999 66.375 -35.97999999999999 V-75.47999999999999 H21.0 V-35.97999999999999 Z M43.625 -50.10499999999999 Q40.375 -50.10499999999999 38.19 -52.29499999999999 Q36.0 -54.47999999999999 36.0 -57.72999999999999 Q36.0 -60.97999999999999 38.19 -63.22999999999999 Q40.375 -65.47999999999999 43.625 -65.47999999999999 Q46.875 -65.47999999999999 49.125 -63.22999999999999 Q51.375 -60.97999999999999 51.375 -57.72999999999999 Q51.375 -54.47999999999999 49.125 -52.29499999999999 Q46.875 -50.10499999999999 43.625 -50.10499999999999 Z M95.0 -21.60499999999999  91.75 -24.72999999999999  99.875 -32.97999999999999 H80.25 V-37.60499999999999 H99.875 L91.75 -45.72999999999999 L95.0 -48.97999999999999 L108.75 -35.22999999999999 L95.0 -21.60499999999999 Z M41.375 -2.9799999999999898 H46.0 V-12.97999999999999 H56.0 V-17.60499999999999 H46.0 V-27.60499999999999 H41.375 V-17.60499999999999 H31.375 V-12.97999999999999 H41.375 V-2.9799999999999898 Z"/></g><g id="Ultralight-M" transform="matrix(1 0 0 1 506.415 1126)"><path d="M18.25 8.02000000000001 V-78.60499999999999 H69.875 V8.02000000000001 H18.25 Z M21.375 -34.10499999999999 Q23.25 -36.22999999999999 25.875 -37.419999999999995 Q28.5 -38.60499999999999 31.5 -38.60499999999999 H56.5 Q59.625 -38.60499999999999 62.190000000000005 -37.419999999999995 Q64.75 -36.22999999999999 66.75 -34.10499999999999 V-75.47999999999999 H21.375 V-34.10499999999999 Z M44.0 -50.10499999999999 Q41.125 -50.10499999999999 39.125 -52.10499999999999 Q37.125 -54.10499999999999 37.125 -56.97999999999999 Q37.125 -59.97999999999999 39.125 -61.97999999999999 Q41.125 -63.97999999999999 44.0 -63.97999999999999 Q47.0 -63.97999999999999 49.0 -61.97999999999999 Q51.0 -59.97999999999999 51.0 -56.97999999999999 Q51.0 -54.10499999999999 49.0 -52.10499999999999 Q47.0 -50.10499999999999 44.0 -50.10499999999999 Z M94.25 -22.60499999999999  92.0 -24.72999999999999  100.875 -33.72999999999999 H80.25 V-36.85499999999999 H100.875 L92.0 -45.72999999999999 L94.25 -47.97999999999999 L107.0 -35.22999999999999 L94.25 -22.60499999999999 Z M42.5 -3.7299999999999898 H45.625 V-13.72999999999999 H55.625 V-16.85499999999999 H45.625 V-26.85499999999999 H42.5 V-16.85499999999999 H32.5 V-13.72999999999999 H42.5 V-3.7299999999999898 Z"/></g><g id="Bold-S" transform="matrix(1 0 0 1 2294.23 696)"><path d="M5.818086 7.276586000000009 V-77.836 H56.315664000000005 V7.276586000000009 H5.818086 Z M15.97725 -41.147499999999994 Q17.458992000000002 -41.838663999999994 19.229508000000003 -42.378339999999994 Q21.009491999999998 -42.92274999999999 22.879422 -42.92274999999999 H39.154914000000005 Q41.029578 -42.92274999999999 42.852168 -42.378339999999994 Q44.679492 -41.838663999999994 46.1565 -41.147499999999994 V-67.676836 H15.97725 V-41.147499999999994 Z M31.064508 -47.457921999999996 Q27.81225 -47.457921999999996 25.644078 -49.630827999999994 Q23.471172 -51.79899999999999 23.471172 -55.05599199999999 Q23.471172 -58.308249999999994 25.644078 -60.52849599999999 Q27.81225 -62.744007999999994 31.064508 -62.744007999999994 Q34.3215 -62.744007999999994 36.541746 -60.52849599999999 Q38.761992 -58.308249999999994 38.761992 -55.05599199999999 Q38.761992 -51.79899999999999 36.541746 -49.630827999999994 Q34.3215 -47.457921999999996 31.064508 -47.457921999999996 Z M76.236336 -15.011085999999992  69.035922 -22.11208599999999  74.167578 -27.23900799999999 H61.542 V-37.398171999999995 H74.167578 L69.035922 -42.430414 L76.236336 -49.630827999999994 L93.59591400000001 -32.271249999999995 L76.236336 -15.011085999999992 Z M26.330508000000002 -8.108913999999999 H35.505 V-13.235835999999992 H40.631922 V-22.410327999999993 H35.505 V-27.537249999999993 H26.330508000000002 V-22.410327999999993 H21.203586 V-13.235835999999992 H26.330508000000002 V-8.108913999999999 Z"/></g><g id="Semibold-S" transform="matrix(1 0 0 1 1998.1 696)"><path d="M7.4939219999999995 5.2078280000000206 V-75.66782799999999 H56.415078 V5.2078280000000206 H7.4939219999999995 Z M16.076664 -40.356922 Q17.7525 -41.34632799999999 19.674504 -41.93807799999999 Q21.596508 -42.529827999999995 23.769414 -42.529827999999995 H40.139585999999994 Q42.213077999999996 -42.529827999999995 44.182422 -41.93807799999999 Q46.1565 -41.34632799999999 47.732922 -40.356922 V-66.985672 H16.076664 V-40.356922 Z M31.9545 -47.06499999999999 Q28.796922000000002 -47.06499999999999 26.62875 -49.233171999999996 Q24.460577999999998 -51.406077999999994 24.460577999999998 -54.558921999999995 Q24.460577999999998 -57.716499999999996 26.62875 -59.884671999999995 Q28.796922000000002 -62.05757799999999 31.9545 -62.05757799999999 Q35.112078 -62.05757799999999 37.28025 -59.884671999999995 Q39.448422 -57.716499999999996 39.448422 -54.558921999999995 Q39.448422 -51.406077999999994 37.28025 -49.233171999999996 Q35.112078 -47.06499999999999 31.9545 -47.06499999999999 Z M76.037508 -17.771007999999995  69.925914 -23.787921999999995  75.351078 -29.21308599999999 H61.641414000000005 V-37.89050799999999 H75.351078 L69.925914 -43.31567199999999 L76.037508 -49.33258599999999 L91.82066400000001 -33.554164 L76.037508 -17.771007999999995 Z M27.81225 -8.700664000000003 H35.897922 V-14.618163999999993 H41.914835999999994 V-22.70383599999999 H35.897922 V-28.720749999999995 H27.81225 V-22.70383599999999 H21.795336 V-14.618163999999993 H27.81225 V-8.700664000000003 Z"/></g><g id="Medium-S" transform="matrix(1 0 0 1 1701.85 696)"><path d="M8.776836000000001 3.5319920000000025 V-73.991992 H56.514492000000004 V3.5319920000000025 H8.776836000000001 Z M16.275492 -39.86458599999999 Q17.951328 -40.948671999999995 20.020086 -41.59249599999999 Q22.093578 -42.23158599999999 24.361164 -42.23158599999999 H40.83075 Q43.098335999999996 -42.23158599999999 45.219167999999996 -41.59249599999999 Q47.34 -40.948671999999995 49.01583599999999 -39.86458599999999 V-66.59275 H16.275492 V-39.86458599999999 Z M32.645664 -46.771491999999995 Q29.488086 -46.771491999999995 27.367254 -48.98700399999999 Q25.246422 -51.207249999999995 25.246422 -54.26541399999999 Q25.246422 -57.323578 27.419328 -59.491749999999996 Q29.5875 -61.659921999999995 32.645664 -61.659921999999995 Q35.703828 -61.659921999999995 37.872 -59.491749999999996 Q40.040172 -57.323578 40.040172 -54.166 Q40.040172 -51.10783599999999 37.872 -48.93966399999999 Q35.703828 -46.771491999999995 32.645664 -46.771491999999995 Z M75.84341400000001 -19.844499999999996  70.51766400000001 -25.070835999999993  76.236336 -30.78950799999999 H61.740828 V-38.288163999999995 H76.236336 L70.51766400000001 -43.907422 L75.84341400000001 -49.233171999999996 L90.53775 -34.53883599999999 L75.84341400000001 -19.844499999999996 Z M28.99575 -9.093585999999988 H36.196163999999996 V-15.702249999999992 H42.804828 V-23.00207799999999 H36.196163999999996 V-29.60600799999999 H28.99575 V-23.00207799999999 H22.387086 V-15.702249999999992 H28.99575 V-9.093585999999988 Z"/></g><g id="Regular-S" transform="matrix(1 0 0 1 1405.73 696)"><path d="M9.761508 2.3484920000000074 V-72.903172 H56.609172 V2.3484920000000074 H9.761508 Z M16.370172 -39.471664 Q18.145422 -40.655164 20.318327999999998 -41.39366799999999 Q22.4865 -42.132172 24.8535 -42.132172 H41.4225 Q43.7895 -42.132172 46.009746 -41.39366799999999 Q48.229992 -40.655164 50.000507999999996 -39.471664 V-66.294508 H16.370172 V-39.471664 Z M33.138 -46.67207799999999 Q30.079836 -46.67207799999999 27.959004 -48.79290999999999 Q25.838172 -50.90900799999999 25.838172 -53.96717199999999 Q25.838172 -57.025335999999996 27.959004 -59.193507999999994 Q30.079836 -61.36641399999999 33.138 -61.36641399999999 Q36.196163999999996 -61.36641399999999 38.364335999999994 -59.193507999999994 Q40.532508 -57.025335999999996 40.532508 -53.96717199999999 Q40.532508 -50.90900799999999 38.364335999999994 -48.79290999999999 Q36.196163999999996 -46.67207799999999 33.138 -46.67207799999999 Z M75.744 -21.420921999999997  71.109414 -26.05550799999999  76.9275 -31.973007999999993 H61.835508 V-38.581672 H76.9275 L71.109414 -44.404492 L75.744 -49.13849199999999 L89.652492 -35.22999999999999 L75.744 -21.420921999999997 Z M29.881008 -9.486507999999986 H36.489672 V-16.587507999999985 H43.590672 V-23.196171999999997 H36.489672 V-30.297171999999996 H29.881008 V-23.196171999999997 H22.780008000000002 V-16.587507999999985 H29.881008 V-9.486507999999986 Z"/></g><g id="Light-S" transform="matrix(1 0 0 1 1109.75 696)"><path d="M12.128507999999998 0.4738280000000117 V-70.93382799999999 H55.132164 V0.4738280000000117 H12.128507999999998 Z M16.862508 -37.00525 Q18.543077999999998 -38.486991999999994 20.71125 -39.324909999999996 Q22.879422 -40.16282799999999 25.345836000000002 -40.16282799999999 H41.914835999999994 Q44.281836 -40.16282799999999 46.502082 -39.324909999999996 Q48.722328 -38.486991999999994 50.398164 -37.00525 V-66.199828 H16.862508 V-37.00525 Z M33.530922000000004 -46.67207799999999 Q30.969828 -46.67207799999999 29.142504 -48.49466799999999 Q27.319914 -50.321991999999995 27.319914 -52.982499999999995 Q27.319914 -55.643007999999995 29.142504 -57.470332 Q30.969828 -59.29292199999999 33.630336 -59.29292199999999 Q36.295578 -59.29292199999999 38.118168 -57.470332 Q39.945492 -55.643007999999995 39.945492 -52.982499999999995 Q39.945492 -50.321991999999995 38.070828 -48.49466799999999 Q36.196163999999996 -46.67207799999999 33.530922000000004 -46.67207799999999 Z M74.759328 -22.70383599999999  71.402922 -26.05550799999999  78.210414 -32.86299999999999 H61.740828 V-37.596999999999994 H78.210414 L71.402922 -44.404492 L74.759328 -47.75616399999999 L87.28549199999999 -35.22999999999999 L74.759328 -22.70383599999999 Z M31.263336 -10.376499999999993 H35.997336 V-17.477499999999992 H43.098335999999996 V-22.211499999999994 H35.997336 V-29.312499999999993 H31.263336 V-22.211499999999994 H24.162336 V-17.477499999999992 H31.263336 V-10.376499999999993 Z"/></g><g id="Thin-S" transform="matrix(1 0 0 1 814.015 696)"><path d="M14.495508 -1.500249999999994 V-69.059164 H53.650422 V-1.500249999999994 H14.495508 Z M17.359578 -34.63824999999999 Q18.936 -36.21467199999999 21.104172000000002 -37.251417999999994 Q23.277078 -38.288163999999995 25.743492 -38.288163999999995 H42.312492000000006 Q44.873585999999996 -38.288163999999995 47.046492 -37.251417999999994 Q49.214664000000006 -36.21467199999999 50.79108599999999 -34.63824999999999 V-66.199828 H17.359578 V-34.63824999999999 Z M34.027992 -46.771491999999995 Q31.755672 -46.771491999999995 30.278664 -48.29583999999999 Q28.796922000000002 -49.824921999999994 28.796922000000002 -51.99782799999999 Q28.796922000000002 -54.26541399999999 30.326003999999998 -55.794495999999995 Q31.855086 -57.323578 34.027992 -57.323578 Q36.295578 -57.323578 37.82466 -55.794495999999995 Q39.349008 -54.26541399999999 39.349008 -51.99782799999999 Q39.349008 -49.725508 37.82466 -48.24849999999999 Q36.295578 -46.771491999999995 34.027992 -46.771491999999995 Z M73.769922 -24.086163999999997  71.701164 -26.05550799999999  79.493328 -33.847671999999996 H61.740828 V-36.70700799999999 H79.493328 L71.701164 -44.404492 L73.769922 -46.47324999999999 L85.013172 -35.22999999999999 L73.769922 -24.086163999999997 Z M32.645664 -11.361171999999996 H35.505 V-18.462171999999995 H42.606 V-21.321507999999987 H35.505 V-28.422507999999993 H32.645664 V-21.321507999999987 H25.544664 V-18.462171999999995 H32.645664 V-11.361171999999996 Z"/></g><g id="Ultralight-S" transform="matrix(1 0 0 1 517.792 696)"><path d="M15.97725 -2.683749999999989 V-67.875664 H52.765164000000006 V-2.683749999999989 H15.97725 Z M17.653086000000002 -33.15650799999999 Q19.134828 -34.936491999999994 21.303 -36.02057799999999 Q23.471172 -37.104664 26.037 -37.104664 H42.606 Q45.171828 -37.104664 47.34 -36.02057799999999 Q49.508172 -34.936491999999994 51.089328 -33.15650799999999 V-66.199828 H17.653086000000002 V-33.15650799999999 Z M34.3215 -46.771491999999995 Q32.347422 -46.771491999999995 31.017167999999998 -48.10174599999999 Q29.686913999999998 -49.431999999999995 29.686913999999998 -51.406077999999994 Q29.686913999999998 -53.474835999999996 31.017167999999998 -54.80508999999999 Q32.347422 -56.14007799999999 34.3215 -56.14007799999999 Q36.394992 -56.14007799999999 37.725246 -54.757749999999994 Q39.0555 -53.37542199999999 39.0555 -51.406077999999994 Q39.0555 -49.431999999999995 37.673172 -48.10174599999999 Q36.295578 -46.771491999999995 34.3215 -46.771491999999995 Z M73.178172 -24.872007999999994  71.899992 -26.05550799999999  80.27917199999999 -34.43942199999999 H61.740828 V-36.119991999999996 H80.27917199999999 L71.899992 -44.404492 L73.178172 -45.682672 L83.63557800000001 -35.22999999999999 L73.178172 -24.872007999999994 Z M33.530922000000004 -11.952922000000001 H35.211492 V-19.053921999999993 H42.312492000000006 V-20.734491999999996 H35.211492 V-27.835491999999995 H33.530922000000004 V-20.734491999999996 H26.429922 V-19.053921999999993 H33.530922000000004 V-11.952922000000001 Z"/></g></g></svg>