<svg xmlns="http://www.w3.org/2000/svg" version="1.1" width="3300" height="2000"><g id="Notes"><style>
    text {
      font-family: monospace;
      text-anchor: middle;
    }
    text.emphasis {
      font-weight:bold;
    }
    text.lanchor {
      text-anchor: start;
    }
  </style><rect height="2200" id="artboard" fill="white" width="3300" x="0" y="0"/><line id="" style="fill:none;stroke:black;stroke-width:0.5;" x1="263" x2="3036" y1="292" y2="292"/><text class="lanchor emphasis" transform="matrix(1 0 0 1 263 322)">Weight/Scale Variations</text><text transform="matrix(1 0 0 1 559.711 322)">Ultralight</text><text transform="matrix(1 0 0 1 856.422 322)">Thin</text><text transform="matrix(1 0 0 1 1153.13 322)">Light</text><text transform="matrix(1 0 0 1 1449.84 322)">Regular</text><text transform="matrix(1 0 0 1 1746.56 322)">Medium</text><text transform="matrix(1 0 0 1 2043.27 322)">Semibold</text><text transform="matrix(1 0 0 1 2339.98 322)">Bold</text><text transform="matrix(1 0 0 1 2636.69 322)">Heavy</text><text transform="matrix(1 0 0 1 2933.4 322)">Black</text><text id="template-version" style="text-anchor: end;" transform="matrix(1 0 0 1 3036 1933)">Template v.1.0</text><text class="lanchor" transform="matrix(1 0 0 1 263 726)">Small</text><text class="lanchor" transform="matrix(1 0 0 1 263 1156)">Medium</text><text class="lanchor" transform="matrix(1 0 0 1 263 1586)">Large</text></g><g id="Guides"><g id="H-reference" style="fill:#27AAE1;stroke:none;" transform="matrix(1 0 0 1 339 696)"><path d="M 54.9316 0 L 57.666 0 L 30.5664 -70.459 L 28.0762 -70.459 L 0.976562 0 L 3.66211 0 L 12.9395 -24.4629 L 45.7031 -24.4629 Z M 29.1992 -67.0898 L 29.4434 -67.0898 L 44.8242 -26.709 L 13.8184 -26.709 Z"/></g><line id="Baseline-S" style="fill:none;stroke:#27AAE1;opacity:1;stroke-width:0.577;" x1="263" x2="3036" y1="696" y2="696"/><line id="Capline-S" style="fill:none;stroke:#27AAE1;opacity:1;stroke-width:0.577;" x1="263" x2="3036" y1="625.541" y2="625.541"/><g id="H-reference" style="fill:#27AAE1;stroke:none;" transform="matrix(1 0 0 1 339 1126)"><path d="M 54.9316 0 L 57.666 0 L 30.5664 -70.459 L 28.0762 -70.459 L 0.976562 0 L 3.66211 0 L 12.9395 -24.4629 L 45.7031 -24.4629 Z M 29.1992 -67.0898 L 29.4434 -67.0898 L 44.8242 -26.709 L 13.8184 -26.709 Z"/></g><line id="Baseline-M" style="fill:none;stroke:#27AAE1;opacity:1;stroke-width:0.577;" x1="263" x2="3036" y1="1126" y2="1126"/><line id="Capline-M" style="fill:none;stroke:#27AAE1;opacity:1;stroke-width:0.577;" x1="263" x2="3036" y1="1055.54" y2="1055.54"/><g id="H-reference" style="fill:#27AAE1;stroke:none;" transform="matrix(1 0 0 1 339 1556)"><path d="M 54.9316 0 L 57.666 0 L 30.5664 -70.459 L 28.0762 -70.459 L 0.976562 0 L 3.66211 0 L 12.9395 -24.4629 L 45.7031 -24.4629 Z M 29.1992 -67.0898 L 29.4434 -67.0898 L 44.8242 -26.709 L 13.8184 -26.709 Z"/></g><line id="Baseline-L" style="fill:none;stroke:#27AAE1;opacity:1;stroke-width:0.577;" x1="263" x2="3036" y1="1556" y2="1556"/><line id="Capline-L" style="fill:none;stroke:#27AAE1;opacity:1;stroke-width:0.577;" x1="263" x2="3036" y1="1485.54" y2="1485.54"/><rect height="119.336" id="left-margin" style="fill:darkred;stroke:none;opacity:0.4;" width="12.4512" x="1394.06" y="1030.79"/><rect height="119.336" id="right-margin" style="fill:darkgreen;stroke:none;opacity:0.4;" width="12.4512" x="1502.5112" y="1030.79"/><rect x="1406.5112" y="1045" width="96" height="96" fill="none" stroke="blue" stroke-dasharray="5"/><rect x="1394.06" y="1030.79" width="120.9024" height="119.336" fill="none" stroke="blue"/></g><g id="Symbols"><g id="Bold-L" transform="matrix(1 0 0 1 2266 1556)"><path d="M27.4125 29.91500000000002 Q21.285 29.91500000000002 16.77 25.400000000000006 Q12.254999999999999 20.88499999999999 12.254999999999999 14.596250000000012 V-44.74374999999999 H86.91375 V29.91500000000002 H27.4125 Z M99.00750000000001 29.91500000000002 V15.080000000000013 H113.68125 V29.91500000000002 H99.00750000000001 Z M127.87125 29.91500000000002 V15.080000000000013 H142.54500000000002 Q142.54500000000002 21.046250000000015 138.110625 25.480625000000003 Q133.67625 29.91500000000002 127.87125 29.91500000000002 Z M22.2525 9.75875000000002 H77.72250000000001 L59.6625 -14.106249999999989 L46.440000000000005 2.9862500000000125 L36.926249999999996 -9.591249999999988 L22.2525 9.75875000000002 Z M127.87125 0.8900000000000148 V-13.783749999999998 H142.54500000000002 V0.8900000000000148 H127.87125 Z M127.87125 -27.973749999999995 V-42.80875 H142.54500000000002 V-27.973749999999995 H127.87125 Z M12.254999999999999 -56.83749999999999 V-71.6725 H27.090000000000003 V-56.83749999999999 H12.254999999999999 Z M127.87125 -56.83749999999999 V-71.6725 H142.54500000000002 V-56.83749999999999 H127.87125 Z M12.254999999999999 -85.70124999999999 Q12.254999999999999 -91.50625 16.60875 -95.940625 Q20.962500000000002 -100.375 27.090000000000003 -100.375 V-85.70124999999999 H12.254999999999999 Z M41.11875 -85.70124999999999 V-100.375 H55.95375000000001 V-85.70124999999999 H41.11875 Z M70.14375 -85.70124999999999 V-100.375 H84.97875 V-85.70124999999999 H70.14375 Z M99.00750000000001 -85.70124999999999 V-100.375 H113.68125 V-85.70124999999999 H99.00750000000001 Z M127.87125 -85.70124999999999 V-100.375 Q133.67625 -100.375 138.110625 -95.940625 Q142.54500000000002 -91.50625 142.54500000000002 -85.70124999999999 H127.87125 Z"/></g><g id="Semibold-L" transform="matrix(1 0 0 1 1970.27 1556)"><path d="M27.090000000000003 27.980000000000018 Q21.93 27.980000000000018 18.06 24.110000000000014 Q14.190000000000001 20.24000000000001 14.190000000000001 15.080000000000013 V-43.614999999999995 H85.78500000000001 V27.980000000000018 H27.090000000000003 Z M98.84625 27.980000000000018 V14.596250000000012 H113.03625 V27.980000000000018 H98.84625 Z M127.22625000000001 27.980000000000018 V14.596250000000012 H140.61 Q140.61 19.917500000000018 136.57875 23.948750000000018 Q132.5475 27.980000000000018 127.22625000000001 27.980000000000018 Z M22.8975 10.403750000000002 H77.72250000000001 L59.823750000000004 -13.138749999999987 L46.7625 3.6312499999999943 L37.24875 -8.623749999999987 L22.8975 10.403750000000002 Z M127.22625000000001 0.24500000000000455 V-13.944999999999993 H140.61 V0.24500000000000455 H127.22625000000001 Z M127.22625000000001 -28.13499999999999 V-42.48625 H140.61 V-28.13499999999999 H127.22625000000001 Z M14.190000000000001 -56.515 V-70.86625 H27.735 V-56.515 H14.190000000000001 Z M127.22625000000001 -56.515 V-70.86625 H140.61 V-56.515 H127.22625000000001 Z M14.190000000000001 -85.05624999999999 Q14.190000000000001 -90.3775 18.22125 -94.40875 Q22.2525 -98.44 27.735 -98.44 V-85.05624999999999 H14.190000000000001 Z M41.925000000000004 -85.05624999999999 V-98.44 H56.114999999999995 V-85.05624999999999 H41.925000000000004 Z M70.46625 -85.05624999999999 V-98.44 H84.65625 V-85.05624999999999 H70.46625 Z M98.84625 -85.05624999999999 V-98.44 H113.03625 V-85.05624999999999 H98.84625 Z M127.22625000000001 -85.05624999999999 V-98.44 Q132.5475 -98.44 136.57875 -94.40875 Q140.61 -90.3775 140.61 -85.05624999999999 H127.22625000000001 Z"/></g><g id="Medium-L" transform="matrix(1 0 0 1 1674.31 1556)"><path d="M26.767500000000002 26.528750000000002 Q22.41375 26.528750000000002 19.027500000000003 23.22312500000001 Q15.64125 19.917500000000018 15.64125 15.402500000000003 V-42.647499999999994 H84.97875 V26.528750000000002 H26.767500000000002 Z M98.685 26.528750000000002 V14.112499999999997 H112.39125000000001 V26.528750000000002 H98.685 Z M126.74249999999999 26.528750000000002 V14.112499999999997 H139.15875 Q139.15875 19.111250000000013 135.45000000000002 22.82000000000002 Q131.74125 26.528750000000002 126.74249999999999 26.528750000000002 Z M23.5425 11.048750000000013 H77.72250000000001 L59.98500000000001 -12.493749999999991 L46.923750000000005 4.2762500000000045 L37.57125 -7.8174999999999955 L23.5425 11.048750000000013 Z M126.74249999999999 -0.2387499999999818 V-14.106249999999989 H139.15875 V-0.2387499999999818 H126.74249999999999 Z M126.74249999999999 -28.29625 V-42.16374999999999 H139.15875 V-28.29625 H126.74249999999999 Z M15.64125 -56.35375 V-70.22125 H28.21875 V-56.35375 H15.64125 Z M126.74249999999999 -56.35375 V-70.22125 H139.15875 V-56.35375 H126.74249999999999 Z M15.64125 -84.41125 Q15.64125 -89.41 19.430625000000003 -93.19937499999999 Q23.220000000000002 -96.98875 28.21875 -96.98875 V-84.41125 H15.64125 Z M42.408750000000005 -84.41125 V-96.98875 H56.27625 V-84.41125 H42.408750000000005 Z M70.6275 -84.41125 V-96.98875 H84.495 V-84.41125 H70.6275 Z M98.685 -84.41125 V-96.98875 H112.39125000000001 V-84.41125 H98.685 Z M126.74249999999999 -84.41125 V-96.98875 Q131.74125 -96.98875 135.45000000000002 -93.19937499999999 Q139.15875 -89.41 139.15875 -84.41125 H126.74249999999999 Z"/></g><g id="Regular-L" transform="matrix(1 0 0 1 1378.56 1556)"><path d="M26.60625 25.56125 Q22.73625 25.56125 19.753125 22.578125 Q16.77 19.595 16.77 15.724999999999994 V-42.0025 H84.33375 V25.56125 H26.60625 Z M98.52375 25.56125 V13.79000000000002 H112.06875000000001 V25.56125 H98.52375 Z M126.42000000000002 25.56125 V13.79000000000002 H138.19125 Q138.19125 18.466250000000002 134.64375 22.013750000000016 Q131.09625 25.56125 126.42000000000002 25.56125 Z M23.865000000000002 11.371250000000018 H77.72250000000001 L60.146249999999995 -12.009999999999991 L47.085 4.59875000000001 L37.7325 -7.333749999999995 L23.865000000000002 11.371250000000018 Z M126.42000000000002 -0.5612499999999869 V-14.106249999999989 H138.19125 V-0.5612499999999869 H126.42000000000002 Z M126.42000000000002 -28.457499999999982 V-42.0025 H138.19125 V-28.457499999999982 H126.42000000000002 Z M16.77 -56.192499999999995 V-69.73749999999998 H28.541249999999998 V-56.192499999999995 H16.77 Z M126.42000000000002 -56.192499999999995 V-69.73749999999998 H138.19125 V-56.192499999999995 H126.42000000000002 Z M16.77 -84.08875 Q16.77 -88.76499999999999 20.3175 -92.3125 Q23.865000000000002 -95.86 28.541249999999998 -95.86 V-84.08875 H16.77 Z M42.892500000000005 -84.08875 V-95.86 H56.4375 V-84.08875 H42.892500000000005 Z M70.78875 -84.08875 V-95.86 H84.33375 V-84.08875 H70.78875 Z M98.52375 -84.08875 V-95.86 H112.06875000000001 V-84.08875 H98.52375 Z M126.42000000000002 -84.08875 V-95.86 Q131.09625 -95.86 134.64375 -92.3125 Q138.19125 -88.76499999999999 138.19125 -84.08875 H126.42000000000002 Z"/></g><g id="Light-L" transform="matrix(1 0 0 1 1082.77 1556)"><path d="M30.6375 22.336250000000007 Q26.60625 22.336250000000007 23.300625 19.030625000000015 Q19.995 15.724999999999994 19.995 11.693749999999994 V-42.0025 H84.33375 V22.336250000000007 H30.6375 Z M98.20125 22.336250000000007 V12.983750000000015 H111.58500000000001 V22.336250000000007 H98.20125 Z M125.61375000000001 22.336250000000007 V12.983750000000015 H134.96625 Q134.96625 16.692500000000024 132.06375 19.514375 Q129.16125 22.336250000000007 125.61375000000001 22.336250000000007 Z M26.92875 8.46875 H77.72250000000001 L61.275 -13.622499999999988 L48.85875 2.018749999999997 L39.99 -9.268749999999997 L26.92875 8.46875 Z M125.61375000000001 -1.0449999999999875 V-14.428749999999994 H134.96625 V-1.0449999999999875 H125.61375000000001 Z M125.61375000000001 -28.457499999999982 V-42.0025 H134.96625 V-28.457499999999982 H125.61375000000001 Z M19.995 -55.86999999999999 V-69.25375 H29.3475 V-55.86999999999999 H19.995 Z M125.61375000000001 -55.86999999999999 V-69.25375 H134.96625 V-55.86999999999999 H125.61375000000001 Z M19.995 -83.2825 Q19.995 -86.83 22.8975 -89.73249999999999 Q25.8 -92.63499999999999 29.3475 -92.63499999999999 V-83.2825 H19.995 Z M43.37625 -83.2825 V-92.63499999999999 H56.760000000000005 V-83.2825 H43.37625 Z M70.78875 -83.2825 V-92.63499999999999 H84.33375 V-83.2825 H70.78875 Z M98.20125 -83.2825 V-92.63499999999999 H111.58500000000001 V-83.2825 H98.20125 Z M125.61375000000001 -83.2825 V-92.63499999999999 Q129.16125 -92.63499999999999 132.06375 -89.73249999999999 Q134.96625 -86.83 134.96625 -83.2825 H125.61375000000001 Z"/></g><g id="Thin-L" transform="matrix(1 0 0 1 787.282 1556)"><path d="M34.830000000000005 19.111250000000013 Q30.315 19.111250000000013 26.767500000000002 15.563749999999999 Q23.220000000000002 12.01625 23.220000000000002 7.501250000000013 V-41.84125 H84.17250000000001 V19.111250000000013 H34.830000000000005 Z M97.7175 19.111250000000013 V12.01625 H111.10125000000001 V19.111250000000013 H97.7175 Z M124.64625 19.111250000000013 V12.01625 H131.74125 Q131.74125 14.918750000000003 129.56437499999998 17.015000000000015 Q127.3875 19.111250000000013 124.64625 19.111250000000013 Z M29.992500000000003 5.566249999999997 H77.56125 L62.24250000000001 -15.396249999999995 L50.6325 -0.5612499999999869 L42.2475 -11.20375 L29.992500000000003 5.566249999999997 Z M124.64625 -1.528749999999988 V-14.912499999999994 H131.74125 V-1.528749999999988 H124.64625 Z M124.64625 -28.61874999999999 V-41.84125 H131.74125 V-28.61874999999999 H124.64625 Z M23.220000000000002 -55.38625 V-68.77 H30.315 V-55.38625 H23.220000000000002 Z M124.64625 -55.38625 V-68.77 H131.74125 V-55.38625 H124.64625 Z M23.220000000000002 -82.315 Q23.220000000000002 -85.05624999999999 25.396875 -87.233125 Q27.573750000000004 -89.41 30.315 -89.41 V-82.315 H23.220000000000002 Z M43.86 -82.315 V-89.41 H57.24375 V-82.315 H43.86 Z M70.95 -82.315 V-89.41 H84.17250000000001 V-82.315 H70.95 Z M97.7175 -82.315 V-89.41 H111.10125000000001 V-82.315 H97.7175 Z M124.64625 -82.315 V-89.41 Q127.3875 -89.41 129.56437499999998 -87.233125 Q131.74125 -85.05624999999999 131.74125 -82.315 H124.64625 Z"/></g><g id="Ultralight-L" transform="matrix(1 0 0 1 491.205 1556)"><path d="M37.24875 17.17625000000001 Q32.5725 17.17625000000001 28.86375 13.467500000000015 Q25.155 9.75875000000002 25.155 5.08250000000001 V-41.84125 H84.17250000000001 V17.17625000000001 H37.24875 Z M97.55625 17.17625000000001 V11.532500000000013 H110.77875 V17.17625000000001 H97.55625 Z M124.16250000000001 17.17625000000001 V11.532500000000013 H129.80625 Q129.80625 13.79000000000002 128.0325 15.483125000000001 Q126.25874999999999 17.17625000000001 124.16250000000001 17.17625000000001 Z M31.927500000000002 3.792500000000018 H77.56125 L62.8875 -16.363749999999982 L51.761250000000004 -2.012500000000003 L43.698750000000004 -12.332499999999982 L31.927500000000002 3.792500000000018 Z M124.16250000000001 -1.8512499999999932 V-15.07374999999999 H129.80625 V-1.8512499999999932 H124.16250000000001 Z M124.16250000000001 -28.61874999999999 V-41.84125 H129.80625 V-28.61874999999999 H124.16250000000001 Z M25.155 -55.224999999999994 V-68.44749999999999 H30.798750000000002 V-55.224999999999994 H25.155 Z M124.16250000000001 -55.224999999999994 V-68.44749999999999 H129.80625 V-55.224999999999994 H124.16250000000001 Z M25.155 -81.83125 Q25.155 -83.9275 26.92875 -85.70124999999999 Q28.7025 -87.475 30.798750000000002 -87.475 V-81.83125 H25.155 Z M44.1825 -81.83125 V-87.475 H57.405 V-81.83125 H44.1825 Z M70.95 -81.83125 V-87.475 H84.17250000000001 V-81.83125 H70.95 Z M97.55625 -81.83125 V-87.475 H110.77875 V-81.83125 H97.55625 Z M124.16250000000001 -81.83125 V-87.475 Q126.25874999999999 -87.475 128.0325 -85.70124999999999 Q129.80625 -83.9275 129.80625 -81.83125 H124.16250000000001 Z"/></g><g id="Bold-M" transform="matrix(1 0 0 1 2281.8 1126)"><path d="M21.25 19.39500000000001 Q14.75 19.39500000000001 10.125 14.77000000000001 Q5.5 10.14500000000001 5.5 3.5200000000000102 V-43.10499999999999 H68.0 V19.39500000000001 H21.25 Z M76.0 19.39500000000001 V2.3950000000000102 H87.5 V19.39500000000001 H76.0 Z M97.625 19.39500000000001 V2.3950000000000102 H114.625 Q114.625 9.52000000000001 109.69 14.460000000000008 Q104.75 19.39500000000001 97.625 19.39500000000001 Z M13.875 3.0200000000000102 H60.0 L45.0 -17.22999999999999 L34.125 -2.7299999999999898 L26.25 -13.47999999999999 L13.875 3.0200000000000102 Z M97.625 -7.72999999999999 V-19.22999999999999 H114.625 V-7.72999999999999 H97.625 Z M97.625 -29.35499999999999 V-40.97999999999999 H114.625 V-29.35499999999999 H97.625 Z M5.5 -51.10499999999999 V-62.72999999999999 H22.5 V-51.10499999999999 H5.5 Z M97.625 -51.10499999999999 V-62.72999999999999 H114.625 V-51.10499999999999 H97.625 Z M5.5 -72.72999999999999 Q5.5 -79.85499999999999 10.440000000000001 -84.79499999999999 Q15.375 -89.72999999999999 22.5 -89.72999999999999 V-72.72999999999999 H5.5 Z M32.5 -72.72999999999999 V-89.72999999999999 H44.125 V-72.72999999999999 H32.5 Z M54.25 -72.72999999999999 V-89.72999999999999 H65.875 V-72.72999999999999 H54.25 Z M76.0 -72.72999999999999 V-89.72999999999999 H87.5 V-72.72999999999999 H76.0 Z M97.625 -72.72999999999999 V-89.72999999999999 Q104.75 -89.72999999999999 109.69 -84.79499999999999 Q114.625 -79.85499999999999 114.625 -72.72999999999999 H97.625 Z"/></g><g id="Semibold-M" transform="matrix(1 0 0 1 1985.97 1126)"><path d="M21.25 17.02000000000001 Q15.75 17.02000000000001 11.815 13.085000000000008 Q7.875 9.14500000000001 7.875 3.6450000000000102 V-41.85499999999999 H66.75 V17.02000000000001 H21.25 Z M75.75 17.02000000000001 V1.6450000000000102 H86.75 V17.02000000000001 H75.75 Z M96.875 17.02000000000001 V1.6450000000000102 H112.25 Q112.25 8.14500000000001 107.81 12.580000000000013 Q103.375 17.02000000000001 96.875 17.02000000000001 Z M14.875 3.3950000000000102 H60.0 L45.375 -16.47999999999999 L34.625 -2.3549999999999898 L26.875 -12.72999999999999 L14.875 3.3950000000000102 Z M96.875 -8.47999999999999 V-19.47999999999999 H112.25 V-8.47999999999999 H96.875 Z M96.875 -29.60499999999999 V-40.60499999999999 H112.25 V-29.60499999999999 H96.875 Z M7.875 -50.85499999999999 V-61.85499999999999 H23.25 V-50.85499999999999 H7.875 Z M96.875 -50.85499999999999 V-61.85499999999999 H112.25 V-50.85499999999999 H96.875 Z M7.875 -71.97999999999999 Q7.875 -78.35499999999999 12.375 -82.85499999999999 Q16.875 -87.35499999999999 23.25 -87.35499999999999 V-71.97999999999999 H7.875 Z M33.375 -71.97999999999999 V-87.35499999999999 H44.375 V-71.97999999999999 H33.375 Z M54.625 -71.97999999999999 V-87.35499999999999 H65.625 V-71.97999999999999 H54.625 Z M75.75 -71.97999999999999 V-87.35499999999999 H86.75 V-71.97999999999999 H75.75 Z M96.875 -71.97999999999999 V-87.35499999999999 Q103.375 -87.35499999999999 107.81 -82.85499999999999 Q112.25 -78.35499999999999 112.25 -71.97999999999999 H96.875 Z"/></g><g id="Medium-M" transform="matrix(1 0 0 1 1689.91 1126)"><path d="M21.25 15.27000000000001 Q16.5 15.27000000000001 13.065 11.835000000000008 Q9.625 8.39500000000001 9.625 3.7700000000000102 V-40.97999999999999 H65.875 V15.27000000000001 H21.25 Z M75.625 15.27000000000001 V1.1450000000000102 H86.125 V15.27000000000001 H75.625 Z M96.375 15.27000000000001 V1.1450000000000102 H110.5 Q110.5 7.02000000000001 106.375 11.14500000000001 Q102.25 15.27000000000001 96.375 15.27000000000001 Z M15.625 3.6450000000000102 H60.0 L45.625 -15.85499999999999 L35.0 -1.9799999999999898 L27.375 -12.10499999999999 L15.625 3.6450000000000102 Z M96.375 -9.10499999999999 V-19.60499999999999 H110.5 V-9.10499999999999 H96.375 Z M96.375 -29.85499999999999 V-40.35499999999999 H110.5 V-29.85499999999999 H96.375 Z M9.625 -50.60499999999999 V-61.22999999999999 H23.875 V-50.60499999999999 H9.625 Z M96.375 -50.60499999999999 V-61.22999999999999 H110.5 V-50.60499999999999 H96.375 Z M9.625 -71.35499999999999 Q9.625 -77.22999999999999 13.815 -81.41999999999999 Q18.0 -85.60499999999999 23.875 -85.60499999999999 V-71.35499999999999 H9.625 Z M34.0 -71.35499999999999 V-85.60499999999999 H44.625 V-71.35499999999999 H34.0 Z M54.875 -71.35499999999999 V-85.60499999999999 H65.375 V-71.35499999999999 H54.875 Z M75.625 -71.35499999999999 V-85.60499999999999 H86.125 V-71.35499999999999 H75.625 Z M96.375 -71.35499999999999 V-85.60499999999999 Q102.25 -85.60499999999999 106.375 -81.41999999999999 Q110.5 -77.22999999999999 110.5 -71.35499999999999 H96.375 Z"/></g><g id="Regular-M" transform="matrix(1 0 0 1 1394.06 1126)"><path d="M21.25 14.02000000000001 Q17.125 14.02000000000001 14.059999999999999 10.960000000000008 Q11.0 7.89500000000001 11.0 3.7700000000000102 V-40.22999999999999 H65.25 V14.02000000000001 H21.25 Z M75.5 14.02000000000001 V0.7700000000000102 H85.75 V14.02000000000001 H75.5 Z M96.0 14.02000000000001 V0.7700000000000102 H109.25 Q109.25 6.27000000000001 105.375 10.14500000000001 Q101.5 14.02000000000001 96.0 14.02000000000001 Z M16.25 3.7700000000000102 H60.0 L45.75 -15.47999999999999 L35.25 -1.7299999999999898 L27.75 -11.72999999999999 L16.25 3.7700000000000102 Z M96.0 -9.47999999999999 V-19.72999999999999 H109.25 V-9.47999999999999 H96.0 Z M96.0 -29.97999999999999 V-40.22999999999999 H109.25 V-29.97999999999999 H96.0 Z M11.0 -50.47999999999999 V-60.72999999999999 H24.25 V-50.47999999999999 H11.0 Z M96.0 -50.47999999999999 V-60.72999999999999 H109.25 V-50.47999999999999 H96.0 Z M11.0 -70.97999999999999 Q11.0 -76.47999999999999 14.875 -80.35499999999999 Q18.75 -84.22999999999999 24.25 -84.22999999999999 V-70.97999999999999 H11.0 Z M34.5 -70.97999999999999 V-84.22999999999999 H44.75 V-70.97999999999999 H34.5 Z M55.0 -70.97999999999999 V-84.22999999999999 H65.25 V-70.97999999999999 H55.0 Z M75.5 -70.97999999999999 V-84.22999999999999 H85.75 V-70.97999999999999 H75.5 Z M96.0 -70.97999999999999 V-84.22999999999999 Q101.5 -84.22999999999999 105.375 -80.35499999999999 Q109.25 -76.47999999999999 109.25 -70.97999999999999 H96.0 Z"/></g><g id="Light-M" transform="matrix(1 0 0 1 1098.18 1126)"><path d="M23.75 11.52000000000001 Q19.625 11.52000000000001 16.56 8.460000000000008 Q13.5 5.39500000000001 13.5 1.2700000000000102 V-40.22999999999999 H65.25 V11.52000000000001 H23.75 Z M75.5 11.52000000000001 V0.7700000000000102 H85.75 V11.52000000000001 H75.5 Z M96.0 11.52000000000001 V0.7700000000000102 H106.75 Q106.75 5.27000000000001 103.565 8.39500000000001 Q100.375 11.52000000000001 96.0 11.52000000000001 Z M18.75 1.2700000000000102 H60.0 L46.625 -16.97999999999999 L36.75 -3.9799999999999898 L29.625 -13.35499999999999 L18.75 1.2700000000000102 Z M96.0 -9.47999999999999 V-19.72999999999999 H106.75 V-9.47999999999999 H96.0 Z M96.0 -29.97999999999999 V-40.22999999999999 H106.75 V-29.97999999999999 H96.0 Z M13.5 -50.47999999999999 V-60.72999999999999 H24.25 V-50.47999999999999 H13.5 Z M96.0 -50.47999999999999 V-60.72999999999999 H106.75 V-50.47999999999999 H96.0 Z M13.5 -70.97999999999999 Q13.5 -75.35499999999999 16.69 -78.54499999999999 Q19.875 -81.72999999999999 24.25 -81.72999999999999 V-70.97999999999999 H13.5 Z M34.5 -70.97999999999999 V-81.72999999999999 H44.75 V-70.97999999999999 H34.5 Z M55.0 -70.97999999999999 V-81.72999999999999 H65.25 V-70.97999999999999 H55.0 Z M75.5 -70.97999999999999 V-81.72999999999999 H85.75 V-70.97999999999999 H75.5 Z M96.0 -70.97999999999999 V-81.72999999999999 Q100.375 -81.72999999999999 103.565 -78.54499999999999 Q106.75 -75.35499999999999 106.75 -70.97999999999999 H96.0 Z"/></g><g id="Thin-M" transform="matrix(1 0 0 1 802.565 1126)"><path d="M26.25 9.02000000000001 Q22.125 9.02000000000001 19.06 5.960000000000008 Q16.0 2.8950000000000102 16.0 -1.2299999999999898 V-40.22999999999999 H65.25 V9.02000000000001 H26.25 Z M75.5 9.02000000000001 V0.7700000000000102 H85.75 V9.02000000000001 H75.5 Z M96.0 9.02000000000001 V0.7700000000000102 H104.25 Q104.25 4.27000000000001 101.815 6.64500000000001 Q99.375 9.02000000000001 96.0 9.02000000000001 Z M21.25 -1.2299999999999898 H60.0 L47.5 -18.35499999999999 L38.125 -6.10499999999999 L31.375 -14.97999999999999 L21.25 -1.2299999999999898 Z M96.0 -9.47999999999999 V-19.72999999999999 H104.25 V-9.47999999999999 H96.0 Z M96.0 -29.97999999999999 V-40.22999999999999 H104.25 V-29.97999999999999 H96.0 Z M16.0 -50.47999999999999 V-60.72999999999999 H24.25 V-50.47999999999999 H16.0 Z M96.0 -50.47999999999999 V-60.72999999999999 H104.25 V-50.47999999999999 H96.0 Z M16.0 -70.97999999999999 Q16.0 -74.35499999999999 18.44 -76.79499999999999 Q20.875 -79.22999999999999 24.25 -79.22999999999999 V-70.97999999999999 H16.0 Z M34.5 -70.97999999999999 V-79.22999999999999 H44.75 V-70.97999999999999 H34.5 Z M55.0 -70.97999999999999 V-79.22999999999999 H65.25 V-70.97999999999999 H55.0 Z M75.5 -70.97999999999999 V-79.22999999999999 H85.75 V-70.97999999999999 H75.5 Z M96.0 -70.97999999999999 V-79.22999999999999 Q99.375 -79.22999999999999 101.815 -76.79499999999999 Q104.25 -74.35499999999999 104.25 -70.97999999999999 H96.0 Z"/></g><g id="Ultralight-M" transform="matrix(1 0 0 1 506.415 1126)"><path d="M27.75 7.52000000000001 Q23.625 7.52000000000001 20.565 4.460000000000008 Q17.5 1.3950000000000102 17.5 -2.7299999999999898 V-40.22999999999999 H65.25 V7.52000000000001 H27.75 Z M75.5 7.52000000000001 V0.7700000000000102 H85.75 V7.52000000000001 H75.5 Z M96.0 7.52000000000001 V0.7700000000000102 H102.75 Q102.75 3.6450000000000102 100.75 5.585000000000008 Q98.75 7.52000000000001 96.0 7.52000000000001 Z M22.75 -2.7299999999999898 H60.0 L48.0 -19.22999999999999 L39.0 -7.47999999999999 L32.5 -15.97999999999999 L22.75 -2.7299999999999898 Z M96.0 -9.47999999999999 V-19.72999999999999 H102.75 V-9.47999999999999 H96.0 Z M96.0 -29.97999999999999 V-40.22999999999999 H102.75 V-29.97999999999999 H96.0 Z M17.5 -50.47999999999999 V-60.72999999999999 H24.25 V-50.47999999999999 H17.5 Z M96.0 -50.47999999999999 V-60.72999999999999 H102.75 V-50.47999999999999 H96.0 Z M17.5 -70.97999999999999 Q17.5 -73.72999999999999 19.5 -75.72999999999999 Q21.5 -77.72999999999999 24.25 -77.72999999999999 V-70.97999999999999 H17.5 Z M34.5 -70.97999999999999 V-77.72999999999999 H44.75 V-70.97999999999999 H34.5 Z M55.0 -70.97999999999999 V-77.72999999999999 H65.25 V-70.97999999999999 H55.0 Z M75.5 -70.97999999999999 V-77.72999999999999 H85.75 V-70.97999999999999 H75.5 Z M96.0 -70.97999999999999 V-77.72999999999999 Q98.75 -77.72999999999999 100.75 -75.72999999999999 Q102.75 -73.72999999999999 102.75 -70.97999999999999 H96.0 Z"/></g><g id="Bold-S" transform="matrix(1 0 0 1 2294.23 696)"><path d="M18.34425 5.501336000000009 Q13.510836000000001 5.501336000000009 10.10709 2.0502500000000055 Q6.708078 -1.400835999999984 6.708078 -6.234249999999989 V-42.23158599999999 H54.441 V5.501336000000009 H18.34425 Z M59.373827999999996 5.501336000000009 V-7.119507999999996 H67.658328 V5.501336000000009 H59.373827999999996 Z M75.450492 5.501336000000009 V-7.119507999999996 H88.071336 Q88.071336 -1.7984919999999818 84.42142199999999 1.8514219999999995 Q80.77150800000001 5.501336000000009 75.450492 5.501336000000009 Z M14.102586 -6.627171999999987 H47.34 L36.295578 -20.635077999999993 L28.110491999999997 -10.769421999999992 L22.685328 -17.87042199999999 L14.102586 -6.627171999999987 Z M75.450492 -14.911671999999996 V-23.196171999999997 H88.071336 V-14.911671999999996 H75.450492 Z M75.450492 -30.98833599999999 V-39.372249999999994 H88.071336 V-30.98833599999999 H75.450492 Z M6.708078 -47.164413999999994 V-55.54832799999999 H19.328922000000002 V-47.164413999999994 H6.708078 Z M75.450492 -47.164413999999994 V-55.54832799999999 H88.071336 V-47.164413999999994 H75.450492 Z M6.708078 -63.24107799999999 Q6.708078 -68.56682799999999 10.357992000000001 -72.212008 Q14.003172000000001 -75.86192199999999 19.328922000000002 -75.86192199999999 V-63.24107799999999 H6.708078 Z M27.021672000000002 -63.24107799999999 V-75.86192199999999 H35.405586 V-63.24107799999999 H27.021672000000002 Z M43.19775 -63.24107799999999 V-75.86192199999999 H51.581664 V-63.24107799999999 H43.19775 Z M59.373827999999996 -63.24107799999999 V-75.86192199999999 H67.658328 V-63.24107799999999 H59.373827999999996 Z M75.450492 -63.24107799999999 V-75.86192199999999 Q80.77150800000001 -75.86192199999999 84.42142199999999 -72.212008 Q88.071336 -68.56682799999999 88.071336 -63.24107799999999 H75.450492 Z"/></g><g id="Semibold-S" transform="matrix(1 0 0 1 1998.1 696)"><path d="M18.34425 3.6266719999999992 Q14.301414 3.6266719999999992 11.442077999999999 0.7673360000000002 Q8.578008 -2.0919999999999987 8.578008 -6.134835999999993 V-41.246914 H53.456328 V3.6266719999999992 H18.34425 Z M59.175 3.6266719999999992 V-7.715992 H67.06657799999999 V3.6266719999999992 H59.175 Z M74.854008 3.6266719999999992 V-7.715992 H86.19667199999999 Q86.19667199999999 -2.882577999999995 82.89234 0.3744140000000158 Q79.588008 3.6266719999999992 74.854008 3.6266719999999992 Z M14.893163999999999 -6.333663999999999 H47.34 L36.589086 -20.043327999999995 L28.503414 -10.475914000000003 L23.177664 -17.278672 L14.893163999999999 -6.333663999999999 Z M74.854008 -15.503422 V-23.394999999999996 H86.19667199999999 V-15.503422 H74.854008 Z M74.854008 -31.187163999999996 V-39.07400799999999 H86.19667199999999 V-31.187163999999996 H74.854008 Z M8.578008 -46.965585999999995 V-54.857164 H19.920672 V-46.965585999999995 H8.578008 Z M74.854008 -46.965585999999995 V-54.857164 H86.19667199999999 V-46.965585999999995 H74.854008 Z M8.578008 -62.649328 Q8.578008 -67.38332799999999 11.88234 -70.68766 Q15.186672000000002 -73.991992 19.920672 -73.991992 V-62.649328 H8.578008 Z M27.712836 -62.649328 V-73.991992 H35.604414 V-62.649328 H27.712836 Z M43.495992 -62.649328 V-73.991992 H51.382836 V-62.649328 H43.495992 Z M59.175 -62.649328 V-73.991992 H67.06657799999999 V-62.649328 H59.175 Z M74.854008 -62.649328 V-73.991992 Q79.588008 -73.991992 82.89234 -70.68766 Q86.19667199999999 -67.38332799999999 86.19667199999999 -62.649328 H74.854008 Z"/></g><g id="Medium-S" transform="matrix(1 0 0 1 1701.85 696)"><path d="M18.34425 2.2490780000000115 Q14.992578 2.2490780000000115 12.474089999999999 -0.21733599999998887 Q9.960336 -2.683749999999989 9.960336 -6.035421999999983 V-40.555749999999996 H52.765164000000006 V2.2490780000000115 H18.34425 Z M59.075585999999994 2.2490780000000115 V-8.108913999999999 H66.569508 V2.2490780000000115 H59.075585999999994 Z M74.461086 2.2490780000000115 V-8.108913999999999 H84.819078 Q84.819078 -3.7678359999999884 81.80825399999999 -0.7617460000000023 Q78.802164 2.2490780000000115 74.461086 2.2490780000000115 Z M15.484914 -6.134835999999993 H47.34 L36.787914 -19.550991999999994 L28.796922000000002 -10.177672000000001 L23.570586 -16.78633599999999 L15.484914 -6.134835999999993 Z M74.461086 -16.000491999999994 V-23.494414 H84.819078 V-16.000491999999994 H74.461086 Z M74.461086 -31.385991999999995 V-38.879914 H84.819078 V-31.385991999999995 H74.461086 Z M9.960336 -46.771491999999995 V-54.36482799999999 H20.413008 V-46.771491999999995 H9.960336 Z M74.461086 -46.771491999999995 V-54.36482799999999 H84.819078 V-46.771491999999995 H74.461086 Z M9.960336 -62.15699199999999 Q9.960336 -66.493336 13.0185 -69.55149999999999 Q16.076664 -72.609664 20.413008 -72.609664 V-62.15699199999999 H9.960336 Z M28.205172 -62.15699199999999 V-72.609664 H35.798508 V-62.15699199999999 H28.205172 Z M43.690085999999994 -62.15699199999999 V-72.609664 H51.184008 V-62.15699199999999 H43.690085999999994 Z M59.075585999999994 -62.15699199999999 V-72.609664 H66.569508 V-62.15699199999999 H59.075585999999994 Z M74.461086 -62.15699199999999 V-72.609664 Q78.802164 -72.609664 81.80825399999999 -69.55149999999999 Q84.819078 -66.493336 84.819078 -62.15699199999999 H74.461086 Z"/></g><g id="Regular-S" transform="matrix(1 0 0 1 1405.73 696)"><path d="M18.34425 1.2596719999999948 Q15.3855 1.2596719999999948 13.217327999999998 -0.9084999999999894 Q11.044422 -3.076671999999988 11.044422 -6.035421999999983 V-39.96399999999999 H52.272828 V1.2596719999999948 H18.34425 Z M58.976172 1.2596719999999948 V-8.402421999999987 H66.276 V1.2596719999999948 H58.976172 Z M74.167578 1.2596719999999948 V-8.402421999999987 H83.82967199999999 Q83.82967199999999 -4.359585999999993 80.97033599999999 -1.5475899999999996 Q78.111 1.2596719999999948 74.167578 1.2596719999999948 Z M15.97725 -6.035421999999983 H47.34 L36.887328 -19.252749999999992 L28.99575 -9.983577999999994 L23.868828 -16.49282799999999 L15.97725 -6.035421999999983 Z M74.167578 -16.293999999999997 V-23.593827999999995 H83.82967199999999 V-16.293999999999997 H74.167578 Z M74.167578 -31.48067199999999 V-38.780499999999996 H83.82967199999999 V-31.48067199999999 H74.167578 Z M11.044422 -46.67207799999999 V-53.96717199999999 H20.71125 V-46.67207799999999 H11.044422 Z M74.167578 -46.67207799999999 V-53.96717199999999 H83.82967199999999 V-46.67207799999999 H74.167578 Z M11.044422 -61.85874999999999 Q11.044422 -65.802172 13.908492 -68.661508 Q16.767827999999998 -71.525578 20.71125 -71.525578 V-61.85874999999999 H11.044422 Z M28.602828 -61.85874999999999 V-71.525578 H35.897922 V-61.85874999999999 H28.602828 Z M43.7895 -61.85874999999999 V-71.525578 H51.089328 V-61.85874999999999 H43.7895 Z M58.976172 -61.85874999999999 V-71.525578 H66.276 V-61.85874999999999 H58.976172 Z M74.167578 -61.85874999999999 V-71.525578 Q78.111 -71.525578 80.97033599999999 -68.661508 Q83.82967199999999 -65.802172 83.82967199999999 -61.85874999999999 H74.167578 Z"/></g><g id="Light-S" transform="matrix(1 0 0 1 1109.75 696)"><path d="M20.318327999999998 -0.7096719999999834 Q17.359578 -0.7096719999999834 15.186672000000002 -2.882577999999995 Q13.0185 -5.050749999999994 13.0185 -8.009499999999989 V-39.96399999999999 H52.272828 V-0.7096719999999834 H20.318327999999998 Z M58.976172 -0.7096719999999834 V-8.402421999999987 H66.276 V-0.7096719999999834 H58.976172 Z M74.167578 -0.7096719999999834 V-8.402421999999987 H81.86032800000001 Q81.86032800000001 -5.150164000000004 79.588008 -2.9299179999999865 Q77.320422 -0.7096719999999834 74.167578 -0.7096719999999834 Z M17.951328 -8.009499999999989 H47.34 L37.578492 -20.436249999999994 L30.17925 -11.758827999999994 L25.345836000000002 -17.771007999999995 L17.951328 -8.009499999999989 Z M74.167578 -16.293999999999997 V-23.593827999999995 H81.86032800000001 V-16.293999999999997 H74.167578 Z M74.167578 -31.48067199999999 V-38.780499999999996 H81.86032800000001 V-31.48067199999999 H74.167578 Z M13.0185 -46.67207799999999 V-53.96717199999999 H20.71125 V-46.67207799999999 H13.0185 Z M74.167578 -46.67207799999999 V-53.96717199999999 H81.86032800000001 V-46.67207799999999 H74.167578 Z M13.0185 -61.85874999999999 Q13.0185 -65.01632799999999 15.286086000000001 -67.283914 Q17.553672000000002 -69.55149999999999 20.71125 -69.55149999999999 V-61.85874999999999 H13.0185 Z M28.602828 -61.85874999999999 V-69.55149999999999 H35.897922 V-61.85874999999999 H28.602828 Z M43.7895 -61.85874999999999 V-69.55149999999999 H51.089328 V-61.85874999999999 H43.7895 Z M58.976172 -61.85874999999999 V-69.55149999999999 H66.276 V-61.85874999999999 H58.976172 Z M74.167578 -61.85874999999999 V-69.55149999999999 Q77.320422 -69.55149999999999 79.588008 -67.283914 Q81.86032800000001 -65.01632799999999 81.86032800000001 -61.85874999999999 H74.167578 Z"/></g><g id="Thin-S" transform="matrix(1 0 0 1 814.015 696)"><path d="M22.287672 -2.683749999999989 Q19.328922000000002 -2.683749999999989 17.16075 -4.851921999999988 Q14.992578 -7.024827999999999 14.992578 -9.983577999999994 V-39.96399999999999 H52.272828 V-2.683749999999989 H22.287672 Z M58.976172 -2.683749999999989 V-8.402421999999987 H66.276 V-2.683749999999989 H58.976172 Z M74.167578 -2.683749999999989 V-8.402421999999987 H79.88625 Q79.88625 -5.936008000000001 78.210414 -4.312246000000002 Q76.53457800000001 -2.683749999999989 74.167578 -2.683749999999989 Z M19.920672 -9.983577999999994 H47.34 L38.264922 -21.520335999999986 L31.263336 -13.434663999999998 L26.728164 -19.053921999999993 L19.920672 -9.983577999999994 Z M74.167578 -16.293999999999997 V-23.593827999999995 H79.88625 V-16.293999999999997 H74.167578 Z M74.167578 -31.48067199999999 V-38.780499999999996 H79.88625 V-31.48067199999999 H74.167578 Z M14.992578 -46.67207799999999 V-53.96717199999999 H20.71125 V-46.67207799999999 H14.992578 Z M74.167578 -46.67207799999999 V-53.96717199999999 H79.88625 V-46.67207799999999 H74.167578 Z M14.992578 -61.85874999999999 Q14.992578 -64.22574999999999 16.668414 -65.901586 Q18.34425 -67.577422 20.71125 -67.577422 V-61.85874999999999 H14.992578 Z M28.602828 -61.85874999999999 V-67.577422 H35.897922 V-61.85874999999999 H28.602828 Z M43.7895 -61.85874999999999 V-67.577422 H51.089328 V-61.85874999999999 H43.7895 Z M58.976172 -61.85874999999999 V-67.577422 H66.276 V-61.85874999999999 H58.976172 Z M74.167578 -61.85874999999999 V-67.577422 Q76.53457800000001 -67.577422 78.210414 -65.901586 Q79.88625 -64.22574999999999 79.88625 -61.85874999999999 H74.167578 Z"/></g><g id="Ultralight-S" transform="matrix(1 0 0 1 517.792 696)"><path d="M23.471172 -3.8672499999999985 Q20.512422 -3.8672499999999985 18.34425 -6.035421999999983 Q16.176078 -8.208327999999995 16.176078 -11.16707799999999 V-39.96399999999999 H52.272828 V-3.8672499999999985 H23.471172 Z M58.976172 -3.8672499999999985 V-8.402421999999987 H66.276 V-3.8672499999999985 H58.976172 Z M74.167578 -3.8672499999999985 V-8.402421999999987 H78.70275 Q78.70275 -6.433077999999995 77.37249600000001 -5.150164000000004 Q76.037508 -3.8672499999999985 74.167578 -3.8672499999999985 Z M21.104172000000002 -11.16707799999999 H47.34 L38.662577999999996 -22.211499999999994 L31.9545 -14.518749999999997 L27.613422 -19.844499999999996 L21.104172000000002 -11.16707799999999 Z M74.167578 -16.293999999999997 V-23.593827999999995 H78.70275 V-16.293999999999997 H74.167578 Z M74.167578 -31.48067199999999 V-38.780499999999996 H78.70275 V-31.48067199999999 H74.167578 Z M16.176078 -46.67207799999999 V-53.96717199999999 H20.71125 V-46.67207799999999 H16.176078 Z M74.167578 -46.67207799999999 V-53.96717199999999 H78.70275 V-46.67207799999999 H74.167578 Z M16.176078 -61.85874999999999 Q16.176078 -63.733413999999996 17.506332 -65.06366799999999 Q18.836586 -66.39392199999999 20.71125 -66.39392199999999 V-61.85874999999999 H16.176078 Z M28.602828 -61.85874999999999 V-66.39392199999999 H35.897922 V-61.85874999999999 H28.602828 Z M43.7895 -61.85874999999999 V-66.39392199999999 H51.089328 V-61.85874999999999 H43.7895 Z M58.976172 -61.85874999999999 V-66.39392199999999 H66.276 V-61.85874999999999 H58.976172 Z M74.167578 -61.85874999999999 V-66.39392199999999 Q76.037508 -66.39392199999999 77.37249600000001 -65.06366799999999 Q78.70275 -63.733413999999996 78.70275 -61.85874999999999 H74.167578 Z"/></g></g></svg>