<svg xmlns="http://www.w3.org/2000/svg" version="1.1" width="3300" height="2000"><g id="Notes"><style>
    text {
      font-family: monospace;
      text-anchor: middle;
    }
    text.emphasis {
      font-weight:bold;
    }
    text.lanchor {
      text-anchor: start;
    }
  </style><rect height="2200" id="artboard" fill="white" width="3300" x="0" y="0"/><line id="" style="fill:none;stroke:black;stroke-width:0.5;" x1="263" x2="3036" y1="292" y2="292"/><text class="lanchor emphasis" transform="matrix(1 0 0 1 263 322)">Weight/Scale Variations</text><text transform="matrix(1 0 0 1 559.711 322)">Ultralight</text><text transform="matrix(1 0 0 1 856.422 322)">Thin</text><text transform="matrix(1 0 0 1 1153.13 322)">Light</text><text transform="matrix(1 0 0 1 1449.84 322)">Regular</text><text transform="matrix(1 0 0 1 1746.56 322)">Medium</text><text transform="matrix(1 0 0 1 2043.27 322)">Semibold</text><text transform="matrix(1 0 0 1 2339.98 322)">Bold</text><text transform="matrix(1 0 0 1 2636.69 322)">Heavy</text><text transform="matrix(1 0 0 1 2933.4 322)">Black</text><text id="template-version" style="text-anchor: end;" transform="matrix(1 0 0 1 3036 1933)">Template v.1.0</text><text class="lanchor" transform="matrix(1 0 0 1 263 726)">Small</text><text class="lanchor" transform="matrix(1 0 0 1 263 1156)">Medium</text><text class="lanchor" transform="matrix(1 0 0 1 263 1586)">Large</text></g><g id="Guides"><g id="H-reference" style="fill:#27AAE1;stroke:none;" transform="matrix(1 0 0 1 339 696)"><path d="M 54.9316 0 L 57.666 0 L 30.5664 -70.459 L 28.0762 -70.459 L 0.976562 0 L 3.66211 0 L 12.9395 -24.4629 L 45.7031 -24.4629 Z M 29.1992 -67.0898 L 29.4434 -67.0898 L 44.8242 -26.709 L 13.8184 -26.709 Z"/></g><line id="Baseline-S" style="fill:none;stroke:#27AAE1;opacity:1;stroke-width:0.577;" x1="263" x2="3036" y1="696" y2="696"/><line id="Capline-S" style="fill:none;stroke:#27AAE1;opacity:1;stroke-width:0.577;" x1="263" x2="3036" y1="625.541" y2="625.541"/><g id="H-reference" style="fill:#27AAE1;stroke:none;" transform="matrix(1 0 0 1 339 1126)"><path d="M 54.9316 0 L 57.666 0 L 30.5664 -70.459 L 28.0762 -70.459 L 0.976562 0 L 3.66211 0 L 12.9395 -24.4629 L 45.7031 -24.4629 Z M 29.1992 -67.0898 L 29.4434 -67.0898 L 44.8242 -26.709 L 13.8184 -26.709 Z"/></g><line id="Baseline-M" style="fill:none;stroke:#27AAE1;opacity:1;stroke-width:0.577;" x1="263" x2="3036" y1="1126" y2="1126"/><line id="Capline-M" style="fill:none;stroke:#27AAE1;opacity:1;stroke-width:0.577;" x1="263" x2="3036" y1="1055.54" y2="1055.54"/><g id="H-reference" style="fill:#27AAE1;stroke:none;" transform="matrix(1 0 0 1 339 1556)"><path d="M 54.9316 0 L 57.666 0 L 30.5664 -70.459 L 28.0762 -70.459 L 0.976562 0 L 3.66211 0 L 12.9395 -24.4629 L 45.7031 -24.4629 Z M 29.1992 -67.0898 L 29.4434 -67.0898 L 44.8242 -26.709 L 13.8184 -26.709 Z"/></g><line id="Baseline-L" style="fill:none;stroke:#27AAE1;opacity:1;stroke-width:0.577;" x1="263" x2="3036" y1="1556" y2="1556"/><line id="Capline-L" style="fill:none;stroke:#27AAE1;opacity:1;stroke-width:0.577;" x1="263" x2="3036" y1="1485.54" y2="1485.54"/><rect height="119.336" id="left-margin" style="fill:darkred;stroke:none;opacity:0.4;" width="12.4512" x="1394.06" y="1030.79"/><rect height="119.336" id="right-margin" style="fill:darkgreen;stroke:none;opacity:0.4;" width="12.4512" x="1502.5112" y="1030.79"/><rect x="1406.5112" y="1045" width="96" height="96" fill="none" stroke="blue" stroke-dasharray="5"/><rect x="1394.06" y="1030.79" width="120.9024" height="119.336" fill="none" stroke="blue"/></g><g id="Symbols"><g id="Bold-L" transform="matrix(1 0 0 1 2266 1556)"><path d="M19.51125 27.335000000000015 Q13.2144375 27.335000000000015 8.78409375 22.904656250000016 Q4.35375 18.474312500000018 4.35375 12.177500000000016 V-64.41624999999999 Q4.35375 -67.64124999999999 6.530625000000001 -69.81812499999998 Q8.7075 -71.99499999999999 11.932500000000001 -71.99499999999999 Q15.1575 -71.99499999999999 17.334375 -69.81812499999998 Q19.51125 -67.64124999999999 19.51125 -64.41624999999999 V12.177500000000016 Q19.51125 12.177500000000016 19.51125 12.177500000000016 Q19.51125 12.177500000000016 19.51125 12.177500000000016 H104.00625000000001 Q107.23125 12.177500000000016 109.408125 14.354375000000015 Q111.58500000000001 16.531250000000014 111.58500000000001 19.756250000000016 Q111.58500000000001 22.981250000000017 109.408125 25.158125000000016 Q107.23125 27.335000000000015 104.00625000000001 27.335000000000015 H19.51125 Z M42.73125 2.502500000000012 Q37.264875 2.502500000000012 33.2255625 -1.4390949999999876 Q29.18625 -5.38068999999998 29.18625 -10.881249999999987 V-68.76999999999998 Q29.18625 -74.09124999999999 31.363125 -78.20312499999999 Q33.54 -82.31499999999998 37.57125 -84.41124999999998 L89.81625 -113.75874999999999 L102.07125 -108.27624999999998 L92.39625000000001 -97.63374999999999 L89.81625 -98.27874999999997 L43.37625 -71.67249999999999 L89.81625 -42.969999999999985 L136.4175 -71.67249999999999 L130.29 -75.05874999999999 L140.61 -85.37874999999998 L142.2225 -84.41124999999998 Q146.7375 -81.43957375 148.59187500000002 -77.76549249999998 Q150.44625 -74.09124999999999 150.44625 -68.76999999999998 V-10.881249999999987 Q150.44625 -5.38068999999998 146.45434500000002 -1.4390949999999876 Q142.46227875 2.502500000000012 137.0625 2.502500000000012 H42.73125 Z M89.17125 -69.09249999999999  122.55 -102.47125 Q124.00125 -103.92249999999999 125.93625 -103.84187499999999 Q127.87125 -103.76124999999999 129.3225 -102.31 Q130.77375 -100.85874999999999 130.77375 -98.84312499999999 Q130.77375 -96.82749999999999 129.3225 -95.37625 L94.65375 -60.70749999999998 Q92.27902125 -58.44999999999999 89.112555 -58.44999999999999 Q85.94625 -58.44999999999999 83.68875 -60.70749999999998 L73.8525 -70.54374999999999 Q72.40125 -71.99499999999999 72.481875 -74.01062499999999 Q72.5625 -76.02624999999999 74.01375 -77.47749999999999 Q75.465 -78.92875 77.480625 -78.92875 Q79.49625 -78.92875 80.9475 -77.47749999999999 L89.17125 -69.09249999999999 Z"/></g><g id="Semibold-L" transform="matrix(1 0 0 1 1970.27 1556)"><path d="M18.7401525 25.372103750000015 Q13.49839875 25.372103750000015 9.73224375 21.605948750000017 Q5.966088750000001 17.839793750000016 5.966088750000001 12.598201250000017 V-66.02858875 Q5.966088750000001 -68.76290499999999 7.7925675000000005 -70.58922249999999 Q9.618885 -72.41570125 12.35320125 -72.41570125 Q15.087356250000001 -72.41570125 16.91367375 -70.58922249999999 Q18.7401525 -68.76290499999999 18.7401525 -66.02858875 V12.598201250000017 Q18.7401525 12.598201250000017 18.7401525 12.598201250000017 Q18.7401525 12.598201250000017 18.7401525 12.598201250000017 H104.00625000000001 Q106.74056625 12.598201250000017 108.56688375 14.424518750000015 Q110.39320125 16.250836250000013 110.39320125 18.985152500000012 Q110.39320125 21.719307500000017 108.56688375 23.545786250000017 Q106.74056625 25.372103750000015 104.00625000000001 25.372103750000015 H18.7401525 Z M40.27767 2.9232012500000195 Q35.505314999999996 2.9232012500000195 31.96023375 -0.5667324999999863 Q28.415152499999998 -4.05650499999998 28.415152499999998 -8.848209999999987 V-69.05041374999999 Q28.415152499999998 -73.390135 30.346605 -76.94118249999998 Q32.2780575 -80.49222999999999 35.53821 -82.30806624999998 L88.62445125 -113.33804874999998 L100.59903750000001 -107.64527874999999 L92.11583625 -98.26472124999998 L88.62445125 -99.47054874999998 L41.27306625 -71.32194249999999 L88.62445125 -41.14722999999999 L136.0669425 -71.32194249999999 L129.5189025 -75.12889374999997 L138.57696 -84.18695124999999 L141.80179875 -82.30806624999998 Q145.75597125000002 -79.8572275 147.29494125 -76.62368124999999 Q148.83391125 -73.390135 148.83391125 -69.05041374999999 V-8.848209999999987 Q148.83391125 -4.05650499999998 145.3155975 -0.5667324999999863 Q141.79728375000002 2.9232012500000195 137.0625 2.9232012500000195 H40.27767 Z M87.6990375 -68.46152874999999  121.0777875 -101.84027874999998 Q122.5290375 -103.29152875 124.4640375 -103.21090375 Q126.3990375 -103.13027874999997 127.85028750000001 -101.67902874999999 Q129.3015375 -100.22777875 129.3015375 -98.21215375 Q129.3015375 -96.19652875 127.85028750000001 -94.74527874999998 L92.2701525 -59.165143749999984 Q90.29693625 -57.25820125 87.66598125 -57.25820125 Q85.034865 -57.25820125 83.12792250000001 -59.165143749999984 L72.38028750000001 -69.91277874999999 Q70.9290375 -71.36402874999999 71.0096625 -73.37965374999999 Q71.0902875 -75.39527874999999 72.5415375 -76.84652874999999 Q73.9927875 -78.29777874999999 76.0084125 -78.29777874999999 Q78.0240375 -78.29777874999999 79.47528750000001 -76.84652874999999 L87.6990375 -68.46152874999999 Z"/></g><g id="Medium-L" transform="matrix(1 0 0 1 1674.31 1556)"><path d="M18.1615875 23.899730000000016 Q13.711248750000001 23.899730000000016 10.4435175 20.631837500000017 Q7.175625 17.36394500000001 7.175625 12.913606250000015 V-67.23812499999998 Q7.175625 -69.60430749999999 8.739105 -71.16778749999999 Q10.30242375 -72.73110625 12.66860625 -72.73110625 Q15.03478875 -72.73110625 16.598268750000003 -71.16778749999999 Q18.1615875 -69.60430749999999 18.1615875 -67.23812499999998 V12.913606250000015 Q18.1615875 12.913606250000015 18.1615875 12.913606250000015 Q18.1615875 12.913606250000015 18.1615875 12.913606250000015 H104.00625000000001 Q106.3724325 12.913606250000015 107.9359125 14.477086250000013 Q109.49923125000001 16.040566250000015 109.49923125000001 18.406587500000015 Q109.49923125000001 20.772770000000016 107.9359125 22.336250000000014 Q106.3724325 23.899730000000016 104.00625000000001 23.899730000000016 H18.1615875 Z M38.4371625 3.238606250000018 Q34.185322500000005 3.238606250000018 31.010955000000003 0.08762000000001535 Q27.8365875 -3.063366249999987 27.8365875 -7.323268749999983 V-69.26068374999998 Q27.8365875 -72.86429874999997 29.584053750000002 -75.99464499999998 Q31.33152 -79.12515249999998 34.01326875 -80.73055749999999 L87.73048125000001 -113.02264374999999 L99.4947975 -107.17201 L91.90556625 -98.73798999999997 L87.73048125000001 -100.36451874999997 L39.6955575 -71.05910499999999 L87.73048125000001 -39.780152499999986 L135.80410500000002 -71.05910499999999 L128.9403375 -75.18146124999998 L137.05201875 -83.29298125 L141.48639375 -80.73055749999999 Q145.019865 -78.67042749999999 146.32212 -75.76744374999998 Q147.62437500000001 -72.86429874999997 147.62437500000001 -69.26068374999998 V-7.323268749999983 Q147.62437500000001 -3.063366249999987 144.461295 0.08762000000001535 Q141.29837625000002 3.238606250000018 137.0625 3.238606250000018 H38.4371625 Z M86.59479750000001 -67.98826  119.97354750000001 -101.36701 Q121.42479750000001 -102.81826000000001 123.35979750000001 -102.73763499999998 Q125.29479750000002 -102.65700999999999 126.74604750000002 -101.20576 Q128.19729750000002 -99.75450999999998 128.19729750000002 -97.73888499999998 Q128.19729750000002 -95.72325999999998 126.74604750000002 -94.27201 L90.48237375 -58.008336249999985 Q88.81021125 -56.36423124999999 86.58076874999999 -56.36423124999999 Q84.35132625000001 -56.36423124999999 82.70722125 -58.008336249999985 L71.2760475 -69.43951 Q69.8247975 -70.89076 69.9054225 -72.906385 Q69.9860475 -74.92201 71.4372975 -76.37325999999999 Q72.8885475 -77.82450999999999 74.9041725 -77.82450999999999 Q76.9197975 -77.82450999999999 78.3710475 -76.37325999999999 L86.59479750000001 -67.98826 Z"/></g><g id="Regular-L" transform="matrix(1 0 0 1 1378.56 1556)"><path d="M17.7375 22.820000000000014 Q13.8675 22.820000000000014 10.965 19.917500000000015 Q8.0625 17.015000000000015 8.0625 13.145000000000014 V-68.12499999999999 Q8.0625 -70.22124999999998 9.433125 -71.59187499999999 Q10.80375 -72.96249999999999 12.9 -72.96249999999999 Q14.99625 -72.96249999999999 16.366875 -71.59187499999999 Q17.7375 -70.22124999999998 17.7375 -68.12499999999999 V13.145000000000014 Q17.7375 13.145000000000014 17.7375 13.145000000000014 Q17.7375 13.145000000000014 17.7375 13.145000000000014 H104.00625000000001 Q106.1025 13.145000000000014 107.473125 14.515625000000014 Q108.84375 15.886250000000015 108.84375 17.982500000000016 Q108.84375 20.078750000000014 107.473125 21.449375000000014 Q106.1025 22.820000000000014 104.00625000000001 22.820000000000014 H17.7375 Z M37.0875 3.470000000000013 Q33.2175 3.470000000000013 30.315 0.5675000000000168 Q27.4125 -2.3349999999999866 27.4125 -6.204999999999984 V-69.41499999999999 Q27.4125 -72.47874999999999 29.025000000000002 -75.30062499999998 Q30.6375 -78.12249999999999 32.895 -79.57374999999999 L87.075 -112.79124999999999 L98.685 -106.82499999999999 L91.75125 -99.08499999999998 L87.075 -101.01999999999998 L38.53875 -70.86625 L87.075 -38.77749999999999 L135.61125 -70.86625 L128.51625 -75.21999999999998 L135.93375 -82.63749999999999 L141.255 -79.57374999999999 Q144.48000000000002 -77.79999999999998 145.60875000000001 -75.13937499999999 Q146.7375 -72.47874999999999 146.7375 -69.41499999999999 V-6.204999999999984 Q146.7375 -2.3349999999999866 143.835 0.5675000000000168 Q140.9325 3.470000000000013 137.0625 3.470000000000013 H37.0875 Z M85.785 -67.64124999999999  119.16375000000001 -101.01999999999998 Q120.61500000000001 -102.47125 122.55 -102.390625 Q124.485 -102.31 125.93625 -100.85874999999999 Q127.3875 -99.4075 127.3875 -97.391875 Q127.3875 -95.37625 125.93625 -93.92499999999998 L89.17125 -57.15999999999998 Q87.72 -55.70874999999998 85.785 -55.70874999999998 Q83.85000000000001 -55.70874999999998 82.39875 -57.15999999999998 L70.46625 -69.09249999999999 Q69.015 -70.54374999999999 69.095625 -72.55937499999999 Q69.17625 -74.57499999999999 70.6275 -76.02624999999999 Q72.07875 -77.47749999999999 74.094375 -77.47749999999999 Q76.11 -77.47749999999999 77.56125 -76.02624999999999 L85.785 -67.64124999999999 Z"/></g><g id="Light-L" transform="matrix(1 0 0 1 1082.77 1556)"><path d="M21.769072500000004 19.966842500000016 Q17.9609925 19.966842500000016 15.213615 17.219465000000014 Q12.4662375 14.472087500000015 12.4662375 10.664007500000015 V-65.45792499999999 Q12.4662375 -67.05800875 13.4956575 -68.08758999999999 Q14.52523875 -69.11701 16.12516125 -69.11701 Q17.725245 -69.11701 18.75482625 -68.08758999999999 Q19.78424625 -67.05800875 19.78424625 -65.45792499999999 V10.664007500000015 Q19.78424625 11.532338750000015 20.34249375 12.090586250000015 Q20.90074125 12.648833750000016 21.769072500000004 12.648833750000016 H103.94416875 Q105.4823325 12.648833750000016 106.54271250000001 13.678253750000014 Q107.60325375000001 14.707835000000017 107.60325375000001 16.307918750000017 Q107.60325375000001 17.907841250000015 106.54271250000001 18.937422500000014 Q105.4823325 19.966842500000016 103.94416875 19.966842500000016 H21.769072500000004 Z M39.630412500000006 2.1055025000000143 Q35.82249375 2.1055025000000143 33.07511625 -0.6420362499999825 Q30.3275775 -3.3894137499999815 30.3275775 -7.1973324999999875 V-65.56951 Q30.3275775 -68.261095 31.66095375 -70.55584375 Q32.994330000000005 -72.85043124999999 35.12782875 -74.17767999999998 L86.33067 -105.16235124999997 L97.01041875 -99.56826625 L91.81333125 -93.75101125 L86.33067 -96.36825999999999 L39.03491625 -67.39292499999999 L86.33067 -36.97875624999999 L133.62642375000001 -67.39292499999999 L125.787255 -72.18075999999999 L131.34393 -77.73759625 L137.53351125 -74.17767999999998 Q140.38650750000002 -72.5900125 141.360135 -70.42555374999999 Q142.3337625 -68.261095 142.3337625 -65.56951 V-7.1973324999999875 Q142.3337625 -3.3894137499999815 139.586385 -0.6420362499999825 Q136.8390075 2.1055025000000143 133.03092750000002 2.1055025000000143 H39.630412500000006 Z M84.85458750000001 -62.8034275  117.241005 -95.12776374999999 Q118.32009000000001 -96.20684874999998 119.78988375000002 -96.18830499999999 Q121.25983875 -96.16959999999997 122.40084375 -95.028595 Q123.54201 -93.88742875 123.54201 -92.39892999999998 Q123.54201 -90.9105925 122.40084375 -89.76942624999998 L88.11683625 -55.485418749999994 Q86.72766750000001 -54.09608874999999 84.88570875 -54.09608874999999 Q83.04375 -54.09608874999999 81.65442 -55.485418749999994 L71.14849875 -65.99134 Q70.06941375 -67.07042499999999 70.11907875 -68.58988375 Q70.1685825 -70.1093425 71.2476675 -71.25034749999998 Q72.38883375 -72.39151374999997 73.9082925 -72.39151374999997 Q75.42775125 -72.39151374999997 76.5689175 -71.25034749999998 L84.85458750000001 -62.8034275 Z"/></g><g id="Thin-L" transform="matrix(1 0 0 1 787.282 1556)"><path d="M25.8 17.114330000000017 Q22.054001250000002 17.114330000000017 19.461585 14.521913750000014 Q16.86916875 11.929497500000014 16.86916875 8.183498750000012 V-62.79133374999999 Q16.86916875 -63.89525124999999 17.557545 -64.58378874999998 Q18.2460825 -65.27216499999999 19.35 -65.27216499999999 Q20.453917500000003 -65.27216499999999 21.14229375 -64.58378874999998 Q21.830669999999998 -63.89525124999999 21.830669999999998 -62.79133374999999 V8.183498750000012 Q21.830669999999998 9.920000000000016 22.94700375 11.036333750000015 Q24.06349875 12.152667500000014 25.8 12.152667500000014 H103.88224875 Q104.862165 12.152667500000014 105.6126225 12.841043750000015 Q106.36291875 13.529581250000014 106.36291875 14.633498750000015 Q106.36291875 15.737416250000013 105.6126225 16.425792500000014 Q104.862165 17.114330000000017 103.88224875 17.114330000000017 H25.8 Z M42.1730025 0.7411662500000133 Q38.42700375 0.7411662500000133 35.83474875 -1.851249999999986 Q33.2423325 -4.4436662499999855 33.2423325 -8.189664999999984 V-61.72466499999999 Q33.2423325 -64.04424624999999 34.296585 -65.81170749999998 Q35.35099875 -67.57932999999998 37.360335 -68.78241624999998 L85.58650125 -97.53458124999997 L95.33599875 -92.31266124999999 L91.87525125 -88.41782874999998 L85.58650125 -91.717165 L39.531082500000004 -63.92008374999999 L85.58650125 -35.180334999999985 L131.64208125 -63.92008374999999 L123.0585825 -69.14216499999999 L126.75491625000001 -72.83849874999999 L133.8126675 -68.78241624999998 Q136.29349875 -67.38083124999999 137.112165 -65.71253874999998 Q137.93083125 -64.04424624999999 137.93083125 -61.72466499999999 V-8.189664999999984 Q137.93083125 -4.4436662499999855 135.338415 -1.851249999999986 Q132.74599875 0.7411662500000133 129.0 0.7411662500000133 H42.1730025 Z M83.9244975 -57.96624999999999  115.3185825 -89.23649499999999 Q116.02566375 -89.94341499999999 117.03025125 -89.98679124999998 Q118.035 -90.03032875 118.8660825 -89.19924624999999 Q119.697165 -88.36816374999998 119.697165 -87.40679125 Q119.697165 -86.44557999999998 118.8660825 -85.61449749999998 L87.06258375 -53.81099874999998 Q85.735335 -52.483749999999986 83.9864175 -52.483749999999986 Q82.2375 -52.483749999999986 80.91025125 -53.81099874999998 L71.83058625000001 -62.89066374999999 Q71.12366625 -63.597583749999984 71.14221 -64.62103749999999 Q71.160915 -65.64432999999998 71.867835 -66.47541249999999 Q72.69891750000001 -67.30633375 73.72221 -67.30633375 Q74.74566375 -67.30633375 75.57658500000001 -66.47541249999999 L83.9244975 -57.96624999999999 Z"/></g><g id="Ultralight-L" transform="matrix(1 0 0 1 491.205 1556)"><path d="M28.21875 15.402500000000014 Q24.51 15.402500000000014 22.010625 12.903125000000014 Q19.51125 10.403750000000016 19.51125 6.6950000000000145 V-61.19124999999998 Q19.51125 -61.99749999999999 19.995 -62.48124999999999 Q20.47875 -62.96499999999999 21.285 -62.96499999999999 Q22.091250000000002 -62.96499999999999 22.575 -62.48124999999999 Q23.05875 -61.99749999999999 23.05875 -61.19124999999998 V6.6950000000000145 Q23.05875 8.952500000000015 24.51 10.403750000000016 Q25.96125 11.855000000000015 28.21875 11.855000000000015 H103.845 Q104.49000000000001 11.855000000000015 105.05437500000001 12.338750000000015 Q105.61875 12.822500000000016 105.61875 13.628750000000014 Q105.61875 14.435000000000016 105.05437500000001 14.918750000000014 Q104.49000000000001 15.402500000000014 103.845 15.402500000000014 H28.21875 Z M43.698750000000004 -0.07749999999998636 Q39.99 -0.07749999999998636 37.490625 -2.576874999999987 Q34.99125 -5.0762499999999875 34.99125 -8.784999999999982 V-59.41749999999999 Q34.99125 -61.51374999999999 35.878125000000004 -62.96499999999999 Q36.765 -64.41624999999999 38.7 -65.54499999999999 L85.14 -92.95749999999998 L94.33125 -87.95874999999998 L91.91250000000001 -85.21749999999999 L85.14 -88.92624999999998 L39.82875 -61.83624999999999 L85.14 -34.10124999999999 L130.45125000000002 -61.83624999999999 L121.42125 -67.31874999999998 L124.00125 -69.89874999999999 L131.58 -65.54499999999999 Q133.8375 -64.25499999999998 134.563125 -62.88437499999999 Q135.28875 -61.51374999999999 135.28875 -59.41749999999999 V-8.784999999999982 Q135.28875 -5.0762499999999875 132.789375 -2.576874999999987 Q130.29 -0.07749999999998636 126.58125 -0.07749999999998636 H43.698750000000004 Z M83.36625000000001 -55.063749999999985  114.165 -85.70124999999999 Q114.64875 -86.18499999999997 115.374375 -86.265625 Q116.10000000000001 -86.34625 116.745 -85.70124999999999 Q117.39 -85.05624999999999 117.39 -84.41124999999998 Q117.39 -83.76624999999999 116.745 -83.12124999999999 L86.43 -52.80624999999999 Q85.14 -51.516249999999985 83.446875 -51.516249999999985 Q81.75375 -51.516249999999985 80.46375 -52.80624999999999 L72.24000000000001 -61.02999999999999 Q71.75625000000001 -61.51374999999999 71.75625000000001 -62.23937499999998 Q71.75625000000001 -62.96499999999999 72.24000000000001 -63.609999999999985 Q72.885 -64.25499999999998 73.610625 -64.25499999999998 Q74.33625 -64.25499999999998 74.98125 -63.609999999999985 L83.36625000000001 -55.063749999999985 Z"/></g><g id="Bold-M" transform="matrix(1 0 0 1 2281.8 1126)"><path d="M16.875 14.52000000000001 Q10.25 14.52000000000001 5.6875 9.95750000000001 Q1.125 5.39500000000001 1.125 -1.2299999999999898 V-56.35499999999999 Q1.125 -59.60499999999999 3.4375 -61.91749999999999 Q5.75 -64.22999999999999 9.0 -64.22999999999999 Q12.25 -64.22999999999999 14.5625 -61.91749999999999 Q16.875 -59.60499999999999 16.875 -56.35499999999999 V-1.2299999999999898 Q16.875 -1.2299999999999898 16.875 -1.2299999999999898 Q16.875 -1.2299999999999898 16.875 -1.2299999999999898 H85.0 Q88.25 -1.2299999999999898 90.5625 1.0825000000000102 Q92.875 3.3950000000000102 92.875 6.64500000000001 Q92.875 9.89500000000001 90.5625 12.20750000000001 Q88.25 14.52000000000001 85.0 14.52000000000001 H16.875 Z M40.75 -11.22999999999999 Q35.0265 -11.22999999999999 30.95075 -15.22999999999999 Q26.875 -19.22999999999999 26.875 -24.97999999999999 V-61.97999999999999 Q26.875 -66.97999999999999 28.6875 -70.66749999999999 Q30.5 -74.35499999999999 34.5 -76.47999999999999 L72.875 -96.22999999999999 L85.75 -89.47999999999999 L75.375 -79.22999999999999 L72.875 -80.60499999999999 L41.0 -64.22999999999999 L72.875 -47.72999999999999 L104.75 -64.22999999999999 L99.0 -67.22999999999999 L109.25 -77.60499999999999 L111.25 -76.47999999999999 Q115.0 -73.97999999999999 116.9375 -70.47999999999999 Q118.875 -66.97999999999999 118.875 -61.97999999999999 V-24.97999999999999 Q118.875 -19.22999999999999 114.79925 -15.22999999999999 Q110.723375 -11.22999999999999 105.0 -11.22999999999999 H40.75 Z M72.75 -65.72999999999999  92.5 -85.47999999999999 Q93.875 -86.85499999999999 96.0 -86.85499999999999 Q98.125 -86.85499999999999 99.5 -85.47999999999999 Q100.875 -84.10499999999999 100.875 -81.97999999999999 Q100.875 -79.85499999999999 99.5 -78.47999999999999 L78.375 -57.35499999999999 Q75.9545 -54.97999999999999 72.72725 -54.97999999999999 Q69.5 -54.97999999999999 67.125 -57.35499999999999 L62.25 -62.22999999999999 Q60.875 -63.60499999999999 60.875 -65.72999999999999 Q60.875 -67.85499999999999 62.25 -69.22999999999999 Q63.625 -70.60499999999999 65.75 -70.60499999999999 Q67.875 -70.60499999999999 69.25 -69.22999999999999 L72.75 -65.72999999999999 Z"/></g><g id="Semibold-M" transform="matrix(1 0 0 1 1985.97 1126)"><path d="M16.059875 12.45487500000001 Q10.52175 12.45487500000001 6.66575 8.59887500000001 Q2.809625 4.742875000000009 2.809625 -0.7952499999999887 V-58.03962499999999 Q2.809625 -60.800625 4.74175 -62.732624999999985 Q6.673875 -64.66474999999998 9.43475 -64.66474999999998 Q12.195625 -64.66474999999998 14.12775 -62.732624999999985 Q16.059875 -60.800625 16.059875 -58.03962499999999 V-0.7952499999999887 Q16.059875 -0.7952499999999887 16.059875 -0.7952499999999887 Q16.059875 -0.7952499999999887 16.059875 -0.7952499999999887 H85.0 Q87.760875 -0.7952499999999887 89.693 1.1368750000000105 Q91.625125 3.068875000000009 91.625125 5.829875000000012 Q91.625125 8.59075000000001 89.693 10.52287500000001 Q87.760875 12.45487500000001 85.0 12.45487500000001 H16.059875 Z M38.250125 -10.795249999999989 Q33.221625 -10.795249999999989 29.64075 -14.33337499999999 Q26.059875 -17.871374999999986 26.059875 -22.914874999999988 V-62.306124999999994 Q26.059875 -66.27349999999998 27.600625 -69.39037499999999 Q29.141375 -72.50724999999998 32.434875 -74.30624999999999 L71.625125 -95.79525 L84.228375 -88.82787499999999 L75.10325 -79.88212499999999 L71.625125 -81.85487499999999 L38.82625 -63.903874999999985 L71.625125 -45.882249999999985 L104.423875 -63.903874999999985 L98.239125 -67.33874999999999 L107.184875 -76.35512499999999 L110.81525 -74.30624999999999 Q113.9675 -72.29537499999999 115.578875 -69.28437499999998 Q117.190375 -66.27349999999998 117.190375 -62.306124999999994 V-22.914874999999988 Q117.190375 -17.871374999999986 113.609375 -14.33337499999999 Q110.0285 -10.795249999999989 105.0 -10.795249999999989 H38.250125 Z M71.228375 -65.07787499999999  90.978375 -84.82787499999999 Q92.353375 -86.20287499999999 94.478375 -86.20287499999999 Q96.603375 -86.20287499999999 97.978375 -84.82787499999999 Q99.353375 -83.45287499999999 99.353375 -81.32787499999999 Q99.353375 -79.20287499999999 97.978375 -77.82787499999999 L75.9295 -55.778999999999996 Q73.90925 -53.78437499999998 71.2155 -53.78437499999998 Q68.52175 -53.78437499999998 66.52725 -55.778999999999996 L60.728375 -61.57787499999999 Q59.353375 -62.95287499999999 59.353375 -65.07787499999999 Q59.353375 -67.20287499999999 60.728375 -68.57787499999999 Q62.103375 -69.95287499999999 64.228375 -69.95287499999999 Q66.353375 -69.95287499999999 67.728375 -68.57787499999999 L71.228375 -65.07787499999999 Z"/></g><g id="Medium-M" transform="matrix(1 0 0 1 1689.91 1126)"><path d="M15.448375 10.90587500000001 Q10.7255 10.90587500000001 7.3995 7.579750000000011 Q4.073375 4.253750000000011 4.073375 -0.46912499999999113 V-59.30337499999999 Q4.073375 -61.697374999999994 5.720125 -63.34412499999999 Q7.366875 -64.99087499999999 9.760875 -64.99087499999999 Q12.154875 -64.99087499999999 13.801625 -63.34412499999999 Q15.448375 -61.697374999999994 15.448375 -59.30337499999999 V-0.46912499999999113 Q15.448375 -0.46912499999999113 15.448375 -0.46912499999999113 Q15.448375 -0.46912499999999113 15.448375 -0.46912499999999113 H85.0 Q87.394 -0.46912499999999113 89.04075 1.1776250000000097 Q90.6875 2.8243750000000105 90.6875 5.218375000000009 Q90.6875 7.612375000000011 89.04075 9.25912500000001 Q87.394 10.90587500000001 85.0 10.90587500000001 H15.448375 Z M36.375 -10.469124999999991 Q31.86775 -10.469124999999991 28.658125 -13.660749999999993 Q25.448375 -16.85224999999999 25.448375 -21.36587499999999 V-62.550625 Q25.448375 -65.743625 26.785375 -68.43249999999999 Q28.12225 -71.12137499999999 30.885875 -72.675625 L70.6875 -95.46912499999999 L83.087 -88.33874999999999 L74.8995 -80.37124999999999 L70.6875 -82.79249999999999 L37.195625 -63.65937499999998 L70.6875 -44.496374999999986 L104.179375 -63.65937499999998 L97.6685 -67.42025 L105.635875 -75.41749999999999 L110.489125 -72.675625 Q113.193 -71.03162499999999 114.55975 -68.38762499999999 Q115.926625 -65.743625 115.926625 -62.550625 V-21.36587499999999 Q115.926625 -16.85224999999999 112.717 -13.660749999999993 Q109.50725 -10.469124999999991 105.0 -10.469124999999991 H36.375 Z M70.087 -64.58874999999999  89.837 -84.33874999999999 Q91.212 -85.71374999999999 93.337 -85.71374999999999 Q95.462 -85.71374999999999 96.837 -84.33874999999999 Q98.212 -82.96374999999999 98.212 -80.83874999999999 Q98.212 -78.71374999999999 96.837 -77.33874999999999 L74.095125 -54.59687499999998 Q72.375 -52.887624999999986 70.0815 -52.887624999999986 Q67.788 -52.887624999999986 66.07875 -54.59687499999998 L59.587 -61.08874999999999 Q58.212 -62.46374999999999 58.212 -64.58874999999999 Q58.212 -66.71374999999999 59.587 -68.08874999999999 Q60.962 -69.46374999999999 63.087 -69.46374999999999 Q65.212 -69.46374999999999 66.587 -68.08874999999999 L70.087 -64.58874999999999 Z"/></g><g id="Regular-M" transform="matrix(1 0 0 1 1394.06 1126)"><path d="M15.0 9.77000000000001 Q10.875 9.77000000000001 7.9375 6.83250000000001 Q5.0 3.8950000000000102 5.0 -0.22999999999998977 V-60.22999999999999 Q5.0 -62.35499999999999 6.4375 -63.79249999999999 Q7.875 -65.22999999999999 10.0 -65.22999999999999 Q12.125 -65.22999999999999 13.5625 -63.79249999999999 Q15.0 -62.35499999999999 15.0 -60.22999999999999 V-0.22999999999998977 Q15.0 -0.22999999999998977 15.0 -0.22999999999998977 Q15.0 -0.22999999999998977 15.0 -0.22999999999998977 H85.0 Q87.125 -0.22999999999998977 88.5625 1.2075000000000102 Q90.0 2.6450000000000102 90.0 4.77000000000001 Q90.0 6.89500000000001 88.5625 8.33250000000001 Q87.125 9.77000000000001 85.0 9.77000000000001 H15.0 Z M35.0 -10.22999999999999 Q30.875 -10.22999999999999 27.9375 -13.16749999999999 Q25.0 -16.10499999999999 25.0 -20.22999999999999 V-62.72999999999999 Q25.0 -65.35499999999999 26.1875 -67.72999999999999 Q27.375 -70.10499999999999 29.75 -71.47999999999999 L70.0 -95.22999999999999 L82.25 -87.97999999999999 L74.75 -80.72999999999999 L70.0 -83.47999999999999 L36.0 -63.47999999999999 L70.0 -43.47999999999999 L104.0 -63.47999999999999 L97.25 -67.47999999999999 L104.5 -74.72999999999999 L110.25 -71.47999999999999 Q112.625 -70.10499999999999 113.8125 -67.72999999999999 Q115.0 -65.35499999999999 115.0 -62.72999999999999 V-20.22999999999999 Q115.0 -16.10499999999999 112.0625 -13.16749999999999 Q109.125 -10.22999999999999 105.0 -10.22999999999999 H35.0 Z M69.25 -64.22999999999999  89.0 -83.97999999999999 Q90.375 -85.35499999999999 92.5 -85.35499999999999 Q94.625 -85.35499999999999 96.0 -83.97999999999999 Q97.375 -82.60499999999999 97.375 -80.47999999999999 Q97.375 -78.35499999999999 96.0 -76.97999999999999 L72.75 -53.72999999999999 Q71.25 -52.22999999999999 69.25 -52.22999999999999 Q67.25 -52.22999999999999 65.75 -53.72999999999999 L58.75 -60.72999999999999 Q57.375 -62.10499999999999 57.375 -64.22999999999999 Q57.375 -66.35499999999999 58.75 -67.72999999999999 Q60.125 -69.10499999999999 62.25 -69.10499999999999 Q64.375 -69.10499999999999 65.75 -67.72999999999999 L69.25 -64.22999999999999 Z"/></g><g id="Light-M" transform="matrix(1 0 0 1 1098.18 1126)"><path d="M17.788625 7.558250000000012 Q14.00025 7.558250000000012 11.37525 4.933375000000009 Q8.75025 2.3083750000000087 8.75025 -1.4801249999999904 V-58.306749999999994 Q8.75025 -59.902874999999995 9.827125 -60.979749999999996 Q10.904125 -62.056749999999994 12.500125 -62.056749999999994 Q14.09625 -62.056749999999994 15.17325 -60.979749999999996 Q16.250125 -59.902874999999995 16.250125 -58.306749999999994 V-1.4801249999999904 Q16.250125 -0.8069999999999915 16.682875 -0.3742499999999893 Q17.1155 0.05850000000000932 17.788625 0.05850000000000932 H83.749875 Q85.346 0.05850000000000932 86.422875 1.1353750000000105 Q87.499875 2.2122500000000116 87.499875 3.8083750000000087 Q87.499875 5.404500000000009 86.422875 6.4813750000000105 Q85.346 7.558250000000012 83.749875 7.558250000000012 H17.788625 Z M35.2885 -9.94149999999999 Q31.5 -9.94149999999999 28.875125 -12.56649999999999 Q26.250125 -15.19149999999999 26.250125 -18.979874999999993 V-59.460499999999996 Q26.250125 -61.748999999999995 27.22125 -63.64312499999998 Q28.192375 -65.53737499999998 30.327 -66.76812499999998 L68.749875 -89.36412499999999 L79.41325 -83.07574999999999 L73.8365 -77.652875 L68.749875 -80.595125 L34.749875 -60.595124999999996 L68.749875 -40.595124999999996 L102.749875 -60.595124999999996 L95.7595 -64.7875 L101.1825 -70.2105 L107.172875 -66.76812499999998 Q109.3075 -65.53737499999998 110.278625 -63.64312499999998 Q111.24975 -61.748999999999995 111.24975 -59.460499999999996 V-18.979874999999993 Q111.24975 -15.19149999999999 108.62475 -12.56649999999999 Q105.99975 -9.94149999999999 102.211375 -9.94149999999999 H35.2885 Z M67.807625 -59.42199999999998  88.423 -80.03737499999998 Q89.4615 -81.075875 91.0335 -81.09987499999998 Q92.605625 -81.12387499999998 93.692125 -80.03737499999998 Q94.778625 -78.950875 94.778625 -77.402875 Q94.778625 -75.85487499999999 93.692125 -74.76825 L70.971 -52.047124999999994 Q69.61525 -50.691374999999994 67.807625 -50.691374999999994 Q65.999875 -50.691374999999994 64.644125 -52.047124999999994 L58.173 -58.518249999999995 Q57.134625 -59.556749999999994 57.1105 -61.12875 Q57.0865 -62.700874999999996 58.173 -63.78737499999998 Q59.2595 -64.87387499999998 60.807625 -64.87387499999998 Q62.355625 -64.87387499999998 63.442125 -63.78737499999998 L67.807625 -59.42199999999998 Z"/></g><g id="Thin-M" transform="matrix(1 0 0 1 802.565 1126)"><path d="M20.576875 5.347000000000012 Q17.125 5.347000000000012 14.8125 3.034500000000012 Q12.5 0.722000000000012 12.5 -2.7299999999999898 V-56.38387499999999 Q12.5 -57.45112499999999 13.21625 -58.16749999999999 Q13.932625 -58.88387499999999 15.0 -58.88387499999999 Q16.06725 -58.88387499999999 16.783625 -58.16749999999999 Q17.5 -57.45112499999999 17.5 -56.38387499999999 V-2.7299999999999898 Q17.5 -1.383874999999989 18.365375 -0.5184999999999889 Q19.23075 0.34687500000001137 20.576875 0.34687500000001137 H82.5 Q83.567375 0.34687500000001137 84.283625 1.0632500000000107 Q85.0 1.77962500000001 85.0 2.8468750000000114 Q85.0 3.9142500000000098 84.283625 4.630625000000009 Q83.567375 5.347000000000012 82.5 5.347000000000012 H20.576875 Z M35.576875 -9.653124999999989 Q32.125 -9.653124999999989 29.8125 -11.965624999999989 Q27.5 -14.278124999999989 27.5 -17.72999999999999 V-56.19162499999999 Q27.5 -58.14349999999999 28.25475 -59.55699999999999 Q29.009625 -60.97049999999999 30.903875 -62.05699999999999 L67.5 -83.49924999999999 L76.577 -78.17237499999999 L72.923125 -74.57624999999999 L67.5 -77.71074999999999 L33.5 -57.71074999999999 L67.5 -37.71074999999999 L101.5 -57.71074999999999 L94.26925 -62.09537499999999 L97.865375 -65.69162499999999 L104.09625 -62.05699999999999 Q105.990375 -60.97049999999999 106.74525 -59.55699999999999 Q107.5 -58.14349999999999 107.5 -56.19162499999999 V-17.72999999999999 Q107.5 -14.278124999999989 105.1875 -11.965624999999989 Q102.875 -9.653124999999989 99.423125 -9.653124999999989 H35.576875 Z M66.365375 -54.61462499999999  87.846125 -76.09537499999999 Q88.548125 -76.79737499999999 89.567375 -76.84537499999999 Q90.586625 -76.89349999999999 91.384625 -76.09537499999999 Q92.18275 -75.29737499999999 92.18275 -74.32624999999999 Q92.18275 -73.35499999999999 91.384625 -72.55699999999999 L69.192375 -50.36462499999999 Q67.98075 -49.15312499999999 66.365375 -49.15312499999999 Q64.75 -49.15312499999999 63.5385 -50.36462499999999 L57.596125 -56.30699999999999 Q56.89425 -57.00887499999999 56.846125 -58.02812499999999 Q56.798125 -59.04737499999999 57.596125 -59.84537499999999 Q58.39425 -60.64349999999999 59.365375 -60.64349999999999 Q60.336625 -60.64349999999999 61.134625 -59.84537499999999 L66.365375 -54.61462499999999 Z"/></g><g id="Ultralight-M" transform="matrix(1 0 0 1 506.415 1126)"><path d="M22.25 4.02000000000001 Q19.0 4.02000000000001 16.875 1.8950000000000102 Q14.75 -0.22999999999998977 14.75 -3.4799999999999898 V-55.22999999999999 Q14.75 -55.97999999999999 15.25 -56.47999999999999 Q15.75 -56.97999999999999 16.5 -56.97999999999999 Q17.25 -56.97999999999999 17.75 -56.47999999999999 Q18.25 -55.97999999999999 18.25 -55.22999999999999 V-3.4799999999999898 Q18.25 -1.7299999999999898 19.375 -0.6049999999999898 Q20.5 0.5200000000000102 22.25 0.5200000000000102 H81.75 Q82.5 0.5200000000000102 83.0 1.0200000000000102 Q83.5 1.5200000000000102 83.5 2.2700000000000102 Q83.5 3.0200000000000102 83.0 3.5200000000000102 Q82.5 4.02000000000001 81.75 4.02000000000001 H22.25 Z M35.75 -9.47999999999999 Q32.5 -9.47999999999999 30.375 -11.60499999999999 Q28.25 -13.72999999999999 28.25 -16.97999999999999 V-54.22999999999999 Q28.25 -55.97999999999999 28.875 -57.10499999999999 Q29.5 -58.22999999999999 31.25 -59.22999999999999 L66.75 -79.97999999999999 L74.875 -75.22999999999999 L72.375 -72.72999999999999 L66.75 -75.97999999999999 L32.75 -55.97999999999999 L66.75 -35.97999999999999 L100.75 -55.97999999999999 L93.375 -60.47999999999999 L95.875 -62.97999999999999 L102.25 -59.22999999999999 Q104.0 -58.22999999999999 104.625 -57.10499999999999 Q105.25 -55.97999999999999 105.25 -54.22999999999999 V-16.97999999999999 Q105.25 -13.72999999999999 103.125 -11.60499999999999 Q101.0 -9.47999999999999 97.75 -9.47999999999999 H35.75 Z M65.5 -51.72999999999999  87.5 -73.72999999999999 Q88.0 -74.22999999999999 88.6875 -74.29249999999999 Q89.375 -74.35499999999999 90.0 -73.72999999999999 Q90.625 -73.10499999999999 90.625 -72.47999999999999 Q90.625 -71.85499999999999 90.0 -71.22999999999999 L68.125 -49.35499999999999 Q67.0 -48.22999999999999 65.5 -48.22999999999999 Q64.0 -48.22999999999999 62.875 -49.35499999999999 L57.25 -54.97999999999999 Q56.75 -55.47999999999999 56.6875 -56.16749999999999 Q56.625 -56.85499999999999 57.25 -57.47999999999999 Q57.875 -58.10499999999999 58.5 -58.10499999999999 Q59.125 -58.10499999999999 59.75 -57.47999999999999 L65.5 -51.72999999999999 Z"/></g><g id="Bold-S" transform="matrix(1 0 0 1 2294.23 696)"><path d="M13.314375 1.6557500000000136 Q8.48175 1.6557500000000136 5.079187500000001 -1.7468124999999866 Q1.676625 -5.1493749999999885 1.676625 -9.981999999999989 V-52.292124999999984 Q1.676625 -54.65912499999999 3.4025625 -56.38506249999999 Q5.1285 -58.11099999999999 7.495500000000001 -58.11099999999999 Q9.8625 -58.11099999999999 11.588437500000001 -56.38506249999999 Q13.314375 -54.65912499999999 13.314375 -52.292124999999984 V-9.981999999999989 Q13.314375 -9.981999999999989 13.314375 -9.981999999999989 Q13.314375 -9.981999999999989 13.314375 -9.981999999999989 H67.4595 Q69.82650000000001 -9.981999999999989 71.5524375 -8.256062499999988 Q73.278375 -6.5301249999999875 73.278375 -4.163124999999987 Q73.278375 -1.7961249999999875 71.5524375 -0.07018749999998697 Q69.82650000000001 1.6557500000000136 67.4595 1.6557500000000136 H13.314375 Z M30.57375 -17.082999999999988 Q26.4524085 -17.082999999999988 23.43389175 -20.041749999999986 Q20.415375 -23.000499999999988 20.415375 -27.142749999999985 V-57.42062499999999 Q20.415375 -61.365624999999994 21.845437500000003 -63.880562499999996 Q23.2755 -66.39549999999998 26.23425 -68.07212499999999 L56.709375 -83.359 L65.388375 -79.0195 L57.794250000000005 -71.42537499999999 L56.709375 -72.017125 L29.982000000000003 -58.30824999999999 L56.709375 -44.59937499999999 L83.43675 -58.30824999999999 L77.7165 -61.266999999999996 L85.40925 -69.157 L87.1845 -68.07212499999999 Q90.04462500000001 -66.09962499999999 91.524 -63.732624999999985 Q93.003375 -61.365624999999994 93.003375 -57.42062499999999 V-27.142749999999985 Q93.003375 -23.000499999999988 89.98485825 -20.041749999999986 Q86.966242875 -17.082999999999988 82.845 -17.082999999999988 H30.57375 Z M57.005250000000004 -60.67524999999999  72.9825 -76.55387499999999 Q74.067375 -77.63874999999999 75.448125 -77.63874999999999 Q76.828875 -77.63874999999999 77.91375000000001 -76.55387499999999 Q78.998625 -75.469 78.998625 -74.03893749999999 Q78.998625 -72.60887499999998 77.91375000000001 -71.52399999999999 L61.1475 -54.75774999999999 Q59.3363505 -52.98249999999999 56.987300250000004 -52.98249999999999 Q54.63825 -52.98249999999999 52.863 -54.75774999999999 L49.411125000000006 -58.20962499999999 Q48.32625 -59.294499999999985 48.3755625 -60.72456249999999 Q48.424875 -62.154624999999996 49.509750000000004 -63.23949999999999 Q50.594625 -64.32437499999999 52.0246875 -64.32437499999999 Q53.454750000000004 -64.32437499999999 54.539625 -63.23949999999999 L57.005250000000004 -60.67524999999999 Z"/></g><g id="Semibold-S" transform="matrix(1 0 0 1 1998.1 696)"><path d="M12.671241375000001 0.02636637500001271 Q8.69616075 0.02636637500001271 5.85102675 -2.818767624999987 Q3.005794125 -5.663901624999987 3.005794125 -9.638982249999987 V-53.62129412499999 Q3.005794125 -55.60247312499999 4.43161575 -57.02819612499998 Q5.857437375 -58.45401774999999 7.838517749999999 -58.45401774999999 Q9.819598125 -58.45401774999999 11.245419750000002 -57.02819612499998 Q12.671241375000001 -55.60247312499999 12.671241375000001 -53.62129412499999 V-9.638982249999987 Q12.671241375000001 -9.638982249999987 12.671241375000001 -9.638982249999987 Q12.671241375000001 -9.638982249999987 12.671241375000001 -9.638982249999987 H67.4595 Q69.440580375 -9.638982249999987 70.86640200000001 -8.213160624999986 Q72.292223625 -6.787437624999988 72.292223625 -4.8062586249999875 Q72.292223625 -2.8251782499999862 70.86640200000001 -1.399356624999987 Q69.440580375 0.02636637500001271 67.4595 0.02636637500001271 H12.671241375000001 Z M28.601348625 -16.739982249999986 Q25.028362125 -16.739982249999986 22.40030175 -19.334312874999988 Q19.772241375000004 -21.928544874999986 19.772241375000004 -25.51336637499999 V-57.677937625 Q19.772241375000004 -60.80819649999998 20.987893125000003 -62.87291087499999 Q22.203544875000002 -64.93762524999998 24.604866375000004 -66.35703625 L55.723223625 -83.01598225 L64.187812875 -78.50497337499999 L57.579839250000006 -71.93990162499999 L55.723223625 -73.003276375 L28.266911250000003 -58.05093737499999 L55.723223625 -43.141500249999986 L83.179437375 -58.05093737499999 L77.116169625 -61.35280374999999 L83.77986637500001 -68.17084862499999 L86.84148225000001 -66.35703625 Q89.2299825 -64.770455875 90.452044875 -62.789276874999985 Q91.67420587500001 -60.80819649999998 91.67420587500001 -57.677937625 V-25.51336637499999 Q91.67420587500001 -21.928544874999986 89.046046875 -19.334312874999988 Q86.4179865 -16.739982249999986 82.845 -16.739982249999986 H28.601348625 Z M55.804687875 -60.16072337499999  71.781937875 -76.03934837499999 Q72.86681287500001 -77.12422337499999 74.247562875 -77.12422337499999 Q75.628312875 -77.12422337499999 76.713187875 -76.03934837499999 Q77.798062875 -74.95447337499999 77.798062875 -73.52441087499999 Q77.798062875 -72.094348375 76.713187875 -71.00947337499998 L59.21800050000001 -53.514286 Q57.722648250000006 -52.03915187499999 55.79452950000001 -52.03915187499999 Q53.86641075 -52.03915187499999 52.391375249999996 -53.514286 L48.210562875 -57.695098374999986 Q47.125687875000004 -58.779973375 47.175000375 -60.21003587499999 Q47.224312875 -61.640098374999994 48.309187875 -62.72497337499999 Q49.394062875 -63.80984837499999 50.824125375 -63.80984837499999 Q52.254187875 -63.80984837499999 53.339062875 -62.72497337499999 L55.804687875 -60.16072337499999 Z"/></g><g id="Medium-S" transform="matrix(1 0 0 1 1701.85 696)"><path d="M12.188767875000002 -1.195794624999989 Q8.8569195 -1.195794624999989 6.4299555 -3.6228572499999867 Q4.002892875000001 -6.049821249999987 4.002892875000001 -9.38166962499999 V-54.618392874999984 Q4.002892875000001 -56.310008874999994 5.2035536250000005 -57.51066962499999 Q6.4042143750000005 -58.71133037499999 8.095830375 -58.71133037499999 Q9.787446375 -58.71133037499999 10.988107125 -57.51066962499999 Q12.188767875000002 -56.310008874999994 12.188767875000002 -54.618392874999984 V-9.38166962499999 Q12.188767875000002 -9.38166962499999 12.188767875000002 -9.38166962499999 Q12.188767875000002 -9.38166962499999 12.188767875000002 -9.38166962499999 H67.4595 Q69.151116 -9.38166962499999 70.35177675 -8.18100887499999 Q71.5524375 -6.980348124999988 71.5524375 -5.288732124999989 Q71.5524375 -3.597116124999987 70.35177675 -2.396455374999986 Q69.151116 -1.195794624999989 67.4595 -1.195794624999989 H12.188767875000002 Z M27.121875000000003 -16.48266962499999 Q23.96015475 -16.48266962499999 21.625010624999998 -18.80361174999999 Q19.289767875 -21.12445524999999 19.289767875 -24.29120537499999 V-57.870848124999995 Q19.289767875 -60.390125125 20.344660875 -62.11714749999999 Q21.399455250000003 -63.84416987499999 23.382705375 -65.07047312499999 L54.9834375 -82.758669625 L63.287268000000005 -78.11905374999999 L57.41908050000001 -72.32582124999999 L54.9834375 -73.7430625 L26.980348125000003 -57.85802687499998 L54.9834375 -42.04804487499999 L82.986526875 -57.85802687499998 L76.6659465 -61.41710725 L82.557705375 -67.4310625 L86.584169625 -65.07047312499999 Q88.618902 -63.77335712499999 89.64795525 -62.08174112499998 Q90.677107125 -60.390125125 90.677107125 -57.870848124999995 V-24.29120537499999 Q90.677107125 -21.12445524999999 88.341963 -18.80361174999999 Q86.00672025 -16.48266962499999 82.845 -16.48266962499999 H27.121875000000003 Z M54.904143000000005 -59.77480374999999  70.881393 -75.65342874999999 Q71.966268 -76.73830374999999 73.347018 -76.73830374999999 Q74.72776800000001 -76.73830374999999 75.81264300000001 -75.65342874999999 Q76.897518 -74.56855374999999 76.897518 -73.13849124999999 Q76.897518 -71.70842875 75.81264300000001 -70.62355374999999 L57.770678625 -52.58158937499998 Q56.512125000000005 -51.33161612499999 54.899803500000004 -51.33161612499999 Q53.287482 -51.33161612499999 52.03750875 -52.58158937499998 L47.31001800000001 -57.30917874999999 Q46.225143 -58.39405374999998 46.2744555 -59.82411624999999 Q46.323768 -61.254178749999994 47.408643000000005 -62.33905374999999 Q48.493518 -63.42392874999999 49.92358050000001 -63.42392874999999 Q51.353643000000005 -63.42392874999999 52.438518 -62.33905374999999 L54.904143000000005 -59.77480374999999 Z"/></g><g id="Regular-S" transform="matrix(1 0 0 1 1405.73 696)"><path d="M11.835 -2.0919999999999863 Q8.974875 -2.0919999999999863 6.8544375 -4.212437499999986 Q4.734 -6.332874999999987 4.734 -9.192999999999987 V-55.34949999999999 Q4.734 -56.828875 5.7695625 -57.864437499999994 Q6.805125 -58.89999999999999 8.2845 -58.89999999999999 Q9.763875 -58.89999999999999 10.7994375 -57.864437499999994 Q11.835 -56.828875 11.835 -55.34949999999999 V-9.192999999999987 Q11.835 -9.192999999999987 11.835 -9.192999999999987 Q11.835 -9.192999999999987 11.835 -9.192999999999987 H67.4595 Q68.93887500000001 -9.192999999999987 69.97443750000001 -8.157437499999986 Q71.01 -7.121874999999989 71.01 -5.642499999999988 Q71.01 -4.163124999999987 69.97443750000001 -3.1275624999999874 Q68.93887500000001 -2.0919999999999863 67.4595 -2.0919999999999863 H11.835 Z M26.037000000000003 -16.293999999999986 Q23.176875000000003 -16.293999999999986 21.0564375 -18.414437499999988 Q18.936 -20.534874999999985 18.936 -23.39499999999999 V-58.01237499999999 Q18.936 -60.08349999999999 19.872937500000003 -61.56287499999999 Q20.809875 -63.042249999999996 22.4865 -64.12712499999999 L54.441 -82.57 L62.626875000000005 -77.83599999999998 L57.301125 -72.60887499999998 L54.441 -74.28549999999998 L26.037000000000003 -57.716499999999996 L54.441 -41.24612499999999 L82.845 -57.716499999999996 L76.33575 -61.46424999999999 L81.6615 -66.88862499999999 L86.3955 -64.12712499999999 Q88.17075 -63.042249999999996 89.058375 -61.56287499999999 Q89.946 -60.08349999999999 89.946 -58.01237499999999 V-23.39499999999999 Q89.946 -20.534874999999985 87.8255625 -18.414437499999988 Q85.70512500000001 -16.293999999999986 82.845 -16.293999999999986 H26.037000000000003 Z M54.243750000000006 -59.491749999999996  70.221 -75.370375 Q71.305875 -76.45524999999999 72.686625 -76.45524999999999 Q74.067375 -76.45524999999999 75.15225000000001 -75.370375 Q76.237125 -74.28549999999998 76.237125 -72.8554375 Q76.237125 -71.42537499999999 75.15225000000001 -70.34049999999999 L56.709375 -51.89762499999999 Q55.624500000000005 -50.81274999999999 54.243750000000006 -50.81274999999999 Q52.863 -50.81274999999999 51.778125 -51.89762499999999 L46.649625 -57.02612499999999 Q45.564750000000004 -58.11099999999999 45.6140625 -59.541062499999995 Q45.663375 -60.97112499999999 46.74825 -62.05599999999998 Q47.833125 -63.140874999999994 49.2631875 -63.140874999999994 Q50.69325 -63.140874999999994 51.778125 -62.05599999999998 L54.243750000000006 -59.491749999999996 Z"/></g><g id="Light-S" transform="matrix(1 0 0 1 1109.75 696)"><path d="M14.035225125 -3.8370707499999863 Q11.44069725 -3.8370707499999863 9.56682225 -5.710847124999987 Q7.69294725 -7.584722124999988 7.69294725 -10.179348624999989 V-53.832055749999995 Q7.69294725 -54.894148374999986 8.443976625000001 -55.64517774999999 Q9.195104625 -56.396305749999996 10.257098625000001 -56.396305749999996 Q11.31919125 -56.396305749999996 12.07031925 -55.64517774999999 Q12.821348625 -54.894148374999986 12.821348625 -53.832055749999995 V-10.179348624999989 Q12.821348625 -9.64825299999999 13.162788375 -9.306813249999987 Q13.504129500000001 -8.965373499999988 14.035225125 -8.965373499999988 H66.473151375 Q67.535244 -8.965373499999988 68.28627337500001 -8.214344124999986 Q69.037401375 -7.463314749999988 69.037401375 -6.40122212499999 Q69.037401375 -5.339129499999988 68.28627337500001 -4.588100124999986 Q67.535244 -3.8370707499999863 66.473151375 -3.8370707499999863 H14.035225125 Z M26.264626500000002 -16.066373499999987 Q23.67 -16.066373499999987 21.796223625 -17.94024849999999 Q19.922348625 -19.81412349999999 19.922348625 -22.40865137499999 V-55.4327395 Q19.922348625 -57.238366 20.68856625 -58.33833062499998 Q21.454783875 -59.43839387499999 22.941753000000002 -60.40945562499998 L53.454651375000005 -77.941824625 L60.38867925000001 -73.96654674999999 L56.5803735 -70.181023375 L53.454651375000005 -72.009333625 L25.050651375 -55.440333624999994 L53.454651375000005 -38.969958625 L81.85865137500001 -55.440333624999994 L75.1597455 -59.3398675 L79.0439925 -63.3227395 L83.96764837500001 -60.40945562499998 Q85.55324250000001 -59.43839387499999 86.270147625 -58.33833062499998 Q86.98705275 -57.238366 86.98705275 -55.4327395 V-22.40865137499999 Q86.98705275 -19.81412349999999 85.11317775 -17.94024849999999 Q83.23930275000001 -16.066373499999987 80.64477487500001 -16.066373499999987 H26.264626500000002 Z M53.105716125 -55.69823799999999  69.765747 -72.25964387499998 Q70.58512350000001 -73.079020375 71.52955650000001 -73.09795637499998 Q72.47408812500001 -73.11689237499999 73.331336625 -72.25964387499998 Q74.188585125 -71.402395375 74.188585125 -70.42758587499999 Q74.188585125 -69.452776375 73.331336625 -68.59542925 L55.305744000000004 -50.56983662499999 Q54.33468225000001 -49.59877487499999 53.105716125 -49.59877487499999 Q51.876651375 -49.59877487499999 50.905589625000005 -50.56983662499999 L46.194372 -55.28105425 Q45.375094125000004 -56.10043074999999 45.40537200000001 -57.09417624999999 Q45.4357485 -58.088020375 46.29299700000001 -58.94526887499998 Q47.150245500000004 -59.80251737499998 48.125153625 -59.80251737499998 Q49.099963125 -59.80251737499998 49.957211625 -58.94526887499998 L53.105716125 -55.69823799999999 Z"/></g><g id="Thin-S" transform="matrix(1 0 0 1 814.015 696)"><path d="M16.235154375 -5.581746999999986 Q13.906125000000001 -5.581746999999986 12.2788125 -7.209059499999984 Q10.6515 -8.836371999999987 10.6515 -11.165499999999987 V-52.31490737499999 Q10.6515 -52.959717624999996 11.117996250000001 -53.426312499999995 Q11.584591125000001 -53.89290737499999 12.2295 -53.89290737499999 Q12.874310250000002 -53.89290737499999 13.340905125 -53.426312499999995 Q13.807500000000001 -52.959717624999996 13.807500000000001 -52.31490737499999 V-11.165499999999987 Q13.807500000000001 -10.103407374999986 14.490280875000002 -9.420626499999987 Q15.17306175 -8.737845624999988 16.235154375 -8.737845624999988 H65.48700000000001 Q66.13190887500001 -8.737845624999988 66.598405125 -8.271250749999986 Q67.065 -7.8046558749999875 67.065 -7.159845624999985 Q67.065 -6.514936749999986 66.598405125 -6.048341874999988 Q66.13190887500001 -5.581746999999986 65.48700000000001 -5.581746999999986 H16.235154375 Z M26.492154375000002 -15.838845624999987 Q24.163125 -15.838845624999987 22.535812500000002 -17.466158124999986 Q20.9085 -19.093470624999988 20.9085 -21.422499999999985 V-52.85359712499999 Q20.9085 -54.39362649999998 21.503997750000003 -55.11437799999999 Q22.099594125 -55.835129499999994 23.396907375 -56.69237799999999 L52.4685 -73.31443825 L58.150878 -70.09778387499999 L55.859720625 -67.75356624999999 L52.4685 -69.73356174999999 L24.064500000000002 -53.16456174999999 L52.4685 -36.694186749999986 L80.8725 -53.16456174999999 L73.98393825000001 -57.21578087499999 L76.426780875 -59.75734712499998 L81.54019125 -56.69237799999999 Q82.936030875 -55.835129499999994 83.48231475 -55.11437799999999 Q84.02850000000001 -54.39362649999998 84.02850000000001 -52.85359712499999 V-21.422499999999985 Q84.02850000000001 -19.093470624999988 82.4011875 -17.466158124999986 Q80.773875 -15.838845624999987 78.444845625 -15.838845624999987 H26.492154375000002 Z M51.967780875 -51.90521912499999  69.310592625 -69.14940587499999 Q69.864470625 -69.70328387499998 70.372783875 -69.74115587499999 Q70.881097125 -69.77912649999999 71.51071912500001 -69.14940587499999 Q72.14043975 -68.51978387499999 72.14043975 -68.00012874999999 Q72.14043975 -67.480375 71.51071912500001 -66.85075299999998 L53.902408875 -49.24234412499999 Q53.04506175 -48.38509562499999 51.967780875 -48.38509562499999 Q50.8905 -48.38509562499999 50.0332515 -49.24234412499999 L45.739217625 -53.536377999999985 Q45.185438250000004 -54.09015737499999 45.196780125000004 -54.64778312499999 Q45.208220625 -55.20540887499999 45.837842625 -55.83503087499999 Q46.467563250000005 -56.46475149999999 46.987218375000005 -56.46475149999999 Q47.506972125 -56.46475149999999 48.136594125 -55.83503087499999 L51.967780875 -51.90521912499999 Z"/></g><g id="Ultralight-S" transform="matrix(1 0 0 1 517.792 696)"><path d="M17.55525 -6.628749999999986 Q15.3855 -6.628749999999986 13.906125000000001 -8.108124999999987 Q12.42675 -9.587499999999988 12.42675 -11.757249999999988 V-51.40449999999999 Q12.42675 -51.79899999999999 12.722625 -52.09487499999999 Q13.018500000000001 -52.39074999999998 13.413 -52.39074999999998 Q13.807500000000001 -52.39074999999998 14.103375 -52.09487499999999 Q14.39925 -51.79899999999999 14.39925 -51.40449999999999 V-11.757249999999988 Q14.39925 -10.376499999999986 15.286875 -9.488874999999986 Q16.174500000000002 -8.601249999999986 17.55525 -8.601249999999986 H64.89525 Q65.28975 -8.601249999999986 65.58562500000001 -8.305374999999987 Q65.8815 -8.009499999999989 65.8815 -7.614999999999988 Q65.8815 -7.220499999999987 65.58562500000001 -6.924624999999988 Q65.28975 -6.628749999999986 64.89525 -6.628749999999986 H17.55525 Z M26.62875 -15.702249999999989 Q24.459 -15.702249999999989 22.979625000000002 -17.181624999999986 Q21.50025 -18.660999999999987 21.50025 -20.830749999999988 V-51.305874999999986 Q21.50025 -52.68662499999999 21.993375 -53.179749999999984 Q22.4865 -53.67287499999999 23.67 -54.46187499999999 L51.87675 -70.53774999999999 L56.808 -67.77624999999999 L55.42725 -66.29687499999999 L51.87675 -68.368 L23.47275 -51.79899999999999 L51.87675 -35.32862499999999 L80.28075 -51.79899999999999 L73.278375 -55.94124999999998 L74.856375 -57.617874999999984 L80.0835 -54.46187499999999 Q81.36562500000001 -53.67287499999999 81.8094375 -53.179749999999984 Q82.25325000000001 -52.68662499999999 82.25325000000001 -51.305874999999986 V-20.830749999999988 Q82.25325000000001 -18.660999999999987 80.773875 -17.181624999999986 Q79.2945 -15.702249999999989 77.12475 -15.702249999999989 H26.62875 Z M51.285000000000004 -49.62924999999999  69.03750000000001 -67.28312499999998 Q69.432 -67.67762499999999 69.6785625 -67.72693749999999 Q69.92512500000001 -67.77624999999999 70.41825 -67.28312499999998 Q70.911375 -66.78999999999999 70.911375 -66.5434375 Q70.911375 -66.29687499999999 70.41825 -65.80375 L53.06025 -48.44574999999999 Q52.27125 -47.65674999999999 51.285000000000004 -47.65674999999999 Q50.298750000000005 -47.65674999999999 49.509750000000004 -48.44574999999999 L45.466125000000005 -52.489374999999995 Q45.071625000000004 -52.88387499999999 45.071625000000004 -53.179749999999984 Q45.071625000000004 -53.475624999999994 45.564750000000004 -53.968749999999986 Q46.057875 -54.46187499999999 46.3044375 -54.46187499999999 Q46.551 -54.46187499999999 47.044125 -53.968749999999986 L51.285000000000004 -49.62924999999999 Z"/></g></g></svg>