<svg xmlns="http://www.w3.org/2000/svg" version="1.1" width="3300" height="2000"><g id="Notes"><style>
    text {
      font-family: monospace;
      text-anchor: middle;
    }
    text.emphasis {
      font-weight:bold;
    }
    text.lanchor {
      text-anchor: start;
    }
  </style><rect height="2200" id="artboard" fill="white" width="3300" x="0" y="0"/><line id="" style="fill:none;stroke:black;stroke-width:0.5;" x1="263" x2="3036" y1="292" y2="292"/><text class="lanchor emphasis" transform="matrix(1 0 0 1 263 322)">Weight/Scale Variations</text><text transform="matrix(1 0 0 1 559.711 322)">Ultralight</text><text transform="matrix(1 0 0 1 856.422 322)">Thin</text><text transform="matrix(1 0 0 1 1153.13 322)">Light</text><text transform="matrix(1 0 0 1 1449.84 322)">Regular</text><text transform="matrix(1 0 0 1 1746.56 322)">Medium</text><text transform="matrix(1 0 0 1 2043.27 322)">Semibold</text><text transform="matrix(1 0 0 1 2339.98 322)">Bold</text><text transform="matrix(1 0 0 1 2636.69 322)">Heavy</text><text transform="matrix(1 0 0 1 2933.4 322)">Black</text><text id="template-version" style="text-anchor: end;" transform="matrix(1 0 0 1 3036 1933)">Template v.1.0</text><text class="lanchor" transform="matrix(1 0 0 1 263 726)">Small</text><text class="lanchor" transform="matrix(1 0 0 1 263 1156)">Medium</text><text class="lanchor" transform="matrix(1 0 0 1 263 1586)">Large</text></g><g id="Guides"><g id="H-reference" style="fill:#27AAE1;stroke:none;" transform="matrix(1 0 0 1 339 696)"><path d="M 54.9316 0 L 57.666 0 L 30.5664 -70.459 L 28.0762 -70.459 L 0.976562 0 L 3.66211 0 L 12.9395 -24.4629 L 45.7031 -24.4629 Z M 29.1992 -67.0898 L 29.4434 -67.0898 L 44.8242 -26.709 L 13.8184 -26.709 Z"/></g><line id="Baseline-S" style="fill:none;stroke:#27AAE1;opacity:1;stroke-width:0.577;" x1="263" x2="3036" y1="696" y2="696"/><line id="Capline-S" style="fill:none;stroke:#27AAE1;opacity:1;stroke-width:0.577;" x1="263" x2="3036" y1="625.541" y2="625.541"/><g id="H-reference" style="fill:#27AAE1;stroke:none;" transform="matrix(1 0 0 1 339 1126)"><path d="M 54.9316 0 L 57.666 0 L 30.5664 -70.459 L 28.0762 -70.459 L 0.976562 0 L 3.66211 0 L 12.9395 -24.4629 L 45.7031 -24.4629 Z M 29.1992 -67.0898 L 29.4434 -67.0898 L 44.8242 -26.709 L 13.8184 -26.709 Z"/></g><line id="Baseline-M" style="fill:none;stroke:#27AAE1;opacity:1;stroke-width:0.577;" x1="263" x2="3036" y1="1126" y2="1126"/><line id="Capline-M" style="fill:none;stroke:#27AAE1;opacity:1;stroke-width:0.577;" x1="263" x2="3036" y1="1055.54" y2="1055.54"/><g id="H-reference" style="fill:#27AAE1;stroke:none;" transform="matrix(1 0 0 1 339 1556)"><path d="M 54.9316 0 L 57.666 0 L 30.5664 -70.459 L 28.0762 -70.459 L 0.976562 0 L 3.66211 0 L 12.9395 -24.4629 L 45.7031 -24.4629 Z M 29.1992 -67.0898 L 29.4434 -67.0898 L 44.8242 -26.709 L 13.8184 -26.709 Z"/></g><line id="Baseline-L" style="fill:none;stroke:#27AAE1;opacity:1;stroke-width:0.577;" x1="263" x2="3036" y1="1556" y2="1556"/><line id="Capline-L" style="fill:none;stroke:#27AAE1;opacity:1;stroke-width:0.577;" x1="263" x2="3036" y1="1485.54" y2="1485.54"/><rect height="119.336" id="left-margin" style="fill:darkred;stroke:none;opacity:0.4;" width="12.4512" x="1394.06" y="1030.79"/><rect height="119.336" id="right-margin" style="fill:darkgreen;stroke:none;opacity:0.4;" width="12.4512" x="1502.5112" y="1030.79"/><rect x="1406.5112" y="1045" width="96" height="96" fill="none" stroke="blue" stroke-dasharray="5"/><rect x="1394.06" y="1030.79" width="120.9024" height="119.336" fill="none" stroke="blue"/></g><g id="Symbols"><g id="Bold-L" transform="matrix(1 0 0 1 2266 1556)"><path d="M77.4 32.49500000000002 Q53.39648625 26.366371250000014 37.94535 4.961562500000014 Q22.494375 -16.443407499999992 22.494375 -42.12117999999998 V-82.77198249999998 L77.4 -103.27749999999997 L132.46687500000002 -82.77036999999999 V-42.185357499999995 Q132.46687500000002 -39.440398749999986 132.2653125 -36.940378749999994 Q132.06375 -34.44035874999999 131.821875 -32.00499999999998 Q130.854375 -32.16624999999999 129.9675 -32.24687499999999 Q129.080625 -32.327499999999986 128.34355125 -32.327499999999986 Q125.0155125 -32.327499999999986 122.0220675 -31.601874999999993 Q119.02846124999999 -30.876249999999985 116.4225 -29.98937499999998 Q116.90625 -32.81124999999999 117.22875 -35.95562499999998 Q117.55125000000001 -39.09999999999998 117.55125000000001 -42.13311249999998 V-72.32846499999998 L77.4 -87.55562499999999 L37.24875 -72.33830124999999 V-42.191323749999995 Q37.24875 -21.87962874999998 48.53625 -5.697546249999988 Q59.823750000000004 10.484375000000014 77.386455 17.418125000000014 Q82.36440375 15.534725000000012 87.05774625000001 12.684308750000014 Q91.75125 9.833892500000019 95.94375000000001 6.291875000000012 V24.474425000000018 Q91.59 27.335000000000015 86.994375 29.270000000000017 Q82.39875 31.205000000000016 77.4 32.49500000000002 Z M110.67603375000002 32.49500000000002 Q108.136185 32.49500000000002 106.030905 30.180578750000016 Q103.925625 27.866157500000014 103.925625 25.310506250000014 V4.783220000000014 Q103.925625 2.180000000000014 105.96140625 -0.037187499999987494 Q107.99718750000001 -2.254374999999982 110.60540625 -2.254374999999982 H110.698125 V-8.821442499999982 Q110.698125 -14.86009374999999 114.72131250000001 -18.95777874999998 Q118.7445 -23.055624999999992 124.6523775 -23.055624999999992 Q130.370625 -23.055624999999992 134.48250000000002 -18.95777874999998 Q138.594375 -14.86009374999999 138.594375 -8.821442499999982 V-2.254374999999982 H138.54600000000002 Q141.0463425 -2.254374999999982 143.16629625 -0.05379624999998356 Q145.28625 2.1467825000000147 145.28625 4.760000000000012 V25.333726250000016 Q145.28625 27.899375000000013 143.16629625 30.197187500000016 Q141.0463425 32.49500000000002 138.6088875 32.49500000000002 H110.67603375000002 Z M118.035 -2.254374999999982 H131.41875000000002 V-8.809026249999988 Q131.41875000000002 -12.009999999999984 129.48375000000001 -14.065937499999983 Q127.54875 -16.12187499999999 124.60593750000001 -16.12187499999999 Q121.501875 -16.12187499999999 119.7684375 -14.083029999999987 Q118.035 -12.044184999999985 118.035 -8.784999999999982 V-2.254374999999982 Z"/></g><g id="Semibold-L" transform="matrix(1 0 0 1 1970.27 1556)"><path d="M77.4 30.672230000000013 Q54.151297500000005 24.740648750000016 39.19923 3.8334575000000157 Q24.24700125 -17.073733749999988 24.24700125 -42.144077499999995 V-81.54777249999998 L77.4 -101.45472999999998 L130.644105 -81.54857874999998 V-42.185357499999995 Q130.644105 -39.67404999999998 130.49511 -37.33753749999998 Q130.34627625000002 -35.00118624999999 130.06924874999999 -32.70611499999998 Q129.1718925 -32.79722124999999 128.42514375 -32.87784624999999 Q127.67855625 -32.95847124999999 126.91132875000001 -32.95847124999999 Q124.29424125 -32.95847124999999 121.86597750000001 -32.44311624999999 Q119.437875 -31.92776124999999 117.26374125 -31.32129999999998 Q117.67734750000001 -33.86276124999999 117.92986499999999 -36.656739999999985 Q118.18222125000001 -39.45055749999999 118.18222125000001 -42.13311249999998 V-72.85301125 L77.4 -88.25673999999998 L36.61777875 -72.86300874999999 V-42.17939124999998 Q36.61777875 -21.599214999999987 48.04556625 -5.101727499999988 Q59.4731925 11.395760000000013 77.386455 17.978952500000016 Q82.09898625000001 16.277281250000016 86.53948875 13.686477500000017 Q90.9801525 11.095673750000014 94.96222125 7.904213750000011 V23.072356250000016 Q90.88888500000002 25.722661250000016 86.50369125 27.58751750000002 Q82.11833625000001 29.452373750000014 77.4 30.672230000000013 Z M109.662255 30.742373750000016 Q107.1819075 30.742373750000016 105.0630825 28.512447500000015 Q102.94409625 26.282682500000014 102.94409625 23.772020000000015 V3.73170875000001 Q102.94409625 1.1984712500000185 105.01503 -0.9835637499999876 Q107.0858025 -3.1657599999999846 109.62387749999999 -3.1657599999999846 H109.71659625000001 V-9.732827499999985 Q109.71659625000001 -15.618936249999983 113.62062 -19.652766249999985 Q117.52464375000001 -23.686596249999994 123.26514375 -23.686596249999994 Q128.8984125 -23.686596249999994 132.83500875000001 -19.652766249999985 Q136.771605 -15.618936249999983 136.771605 -9.732827499999985 V-3.1657599999999846 H136.81449750000002 Q139.22357250000002 -3.1657599999999846 141.34352625 -1.0001724999999837 Q143.46348 1.1654150000000172 143.46348 3.708488750000015 V23.775083750000015 Q143.46348 26.287036250000014 141.34352625 28.514705000000014 Q139.22357250000002 30.742373750000016 136.86464625000002 30.742373750000016 H109.662255 Z M116.63293125 -3.1657599999999846 H130.01668125 V-9.720411249999984 Q130.01668125 -12.921384999999987 128.11667250000002 -14.977322499999985 Q126.216825 -17.033259999999984 123.23886000000002 -17.033259999999984 Q120.09980625 -17.033259999999984 118.36636874999999 -14.994414999999982 Q116.63293125 -12.95556999999998 116.63293125 -9.696384999999985 V-3.1657599999999846 Z"/></g><g id="Medium-L" transform="matrix(1 0 0 1 1674.31 1556)"><path d="M77.4 29.305152500000016 Q54.7176075 23.521115000000016 40.13964 2.987217500000014 Q25.5616725 -17.546679999999988 25.5616725 -42.16117 V-80.62961499999999 L77.4 -100.08765249999999 L129.2770275 -80.63219499999998 V-42.185357499999995 Q129.2770275 -39.849328749999984 129.16737750000001 -37.63552749999998 Q129.05788875000002 -35.42172624999999 128.75457749999998 -33.23195124999998 Q127.90978875 -33.270489999999995 127.26833625 -33.35111499999999 Q126.62688375 -33.43173999999999 125.83708125 -33.43173999999999 Q123.75308625000001 -33.43173999999999 121.74891000000001 -33.07408749999999 Q119.74489500000001 -32.716596249999995 117.8947125 -32.320404999999994 Q118.25591250000001 -34.65159624999998 118.45570125 -37.18257624999998 Q118.65549 -39.71339499999998 118.65549 -42.13311249999998 V-73.24662249999997 L77.4 -88.78257625 L36.14451 -73.25645874999998 V-42.17036125 Q36.14451 -21.388783749999988 47.677432499999995 -4.6547424999999905 Q59.21035500000001 12.079298750000014 77.386455 18.399653750000013 Q81.8998425 16.834238750000015 86.150715 14.438225000000017 Q90.4015875 12.042211250000015 94.226115 9.113750000000017 V22.020522500000016 Q90.36304874999999 24.513125000000016 86.1355575 26.325413750000017 Q81.90806625 28.137702500000014 77.4 29.305152500000016 Z M108.90196125 29.427702500000017 Q106.46611875 29.427702500000017 104.33697375000001 27.26130875000002 Q102.20799 25.094915000000015 102.20799 22.618115000000017 V2.942873750000011 Q102.20799 0.4623650000000197 104.30504624999999 -1.6935474999999869 Q106.40226375 -3.8492987499999884 108.88777125 -3.8492987499999884 H108.98048999999999 V-10.416366249999989 Q108.98048999999999 -16.18814874999999 112.79502000000001 -20.174087499999985 Q116.60971124999999 -24.159864999999982 122.2245975 -24.159864999999982 Q127.79417250000002 -24.159864999999982 131.59935000000002 -20.174087499999985 Q135.4045275 -16.18814874999999 135.4045275 -10.416366249999989 V-3.8492987499999884 H135.51562875000002 Q137.85633375 -3.8492987499999884 139.9762875 -1.710156249999983 Q142.0964025 0.42914750000001334 142.0964025 2.919653750000016 V22.606021250000015 Q142.0964025 25.077500000000015 139.9762875 27.252601250000016 Q137.85633375 29.427702500000017 135.556425 29.427702500000017 H108.90196125 Z M115.58125875 -3.8492987499999884 H128.96500875 V-10.403949999999988 Q128.96500875 -13.60492374999999 127.09128375 -15.66086124999999 Q125.21772 -17.716798749999988 122.21347125000001 -17.716798749999988 Q119.04813375 -17.716798749999988 117.31469625000001 -15.677953749999986 Q115.58125875 -13.639269999999982 115.58125875 -10.379923749999989 V-3.8492987499999884 Z"/></g><g id="Regular-L" transform="matrix(1 0 0 1 1378.56 1556)"><path d="M77.4 28.302500000000016 Q55.13282625 22.626983750000015 40.82930625 2.3667275000000103 Q26.525625 -17.893367499999982 26.525625 -42.17374749999999 V-79.95623499999998 L77.4 -99.08499999999998 L128.274375 -79.96010499999998 V-42.185357499999995 Q128.274375 -39.97784499999999 128.19375 -37.85402124999999 Q128.113125 -35.73035874999999 127.790625 -33.61749999999999 Q126.984375 -33.61749999999999 126.42 -33.69812499999999 Q125.855625 -33.77874999999999 125.049375 -33.77874999999999 Q123.35625 -33.77874999999999 121.66312500000001 -33.53687499999998 Q119.97 -33.29499999999999 118.3575 -33.05312499999998 Q118.68 -35.22999999999999 118.84125 -37.56812499999998 Q119.0025 -39.906249999999986 119.0025 -42.13311249999998 V-73.53526 L77.4 -89.16812499999997 L35.7975 -73.54509625 V-42.16374999999999 Q35.7975 -21.234628749999985 47.4075 -4.326921249999984 Q59.0175 12.580625000000015 77.386455 18.708125000000017 Q81.75375 17.242846250000017 85.86562500000001 14.989538750000015 Q89.9775 12.736392500000015 93.68625 10.000625000000014 V21.249425000000013 Q89.9775 23.626250000000017 85.86562500000001 25.400000000000016 Q81.75375 27.173750000000016 77.4 28.302500000000016 Z M108.34435875000001 28.463750000000015 Q105.94125 28.463750000000015 103.8046875 26.343796250000015 Q101.668125 24.223842500000014 101.668125 21.771875000000016 V2.3644700000000185 Q101.668125 -0.07749999999998636 103.78453125 -2.214062499999983 Q105.9009375 -4.350624999999987 108.34790625 -4.350624999999987 H108.440625 V-10.917692499999987 Q108.440625 -16.60562499999999 112.1896875 -20.556249999999984 Q115.93875 -24.50687499999998 121.4615625 -24.50687499999998 Q126.984375 -24.50687499999998 130.693125 -20.556249999999984 Q134.401875 -16.60562499999999 134.401875 -10.917692499999987 V-4.350624999999987 H134.563125 Q136.8538425 -4.350624999999987 138.97379625 -2.230671249999986 Q141.09375 -0.11071749999998559 141.09375 2.3412500000000165 V21.748655000000014 Q141.09375 24.190625000000015 138.97379625 26.327187500000015 Q136.8538425 28.463750000000015 134.5969875 28.463750000000015 H108.34435875000001 Z M114.81 -4.350624999999987 H128.19375 V-10.905276249999986 Q128.19375 -14.106249999999989 126.339375 -16.162187499999987 Q124.485 -18.218124999999986 121.4615625 -18.218124999999986 Q118.276875 -18.218124999999986 116.54343750000001 -16.179279999999984 Q114.81 -14.140434999999982 114.81 -10.881249999999987 V-4.350624999999987 Z"/></g><g id="Light-L" transform="matrix(1 0 0 1 1082.77 1556)"><path d="M77.4 25.325341250000015 Q56.5623075 19.502765000000014 43.016985 0.463655000000017 Q29.47182375 -18.57561624999998 29.47182375 -41.86753374999999 V-77.87046624999999 L77.4 -95.85983875 L125.32817625000001 -77.87578749999999 V-41.883497499999976 Q125.32817625000001 -40.256968749999984 125.27867250000001 -38.777338749999984 Q125.22900750000001 -37.29754749999999 125.03050875000001 -35.78840874999999 Q124.16233875 -35.78840874999999 123.5016975 -35.869033749999986 Q122.84105625 -35.94965874999998 122.04125625 -35.94965874999998 Q120.95201250000001 -35.94965874999998 119.88002250000001 -35.75422374999998 Q118.80787125 -35.55878874999999 117.79925250000001 -35.47203624999999 Q118.02871125 -36.99762249999999 118.14352125 -38.637534999999986 Q118.25817 -40.27728624999999 118.25817 -41.82302874999998 V-73.03909374999999 L77.4 -88.33075374999999 L36.541830000000004 -73.04892999999998 V-41.85366624999999 Q36.541830000000004 -21.31509249999999 47.9979975 -4.651033749999982 Q59.45432625 12.013025000000013 77.3764575 17.901875000000015 Q80.80302 16.801666250000014 84.08784375 15.088546250000014 Q87.37250625 13.375426250000015 90.33692625 11.272081250000014 V19.698845000000016 Q87.38879250000001 21.569183750000015 84.09864750000001 22.982378750000017 Q80.80866375000001 24.395573750000015 77.4 25.325341250000015 Z M106.91778000000001 25.548672500000016 Q104.6077125 25.548672500000016 102.53323125 23.459678750000016 Q100.45858875 21.370685000000016 100.45858875 19.073840000000015 V0.7518087500000092 Q100.45858875 -1.5971199999999826 102.513075 -3.6406412499999803 Q104.5674 -5.684162499999985 106.93068 -5.684162499999985 H107.20012875 V-12.234137499999981 Q107.20012875 -17.473956249999986 110.73214875000001 -21.19205874999998 Q114.26416875000001 -24.909999999999982 119.39933625 -24.909999999999982 Q124.53450375000001 -24.909999999999982 128.07265125 -21.19205874999998 Q131.61079875000001 -17.473956249999986 131.61079875000001 -12.234137499999981 V-5.684162499999985 H131.87750625 Q134.08824375 -5.684162499999985 136.13353875 -3.6572499999999835 Q138.1786725 -1.6303374999999818 138.1786725 0.7285887500000214 V19.050620000000013 Q138.1786725 21.337467500000017 136.13353875 23.443070000000017 Q134.08824375 25.548672500000016 131.8989525 25.548672500000016 H106.91778000000001 Z M112.856295 -5.684162499999985 H126.11588250000001 V-12.217044999999985 Q126.11588250000001 -15.284664999999983 124.1995875 -17.294162499999985 Q122.28313125000001 -19.30349874999998 119.39933625 -19.30349874999998 Q116.41621125 -19.30349874999998 114.6361725 -17.31786624999998 Q112.856295 -15.332072499999981 112.856295 -12.183827499999978 V-5.684162499999985 Z"/></g><g id="Thin-L" transform="matrix(1 0 0 1 787.282 1556)"><path d="M77.4 22.348666250000015 Q57.991305000000004 16.379191250000012 45.20434125 -1.4392562499999855 Q32.4173775 -19.25786499999998 32.4173775 -41.561319999999995 V-75.78518124999998 L77.4 -92.63499999999999 L122.3826225 -75.7917925 V-41.581637499999985 Q122.3826225 -40.53609249999998 122.3639175 -39.700333749999984 Q122.34537375000001 -38.86457499999999 122.27087625 -37.95883374999998 Q121.340625 -37.95883374999998 120.58387875000001 -38.03945874999998 Q119.82697125000001 -38.12008374999999 119.03362125 -38.12008374999999 Q118.54825875 -38.12008374999999 118.09708125 -37.97124999999998 Q117.64574250000001 -37.82241624999999 117.24116625 -37.890624999999986 Q117.37758375 -38.76508374999999 117.44579250000001 -39.706783749999985 Q117.51400125 -40.64848374999998 117.51400125 -41.512945 V-72.54292749999999 L77.4 -87.49354374999999 L37.28599875 -72.55276374999998 V-41.543582499999985 Q37.28599875 -21.39571749999999 48.588495 -4.9749849999999896 Q59.89099125 11.445586250000016 77.36646 17.095625000000016 Q79.85245125 16.360647500000017 82.31022375 15.187553750000017 Q84.76799625 14.014298750000012 86.9882475 12.543376250000016 V18.148426250000014 Q84.8004075 19.512278750000014 82.33215375 20.565080000000012 Q79.86373875 21.617881250000014 77.4 22.348666250000015 Z M105.49152375 22.633917500000017 Q103.2744975 22.633917500000017 101.26193625 20.576045000000015 Q99.249375 18.518011250000015 99.249375 16.376288750000015 V-0.8605299999999829 Q99.249375 -3.116417499999983 101.24178 -5.066897499999989 Q103.234185 -7.017377499999988 105.513615 -7.017377499999988 H105.95979375 V-13.550582499999983 Q105.95979375 -18.342126249999986 109.27477125 -21.827706249999984 Q112.58974875 -25.313124999999985 117.33727125 -25.313124999999985 Q122.08495500000001 -25.313124999999985 125.4525 -21.827706249999984 Q128.82020625 -18.342126249999986 128.82020625 -13.550582499999983 V-7.017377499999988 H129.19237125 Q131.32312875000002 -7.017377499999988 133.29360375 -5.083506249999985 Q135.2639175 -3.1496349999999893 135.2639175 -0.8837499999999849 V16.353068750000016 Q135.2639175 18.484955000000017 133.29360375 20.559436250000015 Q131.32312875000002 22.633917500000017 129.20140125 22.633917500000017 H105.49152375 Z M110.90275125000001 -7.017377499999988 H124.03849875 V-13.528652499999986 Q124.03849875 -16.462918749999986 122.0601225 -18.425814999999986 Q120.08174625 -20.388711249999986 117.33727125 -20.388711249999986 Q114.55570875000001 -20.388711249999986 112.72923 -18.456129999999987 Q110.90275125000001 -16.523548749999982 110.90275125000001 -13.486082499999988 V-7.017377499999988 Z"/></g><g id="Ultralight-L" transform="matrix(1 0 0 1 491.205 1556)"><path d="M77.4 20.562500000000014 Q58.84899375 14.504821250000013 46.516916249999994 -2.5812287499999798 Q34.185 -19.667117499999982 34.185 -41.377494999999996 V-74.53371999999999 L77.4 -90.69999999999999 L120.61500000000001 -74.54145999999999 V-41.40055375 Q120.61500000000001 -40.70346999999998 120.61500000000001 -40.254227499999985 Q120.61500000000001 -39.80498499999999 120.61500000000001 -39.26124999999999 Q119.64750000000001 -39.26124999999999 118.832865 -39.34187499999999 Q118.01839125000001 -39.422499999999985 117.22875 -39.422499999999985 Q117.1058775 -39.422499999999985 117.0271875 -39.30156249999999 Q116.94849749999999 -39.18062499999999 116.90625 -39.34187499999999 Q116.986875 -39.82562499999999 117.0271875 -40.34839749999999 Q117.06750000000001 -40.87100874999997 117.06750000000001 -41.326862499999976 V-72.24525999999999 L77.4 -86.99124999999998 L37.7325 -72.25509625 V-41.35749999999999 Q37.7325 -21.443931249999984 48.942761250000004 -5.169452499999984 Q60.1530225 11.105026250000012 77.36049375 16.611875000000015 Q79.28211 16.09603625000001 81.243555 15.246893750000016 Q83.205 14.397751250000017 84.97875 13.306250000000016 V17.218175000000013 Q83.24740875 18.278071250000014 81.27209625 19.114636250000014 Q79.29678375 19.951040000000017 77.4 20.562500000000014 Z M104.63560875 20.885000000000016 Q102.47437500000001 20.885000000000016 100.49906250000001 18.845671250000017 Q98.52375 16.806342500000014 98.52375 14.757500000000014 V-1.828029999999984 Q98.52375 -4.028124999999989 100.47890625000001 -5.922812499999985 Q102.4340625 -7.817499999999988 104.66334375000001 -7.817499999999988 H105.215625 V-14.340384999999984 Q105.215625 -18.863124999999982 108.4003125 -22.209062499999987 Q111.58500000000001 -25.554999999999993 116.10000000000001 -25.554999999999993 Q120.61500000000001 -25.554999999999993 123.8803125 -22.209062499999987 Q127.14562500000001 -18.863124999999982 127.14562500000001 -14.340384999999984 V-7.817499999999988 H127.58100000000002 Q129.6640275 -7.817499999999988 131.58951375 -5.939421249999988 Q133.51500000000001 -4.061342499999988 133.51500000000001 -1.851249999999986 V14.734280000000016 Q133.51500000000001 16.773125000000014 131.58951375 18.829062500000017 Q129.6640275 20.885000000000016 127.58261250000001 20.885000000000016 H104.63560875 Z M109.730625 -7.817499999999988 H122.791875 V-14.315552499999988 Q122.791875 -17.169999999999987 120.77625 -19.104999999999983 Q118.760625 -21.039999999999985 116.10000000000001 -21.039999999999985 Q113.439375 -21.039999999999985 111.58500000000001 -19.139184999999983 Q109.730625 -17.238531249999987 109.730625 -14.267499999999984 V-7.817499999999988 Z"/></g><g id="Bold-M" transform="matrix(1 0 0 1 2281.8 1126)"><path d="M60.0 17.89500000000001 Q41.267625 13.26912500000001 29.07125 -3.185749999999988 Q16.875 -19.64049999999999 16.875 -39.72999999999999 V-72.28774999999999 L60.0 -88.35499999999999 L103.125 -72.28774999999999 V-39.72999999999999 Q103.125 -37.91049999999999 103.03125 -36.21612499999999 Q102.9375 -34.52162499999999 102.75 -32.85499999999999 Q101.375 -33.10499999999999 99.9375 -33.29249999999999 Q98.5 -33.47999999999999 97.125 -33.47999999999999 Q94.47375 -33.47999999999999 92.018125 -32.88624999999999 Q89.5625 -32.29249999999999 87.25 -31.29249999999999 Q87.6875 -33.35499999999999 87.84375 -35.47999999999999 Q88.0 -37.60499999999999 88.0 -39.70624999999998 V-61.73849999999999 L60.0 -72.22999999999999 L32.0 -61.74612499999999 V-39.72999999999999 Q32.0 -25.44337499999999 40.03125 -13.99287499999999 Q48.0625 -2.5424999999999898 60.0 2.3325000000000102 Q63.2705 0.9928750000000086 66.38525 -0.9208749999999881 Q69.5 -2.8346249999999884 72.25 -5.22999999999999 V13.08250000000001 Q69.375 14.77000000000001 66.3125 15.89500000000001 Q63.25 17.02000000000001 60.0 17.89500000000001 Z M85.86375 17.77000000000001 Q84.0 17.77000000000001 82.8125 16.39500000000001 Q81.625 15.02000000000001 81.625 13.13812500000001 V-4.22999999999999 Q81.625 -6.22999999999999 82.75 -7.41749999999999 Q83.875 -8.60499999999999 85.875 -8.60499999999999 H86.5625 V-13.72999999999999 Q86.5625 -18.16749999999999 89.69225 -21.13624999999999 Q92.821875 -24.10499999999999 97.286 -24.10499999999999 Q101.75 -24.10499999999999 104.90625 -21.13624999999999 Q108.0625 -18.16749999999999 108.0625 -13.72999999999999 V-8.60499999999999 H108.75 Q110.75 -8.60499999999999 111.875 -7.41749999999999 Q113.0 -6.22999999999999 113.0 -4.22999999999999 V13.13812500000001 Q113.0 15.02000000000001 111.8125 16.39500000000001 Q110.625 17.77000000000001 108.76125 17.77000000000001 H85.86375 Z M92.4375 -8.60499999999999 H102.1875 V-13.72999999999999 Q102.1875 -15.85499999999999 100.8125 -17.22999999999999 Q99.4375 -18.60499999999999 97.3125 -18.60499999999999 Q95.1875 -18.60499999999999 93.8125 -17.22999999999999 Q92.4375 -15.85499999999999 92.4375 -13.72999999999999 V-8.60499999999999 Z"/></g><g id="Semibold-M" transform="matrix(1 0 0 1 1985.97 1126)"><path d="M60.0 15.993000000000011 Q42.070125 11.51975000000001 30.396375 -4.391874999999988 Q18.72275 -20.30362499999999 18.72275 -39.72999999999999 V-71.01274999999998 L60.0 -86.45299999999999 L101.27725 -71.01274999999998 V-39.72999999999999 Q101.27725 -38.12787499999999 101.197125 -36.59649999999999 Q101.117 -35.06512499999999 100.956625 -33.56149999999999 Q99.690375 -33.81149999999999 98.3615 -33.97174999999999 Q97.03275 -34.13212499999999 95.712 -34.13212499999999 Q93.69725 -34.13212499999999 91.82 -33.75574999999999 Q89.942875 -33.37937499999999 88.1195 -32.70549999999999 Q88.448375 -34.44187499999999 88.55025 -36.18649999999999 Q88.652125 -37.93112499999999 88.652125 -39.70624999999998 V-62.253874999999994 L60.0 -72.99087499999999 L31.347875 -62.261499999999984 V-39.72999999999999 Q31.347875 -25.17162499999999 39.515 -13.395124999999993 Q47.682125 -1.6186249999999909 60.0 2.9302500000000116 Q62.989875 1.7878750000000103 65.837375 0.15587500000000887 Q68.684875 -1.476124999999989 71.27175 -3.5453749999999893 V11.61525000000001 Q68.614125 13.13962500000001 65.79625 14.183125000000011 Q62.97825 15.226625000000011 60.0 15.993000000000011 Z M84.824625 15.92225000000001 Q83.02175 15.92225000000001 81.83425 14.62887500000001 Q80.64675 13.33537500000001 80.64675 11.51075000000001 V-5.316874999999989 Q80.64675 -7.208249999999989 81.799 -8.395749999999992 Q82.951125 -9.583249999999992 84.8425 -9.583249999999992 H85.58425 V-14.708249999999992 Q85.58425 -18.98262499999999 88.58975 -21.869874999999993 Q91.595125 -24.757124999999988 95.8845 -24.757124999999988 Q100.174 -24.757124999999988 103.194375 -21.869874999999993 Q106.21475 -18.98262499999999 106.21475 -14.708249999999992 V-9.583249999999992 H106.956625 Q108.848 -9.583249999999992 110.000125 -8.395749999999992 Q111.15225 -7.208249999999989 111.15225 -5.316874999999989 V11.51075000000001 Q111.15225 13.33537500000001 109.96475 14.62887500000001 Q108.77725 15.92225000000001 106.974375 15.92225000000001 H84.824625 Z M91.0245 -9.583249999999992 H100.7745 V-14.708249999999992 Q100.7745 -16.833249999999992 99.3995 -18.208249999999992 Q98.0245 -19.583249999999992 95.8995 -19.583249999999992 Q93.7745 -19.583249999999992 92.3995 -18.208249999999992 Q91.0245 -16.833249999999992 91.0245 -14.708249999999992 V-9.583249999999992 Z"/></g><g id="Medium-M" transform="matrix(1 0 0 1 1689.91 1126)"><path d="M60.0 14.56625000000001 Q42.67225 10.20762500000001 31.3905 -5.296749999999989 Q20.108625 -20.800999999999988 20.108625 -39.72999999999999 V-70.05624999999999 L60.0 -85.02624999999999 L99.891375 -70.05624999999999 V-39.72999999999999 Q99.891375 -38.29099999999999 99.821375 -36.88187499999999 Q99.751375 -35.47274999999999 99.611375 -34.09137499999999 Q98.426625 -34.34137499999999 97.179375 -34.48137499999999 Q95.932125 -34.62124999999999 94.65225 -34.62124999999999 Q93.114625 -34.62124999999999 91.6715 -34.40799999999999 Q90.22825 -34.19462499999999 88.77175 -33.76524999999999 Q89.019 -35.25712499999999 89.080125 -36.71637499999999 Q89.14125 -38.17562499999999 89.14125 -39.70624999999998 V-62.64049999999999 L60.0 -73.5615 L30.85875 -62.64812499999999 V-39.72999999999999 Q30.85875 -24.967874999999992 39.12775 -12.946749999999987 Q47.39675 -0.9256249999999895 60.0 3.378750000000011 Q62.779375 2.3842500000000086 65.426375 0.9636250000000111 Q68.073375 -0.4569999999999901 70.538 -2.281624999999991 V10.51462500000001 Q68.0435 11.916750000000011 65.409 12.89912500000001 Q62.7745 13.881375000000011 60.0 14.56625000000001 Z M84.04525 14.53637500000001 Q82.288 14.53637500000001 81.1005 13.304000000000011 Q79.913 12.07162500000001 79.913 10.29012500000001 V-6.132124999999991 Q79.913 -7.941999999999993 81.085625 -9.129499999999993 Q82.258125 -10.316999999999993 84.068 -10.316999999999993 H84.8505 V-15.441999999999993 Q84.8505 -19.59412499999999 87.76275 -22.42024999999999 Q90.674875 -25.24624999999999 94.833375 -25.24624999999999 Q98.991875 -25.24624999999999 101.910375 -22.42024999999999 Q104.828875 -19.59412499999999 104.828875 -15.441999999999993 V-10.316999999999993 H105.611375 Q107.42125 -10.316999999999993 108.59375 -9.129499999999993 Q109.766375 -7.941999999999993 109.766375 -6.132124999999991 V10.29012500000001 Q109.766375 12.07162500000001 108.578875 13.304000000000011 Q107.391375 14.53637500000001 105.634125 14.53637500000001 H84.04525 Z M89.96475 -10.316999999999993 H99.71475 V-15.441999999999993 Q99.71475 -17.566999999999993 98.33975 -18.941999999999993 Q96.96475 -20.316999999999993 94.83975 -20.316999999999993 Q92.71475 -20.316999999999993 91.33975 -18.941999999999993 Q89.96475 -17.566999999999993 89.96475 -15.441999999999993 V-10.316999999999993 Z"/></g><g id="Regular-M" transform="matrix(1 0 0 1 1394.06 1126)"><path d="M60.0 13.52000000000001 Q43.113625 9.24537500000001 32.119375 -5.960249999999991 Q21.125 -21.16574999999999 21.125 -39.72999999999999 V-69.35499999999999 L60.0 -83.97999999999999 L98.875 -69.35499999999999 V-39.72999999999999 Q98.875 -38.41049999999999 98.8125 -37.09112499999999 Q98.75 -35.77162499999999 98.625 -34.47999999999999 Q97.5 -34.72999999999999 96.3125 -34.85499999999999 Q95.125 -34.97999999999999 93.875 -34.97999999999999 Q92.6875 -34.97999999999999 91.5625 -34.88624999999999 Q90.4375 -34.79249999999999 89.25 -34.54249999999999 Q89.4375 -35.85499999999999 89.46875 -37.10499999999999 Q89.5 -38.35499999999999 89.5 -39.70624999999998 V-62.92399999999999 L60.0 -73.97999999999999 L30.5 -62.931625 V-39.72999999999999 Q30.5 -24.81837499999999 38.84375 -12.61787499999999 Q47.1875 -0.41749999999998977 60.0 3.7075000000000102 Q62.625 2.8216250000000116 65.125 1.5560000000000116 Q67.625 0.2903750000000116 70.0 -1.3549999999999898 V9.70750000000001 Q67.625 11.02000000000001 65.125 11.95750000000001 Q62.625 12.89500000000001 60.0 13.52000000000001 Z M83.47375 13.52000000000001 Q81.75 13.52000000000001 80.5625 12.33250000000001 Q79.375 11.14500000000001 79.375 9.39500000000001 V-6.72999999999999 Q79.375 -8.47999999999999 80.5625 -9.66749999999999 Q81.75 -10.85499999999999 83.5 -10.85499999999999 H84.3125 V-15.97999999999999 Q84.3125 -20.04249999999999 87.15625 -22.82374999999999 Q90.0 -25.60499999999999 94.0625 -25.60499999999999 Q98.125 -25.60499999999999 100.96875 -22.82374999999999 Q103.8125 -20.04249999999999 103.8125 -15.97999999999999 V-10.85499999999999 H104.625 Q106.375 -10.85499999999999 107.5625 -9.66749999999999 Q108.75 -8.47999999999999 108.75 -6.72999999999999 V9.39500000000001 Q108.75 11.14500000000001 107.5625 12.33250000000001 Q106.375 13.52000000000001 104.65125 13.52000000000001 H83.47375 Z M89.1875 -10.85499999999999 H98.9375 V-15.97999999999999 Q98.9375 -18.10499999999999 97.5625 -19.47999999999999 Q96.1875 -20.85499999999999 94.0625 -20.85499999999999 Q91.9375 -20.85499999999999 90.5625 -19.47999999999999 Q89.1875 -18.10499999999999 89.1875 -15.97999999999999 V-10.85499999999999 Z"/></g><g id="Light-M" transform="matrix(1 0 0 1 1098.18 1126)"><path d="M60.0 11.16400000000001 Q44.173625 6.82350000000001 33.79125 -7.555749999999989 Q23.408875 -21.935124999999992 23.408875 -39.73299999999999 V-67.78625 L60.0 -81.527875 L96.591125 -67.78737499999998 V-39.736374999999995 Q96.591125 -38.77112499999999 96.55275 -37.83074999999999 Q96.51425 -36.89049999999999 96.437375 -35.97049999999999 Q95.4085 -36.17237499999999 94.36275 -36.27337499999999 Q93.317 -36.374374999999986 92.21625 -36.374374999999986 Q91.496875 -36.374374999999986 90.82925 -36.31662499999999 Q90.161625 -36.25899999999999 89.442375 -36.12912499999999 Q89.55775 -37.03299999999999 89.576875 -37.90999999999999 Q89.596125 -38.78687499999999 89.596125 -39.70624999999998 V-63.02012499999999 L60.0 -74.05212499999999 L30.403875 -63.02774999999998 V-39.72999999999999 Q30.403875 -24.78462499999999 38.772625 -12.55662499999999 Q47.1415 -0.3286249999999882 59.99225 3.803625000000011 Q62.128375 3.10475000000001 64.1555 2.113500000000009 Q66.182625 1.1222500000000117 68.124875 -0.12899999999999068 V8.024625000000011 Q66.19525 9.08875000000001 64.164 9.86700000000001 Q62.13275 10.64525000000001 60.0 11.16400000000001 Z M82.416 11.26025000000001 Q80.71625 11.26025000000001 79.456625 10.00062500000001 Q78.197 8.74100000000001 78.197 7.015000000000011 V-7.931999999999988 Q78.197 -9.657999999999987 79.456625 -10.869499999999988 Q80.71625 -12.080999999999989 82.4495 -12.080999999999989 H83.158625 V-17.192874999999987 Q83.158625 -21.052249999999987 85.834 -23.67712499999999 Q88.5095 -26.30212499999999 92.367625 -26.30212499999999 Q96.225875 -26.30212499999999 98.913375 -23.67712499999999 Q101.60075 -21.052249999999987 101.60075 -17.192874999999987 V-12.080999999999989 H102.30275 Q104.038875 -12.080999999999989 105.2645 -10.869499999999988 Q106.49025 -9.657999999999987 106.49025 -7.931999999999988 V7.015000000000011 Q106.49025 8.74100000000001 105.2645 10.00062500000001 Q104.038875 11.26025000000001 102.319375 11.26025000000001 H82.416 Z M87.480625 -12.080999999999989 H97.27875 V-17.18912499999999 Q97.27875 -19.306999999999988 95.879625 -20.69399999999999 Q94.480625 -22.08099999999999 92.367625 -22.08099999999999 Q90.254625 -22.08099999999999 88.867625 -20.699124999999988 Q87.480625 -19.317249999999987 87.480625 -17.181999999999988 V-12.080999999999989 Z"/></g><g id="Thin-M" transform="matrix(1 0 0 1 802.565 1126)"><path d="M60.0 8.808500000000011 Q45.233375 4.402125000000009 35.462875 -9.15099999999999 Q25.69225 -22.704249999999988 25.69225 -39.73599999999999 V-66.21775 L60.0 -79.07612499999999 L94.30775 -66.21999999999998 V-39.742874999999984 Q94.30775 -39.13174999999999 94.29325 -38.57037499999999 Q94.278875 -38.00912499999999 94.25 -37.46074999999999 Q93.317375 -37.61462499999999 92.413375 -37.69149999999999 Q91.50925 -37.76849999999999 90.55775 -37.76849999999999 Q90.306625 -37.76849999999999 90.096125 -37.74674999999999 Q89.88575 -37.72512499999999 89.634625 -37.71549999999999 Q89.677875 -38.21074999999999 89.685125 -38.71474999999999 Q89.69225 -39.21874999999999 89.69225 -39.70624999999998 V-63.116249999999994 L60.0 -74.12424999999999 L30.30775 -63.123874999999984 V-39.72999999999999 Q30.30775 -24.750874999999986 38.7015 -12.495249999999992 Q47.095375 -0.23962499999998954 59.9845 3.8997500000000116 Q61.632 3.387750000000011 63.186125 2.6708750000000094 Q64.740375 1.9540000000000113 66.25 1.0968750000000114 V6.34212500000001 Q64.765625 7.157875000000011 63.203125 7.776875000000011 Q61.640625 8.39587500000001 60.0 8.808500000000011 Z M81.358375 9.00075000000001 Q79.68275 9.00075000000001 78.351 7.669125000000012 Q77.01925 6.337375000000009 77.01925 4.6353750000000105 V-9.133874999999989 Q77.01925 -10.83574999999999 78.351 -12.071374999999989 Q79.68275 -13.306874999999991 81.399 -13.306874999999991 H82.004875 V-18.405624999999986 Q82.004875 -22.06174999999999 84.512 -24.53049999999999 Q87.01925 -26.99924999999999 90.673125 -26.99924999999999 Q94.327 -26.99924999999999 96.85825 -24.53049999999999 Q99.3895 -22.06174999999999 99.3895 -18.405624999999986 V-13.306874999999991 H99.98075 Q101.703125 -13.306874999999991 102.966875 -12.071374999999989 Q104.23075 -10.83574999999999 104.23075 -9.133874999999989 V4.6353750000000105 Q104.23075 6.337375000000009 102.966875 7.669125000000012 Q101.703125 9.00075000000001 99.987875 9.00075000000001 H81.358375 Z M85.774125 -13.306874999999991 H95.62025 V-18.398124999999993 Q95.62025 -20.50887499999999 94.197125 -21.90787499999999 Q92.774125 -23.30687499999999 90.673125 -23.30687499999999 Q88.572125 -23.30687499999999 87.173125 -21.91812499999999 Q85.774125 -20.52924999999999 85.774125 -18.38387499999999 V-13.306874999999991 Z"/></g><g id="Ultralight-M" transform="matrix(1 0 0 1 506.415 1126)"><path d="M60.0 7.39500000000001 Q45.869375 2.9491250000000093 36.465875 -10.108374999999988 Q27.0625 -23.16574999999999 27.0625 -39.73774999999999 V-65.27649999999998 L60.0 -77.60499999999999 L92.9375 -65.27949999999998 V-39.74674999999999 Q92.9375 -39.347999999999985 92.9375 -39.01412499999999 Q92.9375 -38.68037499999999 92.9375 -38.35499999999999 Q92.0625 -38.47999999999999 91.2435 -38.54249999999999 Q90.424625 -38.60499999999999 89.5625 -38.60499999999999 Q89.59225 -38.60499999999999 89.65625 -38.60499999999999 Q89.72025 -38.60499999999999 89.75 -38.66749999999999 Q89.75 -38.91749999999999 89.75 -39.19774999999999 Q89.75 -39.47787499999998 89.75 -39.70624999999998 V-63.17399999999999 L60.0 -74.16749999999999 L30.25 -63.181625 V-39.72999999999999 Q30.25 -24.73062499999999 38.658875 -12.458499999999987 Q47.06775 -0.18637499999999108 59.979875 3.9575000000000102 Q61.334 3.5576250000000087 62.6045 3.0053750000000115 Q63.875 2.4532500000000113 65.125 1.8325000000000102 V5.33250000000001 Q63.907875 5.99912500000001 62.626625 6.5226250000000086 Q61.345375 7.04600000000001 60.0 7.39500000000001 Z M80.72375 7.64500000000001 Q79.0625 7.64500000000001 77.6875 6.27000000000001 Q76.3125 4.89500000000001 76.3125 3.2075000000000102 V-9.85499999999999 Q76.3125 -11.54249999999999 77.6875 -12.79249999999999 Q79.0625 -14.04249999999999 80.76875 -14.04249999999999 H81.3125 V-19.13324999999999 Q81.3125 -22.66749999999999 83.71875 -25.04249999999999 Q86.125 -27.41749999999999 89.65625 -27.41749999999999 Q93.1875 -27.41749999999999 95.625 -25.04249999999999 Q98.0625 -22.66749999999999 98.0625 -19.13324999999999 V-14.04249999999999 H98.5875 Q100.3015 -14.04249999999999 101.58825 -12.79249999999999 Q102.875 -11.54249999999999 102.875 -9.85499999999999 V3.2075000000000102 Q102.875 4.89500000000001 101.58825 6.27000000000001 Q100.3015 7.64500000000001 98.58875 7.64500000000001 H80.72375 Z M84.75 -14.04249999999999 H94.625 V-19.12362499999999 Q94.625 -21.22999999999999 93.1875 -22.63624999999999 Q91.75 -24.04249999999999 89.65625 -24.04249999999999 Q87.5625 -24.04249999999999 86.15625 -22.64949999999999 Q84.75 -21.25649999999999 84.75 -19.10499999999999 V-14.04249999999999 Z"/></g><g id="Bold-S" transform="matrix(1 0 0 1 2294.23 696)"><path d="M47.34 5.107625000000013 Q32.95465612500001 1.6550596250000122 23.52896625 -10.868540124999988 Q14.103375 -23.39204124999999 14.103375 -38.68187499999999 V-62.89056474999998 L47.34 -75.56762499999999 L80.576625 -62.89056474999998 V-38.68187499999999 Q80.576625 -37.14766449999999 80.50265625 -35.81080262499999 Q80.42868750000001 -34.47384212499999 80.28075 -33.15887499999999 Q79.008980625 -33.45474999999999 77.677543125 -33.65199999999999 Q76.346105625 -33.84924999999999 75.053625 -33.84924999999999 Q73.34682075 -33.84924999999999 71.759254125 -33.43009374999999 Q70.1716875 -33.01093749999999 68.84025 -32.32056249999999 Q69.1854375 -33.84924999999999 69.30871875 -35.525874999999985 Q69.432 -37.202499999999986 69.432 -38.66313624999999 V-55.15895649999999 L47.34 -63.633999999999986 L25.248 -55.16497262499999 V-38.68187499999999 Q25.248 -27.68094662499999 31.584656250000002 -18.868408374999987 Q37.9213125 -10.055968749999987 47.34 -6.283562499999988 Q49.713312 -7.219710999999986 51.97359975 -8.557065999999988 Q54.2338875 -9.894420999999987 56.21625 -11.559999999999988 V1.7050625000000128 Q54.13841850000001 2.8787000000000145 51.922709250000004 3.647975000000013 Q49.707 4.417250000000013 47.34 5.107625000000013 Z M65.18224875 5.009000000000014 Q64.11788775000001 5.009000000000014 63.471006375 4.214181125000014 Q62.824125 3.419362250000013 62.824125 2.3407006250000126 V-12.546249999999986 Q62.824125 -13.718112249999987 63.421693875 -14.364993624999986 Q64.01926275000001 -15.01187499999999 65.191125 -15.01187499999999 H67.5088125 V-19.84449999999999 Q67.5088125 -23.02022499999999 69.75253125 -25.130799999999994 Q71.99625 -27.24137499999999 75.20156250000001 -27.24137499999999 Q78.406875 -27.24137499999999 80.65059375 -25.130799999999994 Q82.8943125 -23.02022499999999 82.8943125 -19.84449999999999 V-15.01187499999999 H85.212 Q86.38386224999999 -15.01187499999999 86.981431125 -14.364993624999986 Q87.57900000000001 -13.718112249999987 87.57900000000001 -12.546249999999986 V2.3407006250000126 Q87.57900000000001 3.419362250000013 86.932118625 4.214181125000014 Q86.28523725 5.009000000000014 85.22087625 5.009000000000014 H65.18224875 Z M71.74968750000001 -15.01187499999999 H78.65343750000001 V-19.84449999999999 Q78.65343750000001 -21.353462499999992 77.68799737500001 -22.324918749999988 Q76.722458625 -23.29637499999999 75.222372375 -23.29637499999999 Q73.7221875 -23.29637499999999 72.7359375 -22.324918749999988 Q71.74968750000001 -21.353462499999992 71.74968750000001 -19.84449999999999 V-15.01187499999999 Z"/></g><g id="Semibold-S" transform="matrix(1 0 0 1 1998.1 696)"><path d="M47.34 3.606947000000014 Q33.587828625 0.2748027500000134 24.574489875 -11.820172749999987 Q15.561249750000002 -23.915246874999987 15.561249750000002 -38.68187499999999 V-61.88458974999999 L47.34 -74.06694699999998 L79.11875025 -61.88458974999999 V-38.68187499999999 Q79.11875025 -37.31917337499999 79.055531625 -36.11091849999999 Q78.99231300000001 -34.90266362499999 78.86577712500001 -33.71630349999999 Q77.67981150000001 -34.01217849999999 76.434079125 -34.18792824999999 Q75.188445375 -34.363776624999986 73.93876800000001 -34.363776624999986 Q72.734063625 -34.363776624999986 71.60293349999999 -34.11612924999999 Q70.47180337500001 -33.868481874999986 69.5262855 -33.43541949999999 Q69.785767875 -34.70679437499999 69.86614725000001 -36.083303499999985 Q69.946526625 -37.459812624999984 69.946526625 -38.66313624999999 V-55.56558737499999 L47.34 -64.23433037499998 L24.733473375 -55.57160349999998 V-38.68187499999999 Q24.733473375 -27.46653587499999 31.177335000000003 -18.39678362499999 Q37.621196625 -9.327031374999986 47.34 -5.811937749999988 Q49.491898875000004 -6.592455999999988 51.541326375000004 -7.707510249999984 Q53.590753875000004 -8.822564499999988 55.44441075 -10.230830874999988 V0.5474022500000135 Q53.53818675 1.5923341250000131 51.515388 2.2973056250000123 Q49.49258925 3.0022771250000133 47.34 3.606947000000014 Z M64.362379125 3.5511252500000143 Q63.34604850000001 3.5511252500000143 62.699167124999995 2.8207085000000127 Q62.05228575 2.090193125000013 62.05228575 1.0567017500000127 V-13.403794374999986 Q62.05228575 -14.48995149999999 62.671354875000006 -15.136832874999985 Q63.290325375 -15.783714249999989 64.37648250000001 -15.783714249999989 H66.73697325 V-20.61633924999999 Q66.73697325 -23.663358624999987 68.88265875 -25.70963012499999 Q71.028245625 -27.755901624999986 74.095877625 -27.755901624999986 Q77.16341100000001 -27.755901624999986 79.299924375 -25.70963012499999 Q81.43643775 -23.663358624999987 81.43643775 -20.61633924999999 V-15.783714249999989 H83.797027125 Q84.88318425000001 -15.783714249999989 85.50215475 -15.136832874999985 Q86.12112525 -14.48995149999999 86.12112525 -13.403794374999986 V1.0567017500000127 Q86.12112525 2.090193125000013 85.4743425 2.8207085000000127 Q84.827461125 3.5511252500000143 83.811031875 3.5511252500000143 H64.362379125 Z M70.6348305 -15.783714249999989 H77.53858050000001 V-20.61633924999999 Q77.53858050000001 -22.125301749999984 76.57314037500001 -23.096757999999987 Q75.607601625 -24.06821424999999 74.107515375 -24.06821424999999 Q72.6073305 -24.06821424999999 71.6210805 -23.096757999999987 Q70.6348305 -22.125301749999984 70.6348305 -20.61633924999999 V-15.783714249999989 Z"/></g><g id="Medium-S" transform="matrix(1 0 0 1 1701.85 696)"><path d="M47.34 2.4812412500000143 Q34.06290525 -0.7604638749999868 25.358854500000003 -12.53411912499999 Q16.654705125 -24.307675749999987 16.654705125 -38.68187499999999 V-61.12991124999999 L47.34 -72.94124124999999 L78.025294875 -61.12991124999999 V-38.68187499999999 Q78.025294875 -37.447878999999986 77.970064875 -36.33607937499998 Q77.914834875 -35.22427974999999 77.804374875 -34.13437487499999 Q76.68271275000001 -34.43024987499999 75.5013825 -34.59002237499999 Q74.32005225 -34.749696249999985 73.10262525 -34.749696249999985 Q72.27437250000001 -34.749696249999985 71.485668375 -34.63075449999999 Q70.69696425000001 -34.51171412499999 70.04091075 -34.27156224999999 Q70.23599100000001 -35.350026624999984 70.284218625 -36.50137487499999 Q70.33244625 -37.65272312499999 70.33244625 -38.66313624999999 V-55.870634499999994 L47.34 -64.68455349999999 L24.347553750000003 -55.876650624999996 V-38.68187499999999 Q24.347553750000003 -27.30577712499999 30.87179475 -18.043015749999984 Q37.39603575 -8.780254374999988 47.34 -5.4580712499999855 Q49.325814375 -6.121916124999988 51.21704737500001 -7.070195499999986 Q53.108280375 -8.018474874999988 54.865482 -9.233732124999989 V-0.32099087499998724 Q53.087865 0.6274857500000124 51.20984775000001 1.2842296250000143 Q49.3318305 1.9408748750000129 47.34 2.4812412500000143 Z M63.74745225 2.457669875000013 Q62.767119750000006 2.457669875000013 62.12023837500001 1.7753821250000126 Q61.473357 1.0931930000000136 61.473357 0.09362862500001334 V-14.047026624999987 Q61.473357 -15.068880249999985 62.10850200000001 -15.715761624999988 Q62.743548375 -16.36264299999999 63.765402 -16.36264299999999 H66.1580445 V-21.19526799999999 Q66.1580445 -24.14583212499999 68.23015575 -26.14387599999999 Q70.30216837500001 -28.141821249999985 73.266441375 -28.141821249999985 Q76.23071437499999 -28.141821249999985 78.286848375 -26.14387599999999 Q80.342982375 -24.14583212499999 80.342982375 -21.19526799999999 V-16.36264299999999 H82.735624875 Q83.7574785 -16.36264299999999 84.392524875 -15.715761624999988 Q85.027669875 -15.068880249999985 85.027669875 -14.047026624999987 V0.09362862500001334 Q85.027669875 1.0931930000000136 84.38078850000001 1.7753821250000126 Q83.733907125 2.457669875000013 82.753574625 2.457669875000013 H63.74745225 Z M69.79868775 -16.36264299999999 H76.70243775 V-21.19526799999999 Q76.70243775 -22.704230499999987 75.73689900000001 -23.67568674999999 Q74.77145887500001 -24.647142999999993 73.271274 -24.647142999999993 Q71.77118775 -24.647142999999993 70.78493775 -23.67568674999999 Q69.79868775 -22.704230499999987 69.79868775 -21.19526799999999 V-16.36264299999999 Z"/></g><g id="Regular-S" transform="matrix(1 0 0 1 1405.73 696)"><path d="M47.34 1.6557500000000136 Q34.411150125 -1.5196791249999873 25.933936875 -13.057620624999988 Q17.456625000000003 -24.595463499999994 17.456625000000003 -38.68187499999999 V-60.57662499999999 L47.34 -72.11574999999999 L77.223375 -60.57662499999999 V-38.68187499999999 Q77.223375 -37.54216449999999 77.1740625 -36.50117762499999 Q77.12475 -35.46009212499999 77.02612500000001 -34.44099999999999 Q75.951605625 -34.73687499999999 74.817418125 -34.88481249999999 Q73.68323062500001 -35.032749999999986 72.48937500000001 -35.032749999999986 Q71.937370875 -35.032749999999986 71.399766 -35.008093749999986 Q70.86206250000001 -34.98343749999999 70.41825 -34.88481249999999 Q70.5661875 -35.82174999999999 70.59084375 -36.807999999999986 Q70.6155 -37.79424999999999 70.6155 -38.66313624999999 V-56.09431599999999 L47.34 -65.01474999999999 L24.064500000000002 -56.100332124999994 V-38.68187499999999 Q24.064500000000002 -27.18782162499999 30.647718750000003 -17.783533374999987 Q37.2309375 -8.379343749999986 47.34 -5.198687499999988 Q49.2040125 -5.776827249999986 50.9792625 -6.602811624999987 Q52.7545125 -7.428795999999988 54.441 -8.502624999999988 V-0.9578124999999869 Q52.7576685 -0.08004999999998574 50.985771750000005 0.5412875000000135 Q49.213875 1.1626250000000127 47.34 1.6557500000000136 Z M63.296538749999996 1.6557500000000136 Q62.34263775000001 1.6557500000000136 61.695756375 1.008868625000014 Q61.048875 0.36198725000001275 61.048875 -0.6126249999999871 V-14.518749999999986 Q61.048875 -15.493362249999986 61.695756375 -16.140243624999986 Q62.34263775000001 -16.78712499999999 63.31725 -16.78712499999999 H65.7335625 V-21.61974999999999 Q65.7335625 -24.499599999999987 67.75162725 -26.462237499999993 Q69.769790625 -28.424874999999986 72.658221 -28.424874999999986 Q75.54675 -28.424874999999986 77.54390625 -26.462237499999993 Q79.54106250000001 -24.499599999999987 79.54106250000001 -21.61974999999999 V-16.78712499999999 H81.957375 Q82.93198724999999 -16.78712499999999 83.57886862500001 -16.140243624999986 Q84.22575 -15.493362249999986 84.22575 -14.518749999999986 V-0.6126249999999871 Q84.22575 0.36198725000001275 83.57886862500001 1.008868625000014 Q82.93198724999999 1.6557500000000136 81.97808625 1.6557500000000136 H63.296538749999996 Z M69.1854375 -16.78712499999999 H76.08918750000001 V-21.61974999999999 Q76.08918750000001 -23.128712499999992 75.12374737500001 -24.100168749999987 Q74.15820862500001 -25.07162499999999 72.658122375 -25.07162499999999 Q71.1579375 -25.07162499999999 70.1716875 -24.100168749999987 Q69.1854375 -23.128712499999992 69.1854375 -21.61974999999999 V-16.78712499999999 Z"/></g><g id="Light-S" transform="matrix(1 0 0 1 1109.75 696)"><path d="M47.34 -0.20313399999998616 Q35.247490125000006 -3.4305384999999866 27.25304625 -14.316470124999988 Q19.258602375 -25.202401749999993 19.258602375 -38.68424199999999 V-59.33888125 L47.34 -70.181023375 L75.42139762500001 -59.33976887499999 V-38.686904874999996 Q75.42139762500001 -37.82669762499999 75.39111975 -37.084741749999985 Q75.36074325000001 -36.34288449999999 75.300088875 -35.617004499999986 Q74.30141212500001 -35.87490887499999 73.279065375 -36.00391037499999 Q72.256718625 -36.132911874999984 71.18062125 -36.132911874999984 Q70.99806637500001 -36.132911874999984 70.82123175000001 -36.136659624999986 Q70.644397125 -36.14050599999999 70.57003387500001 -36.136659624999986 Q70.66106475000001 -36.75119199999999 70.67615437500001 -37.44314499999999 Q70.691342625 -38.134999374999985 70.691342625 -38.66313624999999 V-56.170158624999985 L47.34 -65.07165662499999 L23.988657375 -56.17617474999999 V-38.68187499999999 Q23.988657375 -27.16119287499999 30.591601125 -17.735207124999988 Q37.194643500000005 -8.309221374999986 47.33388525 -5.122844874999988 Q48.812175375 -5.553441624999987 50.214327000000004 -6.162944124999985 Q51.616478625 -6.772446624999986 52.961526375000005 -7.535310999999989 V-2.285600874999986 Q51.62959575000001 -1.6038062499999874 50.227542750000005 -1.1081169999999876 Q48.82548975 -0.612427749999986 47.34 -0.20313399999998616 Z M62.461974 -0.12719274999998653 Q61.527009 -0.12719274999998653 60.823221000000004 -0.830980749999986 Q60.11943300000001 -1.5347687499999871 60.11943300000001 -2.490444999999987 V-15.467127999999985 Q60.11943300000001 -16.422804249999984 60.823221000000004 -17.088621624999988 Q61.527009 -17.754438999999987 62.488405500000006 -17.754438999999987 H64.823155125 V-22.57670837499999 Q64.823155125 -25.296292749999992 66.708470625 -27.135550374999987 Q68.593786125 -28.97490662499999 71.32106325000001 -28.97490662499999 Q74.04834037500001 -28.97490662499999 75.92221537500001 -27.135550374999987 Q77.79599175000001 -25.296292749999992 77.79599175000001 -22.57670837499999 V-17.754438999999987 H80.12511975000001 Q81.088784625 -17.754438999999987 81.765746625 -17.088621624999988 Q82.44280725 -16.422804249999984 82.44280725 -15.467127999999985 V-2.490444999999987 Q82.44280725 -1.5347687499999871 81.765746625 -0.830980749999986 Q81.088784625 -0.12719274999998653 80.138236875 -0.12719274999998653 H62.461974 Z M67.83871312500001 -17.754438999999987 H74.78043375 V-22.57374962499999 Q74.78043375 -24.07709049999999 73.79595900000001 -25.05801474999999 Q72.81148425 -26.038938999999985 71.32086600000001 -26.038938999999985 Q69.830149125 -26.038938999999985 68.83443112500001 -25.062058374999992 Q67.83871312500001 -24.085177749999986 67.83871312500001 -22.568127999999987 V-17.754438999999987 Z"/></g><g id="Thin-S" transform="matrix(1 0 0 1 814.015 696)"><path d="M47.34 -2.061623499999987 Q36.083632875000006 -5.341003374999989 28.571958374999998 -15.575122374999989 Q21.060185250000004 -25.80933999999999 21.060185250000004 -38.68660899999999 V-58.10133474999999 L47.34 -68.24659262499999 L73.61981475 -58.10310999999999 V-38.69203337499999 Q73.61981475 -38.11123074999999 73.60837425 -37.66830587499999 Q73.597032375 -37.22547962499999 73.57425 -36.79281174999999 Q72.6515145 -37.01284412499999 71.7410085 -37.12281099999999 Q70.8305025 -37.23287649999999 69.87206475 -37.23287649999999 Q70.05886050000001 -37.23287649999999 70.242796125 -37.26502824999999 Q70.42673175 -37.29727862499999 70.721719125 -37.38830949999999 Q70.755843375 -37.68043674999999 70.76156362500001 -38.07809274999999 Q70.76718525 -38.47574874999999 70.76718525 -38.66313624999999 V-56.24600124999999 L47.34 -65.12856324999998 L23.91281475 -56.25201737499998 V-38.68187499999999 Q23.91281475 -27.134564124999983 30.535483500000005 -17.68678224999999 Q37.158250875 -8.239000374999986 47.3277705 -5.047002249999988 Q48.42053550000001 -5.330154624999988 49.449490125000004 -5.72317524999999 Q50.478543375 -6.116195874999988 51.48225 -6.568095624999987 V-3.6130933749999876 Q50.501621625000006 -3.1272666249999883 49.469412375000005 -2.757225624999988 Q48.437203125 -2.3871846249999873 47.34 -2.061623499999987 Z M61.627507875 -1.9099382499999873 Q60.711478875 -1.9099382499999873 59.950882875 -2.6705342499999887 Q59.190188250000006 -3.431228874999988 59.190188250000006 -4.367969124999988 V-16.415407374999987 Q59.190188250000006 -17.352048999999987 59.950882875 -18.03690099999999 Q60.711478875 -18.72165437499999 61.659561000000004 -18.72165437499999 H63.912846375 V-23.533568124999988 Q63.912846375 -26.092788249999984 65.665412625 -27.808863249999987 Q67.417978875 -29.52493824999999 69.984004125 -29.52493824999999 Q72.550128 -29.52493824999999 74.30072175000001 -27.808863249999987 Q76.0513155 -26.092788249999984 76.0513155 -23.533568124999988 V-18.72165437499999 H78.29306175 Q79.245877875 -18.72165437499999 79.95301912500001 -18.03690099999999 Q80.66006175 -17.352048999999987 80.66006175 -16.415407374999987 V-4.367969124999988 Q80.66006175 -3.431228874999988 79.95301912500001 -2.6705342499999887 Q79.245877875 -1.9099382499999873 78.29868337500001 -1.9099382499999873 H61.627507875 Z M66.492284625 -18.72165437499999 H73.47187725 V-23.527650624999993 Q73.47187725 -25.02536987499999 72.4684665 -26.015762124999988 Q71.46505575 -27.006154374999987 69.983806875 -27.006154374999987 Q68.502656625 -27.006154374999987 67.497470625 -26.023849374999983 Q66.492284625 -25.041445749999987 66.492284625 -23.516407374999986 V-18.72165437499999 Z"/></g><g id="Ultralight-S" transform="matrix(1 0 0 1 517.792 696)"><path d="M47.34 -3.1768749999999866 Q36.585436875 -6.487420374999989 29.363325375 -16.330491249999987 Q22.1413125 -26.17346349999999 22.1413125 -38.68798974999999 V-57.358688499999985 L47.34 -67.08587499999999 L72.53868750000001 -57.36105549999999 V-38.69509074999999 Q72.53868750000001 -38.28185199999999 72.53868750000001 -38.018424624999994 Q72.53868750000001 -37.75509587499999 72.53868750000001 -37.49837499999999 Q71.66141812500001 -37.695624999999986 70.81807575 -37.79424999999999 Q69.97463474999999 -37.89287499999999 69.08681250000001 -37.89287499999999 Q69.49521862499999 -37.89287499999999 69.89573475 -37.94218749999999 Q70.29615224999999 -37.99149999999999 70.81275000000001 -38.139437499999985 Q70.81275000000001 -38.23806249999999 70.81275000000001 -38.45917974999998 Q70.81275000000001 -38.68019837499998 70.81275000000001 -38.66313624999999 V-56.29156599999999 L47.34 -65.16268749999999 L23.867250000000002 -56.29758212499999 V-38.68187499999999 Q23.867250000000002 -27.118586874999984 30.501852375000002 -17.657786499999986 Q37.13645475 -8.196986124999988 47.324121375000004 -5.001437499999987 Q48.1854135 -5.196123249999985 48.990588 -5.459254749999985 Q49.7957625 -5.722287624999986 50.594625 -5.987687499999986 V-4.409687499999986 Q49.824856875 -4.041520374999987 49.014553875 -3.746828874999986 Q48.204250875 -3.4522359999999868 47.34 -3.1768749999999866 Z M61.126788749999996 -2.979624999999986 Q60.22220025000001 -2.979624999999986 59.427381375 -3.774443874999987 Q58.632562500000006 -4.569262749999986 58.632562500000006 -5.4945624999999865 V-16.98437499999999 Q58.632562500000006 -17.909674749999986 59.427381375 -18.605868624999985 Q60.22220025000001 -19.302062499999987 61.16229375 -19.302062499999987 H63.3665625 V-24.107664249999985 Q63.3665625 -26.57072499999999 65.03943975 -28.212831249999994 Q66.712415625 -29.85493749999999 69.18168975 -29.85493749999999 Q71.65106250000001 -29.85493749999999 73.3276875 -28.212831249999994 Q75.0043125 -26.57072499999999 75.0043125 -24.107664249999985 V-19.302062499999987 H77.19378750000001 Q78.13999575 -19.302062499999987 78.86518537500001 -18.605868624999985 Q79.59037500000001 -17.909674749999986 79.59037500000001 -16.98437499999999 V-5.4945624999999865 Q79.59037500000001 -4.569262749999986 78.86518537500001 -3.774443874999987 Q78.13999575 -2.979624999999986 77.19477375000001 -2.979624999999986 H61.126788749999996 Z M65.68425 -19.302062499999987 H72.686625 V-24.100070124999988 Q72.686625 -25.594337499999988 71.671872375 -26.590449999999983 Q70.65702112500001 -27.586562499999985 69.18159112500001 -27.586562499999985 Q67.7060625 -27.586562499999985 66.69515625 -26.600904249999985 Q65.68425 -25.615245999999985 65.68425 -24.085374999999985 V-19.302062499999987 Z"/></g></g></svg>