<svg xmlns="http://www.w3.org/2000/svg" version="1.1" width="3300" height="2000"><g id="Notes"><style>
    text {
      font-family: monospace;
      text-anchor: middle;
    }
    text.emphasis {
      font-weight:bold;
    }
    text.lanchor {
      text-anchor: start;
    }
  </style><rect height="2200" id="artboard" fill="white" width="3300" x="0" y="0"/><line id="" style="fill:none;stroke:black;stroke-width:0.5;" x1="263" x2="3036" y1="292" y2="292"/><text class="lanchor emphasis" transform="matrix(1 0 0 1 263 322)">Weight/Scale Variations</text><text transform="matrix(1 0 0 1 559.711 322)">Ultralight</text><text transform="matrix(1 0 0 1 856.422 322)">Thin</text><text transform="matrix(1 0 0 1 1153.13 322)">Light</text><text transform="matrix(1 0 0 1 1449.84 322)">Regular</text><text transform="matrix(1 0 0 1 1746.56 322)">Medium</text><text transform="matrix(1 0 0 1 2043.27 322)">Semibold</text><text transform="matrix(1 0 0 1 2339.98 322)">Bold</text><text transform="matrix(1 0 0 1 2636.69 322)">Heavy</text><text transform="matrix(1 0 0 1 2933.4 322)">Black</text><text id="template-version" style="text-anchor: end;" transform="matrix(1 0 0 1 3036 1933)">Template v.1.0</text><text class="lanchor" transform="matrix(1 0 0 1 263 726)">Small</text><text class="lanchor" transform="matrix(1 0 0 1 263 1156)">Medium</text><text class="lanchor" transform="matrix(1 0 0 1 263 1586)">Large</text></g><g id="Guides"><g id="H-reference" style="fill:#27AAE1;stroke:none;" transform="matrix(1 0 0 1 339 696)"><path d="M 54.9316 0 L 57.666 0 L 30.5664 -70.459 L 28.0762 -70.459 L 0.976562 0 L 3.66211 0 L 12.9395 -24.4629 L 45.7031 -24.4629 Z M 29.1992 -67.0898 L 29.4434 -67.0898 L 44.8242 -26.709 L 13.8184 -26.709 Z"/></g><line id="Baseline-S" style="fill:none;stroke:#27AAE1;opacity:1;stroke-width:0.577;" x1="263" x2="3036" y1="696" y2="696"/><line id="Capline-S" style="fill:none;stroke:#27AAE1;opacity:1;stroke-width:0.577;" x1="263" x2="3036" y1="625.541" y2="625.541"/><g id="H-reference" style="fill:#27AAE1;stroke:none;" transform="matrix(1 0 0 1 339 1126)"><path d="M 54.9316 0 L 57.666 0 L 30.5664 -70.459 L 28.0762 -70.459 L 0.976562 0 L 3.66211 0 L 12.9395 -24.4629 L 45.7031 -24.4629 Z M 29.1992 -67.0898 L 29.4434 -67.0898 L 44.8242 -26.709 L 13.8184 -26.709 Z"/></g><line id="Baseline-M" style="fill:none;stroke:#27AAE1;opacity:1;stroke-width:0.577;" x1="263" x2="3036" y1="1126" y2="1126"/><line id="Capline-M" style="fill:none;stroke:#27AAE1;opacity:1;stroke-width:0.577;" x1="263" x2="3036" y1="1055.54" y2="1055.54"/><g id="H-reference" style="fill:#27AAE1;stroke:none;" transform="matrix(1 0 0 1 339 1556)"><path d="M 54.9316 0 L 57.666 0 L 30.5664 -70.459 L 28.0762 -70.459 L 0.976562 0 L 3.66211 0 L 12.9395 -24.4629 L 45.7031 -24.4629 Z M 29.1992 -67.0898 L 29.4434 -67.0898 L 44.8242 -26.709 L 13.8184 -26.709 Z"/></g><line id="Baseline-L" style="fill:none;stroke:#27AAE1;opacity:1;stroke-width:0.577;" x1="263" x2="3036" y1="1556" y2="1556"/><line id="Capline-L" style="fill:none;stroke:#27AAE1;opacity:1;stroke-width:0.577;" x1="263" x2="3036" y1="1485.54" y2="1485.54"/><rect height="119.336" id="left-margin" style="fill:darkred;stroke:none;opacity:0.4;" width="12.4512" x="1394.06" y="1030.79"/><rect height="119.336" id="right-margin" style="fill:darkgreen;stroke:none;opacity:0.4;" width="12.4512" x="1502.5112" y="1030.79"/><rect x="1406.5112" y="1045" width="96" height="96" fill="none" stroke="blue" stroke-dasharray="5"/><rect x="1394.06" y="1030.79" width="120.9024" height="119.336" fill="none" stroke="blue"/></g><g id="Symbols"><g id="Bold-L" transform="matrix(1 0 0 1 2266 1556)"><path d="M77.4764325 -16.847499999999982 Q80.52421875 -16.847499999999982 82.50969 -18.94084749999999 Q84.495 -21.03435624999998 84.495 -24.021673749999977 Q84.495 -27.009152499999985 82.51243125 -29.103951249999994 Q80.52986250000001 -31.19874999999999 77.48207625 -31.19874999999999 Q74.43412875000001 -31.19874999999999 72.36964499999999 -29.13700749999998 Q70.305 -27.075264999999987 70.305 -24.02731749999998 Q70.305 -21.039999999999985 72.3667425 -18.943749999999987 Q74.42848500000001 -16.847499999999982 77.4764325 -16.847499999999982 Z M71.595 -38.938749999999985 H83.205 V-80.37999999999998 H71.595 V-38.938749999999985 Z M8.86875 33.30125000000002 V-103.92249999999999 H146.0925 V7.501250000000013 H34.66875 L8.86875 33.30125000000002 Z M24.02625 -7.656249999999986 H130.77375 V-88.60374999999999 H24.02625 V-7.656249999999986 Z"/></g><g id="Semibold-L" transform="matrix(1 0 0 1 1970.27 1556)"><path d="M77.441925 -16.91764374999999 Q80.1473775 -16.91764374999999 81.93564 -18.76572999999999 Q83.7239025 -20.613654999999987 83.7239025 -23.284922499999993 Q83.7239025 -25.956351249999983 81.93854250000001 -27.80637249999998 Q80.15302125 -29.656393749999992 77.44756875 -29.656393749999992 Q74.74211625 -29.656393749999992 72.9091875 -27.82636749999999 Q71.0760975 -25.99617999999998 71.0760975 -23.29072749999999 Q71.0760975 -20.61929874999999 72.906285 -18.76847124999999 Q74.7364725 -16.91764374999999 77.441925 -16.91764374999999 Z M72.01570124999999 -39.35945124999998 H82.78429874999999 V-80.37999999999998 H72.01570124999999 V-39.35945124999998 Z M10.62137625 31.548623750000015 V-102.09973 H144.26973 V5.748623750000014 H36.42137625 L10.62137625 31.548623750000015 Z M23.39527875 -7.025278749999984 H131.40472125 V-89.23472124999998 H23.39527875 V-7.025278749999984 Z"/></g><g id="Medium-L" transform="matrix(1 0 0 1 1674.31 1556)"><path d="M77.41612500000001 -16.97021124999999 Q79.86470625000001 -16.97021124999999 81.5051025 -18.634149999999984 Q83.1453375 -20.29824999999998 83.1453375 -22.73231874999999 Q83.1453375 -25.16654874999999 81.50784375 -26.833067499999984 Q79.87035 -28.499586249999993 77.42176875 -28.499586249999993 Q74.9731875 -28.499586249999993 73.31392500000001 -26.84306499999998 Q71.6546625 -25.18670499999999 71.6546625 -22.738123749999986 Q71.6546625 -20.303893749999986 73.3110225 -18.63705249999999 Q74.96754375 -16.97021124999999 77.41612500000001 -16.97021124999999 Z M72.33110625 -39.67485624999999 H82.46889375 V-80.37999999999998 H72.33110625 V-39.67485624999999 Z M11.9360475 30.233952500000015 V-100.73265249999997 H142.9026525 V4.433952500000018 H37.7360475 L11.9360475 30.233952500000015 Z M22.92201 -6.5520099999999815 H131.87798999999998 V-89.70798999999997 H22.92201 V-6.5520099999999815 Z"/></g><g id="Regular-L" transform="matrix(1 0 0 1 1378.56 1556)"><path d="M77.3970975 -17.008749999999985 Q79.6575 -17.008749999999985 81.189375 -18.537722499999987 Q82.72125 -20.06685624999998 82.72125 -22.327097499999994 Q82.72125 -24.58749999999999 81.1922775 -26.11937499999999 Q79.66314375 -27.65124999999999 77.4029025 -27.65124999999999 Q75.1425 -27.65124999999999 73.610625 -26.12227749999998 Q72.07875 -24.593143749999996 72.07875 -22.332902499999975 Q72.07875 -20.072499999999984 73.60772250000001 -18.540624999999984 Q75.13685625 -17.008749999999985 77.3970975 -17.008749999999985 Z M72.5625 -39.906249999999986 H82.2375 V-80.37999999999998 H72.5625 V-39.906249999999986 Z M12.9 29.270000000000017 V-99.72999999999999 H141.9 V3.470000000000013 H38.7 L12.9 29.270000000000017 Z M22.575 -6.204999999999984 H132.225 V-90.05499999999998 H22.575 V-6.204999999999984 Z"/></g><g id="Light-L" transform="matrix(1 0 0 1 1082.77 1556)"><path d="M77.39177625 -18.55932999999998 Q79.254375 -18.55932999999998 80.52260625000001 -19.81933749999999 Q81.79083750000001 -21.07934499999999 81.79083750000001 -22.941943749999993 Q81.79083750000001 -24.804542499999982 80.53083000000001 -26.072934999999987 Q79.2708225 -27.341166249999986 77.40822375 -27.341166249999986 Q75.545625 -27.341166249999986 74.27739375 -26.081158749999986 Q73.0091625 -24.821151249999986 73.0091625 -22.958552499999996 Q73.0091625 -21.095953749999985 74.26917 -19.827561249999988 Q75.5291775 -18.55932999999998 77.39177625 -18.55932999999998 Z M73.740915 -38.91391749999998 H81.05908500000001 V-79.13950374999999 H73.740915 V-38.91391749999998 Z M16.12516125 23.067680000000017 V-96.50483875 H138.67483875000002 V0.24483875000002087 H38.94816375 L16.12516125 23.067680000000017 Z M27.908988750000002 -7.073331249999981 H131.35666875 V-89.18666875 H23.44333125 V-2.6076737499999822 L27.908988750000002 -7.073331249999981 Z"/></g><g id="Thin-L" transform="matrix(1 0 0 1 787.282 1556)"><path d="M77.38629375000001 -20.109748749999987 Q78.85125000000001 -20.109748749999987 79.85599875 -21.10062999999998 Q80.8607475 -22.091672499999987 80.8607475 -23.556628749999987 Q80.8607475 -25.021584999999988 79.869705 -26.026333749999992 Q78.8786625 -27.031082499999982 77.41370625 -27.031082499999982 Q75.94875 -27.031082499999982 74.94400125 -26.040039999999976 Q73.93925250000001 -25.048997499999984 73.93925250000001 -23.584041249999984 Q73.93925250000001 -22.119084999999984 74.930295 -21.114336249999987 Q75.92133749999999 -20.109748749999987 77.38629375000001 -20.109748749999987 Z M74.91916875 -37.92158499999999 H79.88083125 V-77.89916874999999 H74.91916875 V-37.92158499999999 Z M19.35 16.866166250000013 V-93.28 H135.45000000000002 V-2.9799999999999827 H39.19616625 L19.35 16.866166250000013 Z M33.24217125 -7.9415012499999875 H130.48849875 V-88.31849874999997 H24.311501250000003 V0.9891687500000188 L33.24217125 -7.9415012499999875 Z"/></g><g id="Ultralight-L" transform="matrix(1 0 0 1 491.205 1556)"><path d="M77.38306874999999 -21.039999999999985 Q78.609375 -21.039999999999985 79.4559375 -21.869631249999983 Q80.30250000000001 -22.699101249999984 80.30250000000001 -23.925568749999982 Q80.30250000000001 -25.15187499999999 79.47286875 -25.99843749999998 Q78.64339875 -26.844999999999985 77.41693125 -26.844999999999985 Q76.190625 -26.844999999999985 75.3440625 -26.015368749999993 Q74.4975 -25.185898749999993 74.4975 -23.959431249999994 Q74.4975 -22.733124999999987 75.32713125 -21.886562499999982 Q76.15660125 -21.039999999999985 77.38306874999999 -21.039999999999985 Z M75.62625 -37.32624999999999 H79.17375 V-77.15499999999999 H75.62625 V-37.32624999999999 Z M21.285 13.145000000000014 V-91.345 H133.51500000000001 V-4.914999999999985 H39.345 L21.285 13.145000000000014 Z M36.4425 -8.462499999999984 H129.9675 V-87.79749999999999 H24.8325 V3.147500000000015 L36.4425 -8.462499999999984 Z"/></g><g id="Bold-M" transform="matrix(1 0 0 1 2281.8 1126)"><path d="M60.0 -19.97999999999999 Q62.921875 -19.97999999999999 64.8985 -22.04249999999999 Q66.875 -24.10499999999999 66.875 -26.97999999999999 Q66.875 -29.85499999999999 64.8985 -31.85499999999999 Q62.921875 -33.85499999999999 60.0 -33.85499999999999 Q57.078125 -33.85499999999999 55.1015 -31.87849999999999 Q53.125 -29.90187499999999 53.125 -26.97999999999999 Q53.125 -24.10499999999999 55.1015 -22.04249999999999 Q57.078125 -19.97999999999999 60.0 -19.97999999999999 Z M54.0 -39.22999999999999 H66.0 V-70.22999999999999 H54.0 V-39.22999999999999 Z M5.75 19.02000000000001 V-89.47999999999999 H114.25 V-0.9799999999999898 H25.75 L5.75 19.02000000000001 Z M21.5 -16.72999999999999 H98.5 V-73.72999999999999 H21.5 V-16.72999999999999 Z"/></g><g id="Semibold-M" transform="matrix(1 0 0 1 1985.97 1126)"><path d="M60.0 -20.08874999999999 Q62.575375 -20.08874999999999 64.317625 -21.879499999999993 Q66.059875 -23.67024999999999 66.059875 -26.21912499999999 Q66.059875 -28.76812499999999 64.317625 -30.52362499999999 Q62.575375 -32.27899999999999 60.0 -32.27899999999999 Q57.424625 -32.27899999999999 55.682375 -30.536874999999988 Q53.940125 -28.79462499999999 53.940125 -26.21912499999999 Q53.940125 -23.67024999999999 55.682375 -21.879499999999993 Q57.424625 -20.08874999999999 60.0 -20.08874999999999 Z M54.43475 -39.664749999999984 H65.56525 V-70.22999999999999 H54.43475 V-39.664749999999984 Z M7.59775 17.172250000000012 V-87.63224999999998 H112.40225 V-2.827749999999991 H27.59775 L7.59775 17.172250000000012 Z M20.847875 -16.07787499999999 H99.152125 V-74.38212499999999 H20.847875 V-16.07787499999999 Z"/></g><g id="Medium-M" transform="matrix(1 0 0 1 1689.91 1126)"><path d="M60.0 -20.17024999999999 Q62.3155 -20.17024999999999 63.882 -21.757124999999988 Q65.448375 -23.34412499999999 65.448375 -25.64849999999999 Q65.448375 -27.95287499999999 63.882 -29.524874999999987 Q62.3155 -31.09687499999999 60.0 -31.09687499999999 Q57.6845 -31.09687499999999 56.118 -29.53049999999999 Q54.551625 -27.96399999999999 54.551625 -25.64849999999999 Q54.551625 -23.34412499999999 56.118 -21.757124999999988 Q57.6845 -20.17024999999999 60.0 -20.17024999999999 Z M54.760875 -39.99087499999999 H65.239125 V-70.22999999999999 H54.760875 V-39.99087499999999 Z M8.983625 15.78637500000001 V-86.24637499999999 H111.016375 V-4.21362499999999 H28.983625 L8.983625 15.78637500000001 Z M20.35875 -15.58874999999999 H99.64125 V-74.87124999999999 H20.35875 V-15.58874999999999 Z"/></g><g id="Regular-M" transform="matrix(1 0 0 1 1394.06 1126)"><path d="M60.0 -20.22999999999999 Q62.125 -20.22999999999999 63.5625 -21.66749999999999 Q65.0 -23.10499999999999 65.0 -25.22999999999999 Q65.0 -27.35499999999999 63.5625 -28.79249999999999 Q62.125 -30.22999999999999 60.0 -30.22999999999999 Q57.875 -30.22999999999999 56.4375 -28.79249999999999 Q55.0 -27.35499999999999 55.0 -25.22999999999999 Q55.0 -23.10499999999999 56.4375 -21.66749999999999 Q57.875 -20.22999999999999 60.0 -20.22999999999999 Z M55.0 -40.22999999999999 H65.0 V-70.22999999999999 H55.0 V-40.22999999999999 Z M10.0 14.77000000000001 V-85.22999999999999 H110.0 V-5.22999999999999 H30.0 L10.0 14.77000000000001 Z M20.0 -15.22999999999999 H100.0 V-75.22999999999999 H20.0 V-15.22999999999999 Z"/></g><g id="Light-M" transform="matrix(1 0 0 1 1098.18 1126)"><path d="M60.0 -21.672374999999988 Q61.716375 -21.672374999999988 62.877375 -22.833499999999987 Q64.038375 -23.994499999999988 64.038375 -25.71074999999999 Q64.038375 -27.42712499999999 62.877375 -28.58812499999999 Q61.716375 -29.74924999999999 60.0 -29.74924999999999 Q58.283625 -29.74924999999999 57.122625 -28.58812499999999 Q55.961625 -27.42712499999999 55.961625 -25.71074999999999 Q55.961625 -23.994499999999988 57.122625 -22.833499999999987 Q58.283625 -21.672374999999988 60.0 -21.672374999999988 Z M56.250125 -39.07612499999999 H63.749875 V-69.26837499999999 H56.250125 V-39.07612499999999 Z M12.500125 9.96200000000001 V-82.72987499999999 H107.499875 V-7.730124999999987 H30.192375 L12.500125 9.96200000000001 Z M23.46175 -15.22999999999999 H100.0 V-75.22999999999999 H20.0 V-11.768249999999988 L23.46175 -15.22999999999999 Z"/></g><g id="Thin-M" transform="matrix(1 0 0 1 802.565 1126)"><path d="M60.0 -23.11462499999999 Q61.30775 -23.11462499999999 62.192375 -23.99924999999999 Q63.076875 -24.88387499999999 63.076875 -26.19149999999999 Q63.076875 -27.49924999999999 62.192375 -28.38387499999999 Q61.30775 -29.26849999999999 60.0 -29.26849999999999 Q58.69225 -29.26849999999999 57.807625 -28.38387499999999 Q56.923125 -27.49924999999999 56.923125 -26.19149999999999 Q56.923125 -24.88387499999999 57.807625 -23.99924999999999 Q58.69225 -23.11462499999999 60.0 -23.11462499999999 Z M57.5 -37.92237499999999 H62.5 V-68.30687499999999 H57.5 V-37.92237499999999 Z M15.0 5.15462500000001 V-80.22999999999999 H105.0 V-10.22999999999999 H30.384625 L15.0 5.15462500000001 Z M26.923 -15.22999999999999 H100.0 V-75.22999999999999 H20.0 V-8.306999999999988 L26.923 -15.22999999999999 Z"/></g><g id="Ultralight-M" transform="matrix(1 0 0 1 506.415 1126)"><path d="M60.0 -23.97999999999999 Q61.0625 -23.97999999999999 61.78125 -24.69874999999999 Q62.5 -25.41749999999999 62.5 -26.47999999999999 Q62.5 -27.54249999999999 61.78125 -28.26124999999999 Q61.0625 -28.97999999999999 60.0 -28.97999999999999 Q58.9375 -28.97999999999999 58.21875 -28.26124999999999 Q57.5 -27.54249999999999 57.5 -26.47999999999999 Q57.5 -25.41749999999999 58.21875 -24.69874999999999 Q58.9375 -23.97999999999999 60.0 -23.97999999999999 Z M58.25 -37.22999999999999 H61.75 V-67.72999999999999 H58.25 V-37.22999999999999 Z M16.5 2.2700000000000102 V-78.72999999999999 H103.5 V-11.72999999999999 H30.5 L16.5 2.2700000000000102 Z M29.0 -15.22999999999999 H100.0 V-75.22999999999999 H20.0 V-6.22999999999999 L29.0 -15.22999999999999 Z"/></g><g id="Bold-S" transform="matrix(1 0 0 1 2294.23 696)"><path d="M47.319190125 -23.197749999999985 Q49.448109375 -23.197749999999985 50.9090415 -24.705627624999984 Q52.369875 -26.21360387499999 52.369875 -28.30544012499999 Q52.369875 -30.39737499999999 50.929752750000006 -31.876749999999987 Q49.489630500000004 -33.35612499999999 47.360809875 -33.35612499999999 Q45.231890625000005 -33.35612499999999 43.770958500000006 -31.91600274999999 Q42.310125 -30.475880499999988 42.310125 -28.347059874999992 Q42.310125 -26.255124999999985 43.75024725 -24.72643749999999 Q45.1903695 -23.197749999999985 47.319190125 -23.197749999999985 Z M43.0005 -34.44099999999999 H51.679500000000004 V-61.266999999999996 H43.0005 V-34.44099999999999 Z M6.11475 5.995250000000014 V-76.45524999999999 H88.56525 V-8.206749999999989 H20.316750000000003 L6.11475 5.995250000000014 Z M17.7525 -19.84449999999999 H76.92750000000001 V-64.8175 H17.7525 V-19.84449999999999 Z"/></g><g id="Semibold-S" transform="matrix(1 0 0 1 1998.1 696)"><path d="M47.319190125 -23.28355374999999 Q49.174720875000006 -23.28355374999999 50.450731125000004 -24.57702062499999 Q51.726741375 -25.87058612499999 51.726741375 -27.705208374999984 Q51.726741375 -29.539830624999986 50.471541 -30.826295124999987 Q49.216340625 -32.11266099999999 47.360809875 -32.11266099999999 Q45.505279125 -32.11266099999999 44.229268875 -30.857460624999987 Q42.953258625000004 -29.602260249999986 42.953258625000004 -27.746729499999994 Q42.953258625000004 -25.912107249999984 44.208459 -24.597830499999993 Q45.463659375000006 -23.28355374999999 47.319190125 -23.28355374999999 Z M43.343517750000004 -34.78401774999999 H51.33648225000001 V-61.266999999999996 H43.343517750000004 V-34.78401774999999 Z M7.57262475 4.5373752500000135 V-74.99737524999999 H87.10737525 V-9.664624749999987 H21.77462475 L7.57262475 4.5373752500000135 Z M17.237973375 -19.32997337499999 H77.442026625 V-65.33202662499998 H17.237973375 V-19.32997337499999 Z"/></g><g id="Medium-S" transform="matrix(1 0 0 1 1701.85 696)"><path d="M47.319190125 -23.34785724999999 Q48.969679500000005 -23.34785724999999 50.107023 -24.48056537499999 Q51.244267875 -25.61327349999999 51.244267875 -27.25488662499999 Q51.244267875 -28.89659837499999 50.12773425 -30.03828137499999 Q49.01129925000001 -31.17996437499999 47.360809875 -31.17996437499999 Q45.7103205 -31.17996437499999 44.572977 -30.063430749999988 Q43.435732125 -28.946897124999985 43.435732125 -27.296407749999986 Q43.435732125 -25.654794624999987 44.55226575 -24.50127662499999 Q45.66870075 -23.34785724999999 47.319190125 -23.34785724999999 Z M43.600830375 -35.04133037499999 H51.079169625000006 V-61.266999999999996 H43.600830375 V-35.04133037499999 Z M8.666080125 3.443919875000013 V-73.90391987499999 H86.013919875 V-10.758080124999989 H22.868080125000002 L8.666080125 3.443919875000013 Z M16.85205375 -18.944053749999988 H77.82794625 V-65.71794624999998 H16.85205375 V-18.944053749999988 Z"/></g><g id="Regular-S" transform="matrix(1 0 0 1 1405.73 696)"><path d="M47.319190125 -23.39499999999999 Q48.819375 -23.39499999999999 49.854937500000005 -24.40975262499999 Q50.8905 -25.42460387499999 50.8905 -26.924690124999984 Q50.8905 -28.424874999999986 49.875747375 -29.46043749999999 Q48.860896125000004 -30.495999999999988 47.360809875 -30.495999999999988 Q45.860625 -30.495999999999988 44.8250625 -29.481247374999988 Q43.789500000000004 -28.46639612499999 43.789500000000004 -26.966309874999986 Q43.789500000000004 -25.46612499999999 44.804252625000004 -24.430562499999986 Q45.819103875 -23.39499999999999 47.319190125 -23.39499999999999 Z M43.789500000000004 -35.22999999999999 H50.8905 V-61.266999999999996 H43.789500000000004 V-35.22999999999999 Z M9.468 2.6420000000000137 V-73.10199999999999 H85.212 V-11.559999999999988 H23.67 L9.468 2.6420000000000137 Z M16.569 -18.660999999999987 H78.111 V-66.00099999999999 H16.569 V-18.660999999999987 Z"/></g><g id="Light-S" transform="matrix(1 0 0 1 1109.75 696)"><path d="M47.319190125 -24.533033874999987 Q48.496969875000005 -24.533033874999987 49.314373875 -25.329726624999992 Q50.131777875000004 -26.12641937499999 50.131777875000004 -27.30410049999999 Q50.131777875000004 -28.48178162499999 49.335085125 -29.299185624999986 Q48.538491 -30.11668824999999 47.360809875 -30.11668824999999 Q46.183030125 -30.11668824999999 45.365626125 -29.31999549999999 Q44.548222125 -28.523302749999985 44.548222125 -27.345621624999993 Q44.548222125 -26.167940499999986 45.344914875 -25.350536499999983 Q46.141509000000006 -24.533033874999987 47.319190125 -24.533033874999987 Z M44.775848625 -34.31959262499999 H49.904151375000005 V-60.50827787499999 H44.775848625 V-34.31959262499999 Z M11.440598625000002 -1.151511999999986 V-71.12940137499999 H83.239401375 V-13.532598624999984 H23.821783875 L11.440598625000002 -1.151511999999986 Z M19.30032075 -18.660999999999987 H78.111 V-66.00099999999999 H16.569 V-15.929679249999985 L19.30032075 -18.660999999999987 Z"/></g><g id="Thin-S" transform="matrix(1 0 0 1 814.015 696)"><path d="M47.319190125 -25.670969124999985 Q48.17456475 -25.670969124999985 48.773908875000004 -26.24950337499999 Q49.373154375000006 -26.828136249999986 49.373154375000006 -27.68341224999999 Q49.373154375000006 -28.538688249999986 48.794620125 -29.138032374999987 Q48.216085875 -29.73737649999999 47.360809875 -29.73737649999999 Q46.505435250000005 -29.73737649999999 45.906091125 -29.158743624999985 Q45.306845625 -28.58020937499999 45.306845625 -27.724933374999992 Q45.306845625 -26.86965737499999 45.885379875 -26.270313249999987 Q46.463914125 -25.670969124999985 47.319190125 -25.670969124999985 Z M45.762 -33.409283874999986 H48.918 V-59.74965437499999 H45.762 V-33.409283874999986 Z M13.413 -4.9445308749999874 V-69.157 H81.26700000000001 V-15.504999999999988 H23.973469125 L13.413 -4.9445308749999874 Z M22.031247 -18.660999999999987 H78.111 V-66.00099999999999 H16.569 V-13.198752999999986 L22.031247 -18.660999999999987 Z"/></g><g id="Ultralight-S" transform="matrix(1 0 0 1 517.792 696)"><path d="M47.319190125 -26.35374999999999 Q47.9810625 -26.35374999999999 48.44953125 -26.801408874999986 Q48.918 -27.249166374999987 48.918 -27.91094012499999 Q48.918 -28.57281249999999 48.470341125000004 -29.04128124999999 Q48.022583625 -29.50974999999999 47.360809875 -29.50974999999999 Q46.6989375 -29.50974999999999 46.23046875 -29.062091124999988 Q45.762 -28.614333624999986 45.762 -27.95255987499999 Q45.762 -27.29068749999999 46.209658875 -26.82221874999999 Q46.657416375000004 -26.35374999999999 47.319190125 -26.35374999999999 Z M46.353750000000005 -32.862999999999985 H48.32625 V-59.294499999999985 H46.353750000000005 V-32.862999999999985 Z M14.5965 -7.220499999999987 V-67.97349999999999 H80.0835 V-16.688499999999987 H24.064500000000002 L14.5965 -7.220499999999987 Z M23.67 -18.660999999999987 H78.111 V-66.00099999999999 H16.569 V-11.559999999999988 L23.67 -18.660999999999987 Z"/></g></g></svg>