<svg xmlns="http://www.w3.org/2000/svg" version="1.1" width="3300" height="2000"><g id="Notes"><style>
    text {
      font-family: monospace;
      text-anchor: middle;
    }
    text.emphasis {
      font-weight:bold;
    }
    text.lanchor {
      text-anchor: start;
    }
  </style><rect height="2200" id="artboard" fill="white" width="3300" x="0" y="0"/><line id="" style="fill:none;stroke:black;stroke-width:0.5;" x1="263" x2="3036" y1="292" y2="292"/><text class="lanchor emphasis" transform="matrix(1 0 0 1 263 322)">Weight/Scale Variations</text><text transform="matrix(1 0 0 1 559.711 322)">Ultralight</text><text transform="matrix(1 0 0 1 856.422 322)">Thin</text><text transform="matrix(1 0 0 1 1153.13 322)">Light</text><text transform="matrix(1 0 0 1 1449.84 322)">Regular</text><text transform="matrix(1 0 0 1 1746.56 322)">Medium</text><text transform="matrix(1 0 0 1 2043.27 322)">Semibold</text><text transform="matrix(1 0 0 1 2339.98 322)">Bold</text><text transform="matrix(1 0 0 1 2636.69 322)">Heavy</text><text transform="matrix(1 0 0 1 2933.4 322)">Black</text><text id="template-version" style="text-anchor: end;" transform="matrix(1 0 0 1 3036 1933)">Template v.1.0</text><text class="lanchor" transform="matrix(1 0 0 1 263 726)">Small</text><text class="lanchor" transform="matrix(1 0 0 1 263 1156)">Medium</text><text class="lanchor" transform="matrix(1 0 0 1 263 1586)">Large</text></g><g id="Guides"><g id="H-reference" style="fill:#27AAE1;stroke:none;" transform="matrix(1 0 0 1 339 696)"><path d="M 54.9316 0 L 57.666 0 L 30.5664 -70.459 L 28.0762 -70.459 L 0.976562 0 L 3.66211 0 L 12.9395 -24.4629 L 45.7031 -24.4629 Z M 29.1992 -67.0898 L 29.4434 -67.0898 L 44.8242 -26.709 L 13.8184 -26.709 Z"/></g><line id="Baseline-S" style="fill:none;stroke:#27AAE1;opacity:1;stroke-width:0.577;" x1="263" x2="3036" y1="696" y2="696"/><line id="Capline-S" style="fill:none;stroke:#27AAE1;opacity:1;stroke-width:0.577;" x1="263" x2="3036" y1="625.541" y2="625.541"/><g id="H-reference" style="fill:#27AAE1;stroke:none;" transform="matrix(1 0 0 1 339 1126)"><path d="M 54.9316 0 L 57.666 0 L 30.5664 -70.459 L 28.0762 -70.459 L 0.976562 0 L 3.66211 0 L 12.9395 -24.4629 L 45.7031 -24.4629 Z M 29.1992 -67.0898 L 29.4434 -67.0898 L 44.8242 -26.709 L 13.8184 -26.709 Z"/></g><line id="Baseline-M" style="fill:none;stroke:#27AAE1;opacity:1;stroke-width:0.577;" x1="263" x2="3036" y1="1126" y2="1126"/><line id="Capline-M" style="fill:none;stroke:#27AAE1;opacity:1;stroke-width:0.577;" x1="263" x2="3036" y1="1055.54" y2="1055.54"/><g id="H-reference" style="fill:#27AAE1;stroke:none;" transform="matrix(1 0 0 1 339 1556)"><path d="M 54.9316 0 L 57.666 0 L 30.5664 -70.459 L 28.0762 -70.459 L 0.976562 0 L 3.66211 0 L 12.9395 -24.4629 L 45.7031 -24.4629 Z M 29.1992 -67.0898 L 29.4434 -67.0898 L 44.8242 -26.709 L 13.8184 -26.709 Z"/></g><line id="Baseline-L" style="fill:none;stroke:#27AAE1;opacity:1;stroke-width:0.577;" x1="263" x2="3036" y1="1556" y2="1556"/><line id="Capline-L" style="fill:none;stroke:#27AAE1;opacity:1;stroke-width:0.577;" x1="263" x2="3036" y1="1485.54" y2="1485.54"/><rect height="119.336" id="left-margin" style="fill:darkred;stroke:none;opacity:0.4;" width="12.4512" x="1394.06" y="1030.79"/><rect height="119.336" id="right-margin" style="fill:darkgreen;stroke:none;opacity:0.4;" width="12.4512" x="1502.5112" y="1030.79"/><rect x="1406.5112" y="1045" width="96" height="96" fill="none" stroke="blue" stroke-dasharray="5"/><rect x="1394.06" y="1030.79" width="120.9024" height="119.336" fill="none" stroke="blue"/></g><g id="Symbols"><g id="Bold-L" transform="matrix(1 0 0 1 2266 1556)"><path d="M103.845 32.495 V21.288 H131.096 V5.324 H103.845 V-5.882 H131.096 V-22.169 H103.845 V-33.214 H131.096 V-49.42 H103.845 V-60.466 H131.096 V-76.591 H103.845 V-87.797 H151.172 V32.495 H103.845 Z M27.493 32.495  3.709 -41.519  36.443 -63.314 V-103.036 H59.824 V-63.287 L92.316 -41.519 L68.531 32.495 H27.493 Z"/></g><g id="Semibold-L" transform="matrix(1 0 0 1 1970.27 1556)"><path d="M104.266 30.742 V20.377 H131.867 V3.992 H104.266 V-6.373 H131.867 V-22.94 H104.266 V-33.214 H131.867 V-49.7 H104.266 V-59.975 H131.867 V-76.45 H104.266 V-86.816 H149.56 V30.742 H104.266 Z M29.596 30.742  5.321 -40.958  38.125 -61.702 V-101.213 H59.683 V-61.675 L92.316 -40.958 L68.041 30.742 H29.596 Z"/></g><g id="Medium-L" transform="matrix(1 0 0 1 1674.31 1556)"><path d="M104.581 29.428 V19.693 H132.446 V2.993 H104.581 V-6.741 H132.446 V-23.518 H104.581 V-33.214 H132.446 V-49.911 H104.581 V-59.607 H132.446 V-76.345 H104.581 V-86.08 H148.35 V29.428 H104.581 Z M31.174 29.428  6.531 -40.537  39.387 -60.493 V-99.846 H59.578 V-60.466 L92.316 -40.537 L67.672 29.428 H31.174 Z"/></g><g id="Regular-L" transform="matrix(1 0 0 1 1378.56 1556)"><path d="M104.812 28.464 V19.192 H132.87 V2.261 H104.812 V-7.011 H132.87 V-23.942 H104.812 V-33.214 H132.87 V-50.065 H104.812 V-59.337 H132.87 V-76.268 H104.812 V-85.54 H147.463 V28.464 H104.812 Z M32.331 28.464  7.418 -40.229  40.312 -59.606 V-98.843 H59.501 V-59.579 L92.316 -40.229 L67.403 28.464 H32.331 Z"/></g><g id="Light-L" transform="matrix(1 0 0 1 1082.77 1556)"><path d="M104.502 25.549 V18.479 H132.033 V0.183 H104.502 V-6.887 H132.033 V-25.183 H104.502 V-32.253 H132.033 V-50.561 H104.502 V-57.631 H132.033 V-75.927 H104.502 V-82.997 H143.99 V25.549 H104.502 Z M34.377 25.549  10.922 -39.298  42.948 -58.189 V-95.959 H57.548 V-58.152 L89.525 -39.298 L66.069 25.549 H34.377 Z"/></g><g id="Thin-L" transform="matrix(1 0 0 1 787.282 1556)"><path d="M104.192 22.634 V17.765 H131.195 V-1.895 H104.192 V-6.763 H131.195 V-26.423 H104.192 V-31.292 H131.195 V-51.057 H104.192 V-55.926 H131.195 V-75.586 H104.192 V-80.454 H140.517 V22.634 H104.192 Z M36.424 22.634  14.426 -38.368  45.584 -56.773 V-93.075 H55.594 V-56.726 L86.734 -38.368 L64.736 22.634 H36.424 Z"/></g><g id="Ultralight-L" transform="matrix(1 0 0 1 491.205 1556)"><path d="M104.006 20.885 V17.338 H130.693 V-3.141 H104.006 V-6.689 H130.693 V-27.167 H104.006 V-30.715 H130.693 V-51.355 H104.006 V-54.902 H130.693 V-75.381 H104.006 V-78.929 H138.433 V20.885 H104.006 Z M37.652 20.885  16.528 -37.81  47.166 -55.924 V-91.345 H54.422 V-55.87 L85.059 -37.81 L63.936 20.885 H37.652 Z"/></g><g id="Bold-M" transform="matrix(1 0 0 1 2281.8 1126)"><path d="M78.75 17.77 V6.395 H97.562 V-2.98 H78.75 V-14.355 H97.562 V-23.855 H78.75 V-35.105 H97.562 V-44.48 H78.75 V-55.73 H97.562 V-65.23 H78.75 V-76.48 H117.438 V17.77 H78.75 Z M20.812 17.77  2.562 -41.355  26.938 -58.605 V-88.355 H49.938 V-58.605 L74.062 -41.355 L55.812 17.77 H20.812 Z"/></g><g id="Semibold-M" transform="matrix(1 0 0 1 1985.97 1126)"><path d="M79.185 15.922 V5.417 H98.378 V-4.339 H79.185 V-14.844 H98.378 V-24.67 H79.185 V-35.105 H98.378 V-44.806 H79.185 V-55.241 H98.378 V-65.067 H79.185 V-75.502 H115.753 V15.922 H79.185 Z M22.986 15.922  4.247 -40.757  28.677 -56.92 V-86.507 H49.829 V-56.92 L74.062 -40.757 L55.323 15.922 H22.986 Z"/></g><g id="Medium-M" transform="matrix(1 0 0 1 1689.91 1126)"><path d="M79.511 14.536 V4.683 H98.989 V-5.358 H79.511 V-15.211 H98.989 V-25.282 H79.511 V-35.105 H98.989 V-45.051 H79.511 V-54.874 H98.989 V-64.945 H79.511 V-74.768 H114.489 V14.536 H79.511 Z M24.617 14.536  5.511 -40.309  29.981 -55.657 V-85.121 H49.747 V-55.657 L74.062 -40.309 L54.956 14.536 H24.617 Z"/></g><g id="Regular-M" transform="matrix(1 0 0 1 1394.06 1126)"><path d="M79.75 13.52 V4.145 H99.438 V-6.105 H79.75 V-15.48 H99.438 V-25.73 H79.75 V-35.105 H99.438 V-45.23 H79.75 V-54.605 H99.438 V-64.855 H79.75 V-74.23 H113.562 V13.52 H79.75 Z M25.812 13.52  6.438 -39.98  30.938 -54.73 V-84.105 H49.688 V-54.73 L74.062 -39.98 L54.688 13.52 H25.812 Z"/></g><g id="Light-M" transform="matrix(1 0 0 1 1098.18 1126)"><path d="M79.894 11.26 V4.265 H99.654 V-7.86 H79.894 V-14.855 H99.654 V-26.98 H79.894 V-33.975 H99.654 V-45.999 H79.894 V-52.994 H99.654 V-65.119 H79.894 V-72.114 H110.87 V11.26 H79.894 Z M27.303 11.26  9.154 -38.97  33.173 -53.392 V-81.821 H47.163 V-53.384 L71.082 -38.97 L52.933 11.26 H27.303 Z"/></g><g id="Thin-M" transform="matrix(1 0 0 1 802.565 1126)"><path d="M80.038 9.001 V4.385 H99.87 V-9.615 H80.038 V-14.23 H99.87 V-28.23 H80.038 V-32.845 H99.87 V-46.768 H80.038 V-51.384 H99.87 V-65.384 H80.038 V-69.999 H108.178 V9.001 H80.038 Z M28.793 9.001  11.87 -37.961  35.409 -52.054 V-79.538 H44.639 V-52.038 L68.101 -37.961 L51.178 9.001 H28.793 Z"/></g><g id="Ultralight-M" transform="matrix(1 0 0 1 506.415 1126)"><path d="M80.125 7.645 V4.458 H100 V-10.667 H80.125 V-13.855 H100 V-28.98 H80.125 V-32.167 H100 V-47.23 H80.125 V-50.417 H100 V-65.542 H80.125 V-68.73 H106.562 V7.645 H80.125 Z M29.688 7.645  13.5 -37.355  36.75 -51.251 V-78.167 H43.125 V-51.23 L66.312 -37.355 L50.125 7.645 H29.688 Z"/></g><g id="Bold-S" transform="matrix(1 0 0 1 2294.23 696)"><path d="M65.29 5.009 V-3.177 H78.555 V-10.376 H65.29 V-18.562 H78.555 V-25.861 H65.29 V-33.948 H78.555 V-41.147 H65.29 V-49.235 H78.555 V-56.533 H65.29 V-64.62 H91.869 V5.009 H65.29 Z M17.999 5.009  2.811 -40.852  21.254 -52.095 V-75.568 H37.823 V-52.095 L56.068 -40.852 L40.88 5.009 H17.999 Z"/></g><g id="Semibold-S" transform="matrix(1 0 0 1 1998.1 696)"><path d="M65.633 3.551 V-3.949 H79.198 V-11.448 H65.633 V-18.948 H79.198 V-26.504 H65.633 V-33.948 H79.198 V-41.405 H65.633 V-48.849 H79.198 V-56.404 H65.633 V-63.848 H90.54 V3.551 H65.633 Z M19.714 3.551  4.14 -40.38  22.626 -50.766 V-74.11 H37.737 V-50.766 L56.068 -40.38 L40.494 3.551 H19.714 Z"/></g><g id="Medium-S" transform="matrix(1 0 0 1 1701.85 696)"><path d="M65.89 2.458 V-4.528 H79.68 V-12.253 H65.89 V-19.238 H79.68 V-26.986 H65.89 V-33.948 H79.68 V-41.598 H65.89 V-48.559 H79.68 V-56.308 H65.89 V-63.269 H89.543 V2.458 H65.89 Z M21.001 2.458  5.137 -40.026  23.655 -49.769 V-73.016 H37.673 V-49.769 L56.068 -40.026 L40.205 2.458 H21.001 Z"/></g><g id="Regular-S" transform="matrix(1 0 0 1 1405.73 696)"><path d="M66.079 1.656 V-4.952 H80.034 V-12.842 H66.079 V-19.45 H80.034 V-27.34 H66.079 V-33.948 H80.034 V-41.739 H66.079 V-48.347 H80.034 V-56.237 H66.079 V-62.845 H88.812 V1.656 H66.079 Z M21.944 1.656  5.868 -39.767  24.41 -49.037 V-72.214 H37.625 V-49.037 L56.068 -39.767 L39.992 1.656 H21.944 Z"/></g><g id="Light-S" transform="matrix(1 0 0 1 1109.75 696)"><path d="M66.193 -0.127 V-4.857 H80.205 V-14.227 H66.193 V-18.957 H80.205 V-28.326 H66.193 V-33.056 H80.205 V-42.346 H66.193 V-47.076 H80.205 V-56.446 H66.193 V-61.176 H86.687 V-0.127 H66.193 Z M23.12 -0.127  8.012 -38.97  26.174 -47.982 V-70.412 H35.634 V-47.975 L53.716 -38.97 L38.608 -0.127 H23.12 Z"/></g><g id="Thin-S" transform="matrix(1 0 0 1 814.015 696)"><path d="M66.306 -1.91 V-4.762 H80.376 V-15.611 H66.306 V-18.464 H80.376 V-29.312 H66.306 V-32.165 H80.376 V-42.953 H66.306 V-45.806 H80.376 V-56.654 H66.306 V-59.507 H84.563 V-1.91 H66.306 Z M24.296 -1.91  10.155 -38.174  27.937 -46.926 V-68.611 H33.643 V-46.913 L51.365 -38.174 L37.223 -1.91 H24.296 Z"/></g><g id="Ultralight-S" transform="matrix(1 0 0 1 517.792 696)"><path d="M66.375 -2.98 V-4.706 H80.478 V-16.442 H66.375 V-18.168 H80.478 V-29.904 H66.375 V-31.63 H80.478 V-43.317 H66.375 V-45.043 H80.478 V-56.78 H66.375 V-58.505 H83.289 V-2.98 H66.375 Z M25.001 -2.98  11.441 -37.696  28.996 -46.292 V-67.53 H32.448 V-46.276 L49.954 -37.696 L36.393 -2.98 H25.001 Z"/></g></g></svg>