<svg xmlns="http://www.w3.org/2000/svg" version="1.1" width="3300" height="2000"><g id="Notes"><style>
    text {
      font-family: monospace;
      text-anchor: middle;
    }
    text.emphasis {
      font-weight:bold;
    }
    text.lanchor {
      text-anchor: start;
    }
  </style><rect height="2200" id="artboard" fill="white" width="3300" x="0" y="0"/><line id="" style="fill:none;stroke:black;stroke-width:0.5;" x1="263" x2="3036" y1="292" y2="292"/><text class="lanchor emphasis" transform="matrix(1 0 0 1 263 322)">Weight/Scale Variations</text><text transform="matrix(1 0 0 1 559.711 322)">Ultralight</text><text transform="matrix(1 0 0 1 856.422 322)">Thin</text><text transform="matrix(1 0 0 1 1153.13 322)">Light</text><text transform="matrix(1 0 0 1 1449.84 322)">Regular</text><text transform="matrix(1 0 0 1 1746.56 322)">Medium</text><text transform="matrix(1 0 0 1 2043.27 322)">Semibold</text><text transform="matrix(1 0 0 1 2339.98 322)">Bold</text><text transform="matrix(1 0 0 1 2636.69 322)">Heavy</text><text transform="matrix(1 0 0 1 2933.4 322)">Black</text><text id="template-version" style="text-anchor: end;" transform="matrix(1 0 0 1 3036 1933)">Template v.1.0</text><text class="lanchor" transform="matrix(1 0 0 1 263 726)">Small</text><text class="lanchor" transform="matrix(1 0 0 1 263 1156)">Medium</text><text class="lanchor" transform="matrix(1 0 0 1 263 1586)">Large</text></g><g id="Guides"><g id="H-reference" style="fill:#27AAE1;stroke:none;" transform="matrix(1 0 0 1 339 696)"><path d="M 54.9316 0 L 57.666 0 L 30.5664 -70.459 L 28.0762 -70.459 L 0.976562 0 L 3.66211 0 L 12.9395 -24.4629 L 45.7031 -24.4629 Z M 29.1992 -67.0898 L 29.4434 -67.0898 L 44.8242 -26.709 L 13.8184 -26.709 Z"/></g><line id="Baseline-S" style="fill:none;stroke:#27AAE1;opacity:1;stroke-width:0.577;" x1="263" x2="3036" y1="696" y2="696"/><line id="Capline-S" style="fill:none;stroke:#27AAE1;opacity:1;stroke-width:0.577;" x1="263" x2="3036" y1="625.541" y2="625.541"/><g id="H-reference" style="fill:#27AAE1;stroke:none;" transform="matrix(1 0 0 1 339 1126)"><path d="M 54.9316 0 L 57.666 0 L 30.5664 -70.459 L 28.0762 -70.459 L 0.976562 0 L 3.66211 0 L 12.9395 -24.4629 L 45.7031 -24.4629 Z M 29.1992 -67.0898 L 29.4434 -67.0898 L 44.8242 -26.709 L 13.8184 -26.709 Z"/></g><line id="Baseline-M" style="fill:none;stroke:#27AAE1;opacity:1;stroke-width:0.577;" x1="263" x2="3036" y1="1126" y2="1126"/><line id="Capline-M" style="fill:none;stroke:#27AAE1;opacity:1;stroke-width:0.577;" x1="263" x2="3036" y1="1055.54" y2="1055.54"/><g id="H-reference" style="fill:#27AAE1;stroke:none;" transform="matrix(1 0 0 1 339 1556)"><path d="M 54.9316 0 L 57.666 0 L 30.5664 -70.459 L 28.0762 -70.459 L 0.976562 0 L 3.66211 0 L 12.9395 -24.4629 L 45.7031 -24.4629 Z M 29.1992 -67.0898 L 29.4434 -67.0898 L 44.8242 -26.709 L 13.8184 -26.709 Z"/></g><line id="Baseline-L" style="fill:none;stroke:#27AAE1;opacity:1;stroke-width:0.577;" x1="263" x2="3036" y1="1556" y2="1556"/><line id="Capline-L" style="fill:none;stroke:#27AAE1;opacity:1;stroke-width:0.577;" x1="263" x2="3036" y1="1485.54" y2="1485.54"/><rect height="119.336" id="left-margin" style="fill:darkred;stroke:none;opacity:0.4;" width="12.4512" x="1394.06" y="1030.79"/><rect height="119.336" id="right-margin" style="fill:darkgreen;stroke:none;opacity:0.4;" width="12.4512" x="1502.5112" y="1030.79"/><rect x="1406.5112" y="1045" width="96" height="96" fill="none" stroke="blue" stroke-dasharray="5"/><rect x="1394.06" y="1030.79" width="120.9024" height="119.336" fill="none" stroke="blue"/></g><g id="Symbols"><g id="Bold-L" transform="matrix(1 0 0 1 2266 1556)"><path d="M77.4 32.495000000000005 Q63.371249999999996 32.495000000000005 51.035624999999996 27.173750000000013 Q38.7 21.85250000000002 29.508750000000003 12.66125000000001 Q20.3175 3.470000000000013 14.996250000000002 -8.784999999999982 Q9.675 -21.039999999999992 9.675 -35.22999999999999 Q9.675 -49.41999999999999 14.996250000000002 -61.755624999999995 Q20.3175 -74.09125 29.508750000000003 -83.2825 Q38.7 -92.47375 50.955000000000005 -97.795 Q63.21000000000001 -103.11625 77.4 -103.11625 Q91.59 -103.11625 103.92562500000001 -97.795 Q116.26124999999999 -92.47375 125.4525 -83.2825 Q134.64375 -74.09125 139.965 -61.755624999999995 Q145.28625 -49.41999999999999 145.28625 -35.22999999999999 Q145.28625 -21.039999999999992 139.965 -8.784999999999982 Q134.64375 3.470000000000013 125.4525 12.66125000000001 Q116.26124999999999 21.85250000000002 103.92562500000001 27.173750000000013 Q91.59 32.495000000000005 77.4 32.495000000000005 Z M77.4 17.659999999999997 Q99.49125000000001 17.659999999999997 114.97125 2.2606250000000045 Q130.45125000000002 -13.138749999999987 130.45125000000002 -35.22999999999999 Q130.45125000000002 -57.32125 114.97125 -72.80125 Q99.49125000000001 -88.28125 77.4 -88.28125 Q55.47 -88.28125 39.99 -72.80125 Q24.509999999999998 -57.32125 24.509999999999998 -35.22999999999999 Q24.509999999999998 -13.299999999999997 39.909375000000004 2.180000000000007 Q55.308749999999996 17.659999999999997 77.4 17.659999999999997 Z M57.405 -2.9799999999999898 H86.43 Q91.2675 -2.9799999999999898 94.33125 -5.963124999999977 Q97.395 -8.946249999999992 97.395 -13.944999999999993 V-29.908749999999998 Q97.395 -34.907499999999985 94.33125 -38.051874999999995 Q91.2675 -41.19624999999999 86.43 -41.19624999999999 H68.53125 V-56.515 H97.395 V-67.64125 H57.405 V-29.908749999999998 H86.43 Q86.43 -29.908749999999998 86.43 -29.908749999999998 Q86.43 -29.908749999999998 86.43 -29.908749999999998 V-13.944999999999993 Q86.43 -13.944999999999993 86.43 -13.944999999999993 Q86.43 -13.944999999999993 86.43 -13.944999999999993 H57.405 V-2.9799999999999898 Z"/></g><g id="Semibold-L" transform="matrix(1 0 0 1 1970.27 1556)"><path d="M77.4 30.721250000000026 Q63.69375 30.721250000000026 51.680625 25.56125 Q39.667500000000004 20.401250000000005 30.718125 11.371250000000018 Q21.76875 2.3412500000000023 16.60875 -9.591249999999988 Q11.44875 -21.523749999999993 11.44875 -35.22999999999999 Q11.44875 -49.0975 16.60875 -61.11062499999999 Q21.76875 -73.12375 30.718125 -81.99249999999999 Q39.667500000000004 -90.86125 51.680625 -96.10187499999999 Q63.69375 -101.3425 77.4 -101.3425 Q91.2675 -101.3425 103.280625 -96.10187499999999 Q115.29375 -90.86125 124.16250000000001 -81.99249999999999 Q133.03125 -73.12375 138.271875 -61.11062499999999 Q143.51250000000002 -49.0975 143.51250000000002 -35.22999999999999 Q143.51250000000002 -21.523749999999993 138.271875 -9.51062499999999 Q133.03125 2.502500000000012 124.08187500000001 11.371250000000018 Q115.13250000000001 20.24000000000001 103.2 25.480625000000003 Q91.2675 30.721250000000026 77.4 30.721250000000026 Z M77.4 18.305000000000007 Q99.6525 18.305000000000007 115.29375 2.6637500000000074 Q130.935 -12.977499999999992 130.935 -35.22999999999999 Q130.935 -57.48249999999999 115.374375 -73.12375 Q99.81375 -88.76499999999999 77.4 -88.76499999999999 Q55.14750000000001 -88.76499999999999 39.50625 -73.204375 Q23.865000000000002 -57.64374999999999 23.865000000000002 -35.22999999999999 Q23.865000000000002 -12.977499999999992 39.50625 2.6637500000000074 Q55.14750000000001 18.305000000000007 77.4 18.305000000000007 Z M58.21125000000001 -2.9799999999999898 H86.43 Q90.78375 -2.9799999999999898 93.68625 -5.882499999999993 Q96.58875 -8.784999999999982 96.58875 -13.138749999999987 V-30.3925 Q96.58875 -34.74625 93.68625 -37.72937499999999 Q90.78375 -40.71249999999999 86.43 -40.71249999999999 H68.53125 V-57.32125 H96.58875 V-67.64125 H58.21125000000001 V-30.3925 H86.43 Q86.43 -30.3925 86.43 -30.3925 Q86.43 -30.3925 86.43 -30.3925 V-13.138749999999987 Q86.43 -13.138749999999987 86.43 -13.138749999999987 Q86.43 -13.138749999999987 86.43 -13.138749999999987 H58.21125000000001 V-2.9799999999999898 Z"/></g><g id="Medium-L" transform="matrix(1 0 0 1 1674.31 1556)"><path d="M77.4 29.431250000000006 Q64.01625 29.431250000000006 52.245 24.351875000000007 Q40.47375 19.272500000000008 31.685624999999998 10.484375 Q22.8975 1.6962500000000205 17.818125000000002 -10.074999999999989 Q12.738750000000001 -21.846249999999998 12.738750000000001 -35.22999999999999 Q12.738750000000001 -48.77499999999999 17.818125000000002 -60.54625 Q22.8975 -72.3175 31.685624999999998 -81.02499999999999 Q40.47375 -89.73249999999999 52.245 -94.81187499999999 Q64.01625 -99.89125 77.4 -99.89125 Q90.945 -99.89125 102.71625 -94.81187499999999 Q114.4875 -89.73249999999999 123.19500000000001 -81.02499999999999 Q131.9025 -72.3175 136.981875 -60.46562499999999 Q142.06125 -48.613749999999996 142.06125 -35.22999999999999 Q142.06125 -21.846249999999998 136.981875 -10.074999999999989 Q131.9025 1.6962500000000205 123.19500000000001 10.403750000000002 Q114.4875 19.111250000000013 102.635625 24.27125000000001 Q90.78375 29.431250000000006 77.4 29.431250000000006 Z M77.4 18.78875000000002 Q99.97500000000001 18.78875000000002 115.696875 2.9862500000000125 Q131.41875000000002 -12.816249999999997 131.41875000000002 -35.22999999999999 Q131.41875000000002 -57.80499999999999 115.696875 -73.52687499999999 Q99.97500000000001 -89.24875 77.4 -89.24875 Q54.986250000000005 -89.24875 39.18375 -73.52687499999999 Q23.38125 -57.80499999999999 23.38125 -35.22999999999999 Q23.38125 -12.816249999999997 39.18375 2.9862500000000125 Q54.986250000000005 18.78875000000002 77.4 18.78875000000002 Z M58.695 -2.9799999999999898 H86.43 Q90.3 -2.9799999999999898 93.2025 -5.8018749999999955 Q96.105 -8.623749999999987 96.105 -12.654999999999987 V-30.715000000000003 Q96.105 -34.584999999999994 93.2025 -37.4875 Q90.3 -40.39 86.43 -40.39 H68.53125 V-57.80499999999999 H96.105 V-67.64125 H58.695 V-30.715000000000003 H86.43 Q86.43 -30.715000000000003 86.43 -30.715000000000003 Q86.43 -30.715000000000003 86.43 -30.715000000000003 V-12.654999999999987 Q86.43 -12.654999999999987 86.43 -12.654999999999987 Q86.43 -12.654999999999987 86.43 -12.654999999999987 H58.695 V-2.9799999999999898 Z"/></g><g id="Regular-L" transform="matrix(1 0 0 1 1378.56 1556)"><path d="M77.4 28.463750000000005 Q64.33875 28.463750000000005 52.728750000000005 23.384375000000006 Q41.11875 18.305000000000007 32.491875 9.678124999999994 Q23.865000000000002 1.0512500000000102 18.785625 -10.558750000000003 Q13.70625 -22.16874999999999 13.70625 -35.22999999999999 Q13.70625 -48.4525 18.785625 -60.06249999999999 Q23.865000000000002 -71.6725 32.491875 -80.299375 Q41.11875 -88.92625 52.728750000000005 -93.925 Q64.33875 -98.92375 77.4 -98.92375 Q90.6225 -98.92375 102.2325 -93.925 Q113.84249999999999 -88.92625 122.46937500000001 -80.299375 Q131.09625 -71.6725 136.095 -60.06249999999999 Q141.09375 -48.4525 141.09375 -35.22999999999999 Q141.09375 -22.16874999999999 136.095 -10.558750000000003 Q131.09625 1.0512500000000102 122.46937500000001 9.678124999999994 Q113.84249999999999 18.305000000000007 102.2325 23.384375000000006 Q90.6225 28.463750000000005 77.4 28.463750000000005 Z M77.4 19.111250000000013 Q100.13625 19.111250000000013 116.01937500000001 3.2281249999999915 Q131.9025 -12.654999999999987 131.9025 -35.22999999999999 Q131.9025 -57.966249999999995 116.01937500000001 -73.849375 Q100.13625 -89.73249999999999 77.4 -89.73249999999999 Q54.986250000000005 -89.73249999999999 39.0225 -73.849375 Q23.058750000000003 -57.966249999999995 23.058750000000003 -35.22999999999999 Q23.058750000000003 -12.816249999999997 38.941874999999996 3.147500000000008 Q54.825 19.111250000000013 77.4 19.111250000000013 Z M59.17875000000001 -2.9799999999999898 H86.43 Q89.97749999999999 -2.9799999999999898 92.799375 -5.721249999999998 Q95.62125 -8.462500000000006 95.62125 -12.17125 V-30.876249999999985 Q95.62125 -34.584999999999994 92.799375 -37.406875 Q89.97749999999999 -40.22874999999999 86.43 -40.22874999999999 H68.53125 V-58.288749999999986 H95.62125 V-67.64125 H59.17875000000001 V-30.876249999999985 H86.43 Q86.43 -30.876249999999985 86.43 -30.876249999999985 Q86.43 -30.876249999999985 86.43 -30.876249999999985 V-12.17125 Q86.43 -12.17125 86.43 -12.17125 Q86.43 -12.17125 86.43 -12.17125 H59.17875000000001 V-2.9799999999999898 Z"/></g><g id="Light-L" transform="matrix(1 0 0 1 1082.77 1556)"><path d="M77.4 25.56125 Q64.8225 25.56125 53.776875000000004 20.723750000000024 Q42.73125 15.886250000000018 34.5075 7.662499999999994 Q26.28375 -0.5612499999999869 21.446250000000003 -11.606874999999988 Q16.60875 -22.652500000000003 16.60875 -35.22999999999999 Q16.60875 -47.80749999999999 21.446250000000003 -58.933749999999996 Q26.28375 -70.06 34.5075 -78.28375 Q42.73125 -86.5075 53.776875000000004 -91.264375 Q64.8225 -96.02125 77.4 -96.02125 Q89.97749999999999 -96.02125 101.10375 -91.264375 Q112.22999999999999 -86.5075 120.45375000000001 -78.28375 Q128.6775 -70.06 133.43437500000002 -58.933749999999996 Q138.19125 -47.80749999999999 138.19125 -35.22999999999999 Q138.19125 -22.652500000000003 133.43437500000002 -11.606874999999988 Q128.6775 -0.5612499999999869 120.45375000000001 7.662499999999994 Q112.22999999999999 15.886250000000018 101.10375 20.723750000000024 Q89.97749999999999 25.56125 77.4 25.56125 Z M77.4 18.466250000000002 Q99.81375 18.466250000000002 115.455 2.744375000000005 Q131.09625 -12.977499999999992 131.09625 -35.22999999999999 Q131.09625 -57.64374999999999 115.455 -73.285 Q99.81375 -88.92625 77.4 -88.92625 Q55.14750000000001 -88.92625 39.425625 -73.285 Q23.70375 -57.64374999999999 23.70375 -35.22999999999999 Q23.70375 -12.977499999999992 39.425625 2.744375000000005 Q55.14750000000001 18.466250000000002 77.4 18.466250000000002 Z M60.46875 -4.431250000000006 H85.30125 Q89.01 -4.431250000000006 91.670625 -7.172499999999985 Q94.33125 -9.913749999999993 94.33125 -13.461249999999993 V-29.908749999999998 Q94.33125 -33.61749999999999 91.670625 -36.27812499999999 Q89.01 -38.938749999999985 85.30125 -38.938749999999985 H67.56375 V-58.933749999999996 H94.33125 V-66.02875 H60.46875 V-32.004999999999995 H85.30125 Q86.1075 -32.004999999999995 86.671875 -31.36 Q87.23625 -30.715000000000003 87.23625 -29.908749999999998 V-13.461249999999993 Q87.23625 -12.654999999999987 86.671875 -12.090624999999989 Q86.1075 -11.52624999999999 85.30125 -11.52624999999999 H60.46875 V-4.431250000000006 Z"/></g><g id="Thin-L" transform="matrix(1 0 0 1 787.282 1556)"><path d="M77.56125 22.658750000000026 Q65.4675 22.658750000000026 54.90562499999999 18.063125000000014 Q44.34375 13.467500000000015 36.523125 5.566249999999997 Q28.7025 -2.3349999999999795 24.106875 -12.735624999999985 Q19.51125 -23.13624999999999 19.51125 -35.22999999999999 Q19.51125 -47.32374999999999 24.106875 -57.88562499999999 Q28.7025 -68.44749999999999 36.60375 -76.268125 Q44.505 -84.08875 54.90562499999999 -88.60374999999999 Q65.30625 -93.11874999999999 77.4 -93.11874999999999 Q89.49375 -93.11874999999999 100.05562499999999 -88.523125 Q110.61749999999999 -83.9275 118.43812500000001 -76.106875 Q126.25874999999999 -68.28625 130.77375 -57.80499999999999 Q135.28875000000002 -47.32374999999999 135.28875000000002 -35.39125 Q135.28875000000002 -23.2975 130.77375 -12.735624999999985 Q126.25874999999999 -2.1737499999999983 118.35750000000002 5.646874999999994 Q110.45625 13.467500000000015 99.97500000000001 18.063125000000014 Q89.49375 22.658750000000026 77.56125 22.658750000000026 Z M77.4 17.82125000000002 Q99.49125000000001 17.82125000000002 114.97125 2.3412500000000023 Q130.45125000000002 -13.138749999999987 130.45125000000002 -35.22999999999999 Q130.45125000000002 -57.32125 114.97125 -72.80125 Q99.49125000000001 -88.28125 77.4 -88.28125 Q55.47 -88.28125 39.909375000000004 -72.80125 Q24.34875 -57.32125 24.34875 -35.22999999999999 Q24.34875 -13.299999999999997 39.82875 2.2606250000000045 Q55.308749999999996 17.82125000000002 77.4 17.82125000000002 Z M61.75875 -6.043750000000003 H84.33375 Q87.88125000000001 -6.043750000000003 90.541875 -8.623749999999987 Q93.2025 -11.20375 93.2025 -14.912499999999994 V-28.941249999999997 Q93.2025 -32.64999999999999 90.541875 -35.22999999999999 Q87.88125000000001 -37.81 84.33375 -37.81 H66.59625 V-59.57875 H93.2025 V-64.41624999999999 H61.75875 V-32.9725 H84.33375 Q85.94624999999999 -32.9725 87.075 -31.763125000000002 Q88.20375000000001 -30.553749999999994 88.20375000000001 -28.941249999999997 V-14.912499999999994 Q88.20375000000001 -13.299999999999997 87.075 -12.090624999999989 Q85.94624999999999 -10.881249999999994 84.33375 -10.881249999999994 H61.75875 V-6.043750000000003 Z"/></g><g id="Ultralight-L" transform="matrix(1 0 0 1 491.205 1556)"><path d="M77.56125 20.88499999999999 Q65.78999999999999 20.88499999999999 55.63125 16.450625000000002 Q45.4725 12.01625 37.813125 4.356875000000002 Q30.15375 -3.302499999999995 25.719375 -13.380624999999995 Q21.285 -23.458749999999995 21.285 -35.22999999999999 Q21.285 -46.84 25.719375 -57.07937499999999 Q30.15375 -67.31875 37.813125 -74.97812499999999 Q45.4725 -82.63749999999999 55.550625000000004 -86.99125 Q65.62875000000001 -91.345 77.4 -91.345 Q89.01 -91.345 99.249375 -86.910625 Q109.48875000000001 -82.47625 117.14812500000001 -74.8975 Q124.80750000000002 -67.31875 129.16125 -57.07937499999999 Q133.515 -46.84 133.515 -35.39125 Q133.515 -23.61999999999999 129.080625 -13.461249999999993 Q124.64625 -3.302499999999995 117.0675 4.356875000000002 Q109.48875000000001 12.01625 99.249375 16.450625000000002 Q89.01 20.88499999999999 77.56125 20.88499999999999 Z M77.4 17.337500000000006 Q99.33 17.337500000000006 114.64874999999999 2.018749999999997 Q129.9675 -13.299999999999997 129.9675 -35.22999999999999 Q129.9675 -57.16 114.64874999999999 -72.47874999999999 Q99.33 -87.7975 77.4 -87.7975 Q55.63125 -87.7975 40.231875 -72.47874999999999 Q24.8325 -57.16 24.8325 -35.22999999999999 Q24.8325 -13.461249999999993 40.15125 1.9381249999999994 Q55.47 17.337500000000006 77.4 17.337500000000006 Z M62.565 -7.01124999999999 H83.68875 Q87.075 -7.01124999999999 89.735625 -9.591249999999988 Q92.39625 -12.17125 92.39625 -15.718749999999986 V-28.457499999999982 Q92.39625 -32.004999999999995 89.735625 -34.584999999999994 Q87.075 -37.16499999999999 83.68875 -37.16499999999999 H66.1125 V-59.90124999999999 H92.39625 V-63.44875 H62.565 V-33.61749999999999 H83.68875 Q85.78500000000001 -33.61749999999999 87.316875 -32.08562499999999 Q88.84875000000001 -30.553749999999994 88.84875000000001 -28.457499999999982 V-15.718749999999986 Q88.84875000000001 -13.622499999999988 87.316875 -12.090624999999989 Q85.78500000000001 -10.558750000000003 83.68875 -10.558750000000003 H62.565 V-7.01124999999999 Z"/></g><g id="Bold-M" transform="matrix(1 0 0 1 2281.8 1126)"><path d="M60.0 17.77000000000001 Q48.875 17.77000000000001 39.25 13.585000000000022 Q29.625 9.39500000000001 22.5 2.2700000000000102 Q15.375 -4.85499999999999 11.19 -14.47999999999999 Q7.0 -24.10499999999999 7.0 -35.22999999999999 Q7.0 -46.35499999999999 11.19 -55.97999999999999 Q15.375 -65.60499999999999 22.5 -72.72999999999999 Q29.625 -79.85499999999999 39.25 -84.04499999999999 Q48.875 -88.22999999999999 60.0 -88.22999999999999 Q71.125 -88.22999999999999 80.75 -84.04499999999999 Q90.375 -79.85499999999999 97.5 -72.72999999999999 Q104.625 -65.60499999999999 108.81500000000001 -55.97999999999999 Q113.0 -46.35499999999999 113.0 -35.22999999999999 Q113.0 -24.10499999999999 108.81500000000001 -14.47999999999999 Q104.625 -4.85499999999999 97.5 2.2700000000000102 Q90.375 9.39500000000001 80.75 13.585000000000022 Q71.125 17.77000000000001 60.0 17.77000000000001 Z M60.0 2.6450000000000102 Q76.0 2.6450000000000102 86.94000000000001 -8.35499999999999 Q97.875 -19.35499999999999 97.875 -35.22999999999999 Q97.875 -51.22999999999999 86.94000000000001 -62.16999999999999 Q76.0 -73.10499999999999 60.0 -73.10499999999999 Q44.125 -73.10499999999999 33.125 -62.16999999999999 Q22.125 -51.22999999999999 22.125 -35.22999999999999 Q22.125 -19.35499999999999 33.125 -8.35499999999999 Q44.125 2.6450000000000102 60.0 2.6450000000000102 Z M43.625 -10.85499999999999 H65.125 Q70.375 -10.85499999999999 73.375 -13.85499999999999 Q76.375 -16.85499999999999 76.375 -22.10499999999999 V-29.47999999999999 Q76.375 -34.72999999999999 73.375 -37.78999999999999 Q70.375 -40.85499999999999 65.125 -40.85499999999999 H54.875 V-48.35499999999999 H76.375 V-59.60499999999999 H43.625 V-29.47999999999999 H65.125 Q65.125 -29.47999999999999 65.125 -29.47999999999999 Q65.125 -29.47999999999999 65.125 -29.47999999999999 V-22.10499999999999 Q65.125 -22.10499999999999 65.125 -22.10499999999999 Q65.125 -22.10499999999999 65.125 -22.10499999999999 H43.625 V-10.85499999999999 Z"/></g><g id="Semibold-M" transform="matrix(1 0 0 1 1985.97 1126)"><path d="M60.0 15.89500000000001 Q49.375 15.89500000000001 40.0 11.89500000000001 Q30.625 7.89500000000001 23.75 0.960000000000008 Q16.875 -5.97999999999999 12.875 -15.289999999999992 Q8.875 -24.60499999999999 8.875 -35.22999999999999 Q8.875 -45.85499999999999 12.875 -55.22999999999999 Q16.875 -64.60499999999999 23.814999999999998 -71.47999999999999 Q30.75 -78.35499999999999 40.06 -82.35499999999999 Q49.375 -86.35499999999999 60.0 -86.35499999999999 Q70.625 -86.35499999999999 80.0 -82.35499999999999 Q89.375 -78.35499999999999 96.25 -71.41999999999999 Q103.125 -64.47999999999999 107.125 -55.16999999999999 Q111.125 -45.85499999999999 111.125 -35.22999999999999 Q111.125 -24.60499999999999 107.125 -15.22999999999999 Q103.125 -5.85499999999999 96.19 1.0200000000000102 Q89.25 7.89500000000001 79.94 11.89500000000001 Q70.625 15.89500000000001 60.0 15.89500000000001 Z M60.0 3.2700000000000102 Q76.125 3.2700000000000102 87.315 -7.9199999999999875 Q98.5 -19.10499999999999 98.5 -35.22999999999999 Q98.5 -51.35499999999999 87.315 -62.54499999999999 Q76.125 -73.72999999999999 60.0 -73.72999999999999 Q43.875 -73.72999999999999 32.685 -62.54499999999999 Q21.5 -51.35499999999999 21.5 -35.22999999999999 Q21.5 -19.10499999999999 32.685 -7.9199999999999875 Q43.875 3.2700000000000102 60.0 3.2700000000000102 Z M44.5 -10.85499999999999 H65.125 Q69.75 -10.85499999999999 72.625 -13.72999999999999 Q75.5 -16.60499999999999 75.5 -21.22999999999999 V-29.85499999999999 Q75.5 -34.60499999999999 72.625 -37.54499999999999 Q69.75 -40.47999999999999 65.125 -40.47999999999999 H54.875 V-49.22999999999999 H75.5 V-59.60499999999999 H44.5 V-29.85499999999999 H65.125 Q65.125 -29.85499999999999 65.125 -29.85499999999999 Q65.125 -29.85499999999999 65.125 -29.85499999999999 V-21.22999999999999 Q65.125 -21.22999999999999 65.125 -21.22999999999999 Q65.125 -21.22999999999999 65.125 -21.22999999999999 H44.5 V-10.85499999999999 Z"/></g><g id="Medium-M" transform="matrix(1 0 0 1 1689.91 1126)"><path d="M60.0 14.52000000000001 Q49.625 14.52000000000001 40.565 10.585000000000008 Q31.5 6.64500000000001 24.815 -0.03999999999999204 Q18.125 -6.72999999999999 14.190000000000001 -15.794999999999987 Q10.25 -24.85499999999999 10.25 -35.22999999999999 Q10.25 -45.60499999999999 14.190000000000001 -54.66499999999999 Q18.125 -63.72999999999999 24.815 -70.41499999999999 Q31.5 -77.10499999999999 40.565 -81.04499999999999 Q49.625 -84.97999999999999 60.0 -84.97999999999999 Q70.375 -84.97999999999999 79.435 -81.04499999999999 Q88.5 -77.10499999999999 95.19 -70.41499999999999 Q101.875 -63.72999999999999 105.815 -54.66499999999999 Q109.75 -45.60499999999999 109.75 -35.22999999999999 Q109.75 -24.85499999999999 105.815 -15.794999999999987 Q101.875 -6.72999999999999 95.19 -0.03999999999999204 Q88.5 6.64500000000001 79.435 10.585000000000008 Q70.375 14.52000000000001 60.0 14.52000000000001 Z M60.0 3.7700000000000102 Q76.375 3.7700000000000102 87.69 -7.539999999999992 Q99.0 -18.85499999999999 99.0 -35.22999999999999 Q99.0 -51.60499999999999 87.69 -62.91999999999999 Q76.375 -74.22999999999999 60.0 -74.22999999999999 Q43.625 -74.22999999999999 32.315 -62.91999999999999 Q21.0 -51.60499999999999 21.0 -35.22999999999999 Q21.0 -18.85499999999999 32.315 -7.539999999999992 Q43.625 3.7700000000000102 60.0 3.7700000000000102 Z M45.0 -10.85499999999999 H65.125 Q69.375 -10.85499999999999 72.19 -13.669999999999987 Q75.0 -16.47999999999999 75.0 -20.72999999999999 V-30.22999999999999 Q75.0 -34.47999999999999 72.19 -37.29499999999999 Q69.375 -40.10499999999999 65.125 -40.10499999999999 H54.875 V-49.72999999999999 H75.0 V-59.60499999999999 H45.0 V-30.22999999999999 H65.125 Q65.125 -30.22999999999999 65.125 -30.22999999999999 Q65.125 -30.22999999999999 65.125 -30.22999999999999 V-20.72999999999999 Q65.125 -20.72999999999999 65.125 -20.72999999999999 Q65.125 -20.72999999999999 65.125 -20.72999999999999 H45.0 V-10.85499999999999 Z"/></g><g id="Regular-M" transform="matrix(1 0 0 1 1394.06 1126)"><path d="M60.0 13.52000000000001 Q49.875 13.52000000000001 41.0 9.64500000000001 Q32.125 5.77000000000001 25.565 -0.7949999999999875 Q19.0 -7.35499999999999 15.125 -16.22999999999999 Q11.25 -25.10499999999999 11.25 -35.22999999999999 Q11.25 -45.35499999999999 15.125 -54.22999999999999 Q19.0 -63.10499999999999 25.565 -69.72999999999999 Q32.125 -76.35499999999999 41.0 -80.16999999999999 Q49.875 -83.97999999999999 60.0 -83.97999999999999 Q70.125 -83.97999999999999 79.0 -80.10499999999999 Q87.875 -76.22999999999999 94.5 -69.66999999999999 Q101.125 -63.10499999999999 104.94 -54.22999999999999 Q108.75 -45.35499999999999 108.75 -35.22999999999999 Q108.75 -25.10499999999999 104.875 -16.22999999999999 Q101.0 -7.35499999999999 94.44000000000001 -0.7949999999999875 Q87.875 5.77000000000001 79.0 9.64500000000001 Q70.125 13.52000000000001 60.0 13.52000000000001 Z M60.0 4.14500000000001 Q76.5 4.14500000000001 87.935 -7.35499999999999 Q99.375 -18.85499999999999 99.375 -35.22999999999999 Q99.375 -51.72999999999999 87.935 -63.16999999999999 Q76.5 -74.60499999999999 60.0 -74.60499999999999 Q43.625 -74.60499999999999 32.125 -63.16999999999999 Q20.625 -51.72999999999999 20.625 -35.22999999999999 Q20.625 -18.85499999999999 32.125 -7.35499999999999 Q43.625 4.14500000000001 60.0 4.14500000000001 Z M45.5 -10.85499999999999 H65.125 Q69.0 -10.85499999999999 71.75 -13.60499999999999 Q74.5 -16.35499999999999 74.5 -20.22999999999999 V-30.47999999999999 Q74.5 -34.35499999999999 71.75 -37.10499999999999 Q69.0 -39.85499999999999 65.125 -39.85499999999999 H54.875 V-50.22999999999999 H74.5 V-59.60499999999999 H45.5 V-30.47999999999999 H65.125 Q65.125 -30.47999999999999 65.125 -30.47999999999999 Q65.125 -30.47999999999999 65.125 -30.47999999999999 V-20.22999999999999 Q65.125 -20.22999999999999 65.125 -20.22999999999999 Q65.125 -20.22999999999999 65.125 -20.22999999999999 H45.5 V-10.85499999999999 Z"/></g><g id="Light-M" transform="matrix(1 0 0 1 1098.18 1126)"><path d="M60.0 11.27000000000001 Q50.375 11.27000000000001 41.875 7.5800000000000125 Q33.375 3.8950000000000102 27.125 -2.3549999999999898 Q20.875 -8.60499999999999 17.19 -17.10499999999999 Q13.5 -25.60499999999999 13.5 -35.22999999999999 Q13.5 -44.85499999999999 17.19 -53.35499999999999 Q20.875 -61.85499999999999 27.125 -68.10499999999999 Q33.375 -74.35499999999999 41.875 -78.04499999999999 Q50.375 -81.72999999999999 60.0 -81.72999999999999 Q69.625 -81.72999999999999 78.125 -78.04499999999999 Q86.625 -74.35499999999999 92.875 -68.10499999999999 Q99.125 -61.85499999999999 102.81 -53.35499999999999 Q106.5 -44.85499999999999 106.5 -35.22999999999999 Q106.5 -25.60499999999999 102.81 -17.10499999999999 Q99.125 -8.60499999999999 92.875 -2.3549999999999898 Q86.625 3.8950000000000102 78.125 7.5800000000000125 Q69.625 11.27000000000001 60.0 11.27000000000001 Z M60.0 4.27000000000001 Q76.5 4.27000000000001 88.0 -7.22999999999999 Q99.5 -18.72999999999999 99.5 -35.22999999999999 Q99.5 -51.72999999999999 88.0 -63.22999999999999 Q76.5 -74.72999999999999 60.0 -74.72999999999999 Q43.5 -74.72999999999999 32.0 -63.22999999999999 Q20.5 -51.72999999999999 20.5 -35.22999999999999 Q20.5 -18.72999999999999 32.0 -7.22999999999999 Q43.5 4.27000000000001 60.0 4.27000000000001 Z M46.625 -11.97999999999999 H64.75 Q68.375 -11.97999999999999 70.875 -14.47999999999999 Q73.375 -16.97999999999999 73.375 -20.47999999999999 V-30.10499999999999 Q73.375 -33.72999999999999 70.875 -36.22999999999999 Q68.375 -38.72999999999999 64.75 -38.72999999999999 H53.625 V-51.47999999999999 H73.375 V-58.47999999999999 H46.625 V-31.72999999999999 H64.75 Q65.5 -31.72999999999999 65.94 -31.294999999999987 Q66.375 -30.85499999999999 66.375 -30.10499999999999 V-20.47999999999999 Q66.375 -19.85499999999999 65.94 -19.419999999999987 Q65.5 -18.97999999999999 64.75 -18.97999999999999 H46.625 V-11.97999999999999 Z"/></g><g id="Thin-M" transform="matrix(1 0 0 1 802.565 1126)"><path d="M60.0 9.02000000000001 Q50.875 9.02000000000001 42.75 5.52000000000001 Q34.625 2.0200000000000102 28.69 -3.9799999999999898 Q22.75 -9.97999999999999 19.25 -18.039999999999992 Q15.75 -26.10499999999999 15.75 -35.22999999999999 Q15.75 -44.35499999999999 19.25 -52.47999999999999 Q22.75 -60.60499999999999 28.75 -66.54499999999999 Q34.75 -72.47999999999999 42.809999999999995 -75.97999999999999 Q50.875 -79.47999999999999 60.0 -79.47999999999999 Q69.125 -79.47999999999999 77.25 -75.97999999999999 Q85.375 -72.47999999999999 91.31500000000001 -66.47999999999999 Q97.25 -60.47999999999999 100.75 -52.419999999999995 Q104.25 -44.35499999999999 104.25 -35.22999999999999 Q104.25 -26.10499999999999 100.75 -17.97999999999999 Q97.25 -9.85499999999999 91.25 -3.9199999999999875 Q85.25 2.0200000000000102 77.19 5.52000000000001 Q69.125 9.02000000000001 60.0 9.02000000000001 Z M60.0 4.39500000000001 Q76.5 4.39500000000001 88.065 -7.164999999999992 Q99.625 -18.72999999999999 99.625 -35.22999999999999 Q99.625 -51.72999999999999 88.065 -63.29499999999999 Q76.5 -74.85499999999999 60.0 -74.85499999999999 Q43.5 -74.85499999999999 31.939999999999998 -63.29499999999999 Q20.375 -51.72999999999999 20.375 -35.22999999999999 Q20.375 -18.72999999999999 31.939999999999998 -7.164999999999992 Q43.5 4.39500000000001 60.0 4.39500000000001 Z M47.75 -13.10499999999999 H64.5 Q67.75 -13.10499999999999 70.0 -15.35499999999999 Q72.25 -17.60499999999999 72.25 -20.85499999999999 V-29.85499999999999 Q72.25 -33.10499999999999 70.0 -35.29499999999999 Q67.75 -37.47999999999999 64.5 -37.47999999999999 H52.375 V-52.72999999999999 H72.25 V-57.35499999999999 H47.75 V-32.85499999999999 H64.5 Q65.875 -32.85499999999999 66.75 -31.97999999999999 Q67.625 -31.10499999999999 67.625 -29.85499999999999 V-20.85499999999999 Q67.625 -19.47999999999999 66.75 -18.60499999999999 Q65.875 -17.72999999999999 64.5 -17.72999999999999 H47.75 V-13.10499999999999 Z"/></g><g id="Ultralight-M" transform="matrix(1 0 0 1 506.415 1126)"><path d="M60.0 7.64500000000001 Q51.125 7.64500000000001 43.315 4.27000000000001 Q35.5 0.8950000000000102 29.689999999999998 -4.9199999999999875 Q23.875 -10.72999999999999 20.5 -18.544999999999987 Q17.125 -26.35499999999999 17.125 -35.22999999999999 Q17.125 -44.10499999999999 20.5 -51.91999999999999 Q23.875 -59.72999999999999 29.689999999999998 -65.54499999999999 Q35.5 -71.35499999999999 43.315 -74.72999999999999 Q51.125 -78.10499999999999 60.0 -78.10499999999999 Q68.875 -78.10499999999999 76.69 -74.72999999999999 Q84.5 -71.35499999999999 90.31 -65.54499999999999 Q96.125 -59.72999999999999 99.5 -51.91999999999999 Q102.875 -44.10499999999999 102.875 -35.22999999999999 Q102.875 -26.35499999999999 99.5 -18.544999999999987 Q96.125 -10.72999999999999 90.31 -4.9199999999999875 Q84.5 0.8950000000000102 76.69 4.27000000000001 Q68.875 7.64500000000001 60.0 7.64500000000001 Z M60.0 4.39500000000001 Q76.625 4.39500000000001 88.19000000000001 -7.10499999999999 Q99.75 -18.60499999999999 99.75 -35.22999999999999 Q99.75 -51.85499999999999 88.19000000000001 -63.41999999999999 Q76.625 -74.97999999999999 60.0 -74.97999999999999 Q43.5 -74.97999999999999 31.939999999999998 -63.41999999999999 Q20.375 -51.85499999999999 20.375 -35.22999999999999 Q20.375 -18.72999999999999 31.875 -7.164999999999992 Q43.375 4.39500000000001 60.0 4.39500000000001 Z M48.5 -13.85499999999999 H64.25 Q67.375 -13.85499999999999 69.44 -15.919999999999987 Q71.5 -17.97999999999999 71.5 -20.97999999999999 V-29.60499999999999 Q71.5 -32.60499999999999 69.44 -34.72999999999999 Q67.375 -36.85499999999999 64.375 -36.85499999999999 H51.75 V-53.47999999999999 H71.5 V-56.72999999999999 H48.5 V-33.60499999999999 H64.375 Q66.125 -33.60499999999999 67.25 -32.47999999999999 Q68.375 -31.35499999999999 68.375 -29.60499999999999 V-20.97999999999999 Q68.375 -19.22999999999999 67.25 -18.10499999999999 Q66.125 -16.97999999999999 64.375 -16.97999999999999 H48.5 V-13.85499999999999 Z"/></g><g id="Bold-S" transform="matrix(1 0 0 1 2294.23 696)"><path d="M47.34 5.009 Q38.956086 5.009 31.660992 1.8514219999999995 Q24.361164 -1.301421999999988 18.88866 -6.778659999999988 Q13.411422 -12.251164000000003 10.258578 -19.550991999999994 Q7.101 -26.846085999999993 7.101 -35.22999999999999 Q7.101 -43.71332799999999 10.258578 -50.96108199999999 Q13.411422 -58.20883599999999 18.88866 -63.68133999999999 Q24.361164 -69.15857799999999 31.660992 -72.311422 Q38.956086 -75.469 47.34 -75.469 Q55.823328 -75.469 63.071082000000004 -72.311422 Q70.31883599999999 -69.15857799999999 75.79134 -63.68133999999999 Q81.268578 -58.20883599999999 84.42142199999999 -50.90900799999999 Q87.579 -43.613913999999994 87.579 -35.22999999999999 Q87.579 -26.846085999999993 84.42142199999999 -19.550991999999994 Q81.268578 -12.251164000000003 75.79134 -6.778659999999988 Q70.31883599999999 -1.301421999999988 63.019008 1.8514219999999995 Q55.723914 5.009 47.34 5.009 Z M47.34 -6.134835999999993 Q59.567922 -6.134835999999993 68.00391 -14.618163999999993 Q76.435164 -23.101491999999993 76.435164 -35.22999999999999 Q76.435164 -47.457921999999996 68.00391 -55.89390999999999 Q59.567922 -64.325164 47.34 -64.325164 Q35.211492 -64.325164 26.728164 -55.89390999999999 Q18.244836 -47.457921999999996 18.244836 -35.22999999999999 Q18.244836 -23.101491999999993 26.728164 -14.618163999999993 Q35.211492 -6.134835999999993 47.34 -6.134835999999993 Z M34.420913999999996 -16.78633599999999 H52.173414 Q56.017422 -16.78633599999999 58.138254 -18.90716799999999 Q60.259085999999996 -21.02799999999999 60.259085999999996 -24.872007999999994 V-31.087749999999993 Q60.259085999999996 -34.936491999999994 58.138254 -37.104664 Q56.017422 -39.27283599999999 52.173414 -39.27283599999999 H42.506586 V-45.58799199999999 H60.259085999999996 V-53.67366399999999 H34.420913999999996 V-31.087749999999993 H52.173414 Q52.173414 -31.087749999999993 52.173414 -31.087749999999993 Q52.173414 -31.087749999999993 52.173414 -31.087749999999993 V-24.872007999999994 Q52.173414 -24.872007999999994 52.173414 -24.872007999999994 Q52.173414 -24.872007999999994 52.173414 -24.872007999999994 H34.420913999999996 V-16.78633599999999 Z"/></g><g id="Semibold-S" transform="matrix(1 0 0 1 1998.1 696)"><path d="M47.34 3.5319920000000025 Q39.349008 3.5319920000000025 32.248008 0.521168000000003 Q25.147008 -2.484921999999983 19.873332 -7.810671999999997 Q14.594922 -13.136421999999996 11.588832 -20.190081999999997 Q8.578008 -27.23900799999999 8.578008 -35.22999999999999 Q8.578008 -43.31567199999999 11.588832 -50.36933199999999 Q14.594922 -57.422991999999994 19.920672 -62.69666799999999 Q25.246422 -67.975078 32.300082 -70.981168 Q39.349008 -73.991992 47.34 -73.991992 Q55.425672 -73.991992 62.479332 -70.981168 Q69.53299200000001 -67.975078 74.806668 -62.649328 Q80.08507800000001 -57.323578 83.091168 -50.317257999999995 Q86.101992 -43.31567199999999 86.101992 -35.22999999999999 Q86.101992 -27.23900799999999 83.091168 -20.138007999999992 Q80.08507800000001 -13.037007999999986 74.759328 -7.763331999999991 Q69.433578 -2.484921999999983 62.431992 0.521168000000003 Q55.425672 3.5319920000000025 47.34 3.5319920000000025 Z M47.34 -5.642499999999998 Q59.667336 -5.642499999999998 68.297418 -14.272582 Q76.9275 -22.902663999999994 76.9275 -35.22999999999999 Q76.9275 -47.55733599999999 68.297418 -56.187417999999994 Q59.667336 -64.8175 47.34 -64.8175 Q35.012664 -64.8175 26.382582000000003 -56.187417999999994 Q17.7525 -47.55733599999999 17.7525 -35.22999999999999 Q17.7525 -22.902663999999994 26.382582000000003 -14.272582 Q35.012664 -5.642499999999998 47.34 -5.642499999999998 Z M35.112078 -16.78633599999999 H52.173414 Q55.525085999999995 -16.78633599999999 57.546504000000006 -18.859827999999993 Q59.567922 -20.92858599999999 59.567922 -24.185577999999992 V-31.385991999999995 Q59.567922 -34.737663999999995 57.546504000000006 -36.85849599999999 Q55.525085999999995 -38.979327999999995 52.173414 -38.979327999999995 H42.506586 V-46.274421999999994 H59.567922 V-53.67366399999999 H35.112078 V-31.385991999999995 H52.173414 Q52.173414 -31.385991999999995 52.173414 -31.385991999999995 Q52.173414 -31.385991999999995 52.173414 -31.385991999999995 V-24.185577999999992 Q52.173414 -24.185577999999992 52.173414 -24.185577999999992 Q52.173414 -24.185577999999992 52.173414 -24.185577999999992 H35.112078 V-16.78633599999999 Z"/></g><g id="Medium-S" transform="matrix(1 0 0 1 1701.85 696)"><path d="M47.34 2.443172000000004 Q39.547836 2.443172000000004 32.693004 -0.515578000000005 Q25.838172 -3.474328 20.71125 -8.601249999999993 Q15.584328 -13.728172 12.625577999999999 -20.583003999999995 Q9.666827999999999 -27.43783599999999 9.666827999999999 -35.22999999999999 Q9.666827999999999 -43.12157799999999 12.625577999999999 -49.924336 Q15.584328 -56.73182799999999 20.71125 -61.85874999999999 Q25.838172 -66.985672 32.693004 -69.94442199999999 Q39.547836 -72.903172 47.34 -72.903172 Q55.231578 -72.903172 62.034335999999996 -69.94442199999999 Q68.84182799999999 -66.985672 73.96875 -61.85874999999999 Q79.095672 -56.73182799999999 82.05442199999999 -49.87699599999999 Q85.013172 -43.022164 85.013172 -35.22999999999999 Q85.013172 -27.43783599999999 82.05442199999999 -20.583003999999995 Q79.095672 -13.728172 73.96875 -8.601249999999993 Q68.84182799999999 -3.474328 61.986996 -0.515578000000005 Q55.132164 2.443172000000004 47.34 2.443172000000004 Z M47.34 -5.249578 Q59.866164000000005 -5.249578 68.59566 -13.974339999999998 Q77.320422 -22.70383599999999 77.320422 -35.22999999999999 Q77.320422 -47.75616399999999 68.59566 -56.485659999999996 Q59.866164000000005 -65.210422 47.34 -65.210422 Q34.813836 -65.210422 26.084339999999997 -56.485659999999996 Q17.359578 -47.75616399999999 17.359578 -35.22999999999999 Q17.359578 -22.70383599999999 26.084339999999997 -13.974339999999998 Q34.813836 -5.249578 47.34 -5.249578 Z M35.505 -16.78633599999999 H52.173414 Q55.132164 -16.78633599999999 57.153582 -18.760413999999997 Q59.175 -20.734491999999996 59.175 -23.787921999999995 V-31.67949999999999 Q59.175 -34.63824999999999 57.153582 -36.65966799999999 Q55.132164 -38.681085999999986 52.173414 -38.681085999999986 H42.506586 V-46.67207799999999 H59.175 V-53.67366399999999 H35.505 V-31.67949999999999 H52.173414 Q52.173414 -31.67949999999999 52.173414 -31.67949999999999 Q52.173414 -31.67949999999999 52.173414 -31.67949999999999 V-23.787921999999995 Q52.173414 -23.787921999999995 52.173414 -23.787921999999995 Q52.173414 -23.787921999999995 52.173414 -23.787921999999995 H35.505 V-16.78633599999999 Z"/></g><g id="Regular-S" transform="matrix(1 0 0 1 1405.73 696)"><path d="M47.34 1.657328000000021 Q39.746664 1.657328000000021 33.038586 -1.2540819999999968 Q26.330508000000002 -4.165491999999986 21.303 -9.192999999999998 Q16.275492 -14.220507999999995 13.364082 -20.92858599999999 Q10.452672000000002 -27.636663999999996 10.452672000000002 -35.22999999999999 Q10.452672000000002 -42.92274999999999 13.364082 -49.57875399999999 Q16.275492 -56.23949199999999 21.303 -61.31433999999999 Q26.330508000000002 -66.39392199999999 33.038586 -69.25325799999999 Q39.746664 -72.11732799999999 47.34 -72.11732799999999 Q55.03275 -72.11732799999999 61.688754 -69.205918 Q68.349492 -66.294508 73.42434 -61.266999999999996 Q78.50392199999999 -56.23949199999999 81.367992 -49.53141399999999 Q84.22732800000001 -42.82333599999999 84.22732800000001 -35.22999999999999 Q84.22732800000001 -27.636663999999996 81.315918 -20.92858599999999 Q78.404508 -14.220507999999995 73.377 -9.192999999999998 Q68.349492 -4.165491999999986 61.641414000000005 -1.2540819999999968 Q54.933336 1.657328000000021 47.34 1.657328000000021 Z M47.34 -4.9513359999999835 Q59.965578 -4.9513359999999835 68.789754 -13.827585999999997 Q77.61866400000001 -22.70383599999999 77.61866400000001 -35.22999999999999 Q77.61866400000001 -47.855577999999994 68.789754 -56.67975399999999 Q59.965578 -65.508664 47.34 -65.508664 Q34.813836 -65.508664 25.937586 -56.67975399999999 Q17.061336 -47.855577999999994 17.061336 -35.22999999999999 Q17.061336 -22.70383599999999 25.937586 -13.827585999999997 Q34.813836 -4.9513359999999835 47.34 -4.9513359999999835 Z M35.897922 -16.78633599999999 H52.173414 Q54.933336 -16.78633599999999 56.85534 -18.708339999999993 Q58.782078 -20.635077999999993 58.782078 -23.394999999999996 V-31.87832799999999 Q58.782078 -34.63824999999999 56.85534 -36.56025399999999 Q54.933336 -38.486991999999994 52.173414 -38.486991999999994 H42.506586 V-47.06499999999999 H58.782078 V-53.67366399999999 H35.897922 V-31.87832799999999 H52.173414 Q52.173414 -31.87832799999999 52.173414 -31.87832799999999 Q52.173414 -31.87832799999999 52.173414 -31.87832799999999 V-23.394999999999996 Q52.173414 -23.394999999999996 52.173414 -23.394999999999996 Q52.173414 -23.394999999999996 52.173414 -23.394999999999996 H35.897922 V-16.78633599999999 Z"/></g><g id="Light-S" transform="matrix(1 0 0 1 1109.75 696)"><path d="M47.34 -0.11792199999999298 Q40.139585999999994 -0.11792199999999298 33.72975 -2.882577999999995 Q27.319914 -5.642499999999998 22.533839999999998 -10.423839999999998 Q17.7525 -15.209913999999998 14.992578 -21.619749999999996 Q12.227922000000001 -28.029585999999988 12.227922000000001 -35.22999999999999 Q12.227922000000001 -42.529827999999995 14.992578 -48.88758999999999 Q17.7525 -55.250085999999996 22.533839999999998 -60.036159999999995 Q27.319914 -64.8175 33.72975 -67.577422 Q40.139585999999994 -70.34207799999999 47.34 -70.34207799999999 Q54.639828 -70.34207799999999 60.997589999999995 -67.577422 Q67.360086 -64.8175 72.14616 -60.036159999999995 Q76.9275 -55.250085999999996 79.687422 -48.88758999999999 Q82.452078 -42.529827999999995 82.452078 -35.22999999999999 Q82.452078 -28.029585999999988 79.687422 -21.619749999999996 Q76.9275 -15.209913999999998 72.14616 -10.423839999999998 Q67.360086 -5.642499999999998 60.997589999999995 -2.882577999999995 Q54.639828 -0.11792199999999298 47.34 -0.11792199999999298 Z M47.34 -4.851921999999988 Q59.965578 -4.851921999999988 68.84182799999999 -13.728172 Q77.718078 -22.604421999999992 77.718078 -35.22999999999999 Q77.718078 -47.855577999999994 68.84182799999999 -56.73182799999999 Q59.965578 -65.60807799999999 47.34 -65.60807799999999 Q34.714422 -65.60807799999999 25.838172 -56.73182799999999 Q16.961922 -47.855577999999994 16.961922 -35.22999999999999 Q16.961922 -22.604421999999992 25.838172 -13.728172 Q34.714422 -4.851921999999988 47.34 -4.851921999999988 Z M36.787914 -17.676327999999998 H51.875172 Q54.441 -17.676327999999998 56.168910000000004 -19.399503999999993 Q57.892086 -21.127413999999995 57.892086 -23.593827999999995 V-31.580085999999987 Q57.892086 -34.046499999999995 56.168910000000004 -35.821749999999994 Q54.441 -37.596999999999994 51.875172 -37.596999999999994 H41.521914 V-48.049671999999994 H57.892086 V-52.783671999999996 H36.787914 V-32.86299999999999 H51.875172 Q52.466922000000004 -32.86299999999999 52.812504000000004 -32.51741799999999 Q53.158086 -32.17183599999999 53.158086 -31.580085999999987 V-23.593827999999995 Q53.158086 -23.101491999999993 52.812504000000004 -22.755909999999993 Q52.466922000000004 -22.410327999999993 51.875172 -22.410327999999993 H36.787914 V-17.676327999999998 Z"/></g><g id="Thin-S" transform="matrix(1 0 0 1 814.015 696)"><path d="M47.34 -1.8931719999999927 Q40.532508 -1.8931719999999927 34.420913999999996 -4.5063399999999945 Q28.304586 -7.119507999999996 23.769414 -11.70675399999999 Q19.229508000000003 -16.293999999999997 16.616339999999997 -22.310913999999997 Q14.003172000000001 -28.32782799999999 14.003172000000001 -35.22999999999999 Q14.003172000000001 -42.132172 16.616339999999997 -48.201159999999994 Q19.229508000000003 -54.26541399999999 23.816754 -58.800585999999996 Q28.404 -63.34049199999999 34.420913999999996 -65.95366 Q40.437827999999996 -68.56682799999999 47.34 -68.56682799999999 Q54.242172000000004 -68.56682799999999 60.31116 -65.95366 Q66.375414 -63.34049199999999 70.910586 -58.75324599999999 Q75.450492 -54.166 78.06366 -48.149086 Q80.676828 -42.132172 80.676828 -35.22999999999999 Q80.676828 -28.422507999999993 78.06366 -22.310913999999997 Q75.450492 -16.194585999999987 70.863246 -11.659413999999998 Q66.276 -7.119507999999996 60.259085999999996 -4.5063399999999945 Q54.242172000000004 -1.8931719999999927 47.34 -1.8931719999999927 Z M47.34 -4.752508000000006 Q59.965578 -4.752508000000006 68.889168 -13.680831999999995 Q77.81749199999999 -22.604421999999992 77.81749199999999 -35.22999999999999 Q77.81749199999999 -47.855577999999994 68.889168 -56.77916799999999 Q59.965578 -65.707492 47.34 -65.707492 Q34.714422 -65.707492 25.790832 -56.77916799999999 Q16.862508 -47.855577999999994 16.862508 -35.22999999999999 Q16.862508 -22.604421999999992 25.790832 -13.680831999999995 Q34.714422 -4.752508000000006 47.34 -4.752508000000006 Z M37.673172 -18.56158599999999 H51.681078 Q53.948664 -18.56158599999999 55.477745999999996 -20.090667999999994 Q57.006828 -21.619749999999996 57.006828 -23.88733599999999 V-31.385991999999995 Q57.006828 -33.554164 55.477745999999996 -35.08324599999999 Q53.948664 -36.61232799999999 51.681078 -36.61232799999999 H40.532508 V-49.03907799999999 H57.006828 V-51.89841399999999 H37.673172 V-33.752992 H51.681078 Q52.765164000000006 -33.752992 53.456328 -33.06182799999999 Q54.147492 -32.370664 54.147492 -31.385991999999995 V-23.88733599999999 Q54.147492 -22.80324999999999 53.456328 -22.11208599999999 Q52.765164000000006 -21.420921999999997 51.681078 -21.420921999999997 H37.673172 V-18.56158599999999 Z"/></g><g id="Ultralight-S" transform="matrix(1 0 0 1 517.792 696)"><path d="M47.439414000000006 -2.981991999999991 Q40.731336 -2.981991999999991 34.86591 -5.495745999999997 Q28.99575 -8.009499999999989 24.559991999999998 -12.449991999999995 Q20.1195 -16.885749999999987 17.605746 -22.755909999999993 Q15.091992000000001 -28.621335999999992 15.091992000000001 -35.22999999999999 Q15.091992000000001 -41.93807799999999 17.605746 -47.75616399999999 Q20.1195 -53.57424999999999 24.559991999999998 -58.010008 Q28.99575 -62.45049999999999 34.86591 -64.964254 Q40.731336 -67.47800799999999 47.34 -67.47800799999999 Q54.048078 -67.47800799999999 59.866164000000005 -64.964254 Q65.68425 -62.45049999999999 70.120008 -58.010008 Q74.5605 -53.57424999999999 77.074254 -47.75616399999999 Q79.588008 -41.93807799999999 79.588008 -35.329414 Q79.588008 -28.621335999999992 77.074254 -22.755909999999993 Q74.5605 -16.885749999999987 70.120008 -12.449991999999995 Q65.68425 -8.009499999999989 59.866164000000005 -5.495745999999997 Q54.048078 -2.981991999999991 47.439414000000006 -2.981991999999991 Z M47.34 -4.752508000000006 Q60.064992000000004 -4.752508000000006 68.98858200000001 -13.63349199999999 Q77.912172 -22.50500799999999 77.912172 -35.22999999999999 Q77.912172 -47.95499199999999 68.98858200000001 -56.878581999999994 Q60.064992000000004 -65.802172 47.34 -65.802172 Q34.714422 -65.802172 25.790832 -56.878581999999994 Q16.862508 -47.95499199999999 16.862508 -35.22999999999999 Q16.862508 -22.604421999999992 25.743492 -13.680831999999995 Q34.615008 -4.752508000000006 47.34 -4.752508000000006 Z M38.264922 -19.15333599999999 H51.48225 Q53.650422 -19.15333599999999 55.03275 -20.535663999999997 Q56.415078 -21.917991999999998 56.415078 -23.986749999999994 V-31.187163999999996 Q56.415078 -33.25592199999999 55.03275 -34.68558999999999 Q53.650422 -36.119991999999996 51.581664 -36.119991999999996 H40.040172 V-49.630827999999994 H56.415078 V-51.406077999999994 H38.264922 V-34.34000799999999 H51.581664 Q52.963992000000005 -34.34000799999999 53.84925 -33.45474999999999 Q54.734508 -32.569492 54.734508 -31.187163999999996 V-23.986749999999994 Q54.734508 -22.604421999999992 53.84925 -21.719164 Q52.963992000000005 -20.829171999999993 51.581664 -20.829171999999993 H38.264922 V-19.15333599999999 Z"/></g></g></svg>