<svg xmlns="http://www.w3.org/2000/svg" version="1.1" width="3300" height="2000"><g id="Notes"><style>
    text {
      font-family: monospace;
      text-anchor: middle;
    }
    text.emphasis {
      font-weight:bold;
    }
    text.lanchor {
      text-anchor: start;
    }
  </style><rect height="2200" id="artboard" fill="white" width="3300" x="0" y="0"/><line id="" style="fill:none;stroke:black;stroke-width:0.5;" x1="263" x2="3036" y1="292" y2="292"/><text class="lanchor emphasis" transform="matrix(1 0 0 1 263 322)">Weight/Scale Variations</text><text transform="matrix(1 0 0 1 559.711 322)">Ultralight</text><text transform="matrix(1 0 0 1 856.422 322)">Thin</text><text transform="matrix(1 0 0 1 1153.13 322)">Light</text><text transform="matrix(1 0 0 1 1449.84 322)">Regular</text><text transform="matrix(1 0 0 1 1746.56 322)">Medium</text><text transform="matrix(1 0 0 1 2043.27 322)">Semibold</text><text transform="matrix(1 0 0 1 2339.98 322)">Bold</text><text transform="matrix(1 0 0 1 2636.69 322)">Heavy</text><text transform="matrix(1 0 0 1 2933.4 322)">Black</text><text id="template-version" style="text-anchor: end;" transform="matrix(1 0 0 1 3036 1933)">Template v.1.0</text><text class="lanchor" transform="matrix(1 0 0 1 263 726)">Small</text><text class="lanchor" transform="matrix(1 0 0 1 263 1156)">Medium</text><text class="lanchor" transform="matrix(1 0 0 1 263 1586)">Large</text></g><g id="Guides"><g id="H-reference" style="fill:#27AAE1;stroke:none;" transform="matrix(1 0 0 1 339 696)"><path d="M 54.9316 0 L 57.666 0 L 30.5664 -70.459 L 28.0762 -70.459 L 0.976562 0 L 3.66211 0 L 12.9395 -24.4629 L 45.7031 -24.4629 Z M 29.1992 -67.0898 L 29.4434 -67.0898 L 44.8242 -26.709 L 13.8184 -26.709 Z"/></g><line id="Baseline-S" style="fill:none;stroke:#27AAE1;opacity:1;stroke-width:0.577;" x1="263" x2="3036" y1="696" y2="696"/><line id="Capline-S" style="fill:none;stroke:#27AAE1;opacity:1;stroke-width:0.577;" x1="263" x2="3036" y1="625.541" y2="625.541"/><g id="H-reference" style="fill:#27AAE1;stroke:none;" transform="matrix(1 0 0 1 339 1126)"><path d="M 54.9316 0 L 57.666 0 L 30.5664 -70.459 L 28.0762 -70.459 L 0.976562 0 L 3.66211 0 L 12.9395 -24.4629 L 45.7031 -24.4629 Z M 29.1992 -67.0898 L 29.4434 -67.0898 L 44.8242 -26.709 L 13.8184 -26.709 Z"/></g><line id="Baseline-M" style="fill:none;stroke:#27AAE1;opacity:1;stroke-width:0.577;" x1="263" x2="3036" y1="1126" y2="1126"/><line id="Capline-M" style="fill:none;stroke:#27AAE1;opacity:1;stroke-width:0.577;" x1="263" x2="3036" y1="1055.54" y2="1055.54"/><g id="H-reference" style="fill:#27AAE1;stroke:none;" transform="matrix(1 0 0 1 339 1556)"><path d="M 54.9316 0 L 57.666 0 L 30.5664 -70.459 L 28.0762 -70.459 L 0.976562 0 L 3.66211 0 L 12.9395 -24.4629 L 45.7031 -24.4629 Z M 29.1992 -67.0898 L 29.4434 -67.0898 L 44.8242 -26.709 L 13.8184 -26.709 Z"/></g><line id="Baseline-L" style="fill:none;stroke:#27AAE1;opacity:1;stroke-width:0.577;" x1="263" x2="3036" y1="1556" y2="1556"/><line id="Capline-L" style="fill:none;stroke:#27AAE1;opacity:1;stroke-width:0.577;" x1="263" x2="3036" y1="1485.54" y2="1485.54"/><rect height="119.336" id="left-margin" style="fill:darkred;stroke:none;opacity:0.4;" width="12.4512" x="1394.06" y="1030.79"/><rect height="119.336" id="right-margin" style="fill:darkgreen;stroke:none;opacity:0.4;" width="12.4512" x="1502.5112" y="1030.79"/><rect x="1406.5112" y="1045" width="96" height="96" fill="none" stroke="blue" stroke-dasharray="5"/><rect x="1394.06" y="1030.79" width="120.9024" height="119.336" fill="none" stroke="blue"/></g><g id="Symbols"><g id="Bold-L" transform="matrix(1 0 0 1 2266 1556)"><path d="M77.4 -75.22  56.59875 -95.86  67.24125000000001 -106.82499999999999  77.4 -96.505  97.87875000000001 -116.82249999999999  108.68250000000002 -106.17999999999999  77.4 -75.22 Z M24.1875 45.87875 Q20.478749999999998 45.87875 17.89875 43.29875000000001 Q15.31875 40.71875 15.31875 37.00999999999999 V-16.04124999999999 L29.186250000000005 -57.966249999999995 Q30.315 -61.35249999999999 33.298125 -63.44875 Q36.28125 -65.54499999999999 39.99 -65.54499999999999 H114.81 Q118.51875 -65.54499999999999 121.501875 -63.44875 Q124.48500000000001 -61.35249999999999 125.61375000000001 -57.966249999999995 L139.64249999999998 -16.04124999999999 V37.00999999999999 Q139.64249999999998 40.71875 136.90125 43.29875000000001 Q134.16 45.87875 130.6125 45.87875 H130.935 Q127.22625000000001 45.87875 124.72687499999999 43.46000000000001 Q122.22749999999999 41.04124999999999 122.22749999999999 37.33250000000001 V32.33375000000001 H32.5725 V37.33250000000001 Q32.5725 41.04124999999999 29.992500000000003 43.46000000000001 Q27.4125 45.87875 23.70375 45.87875 H24.1875 Z M34.5075 -24.909999999999997 H120.45375000000001 L112.06875000000001 -50.226249999999986 H42.73125 L34.5075 -24.909999999999997 Z M46.923750000000005 9.75875000000002 Q50.471250000000005 9.75875000000002 53.051249999999996 7.178750000000008 Q55.63125 4.59875000000001 55.63125 1.0512500000000102 Q55.63125 -2.6574999999999847 53.051249999999996 -5.318124999999995 Q50.471250000000005 -7.978749999999977 46.923750000000005 -7.978749999999977 Q43.05375 -7.978749999999977 40.47375 -5.318124999999995 Q37.893750000000004 -2.6574999999999847 37.893750000000004 1.0512500000000102 Q37.893750000000004 4.760000000000005 40.47375 7.259375000000006 Q43.05375 9.75875000000002 46.923750000000005 9.75875000000002 Z M108.19874999999999 9.75875000000002 Q111.90750000000001 9.75875000000002 114.568125 7.178750000000008 Q117.22875 4.59875000000001 117.22875 1.0512500000000102 Q117.22875 -2.6574999999999847 114.568125 -5.318124999999995 Q111.90750000000001 -7.978749999999977 108.19874999999999 -7.978749999999977 Q104.49 -7.978749999999977 101.99062500000001 -5.318124999999995 Q99.49125000000001 -2.6574999999999847 99.49125000000001 1.0512500000000102 Q99.49125000000001 4.760000000000005 102.07124999999999 7.259375000000006 Q104.65125000000002 9.75875000000002 108.19874999999999 9.75875000000002 Z M30.47625 17.17625000000001 H124.32374999999999 V-15.235 H30.47625 V17.17625000000001 Z"/></g><g id="Semibold-L" transform="matrix(1 0 0 1 1970.27 1556)"><path d="M77.4 -75.05875  58.21125000000001 -94.08624999999999  67.24125000000001 -103.2775  77.4 -92.9575  99.49125000000001 -115.04875  108.52125 -106.01875  77.4 -75.05875 Z M24.1875 44.266250000000014 Q21.285 44.266250000000014 19.188750000000002 42.170000000000016 Q17.0925 40.07375000000002 17.0925 37.171250000000015 V-15.55749999999999 L30.798750000000002 -57.16 Q31.927500000000002 -60.06249999999999 34.346250000000005 -61.83624999999999 Q36.765 -63.61 39.99 -63.61 H114.81 Q118.03500000000001 -63.61 120.45375000000001 -61.83624999999999 Q122.8725 -60.06249999999999 124.00125000000001 -57.16 L137.86875 -15.55749999999999 V37.171250000000015 Q137.86875 40.07375000000002 135.691875 42.170000000000016 Q133.515 44.266250000000014 130.6125 44.266250000000014 H129.32250000000002 Q126.25874999999999 44.266250000000014 124.32374999999999 42.250625000000014 Q122.38875000000002 40.235000000000014 122.38875000000002 37.33250000000001 V30.721250000000026 H32.41125 V37.33250000000001 Q32.41125 40.235000000000014 30.315 42.250625000000014 Q28.21875 44.266250000000014 25.31625 44.266250000000014 H24.1875 Z M33.70125 -24.748749999999987 H121.09875 L112.5525 -50.709999999999994 H42.2475 L33.70125 -24.748749999999987 Z M46.60125 10.242500000000007 Q50.14875000000001 10.242500000000007 52.728750000000005 7.7431250000000205 Q55.308749999999996 5.243750000000006 55.308749999999996 1.5349999999999966 Q55.308749999999996 -2.1737499999999983 52.728750000000005 -4.8343750000000085 Q50.14875000000001 -7.49499999999999 46.60125 -7.49499999999999 Q42.73125 -7.49499999999999 40.15125 -4.8343750000000085 Q37.57125 -2.1737499999999983 37.57125 1.5349999999999966 Q37.57125 5.243750000000006 40.15125 7.7431250000000205 Q42.73125 10.242500000000007 46.60125 10.242500000000007 Z M108.52125 10.242500000000007 Q112.22999999999999 10.242500000000007 114.890625 7.7431250000000205 Q117.55125000000001 5.243750000000006 117.55125000000001 1.5349999999999966 Q117.55125000000001 -2.1737499999999983 114.890625 -4.8343750000000085 Q112.22999999999999 -7.49499999999999 108.52125 -7.49499999999999 Q104.8125 -7.49499999999999 102.31312500000001 -4.8343750000000085 Q99.81375 -2.1737499999999983 99.81375 1.5349999999999966 Q99.81375 5.243750000000006 102.31312500000001 7.7431250000000205 Q104.8125 10.242500000000007 108.52125 10.242500000000007 Z M29.83125 17.982500000000016 H124.96875 V-15.07374999999999 H29.83125 V17.982500000000016 Z"/></g><g id="Medium-L" transform="matrix(1 0 0 1 1674.31 1556)"><path d="M77.4 -74.8975  59.339999999999996 -92.79624999999999  67.08 -100.69749999999999  77.4 -90.3775  100.62 -113.5975  108.36000000000001 -105.85749999999999  77.4 -74.8975 Z M24.1875 43.13749999999999 Q21.76875 43.13749999999999 20.075625 41.44437500000001 Q18.3825 39.75125 18.3825 37.33250000000001 V-15.235 L32.08875 -56.67624999999999 Q33.05625 -59.09499999999999 35.1525 -60.62687499999999 Q37.24875 -62.15874999999999 39.99 -62.15874999999999 H114.81 Q117.55125000000001 -62.15874999999999 119.64750000000001 -60.62687499999999 Q121.74375 -59.09499999999999 122.71124999999999 -56.67624999999999 L136.4175 -15.235 V37.33250000000001 Q136.4175 39.75125 134.724375 41.44437500000001 Q133.03125 43.13749999999999 130.6125 43.13749999999999 H128.19375 Q125.61375000000001 43.13749999999999 124.08187500000001 41.44437500000001 Q122.55 39.75125 122.55 37.33250000000001 V29.5925 H32.25 V37.33250000000001 Q32.25 39.75125 30.6375 41.44437500000001 Q29.025000000000002 43.13749999999999 26.444999999999997 43.13749999999999 H24.1875 Z M33.2175 -24.58749999999999 H121.74375 L112.875 -51.03249999999999 H41.925000000000004 L33.2175 -24.58749999999999 Z M46.27875 10.565000000000012 Q49.987500000000004 10.565000000000012 52.486875 8.065624999999997 Q54.986250000000005 5.566249999999997 54.986250000000005 1.8575000000000017 Q54.986250000000005 -1.8512499999999932 52.40625 -4.511875000000003 Q49.82625 -7.172499999999985 46.27875 -7.172499999999985 Q42.57 -7.172499999999985 39.909375000000004 -4.511875000000003 Q37.24875 -1.8512499999999932 37.24875 1.8575000000000017 Q37.24875 5.566249999999997 39.82875 8.065624999999997 Q42.408750000000005 10.565000000000012 46.27875 10.565000000000012 Z M108.68250000000002 10.565000000000012 Q112.39125000000001 10.565000000000012 115.051875 8.065624999999997 Q117.7125 5.566249999999997 117.7125 1.8575000000000017 Q117.7125 -1.8512499999999932 115.13250000000001 -4.511875000000003 Q112.5525 -7.172499999999985 108.68250000000002 -7.172499999999985 Q104.97375 -7.172499999999985 102.474375 -4.511875000000003 Q99.97500000000001 -1.8512499999999932 99.97500000000001 1.8575000000000017 Q99.97500000000001 5.566249999999997 102.555 8.065624999999997 Q105.135 10.565000000000012 108.68250000000002 10.565000000000012 Z M29.3475 18.466250000000002 H125.4525 V-14.912499999999994 H29.3475 V18.466250000000002 Z"/></g><g id="Regular-L" transform="matrix(1 0 0 1 1378.56 1556)"><path d="M77.4 -74.8975  60.3075 -91.82875  67.08 -98.76249999999999  77.4 -88.4425  101.5875 -112.63  108.36000000000001 -105.85749999999999  77.4 -74.8975 Z M24.1875 42.170000000000016 Q22.09125 42.170000000000016 20.720625 40.799375000000026 Q19.35 39.42875000000001 19.35 37.33250000000001 V-14.912499999999994 L33.05625 -56.192499999999995 Q33.862500000000004 -58.44999999999999 35.716875 -59.74 Q37.57125 -61.029999999999994 39.99 -61.029999999999994 H114.81 Q117.22875 -61.029999999999994 119.083125 -59.74 Q120.9375 -58.44999999999999 121.74375 -56.192499999999995 L135.45000000000002 -14.912499999999994 V37.33250000000001 Q135.45000000000002 39.42875000000001 134.079375 40.799375000000026 Q132.70875 42.170000000000016 130.6125 42.170000000000016 H127.22625000000001 Q125.13 42.170000000000016 123.84 40.799375000000026 Q122.55 39.42875000000001 122.55 37.33250000000001 V28.625 H32.25 V37.33250000000001 Q32.25 39.42875000000001 30.879375 40.799375000000026 Q29.508750000000003 42.170000000000016 27.4125 42.170000000000016 H24.1875 Z M32.73375 -24.58749999999999 H122.06625000000001 L113.1975 -51.355 H41.6025 L32.73375 -24.58749999999999 Z M46.11750000000001 10.887500000000003 Q49.82625 10.887500000000003 52.32562500000001 8.307500000000005 Q54.825 5.7275000000000205 54.825 2.180000000000007 Q54.825 -1.528749999999988 52.32562500000001 -4.189374999999998 Q49.82625 -6.8500000000000085 46.11750000000001 -6.8500000000000085 Q42.408750000000005 -6.8500000000000085 39.748125 -4.189374999999998 Q37.0875 -1.528749999999988 37.0875 2.180000000000007 Q37.0875 5.888750000000002 39.748125 8.388125000000002 Q42.408750000000005 10.887500000000003 46.11750000000001 10.887500000000003 Z M108.84375 10.887500000000003 Q112.5525 10.887500000000003 115.213125 8.307500000000005 Q117.87375 5.7275000000000205 117.87375 2.180000000000007 Q117.87375 -1.528749999999988 115.213125 -4.189374999999998 Q112.5525 -6.8500000000000085 108.84375 -6.8500000000000085 Q105.135 -6.8500000000000085 102.635625 -4.189374999999998 Q100.13625 -1.528749999999988 100.13625 2.180000000000007 Q100.13625 5.888750000000002 102.71625 8.388125000000002 Q105.29625 10.887500000000003 108.84375 10.887500000000003 Z M29.025000000000002 18.94999999999999 H125.775 V-14.912499999999994 H29.025000000000002 V18.94999999999999 Z"/></g><g id="Light-L" transform="matrix(1 0 0 1 1082.77 1556)"><path d="M77.4 -76.34875  62.24250000000001 -91.345  67.4025 -96.505  77.4 -86.5075  101.265 -110.3725  106.26375000000002 -105.21249999999999  77.4 -76.34875 Z M26.28375 38.94500000000002 Q24.67125 38.94500000000002 23.623125 37.896874999999994 Q22.575 36.848750000000024 22.575 35.23625000000001 V-14.590000000000003 L35.7975 -54.09625 Q36.4425 -55.86999999999999 37.893750000000004 -56.83749999999999 Q39.345 -57.80499999999999 41.28 -57.80499999999999 H113.84249999999999 Q115.61625000000001 -57.80499999999999 116.986875 -56.83749999999999 Q118.35750000000002 -55.86999999999999 119.0025 -54.09625 L132.225 -14.590000000000003 V35.23625000000001 Q132.225 36.848750000000024 131.176875 37.896874999999994 Q130.12875 38.94500000000002 128.51625 38.94500000000002 H126.90375 Q125.29125 38.94500000000002 124.32374999999999 37.896874999999994 Q123.35625 36.848750000000024 123.35625 35.23625000000001 V25.56125 H31.44375 V35.23625000000001 Q31.44375 36.848750000000024 30.395625000000003 37.896874999999994 Q29.3475 38.94500000000002 27.896250000000002 38.94500000000002 H26.28375 Z M32.73375 -22.007499999999993 H122.06625000000001 L112.39125000000001 -50.54874999999999 H42.408750000000005 L32.73375 -22.007499999999993 Z M46.440000000000005 9.597499999999997 Q49.82625 9.597499999999997 52.003125000000004 7.340000000000018 Q54.18000000000001 5.08250000000001 54.18000000000001 1.8575000000000017 Q54.18000000000001 -1.528749999999988 51.92250000000001 -3.7862499999999955 Q49.665 -6.043750000000003 46.440000000000005 -6.043750000000003 Q43.215 -6.043750000000003 40.876875000000005 -3.7862499999999955 Q38.53875 -1.528749999999988 38.53875 1.8575000000000017 Q38.53875 5.243750000000006 40.876875000000005 7.420625000000015 Q43.215 9.597499999999997 46.440000000000005 9.597499999999997 Z M108.52125 9.597499999999997 Q111.74625 9.597499999999997 114.08437500000001 7.340000000000018 Q116.42250000000001 5.08250000000001 116.42250000000001 1.8575000000000017 Q116.42250000000001 -1.528749999999988 114.08437500000001 -3.7862499999999955 Q111.74625 -6.043750000000003 108.52125 -6.043750000000003 Q105.135 -6.043750000000003 102.8775 -3.7862499999999955 Q100.62 -1.528749999999988 100.62 1.8575000000000017 Q100.62 5.243750000000006 102.95812500000001 7.420625000000015 Q105.29625 9.597499999999997 108.52125 9.597499999999997 Z M29.83125 18.305000000000007 H124.96875 V-14.590000000000003 H29.83125 V18.305000000000007 Z"/></g><g id="Thin-L" transform="matrix(1 0 0 1 787.282 1556)"><path d="M77.4 -77.79999999999998  64.33875 -90.69999999999999  67.72500000000001 -94.2475  77.4 -84.57249999999999  100.78125 -108.115  104.32875000000001 -104.5675  77.4 -77.79999999999998 Z M28.21875 35.72 Q27.25125 35.72 26.525624999999998 34.99437499999999 Q25.8 34.26875000000001 25.8 33.30125000000001 V-14.428749999999994 L38.7 -52.161249999999995 Q39.0225 -53.29 40.15125 -53.934999999999995 Q41.28 -54.57999999999999 42.408750000000005 -54.57999999999999 H112.875 Q114.00375000000001 -54.57999999999999 114.890625 -53.934999999999995 Q115.7775 -53.29 116.10000000000001 -52.161249999999995 L129.0 -14.428749999999994 V33.30125000000001 Q129.0 34.26875000000001 128.274375 34.99437499999999 Q127.54875 35.72 126.58125 35.72 H126.42000000000002 Q125.29125 35.72 124.64625 34.99437499999999 Q124.00125000000001 34.26875000000001 124.00125000000001 33.30125000000001 V22.497500000000002 H30.798750000000002 V33.30125000000001 Q30.798750000000002 34.26875000000001 30.073124999999997 34.99437499999999 Q29.3475 35.72 28.21875 35.72 Z M32.73375 -19.427499999999995 H122.06625000000001 L111.58500000000001 -49.58124999999999 H43.215 L32.73375 -19.427499999999995 Z M46.7625 8.46875 Q49.665 8.46875 51.6 6.453125 Q53.535000000000004 4.4375 53.535000000000004 1.5349999999999966 Q53.535000000000004 -1.3674999999999926 51.519375000000004 -3.302499999999995 Q49.503750000000004 -5.237499999999997 46.7625 -5.237499999999997 Q43.86 -5.237499999999997 41.925000000000004 -3.302499999999995 Q39.99 -1.3674999999999926 39.99 1.5349999999999966 Q39.99 4.59875000000001 42.005625 6.533750000000012 Q44.02125 8.46875 46.7625 8.46875 Z M108.03750000000001 8.46875 Q110.94 8.46875 112.955625 6.453125 Q114.97125 4.4375 114.97125 1.5349999999999966 Q114.97125 -1.3674999999999926 112.955625 -3.302499999999995 Q110.94 -5.237499999999997 108.03750000000001 -5.237499999999997 Q105.29625 -5.237499999999997 103.280625 -3.302499999999995 Q101.265 -1.3674999999999926 101.265 1.5349999999999966 Q101.265 4.59875000000001 103.36125 6.533750000000012 Q105.45750000000001 8.46875 108.03750000000001 8.46875 Z M30.798750000000002 17.659999999999997 H124.00125000000001 V-14.428749999999994 H30.798750000000002 V17.659999999999997 Z"/></g><g id="Ultralight-L" transform="matrix(1 0 0 1 491.205 1556)"><path d="M77.4 -78.60624999999999  65.4675 -90.3775  67.88625 -92.9575  77.4 -83.44375  100.62 -106.66375  103.03875000000001 -104.24499999999999  77.4 -78.60624999999999 Z M29.508750000000003 33.785 Q28.7025 33.785 28.21875 33.30125000000001 Q27.735 32.817500000000024 27.735 32.01125000000002 V-14.267499999999998 L40.3125 -50.871249999999996 Q40.635 -51.677499999999995 41.44125 -52.161249999999995 Q42.2475 -52.64499999999999 43.215 -52.64499999999999 H112.22999999999999 Q113.03625 -52.64499999999999 113.60062500000001 -52.161249999999995 Q114.16499999999999 -51.677499999999995 114.4875 -50.871249999999996 L127.065 -14.267499999999998 V32.01125000000002 Q127.065 32.817500000000024 126.58125 33.30125000000001 Q126.09750000000001 33.785 125.29125 33.785 H126.25874999999999 Q125.4525 33.785 124.96875 33.30125000000001 Q124.48500000000001 32.817500000000024 124.48500000000001 32.01125000000002 V20.723750000000024 H30.315 V32.01125000000002 Q30.315 32.817500000000024 29.83125 33.30125000000001 Q29.3475 33.785 28.541249999999998 33.785 H29.508750000000003 Z M32.73375 -17.814999999999998 H122.06625000000001 L111.10125000000001 -49.0975 H43.698750000000004 L32.73375 -17.814999999999998 Z M47.085 7.662499999999994 Q49.665 7.662499999999994 51.43875 5.808125000000018 Q53.2125 3.9537499999999994 53.2125 1.3737500000000153 Q53.2125 -1.2062499999999972 51.358125 -2.9799999999999898 Q49.503750000000004 -4.753749999999982 47.085 -4.753749999999982 Q44.34375 -4.753749999999982 42.57 -2.9799999999999898 Q40.79625 -1.2062499999999972 40.79625 1.3737500000000153 Q40.79625 4.115000000000023 42.650625 5.888750000000002 Q44.505 7.662499999999994 47.085 7.662499999999994 Z M107.87625000000001 7.662499999999994 Q110.45625 7.662499999999994 112.22999999999999 5.808125000000018 Q114.00375000000001 3.9537499999999994 114.00375000000001 1.3737500000000153 Q114.00375000000001 -1.2062499999999972 112.22999999999999 -2.9799999999999898 Q110.45625 -4.753749999999982 107.87625000000001 -4.753749999999982 Q105.29625 -4.753749999999982 103.44187500000001 -2.9799999999999898 Q101.5875 -1.2062499999999972 101.5875 1.3737500000000153 Q101.5875 4.115000000000023 103.52250000000001 5.888750000000002 Q105.45750000000001 7.662499999999994 107.87625000000001 7.662499999999994 Z M31.2825 17.17625000000001 H123.5175 V-14.267499999999998 H31.2825 V17.17625000000001 Z"/></g><g id="Bold-M" transform="matrix(1 0 0 1 2281.8 1126)"><path d="M60.0 -63.72999999999999  42.0 -81.60499999999999  53.0 -92.85499999999999  60.0 -85.72999999999999  73.875 -99.60499999999999  85.0 -88.60499999999999  60.0 -63.72999999999999 Z M20.0 28.64500000000001 Q16.25 28.64500000000001 13.5 25.89500000000001 Q10.75 23.14500000000001 10.75 19.39500000000001 V-21.35499999999999 L21.5 -51.97999999999999 Q22.75 -55.60499999999999 25.75 -57.72999999999999 Q28.75 -59.85499999999999 32.5 -59.85499999999999 H87.5 Q91.25 -59.85499999999999 94.25 -57.72999999999999 Q97.25 -55.60499999999999 98.5 -51.97999999999999 L109.25 -21.35499999999999 V19.39500000000001 Q109.25 23.14500000000001 106.5 25.89500000000001 Q103.75 28.64500000000001 100.0 28.64500000000001 H98.875 Q95.125 28.64500000000001 92.375 26.080000000000013 Q89.625 23.52000000000001 89.625 19.77000000000001 V18.64500000000001 H30.375 V19.77000000000001 Q30.375 23.52000000000001 27.625 26.080000000000013 Q24.875 28.64500000000001 21.125 28.64500000000001 H20.0 Z M30.75 -30.60499999999999 H89.25 L84.625 -44.10499999999999 H35.375 L30.75 -30.60499999999999 Z M38.25 -1.3549999999999898 Q41.375 -1.3549999999999898 43.565 -3.5449999999999875 Q45.75 -5.72999999999999 45.75 -8.85499999999999 Q45.75 -11.97999999999999 43.565 -14.169999999999987 Q41.375 -16.35499999999999 38.25 -16.35499999999999 Q35.125 -16.35499999999999 32.94 -14.169999999999987 Q30.75 -11.97999999999999 30.75 -8.85499999999999 Q30.75 -5.72999999999999 32.94 -3.5449999999999875 Q35.125 -1.3549999999999898 38.25 -1.3549999999999898 Z M81.75 -1.3549999999999898 Q84.875 -1.3549999999999898 87.065 -3.5449999999999875 Q89.25 -5.72999999999999 89.25 -8.85499999999999 Q89.25 -11.97999999999999 87.065 -14.169999999999987 Q84.875 -16.35499999999999 81.75 -16.35499999999999 Q78.625 -16.35499999999999 76.44 -14.169999999999987 Q74.25 -11.97999999999999 74.25 -8.85499999999999 Q74.25 -5.72999999999999 76.44 -3.5449999999999875 Q78.625 -1.3549999999999898 81.75 -1.3549999999999898 Z M26.5 2.8950000000000102 H93.5 V-20.60499999999999 H26.5 V2.8950000000000102 Z"/></g><g id="Semibold-M" transform="matrix(1 0 0 1 1985.97 1126)"><path d="M60.0 -63.60499999999999  43.625 -79.85499999999999  53.0 -89.22999999999999  60.0 -82.10499999999999  75.5 -97.72999999999999  84.875 -88.47999999999999  60.0 -63.60499999999999 Z M20.0 27.02000000000001 Q17.0 27.02000000000001 14.815000000000001 24.830000000000013 Q12.625 22.64500000000001 12.625 19.52000000000001 V-20.85499999999999 L23.25 -51.22999999999999 Q24.25 -54.22999999999999 26.815 -56.04499999999999 Q29.375 -57.85499999999999 32.5 -57.85499999999999 H87.5 Q90.625 -57.85499999999999 93.19000000000001 -56.04499999999999 Q95.75 -54.22999999999999 96.75 -51.22999999999999 L107.375 -20.85499999999999 V19.52000000000001 Q107.375 22.64500000000001 105.19 24.830000000000013 Q103.0 27.02000000000001 100.0 27.02000000000001 H97.25 Q94.125 27.02000000000001 91.935 24.89500000000001 Q89.75 22.77000000000001 89.75 19.77000000000001 V17.02000000000001 H30.25 V19.77000000000001 Q30.25 22.77000000000001 28.065 24.89500000000001 Q25.875 27.02000000000001 22.75 27.02000000000001 H20.0 Z M30.0 -30.47999999999999 H90.0 L85.125 -44.60499999999999 H34.875 L30.0 -30.47999999999999 Z M37.875 -0.8549999999999898 Q41.0 -0.8549999999999898 43.19 -3.039999999999992 Q45.375 -5.22999999999999 45.375 -8.35499999999999 Q45.375 -11.47999999999999 43.19 -13.669999999999987 Q41.0 -15.85499999999999 37.875 -15.85499999999999 Q34.75 -15.85499999999999 32.565 -13.669999999999987 Q30.375 -11.47999999999999 30.375 -8.35499999999999 Q30.375 -5.22999999999999 32.565 -3.039999999999992 Q34.75 -0.8549999999999898 37.875 -0.8549999999999898 Z M82.125 -0.8549999999999898 Q85.25 -0.8549999999999898 87.44 -3.039999999999992 Q89.625 -5.22999999999999 89.625 -8.35499999999999 Q89.625 -11.47999999999999 87.44 -13.669999999999987 Q85.25 -15.85499999999999 82.125 -15.85499999999999 Q79.0 -15.85499999999999 76.815 -13.669999999999987 Q74.625 -11.47999999999999 74.625 -8.35499999999999 Q74.625 -5.22999999999999 76.815 -3.039999999999992 Q79.0 -0.8549999999999898 82.125 -0.8549999999999898 Z M25.875 3.7700000000000102 H94.125 V-20.47999999999999 H25.875 V3.7700000000000102 Z"/></g><g id="Medium-M" transform="matrix(1 0 0 1 1689.91 1126)"><path d="M60.0 -63.47999999999999  45.0 -78.47999999999999  52.875 -86.60499999999999  60.0 -79.47999999999999  76.875 -96.22999999999999  84.75 -88.35499999999999  60.0 -63.47999999999999 Z M20.0 25.64500000000001 Q17.5 25.64500000000001 15.75 23.89500000000001 Q14.0 22.14500000000001 14.0 19.64500000000001 V-20.47999999999999 L24.5 -50.60499999999999 Q25.375 -53.22999999999999 27.564999999999998 -54.79499999999999 Q29.75 -56.35499999999999 32.5 -56.35499999999999 H87.5 Q90.25 -56.35499999999999 92.44 -54.79499999999999 Q94.625 -53.22999999999999 95.5 -50.60499999999999 L106.0 -20.47999999999999 V19.64500000000001 Q106.0 22.14500000000001 104.25 23.89500000000001 Q102.5 25.64500000000001 100.0 25.64500000000001 H95.875 Q93.375 25.64500000000001 91.625 23.955000000000013 Q89.875 22.27000000000001 89.875 19.77000000000001 V15.64500000000001 H30.125 V19.77000000000001 Q30.125 22.27000000000001 28.375 23.955000000000013 Q26.625 25.64500000000001 24.125 25.64500000000001 H20.0 Z M29.375 -30.35499999999999 H90.625 L85.5 -44.97999999999999 H34.5 L29.375 -30.35499999999999 Z M37.625 -0.47999999999998977 Q40.75 -0.47999999999998977 42.94 -2.6699999999999875 Q45.125 -4.85499999999999 45.125 -7.97999999999999 Q45.125 -11.10499999999999 42.94 -13.294999999999987 Q40.75 -15.47999999999999 37.625 -15.47999999999999 Q34.5 -15.47999999999999 32.315 -13.294999999999987 Q30.125 -11.10499999999999 30.125 -7.97999999999999 Q30.125 -4.85499999999999 32.315 -2.6699999999999875 Q34.5 -0.47999999999998977 37.625 -0.47999999999998977 Z M82.375 -0.47999999999998977 Q85.5 -0.47999999999998977 87.69 -2.6699999999999875 Q89.875 -4.85499999999999 89.875 -7.97999999999999 Q89.875 -11.10499999999999 87.69 -13.294999999999987 Q85.5 -15.47999999999999 82.375 -15.47999999999999 Q79.25 -15.47999999999999 77.065 -13.294999999999987 Q74.875 -11.10499999999999 74.875 -7.97999999999999 Q74.875 -4.85499999999999 77.065 -2.6699999999999875 Q79.25 -0.47999999999998977 82.375 -0.47999999999998977 Z M25.375 4.27000000000001 H94.625 V-20.35499999999999 H25.375 V4.27000000000001 Z"/></g><g id="Regular-M" transform="matrix(1 0 0 1 1394.06 1126)"><path d="M60.0 -63.47999999999999  45.875 -77.47999999999999  52.875 -84.60499999999999  60.0 -77.47999999999999  77.75 -95.22999999999999  84.75 -88.22999999999999  60.0 -63.47999999999999 Z M20.0 24.77000000000001 Q17.875 24.77000000000001 16.439999999999998 23.330000000000013 Q15.0 21.89500000000001 15.0 19.77000000000001 V-20.22999999999999 L25.5 -50.22999999999999 Q26.25 -52.47999999999999 28.189999999999998 -53.85499999999999 Q30.125 -55.22999999999999 32.5 -55.22999999999999 H87.5 Q89.875 -55.22999999999999 91.815 -53.85499999999999 Q93.75 -52.47999999999999 94.5 -50.22999999999999 L105.0 -20.22999999999999 V19.77000000000001 Q105.0 21.89500000000001 103.56 23.330000000000013 Q102.125 24.77000000000001 100.0 24.77000000000001 H95.0 Q92.875 24.77000000000001 91.44 23.330000000000013 Q90.0 21.89500000000001 90.0 19.77000000000001 V14.77000000000001 H30.0 V19.77000000000001 Q30.0 21.89500000000001 28.565 23.330000000000013 Q27.125 24.77000000000001 25.0 24.77000000000001 H20.0 Z M29.0 -30.22999999999999 H91.0 L85.75 -45.22999999999999 H34.25 L29.0 -30.22999999999999 Z M37.5 -0.22999999999998977 Q40.625 -0.22999999999998977 42.809999999999995 -2.4199999999999875 Q45.0 -4.60499999999999 45.0 -7.72999999999999 Q45.0 -10.85499999999999 42.809999999999995 -13.039999999999992 Q40.625 -15.22999999999999 37.5 -15.22999999999999 Q34.375 -15.22999999999999 32.19 -13.039999999999992 Q30.0 -10.85499999999999 30.0 -7.72999999999999 Q30.0 -4.60499999999999 32.19 -2.4199999999999875 Q34.375 -0.22999999999998977 37.5 -0.22999999999998977 Z M82.5 -0.22999999999998977 Q85.625 -0.22999999999998977 87.81 -2.4199999999999875 Q90.0 -4.60499999999999 90.0 -7.72999999999999 Q90.0 -10.85499999999999 87.81 -13.039999999999992 Q85.625 -15.22999999999999 82.5 -15.22999999999999 Q79.375 -15.22999999999999 77.19 -13.039999999999992 Q75.0 -10.85499999999999 75.0 -7.72999999999999 Q75.0 -4.60499999999999 77.19 -2.4199999999999875 Q79.375 -0.22999999999998977 82.5 -0.22999999999998977 Z M25.0 4.77000000000001 H95.0 V-20.22999999999999 H25.0 V4.77000000000001 Z"/></g><g id="Light-M" transform="matrix(1 0 0 1 1098.18 1126)"><path d="M60.0 -65.22999999999999  47.625 -77.47999999999999  52.875 -82.85499999999999  60.0 -75.72999999999999  77.75 -93.47999999999999  83.0 -88.22999999999999  60.0 -65.22999999999999 Z M21.25 22.27000000000001 Q19.625 22.27000000000001 18.565 21.210000000000008 Q17.5 20.14500000000001 17.5 18.52000000000001 V-19.85499999999999 L27.75 -48.97999999999999 Q28.25 -50.72999999999999 29.75 -51.72999999999999 Q31.25 -52.72999999999999 33.125 -52.72999999999999 H87.125 Q88.875 -52.72999999999999 90.31 -51.66999999999999 Q91.75 -50.60499999999999 92.25 -48.97999999999999 L102.5 -19.85499999999999 V18.52000000000001 Q102.5 20.14500000000001 101.44 21.210000000000008 Q100.375 22.27000000000001 98.75 22.27000000000001 H95.625 Q94.125 22.27000000000001 93.0 21.210000000000008 Q91.875 20.14500000000001 91.875 18.52000000000001 V12.27000000000001 H28.125 V18.52000000000001 Q28.125 20.14500000000001 27.0 21.210000000000008 Q25.875 22.27000000000001 24.375 22.27000000000001 H21.25 Z M28.0 -27.35499999999999 H92.0 L85.625 -45.22999999999999 H34.375 L28.0 -27.35499999999999 Z M37.375 -0.9799999999999898 Q40.0 -0.9799999999999898 41.935 -2.9199999999999875 Q43.875 -4.85499999999999 43.875 -7.60499999999999 Q43.875 -10.22999999999999 41.935 -12.164999999999992 Q40.0 -14.10499999999999 37.25 -14.10499999999999 Q34.625 -14.10499999999999 32.69 -12.164999999999992 Q30.75 -10.22999999999999 30.75 -7.47999999999999 Q30.75 -4.85499999999999 32.69 -2.9199999999999875 Q34.625 -0.9799999999999898 37.375 -0.9799999999999898 Z M82.75 -0.9799999999999898 Q85.375 -0.9799999999999898 87.31 -2.9199999999999875 Q89.25 -4.85499999999999 89.25 -7.60499999999999 Q89.25 -10.22999999999999 87.31 -12.164999999999992 Q85.375 -14.10499999999999 82.625 -14.10499999999999 Q80.0 -14.10499999999999 78.065 -12.164999999999992 Q76.125 -10.22999999999999 76.125 -7.47999999999999 Q76.125 -4.85499999999999 78.065 -2.9199999999999875 Q80.0 -0.9799999999999898 82.75 -0.9799999999999898 Z M25.0 4.77000000000001 H95.0 V-19.85499999999999 H25.0 V4.77000000000001 Z"/></g><g id="Thin-M" transform="matrix(1 0 0 1 802.565 1126)"><path d="M60.0 -66.97999999999999  49.375 -77.47999999999999  52.875 -81.10499999999999  60.0 -73.97999999999999  77.75 -91.72999999999999  81.25 -88.22999999999999  60.0 -66.97999999999999 Z M22.5 19.77000000000001 Q21.375 19.77000000000001 20.689999999999998 19.085000000000008 Q20.0 18.39500000000001 20.0 17.27000000000001 V-19.47999999999999 L29.875 -47.72999999999999 Q30.25 -48.97999999999999 31.314999999999998 -49.60499999999999 Q32.375 -50.22999999999999 33.625 -50.22999999999999 H86.75 Q87.875 -50.22999999999999 88.81 -49.54499999999999 Q89.75 -48.85499999999999 90.125 -47.72999999999999 L100.0 -19.47999999999999 V17.27000000000001 Q100.0 18.39500000000001 99.315 19.085000000000008 Q98.625 19.77000000000001 97.5 19.77000000000001 H96.375 Q95.25 19.77000000000001 94.565 19.085000000000008 Q93.875 18.39500000000001 93.875 17.27000000000001 V9.77000000000001 H26.125 V17.27000000000001 Q26.125 18.39500000000001 25.44 19.085000000000008 Q24.75 19.77000000000001 23.625 19.77000000000001 H22.5 Z M27.125 -24.47999999999999 H92.875 L85.5 -45.22999999999999 H34.5 L27.125 -24.47999999999999 Z M37.125 -1.7299999999999898 Q39.5 -1.7299999999999898 41.125 -3.3549999999999898 Q42.75 -4.97999999999999 42.75 -7.35499999999999 Q42.75 -9.72999999999999 41.065 -11.35499999999999 Q39.375 -12.97999999999999 37.125 -12.97999999999999 Q34.75 -12.97999999999999 33.125 -11.289999999999992 Q31.5 -9.60499999999999 31.5 -7.35499999999999 Q31.5 -4.97999999999999 33.125 -3.3549999999999898 Q34.75 -1.7299999999999898 37.125 -1.7299999999999898 Z M82.875 -1.7299999999999898 Q85.25 -1.7299999999999898 86.875 -3.3549999999999898 Q88.5 -4.97999999999999 88.5 -7.35499999999999 Q88.5 -9.72999999999999 86.875 -11.35499999999999 Q85.25 -12.97999999999999 82.875 -12.97999999999999 Q80.5 -12.97999999999999 78.875 -11.289999999999992 Q77.25 -9.60499999999999 77.25 -7.35499999999999 Q77.25 -4.97999999999999 78.94 -3.3549999999999898 Q80.625 -1.7299999999999898 82.875 -1.7299999999999898 Z M25.0 4.77000000000001 H95.0 V-19.47999999999999 H25.0 V4.77000000000001 Z"/></g><g id="Ultralight-M" transform="matrix(1 0 0 1 506.415 1126)"><path d="M60.0 -68.10499999999999  50.5 -77.47999999999999  52.875 -79.97999999999999  60.0 -72.85499999999999  77.75 -90.60499999999999  80.125 -88.22999999999999  60.0 -68.10499999999999 Z M23.25 18.27000000000001 Q22.5 18.27000000000001 22.0 17.77000000000001 Q21.5 17.27000000000001 21.5 16.52000000000001 V-19.22999999999999 L31.25 -46.97999999999999 Q31.5 -47.85499999999999 32.25 -48.29499999999999 Q33.0 -48.72999999999999 34.0 -48.72999999999999 H86.5 Q87.25 -48.72999999999999 87.875 -48.22999999999999 Q88.5 -47.72999999999999 88.75 -46.97999999999999 L98.5 -19.22999999999999 V16.52000000000001 Q98.5 17.27000000000001 98.0 17.77000000000001 Q97.5 18.27000000000001 96.75 18.27000000000001 Q96.0 18.27000000000001 95.5 17.77000000000001 Q95.0 17.27000000000001 95.0 16.52000000000001 V8.27000000000001 H25.0 V16.52000000000001 Q25.0 17.27000000000001 24.5 17.77000000000001 Q24.0 18.27000000000001 23.25 18.27000000000001 Z M26.5 -22.72999999999999 H93.5 L85.5 -45.22999999999999 H34.5 L26.5 -22.72999999999999 Z M37.0 -2.2299999999999898 Q39.125 -2.2299999999999898 40.565 -3.6699999999999875 Q42.0 -5.10499999999999 42.0 -7.22999999999999 Q42.0 -9.35499999999999 40.565 -10.789999999999978 Q39.125 -12.22999999999999 37.0 -12.22999999999999 Q34.875 -12.22999999999999 33.44 -10.789999999999978 Q32.0 -9.35499999999999 32.0 -7.22999999999999 Q32.0 -5.10499999999999 33.44 -3.6699999999999875 Q34.875 -2.2299999999999898 37.0 -2.2299999999999898 Z M83.0 -2.2299999999999898 Q85.125 -2.2299999999999898 86.56 -3.6699999999999875 Q88.0 -5.10499999999999 88.0 -7.22999999999999 Q88.0 -9.35499999999999 86.56 -10.789999999999978 Q85.125 -12.22999999999999 83.0 -12.22999999999999 Q80.875 -12.22999999999999 79.44 -10.789999999999978 Q78.0 -9.35499999999999 78.0 -7.22999999999999 Q78.0 -5.10499999999999 79.44 -3.6699999999999875 Q80.875 -2.2299999999999898 83.0 -2.2299999999999898 Z M25.0 4.77000000000001 H95.0 V-19.22999999999999 H25.0 V4.77000000000001 Z"/></g><g id="Bold-S" transform="matrix(1 0 0 1 2294.23 696)"><path d="M44.480664000000004 -53.872491999999994  31.36275 -66.985672  39.547836 -75.27017199999999  44.480664000000004 -70.24266399999999  53.158086 -78.920086  61.442586 -70.73499999999999  44.480664000000004 -53.872491999999994 Z M16.569 12.801164000000014 Q14.301414 12.801164000000014 12.573504 11.073254000000006 Q10.850328 9.35007800000001 10.850328 7.082492000000002 V-24.284991999999995 L18.737172 -44.00683599999999 Q19.825992 -47.164413999999994 22.533839999999998 -48.93966399999999 Q25.246422 -50.71491399999999 28.503414 -50.71491399999999 H66.176586 Q69.433578 -50.71491399999999 72.14616 -48.93966399999999 Q74.854008 -47.164413999999994 75.942828 -44.00683599999999 L83.82967199999999 -24.284991999999995 V7.082492000000002 Q83.82967199999999 9.35007800000001 82.106496 11.073254000000006 Q80.378586 12.801164000000014 78.111 12.801164000000014 H76.435164 Q74.167578 12.801164000000014 72.439668 11.220008000000007 Q70.716492 9.643585999999999 70.716492 7.376000000000005 V5.700164000000015 H23.963508 V7.376000000000005 Q23.963508 9.643585999999999 22.240332000000002 11.220008000000007 Q20.512422 12.801164000000014 18.244836 12.801164000000014 H16.569 Z M25.147008 -28.422507999999993 H69.53299200000001 L65.291328 -39.07400799999999 H29.388672 L25.147008 -28.422507999999993 Z M31.36275 -8.899491999999995 Q33.336828 -8.899491999999995 34.714422 -10.277085999999983 Q36.09675 -11.659413999999998 36.09675 -13.63349199999999 Q36.09675 -15.602835999999996 34.714422 -16.985163999999997 Q33.336828 -18.367492 31.36275 -18.367492 Q29.388672 -18.367492 28.011077999999998 -16.985163999999997 Q26.62875 -15.602835999999996 26.62875 -13.63349199999999 Q26.62875 -11.659413999999998 28.011077999999998 -10.277085999999983 Q29.388672 -8.899491999999995 31.36275 -8.899491999999995 Z M63.31725 -8.899491999999995 Q65.291328 -8.899491999999995 66.668922 -10.277085999999983 Q68.05125 -11.659413999999998 68.05125 -13.63349199999999 Q68.05125 -15.602835999999996 66.668922 -16.985163999999997 Q65.291328 -18.367492 63.31725 -18.367492 Q61.343172 -18.367492 59.965578 -16.985163999999997 Q58.58325 -15.602835999999996 58.58325 -13.63349199999999 Q58.58325 -11.659413999999998 59.965578 -10.277085999999983 Q61.343172 -8.899491999999995 63.31725 -8.899491999999995 Z M22.4865 -5.936008000000001 H72.1935 V-21.321507999999987 H22.4865 V-5.936008000000001 Z"/></g><g id="Semibold-S" transform="matrix(1 0 0 1 1998.1 696)"><path d="M44.480664000000004 -53.77307799999999  32.645664 -65.60807799999999  39.547836 -72.41083599999999  44.480664000000004 -67.38332799999999  54.441 -77.443078  61.343172 -70.63558599999999  44.480664000000004 -53.77307799999999 Z M16.569 11.518250000000009 Q14.79375 11.518250000000009 13.56291 10.235336000000004 Q12.327336 8.952421999999999 12.327336 7.177171999999999 V-23.88733599999999 L20.1195 -43.41508599999999 Q21.009491999999998 -46.080327999999994 23.324417999999998 -47.60941 Q25.644078 -49.13849199999999 28.503414 -49.13849199999999 H66.176586 Q69.035922 -49.13849199999999 71.355582 -47.60941 Q73.670508 -46.080327999999994 74.5605 -43.41508599999999 L82.352664 -23.88733599999999 V7.177171999999999 Q82.352664 8.952421999999999 81.11709 10.235336000000004 Q79.88625 11.518250000000009 78.111 11.518250000000009 H75.15225 Q73.377 11.518250000000009 72.09408599999999 10.33475 Q70.811172 9.151250000000005 70.811172 7.376000000000005 V4.41725000000001 H23.868828 V7.376000000000005 Q23.868828 9.151250000000005 22.585914 10.33475 Q21.303 11.518250000000009 19.52775 11.518250000000009 H16.569 Z M24.559991999999998 -28.32782799999999 H70.120008 L65.68425 -39.471664 H28.99575 L24.559991999999998 -28.32782799999999 Z M31.064508 -8.501835999999983 Q33.038586 -8.501835999999983 34.420913999999996 -9.884163999999998 Q35.798508 -11.266492 35.798508 -13.235835999999992 Q35.798508 -15.209913999999998 34.420913999999996 -16.587507999999985 Q33.038586 -17.969835999999987 31.064508 -17.969835999999987 Q29.095164 -17.969835999999987 27.712836 -16.587507999999985 Q26.330508000000002 -15.209913999999998 26.330508000000002 -13.235835999999992 Q26.330508000000002 -11.266492 27.712836 -9.884163999999998 Q29.095164 -8.501835999999983 31.064508 -8.501835999999983 Z M63.615492 -8.501835999999983 Q65.584836 -8.501835999999983 66.967164 -9.884163999999998 Q68.349492 -11.266492 68.349492 -13.235835999999992 Q68.349492 -15.209913999999998 66.967164 -16.587507999999985 Q65.584836 -17.969835999999987 63.615492 -17.969835999999987 Q61.641414000000005 -17.969835999999987 60.259085999999996 -16.587507999999985 Q58.881492 -15.209913999999998 58.881492 -13.235835999999992 Q58.881492 -11.266492 60.259085999999996 -9.884163999999998 Q61.641414000000005 -8.501835999999983 63.615492 -8.501835999999983 Z M21.994163999999998 -5.249578 H72.685836 V-21.22682799999999 H21.994163999999998 V-5.249578 Z"/></g><g id="Medium-S" transform="matrix(1 0 0 1 1701.85 696)"><path d="M44.480664000000004 -53.67366399999999  33.72975 -64.52399199999999  39.448422 -70.34207799999999  44.480664000000004 -65.30983599999999  55.525085999999995 -76.25957799999999  61.248492000000006 -70.536172  44.480664000000004 -53.67366399999999 Z M16.569 10.43416400000001 Q15.286086000000001 10.43416400000001 14.348754000000001 9.544172000000003 Q13.411422 8.65891400000001 13.411422 7.276586000000009 V-23.593827999999995 L21.104172000000002 -42.92274999999999 Q21.89475 -45.28974999999999 23.963508 -46.620003999999994 Q26.037 -47.95499199999999 28.503414 -47.95499199999999 H66.176586 Q68.643 -47.95499199999999 70.716492 -46.620003999999994 Q72.78525 -45.28974999999999 73.575828 -42.92274999999999 L81.268578 -23.593827999999995 V7.276586000000009 Q81.268578 8.65891400000001 80.33124600000001 9.544172000000003 Q79.39391400000001 10.43416400000001 78.111 10.43416400000001 H74.06816400000001 Q72.78525 10.43416400000001 71.84791799999999 9.544172000000003 Q70.910586 8.65891400000001 70.910586 7.376000000000005 V3.3331640000000107 H23.769414 V7.376000000000005 Q23.769414 8.65891400000001 22.832082000000003 9.544172000000003 Q21.89475 10.43416400000001 20.611836 10.43416400000001 H16.569 Z M24.062922 -28.228413999999994 H70.61707799999999 L65.98249200000001 -39.76517199999999 H28.697508000000003 L24.062922 -28.228413999999994 Z M30.870414 -8.208327999999995 Q32.844491999999995 -8.208327999999995 34.222086 -9.585921999999997 Q35.604414 -10.968249999999998 35.604414 -12.94232799999999 Q35.604414 -14.911671999999996 34.222086 -16.293999999999997 Q32.844491999999995 -17.676327999999998 30.870414 -17.676327999999998 Q28.896336 -17.676327999999998 27.514008 -16.293999999999997 Q26.136414 -14.911671999999996 26.136414 -12.94232799999999 Q26.136414 -10.968249999999998 27.514008 -9.585921999999997 Q28.896336 -8.208327999999995 30.870414 -8.208327999999995 Z M63.809585999999996 -8.208327999999995 Q65.783664 -8.208327999999995 67.165992 -9.585921999999997 Q68.54358599999999 -10.968249999999998 68.54358599999999 -12.94232799999999 Q68.54358599999999 -14.911671999999996 67.165992 -16.293999999999997 Q65.783664 -17.676327999999998 63.809585999999996 -17.676327999999998 Q61.835508 -17.676327999999998 60.457914 -16.293999999999997 Q59.075585999999994 -14.911671999999996 59.075585999999994 -12.94232799999999 Q59.075585999999994 -10.968249999999998 60.457914 -9.585921999999997 Q61.835508 -8.208327999999995 63.809585999999996 -8.208327999999995 Z M21.596508 -4.851921999999988 H73.083492 V-21.127413999999995 H21.596508 V-4.851921999999988 Z"/></g><g id="Regular-S" transform="matrix(1 0 0 1 1405.73 696)"><path d="M44.480664000000004 -53.67366399999999  34.420913999999996 -63.733413999999996  39.448422 -68.760922  44.480664000000004 -63.733413999999996  56.21625 -75.469  61.248492000000006 -70.441492  44.480664000000004 -53.67366399999999 Z M16.569 9.74300000000001 Q15.584328 9.74300000000001 14.893163999999999 9.051836000000009 Q14.202 8.360671999999994 14.202 7.376000000000005 V-23.394999999999996 L21.89475 -42.62450799999999 Q22.585914 -44.69799999999999 24.408503999999997 -45.881499999999996 Q26.235827999999998 -47.06499999999999 28.503414 -47.06499999999999 H66.176586 Q68.444172 -47.06499999999999 70.271496 -45.881499999999996 Q72.09408599999999 -44.69799999999999 72.78525 -42.62450799999999 L80.478 -23.394999999999996 V7.376000000000005 Q80.478 8.360671999999994 79.786836 9.051836000000009 Q79.095672 9.74300000000001 78.111 9.74300000000001 H73.377 Q72.39232799999999 9.74300000000001 71.701164 9.051836000000009 Q71.01 8.360671999999994 71.01 7.376000000000005 V2.64200000000001 H23.67 V7.376000000000005 Q23.67 8.360671999999994 22.978836 9.051836000000009 Q22.287672 9.74300000000001 21.303 9.74300000000001 H16.569 Z M23.769414 -28.12899999999999 H70.910586 L66.176586 -39.96399999999999 H28.503414 L23.769414 -28.12899999999999 Z M30.771 -8.009499999999989 Q32.745078 -8.009499999999989 34.122672 -9.39182799999999 Q35.505 -10.769421999999992 35.505 -12.743499999999997 Q35.505 -14.717577999999989 34.122672 -16.09517199999999 Q32.745078 -17.477499999999992 30.771 -17.477499999999992 Q28.796922000000002 -17.477499999999992 27.419328 -16.09517199999999 Q26.037 -14.717577999999989 26.037 -12.743499999999997 Q26.037 -10.769421999999992 27.419328 -9.39182799999999 Q28.796922000000002 -8.009499999999989 30.771 -8.009499999999989 Z M63.909 -8.009499999999989 Q65.883078 -8.009499999999989 67.260672 -9.39182799999999 Q68.643 -10.769421999999992 68.643 -12.743499999999997 Q68.643 -14.717577999999989 67.260672 -16.09517199999999 Q65.883078 -17.477499999999992 63.909 -17.477499999999992 Q61.934922 -17.477499999999992 60.557328 -16.09517199999999 Q59.175 -14.717577999999989 59.175 -12.743499999999997 Q59.175 -10.769421999999992 60.557328 -9.39182799999999 Q61.934922 -8.009499999999989 63.909 -8.009499999999989 Z M21.303 -4.458999999999989 H73.377 V-21.02799999999999 H21.303 V-4.458999999999989 Z"/></g><g id="Light-S" transform="matrix(1 0 0 1 1109.75 696)"><path d="M44.480664000000004 -55.05599199999999  35.798508 -63.733413999999996  39.448422 -67.38332799999999  44.480664000000004 -62.351085999999995  56.21625 -74.086672  59.866164000000005 -70.441492  44.480664000000004 -55.05599199999999 Z M17.553672000000002 7.768922000000003 Q16.961922 7.768922000000003 16.569 7.376000000000005 Q16.176078 6.98307800000002 16.176078 6.391328000000016 V-23.101491999999993 L23.67 -41.63983599999999 Q24.162336 -43.31567199999999 25.644078 -44.205664 Q27.121086000000002 -45.09092199999999 28.99575 -45.09092199999999 H65.883078 Q67.658328 -45.09092199999999 69.087996 -44.153589999999994 Q70.51766400000001 -43.220991999999995 71.01 -41.63983599999999 L78.50392199999999 -23.101491999999993 V6.391328000000016 Q78.50392199999999 6.98307800000002 78.111 7.376000000000005 Q77.718078 7.768922000000003 77.126328 7.768922000000003 H73.86933599999999 Q73.277586 7.768922000000003 72.884664 7.376000000000005 Q72.487008 6.98307800000002 72.487008 6.391328000000016 V0.6679220000000043 H22.192992 V6.391328000000016 Q22.192992 6.98307800000002 21.795336 7.376000000000005 Q21.402414 7.768922000000003 20.810664 7.768922000000003 H17.553672000000002 Z M22.978836 -25.861413999999996 H71.701164 L66.077172 -39.96399999999999 H28.602828 L22.978836 -25.861413999999996 Z M30.671586 -8.601249999999993 Q32.248008 -8.601249999999993 33.431508 -9.784749999999988 Q34.615008 -10.968249999999998 34.615008 -12.644085999999987 Q34.615008 -14.220507999999995 33.431508 -15.40400799999999 Q32.248008 -16.587507999999985 30.572172000000002 -16.587507999999985 Q28.99575 -16.587507999999985 27.81225 -15.40400799999999 Q26.62875 -14.220507999999995 26.62875 -12.544671999999991 Q26.62875 -10.968249999999998 27.81225 -9.784749999999988 Q28.99575 -8.601249999999993 30.671586 -8.601249999999993 Z M64.107828 -8.601249999999993 Q65.68425 -8.601249999999993 66.86775 -9.784749999999988 Q68.05125 -10.968249999999998 68.05125 -12.644085999999987 Q68.05125 -14.220507999999995 66.86775 -15.40400799999999 Q65.68425 -16.587507999999985 64.008414 -16.587507999999985 Q62.431992 -16.587507999999985 61.248492000000006 -15.40400799999999 Q60.064992000000004 -14.220507999999995 60.064992000000004 -12.544671999999991 Q60.064992000000004 -10.968249999999998 61.248492000000006 -9.784749999999988 Q62.431992 -8.601249999999993 64.107828 -8.601249999999993 Z M21.303 -4.458999999999989 H73.377 V-20.734491999999996 H21.303 V-4.458999999999989 Z"/></g><g id="Thin-S" transform="matrix(1 0 0 1 814.015 696)"><path d="M44.480664000000004 -56.43358599999999  37.180836 -63.733413999999996  39.448422 -66.00099999999999  44.480664000000004 -60.97349199999999  56.21625 -72.70907799999999  58.483836 -70.441492  44.480664000000004 -56.43358599999999 Z M18.543077999999998 5.799578000000011 Q18.34425 5.799578000000011 18.244836 5.700164000000015 Q18.145422 5.600750000000005 18.145422 5.401921999999999 V-22.80324999999999 L25.345836000000002 -40.655164 Q25.743492 -41.93807799999999 26.874917999999997 -42.529827999999995 Q28.011077999999998 -43.12157799999999 29.388672 -43.12157799999999 H65.584836 Q66.86775 -43.12157799999999 67.904496 -42.477754 Q68.936508 -41.838663999999994 69.334164 -40.655164 L76.53457800000001 -22.80324999999999 V5.401921999999999 Q76.53457800000001 5.600750000000005 76.435164 5.700164000000015 Q76.33575 5.799578000000011 76.136922 5.799578000000011 H74.461086 Q74.266992 5.799578000000011 74.167578 5.700164000000015 Q74.06816400000001 5.600750000000005 74.06816400000001 5.401921999999999 V-1.301421999999988 H20.611836 V5.401921999999999 Q20.611836 5.600750000000005 20.512422 5.700164000000015 Q20.413008 5.799578000000011 20.218913999999998 5.799578000000011 H18.543077999999998 Z M22.287672 -23.593827999999995 H72.39232799999999 L65.98249200000001 -39.96399999999999 H28.697508000000003 L22.287672 -23.593827999999995 Z M30.477491999999998 -9.192999999999998 Q31.855086 -9.192999999999998 32.792418 -10.130331999999996 Q33.72975 -11.067663999999994 33.72975 -12.449991999999995 Q33.72975 -13.827585999999997 32.745078 -14.764917999999994 Q31.755672 -15.702249999999992 30.477491999999998 -15.702249999999992 Q29.095164 -15.702249999999992 28.157832000000003 -14.717577999999989 Q27.2205 -13.728172 27.2205 -12.449991999999995 Q27.2205 -11.067663999999994 28.157832000000003 -10.130331999999996 Q29.095164 -9.192999999999998 30.477491999999998 -9.192999999999998 Z M64.202508 -9.192999999999998 Q65.584836 -9.192999999999998 66.522168 -10.130331999999996 Q67.4595 -11.067663999999994 67.4595 -12.449991999999995 Q67.4595 -13.827585999999997 66.522168 -14.764917999999994 Q65.584836 -15.702249999999992 64.202508 -15.702249999999992 Q62.82491400000001 -15.702249999999992 61.887582 -14.717577999999989 Q60.95025 -13.728172 60.95025 -12.449991999999995 Q60.95025 -11.067663999999994 61.934922 -10.130331999999996 Q62.924327999999996 -9.192999999999998 64.202508 -9.192999999999998 Z M21.303 -4.458999999999989 H73.377 V-20.436249999999994 H21.303 V-4.458999999999989 Z"/></g><g id="Ultralight-S" transform="matrix(1 0 0 1 517.792 696)"><path d="M44.480664000000004 -57.323578  38.070828 -63.733413999999996  39.448422 -65.111008  44.480664000000004 -60.083499999999994  56.21625 -71.819086  57.598577999999996 -70.441492  44.480664000000004 -57.323578 Z M19.134828 4.616078000000016 Q19.229508000000003 4.616078000000016 19.281582 4.663418000000007 Q19.328922000000002 4.715491999999998 19.328922000000002 4.810171999999994 V-22.604421999999992 L26.429922 -40.063413999999995 Q26.728164 -41.04808599999999 27.665496 -41.493081999999994 Q28.602828 -41.93807799999999 29.686913999999998 -41.93807799999999 H65.386008 Q66.375414 -41.93807799999999 67.165992 -41.44100799999999 Q67.951836 -40.948671999999995 68.250078 -40.063413999999995 L75.351078 -22.604421999999992 V4.810171999999994 Q75.351078 4.715491999999998 75.39841799999999 4.663418000000007 Q75.450492 4.616078000000016 75.545172 4.616078000000016 H74.759328 Q74.854008 4.616078000000016 74.906082 4.663418000000007 Q74.953422 4.715491999999998 74.953422 4.810171999999994 V-2.484921999999983 H19.726578 V4.810171999999994 Q19.726578 4.715491999999998 19.773918 4.663418000000007 Q19.825992 4.616078000000016 19.920672 4.616078000000016 H19.134828 Z M21.795336 -22.211499999999994 H72.884664 L65.98249200000001 -39.96399999999999 H28.697508000000003 L21.795336 -22.211499999999994 Z M30.378078 -9.585921999999997 Q31.561578 -9.585921999999997 32.347422 -10.376499999999993 Q33.138 -11.16707799999999 33.138 -12.350577999999999 Q33.138 -13.534077999999994 32.347422 -14.319921999999991 Q31.561578 -15.110499999999988 30.378078 -15.110499999999988 Q29.194578 -15.110499999999988 28.404 -14.319921999999991 Q27.613422 -13.534077999999994 27.613422 -12.350577999999999 Q27.613422 -11.16707799999999 28.404 -10.376499999999993 Q29.194578 -9.585921999999997 30.378078 -9.585921999999997 Z M64.301922 -9.585921999999997 Q65.485422 -9.585921999999997 66.276 -10.376499999999993 Q67.06657799999999 -11.16707799999999 67.06657799999999 -12.350577999999999 Q67.06657799999999 -13.534077999999994 66.276 -14.319921999999991 Q65.485422 -15.110499999999988 64.301922 -15.110499999999988 Q63.118422 -15.110499999999988 62.332578 -14.319921999999991 Q61.542 -13.534077999999994 61.542 -12.350577999999999 Q61.542 -11.16707799999999 62.332578 -10.376499999999993 Q63.118422 -9.585921999999997 64.301922 -9.585921999999997 Z M21.303 -4.458999999999989 H73.377 V-20.237421999999995 H21.303 V-4.458999999999989 Z"/></g></g></svg>