<svg xmlns="http://www.w3.org/2000/svg" version="1.1" width="3300" height="2000"><g id="Notes"><style>
    text {
      font-family: monospace;
      text-anchor: middle;
    }
    text.emphasis {
      font-weight:bold;
    }
    text.lanchor {
      text-anchor: start;
    }
  </style><rect height="2200" id="artboard" fill="white" width="3300" x="0" y="0"/><line id="" style="fill:none;stroke:black;stroke-width:0.5;" x1="263" x2="3036" y1="292" y2="292"/><text class="lanchor emphasis" transform="matrix(1 0 0 1 263 322)">Weight/Scale Variations</text><text transform="matrix(1 0 0 1 559.711 322)">Ultralight</text><text transform="matrix(1 0 0 1 856.422 322)">Thin</text><text transform="matrix(1 0 0 1 1153.13 322)">Light</text><text transform="matrix(1 0 0 1 1449.84 322)">Regular</text><text transform="matrix(1 0 0 1 1746.56 322)">Medium</text><text transform="matrix(1 0 0 1 2043.27 322)">Semibold</text><text transform="matrix(1 0 0 1 2339.98 322)">Bold</text><text transform="matrix(1 0 0 1 2636.69 322)">Heavy</text><text transform="matrix(1 0 0 1 2933.4 322)">Black</text><text id="template-version" style="text-anchor: end;" transform="matrix(1 0 0 1 3036 1933)">Template v.1.0</text><text class="lanchor" transform="matrix(1 0 0 1 263 726)">Small</text><text class="lanchor" transform="matrix(1 0 0 1 263 1156)">Medium</text><text class="lanchor" transform="matrix(1 0 0 1 263 1586)">Large</text></g><g id="Guides"><g id="H-reference" style="fill:#27AAE1;stroke:none;" transform="matrix(1 0 0 1 339 696)"><path d="M 54.9316 0 L 57.666 0 L 30.5664 -70.459 L 28.0762 -70.459 L 0.976562 0 L 3.66211 0 L 12.9395 -24.4629 L 45.7031 -24.4629 Z M 29.1992 -67.0898 L 29.4434 -67.0898 L 44.8242 -26.709 L 13.8184 -26.709 Z"/></g><line id="Baseline-S" style="fill:none;stroke:#27AAE1;opacity:1;stroke-width:0.577;" x1="263" x2="3036" y1="696" y2="696"/><line id="Capline-S" style="fill:none;stroke:#27AAE1;opacity:1;stroke-width:0.577;" x1="263" x2="3036" y1="625.541" y2="625.541"/><g id="H-reference" style="fill:#27AAE1;stroke:none;" transform="matrix(1 0 0 1 339 1126)"><path d="M 54.9316 0 L 57.666 0 L 30.5664 -70.459 L 28.0762 -70.459 L 0.976562 0 L 3.66211 0 L 12.9395 -24.4629 L 45.7031 -24.4629 Z M 29.1992 -67.0898 L 29.4434 -67.0898 L 44.8242 -26.709 L 13.8184 -26.709 Z"/></g><line id="Baseline-M" style="fill:none;stroke:#27AAE1;opacity:1;stroke-width:0.577;" x1="263" x2="3036" y1="1126" y2="1126"/><line id="Capline-M" style="fill:none;stroke:#27AAE1;opacity:1;stroke-width:0.577;" x1="263" x2="3036" y1="1055.54" y2="1055.54"/><g id="H-reference" style="fill:#27AAE1;stroke:none;" transform="matrix(1 0 0 1 339 1556)"><path d="M 54.9316 0 L 57.666 0 L 30.5664 -70.459 L 28.0762 -70.459 L 0.976562 0 L 3.66211 0 L 12.9395 -24.4629 L 45.7031 -24.4629 Z M 29.1992 -67.0898 L 29.4434 -67.0898 L 44.8242 -26.709 L 13.8184 -26.709 Z"/></g><line id="Baseline-L" style="fill:none;stroke:#27AAE1;opacity:1;stroke-width:0.577;" x1="263" x2="3036" y1="1556" y2="1556"/><line id="Capline-L" style="fill:none;stroke:#27AAE1;opacity:1;stroke-width:0.577;" x1="263" x2="3036" y1="1485.54" y2="1485.54"/><rect height="119.336" id="left-margin" style="fill:darkred;stroke:none;opacity:0.4;" width="12.4512" x="1394.06" y="1030.79"/><rect height="119.336" id="right-margin" style="fill:darkgreen;stroke:none;opacity:0.4;" width="12.4512" x="1502.5112" y="1030.79"/><rect x="1406.5112" y="1045" width="96" height="96" fill="none" stroke="blue" stroke-dasharray="5"/><rect x="1394.06" y="1030.79" width="120.9024" height="119.336" fill="none" stroke="blue"/></g><g id="Symbols"><g id="Bold-L" transform="matrix(1 0 0 1 2266 1556)"><path d="M59.339999999999996 -16.2025 Q56.59875 -16.2025 54.744375000000005 -18.05687499999999 Q52.88999999999999 -19.911249999999995 52.88999999999999 -22.652500000000003 V-51.83874999999999 Q42.2475 -52.3225 34.749375 -59.4175 Q27.25125 -66.51249999999999 27.25125 -76.99374999999999 Q27.25125 -87.7975 34.66875 -95.295625 Q42.08625000000001 -102.79374999999999 52.88999999999999 -102.79374999999999 H94.4925 Q97.0725 -102.79374999999999 99.00750000000001 -100.85875 Q100.94250000000001 -98.92375 100.94250000000001 -96.34375 Q100.94250000000001 -93.60249999999999 99.00750000000001 -91.74812499999999 Q97.0725 -89.89375 94.4925 -89.89375 H86.59125 V-22.652500000000003 Q86.59125 -19.911249999999995 84.65625 -18.05687499999999 Q82.72125 -16.2025 79.98 -16.2025 Q77.23875 -16.2025 75.384375 -18.05687499999999 Q73.53 -19.911249999999995 73.53 -22.652500000000003 V-89.89375 H65.78999999999999 V-22.652500000000003 Q65.78999999999999 -19.911249999999995 63.855000000000004 -18.05687499999999 Q61.92 -16.2025 59.339999999999996 -16.2025 Z M105.94125000000001 28.30250000000001 Q104.00625000000001 26.528750000000002 104.00625000000001 23.948750000000018 Q104.00625000000001 21.368750000000006 105.94125000000001 19.433750000000003 L113.35875 11.855000000000018 H25.31625 Q22.575 11.855000000000018 20.64 10.000625 Q18.705 8.146250000000023 18.705 5.405000000000015 Q18.705 2.825000000000003 20.64 0.8900000000000148 Q22.575 -1.0449999999999875 25.31625 -1.0449999999999875 H113.35875 L105.94125000000001 -8.623749999999987 Q104.00625000000001 -10.558750000000003 104.00625000000001 -13.05812499999999 Q104.00625000000001 -15.55749999999999 105.94125000000001 -17.653749999999988 Q107.87625000000001 -19.58874999999999 110.45625 -19.58874999999999 Q113.03625 -19.58874999999999 114.97125 -17.814999999999998 L132.87 0.24500000000000455 Q133.8375 1.2124999999999915 134.48250000000002 2.5831250000000097 Q135.1275 3.9537499999999994 135.1275 5.405000000000015 Q135.1275 6.856250000000003 134.48250000000002 8.226875000000007 Q133.8375 9.597499999999997 132.87 10.565000000000012 L114.97125 28.30250000000001 Q113.03625 30.398750000000007 110.45625 30.398750000000007 Q107.87625000000001 30.398750000000007 105.94125000000001 28.30250000000001 Z M52.88999999999999 -64.41624999999999 V-89.89375 Q47.085 -89.89375 43.618125 -86.58812499999999 Q40.15125 -83.2825 40.15125 -77.155 Q40.15125 -71.0275 43.618125 -67.72187499999998 Q47.085 -64.41624999999999 52.88999999999999 -64.41624999999999 Z"/></g><g id="Semibold-L" transform="matrix(1 0 0 1 1970.27 1556)"><path d="M63.048750000000005 -16.2025 Q60.791250000000005 -16.2025 59.098124999999996 -17.814999999999998 Q57.405 -19.427499999999995 57.405 -21.846249999999998 V-51.677499999999995 Q46.7625 -51.83874999999999 39.264375 -58.85312499999999 Q31.76625 -65.86749999999999 31.76625 -76.1875 Q31.76625 -86.66874999999999 39.0225 -93.925 Q46.27875 -101.18124999999999 56.59875 -101.18124999999999 H97.395 Q99.81375 -101.18124999999999 101.42625 -99.488125 Q103.03875000000001 -97.795 103.03875000000001 -95.5375 Q103.03875000000001 -93.11874999999999 101.42625 -91.50625 Q99.81375 -89.89375 97.395 -89.89375 H88.6875 V-21.846249999999998 Q88.6875 -19.427499999999995 86.994375 -17.814999999999998 Q85.30125 -16.2025 83.04375 -16.2025 Q80.625 -16.2025 78.931875 -17.814999999999998 Q77.23875 -19.427499999999995 77.23875 -21.846249999999998 V-89.89375 H68.69250000000001 V-21.846249999999998 Q68.69250000000001 -19.427499999999995 67.08 -17.814999999999998 Q65.4675 -16.2025 63.048750000000005 -16.2025 Z M106.90875 27.01249999999999 Q105.29625 25.400000000000006 105.29625 23.142500000000013 Q105.29625 20.88499999999999 106.90875 19.272500000000008 L114.97125 11.048750000000013 H24.993750000000002 Q22.575 11.048750000000013 20.881875 9.436250000000015 Q19.188750000000002 7.823750000000018 19.188750000000002 5.405000000000015 Q19.188750000000002 3.147500000000008 20.881875 1.454375000000013 Q22.575 -0.2387499999999818 24.993750000000002 -0.2387499999999818 H114.97125 L106.90875 -8.301249999999982 Q105.29625 -9.913749999999993 105.29625 -12.17125 Q105.29625 -14.428749999999994 106.90875 -16.2025 Q108.68250000000002 -17.976249999999993 110.94 -17.976249999999993 Q113.1975 -17.976249999999993 114.97125 -16.363749999999982 L132.225 1.0512500000000102 Q133.1925 2.018749999999997 133.67625 3.147500000000008 Q134.16 4.2762500000000045 134.16 5.405000000000015 Q134.16 6.695000000000007 133.67625 7.7431250000000205 Q133.1925 8.791250000000005 132.225 9.75875000000002 L114.97125 27.01249999999999 Q113.1975 28.786250000000024 110.94 28.786250000000024 Q108.68250000000002 28.786250000000024 106.90875 27.01249999999999 Z M57.405 -62.803749999999994 V-89.89375 Q51.11625 -89.89375 47.085 -86.34625 Q43.05375 -82.79875 43.05375 -76.34875 Q43.05375 -69.89874999999999 47.085 -66.35125 Q51.11625 -62.803749999999994 57.405 -62.803749999999994 Z"/></g><g id="Medium-L" transform="matrix(1 0 0 1 1674.31 1556)"><path d="M65.95125 -16.2025 Q63.855000000000004 -16.2025 62.323125 -17.653749999999988 Q60.791250000000005 -19.10499999999999 60.791250000000005 -21.362499999999997 V-51.51625 Q50.31 -51.677499999999995 42.73125 -58.530625 Q35.1525 -65.38374999999999 35.1525 -75.54249999999999 Q35.1525 -85.8625 42.2475 -92.9575 Q49.3425 -100.0525 59.50125 -100.0525 H99.6525 Q101.74875 -100.0525 103.280625 -98.520625 Q104.8125 -96.98875 104.8125 -94.8925 Q104.8125 -92.79624999999999 103.280625 -91.345 Q101.74875 -89.89375 99.6525 -89.89375 H90.3 V-21.362499999999997 Q90.3 -19.10499999999999 88.768125 -17.653749999999988 Q87.23625 -16.2025 85.30125 -16.2025 Q83.04375 -16.2025 81.5925 -17.653749999999988 Q80.14125000000001 -19.10499999999999 80.14125000000001 -21.362499999999997 V-89.89375 H70.95 V-21.362499999999997 Q70.95 -19.10499999999999 69.49875 -17.653749999999988 Q68.0475 -16.2025 65.95125 -16.2025 Z M107.87625000000001 26.045000000000016 Q106.26375000000002 24.59375 106.26375000000002 22.578125 Q106.26375000000002 20.5625 107.87625000000001 18.94999999999999 L116.26124999999999 10.565000000000012 H24.8325 Q22.73625 10.565000000000012 21.204375000000002 9.033125000000013 Q19.6725 7.501250000000013 19.6725 5.405000000000015 Q19.6725 3.3087500000000176 21.204375000000002 1.8575000000000017 Q22.73625 0.40625 24.8325 0.40625 H116.26124999999999 L107.87625000000001 -8.14 Q106.26375000000002 -9.591249999999988 106.26375000000002 -11.606874999999988 Q106.26375000000002 -13.622499999999988 107.87625000000001 -15.235 Q109.3275 -16.847499999999997 111.343125 -16.847499999999997 Q113.35875 -16.847499999999997 114.97125 -15.235 L131.9025 1.6962500000000205 Q132.70875 2.502500000000012 133.111875 3.470000000000013 Q133.515 4.4375 133.515 5.405000000000015 Q133.515 6.533750000000012 133.111875 7.420625000000015 Q132.70875 8.307500000000005 131.9025 9.11375000000001 L114.97125 26.045000000000016 Q113.35875 27.6575 111.343125 27.6575 Q109.3275 27.6575 107.87625000000001 26.045000000000016 Z M60.791250000000005 -61.67499999999999 V-89.89375 Q54.18000000000001 -89.89375 49.745625000000004 -86.185 Q45.31125 -82.47625 45.31125 -75.70375 Q45.31125 -68.93124999999999 49.745625000000004 -65.303125 Q54.18000000000001 -61.67499999999999 60.791250000000005 -61.67499999999999 Z"/></g><g id="Regular-L" transform="matrix(1 0 0 1 1378.56 1556)"><path d="M68.0475 -16.2025 Q66.1125 -16.2025 64.741875 -17.57312499999999 Q63.371249999999996 -18.943749999999994 63.371249999999996 -20.878749999999997 V-51.51625 Q52.88999999999999 -51.51625 45.31125 -58.288749999999986 Q37.7325 -65.06125 37.7325 -75.22 Q37.7325 -85.37875 44.66625 -92.231875 Q51.6 -99.085 61.597500000000004 -99.085 H101.42625 Q103.2 -99.085 104.57062499999999 -97.71437499999999 Q105.94125000000001 -96.34375 105.94125000000001 -94.40875 Q105.94125000000001 -92.47375 104.57062499999999 -91.18374999999999 Q103.2 -89.89375 101.42625 -89.89375 H91.59 V-20.878749999999997 Q91.59 -18.943749999999994 90.21937500000001 -17.57312499999999 Q88.84875000000001 -16.2025 86.91375 -16.2025 Q84.97875 -16.2025 83.608125 -17.57312499999999 Q82.2375 -18.943749999999994 82.2375 -20.878749999999997 V-89.89375 H72.72375000000001 V-20.878749999999997 Q72.72375000000001 -18.943749999999994 71.353125 -17.57312499999999 Q69.9825 -16.2025 68.0475 -16.2025 Z M108.52125 25.23875000000001 Q107.07000000000001 23.948750000000018 107.07000000000001 22.094375000000014 Q107.07000000000001 20.24000000000001 108.52125 18.78875000000002 L117.22875 10.081249999999997 H24.67125 Q22.73625 10.081249999999997 21.365625 8.710625000000007 Q19.995 7.340000000000018 19.995 5.405000000000015 Q19.995 3.470000000000013 21.365625 2.0993750000000233 Q22.73625 0.7287500000000051 24.67125 0.7287500000000051 H117.22875 L108.52125 -7.978749999999977 Q107.07000000000001 -9.429999999999993 107.07000000000001 -11.20375 Q107.07000000000001 -12.977499999999992 108.52125 -14.428749999999994 Q109.81124999999999 -15.879999999999995 111.665625 -15.879999999999995 Q113.52000000000001 -15.879999999999995 114.97125 -14.590000000000003 L131.57999999999998 2.180000000000007 Q132.38625 2.9862500000000125 132.70875 3.792500000000018 Q133.03125 4.59875000000001 133.03125 5.405000000000015 Q133.03125 6.372500000000002 132.70875 7.09812500000001 Q132.38625 7.823750000000018 131.57999999999998 8.63000000000001 L114.97125 25.23875000000001 Q113.52000000000001 26.690000000000026 111.665625 26.690000000000026 Q109.81124999999999 26.690000000000026 108.52125 25.23875000000001 Z M63.371249999999996 -60.70749999999999 V-89.89375 Q56.4375 -89.89375 51.761250000000004 -86.104375 Q47.085 -82.315 47.085 -75.38125 Q47.085 -68.44749999999999 51.761250000000004 -64.57749999999999 Q56.4375 -60.70749999999999 63.371249999999996 -60.70749999999999 Z"/></g><g id="Light-L" transform="matrix(1 0 0 1 1082.77 1556)"><path d="M69.015 -17.653749999999988 Q67.4025 -17.653749999999988 66.435 -18.701874999999987 Q65.4675 -19.749999999999986 65.4675 -21.362499999999997 V-52.161249999999995 H63.855000000000004 Q53.8575 -52.161249999999995 46.7625 -58.69187499999999 Q39.667500000000004 -65.2225 39.667500000000004 -74.8975 Q39.667500000000004 -84.41125 46.27875 -91.10312499999999 Q52.88999999999999 -97.795 62.565 -97.795 H100.62 Q102.07124999999999 -97.795 103.03875000000001 -96.74687499999999 Q104.00625000000001 -95.69874999999999 104.00625000000001 -94.2475 Q104.00625000000001 -92.63499999999999 103.03875000000001 -91.66749999999999 Q102.07124999999999 -90.69999999999999 100.62 -90.69999999999999 H89.97749999999999 V-21.362499999999997 Q89.97749999999999 -19.749999999999986 89.01 -18.701874999999987 Q88.0425 -17.653749999999988 86.59125 -17.653749999999988 Q84.97875 -17.653749999999988 84.01125 -18.701874999999987 Q83.04375 -19.749999999999986 83.04375 -21.362499999999997 V-90.69999999999999 H72.5625 V-21.362499999999997 Q72.5625 -19.749999999999986 71.514375 -18.701874999999987 Q70.46625 -17.653749999999988 69.015 -17.653749999999988 Z M109.005 24.110000000000014 Q107.87625000000001 22.98124999999999 107.87625000000001 21.610625 Q107.87625000000001 20.24000000000001 109.005 19.111250000000013 L119.64750000000001 8.46875 H25.31625 Q23.70375 8.46875 22.655625 7.420625000000015 Q21.6075 6.372500000000002 21.6075 4.921250000000015 Q21.6075 3.470000000000013 22.655625 2.421875 Q23.70375 1.3737500000000153 25.31625 1.3737500000000153 H119.64750000000001 L109.005 -9.268749999999997 Q108.03750000000001 -10.236249999999998 107.95687500000001 -11.687499999999986 Q107.87625000000001 -13.138749999999987 109.005 -14.267499999999998 Q109.97250000000001 -15.396249999999995 111.42375 -15.396249999999995 Q112.875 -15.396249999999995 114.00375000000001 -14.267499999999998 L129.9675 1.6962500000000205 Q130.6125 2.502500000000012 131.015625 3.3087500000000176 Q131.41875000000002 4.115000000000023 131.41875000000002 4.921250000000015 Q131.41875000000002 5.888750000000002 131.015625 6.61437500000001 Q130.6125 7.340000000000018 129.9675 8.146250000000023 L114.00375000000001 24.110000000000014 Q112.875 25.077500000000015 111.42375 25.158125000000013 Q109.97250000000001 25.23875000000001 109.005 24.110000000000014 Z M65.4675 -59.256249999999994 V-90.69999999999999 H63.855000000000004 Q56.760000000000005 -90.69999999999999 51.761250000000004 -86.34625 Q46.7625 -81.99249999999999 46.7625 -74.8975 Q46.7625 -67.8025 51.761250000000004 -63.529374999999995 Q56.760000000000005 -59.256249999999994 63.855000000000004 -59.256249999999994 H65.4675 Z"/></g><g id="Thin-L" transform="matrix(1 0 0 1 787.282 1556)"><path d="M69.9825 -19.10499999999999 Q68.85375 -19.10499999999999 68.128125 -19.830624999999998 Q67.4025 -20.55624999999999 67.4025 -21.685000000000002 V-52.80624999999999 H64.1775 Q54.825 -52.80624999999999 48.294375 -59.09499999999999 Q41.76375 -65.38374999999999 41.76375 -74.57499999999999 Q41.76375 -83.76625 48.0525 -90.05499999999999 Q54.34125000000001 -96.34375 63.5325 -96.34375 H99.81375 Q100.78125 -96.34375 101.50687500000001 -95.61812499999999 Q102.2325 -94.8925 102.2325 -93.925 Q102.2325 -92.79624999999999 101.50687500000001 -92.15125 Q100.78125 -91.50625 99.81375 -91.50625 H88.52625 V-21.685000000000002 Q88.52625 -20.55624999999999 87.80062500000001 -19.830624999999998 Q87.075 -19.10499999999999 86.26875 -19.10499999999999 Q85.14 -19.10499999999999 84.414375 -19.830624999999998 Q83.68875 -20.55624999999999 83.68875 -21.685000000000002 V-91.50625 H72.40125 V-21.685000000000002 Q72.40125 -20.55624999999999 71.67562500000001 -19.830624999999998 Q70.95 -19.10499999999999 69.9825 -19.10499999999999 Z M109.48875000000001 22.98124999999999 Q108.68250000000002 22.17500000000001 108.68250000000002 21.20750000000001 Q108.68250000000002 20.24000000000001 109.48875000000001 19.433750000000003 L122.06625000000001 6.856250000000003 H25.8 Q24.67125 6.856250000000003 24.02625 6.130625000000023 Q23.38125 5.405000000000015 23.38125 4.4375 Q23.38125 3.3087500000000176 24.02625 2.6637500000000074 Q24.67125 2.018749999999997 25.8 2.018749999999997 H122.06625000000001 L109.48875000000001 -10.558750000000003 Q108.84375 -11.20375 108.763125 -12.251874999999998 Q108.68250000000002 -13.299999999999997 109.48875000000001 -14.106249999999989 Q110.29500000000002 -14.751249999999985 111.2625 -14.751249999999985 Q112.22999999999999 -14.751249999999985 113.03625 -14.106249999999989 L128.355 1.2124999999999915 Q129.0 1.8575000000000017 129.40312500000002 2.744375000000005 Q129.80625 3.6312499999999943 129.80625 4.59875000000001 Q129.80625 5.405000000000015 129.40312500000002 6.130625000000023 Q129.0 6.856250000000003 128.355 7.501250000000013 L113.03625 22.82000000000002 Q112.39125000000001 23.465000000000003 111.343125 23.545625 Q110.29500000000002 23.62625 109.48875000000001 22.98124999999999 Z M67.4025 -57.80499999999999 V-91.50625 H64.1775 Q56.92124999999999 -91.50625 51.761250000000004 -86.66874999999999 Q46.60125 -81.83125 46.60125 -74.57499999999999 Q46.60125 -67.31875 51.761250000000004 -62.56187499999999 Q56.92124999999999 -57.80499999999999 64.1775 -57.80499999999999 H67.4025 Z"/></g><g id="Ultralight-L" transform="matrix(1 0 0 1 491.205 1556)"><path d="M70.46625 -20.07249999999999 Q69.66000000000001 -20.07249999999999 69.17625 -20.55624999999999 Q68.69250000000001 -21.039999999999992 68.69250000000001 -22.007499999999993 V-53.29 H64.5 Q55.47 -53.29 49.18125 -59.4175 Q42.892500000000005 -65.54499999999999 42.892500000000005 -74.41375 Q42.892500000000005 -83.2825 49.019999999999996 -89.41 Q55.14750000000001 -95.5375 64.01625 -95.5375 H99.49125000000001 Q100.13625 -95.5375 100.62 -94.973125 Q101.10375 -94.40875 101.10375 -93.76374999999999 Q101.10375 -92.9575 100.62 -92.47375 Q100.13625 -91.99 99.49125000000001 -91.99 H87.72 V-22.007499999999993 Q87.72 -21.039999999999992 87.155625 -20.55624999999999 Q86.59125 -20.07249999999999 85.94624999999999 -20.07249999999999 Q85.14 -20.07249999999999 84.65625 -20.55624999999999 Q84.17250000000001 -21.039999999999992 84.17250000000001 -22.007499999999993 V-91.99 H72.24 V-22.007499999999993 Q72.24 -21.039999999999992 71.67562500000001 -20.55624999999999 Q71.11125 -20.07249999999999 70.46625 -20.07249999999999 Z M109.81124999999999 22.17500000000001 Q109.3275 21.53 109.3275 20.80437500000002 Q109.3275 20.078750000000014 109.81124999999999 19.595 L123.5175 5.888750000000002 H26.28375 Q25.31625 5.888750000000002 24.8325 5.405000000000015 Q24.34875 4.921250000000015 24.34875 4.115000000000023 Q24.34875 3.3087500000000176 24.8325 2.825000000000003 Q25.31625 2.3412500000000023 26.28375 2.3412500000000023 H123.5175 L109.81124999999999 -11.364999999999995 Q109.48875000000001 -11.848749999999995 109.408125 -12.654999999999987 Q109.3275 -13.461249999999993 109.81124999999999 -13.944999999999993 Q110.45625 -14.590000000000003 111.181875 -14.590000000000003 Q111.90750000000001 -14.590000000000003 112.39125000000001 -14.106249999999989 L127.3875 1.0512500000000102 Q128.0325 1.6962500000000205 128.51625 2.5831250000000097 Q129.0 3.470000000000013 129.0 4.2762500000000045 Q129.0 5.08250000000001 128.51625 5.808125000000018 Q128.0325 6.533750000000012 127.3875 7.178750000000008 L112.39125000000001 22.17500000000001 Q112.06875000000001 22.497500000000002 111.2625 22.578125 Q110.45625 22.658750000000026 109.81124999999999 22.17500000000001 Z M68.69250000000001 -56.83749999999999 V-91.99 H64.5 Q57.082499999999996 -91.99 51.761250000000004 -86.910625 Q46.440000000000005 -81.83125 46.440000000000005 -74.41375 Q46.440000000000005 -66.99625 51.761250000000004 -61.916875 Q57.082499999999996 -56.83749999999999 64.5 -56.83749999999999 H68.69250000000001 Z"/></g><g id="Bold-M" transform="matrix(1 0 0 1 2281.8 1126)"><path d="M41.5 -20.72999999999999 Q38.75 -20.72999999999999 36.815000000000005 -22.669999999999987 Q34.875 -24.60499999999999 34.875 -27.35499999999999 V-45.60499999999999 Q26.5 -46.22999999999999 20.815 -52.22999999999999 Q15.125 -58.22999999999999 15.125 -66.72999999999999 Q15.125 -75.60499999999999 21.375 -81.85499999999999 Q27.625 -88.10499999999999 36.5 -88.10499999999999 H72.5 Q75.125 -88.10499999999999 77.125 -86.10499999999999 Q79.125 -84.10499999999999 79.125 -81.47999999999999 Q79.125 -78.72999999999999 77.125 -76.79499999999999 Q75.125 -74.85499999999999 72.5 -74.85499999999999 H69.25 V-27.35499999999999 Q69.25 -24.60499999999999 67.25 -22.669999999999987 Q65.25 -20.72999999999999 62.625 -20.72999999999999 Q59.875 -20.72999999999999 57.94 -22.669999999999987 Q56.0 -24.60499999999999 56.0 -27.35499999999999 V-74.85499999999999 H48.0 V-27.35499999999999 Q48.0 -24.60499999999999 46.065 -22.669999999999987 Q44.125 -20.72999999999999 41.5 -20.72999999999999 Z M78.75 13.64500000000001 Q76.875 11.64500000000001 76.875 9.02000000000001 Q76.875 6.39500000000001 78.75 4.52000000000001 L82.25 0.8950000000000102 H21.375 Q18.625 0.8950000000000102 16.625 -1.0449999999999875 Q14.625 -2.9799999999999898 14.625 -5.72999999999999 Q14.625 -8.35499999999999 16.625 -10.289999999999992 Q18.625 -12.22999999999999 21.375 -12.22999999999999 H82.25 L78.75 -15.85499999999999 Q76.875 -17.85499999999999 76.875 -20.419999999999987 Q76.875 -22.97999999999999 78.75 -24.97999999999999 Q80.75 -26.97999999999999 83.375 -27.044999999999987 Q86.0 -27.10499999999999 87.875 -25.10499999999999 L102.0 -10.97999999999999 Q103.125 -9.85499999999999 103.69 -8.47999999999999 Q104.25 -7.10499999999999 104.25 -5.72999999999999 Q104.25 -4.35499999999999 103.69 -2.9799999999999898 Q103.125 -1.6049999999999898 102.0 -0.47999999999998977 L87.875 13.64500000000001 Q86.0 15.52000000000001 83.375 15.52000000000001 Q80.75 15.52000000000001 78.75 13.64500000000001 Z M34.875 -58.60499999999999 V-74.85499999999999 Q31.875 -74.85499999999999 30.064999999999998 -72.54499999999999 Q28.25 -70.22999999999999 28.25 -66.72999999999999 Q28.25 -63.22999999999999 30.064999999999998 -60.91999999999999 Q31.875 -58.60499999999999 34.875 -58.60499999999999 Z"/></g><g id="Semibold-M" transform="matrix(1 0 0 1 1985.97 1126)"><path d="M45.375 -20.72999999999999 Q43.0 -20.72999999999999 41.31 -22.419999999999987 Q39.625 -24.10499999999999 39.625 -26.47999999999999 V-45.47999999999999 Q31.375 -45.85499999999999 25.625 -51.72999999999999 Q19.875 -57.60499999999999 19.875 -65.85499999999999 Q19.875 -74.35499999999999 25.875 -80.41999999999999 Q31.875 -86.47999999999999 40.375 -86.47999999999999 H75.5 Q77.875 -86.47999999999999 79.625 -84.72999999999999 Q81.375 -82.97999999999999 81.375 -80.60499999999999 Q81.375 -78.22999999999999 79.625 -76.54499999999999 Q77.875 -74.85499999999999 75.5 -74.85499999999999 H71.5 V-26.47999999999999 Q71.5 -24.10499999999999 69.75 -22.419999999999987 Q68.0 -20.72999999999999 65.625 -20.72999999999999 Q63.25 -20.72999999999999 61.559999999999995 -22.419999999999987 Q59.875 -24.10499999999999 59.875 -26.47999999999999 V-74.85499999999999 H51.125 V-26.47999999999999 Q51.125 -24.10499999999999 49.44 -22.419999999999987 Q47.75 -20.72999999999999 45.375 -20.72999999999999 Z M79.875 12.27000000000001 Q78.25 10.52000000000001 78.25 8.210000000000008 Q78.25 5.89500000000001 79.875 4.27000000000001 L84.0 0.020000000000010232 H21.0 Q18.625 0.020000000000010232 16.939999999999998 -1.6049999999999898 Q15.25 -3.2299999999999898 15.25 -5.72999999999999 Q15.25 -8.10499999999999 16.939999999999998 -9.72999999999999 Q18.625 -11.35499999999999 21.0 -11.35499999999999 H84.0 L79.875 -15.60499999999999 Q78.25 -17.22999999999999 78.25 -19.544999999999987 Q78.25 -21.85499999999999 79.875 -23.60499999999999 Q81.5 -25.35499999999999 83.875 -25.35499999999999 Q86.25 -25.35499999999999 87.875 -23.60499999999999 L101.5 -10.10499999999999 Q102.375 -9.10499999999999 102.81 -8.039999999999992 Q103.25 -6.97999999999999 103.25 -5.72999999999999 Q103.25 -4.47999999999999 102.81 -3.3549999999999898 Q102.375 -2.2299999999999898 101.5 -1.3549999999999898 L87.875 12.27000000000001 Q86.25 13.89500000000001 83.875 13.89500000000001 Q81.5 13.89500000000001 79.875 12.27000000000001 Z M39.625 -56.97999999999999 V-74.85499999999999 Q36.0 -74.85499999999999 33.690000000000005 -72.29499999999999 Q31.375 -69.72999999999999 31.375 -65.85499999999999 Q31.375 -61.97999999999999 33.690000000000005 -59.47999999999999 Q36.0 -56.97999999999999 39.625 -56.97999999999999 Z"/></g><g id="Medium-M" transform="matrix(1 0 0 1 1689.91 1126)"><path d="M48.25 -20.72999999999999 Q46.125 -20.72999999999999 44.625 -22.22999999999999 Q43.125 -23.72999999999999 43.125 -25.85499999999999 V-45.35499999999999 Q35.0 -45.60499999999999 29.19 -51.35499999999999 Q23.375 -57.10499999999999 23.375 -65.22999999999999 Q23.375 -73.60499999999999 29.25 -79.35499999999999 Q35.125 -85.10499999999999 43.375 -85.10499999999999 H77.875 Q80.0 -85.10499999999999 81.5 -83.60499999999999 Q83.0 -82.10499999999999 83.0 -79.97999999999999 Q83.0 -77.85499999999999 81.5 -76.35499999999999 Q80.0 -74.85499999999999 77.875 -74.85499999999999 H73.125 V-25.85499999999999 Q73.125 -23.72999999999999 71.625 -22.22999999999999 Q70.125 -20.72999999999999 68.0 -20.72999999999999 Q65.875 -20.72999999999999 64.375 -22.22999999999999 Q62.875 -23.72999999999999 62.875 -25.85499999999999 V-74.85499999999999 H53.375 V-25.85499999999999 Q53.375 -23.72999999999999 51.875 -22.22999999999999 Q50.375 -20.72999999999999 48.25 -20.72999999999999 Z M80.75 11.14500000000001 Q79.25 9.77000000000001 79.25 7.64500000000001 Q79.25 5.52000000000001 80.75 4.02000000000001 L85.25 -0.47999999999998977 H20.875 Q18.75 -0.47999999999998977 17.19 -1.9799999999999898 Q15.625 -3.4799999999999898 15.625 -5.72999999999999 Q15.625 -7.85499999999999 17.19 -9.35499999999999 Q18.75 -10.85499999999999 20.875 -10.85499999999999 H85.25 L80.75 -15.35499999999999 Q79.25 -16.85499999999999 79.25 -18.919999999999987 Q79.25 -20.97999999999999 80.75 -22.47999999999999 Q82.25 -23.97999999999999 84.315 -24.039999999999992 Q86.375 -24.10499999999999 87.875 -22.60499999999999 L101.0 -9.47999999999999 Q101.875 -8.60499999999999 102.25 -7.6699999999999875 Q102.625 -6.72999999999999 102.625 -5.72999999999999 Q102.625 -4.72999999999999 102.25 -3.789999999999992 Q101.875 -2.8549999999999898 101.0 -1.9799999999999898 L87.875 11.14500000000001 Q86.375 12.64500000000001 84.315 12.64500000000001 Q82.25 12.64500000000001 80.75 11.14500000000001 Z M43.125 -55.60499999999999 V-74.85499999999999 Q39.125 -74.85499999999999 36.375 -72.16999999999999 Q33.625 -69.47999999999999 33.625 -65.35499999999999 Q33.625 -61.22999999999999 36.375 -58.414999999999985 Q39.125 -55.60499999999999 43.125 -55.60499999999999 Z"/></g><g id="Regular-M" transform="matrix(1 0 0 1 1394.06 1126)"><path d="M50.5 -20.72999999999999 Q48.5 -20.72999999999999 47.125 -22.10499999999999 Q45.75 -23.47999999999999 45.75 -25.47999999999999 V-45.35499999999999 Q37.625 -45.35499999999999 31.815 -51.04499999999999 Q26.0 -56.72999999999999 26.0 -64.85499999999999 Q26.0 -72.97999999999999 31.75 -78.60499999999999 Q37.5 -84.22999999999999 45.5 -84.22999999999999 H79.625 Q81.5 -84.22999999999999 82.875 -82.85499999999999 Q84.25 -81.47999999999999 84.25 -79.60499999999999 Q84.25 -77.60499999999999 82.875 -76.22999999999999 Q81.5 -74.85499999999999 79.625 -74.85499999999999 H74.375 V-25.47999999999999 Q74.375 -23.47999999999999 73.0 -22.10499999999999 Q71.625 -20.72999999999999 69.75 -20.72999999999999 Q67.75 -20.72999999999999 66.375 -22.10499999999999 Q65.0 -23.47999999999999 65.0 -25.47999999999999 V-74.85499999999999 H55.125 V-25.47999999999999 Q55.125 -23.47999999999999 53.75 -22.10499999999999 Q52.375 -20.72999999999999 50.5 -20.72999999999999 Z M81.375 10.39500000000001 Q80.125 9.02000000000001 80.125 7.0800000000000125 Q80.125 5.14500000000001 81.375 3.8950000000000102 L86.25 -0.9799999999999898 H20.75 Q18.75 -0.9799999999999898 17.375 -2.3549999999999898 Q16.0 -3.7299999999999898 16.0 -5.72999999999999 Q16.0 -7.60499999999999 17.375 -8.97999999999999 Q18.75 -10.35499999999999 20.75 -10.35499999999999 H86.25 L81.375 -15.22999999999999 Q80.125 -16.60499999999999 80.125 -18.47999999999999 Q80.125 -20.35499999999999 81.375 -21.72999999999999 Q82.75 -23.10499999999999 84.69 -23.169999999999987 Q86.625 -23.22999999999999 87.875 -21.85499999999999 L100.75 -8.97999999999999 Q101.5 -8.22999999999999 101.815 -7.4199999999999875 Q102.125 -6.60499999999999 102.125 -5.72999999999999 Q102.125 -4.85499999999999 101.815 -4.045000000000002 Q101.5 -3.2299999999999898 100.75 -2.4799999999999898 L87.875 10.39500000000001 Q86.625 11.64500000000001 84.69 11.64500000000001 Q82.75 11.64500000000001 81.375 10.39500000000001 Z M45.75 -54.72999999999999 V-74.85499999999999 Q41.5 -74.85499999999999 38.44 -72.04499999999999 Q35.375 -69.22999999999999 35.375 -64.85499999999999 Q35.375 -60.60499999999999 38.44 -57.66499999999999 Q41.5 -54.72999999999999 45.75 -54.72999999999999 Z"/></g><g id="Light-M" transform="matrix(1 0 0 1 1098.18 1126)"><path d="M51.875 -21.85499999999999 Q50.375 -21.85499999999999 49.375 -22.919999999999987 Q48.375 -23.97999999999999 48.375 -25.35499999999999 V-46.60499999999999 H47.125 Q39.375 -46.60499999999999 33.935 -51.91999999999999 Q28.5 -57.22999999999999 28.5 -64.85499999999999 Q28.5 -72.47999999999999 33.875 -77.85499999999999 Q39.25 -83.22999999999999 46.875 -83.22999999999999 H78.625 Q80.125 -83.22999999999999 81.125 -82.16999999999999 Q82.125 -81.10499999999999 82.125 -79.72999999999999 Q82.125 -78.22999999999999 81.125 -77.22999999999999 Q80.125 -76.22999999999999 78.625 -76.22999999999999 H72.25 V-25.35499999999999 Q72.25 -23.97999999999999 71.19 -22.919999999999987 Q70.125 -21.85499999999999 68.75 -21.85499999999999 Q67.25 -21.85499999999999 66.25 -22.919999999999987 Q65.25 -23.97999999999999 65.25 -25.35499999999999 V-76.22999999999999 H55.375 V-25.35499999999999 Q55.375 -23.97999999999999 54.315 -22.919999999999987 Q53.25 -21.85499999999999 51.875 -21.85499999999999 Z M82.5 9.64500000000001 Q81.5 8.64500000000001 81.5 7.27000000000001 Q81.5 5.89500000000001 82.5 4.89500000000001 L89.375 -2.1049999999999898 H20.75 Q19.375 -2.1049999999999898 18.314999999999998 -3.1049999999999898 Q17.25 -4.10499999999999 17.25 -5.60499999999999 Q17.25 -6.97999999999999 18.314999999999998 -8.039999999999992 Q19.375 -9.10499999999999 20.75 -9.10499999999999 H89.375 L82.5 -15.97999999999999 Q81.5 -16.97999999999999 81.5 -18.414999999999992 Q81.5 -19.85499999999999 82.5 -20.85499999999999 Q83.5 -21.97999999999999 84.94 -21.97999999999999 Q86.375 -21.97999999999999 87.375 -20.97999999999999 L99.75 -8.60499999999999 Q100.375 -7.97999999999999 100.69000000000001 -7.22999999999999 Q101.0 -6.47999999999999 101.0 -5.60499999999999 Q101.0 -4.72999999999999 100.69000000000001 -4.039999999999992 Q100.375 -3.3549999999999898 99.75 -2.6049999999999898 L87.375 9.64500000000001 Q86.375 10.64500000000001 84.94 10.710000000000008 Q83.5 10.77000000000001 82.5 9.64500000000001 Z M48.375 -53.60499999999999 V-76.22999999999999 H47.125 Q42.375 -76.22999999999999 38.935 -72.97999999999999 Q35.5 -69.72999999999999 35.5 -64.97999999999999 Q35.5 -60.10499999999999 38.935 -56.85499999999999 Q42.375 -53.60499999999999 47.125 -53.60499999999999 H48.375 Z"/></g><g id="Thin-M" transform="matrix(1 0 0 1 802.565 1126)"><path d="M53.25 -22.97999999999999 Q52.25 -22.97999999999999 51.625 -23.669999999999987 Q51.0 -24.35499999999999 51.0 -25.35499999999999 V-47.85499999999999 H48.5 Q41.25 -47.85499999999999 36.190000000000005 -52.78999999999999 Q31.125 -57.72999999999999 31.125 -64.97999999999999 Q31.125 -72.10499999999999 36.125 -77.10499999999999 Q41.125 -82.10499999999999 48.25 -82.10499999999999 H77.75 Q78.625 -82.10499999999999 79.315 -81.41999999999999 Q80.0 -80.72999999999999 80.0 -79.85499999999999 Q80.0 -78.85499999999999 79.315 -78.16999999999999 Q78.625 -77.47999999999999 77.75 -77.47999999999999 H70.125 V-25.35499999999999 Q70.125 -24.35499999999999 69.435 -23.669999999999987 Q68.75 -22.97999999999999 67.75 -22.97999999999999 Q66.875 -22.97999999999999 66.19 -23.669999999999987 Q65.5 -24.35499999999999 65.5 -25.35499999999999 V-77.47999999999999 H55.5 V-25.35499999999999 Q55.5 -24.35499999999999 54.875 -23.669999999999987 Q54.25 -22.97999999999999 53.25 -22.97999999999999 Z M83.625 9.02000000000001 Q82.875 8.27000000000001 82.875 7.39500000000001 Q82.875 6.52000000000001 83.625 5.77000000000001 L92.625 -3.2299999999999898 H20.875 Q20.0 -3.2299999999999898 19.310000000000002 -3.9199999999999875 Q18.625 -4.60499999999999 18.625 -5.47999999999999 Q18.625 -6.47999999999999 19.310000000000002 -7.164999999999992 Q20.0 -7.85499999999999 20.875 -7.85499999999999 H92.625 L83.625 -16.72999999999999 Q83.0 -17.35499999999999 82.935 -18.294999999999987 Q82.875 -19.22999999999999 83.625 -19.97999999999999 Q84.375 -20.72999999999999 85.25 -20.794999999999987 Q86.125 -20.85499999999999 86.875 -20.10499999999999 L98.75 -8.22999999999999 Q99.375 -7.60499999999999 99.625 -6.914999999999992 Q99.875 -6.22999999999999 99.875 -5.47999999999999 Q99.875 -4.72999999999999 99.625 -4.10499999999999 Q99.375 -3.4799999999999898 98.75 -2.8549999999999898 L86.875 9.02000000000001 Q86.25 9.64500000000001 85.31 9.710000000000008 Q84.375 9.77000000000001 83.625 9.02000000000001 Z M51.0 -52.47999999999999 V-77.47999999999999 H48.5 Q43.25 -77.47999999999999 39.5 -73.85499999999999 Q35.75 -70.22999999999999 35.75 -64.97999999999999 Q35.75 -59.72999999999999 39.5 -56.10499999999999 Q43.25 -52.47999999999999 48.5 -52.47999999999999 H51.0 Z"/></g><g id="Ultralight-M" transform="matrix(1 0 0 1 506.415 1126)"><path d="M54.125 -23.72999999999999 Q53.5 -23.72999999999999 53.0 -24.22999999999999 Q52.5 -24.72999999999999 52.5 -25.35499999999999 V-48.60499999999999 H49.25 Q42.375 -48.60499999999999 37.5 -53.35499999999999 Q32.625 -58.10499999999999 32.625 -64.97999999999999 Q32.625 -71.97999999999999 37.440000000000005 -76.72999999999999 Q42.25 -81.47999999999999 49.125 -81.47999999999999 H77.25 Q77.75 -81.47999999999999 78.25 -80.97999999999999 Q78.75 -80.47999999999999 78.75 -79.85499999999999 Q78.75 -79.22999999999999 78.25 -78.79499999999999 Q77.75 -78.35499999999999 77.25 -78.35499999999999 H68.875 V-25.35499999999999 Q68.875 -24.72999999999999 68.375 -24.22999999999999 Q67.875 -23.72999999999999 67.25 -23.72999999999999 Q66.625 -23.72999999999999 66.125 -24.22999999999999 Q65.625 -24.72999999999999 65.625 -25.35499999999999 V-78.35499999999999 H55.75 V-25.35499999999999 Q55.75 -24.72999999999999 55.25 -24.22999999999999 Q54.75 -23.72999999999999 54.125 -23.72999999999999 Z M84.375 8.52000000000001 Q83.75 8.02000000000001 83.75 7.460000000000008 Q83.75 6.89500000000001 84.375 6.27000000000001 L94.5 -3.8549999999999898 H21.0 Q20.375 -3.8549999999999898 19.875 -4.35499999999999 Q19.375 -4.85499999999999 19.375 -5.47999999999999 Q19.375 -6.10499999999999 19.875 -6.60499999999999 Q20.375 -7.10499999999999 21.0 -7.10499999999999 H94.5 L84.375 -17.22999999999999 Q83.875 -17.72999999999999 83.81500000000001 -18.35499999999999 Q83.75 -18.97999999999999 84.375 -19.47999999999999 Q84.875 -20.10499999999999 85.435 -20.10499999999999 Q86.0 -20.10499999999999 86.625 -19.60499999999999 L98.125 -7.97999999999999 Q98.75 -7.35499999999999 99.0 -6.72999999999999 Q99.25 -6.10499999999999 99.25 -5.47999999999999 Q99.25 -4.72999999999999 99.0 -4.1699999999999875 Q98.75 -3.6049999999999898 98.125 -2.9799999999999898 L86.625 8.52000000000001 Q86.125 9.02000000000001 85.5 9.085000000000008 Q84.875 9.14500000000001 84.375 8.52000000000001 Z M52.5 -51.72999999999999 V-78.35499999999999 H49.25 Q43.75 -78.35499999999999 39.815 -74.47999999999999 Q35.875 -70.60499999999999 35.875 -64.97999999999999 Q35.875 -59.47999999999999 39.815 -55.60499999999999 Q43.75 -51.72999999999999 49.25 -51.72999999999999 H52.5 Z"/></g><g id="Bold-S" transform="matrix(1 0 0 1 2294.23 696)"><path d="M31.9545 -23.787921999999995 Q29.786327999999997 -23.787921999999995 28.157832000000003 -25.416417999999993 Q26.529336 -27.044914 26.529336 -29.21308599999999 V-43.022164 Q19.825992 -43.613913999999994 15.3855 -48.347913999999996 Q10.945008 -53.081914 10.945008 -59.884671999999995 Q10.945008 -66.890992 15.97725 -71.9185 Q21.009491999999998 -76.94600799999999 28.011077999999998 -76.94600799999999 H56.907414 Q59.075585999999994 -76.94600799999999 60.751422 -75.27017199999999 Q62.431992 -73.594336 62.431992 -71.525578 Q62.431992 -69.352672 60.751422 -67.72891 Q59.075585999999994 -66.100414 57.006828 -66.100414 H54.833922 V-29.113671999999994 Q54.833922 -27.044914 53.158086 -25.416417999999993 Q51.48225 -23.787921999999995 49.413492000000005 -23.787921999999995 Q47.24058599999999 -23.787921999999995 45.61209 -25.416417999999993 Q43.988327999999996 -27.044914 43.988327999999996 -29.113671999999994 V-66.100414 H37.28025 V-29.113671999999994 Q37.28025 -27.044914 35.651754 -25.416417999999993 Q34.027992 -23.787921999999995 31.9545 -23.787921999999995 Z M61.740828 3.1343360000000047 Q60.159672 1.4585000000000008 60.159672 -0.6623319999999921 Q60.159672 -2.7831639999999993 61.740828 -4.359585999999993 L64.107828 -6.825999999999993 H16.961922 Q14.893163999999999 -6.825999999999993 13.217327999999998 -8.454495999999992 Q11.541492000000002 -10.08299199999999 11.541492000000002 -12.251164000000003 Q11.541492000000002 -14.319921999999991 13.217327999999998 -15.94841799999999 Q14.893163999999999 -17.576914000000002 16.961922 -17.576914000000002 H64.107828 L61.641414000000005 -20.138007999999992 Q60.064992000000004 -21.818577999999995 60.064992000000004 -23.839995999999992 Q60.064992000000004 -25.861413999999996 61.641414000000005 -27.537249999999993 Q63.31725 -29.21308599999999 65.43808200000001 -29.265159999999995 Q67.558914 -29.312499999999993 69.135336 -27.636663999999996 L80.27917199999999 -16.587507999999985 Q81.16916400000001 -15.702249999999992 81.70884000000001 -14.518749999999997 Q82.25325 -13.335249999999988 82.25325 -12.251164000000003 Q82.25325 -11.16707799999999 81.70884000000001 -9.983577999999994 Q81.16916400000001 -8.800078 80.27917199999999 -7.910085999999993 L69.135336 3.2337500000000006 Q67.558914 4.810171999999994 65.485422 4.762832000000003 Q63.416664000000004 4.715491999999998 61.740828 3.1343360000000047 Z M26.529336 -53.67366399999999 V-66.100414 Q24.26175 -66.100414 22.978836 -64.325164 Q21.695922 -62.549913999999994 21.695922 -59.884671999999995 Q21.695922 -57.22416399999999 22.978836 -55.44891399999999 Q24.26175 -53.67366399999999 26.529336 -53.67366399999999 Z"/></g><g id="Semibold-S" transform="matrix(1 0 0 1 1998.1 696)"><path d="M35.012664 -23.787921999999995 Q33.138 -23.787921999999995 31.708332000000002 -25.217589999999994 Q30.278664 -26.651991999999993 30.278664 -28.521921999999996 V-42.92274999999999 Q23.67 -43.31567199999999 19.182167999999997 -47.950258 Q14.694336 -52.58957799999999 14.694336 -59.193507999999994 Q14.694336 -66.00099999999999 19.52775 -70.834414 Q24.361164 -75.66782799999999 31.064508 -75.66782799999999 H59.373827999999996 Q61.248492000000006 -75.66782799999999 62.7255 -74.18608599999999 Q64.202508 -72.70907799999999 64.202508 -70.834414 Q64.202508 -68.95974999999999 62.7255 -67.530082 Q61.248492000000006 -66.100414 59.373827999999996 -66.100414 H56.609172 V-28.521921999999996 Q56.609172 -26.651991999999993 55.132164 -25.217589999999994 Q53.650422 -23.787921999999995 51.780492 -23.787921999999995 Q49.905828 -23.787921999999995 48.47616 -25.217589999999994 Q47.046492 -26.651991999999993 47.046492 -28.521921999999996 V-66.100414 H39.746664 V-28.521921999999996 Q39.746664 -26.651991999999993 38.316995999999996 -25.217589999999994 Q36.887328 -23.787921999999995 35.012664 -23.787921999999995 Z M62.626085999999994 2.0502500000000055 Q61.248492000000006 0.5685080000000085 61.248492000000006 -1.301421999999988 Q61.248492000000006 -3.1760859999999838 62.626085999999994 -4.558413999999999 L65.485422 -7.517163999999994 H16.767827999999998 Q14.893163999999999 -7.517163999999994 13.463496 -8.899491999999995 Q12.033828 -10.277085999999983 12.033828 -12.251164000000003 Q12.033828 -14.125827999999998 13.463496 -15.503422 Q14.893163999999999 -16.885749999999987 16.767827999999998 -16.885749999999987 H65.485422 L62.526672 -19.943914 Q61.149077999999996 -21.321507999999987 61.149077999999996 -23.148832 Q61.149077999999996 -24.971421999999997 62.526672 -26.453163999999994 Q63.909 -27.930171999999992 65.83100400000001 -27.930171999999992 Q67.753008 -27.930171999999992 69.135336 -26.453163999999994 L79.88625 -15.901077999999998 Q80.577414 -15.110499999999988 81.02241 -14.17316799999999 Q81.462672 -13.235835999999992 81.462672 -12.251164000000003 Q81.462672 -11.266492 81.02241 -10.277085999999983 Q80.577414 -9.292413999999994 79.88625 -8.601249999999993 L69.135336 2.1496640000000156 Q67.753008 3.5319920000000025 65.883078 3.479917999999998 Q64.008414 3.432578000000021 62.626085999999994 2.0502500000000055 Z M30.278664 -52.39075 V-66.100414 Q27.514008 -66.100414 25.838172 -64.17841 Q24.162336 -62.251672 24.162336 -59.29292199999999 Q24.162336 -56.23949199999999 25.838172 -54.31275399999999 Q27.514008 -52.39075 30.278664 -52.39075 Z"/></g><g id="Medium-S" transform="matrix(1 0 0 1 1701.85 696)"><path d="M37.28025 -23.787921999999995 Q35.604414 -23.787921999999995 34.3215 -25.070835999999993 Q33.038586 -26.35374999999999 33.038586 -28.029585999999988 V-42.82333599999999 Q26.529336 -43.12157799999999 21.994163999999998 -47.656749999999995 Q17.458992000000002 -52.19192199999999 17.458992000000002 -58.70117199999999 Q17.458992000000002 -65.30983599999999 22.140918 -69.94442199999999 Q26.827578 -74.57900799999999 33.431508 -74.57900799999999 H61.248492000000006 Q62.924327999999996 -74.57900799999999 64.202508 -73.300828 Q65.485422 -72.01791399999999 65.485422 -70.34207799999999 Q65.485422 -68.661508 64.202508 -67.38332799999999 Q62.924327999999996 -66.100414 61.248492000000006 -66.100414 H57.892086 V-28.029585999999988 Q57.892086 -26.35374999999999 56.609172 -25.070835999999993 Q55.330992 -23.787921999999995 53.650422 -23.787921999999995 Q51.974585999999995 -23.787921999999995 50.691672000000004 -25.070835999999993 Q49.413492000000005 -26.35374999999999 49.413492000000005 -28.029585999999988 V-66.100414 H41.521914 V-28.029585999999988 Q41.521914 -26.35374999999999 40.239 -25.070835999999993 Q38.956086 -23.787921999999995 37.28025 -23.787921999999995 Z M63.31725 1.164991999999998 Q62.034335999999996 -0.018507999999997082 62.034335999999996 -1.7464179999999914 Q62.034335999999996 -3.474328 63.31725 -4.752508000000006 L66.474828 -7.910085999999993 H16.569 Q14.992578 -7.910085999999993 13.657589999999999 -9.192999999999998 Q12.327336 -10.475914000000003 12.327336 -12.251164000000003 Q12.327336 -13.926999999999992 13.657589999999999 -15.209913999999998 Q14.992578 -16.49282799999999 16.569 -16.49282799999999 H66.474828 L63.217836 -19.745085999999986 Q61.934922 -21.02799999999999 61.934922 -22.65649599999999 Q61.934922 -24.284991999999995 63.217836 -25.563171999999994 Q64.50075 -26.846085999999993 66.176586 -26.898159999999997 Q67.852422 -26.945499999999996 69.135336 -25.66258599999999 L79.493328 -15.40400799999999 Q80.18449199999999 -14.717577999999989 80.577414 -13.879660000000001 Q80.97033599999999 -13.037007999999986 80.97033599999999 -12.251164000000003 Q80.97033599999999 -11.460585999999992 80.577414 -10.62266799999999 Q80.18449199999999 -9.784749999999988 79.493328 -9.093585999999988 L69.135336 1.2596719999999948 Q67.852422 2.542586 66.22866 2.4952460000000087 Q64.600164 2.443172000000004 63.31725 1.164991999999998 Z M33.038586 -51.306664 V-66.100414 Q29.980422 -66.100414 27.959004 -64.026922 Q25.937586 -61.958164 25.937586 -58.800585999999996 Q25.937586 -55.643007999999995 27.959004 -53.474835999999996 Q29.980422 -51.306664 33.038586 -51.306664 Z"/></g><g id="Regular-S" transform="matrix(1 0 0 1 1405.73 696)"><path d="M39.0555 -23.787921999999995 Q37.479078 -23.787921999999995 36.295578 -24.971421999999997 Q35.112078 -26.154921999999992 35.112078 -27.736077999999992 V-42.82333599999999 Q28.602828 -42.92274999999999 24.062922 -47.410582 Q19.52775 -51.89841399999999 19.52775 -58.407664 Q19.52775 -64.8175 24.114996 -69.352672 Q28.697508000000003 -73.89257799999999 35.112078 -73.89257799999999 H62.526672 Q64.107828 -73.89257799999999 65.291328 -72.70907799999999 Q66.474828 -71.525578 66.474828 -70.043836 Q66.474828 -68.46741399999999 65.291328 -67.283914 Q64.107828 -66.100414 62.626085999999994 -66.100414 H58.881492 V-27.636663999999996 Q58.881492 -26.154921999999992 57.697992 -24.971421999999997 Q56.514492000000004 -23.787921999999995 55.03275 -23.787921999999995 Q53.456328 -23.787921999999995 52.272828 -24.971421999999997 Q51.089328 -26.154921999999992 51.089328 -27.636663999999996 V-66.100414 H42.899508 V-27.636663999999996 Q42.899508 -26.154921999999992 41.716007999999995 -24.971421999999997 Q40.532508 -23.787921999999995 39.0555 -23.787921999999995 Z M63.809585999999996 0.5685080000000085 Q62.7255 -0.6149919999999867 62.7255 -2.1914139999999946 Q62.7255 -3.7678359999999884 63.809585999999996 -4.851921999999988 L67.260672 -8.303007999999991 H16.469586 Q14.992578 -8.303007999999991 13.809078 -9.486507999999986 Q12.625577999999999 -10.670007999999996 12.625577999999999 -12.251164000000003 Q12.625577999999999 -13.728172 13.809078 -14.911671999999996 Q14.992578 -16.09517199999999 16.469586 -16.09517199999999 H67.260672 L63.710172 -19.645671999999998 Q62.626085999999994 -20.829171999999993 62.626085999999994 -22.310913999999997 Q62.626085999999994 -23.787921999999995 63.710172 -24.971421999999997 Q64.893672 -26.154921999999992 66.474828 -26.20699599999999 Q68.05125 -26.254335999999988 69.135336 -25.070835999999993 L79.2945 -15.011085999999992 Q79.88625 -14.419335999999987 80.231832 -13.680831999999995 Q80.577414 -12.94232799999999 80.577414 -12.251164000000003 Q80.577414 -11.559999999999988 80.231832 -10.821495999999996 Q79.88625 -10.08299199999999 79.2945 -9.486507999999986 L69.135336 0.6679220000000043 Q68.05125 1.7520080000000178 66.522168 1.704667999999998 Q64.99308599999999 1.657328000000021 63.809585999999996 0.5685080000000085 Z M35.112078 -50.6155 V-66.100414 Q31.855086 -66.100414 29.5875 -63.92750799999999 Q27.319914 -61.75933599999999 27.319914 -58.407664 Q27.319914 -55.15067199999999 29.5875 -52.88308599999999 Q31.855086 -50.6155 35.112078 -50.6155 Z"/></g><g id="Light-S" transform="matrix(1 0 0 1 1109.75 696)"><path d="M40.139585999999994 -24.677913999999994 Q38.956086 -24.677913999999994 38.070828 -25.615245999999992 Q37.180836 -26.55257799999999 37.180836 -27.636663999999996 V-43.808007999999994 H36.196163999999996 Q29.980422 -43.907422 25.743492 -48.10174599999999 Q21.501828 -52.291335999999994 21.501828 -58.407664 Q21.501828 -64.52399199999999 25.790832 -68.812996 Q30.079836 -73.10199999999999 36.196163999999996 -73.10199999999999 H61.835508 Q63.019008 -73.10199999999999 63.909 -72.16466799999999 Q64.798992 -71.227336 64.798992 -70.14325 Q64.798992 -68.95974999999999 63.909 -68.07449199999999 Q63.019008 -67.18449999999999 61.835508 -67.18449999999999 H57.200922 V-27.636663999999996 Q57.200922 -26.55257799999999 56.26359 -25.615245999999992 Q55.330992 -24.677913999999994 54.242172000000004 -24.677913999999994 Q53.058672 -24.677913999999994 52.173414 -25.615245999999992 Q51.283422 -26.55257799999999 51.283422 -27.636663999999996 V-67.18449999999999 H43.098335999999996 V-27.636663999999996 Q43.098335999999996 -26.55257799999999 42.161004000000005 -25.615245999999992 Q41.223672 -24.677913999999994 40.139585999999994 -24.677913999999994 Z M64.699578 -0.018507999999997082 Q63.809585999999996 -0.9084999999999894 63.809585999999996 -2.044659999999979 Q63.809585999999996 -3.1760859999999838 64.699578 -4.0660780000000045 L69.727086 -9.192999999999998 H16.569 Q15.484914 -9.192999999999998 14.547582 -10.08299199999999 Q13.61025 -10.968249999999998 13.61025 -12.151749999999993 Q13.61025 -13.235835999999992 14.547582 -14.17316799999999 Q15.484914 -15.110499999999988 16.569 -15.110499999999988 H69.727086 L64.600164 -20.237421999999995 Q63.710172 -21.127413999999995 63.710172 -22.258839999999992 Q63.710172 -23.394999999999996 64.600164 -24.284991999999995 Q65.485422 -25.269664 66.668922 -25.269664 Q67.852422 -25.269664 68.742414 -24.379671999999992 L78.50392199999999 -14.717577999999989 Q79.000992 -14.220507999999995 79.34184 -13.534077999999994 Q79.687422 -12.842913999999993 79.687422 -12.151749999999993 Q79.687422 -11.460585999999992 79.34184 -10.821495999999996 Q79.000992 -10.177672000000001 78.50392199999999 -9.585921999999997 L68.742414 0.07617199999999968 Q67.852422 0.9661640000000062 66.720996 0.9661640000000062 Q65.584836 0.9661640000000062 64.699578 -0.018507999999997082 Z M37.180836 -49.725508 V-67.18449999999999 H36.196163999999996 Q32.54625 -67.18449999999999 29.980422 -64.670746 Q27.419328 -62.15699199999999 27.419328 -58.50707799999999 Q27.419328 -54.757749999999994 29.980422 -52.243995999999996 Q32.54625 -49.725508 36.196163999999996 -49.725508 H37.180836 Z"/></g><g id="Thin-S" transform="matrix(1 0 0 1 814.015 696)"><path d="M41.223672 -25.563171999999994 Q40.437827999999996 -25.563171999999994 39.846078 -26.20699599999999 Q39.254328 -26.846085999999993 39.254328 -27.636663999999996 V-44.797413999999996 H37.28025 Q31.462163999999998 -44.89682799999999 27.514008 -48.79290999999999 Q23.570586 -52.68899199999999 23.570586 -58.50707799999999 Q23.570586 -64.22574999999999 27.566082 -68.221246 Q31.561578 -72.212008 37.28025 -72.212008 H61.149077999999996 Q61.835508 -72.212008 62.479332 -71.57291799999999 Q63.118422 -70.93382799999999 63.118422 -70.24266399999999 Q63.118422 -69.452086 62.479332 -68.812996 Q61.835508 -68.16917199999999 61.149077999999996 -68.16917199999999 H55.525085999999995 V-27.636663999999996 Q55.525085999999995 -26.846085999999993 54.885996 -26.20699599999999 Q54.242172000000004 -25.563171999999994 53.456328 -25.563171999999994 Q52.765164000000006 -25.563171999999994 52.12134 -26.20699599999999 Q51.48225 -26.846085999999993 51.48225 -27.636663999999996 V-68.16917199999999 H43.19775 V-27.636663999999996 Q43.19775 -26.846085999999993 42.606 -26.20699599999999 Q42.01425 -25.563171999999994 41.223672 -25.563171999999994 Z M65.584836 -0.515578000000005 Q64.893672 -1.2020079999999922 64.893672 -1.9452459999999974 Q64.893672 -2.683749999999989 65.584836 -3.374914000000004 L72.29291400000001 -10.08299199999999 H16.668414 Q15.97725 -10.08299199999999 15.33816 -10.722082 Q14.694336 -11.361171999999996 14.694336 -12.052335999999983 Q14.694336 -12.842913999999993 15.33816 -13.48200399999999 Q15.97725 -14.125827999999998 16.668414 -14.125827999999998 H72.29291400000001 L65.485422 -20.829171999999993 Q64.893672 -21.420921999999997 64.846332 -22.164159999999995 Q64.798992 -22.902663999999994 65.485422 -23.593827999999995 Q66.176586 -24.284991999999995 66.91508999999999 -24.332331999999994 Q67.658328 -24.379671999999992 68.349492 -23.68850799999999 L77.718078 -14.419335999999987 Q78.210414 -13.926999999999992 78.50392199999999 -13.287909999999997 Q78.802164 -12.644085999999987 78.802164 -12.052335999999983 Q78.802164 -11.460585999999992 78.50392199999999 -10.868835999999988 Q78.210414 -10.277085999999983 77.718078 -9.784749999999988 L68.349492 -0.41616399999999487 Q67.753008 0.1755860000000098 67.014504 0.1755860000000098 Q66.276 0.1755860000000098 65.584836 -0.515578000000005 Z M39.254328 -48.84024999999999 V-68.16917199999999 H37.28025 Q33.237414 -68.16917199999999 30.425417999999997 -65.36191 Q27.613422 -62.549913999999994 27.613422 -58.50707799999999 Q27.613422 -54.459508 30.425417999999997 -51.65224599999999 Q33.237414 -48.84024999999999 37.28025 -48.84024999999999 H39.254328 Z"/></g><g id="Ultralight-S" transform="matrix(1 0 0 1 517.792 696)"><path d="M41.914835999999994 -26.154921999999992 Q41.4225 -26.154921999999992 40.930164000000005 -26.651991999999993 Q40.437827999999996 -27.144327999999994 40.437827999999996 -27.636663999999996 V-45.389163999999994 H37.872 Q32.347422 -45.48857799999999 28.550753999999998 -49.233171999999996 Q24.754086 -52.982499999999995 24.754086 -58.50707799999999 Q24.754086 -64.026922 28.602828 -67.875664 Q32.446836 -71.71967199999999 37.971414 -71.71967199999999 H60.652007999999995 Q61.149077999999996 -71.71967199999999 61.641414000000005 -71.227336 Q62.13375 -70.73499999999999 62.13375 -70.24266399999999 Q62.13375 -69.750328 61.641414000000005 -69.30533199999999 Q61.149077999999996 -68.86033599999999 60.751422 -68.86033599999999 H54.540414000000006 V-27.636663999999996 Q54.540414000000006 -27.144327999999994 54.048078 -26.651991999999993 Q53.551007999999996 -26.154921999999992 53.058672 -26.154921999999992 Q52.56633599999999 -26.154921999999992 52.074 -26.651991999999993 Q51.581664 -27.144327999999994 51.581664 -27.636663999999996 V-68.86033599999999 H43.396578 V-27.636663999999996 Q43.396578 -27.144327999999994 42.899508 -26.651991999999993 Q42.407172 -26.154921999999992 41.914835999999994 -26.154921999999992 Z M66.176586 -0.9084999999999894 Q65.584836 -1.400835999999984 65.584836 -1.8931719999999927 Q65.584836 -2.3855080000000015 66.176586 -2.981991999999991 L73.769922 -10.575327999999999 H16.767827999999998 Q16.275492 -10.575327999999999 15.778422 -11.067663999999994 Q15.286086000000001 -11.559999999999988 15.286086000000001 -12.052335999999983 Q15.286086000000001 -12.544671999999991 15.778422 -13.037007999999986 Q16.275492 -13.534077999999994 16.767827999999998 -13.534077999999994 H73.769922 L66.077172 -21.22682799999999 Q65.584836 -21.719164 65.53749599999999 -22.211499999999994 Q65.485422 -22.70383599999999 66.077172 -23.196171999999997 Q66.569508 -23.787921999999995 67.06657799999999 -23.787921999999995 Q67.558914 -23.787921999999995 68.150664 -23.295585999999993 L77.22100800000001 -14.220507999999995 Q77.718078 -13.728172 78.011586 -13.136421999999996 Q78.30982800000001 -12.544671999999991 78.30982800000001 -12.052335999999983 Q78.30982800000001 -11.460585999999992 78.011586 -10.920909999999992 Q77.718078 -10.376499999999993 77.22100800000001 -9.884163999999998 L68.150664 -0.8090859999999935 Q67.658328 -0.316749999999999 67.165992 -0.316749999999999 Q66.668922 -0.316749999999999 66.176586 -0.9084999999999894 Z M40.437827999999996 -48.24849999999999 V-68.86033599999999 H37.872 Q33.630336 -68.86033599999999 30.671586 -65.85424599999999 Q27.712836 -62.84342199999999 27.712836 -58.50707799999999 Q27.712836 -54.26541399999999 30.671586 -51.25458999999999 Q33.630336 -48.24849999999999 37.872 -48.24849999999999 H40.437827999999996 Z"/></g></g></svg>