<svg xmlns="http://www.w3.org/2000/svg" version="1.1" width="3300" height="2000"><g id="Notes"><style>
    text {
      font-family: monospace;
      text-anchor: middle;
    }
    text.emphasis {
      font-weight:bold;
    }
    text.lanchor {
      text-anchor: start;
    }
  </style><rect height="2200" id="artboard" fill="white" width="3300" x="0" y="0"/><line id="" style="fill:none;stroke:black;stroke-width:0.5;" x1="263" x2="3036" y1="292" y2="292"/><text class="lanchor emphasis" transform="matrix(1 0 0 1 263 322)">Weight/Scale Variations</text><text transform="matrix(1 0 0 1 559.711 322)">Ultralight</text><text transform="matrix(1 0 0 1 856.422 322)">Thin</text><text transform="matrix(1 0 0 1 1153.13 322)">Light</text><text transform="matrix(1 0 0 1 1449.84 322)">Regular</text><text transform="matrix(1 0 0 1 1746.56 322)">Medium</text><text transform="matrix(1 0 0 1 2043.27 322)">Semibold</text><text transform="matrix(1 0 0 1 2339.98 322)">Bold</text><text transform="matrix(1 0 0 1 2636.69 322)">Heavy</text><text transform="matrix(1 0 0 1 2933.4 322)">Black</text><text id="template-version" style="text-anchor: end;" transform="matrix(1 0 0 1 3036 1933)">Template v.1.0</text><text class="lanchor" transform="matrix(1 0 0 1 263 726)">Small</text><text class="lanchor" transform="matrix(1 0 0 1 263 1156)">Medium</text><text class="lanchor" transform="matrix(1 0 0 1 263 1586)">Large</text></g><g id="Guides"><g id="H-reference" style="fill:#27AAE1;stroke:none;" transform="matrix(1 0 0 1 339 696)"><path d="M 54.9316 0 L 57.666 0 L 30.5664 -70.459 L 28.0762 -70.459 L 0.976562 0 L 3.66211 0 L 12.9395 -24.4629 L 45.7031 -24.4629 Z M 29.1992 -67.0898 L 29.4434 -67.0898 L 44.8242 -26.709 L 13.8184 -26.709 Z"/></g><line id="Baseline-S" style="fill:none;stroke:#27AAE1;opacity:1;stroke-width:0.577;" x1="263" x2="3036" y1="696" y2="696"/><line id="Capline-S" style="fill:none;stroke:#27AAE1;opacity:1;stroke-width:0.577;" x1="263" x2="3036" y1="625.541" y2="625.541"/><g id="H-reference" style="fill:#27AAE1;stroke:none;" transform="matrix(1 0 0 1 339 1126)"><path d="M 54.9316 0 L 57.666 0 L 30.5664 -70.459 L 28.0762 -70.459 L 0.976562 0 L 3.66211 0 L 12.9395 -24.4629 L 45.7031 -24.4629 Z M 29.1992 -67.0898 L 29.4434 -67.0898 L 44.8242 -26.709 L 13.8184 -26.709 Z"/></g><line id="Baseline-M" style="fill:none;stroke:#27AAE1;opacity:1;stroke-width:0.577;" x1="263" x2="3036" y1="1126" y2="1126"/><line id="Capline-M" style="fill:none;stroke:#27AAE1;opacity:1;stroke-width:0.577;" x1="263" x2="3036" y1="1055.54" y2="1055.54"/><g id="H-reference" style="fill:#27AAE1;stroke:none;" transform="matrix(1 0 0 1 339 1556)"><path d="M 54.9316 0 L 57.666 0 L 30.5664 -70.459 L 28.0762 -70.459 L 0.976562 0 L 3.66211 0 L 12.9395 -24.4629 L 45.7031 -24.4629 Z M 29.1992 -67.0898 L 29.4434 -67.0898 L 44.8242 -26.709 L 13.8184 -26.709 Z"/></g><line id="Baseline-L" style="fill:none;stroke:#27AAE1;opacity:1;stroke-width:0.577;" x1="263" x2="3036" y1="1556" y2="1556"/><line id="Capline-L" style="fill:none;stroke:#27AAE1;opacity:1;stroke-width:0.577;" x1="263" x2="3036" y1="1485.54" y2="1485.54"/><rect height="119.336" id="left-margin" style="fill:darkred;stroke:none;opacity:0.4;" width="12.4512" x="1394.06" y="1030.79"/><rect height="119.336" id="right-margin" style="fill:darkgreen;stroke:none;opacity:0.4;" width="12.4512" x="1502.5112" y="1030.79"/><rect x="1406.5112" y="1045" width="96" height="96" fill="none" stroke="blue" stroke-dasharray="5"/><rect x="1394.06" y="1030.79" width="120.9024" height="119.336" fill="none" stroke="blue"/></g><g id="Symbols"><g id="Bold-L" transform="matrix(1 0 0 1 2266 1556)"><path d="M16.044375 -60.062499999999986 H138.916875 V-90.296875 Q138.916875 -90.296875 138.916875 -90.296875 Q138.916875 -90.296875 138.916875 -90.296875 H16.044375 Q16.044375 -90.296875 16.044375 -90.296875 Q16.044375 -90.296875 16.044375 -90.296875 V-60.062499999999986 Z M16.044375 -20.233749999999986 H138.916875 V-50.30687499999999 H16.044375 V-20.233749999999986 Z M16.044375 19.675625000000014 H138.916875 Q138.916875 19.675625000000014 138.916875 19.675625000000014 Q138.916875 19.675625000000014 138.916875 19.675625000000014 V-10.397499999999987 H16.044375 V19.675625000000014 Q16.044375 19.675625000000014 16.044375 19.675625000000014 Q16.044375 19.675625000000014 16.044375 19.675625000000014 Z M26.041875 -70.46312499999999 V-79.73499999999999 H35.31375 V-70.46312499999999 H26.041875 Z M26.041875 -30.63437499999999 V-39.906249999999986 H35.31375 V-30.63437499999999 H26.041875 Z M26.041875 9.275000000000013 V0.16437500000001393 H35.31375 V9.275000000000013 H26.041875 Z"/></g><g id="Semibold-L" transform="matrix(1 0 0 1 1970.27 1556)"><path d="M17.79700125 -59.431528749999984 H137.094105 V-88.47410499999998 Q137.094105 -88.47410499999998 137.094105 -88.47410499999998 Q137.094105 -88.47410499999998 137.094105 -88.47410499999998 H17.79700125 Q17.79700125 -88.47410499999998 17.79700125 -88.47410499999998 Q17.79700125 -88.47410499999998 17.79700125 -88.47410499999998 V-59.431528749999984 Z M17.79700125 -20.79457749999999 H137.094105 V-49.74604749999999 H17.79700125 V-20.79457749999999 Z M17.79700125 17.922998750000016 H137.094105 Q137.094105 17.922998750000016 137.094105 17.922998750000016 Q137.094105 17.922998750000016 137.094105 17.922998750000016 V-11.028471249999988 H17.79700125 V17.922998750000016 Q17.79700125 17.922998750000016 17.79700125 17.922998750000016 Q17.79700125 17.922998750000016 17.79700125 17.922998750000016 Z M27.79450125 -69.27132624999999 V-78.54320125 H37.06637625 V-69.27132624999999 H27.79450125 Z M27.79450125 -30.63437499999999 V-39.906249999999986 H37.06637625 V-30.63437499999999 H27.79450125 Z M27.79450125 8.083201250000016 V-1.0975674999999896 H37.06637625 V8.083201250000016 H27.79450125 Z"/></g><g id="Medium-L" transform="matrix(1 0 0 1 1674.31 1556)"><path d="M19.1116725 -58.958259999999996 H135.7270275 V-87.10702749999999 Q135.7270275 -87.10702749999999 135.7270275 -87.10702749999999 Q135.7270275 -87.10702749999999 135.7270275 -87.10702749999999 H19.1116725 Q19.1116725 -87.10702749999999 19.1116725 -87.10702749999999 Q19.1116725 -87.10702749999999 19.1116725 -87.10702749999999 V-58.958259999999996 Z M19.1116725 -21.21527874999998 H135.7270275 V-49.32534624999998 H19.1116725 V-21.21527874999998 Z M19.1116725 16.608327500000016 H135.7270275 Q135.7270275 16.608327500000016 135.7270275 16.608327500000016 Q135.7270275 16.608327500000016 135.7270275 16.608327500000016 V-11.501739999999991 H19.1116725 V16.608327500000016 Q19.1116725 16.608327500000016 19.1116725 16.608327500000016 Q19.1116725 16.608327500000016 19.1116725 16.608327500000016 Z M29.1091725 -68.37735624999999 V-77.64923125 H38.3810475 V-68.37735624999999 H29.1091725 Z M29.1091725 -30.63437499999999 V-39.906249999999986 H38.3810475 V-30.63437499999999 H29.1091725 Z M29.1091725 7.189231250000013 V-2.0441049999999876 H38.3810475 V7.189231250000013 H29.1091725 Z"/></g><g id="Regular-L" transform="matrix(1 0 0 1 1378.56 1556)"><path d="M20.075625000000002 -58.611249999999984 H134.724375 V-86.10437499999998 Q134.724375 -86.10437499999998 134.724375 -86.10437499999998 Q134.724375 -86.10437499999998 134.724375 -86.10437499999998 H20.075625000000002 Q20.075625000000002 -86.10437499999998 20.075625000000002 -86.10437499999998 Q20.075625000000002 -86.10437499999998 20.075625000000002 -86.10437499999998 V-58.611249999999984 Z M20.075625000000002 -21.523749999999986 H134.724375 V-49.016874999999985 H20.075625000000002 V-21.523749999999986 Z M20.075625000000002 15.644375000000014 H134.724375 Q134.724375 15.644375000000014 134.724375 15.644375000000014 Q134.724375 15.644375000000014 134.724375 15.644375000000014 V-11.848749999999988 H20.075625000000002 V15.644375000000014 Q20.075625000000002 15.644375000000014 20.075625000000002 15.644375000000014 Q20.075625000000002 15.644375000000014 20.075625000000002 15.644375000000014 Z M30.073125 -67.72187499999998 V-76.99374999999999 H39.345 V-67.72187499999998 H30.073125 Z M30.073125 -30.63437499999999 V-39.906249999999986 H39.345 V-30.63437499999999 H30.073125 Z M30.073125 6.533750000000012 V-2.7381249999999824 H39.345 V6.533750000000012 H30.073125 Z"/></g><g id="Light-L" transform="matrix(1 0 0 1 1082.77 1556)"><path d="M23.02182375 -56.31634 H131.77817625 V-81.91784125 Q131.77817625 -82.66201 131.15800875000002 -83.28233875 Q130.53784125 -83.90250624999999 129.79351125000002 -83.90250624999999 H25.006488750000003 Q24.26215875 -83.90250624999999 23.64199125 -83.28233875 Q23.02182375 -82.66201 23.02182375 -81.91784125 V-56.31634 Z M23.02182375 -21.492789999999985 H131.77817625 V-49.07895624999999 H23.02182375 V-21.492789999999985 Z M25.006488750000003 13.442506250000015 H129.79351125000002 Q130.53784125 13.442506250000015 131.15800875000002 12.822338750000014 Q131.77817625 12.202010000000012 131.77817625 11.457841250000016 V-14.14365999999999 H23.02182375 V11.457841250000016 Q23.02182375 12.202010000000012 23.64199125 12.822338750000014 Q24.26215875 13.442506250000015 25.006488750000003 13.442506250000015 Z M34.56990375 -65.58208749999999 V-74.63691999999999 H43.62457500000001 V-65.58208749999999 H34.56990375 Z M34.56990375 -30.758376249999984 V-39.81320874999999 H43.62457500000001 V-30.758376249999984 H34.56990375 Z M34.56990375 4.17692000000001 V-4.8779124999999794 H43.62457500000001 V4.17692000000001 H34.56990375 Z"/></g><g id="Thin-L" transform="matrix(1 0 0 1 787.282 1556)"><path d="M25.9673775 -54.02191374999998 H128.8326225 V-77.73179124999999 Q128.8326225 -79.22028999999999 127.5922875 -80.460625 Q126.35179125 -81.70112124999999 124.86345375 -81.70112124999999 H29.93654625 Q28.448208750000003 -81.70112124999999 27.2077125 -80.460625 Q25.9673775 -79.22028999999999 25.9673775 -77.73179124999999 V-54.02191374999998 Z M25.9673775 -21.461668749999987 H128.8326225 V-49.14087624999999 H25.9673775 V-21.461668749999987 Z M29.93654625 11.240960000000015 H124.86345375 Q126.35179125 11.240960000000015 127.5922875 10.000625000000014 Q128.8326225 8.760290000000012 128.8326225 7.271791250000014 V-16.43808624999999 H25.9673775 V7.271791250000014 Q25.9673775 8.760290000000012 27.2077125 10.000625000000014 Q28.448208750000003 11.240960000000015 29.93654625 11.240960000000015 Z M39.06587625 -63.442622499999985 V-72.28025124999999 H47.90366625 V-63.442622499999985 H39.06587625 Z M39.06587625 -30.88237749999999 V-39.72016749999999 H47.90366625 V-30.88237749999999 H39.06587625 Z M39.06587625 1.8202512500000125 V-7.017377499999988 H47.90366625 V1.8202512500000125 H39.06587625 Z"/></g><g id="Ultralight-L" transform="matrix(1 0 0 1 491.205 1556)"><path d="M27.735 -52.64499999999998 H127.065 V-75.21999999999998 Q127.065 -77.15499999999999 125.4525 -78.76749999999998 Q123.84 -80.37999999999998 121.905 -80.37999999999998 H32.895 Q30.96 -80.37999999999998 29.3475 -78.76749999999998 Q27.735 -77.15499999999999 27.735 -75.21999999999998 V-52.64499999999998 Z M27.735 -21.443124999999988 H127.065 V-49.17812499999998 H27.735 V-21.443124999999988 Z M32.895 9.920000000000016 H121.905 Q123.84 9.920000000000016 125.4525 8.307500000000012 Q127.065 6.6950000000000145 127.065 4.760000000000012 V-17.814999999999984 H27.735 V4.760000000000012 Q27.735 6.6950000000000145 29.3475 8.307500000000012 Q30.96 9.920000000000016 32.895 9.920000000000016 Z M41.76375 -62.15874999999998 V-70.86625 H50.471250000000005 V-62.15874999999998 H41.76375 Z M41.76375 -30.956874999999982 V-39.66437499999999 H50.471250000000005 V-30.956874999999982 H41.76375 Z M41.76375 0.4062500000000142 V-8.301249999999989 H50.471250000000005 V0.4062500000000142 H41.76375 Z"/></g><g id="Bold-M" transform="matrix(1 0 0 1 2281.8 1126)"><path d="M11.875 -55.97999999999999 H108.125 V-78.35499999999999 Q108.125 -78.35499999999999 108.125 -78.35499999999999 Q108.125 -78.35499999999999 108.125 -78.35499999999999 H11.875 Q11.875 -78.35499999999999 11.875 -78.35499999999999 Q11.875 -78.35499999999999 11.875 -78.35499999999999 V-55.97999999999999 Z M11.875 -24.04249999999999 H108.125 V-46.41749999999999 H11.875 V-24.04249999999999 Z M11.875 7.89500000000001 H108.125 Q108.125 7.89500000000001 108.125 7.89500000000001 Q108.125 7.89500000000001 108.125 7.89500000000001 V-14.47999999999999 H11.875 V7.89500000000001 Q11.875 7.89500000000001 11.875 7.89500000000001 Q11.875 7.89500000000001 11.875 7.89500000000001 Z M16.625 -62.47999999999999 V-71.72999999999999 H26.0 V-62.47999999999999 H16.625 Z M16.625 -30.54249999999999 V-39.91749999999999 H26.0 V-30.54249999999999 H16.625 Z M16.625 1.3950000000000102 V-7.85499999999999 H26.0 V1.3950000000000102 H16.625 Z"/></g><g id="Semibold-M" transform="matrix(1 0 0 1 1985.97 1126)"><path d="M13.72275 -55.32787499999999 H106.27725 V-76.50724999999998 Q106.27725 -76.50724999999998 106.27725 -76.50724999999998 Q106.27725 -76.50724999999998 106.27725 -76.50724999999998 H13.72275 Q13.72275 -76.50724999999998 13.72275 -76.50724999999998 Q13.72275 -76.50724999999998 13.72275 -76.50724999999998 V-55.32787499999999 Z M13.72275 -24.640249999999988 H106.27725 V-45.819749999999985 H13.72275 V-24.640249999999988 Z M13.72275 6.047250000000009 H106.27725 Q106.27725 6.047250000000009 106.27725 6.047250000000009 Q106.27725 6.047250000000009 106.27725 6.047250000000009 V-15.132124999999988 H13.72275 V6.047250000000009 Q13.72275 6.047250000000009 13.72275 6.047250000000009 Q13.72275 6.047250000000009 13.72275 6.047250000000009 Z M18.47275 -61.23012499999999 V-70.53437499999998 H27.84775 V-61.23012499999999 H18.47275 Z M18.47275 -30.54249999999999 V-39.91749999999999 H27.84775 V-30.54249999999999 H18.47275 Z M18.47275 0.14512500000001083 V-9.159249999999993 H27.84775 V0.14512500000001083 H18.47275 Z"/></g><g id="Medium-M" transform="matrix(1 0 0 1 1689.91 1126)"><path d="M15.108625 -54.83874999999999 H104.891375 V-75.12137499999999 Q104.891375 -75.12137499999999 104.891375 -75.12137499999999 Q104.891375 -75.12137499999999 104.891375 -75.12137499999999 H15.108625 Q15.108625 -75.12137499999999 15.108625 -75.12137499999999 Q15.108625 -75.12137499999999 15.108625 -75.12137499999999 V-54.83874999999999 Z M15.108625 -25.08874999999999 H104.891375 V-45.37124999999999 H15.108625 V-25.08874999999999 Z M15.108625 4.66137500000001 H104.891375 Q104.891375 4.66137500000001 104.891375 4.66137500000001 Q104.891375 4.66137500000001 104.891375 4.66137500000001 V-15.62124999999999 H15.108625 V4.66137500000001 Q15.108625 4.66137500000001 15.108625 4.66137500000001 Q15.108625 4.66137500000001 15.108625 4.66137500000001 Z M19.858625 -60.29249999999999 V-69.63762499999999 H29.233625 V-60.29249999999999 H19.858625 Z M19.858625 -30.54249999999999 V-39.91749999999999 H29.233625 V-30.54249999999999 H19.858625 Z M19.858625 -0.7924999999999898 V-10.137624999999993 H29.233625 V-0.7924999999999898 H19.858625 Z"/></g><g id="Regular-M" transform="matrix(1 0 0 1 1394.06 1126)"><path d="M16.125 -54.47999999999999 H103.875 V-74.10499999999999 Q103.875 -74.10499999999999 103.875 -74.10499999999999 Q103.875 -74.10499999999999 103.875 -74.10499999999999 H16.125 Q16.125 -74.10499999999999 16.125 -74.10499999999999 Q16.125 -74.10499999999999 16.125 -74.10499999999999 V-54.47999999999999 Z M16.125 -25.41749999999999 H103.875 V-45.04249999999999 H16.125 V-25.41749999999999 Z M16.125 3.6450000000000102 H103.875 Q103.875 3.6450000000000102 103.875 3.6450000000000102 Q103.875 3.6450000000000102 103.875 3.6450000000000102 V-15.97999999999999 H16.125 V3.6450000000000102 Q16.125 3.6450000000000102 16.125 3.6450000000000102 Q16.125 3.6450000000000102 16.125 3.6450000000000102 Z M20.875 -59.60499999999999 V-68.97999999999999 H30.25 V-59.60499999999999 H20.875 Z M20.875 -30.54249999999999 V-39.91749999999999 H30.25 V-30.54249999999999 H20.875 Z M20.875 -1.4799999999999898 V-10.85499999999999 H30.25 V-1.4799999999999898 H20.875 Z"/></g><g id="Light-M" transform="matrix(1 0 0 1 1098.18 1126)"><path d="M18.408875 -52.316374999999994 H101.591125 V-70.859625 Q101.591125 -71.4365 101.110375 -71.91737499999999 Q100.629625 -72.398125 100.052625 -72.398125 H19.947375 Q19.370375 -72.398125 18.889625 -71.91737499999999 Q18.408875 -71.4365 18.408875 -70.859625 V-52.316374999999994 Z M18.408875 -25.20112499999999 H101.591125 V-45.28287499999999 H18.408875 V-25.20112499999999 Z M19.947375 1.93812500000001 H100.052625 Q100.629625 1.93812500000001 101.110375 1.4573750000000096 Q101.591125 0.9765000000000086 101.591125 0.399625000000011 V-18.143624999999993 H18.408875 V0.399625000000011 Q18.408875 0.9765000000000086 18.889625 1.4573750000000096 Q19.370375 1.93812500000001 19.947375 1.93812500000001 Z M25.130125 -58.09049999999999 V-66.624 H33.66375 V-58.09049999999999 H25.130125 Z M25.130125 -30.97524999999999 V-39.50887499999999 H33.66375 V-30.97524999999999 H25.130125 Z M25.130125 -3.8359999999999914 V-12.369499999999988 H33.66375 V-3.8359999999999914 H25.130125 Z"/></g><g id="Thin-M" transform="matrix(1 0 0 1 802.565 1126)"><path d="M20.69225 -50.15312499999999 H99.30775 V-67.61462499999999 Q99.30775 -68.76849999999999 98.34625 -69.72999999999999 Q97.384625 -70.69162499999999 96.230875 -70.69162499999999 H23.769125 Q22.615375 -70.69162499999999 21.65375 -69.72999999999999 Q20.69225 -68.76849999999999 20.69225 -67.61462499999999 V-50.15312499999999 Z M20.69225 -24.98474999999999 H99.30775 V-45.52324999999999 H20.69225 V-24.98474999999999 Z M23.769125 0.23150000000001114 H96.230875 Q97.384625 0.23150000000001114 98.34625 -0.7299999999999898 Q99.30775 -1.6914999999999907 99.30775 -2.84537499999999 V-20.30687499999999 H20.69225 V-2.84537499999999 Q20.69225 -1.6914999999999907 21.65375 -0.7299999999999898 Q22.615375 0.23150000000001114 23.769125 0.23150000000001114 Z M29.384625 -56.57612499999999 V-64.26849999999999 H37.076875 V-56.57612499999999 H29.384625 Z M29.384625 -31.40787499999999 V-39.10024999999999 H37.076875 V-31.40787499999999 H29.384625 Z M29.384625 -6.191499999999991 V-13.883874999999989 H37.076875 V-6.191499999999991 H29.384625 Z"/></g><g id="Ultralight-M" transform="matrix(1 0 0 1 506.415 1126)"><path d="M22.0625 -48.85499999999999 H97.9375 V-65.66749999999999 Q97.9375 -67.16749999999999 96.6875 -68.41749999999999 Q95.4375 -69.66749999999999 93.9375 -69.66749999999999 H26.0625 Q24.5625 -69.66749999999999 23.3125 -68.41749999999999 Q22.0625 -67.16749999999999 22.0625 -65.66749999999999 V-48.85499999999999 Z M22.0625 -24.85499999999999 H97.9375 V-45.66749999999999 H22.0625 V-24.85499999999999 Z M26.0625 -0.7924999999999898 H93.9375 Q95.4375 -0.7924999999999898 96.6875 -2.0424999999999898 Q97.9375 -3.2924999999999898 97.9375 -4.79249999999999 V-21.60499999999999 H22.0625 V-4.79249999999999 Q22.0625 -3.2924999999999898 23.3125 -2.0424999999999898 Q24.5625 -0.7924999999999898 26.0625 -0.7924999999999898 Z M31.9375 -55.66749999999999 V-62.85499999999999 H39.125 V-55.66749999999999 H31.9375 Z M31.9375 -31.66749999999999 V-38.85499999999999 H39.125 V-31.66749999999999 H31.9375 Z M31.9375 -7.60499999999999 V-14.79249999999999 H39.125 V-7.60499999999999 H31.9375 Z"/></g><g id="Bold-S" transform="matrix(1 0 0 1 2294.23 696)"><path d="M16.470375 -50.81274999999999 H82.943625 V-68.466625 Q82.943625 -68.466625 82.943625 -68.466625 Q82.943625 -68.466625 82.943625 -68.466625 H16.470375 Q16.470375 -68.466625 16.470375 -68.466625 Q16.470375 -68.466625 16.470375 -68.466625 V-50.81274999999999 Z M16.470375 -26.40306249999999 H82.943625 V-44.05693749999999 H16.470375 V-26.40306249999999 Z M16.470375 -1.9933749999999861 H82.943625 Q82.943625 -1.9933749999999861 82.943625 -1.9933749999999861 Q82.943625 -1.9933749999999861 82.943625 -1.9933749999999861 V-19.64724999999999 H16.470375 V-1.9933749999999861 Q16.470375 -1.9933749999999861 16.470375 -1.9933749999999861 Q16.470375 -1.9933749999999861 16.470375 -1.9933749999999861 Z M21.007125000000002 -56.33574999999999 V-62.844999999999985 H27.615000000000002 V-56.33574999999999 H21.007125000000002 Z M21.007125000000002 -31.926062499999986 V-38.533937499999986 H27.615000000000002 V-31.926062499999986 H21.007125000000002 Z M21.007125000000002 -7.516374999999986 V-14.025624999999987 H27.615000000000002 V-7.516374999999986 H21.007125000000002 Z"/></g><g id="Semibold-S" transform="matrix(1 0 0 1 1998.1 696)"><path d="M17.928249750000003 -50.29822337499999 H81.48575025 V-67.00875024999999 Q81.48575025 -67.00875024999999 81.48575025 -67.00875024999999 Q81.48575025 -67.00875024999999 81.48575025 -67.00875024999999 H17.928249750000003 Q17.928249750000003 -67.00875024999999 17.928249750000003 -67.00875024999999 Q17.928249750000003 -67.00875024999999 17.928249750000003 -67.00875024999999 V-50.29822337499999 Z M17.928249750000003 -26.874687249999987 H81.48575025 V-43.585312749999986 H17.928249750000003 V-26.874687249999987 Z M17.928249750000003 -3.451249749999988 H81.48575025 Q81.48575025 -3.451249749999988 81.48575025 -3.451249749999988 Q81.48575025 -3.451249749999988 81.48575025 -3.451249749999988 V-20.161776624999987 H17.928249750000003 V-3.451249749999988 Q17.928249750000003 -3.451249749999988 17.928249750000003 -3.451249749999988 Q17.928249750000003 -3.451249749999988 17.928249750000003 -3.451249749999988 Z M22.46499975 -55.349598624999985 V-61.901651874999985 H29.07287475 V-55.349598624999985 H22.46499975 Z M22.46499975 -31.926062499999986 V-38.533937499999986 H29.07287475 V-31.926062499999986 H22.46499975 Z M22.46499975 -8.502526374999988 V-15.054678249999991 H29.07287475 V-8.502526374999988 H22.46499975 Z"/></g><g id="Medium-S" transform="matrix(1 0 0 1 1701.85 696)"><path d="M19.021705125 -49.91230374999999 H80.392294875 V-65.91529487499999 Q80.392294875 -65.91529487499999 80.392294875 -65.91529487499999 Q80.392294875 -65.91529487499999 80.392294875 -65.91529487499999 H19.021705125 Q19.021705125 -65.91529487499999 19.021705125 -65.91529487499999 Q19.021705125 -65.91529487499999 19.021705125 -65.91529487499999 V-49.91230374999999 Z M19.021705125 -27.22855374999999 H80.392294875 V-43.23144624999999 H19.021705125 V-27.22855374999999 Z M19.021705125 -4.544705124999986 H80.392294875 Q80.392294875 -4.544705124999986 80.392294875 -4.544705124999986 Q80.392294875 -4.544705124999986 80.392294875 -4.544705124999986 V-20.547696249999987 H19.021705125 V-4.544705124999986 Q19.021705125 -4.544705124999986 19.021705125 -4.544705124999986 Q19.021705125 -4.544705124999986 19.021705125 -4.544705124999986 Z M23.558455125000002 -54.60981249999999 V-61.19411612499998 H30.166330125000005 V-54.60981249999999 H23.558455125000002 Z M23.558455125000002 -31.926062499999986 V-38.533937499999986 H30.166330125000005 V-31.926062499999986 H23.558455125000002 Z M23.558455125000002 -9.242312499999986 V-15.82661612499999 H30.166330125000005 V-9.242312499999986 H23.558455125000002 Z"/></g><g id="Regular-S" transform="matrix(1 0 0 1 1405.73 696)"><path d="M19.823625 -49.62924999999999 H79.59037500000001 V-65.11337499999999 Q79.59037500000001 -65.11337499999999 79.59037500000001 -65.11337499999999 Q79.59037500000001 -65.11337499999999 79.59037500000001 -65.11337499999999 H19.823625 Q19.823625 -65.11337499999999 19.823625 -65.11337499999999 Q19.823625 -65.11337499999999 19.823625 -65.11337499999999 V-49.62924999999999 Z M19.823625 -27.487937499999987 H79.59037500000001 V-42.972062499999986 H19.823625 V-27.487937499999987 Z M19.823625 -5.346624999999989 H79.59037500000001 Q79.59037500000001 -5.346624999999989 79.59037500000001 -5.346624999999989 Q79.59037500000001 -5.346624999999989 79.59037500000001 -5.346624999999989 V-20.830749999999988 H19.823625 V-5.346624999999989 Q19.823625 -5.346624999999989 19.823625 -5.346624999999989 Q19.823625 -5.346624999999989 19.823625 -5.346624999999989 Z M24.360375 -54.067374999999984 V-60.67524999999999 H30.96825 V-54.067374999999984 H24.360375 Z M24.360375 -31.926062499999986 V-38.533937499999986 H30.96825 V-31.926062499999986 H24.360375 Z M24.360375 -9.784749999999988 V-16.39262499999999 H30.96825 V-9.784749999999988 H24.360375 Z"/></g><g id="Light-S" transform="matrix(1 0 0 1 1109.75 696)"><path d="M21.625602375 -47.922149874999995 H77.788397625 V-62.552774125 Q77.788397625 -63.00792849999999 77.409085875 -63.387338875 Q77.029774125 -63.766650625 76.574521125 -63.766650625 H22.839478875 Q22.384225875000002 -63.766650625 22.004914125 -63.387338875 Q21.625602375 -63.00792849999999 21.625602375 -62.552774125 V-47.922149874999995 Z M21.625602375 -27.31721762499999 H77.788397625 V-43.16171837499999 H21.625602375 V-27.31721762499999 Z M22.839478875 -6.693349374999986 H76.574521125 Q77.029774125 -6.693349374999986 77.409085875 -7.072661124999989 Q77.788397625 -7.452071499999988 77.788397625 -7.9072258749999875 V-22.53785012499999 H21.625602375 V-7.9072258749999875 Q21.625602375 -7.452071499999988 22.004914125 -7.072661124999989 Q22.384225875000002 -6.693349374999986 22.839478875 -6.693349374999986 Z M27.717668625 -52.8724345 V-58.81636599999999 H33.66169875 V-52.8724345 H27.717668625 Z M27.717668625 -32.267502249999986 V-38.21153237499999 H33.66169875 V-32.267502249999986 H27.717668625 Z M27.717668625 -11.643633999999988 V-17.587565499999986 H33.66169875 V-11.643633999999988 H27.717668625 Z"/></g><g id="Thin-S" transform="matrix(1 0 0 1 814.015 696)"><path d="M23.42718525 -46.21534562499999 H75.98681475000001 V-59.992469124999985 Q75.98681475000001 -60.90287649999999 75.22819125 -61.66149999999999 Q74.469469125 -62.420222124999995 73.559160375 -62.420222124999995 H25.854839625000004 Q24.944530875 -62.420222124999995 24.18580875 -61.66149999999999 Q23.42718525 -60.90287649999999 23.42718525 -59.992469124999985 V-46.21534562499999 Z M23.42718525 -27.146497749999988 H75.98681475000001 V-43.35137424999999 H23.42718525 V-27.146497749999988 Z M25.854839625000004 -8.039876499999988 H73.559160375 Q74.469469125 -8.039876499999988 75.22819125 -8.798499999999986 Q75.98681475000001 -9.557123499999989 75.98681475000001 -10.467530874999987 V-24.24465437499999 H23.42718525 V-10.467530874999987 Q23.42718525 -9.557123499999989 24.18580875 -8.798499999999986 Q24.944530875 -8.039876499999988 25.854839625000004 -8.039876499999988 Z M31.074469125 -51.67759262499999 V-56.95787649999998 H36.354654375 V-51.67759262499999 H31.074469125 Z M31.074469125 -32.608843374999985 V-37.88912724999999 H36.354654375 V-32.608843374999985 H31.074469125 Z M31.074469125 -13.502123499999989 V-18.782407374999988 H36.354654375 V-13.502123499999989 H31.074469125 Z"/></g><g id="Ultralight-S" transform="matrix(1 0 0 1 517.792 696)"><path d="M24.508312500000002 -45.191124999999985 H74.9056875 V-58.456187499999984 Q74.9056875 -59.639687499999994 73.9194375 -60.62593749999999 Q72.9331875 -61.61218749999999 71.74968750000001 -61.61218749999999 H27.6643125 Q26.480812500000003 -61.61218749999999 25.4945625 -60.62593749999999 Q24.508312500000002 -59.639687499999994 24.508312500000002 -58.456187499999984 V-45.191124999999985 Z M24.508312500000002 -27.044124999999987 H74.9056875 V-43.46518749999999 H24.508312500000002 V-27.044124999999987 Z M27.6643125 -8.847812499999986 H71.74968750000001 Q72.9331875 -8.847812499999986 73.9194375 -9.834062499999987 Q74.9056875 -10.820312499999986 74.9056875 -12.003812499999988 V-25.268874999999987 H24.508312500000002 V-12.003812499999988 Q24.508312500000002 -10.820312499999986 25.4945625 -9.834062499999987 Q26.480812500000003 -8.847812499999986 27.6643125 -8.847812499999986 Z M33.0886875 -50.96068749999999 V-55.842624999999984 H37.970625 V-50.96068749999999 H33.0886875 Z M33.0886875 -32.813687499999986 V-37.695624999999986 H37.970625 V-32.813687499999986 H33.0886875 Z M33.0886875 -14.617374999999988 V-19.499312499999988 H37.970625 V-14.617374999999988 H33.0886875 Z"/></g></g></svg>