<svg xmlns="http://www.w3.org/2000/svg" version="1.1" width="3300" height="2000"><g id="Notes"><style>
    text {
      font-family: monospace;
      text-anchor: middle;
    }
    text.emphasis {
      font-weight:bold;
    }
    text.lanchor {
      text-anchor: start;
    }
  </style><rect height="2200" id="artboard" fill="white" width="3300" x="0" y="0"/><line id="" style="fill:none;stroke:black;stroke-width:0.5;" x1="263" x2="3036" y1="292" y2="292"/><text class="lanchor emphasis" transform="matrix(1 0 0 1 263 322)">Weight/Scale Variations</text><text transform="matrix(1 0 0 1 559.711 322)">Ultralight</text><text transform="matrix(1 0 0 1 856.422 322)">Thin</text><text transform="matrix(1 0 0 1 1153.13 322)">Light</text><text transform="matrix(1 0 0 1 1449.84 322)">Regular</text><text transform="matrix(1 0 0 1 1746.56 322)">Medium</text><text transform="matrix(1 0 0 1 2043.27 322)">Semibold</text><text transform="matrix(1 0 0 1 2339.98 322)">Bold</text><text transform="matrix(1 0 0 1 2636.69 322)">Heavy</text><text transform="matrix(1 0 0 1 2933.4 322)">Black</text><text id="template-version" style="text-anchor: end;" transform="matrix(1 0 0 1 3036 1933)">Template v.1.0</text><text class="lanchor" transform="matrix(1 0 0 1 263 726)">Small</text><text class="lanchor" transform="matrix(1 0 0 1 263 1156)">Medium</text><text class="lanchor" transform="matrix(1 0 0 1 263 1586)">Large</text></g><g id="Guides"><g id="H-reference" style="fill:#27AAE1;stroke:none;" transform="matrix(1 0 0 1 339 696)"><path d="M 54.9316 0 L 57.666 0 L 30.5664 -70.459 L 28.0762 -70.459 L 0.976562 0 L 3.66211 0 L 12.9395 -24.4629 L 45.7031 -24.4629 Z M 29.1992 -67.0898 L 29.4434 -67.0898 L 44.8242 -26.709 L 13.8184 -26.709 Z"/></g><line id="Baseline-S" style="fill:none;stroke:#27AAE1;opacity:1;stroke-width:0.577;" x1="263" x2="3036" y1="696" y2="696"/><line id="Capline-S" style="fill:none;stroke:#27AAE1;opacity:1;stroke-width:0.577;" x1="263" x2="3036" y1="625.541" y2="625.541"/><g id="H-reference" style="fill:#27AAE1;stroke:none;" transform="matrix(1 0 0 1 339 1126)"><path d="M 54.9316 0 L 57.666 0 L 30.5664 -70.459 L 28.0762 -70.459 L 0.976562 0 L 3.66211 0 L 12.9395 -24.4629 L 45.7031 -24.4629 Z M 29.1992 -67.0898 L 29.4434 -67.0898 L 44.8242 -26.709 L 13.8184 -26.709 Z"/></g><line id="Baseline-M" style="fill:none;stroke:#27AAE1;opacity:1;stroke-width:0.577;" x1="263" x2="3036" y1="1126" y2="1126"/><line id="Capline-M" style="fill:none;stroke:#27AAE1;opacity:1;stroke-width:0.577;" x1="263" x2="3036" y1="1055.54" y2="1055.54"/><g id="H-reference" style="fill:#27AAE1;stroke:none;" transform="matrix(1 0 0 1 339 1556)"><path d="M 54.9316 0 L 57.666 0 L 30.5664 -70.459 L 28.0762 -70.459 L 0.976562 0 L 3.66211 0 L 12.9395 -24.4629 L 45.7031 -24.4629 Z M 29.1992 -67.0898 L 29.4434 -67.0898 L 44.8242 -26.709 L 13.8184 -26.709 Z"/></g><line id="Baseline-L" style="fill:none;stroke:#27AAE1;opacity:1;stroke-width:0.577;" x1="263" x2="3036" y1="1556" y2="1556"/><line id="Capline-L" style="fill:none;stroke:#27AAE1;opacity:1;stroke-width:0.577;" x1="263" x2="3036" y1="1485.54" y2="1485.54"/><rect height="119.336" id="left-margin" style="fill:darkred;stroke:none;opacity:0.4;" width="12.4512" x="1394.06" y="1030.79"/><rect height="119.336" id="right-margin" style="fill:darkgreen;stroke:none;opacity:0.4;" width="12.4512" x="1502.5112" y="1030.79"/><rect x="1406.5112" y="1045" width="96" height="96" fill="none" stroke="blue" stroke-dasharray="5"/><rect x="1394.06" y="1030.79" width="120.9024" height="119.336" fill="none" stroke="blue"/></g><g id="Symbols"><g id="Bold-L" transform="matrix(1 0 0 1 2266 1556)"><path d="M67.883 -11.607 Q77.803 -11.607 84.697 -18.457 Q91.59 -25.307 91.59 -35.308 Q91.59 -45.308 84.699 -52.161 Q77.809 -59.014 67.889 -59.014 Q57.889 -59.014 51.036 -52.164 Q44.183 -45.314 44.183 -35.314 Q44.183 -25.313 51.033 -18.46 Q57.883 -11.607 67.883 -11.607 Z M67.835 -22.652 Q62.242 -22.652 58.735 -26.251 Q55.228 -29.85 55.228 -35.362 Q55.228 -40.874 58.787 -44.421 Q62.345 -47.969 67.938 -47.969 Q73.449 -47.969 76.997 -44.37 Q80.544 -40.771 80.544 -35.259 Q80.544 -29.747 76.945 -26.2 Q73.347 -22.652 67.835 -22.652 Z M114.649 -38.777 Q112.202 -38.777 110.523 -40.305 Q108.844 -41.833 108.844 -44.288 Q108.844 -46.743 110.443 -48.364 Q112.041 -49.984 114.568 -49.984 Q116.601 -49.984 118.286 -50.791 Q119.97 -51.597 121.018 -53.935 Q122.873 -58.369 127.369 -61.151 Q131.865 -63.932 137.143 -63.932 Q139.53 -63.932 141.158 -62.296 Q142.787 -60.659 142.787 -58.261 Q142.787 -55.725 141.227 -54.225 Q139.667 -52.726 137.143 -52.726 Q135.179 -52.726 133.394 -51.637 Q131.608 -50.549 130.733 -48.775 Q128.436 -44.099 124.147 -41.438 Q119.859 -38.777 114.649 -38.777 Z M114.649 -12.494 Q112.202 -12.494 110.523 -14.13 Q108.844 -15.767 108.844 -18.166 Q108.844 -20.621 110.443 -22.161 Q112.041 -23.701 114.568 -23.701 Q116.601 -23.701 118.324 -24.587 Q120.046 -25.474 121.018 -27.812 Q122.873 -32.247 127.322 -34.787 Q131.771 -37.326 136.901 -37.326 Q139.348 -37.326 141.067 -35.758 Q142.787 -34.19 142.787 -31.735 Q142.787 -29.28 141.148 -27.7 Q139.509 -26.119 136.982 -26.119 Q134.98 -26.119 133.28 -25.353 Q131.58 -24.587 130.733 -22.652 Q128.436 -18.057 124.147 -15.275 Q119.859 -12.494 114.649 -12.494 Z M30.879 25.964 Q24.552 25.964 20.339 21.751 Q16.125 17.537 16.125 11.21 V-69.254 Q16.125 -80.223 24.321 -88.525 Q32.518 -96.827 43.538 -96.827 H92.235 Q103.094 -96.827 111.451 -88.525 Q119.809 -80.223 119.809 -69.254 V-65.867 H110.726 Q107.473 -65.867 105.377 -63.711 Q103.281 -61.554 103.281 -58.45 V-6.931 Q103.281 -3.827 105.397 -1.71 Q107.513 0.406 110.654 0.406 H119.809 V11.21 Q119.809 17.537 115.507 21.751 Q111.206 25.964 104.893 25.964 H30.879 Z"/></g><g id="Semibold-L" transform="matrix(1 0 0 1 1970.27 1556)"><path d="M67.883 -11.607 Q77.803 -11.607 84.697 -18.457 Q91.59 -25.307 91.59 -35.308 Q91.59 -45.308 84.699 -52.161 Q77.809 -59.014 67.889 -59.014 Q57.889 -59.014 51.036 -52.164 Q44.183 -45.314 44.183 -35.314 Q44.183 -25.313 51.033 -18.46 Q57.883 -11.607 67.883 -11.607 Z M67.862 -21.881 Q61.962 -21.881 58.209 -25.699 Q54.457 -29.516 54.457 -35.335 Q54.457 -41.154 58.234 -44.947 Q62.011 -48.74 67.911 -48.74 Q73.73 -48.74 77.523 -44.922 Q81.315 -41.105 81.315 -35.286 Q81.315 -29.467 77.498 -25.674 Q73.68 -21.881 67.862 -21.881 Z M114.614 -38.848 Q112.365 -38.848 110.815 -40.284 Q109.264 -41.721 109.264 -43.973 Q109.264 -46.225 110.769 -47.719 Q112.274 -49.213 114.568 -49.213 Q116.711 -49.213 118.446 -50.125 Q120.18 -51.036 121.299 -53.444 Q123.153 -57.738 127.587 -60.45 Q132.022 -63.161 137.143 -63.161 Q139.351 -63.161 140.858 -61.645 Q142.366 -60.13 142.366 -57.91 Q142.366 -55.613 140.897 -54.204 Q139.428 -52.796 137.143 -52.796 Q135.063 -52.796 133.23 -51.672 Q131.397 -50.549 130.4 -48.635 Q128.155 -44.099 123.943 -41.473 Q119.732 -38.848 114.614 -38.848 Z M114.614 -13.826 Q112.365 -13.826 110.815 -15.342 Q109.264 -16.857 109.264 -19.077 Q109.264 -21.294 110.769 -22.742 Q112.274 -24.191 114.568 -24.191 Q116.711 -24.191 118.467 -25.148 Q120.223 -26.105 121.299 -28.514 Q123.153 -32.878 127.526 -35.347 Q131.898 -37.817 136.936 -37.817 Q139.185 -37.817 140.776 -36.34 Q142.366 -34.863 142.366 -32.611 Q142.366 -30.359 140.821 -28.905 Q139.276 -27.451 136.982 -27.451 Q134.87 -27.451 133.12 -26.615 Q131.37 -25.779 130.4 -23.704 Q128.155 -19.249 123.943 -16.537 Q119.732 -13.826 114.614 -13.826 Z M30.248 24.212 Q24.976 24.212 21.427 20.662 Q17.878 17.113 17.878 11.841 V-69.254 Q17.878 -79.52 25.559 -87.262 Q33.241 -95.005 43.538 -95.005 H92.235 Q102.391 -95.005 110.189 -87.262 Q117.986 -79.52 117.986 -69.254 V-64.255 H110.149 Q107.403 -64.255 105.657 -62.449 Q103.912 -60.643 103.912 -58.029 V-7.351 Q103.912 -4.738 105.677 -2.972 Q107.443 -1.206 110.077 -1.206 H117.986 V11.841 Q117.986 17.113 114.369 20.662 Q110.753 24.212 105.524 24.212 H30.248 Z"/></g><g id="Medium-L" transform="matrix(1 0 0 1 1674.31 1556)"><path d="M67.883 -11.607 Q77.803 -11.607 84.697 -18.457 Q91.59 -25.307 91.59 -35.308 Q91.59 -45.308 84.699 -52.161 Q77.809 -59.014 67.889 -59.014 Q57.889 -59.014 51.036 -52.164 Q44.183 -45.314 44.183 -35.314 Q44.183 -25.313 51.033 -18.46 Q57.883 -11.607 67.883 -11.607 Z M67.882 -21.303 Q61.752 -21.303 57.815 -25.285 Q53.878 -29.266 53.878 -35.315 Q53.878 -41.364 57.82 -45.341 Q61.761 -49.318 67.891 -49.318 Q73.94 -49.318 77.917 -45.337 Q81.894 -41.355 81.894 -35.306 Q81.894 -29.257 77.912 -25.28 Q73.931 -21.303 67.882 -21.303 Z M114.587 -38.9 Q112.487 -38.9 111.033 -40.269 Q109.58 -41.637 109.58 -43.736 Q109.58 -45.835 111.014 -47.235 Q112.448 -48.635 114.568 -48.635 Q116.793 -48.635 118.566 -49.625 Q120.338 -50.615 121.509 -53.076 Q123.363 -57.265 127.751 -59.924 Q132.139 -62.583 137.143 -62.583 Q139.217 -62.583 140.634 -61.158 Q142.051 -59.733 142.051 -57.647 Q142.051 -55.529 140.65 -54.188 Q139.25 -52.848 137.143 -52.848 Q134.975 -52.848 133.107 -51.698 Q131.24 -50.549 130.151 -48.53 Q127.945 -44.099 123.79 -41.499 Q119.636 -38.9 114.587 -38.9 Z M114.587 -14.825 Q112.487 -14.825 111.033 -16.25 Q109.58 -17.675 109.58 -19.761 Q109.58 -21.799 111.014 -23.179 Q112.448 -24.559 114.568 -24.559 Q116.793 -24.559 118.575 -25.569 Q120.356 -26.579 121.509 -29.039 Q123.363 -33.351 127.678 -35.768 Q131.994 -38.185 136.963 -38.185 Q139.063 -38.185 140.557 -36.776 Q142.051 -35.368 142.051 -33.268 Q142.051 -31.169 140.576 -29.81 Q139.102 -28.45 136.982 -28.45 Q134.788 -28.45 133 -27.562 Q131.212 -26.673 130.151 -24.493 Q127.945 -20.143 123.79 -17.484 Q119.636 -14.825 114.587 -14.825 Z M29.775 22.897 Q25.295 22.897 22.243 19.846 Q19.192 16.795 19.192 12.314 V-69.254 Q19.192 -78.993 26.488 -86.315 Q33.783 -93.638 43.538 -93.638 H92.235 Q101.864 -93.638 109.242 -86.315 Q116.619 -78.993 116.619 -69.254 V-63.046 H109.717 Q107.35 -63.046 105.868 -61.502 Q104.385 -59.959 104.385 -57.714 V-7.667 Q104.385 -5.421 105.888 -3.919 Q107.391 -2.416 109.645 -2.416 H116.619 V12.314 Q116.619 16.795 113.516 19.846 Q110.413 22.897 105.997 22.897 H29.775 Z"/></g><g id="Regular-L" transform="matrix(1 0 0 1 1378.56 1556)"><path d="M67.883 -11.607 Q77.803 -11.607 84.697 -18.457 Q91.59 -25.307 91.59 -35.308 Q91.59 -45.308 84.699 -52.161 Q77.809 -59.014 67.889 -59.014 Q57.889 -59.014 51.036 -52.164 Q44.183 -45.314 44.183 -35.314 Q44.183 -25.313 51.033 -18.46 Q57.883 -11.607 67.883 -11.607 Z M67.896 -20.879 Q61.598 -20.879 57.526 -24.981 Q53.454 -29.083 53.454 -35.301 Q53.454 -41.519 57.516 -45.631 Q61.578 -49.742 67.876 -49.742 Q74.094 -49.742 78.206 -45.641 Q82.318 -41.539 82.318 -35.321 Q82.318 -29.102 78.216 -24.991 Q74.114 -20.879 67.896 -20.879 Z M114.568 -38.939 Q112.576 -38.939 111.194 -40.257 Q109.811 -41.575 109.811 -43.563 Q109.811 -45.55 111.194 -46.88 Q112.576 -48.211 114.568 -48.211 Q116.854 -48.211 118.654 -49.259 Q120.454 -50.307 121.663 -52.806 Q123.517 -56.918 127.871 -59.538 Q132.225 -62.159 137.143 -62.159 Q139.118 -62.159 140.469 -60.8 Q141.819 -59.442 141.819 -57.454 Q141.819 -55.467 140.469 -54.177 Q139.118 -52.887 137.143 -52.887 Q134.911 -52.887 133.017 -51.718 Q131.124 -50.549 129.968 -48.452 Q127.791 -44.099 123.678 -41.519 Q119.566 -38.939 114.568 -38.939 Z M114.568 -15.557 Q112.576 -15.557 111.194 -16.916 Q109.811 -18.275 109.811 -20.262 Q109.811 -22.169 111.194 -23.499 Q112.576 -24.829 114.568 -24.829 Q116.854 -24.829 118.654 -25.877 Q120.454 -26.926 121.663 -29.425 Q123.517 -33.698 127.791 -36.077 Q132.064 -38.455 136.982 -38.455 Q138.974 -38.455 140.397 -37.096 Q141.819 -35.738 141.819 -33.751 Q141.819 -31.763 140.397 -30.473 Q138.974 -29.183 136.982 -29.183 Q134.728 -29.183 132.912 -28.256 Q131.096 -27.329 129.968 -25.071 Q127.791 -20.798 123.678 -18.178 Q119.566 -15.557 114.568 -15.557 Z M29.428 21.933 Q25.528 21.933 22.842 19.247 Q20.156 16.562 20.156 12.661 V-69.254 Q20.156 -78.606 27.169 -85.621 Q34.181 -92.635 43.538 -92.635 H92.235 Q101.478 -92.635 108.547 -85.621 Q115.616 -78.606 115.616 -69.254 V-62.159 H109.4 Q107.312 -62.159 106.022 -60.808 Q104.732 -59.458 104.732 -57.482 V-7.898 Q104.732 -5.923 106.042 -4.613 Q107.352 -3.302 109.328 -3.302 H115.616 V12.661 Q115.616 16.562 112.89 19.247 Q110.164 21.933 106.344 21.933 H29.428 Z"/></g><g id="Light-L" transform="matrix(1 0 0 1 1082.77 1556)"><path d="M67.842 -14.181 Q76.628 -14.181 82.791 -20.285 Q88.954 -26.39 88.954 -35.277 Q88.954 -44.164 82.798 -50.271 Q76.641 -56.378 67.847 -56.378 Q58.971 -56.378 52.864 -50.274 Q46.757 -44.17 46.757 -35.282 Q46.757 -26.395 52.866 -20.288 Q58.976 -14.181 67.842 -14.181 Z M67.852 -21.251 Q61.784 -21.251 57.805 -25.269 Q53.827 -29.287 53.827 -35.27 Q53.827 -41.252 57.795 -45.28 Q61.764 -49.308 67.83 -49.308 Q73.815 -49.308 77.85 -45.29 Q81.884 -41.272 81.884 -35.29 Q81.884 -29.307 77.862 -25.279 Q73.84 -21.251 67.852 -21.251 Z M111.622 -39.528 Q110.051 -39.528 109.016 -40.505 Q107.982 -41.482 107.982 -43.035 Q107.982 -44.651 109.016 -45.624 Q110.051 -46.598 111.622 -46.598 Q114.145 -46.598 116.167 -47.77 Q118.19 -48.942 119.554 -51.597 Q121.291 -55.49 125.254 -57.878 Q129.217 -60.267 133.763 -60.267 Q135.301 -60.267 136.327 -59.232 Q137.354 -58.197 137.354 -56.646 Q137.354 -55.095 136.327 -54.146 Q135.301 -53.197 133.763 -53.197 Q131.313 -53.197 129.172 -51.919 Q127.03 -50.642 125.812 -48.359 Q123.728 -44.285 119.983 -41.906 Q116.238 -39.528 111.622 -39.528 Z M111.622 -15.433 Q110.051 -15.433 109.016 -16.442 Q107.982 -17.451 107.982 -19.037 Q107.982 -20.543 109.016 -21.523 Q110.051 -22.504 111.622 -22.504 Q114.145 -22.504 116.167 -23.66 Q118.19 -24.817 119.554 -27.533 Q121.291 -31.463 125.159 -33.703 Q129.026 -35.943 133.602 -35.943 Q135.173 -35.943 136.263 -34.941 Q137.354 -33.939 137.354 -32.324 Q137.354 -30.771 136.263 -29.822 Q135.173 -28.873 133.602 -28.873 Q131.117 -28.873 129.06 -27.775 Q127.003 -26.677 125.812 -24.203 Q123.728 -20.209 119.983 -17.821 Q116.238 -15.433 111.622 -15.433 Z M32.157 19.018 Q28.365 19.018 25.734 16.386 Q23.102 13.755 23.102 9.963 V-68.82 Q23.102 -77.229 29.307 -83.443 Q35.511 -89.658 43.941 -89.658 H91.739 Q100.051 -89.658 106.329 -83.443 Q112.608 -77.229 112.608 -68.82 V-61.88 H108.469 Q106.397 -61.88 105.161 -60.568 Q103.926 -59.256 103.926 -57.296 V-7.619 Q103.926 -5.659 105.181 -4.403 Q106.437 -3.147 108.397 -3.147 H112.608 V9.963 Q112.608 13.755 109.922 16.386 Q107.235 19.018 103.553 19.018 H32.157 Z"/></g><g id="Thin-L" transform="matrix(1 0 0 1 787.282 1556)"><path d="M67.8 -16.754 Q75.453 -16.754 80.886 -22.113 Q86.318 -27.472 86.318 -35.246 Q86.318 -43.02 80.896 -48.381 Q75.474 -53.743 67.804 -53.743 Q60.053 -53.743 54.692 -48.384 Q49.33 -43.025 49.33 -35.251 Q49.33 -27.478 54.699 -22.116 Q60.068 -16.754 67.8 -16.754 Z M67.808 -21.623 Q61.97 -21.623 58.084 -25.557 Q54.199 -29.491 54.199 -35.239 Q54.199 -40.986 58.074 -44.93 Q61.95 -48.874 67.783 -48.874 Q73.536 -48.874 77.493 -44.94 Q81.45 -41.006 81.45 -35.259 Q81.45 -29.511 77.508 -25.567 Q73.567 -21.623 67.808 -21.623 Z M108.676 -40.117 Q107.525 -40.117 106.839 -40.753 Q106.152 -41.389 106.152 -42.508 Q106.152 -43.751 106.839 -44.369 Q107.525 -44.986 108.676 -44.986 Q111.436 -44.986 113.681 -46.282 Q115.926 -47.578 117.446 -50.387 Q119.066 -54.061 122.637 -56.218 Q126.209 -58.376 130.383 -58.376 Q131.484 -58.376 132.186 -57.664 Q132.889 -56.952 132.889 -55.837 Q132.889 -54.723 132.186 -54.115 Q131.484 -53.507 130.383 -53.507 Q127.716 -53.507 125.327 -52.121 Q122.938 -50.735 121.657 -48.266 Q119.666 -44.471 116.289 -42.294 Q112.911 -40.117 108.676 -40.117 Z M108.676 -15.309 Q107.525 -15.309 106.839 -15.968 Q106.152 -16.627 106.152 -17.812 Q106.152 -18.917 106.839 -19.547 Q107.525 -20.178 108.676 -20.178 Q111.436 -20.178 113.681 -21.443 Q115.926 -22.708 117.446 -25.642 Q119.066 -29.229 122.528 -31.33 Q125.99 -33.431 130.222 -33.431 Q131.373 -33.431 132.131 -32.786 Q132.889 -32.141 132.889 -30.898 Q132.889 -29.778 132.131 -29.171 Q131.373 -28.563 130.222 -28.563 Q127.507 -28.563 125.208 -27.295 Q122.91 -26.026 121.657 -23.335 Q119.666 -19.62 116.289 -17.465 Q112.911 -15.309 108.676 -15.309 Z M34.886 16.103 Q31.203 16.103 28.625 13.526 Q26.048 10.949 26.048 7.266 V-68.385 Q26.048 -75.851 31.445 -81.266 Q36.842 -86.681 44.344 -86.681 H91.243 Q98.624 -86.681 104.112 -81.266 Q109.6 -75.851 109.6 -68.385 V-61.601 H107.539 Q105.482 -61.601 104.301 -60.328 Q103.119 -59.055 103.119 -57.11 V-7.34 Q103.119 -5.396 104.321 -4.194 Q105.523 -2.992 107.467 -2.992 H109.6 V7.266 Q109.6 10.949 106.954 13.526 Q104.307 16.103 100.763 16.103 H34.886 Z"/></g><g id="Ultralight-L" transform="matrix(1 0 0 1 491.205 1556)"><path d="M67.776 -18.299 Q74.747 -18.299 79.742 -23.21 Q84.737 -28.121 84.737 -35.227 Q84.737 -42.333 79.755 -47.247 Q74.774 -52.161 67.779 -52.161 Q60.703 -52.161 55.788 -47.25 Q50.874 -42.339 50.874 -35.233 Q50.874 -28.127 55.799 -23.213 Q60.723 -18.299 67.776 -18.299 Z M67.782 -21.846 Q62.081 -21.846 58.252 -25.73 Q54.422 -29.614 54.422 -35.22 Q54.422 -40.826 58.242 -44.72 Q62.061 -48.614 67.755 -48.614 Q73.369 -48.614 77.279 -44.73 Q81.189 -40.846 81.189 -35.24 Q81.189 -29.634 77.296 -25.74 Q73.402 -21.846 67.782 -21.846 Z M106.909 -40.471 Q106.01 -40.471 105.532 -40.902 Q105.054 -41.333 105.054 -42.192 Q105.054 -43.212 105.532 -43.615 Q106.01 -44.018 106.909 -44.018 Q109.811 -44.018 112.19 -45.389 Q114.568 -46.759 116.181 -49.662 Q117.73 -53.204 121.067 -55.222 Q124.404 -57.241 128.355 -57.241 Q129.194 -57.241 129.701 -56.723 Q130.209 -56.205 130.209 -55.352 Q130.209 -54.499 129.701 -54.096 Q129.194 -53.693 128.355 -53.693 Q125.558 -53.693 123.02 -52.242 Q120.481 -50.791 119.164 -48.211 Q117.229 -44.582 114.072 -42.527 Q110.914 -40.471 106.909 -40.471 Z M106.909 -15.235 Q106.01 -15.235 105.532 -15.684 Q105.054 -16.133 105.054 -17.077 Q105.054 -17.941 105.532 -18.362 Q106.01 -18.782 106.909 -18.782 Q109.811 -18.782 112.19 -20.113 Q114.568 -21.443 116.181 -24.507 Q117.73 -27.888 120.949 -29.906 Q124.167 -31.924 128.194 -31.924 Q129.092 -31.924 129.651 -31.493 Q130.209 -31.062 130.209 -30.042 Q130.209 -29.183 129.651 -28.78 Q129.092 -28.377 128.194 -28.377 Q125.34 -28.377 122.897 -27.006 Q120.454 -25.636 119.164 -22.814 Q117.229 -19.266 114.072 -17.251 Q110.914 -15.235 106.909 -15.235 Z M36.523 14.354 Q32.905 14.354 30.36 11.81 Q27.816 9.265 27.816 5.647 V-68.125 Q27.816 -75.024 32.728 -79.96 Q37.64 -84.895 44.586 -84.895 H90.945 Q97.768 -84.895 102.782 -79.96 Q107.796 -75.024 107.796 -68.125 V-61.433 H106.981 Q104.933 -61.433 103.785 -60.183 Q102.636 -58.934 102.636 -56.999 V-7.172 Q102.636 -5.237 103.805 -4.068 Q104.974 -2.899 106.909 -2.899 H107.796 V5.647 Q107.796 9.265 105.173 11.81 Q102.55 14.354 99.088 14.354 H36.523 Z"/></g><g id="Bold-M" transform="matrix(1 0 0 1 2281.8 1126)"><path d="M52.685 -16.105 Q60.625 -16.105 66.281 -21.759 Q71.938 -27.413 71.938 -35.353 Q71.938 -43.292 66.284 -48.949 Q60.629 -54.605 52.69 -54.605 Q44.75 -54.605 39.094 -48.951 Q33.438 -43.297 33.438 -35.357 Q33.438 -27.417 39.092 -21.761 Q44.746 -16.105 52.685 -16.105 Z M52.679 -27.355 Q49.375 -27.355 47.031 -29.708 Q44.688 -32.06 44.688 -35.364 Q44.688 -38.667 47.04 -41.011 Q49.393 -43.355 52.696 -43.355 Q56 -43.355 58.344 -41.002 Q60.688 -38.65 60.688 -35.346 Q60.688 -32.042 58.335 -29.699 Q55.982 -27.355 52.679 -27.355 Z M88.625 -35.417 Q86.273 -35.417 84.543 -37.08 Q82.812 -38.742 82.812 -41.105 Q82.812 -43.467 84.543 -45.13 Q86.273 -46.792 88.625 -46.792 Q89.628 -46.792 90.408 -47.199 Q91.188 -47.605 91.562 -48.542 Q93.375 -52.23 96.892 -54.449 Q100.408 -56.667 104.5 -56.667 Q106.862 -56.667 108.525 -55.005 Q110.188 -53.342 110.188 -50.98 Q110.188 -48.617 108.525 -46.955 Q106.862 -45.292 104.5 -45.292 Q103.415 -45.292 102.656 -44.886 Q101.897 -44.48 101.5 -43.542 Q99.75 -39.792 96.282 -37.605 Q92.813 -35.417 88.625 -35.417 Z M88.625 -13.355 Q86.273 -13.355 84.543 -15.017 Q82.812 -16.68 82.812 -19.042 Q82.812 -21.405 84.543 -23.067 Q86.273 -24.73 88.625 -24.73 Q89.628 -24.73 90.408 -25.105 Q91.188 -25.48 91.562 -26.417 Q93.375 -30.105 96.828 -32.324 Q100.28 -34.542 104.375 -34.542 Q106.727 -34.542 108.457 -32.88 Q110.188 -31.217 110.188 -28.855 Q110.188 -26.492 108.457 -24.83 Q106.727 -23.167 104.375 -23.167 Q103.397 -23.167 102.636 -22.792 Q101.875 -22.417 101.5 -21.48 Q99.75 -17.73 96.282 -15.542 Q92.813 -13.355 88.625 -13.355 Z M27.062 12.708 Q20.695 12.708 16.316 8.329 Q11.938 3.95 11.938 -2.417 V-59.98 Q11.938 -69.733 18.841 -76.607 Q25.744 -83.48 35.438 -83.48 H70 Q79.668 -83.48 86.553 -76.607 Q93.438 -69.733 93.438 -59.98 V-58.792 H84.625 Q81.562 -58.792 79.312 -56.542 Q77.062 -54.292 77.062 -51.23 V-15.105 Q77.062 -12.042 79.312 -9.792 Q81.562 -7.542 84.625 -7.542 H93.438 V-2.417 Q93.438 3.95 89.059 8.329 Q84.68 12.708 78.312 12.708 H27.062 Z"/></g><g id="Semibold-M" transform="matrix(1 0 0 1 1985.97 1126)"><path d="M52.685 -16.105 Q60.625 -16.105 66.281 -21.759 Q71.938 -27.413 71.938 -35.353 Q71.938 -43.292 66.284 -48.949 Q60.629 -54.605 52.69 -54.605 Q44.75 -54.605 39.094 -48.951 Q33.438 -43.297 33.438 -35.357 Q33.438 -27.417 39.092 -21.761 Q44.746 -16.105 52.685 -16.105 Z M52.686 -26.54 Q49.049 -26.54 46.461 -29.13 Q43.872 -31.72 43.872 -35.357 Q43.872 -38.994 46.462 -41.582 Q49.052 -44.17 52.689 -44.17 Q56.326 -44.17 58.914 -41.58 Q61.503 -38.99 61.503 -35.353 Q61.503 -31.716 58.913 -29.128 Q56.323 -26.54 52.686 -26.54 Z M88.625 -35.526 Q86.453 -35.526 84.85 -37.064 Q83.247 -38.601 83.247 -40.779 Q83.247 -42.957 84.85 -44.494 Q86.453 -46.032 88.625 -46.032 Q89.713 -46.032 90.559 -46.519 Q91.405 -47.007 91.889 -48.053 Q93.701 -51.632 97.115 -53.769 Q100.53 -55.907 104.5 -55.907 Q106.678 -55.907 108.215 -54.369 Q109.753 -52.832 109.753 -50.654 Q109.753 -48.476 108.215 -46.939 Q106.678 -45.401 104.5 -45.401 Q103.325 -45.401 102.502 -44.913 Q101.679 -44.426 101.174 -43.379 Q99.424 -39.738 96.057 -37.632 Q92.691 -35.526 88.625 -35.526 Z M88.625 -14.714 Q86.453 -14.714 84.85 -16.251 Q83.247 -17.789 83.247 -19.966 Q83.247 -22.144 84.85 -23.682 Q86.453 -25.219 88.625 -25.219 Q89.713 -25.219 90.559 -25.676 Q91.405 -26.132 91.889 -27.178 Q93.701 -30.757 97.052 -32.894 Q100.403 -35.032 104.375 -35.032 Q106.547 -35.032 108.15 -33.494 Q109.753 -31.957 109.753 -29.779 Q109.753 -27.601 108.15 -26.064 Q106.547 -24.526 104.375 -24.526 Q103.312 -24.526 102.485 -24.07 Q101.658 -23.613 101.174 -22.567 Q99.424 -18.926 96.057 -16.82 Q92.691 -14.714 88.625 -14.714 Z M26.41 10.86 Q21.13 10.86 17.458 7.187 Q13.785 3.515 13.785 -1.765 V-59.98 Q13.785 -68.971 20.146 -75.302 Q26.506 -81.632 35.438 -81.632 H70 Q78.906 -81.632 85.248 -75.302 Q91.59 -68.971 91.59 -59.98 V-57.108 H84.027 Q81.454 -57.108 79.584 -55.238 Q77.715 -53.369 77.715 -50.795 V-15.54 Q77.715 -12.966 79.584 -11.097 Q81.454 -9.227 84.027 -9.227 H91.59 V-1.765 Q91.59 3.515 87.917 7.187 Q84.245 10.86 78.965 10.86 H26.41 Z"/></g><g id="Medium-M" transform="matrix(1 0 0 1 1689.91 1126)"><path d="M52.685 -16.105 Q60.625 -16.105 66.281 -21.759 Q71.938 -27.413 71.938 -35.353 Q71.938 -43.292 66.284 -48.949 Q60.629 -54.605 52.69 -54.605 Q44.75 -54.605 39.094 -48.951 Q33.438 -43.297 33.438 -35.357 Q33.438 -27.417 39.092 -21.761 Q44.746 -16.105 52.685 -16.105 Z M52.691 -25.928 Q48.804 -25.928 46.033 -28.696 Q43.261 -31.464 43.261 -35.351 Q43.261 -39.238 46.029 -42.01 Q48.797 -44.782 52.684 -44.782 Q56.571 -44.782 59.342 -42.014 Q62.114 -39.246 62.114 -35.359 Q62.114 -31.472 59.346 -28.7 Q56.578 -25.928 52.691 -25.928 Z M88.625 -35.608 Q86.588 -35.608 85.081 -37.051 Q83.573 -38.495 83.573 -40.534 Q83.573 -42.573 85.081 -44.017 Q86.588 -45.461 88.625 -45.461 Q89.777 -45.461 90.672 -46.01 Q91.568 -46.559 92.133 -47.686 Q93.946 -51.184 97.283 -53.26 Q100.621 -55.336 104.5 -55.336 Q106.539 -55.336 107.983 -53.892 Q109.427 -52.448 109.427 -50.409 Q109.427 -48.37 107.983 -46.926 Q106.539 -45.483 104.5 -45.483 Q103.257 -45.483 102.386 -44.934 Q101.516 -44.385 100.929 -43.257 Q99.179 -39.697 95.889 -37.652 Q92.598 -35.608 88.625 -35.608 Z M88.625 -15.733 Q86.588 -15.733 85.081 -17.176 Q83.573 -18.62 83.573 -20.659 Q83.573 -22.698 85.081 -24.142 Q86.588 -25.586 88.625 -25.586 Q89.777 -25.586 90.672 -26.104 Q91.568 -26.621 92.133 -27.749 Q93.946 -31.246 97.22 -33.322 Q100.495 -35.398 104.375 -35.398 Q106.412 -35.398 107.919 -33.955 Q109.427 -32.511 109.427 -30.472 Q109.427 -28.433 107.919 -26.989 Q106.412 -25.545 104.375 -25.545 Q103.248 -25.545 102.371 -25.027 Q101.495 -24.51 100.929 -23.382 Q99.179 -19.822 95.889 -17.777 Q92.598 -15.733 88.625 -15.733 Z M25.921 9.474 Q21.456 9.474 18.314 6.331 Q15.171 3.189 15.171 -1.276 V-59.98 Q15.171 -68.399 21.124 -74.323 Q27.078 -80.246 35.438 -80.246 H70 Q78.334 -80.246 84.269 -74.323 Q90.204 -68.399 90.204 -59.98 V-55.844 H83.579 Q81.372 -55.844 79.788 -54.26 Q78.204 -52.676 78.204 -50.469 V-15.866 Q78.204 -13.659 79.788 -12.075 Q81.372 -10.491 83.579 -10.491 H90.204 V-1.276 Q90.204 3.189 87.061 6.331 Q83.919 9.474 79.454 9.474 H25.921 Z"/></g><g id="Regular-M" transform="matrix(1 0 0 1 1394.06 1126)"><path d="M52.685 -16.105 Q60.625 -16.105 66.281 -21.759 Q71.938 -27.413 71.938 -35.353 Q71.938 -43.292 66.284 -48.949 Q60.629 -54.605 52.69 -54.605 Q44.75 -54.605 39.094 -48.951 Q33.438 -43.297 33.438 -35.357 Q33.438 -27.417 39.092 -21.761 Q44.746 -16.105 52.685 -16.105 Z M52.695 -25.48 Q48.625 -25.48 45.719 -28.378 Q42.812 -31.277 42.812 -35.347 Q42.812 -39.417 45.711 -42.324 Q48.609 -45.23 52.68 -45.23 Q56.75 -45.23 59.656 -42.331 Q62.562 -39.433 62.562 -35.363 Q62.562 -31.292 59.664 -28.386 Q56.766 -25.48 52.695 -25.48 Z M88.625 -35.667 Q86.688 -35.667 85.25 -37.042 Q83.812 -38.417 83.812 -40.355 Q83.812 -42.292 85.25 -43.667 Q86.688 -45.042 88.625 -45.042 Q89.823 -45.042 90.755 -45.636 Q91.688 -46.23 92.312 -47.417 Q94.125 -50.855 97.406 -52.886 Q100.688 -54.917 104.5 -54.917 Q106.438 -54.917 107.812 -53.542 Q109.188 -52.167 109.188 -50.23 Q109.188 -48.292 107.812 -46.917 Q106.438 -45.542 104.5 -45.542 Q103.207 -45.542 102.302 -44.949 Q101.397 -44.355 100.75 -43.167 Q99 -39.667 95.766 -37.667 Q92.531 -35.667 88.625 -35.667 Z M88.625 -16.48 Q86.688 -16.48 85.25 -17.855 Q83.812 -19.23 83.812 -21.167 Q83.812 -23.105 85.25 -24.48 Q86.688 -25.855 88.625 -25.855 Q89.823 -25.855 90.755 -26.417 Q91.688 -26.98 92.312 -28.167 Q94.125 -31.605 97.344 -33.636 Q100.562 -35.667 104.375 -35.667 Q106.312 -35.667 107.75 -34.292 Q109.188 -32.917 109.188 -30.98 Q109.188 -29.042 107.75 -27.667 Q106.312 -26.292 104.375 -26.292 Q103.201 -26.292 102.288 -25.73 Q101.375 -25.167 100.75 -23.98 Q99 -20.48 95.766 -18.48 Q92.531 -16.48 88.625 -16.48 Z M25.562 8.458 Q21.695 8.458 18.941 5.704 Q16.188 2.95 16.188 -0.917 V-59.98 Q16.188 -67.98 21.842 -73.605 Q27.497 -79.23 35.438 -79.23 H70 Q77.915 -79.23 83.551 -73.605 Q89.188 -67.98 89.188 -59.98 V-54.917 H83.25 Q81.312 -54.917 79.938 -53.542 Q78.562 -52.167 78.562 -50.23 V-16.105 Q78.562 -14.167 79.938 -12.792 Q81.312 -11.417 83.25 -11.417 H89.188 V-0.917 Q89.188 2.95 86.434 5.704 Q83.68 8.458 79.812 8.458 H25.562 Z"/></g><g id="Light-M" transform="matrix(1 0 0 1 1098.18 1126)"><path d="M52.653 -18.437 Q59.618 -18.437 64.588 -23.393 Q69.558 -28.348 69.558 -35.329 Q69.558 -42.309 64.593 -47.267 Q59.628 -52.225 52.657 -52.225 Q45.685 -52.225 40.727 -47.269 Q35.769 -42.314 35.769 -35.333 Q35.769 -28.353 40.729 -23.395 Q45.689 -18.437 52.653 -18.437 Z M52.661 -25.432 Q48.577 -25.432 45.671 -28.337 Q42.764 -31.243 42.764 -35.323 Q42.764 -39.403 45.663 -42.317 Q48.561 -45.23 52.644 -45.23 Q56.726 -45.23 59.644 -42.324 Q62.562 -39.419 62.562 -35.339 Q62.562 -31.258 59.654 -28.345 Q56.745 -25.432 52.661 -25.432 Z M86.293 -36.845 Q84.826 -36.845 83.754 -37.836 Q82.683 -38.826 82.683 -40.331 Q82.683 -41.836 83.754 -42.838 Q84.826 -43.84 86.293 -43.84 Q87.868 -43.84 89.093 -44.578 Q90.317 -45.316 91.111 -46.865 Q92.736 -50.036 95.738 -51.888 Q98.74 -53.739 102.216 -53.739 Q103.671 -53.739 104.698 -52.711 Q105.726 -51.683 105.726 -50.228 Q105.726 -48.773 104.698 -47.759 Q103.671 -46.744 102.216 -46.744 Q100.611 -46.744 99.369 -45.994 Q98.127 -45.244 97.336 -43.72 Q95.755 -40.485 92.805 -38.665 Q89.855 -36.845 86.293 -36.845 Z M86.293 -17.49 Q84.826 -17.49 83.754 -18.497 Q82.683 -19.505 82.683 -20.987 Q82.683 -22.469 83.754 -23.477 Q84.826 -24.485 86.293 -24.485 Q87.868 -24.485 89.093 -25.203 Q90.317 -25.922 91.111 -27.47 Q92.736 -30.546 95.664 -32.445 Q98.593 -34.345 102.091 -34.345 Q103.558 -34.345 104.642 -33.343 Q105.726 -32.34 105.726 -30.836 Q105.726 -29.331 104.642 -28.341 Q103.558 -27.35 102.091 -27.35 Q100.546 -27.35 99.326 -26.631 Q98.106 -25.913 97.336 -24.365 Q95.755 -21.129 92.805 -19.309 Q89.855 -17.49 86.293 -17.49 Z M27.005 6.198 Q23.462 6.198 20.967 3.702 Q18.471 1.207 18.471 -2.336 V-60.028 Q18.471 -67.056 23.428 -71.989 Q28.384 -76.922 35.365 -76.922 H70 Q76.953 -76.922 81.904 -71.989 Q86.856 -67.056 86.856 -60.028 V-54.99 H82.865 Q81.084 -54.99 79.847 -53.741 Q78.611 -52.492 78.611 -50.711 V-15.456 Q78.611 -13.675 79.847 -12.438 Q81.084 -11.201 82.865 -11.201 H86.856 V-2.336 Q86.856 1.207 84.349 3.702 Q81.842 6.198 78.322 6.198 H27.005 Z"/></g><g id="Thin-M" transform="matrix(1 0 0 1 802.565 1126)"><path d="M52.621 -20.768 Q58.611 -20.768 62.894 -25.026 Q67.178 -29.283 67.178 -35.305 Q67.178 -41.326 62.903 -45.586 Q58.627 -49.845 52.624 -49.845 Q46.62 -49.845 42.361 -45.588 Q38.101 -41.331 38.101 -35.309 Q38.101 -29.288 42.366 -25.028 Q46.632 -20.768 52.621 -20.768 Z M52.627 -25.384 Q48.529 -25.384 45.623 -28.296 Q42.716 -31.209 42.716 -35.299 Q42.716 -39.389 45.615 -42.31 Q48.513 -45.23 52.608 -45.23 Q56.702 -45.23 59.632 -42.317 Q62.562 -39.405 62.562 -35.315 Q62.562 -31.225 59.644 -28.304 Q56.725 -25.384 52.627 -25.384 Z M83.962 -38.023 Q82.965 -38.023 82.259 -38.629 Q81.553 -39.235 81.553 -40.307 Q81.553 -41.379 82.259 -42.009 Q82.965 -42.639 83.962 -42.639 Q85.912 -42.639 87.43 -43.521 Q88.947 -44.403 89.909 -46.312 Q91.347 -49.217 94.07 -50.889 Q96.793 -52.562 99.933 -52.562 Q100.904 -52.562 101.584 -51.88 Q102.264 -51.199 102.264 -50.227 Q102.264 -49.254 101.584 -48.6 Q100.904 -47.946 99.933 -47.946 Q98.015 -47.946 96.436 -47.04 Q94.858 -46.134 93.923 -44.273 Q92.51 -41.302 89.845 -39.663 Q87.18 -38.023 83.962 -38.023 Z M83.962 -18.499 Q82.965 -18.499 82.259 -19.139 Q81.553 -19.78 81.553 -20.807 Q81.553 -21.834 82.259 -22.474 Q82.965 -23.115 83.962 -23.115 Q85.912 -23.115 87.43 -23.99 Q88.947 -24.865 89.909 -26.773 Q91.347 -29.486 93.985 -31.255 Q96.623 -33.023 99.808 -33.023 Q100.805 -33.023 101.535 -32.393 Q102.264 -31.764 102.264 -30.691 Q102.264 -29.619 101.535 -29.014 Q100.805 -28.408 99.808 -28.408 Q97.892 -28.408 96.364 -27.533 Q94.837 -26.658 93.923 -24.749 Q92.51 -21.778 89.845 -20.139 Q87.18 -18.499 83.962 -18.499 Z M28.447 3.938 Q25.229 3.938 22.992 1.701 Q20.755 -0.536 20.755 -3.754 V-60.076 Q20.755 -66.133 25.013 -70.374 Q29.271 -74.615 35.293 -74.615 H70 Q75.991 -74.615 80.258 -70.374 Q84.524 -66.133 84.524 -60.076 V-55.062 H82.481 Q80.856 -55.062 79.757 -53.939 Q78.659 -52.816 78.659 -51.191 V-14.807 Q78.659 -13.182 79.757 -12.083 Q80.856 -10.985 82.481 -10.985 H84.524 V-3.754 Q84.524 -0.536 82.264 1.701 Q80.005 3.938 76.832 3.938 H28.447 Z"/></g><g id="Ultralight-M" transform="matrix(1 0 0 1 506.415 1126)"><path d="M52.602 -22.167 Q58.006 -22.167 61.878 -26.006 Q65.75 -29.844 65.75 -35.29 Q65.75 -40.736 61.888 -44.577 Q58.027 -48.417 52.604 -48.417 Q47.181 -48.417 43.341 -44.579 Q39.5 -40.741 39.5 -35.295 Q39.5 -29.849 43.349 -26.008 Q47.197 -22.167 52.602 -22.167 Z M52.607 -25.355 Q48.5 -25.355 45.594 -28.272 Q42.688 -31.189 42.688 -35.285 Q42.688 -39.381 45.586 -42.305 Q48.484 -45.23 52.586 -45.23 Q56.688 -45.23 59.625 -42.313 Q62.562 -39.396 62.562 -35.3 Q62.562 -31.204 59.638 -28.28 Q56.714 -25.355 52.607 -25.355 Z M82.562 -38.73 Q81.848 -38.73 81.361 -39.105 Q80.875 -39.48 80.875 -40.292 Q80.875 -41.105 81.361 -41.511 Q81.848 -41.917 82.562 -41.917 Q84.739 -41.917 86.432 -42.886 Q88.125 -43.855 89.188 -45.98 Q90.514 -48.726 93.069 -50.29 Q95.625 -51.855 98.562 -51.855 Q99.244 -51.855 99.716 -51.382 Q100.188 -50.909 100.188 -50.226 Q100.188 -49.542 99.716 -49.105 Q99.244 -48.667 98.562 -48.667 Q96.457 -48.667 94.677 -47.667 Q92.897 -46.667 91.875 -44.605 Q90.562 -41.792 88.068 -40.261 Q85.574 -38.73 82.562 -38.73 Z M82.562 -19.105 Q81.848 -19.105 81.361 -19.525 Q80.875 -19.945 80.875 -20.699 Q80.875 -21.453 81.361 -21.873 Q81.848 -22.292 82.562 -22.292 Q84.739 -22.292 86.432 -23.261 Q88.125 -24.23 89.188 -26.355 Q90.514 -28.851 92.978 -30.54 Q95.441 -32.23 98.438 -32.23 Q99.152 -32.23 99.67 -31.824 Q100.188 -31.417 100.188 -30.605 Q100.188 -29.792 99.67 -29.417 Q99.152 -29.042 98.438 -29.042 Q96.299 -29.042 94.587 -28.074 Q92.875 -27.105 91.875 -24.98 Q90.562 -22.167 88.068 -20.636 Q85.574 -19.105 82.562 -19.105 Z M29.312 2.583 Q26.289 2.583 24.207 0.501 Q22.125 -1.581 22.125 -4.605 V-60.105 Q22.125 -65.578 25.964 -69.404 Q29.803 -73.23 35.25 -73.23 H70 Q75.414 -73.23 79.269 -69.404 Q83.125 -65.578 83.125 -60.105 V-55.105 H82.25 Q80.719 -55.105 79.703 -54.058 Q78.688 -53.011 78.688 -51.48 V-14.417 Q78.688 -12.886 79.703 -11.871 Q80.719 -10.855 82.25 -10.855 H83.125 V-4.605 Q83.125 -1.581 81.014 0.501 Q78.902 2.583 75.938 2.583 H29.312 Z"/></g><g id="Bold-S" transform="matrix(1 0 0 1 2294.23 696)"><path d="M42.752 -21.718 Q48.425 -21.718 52.395 -25.686 Q56.364 -29.654 56.364 -35.327 Q56.364 -41 52.396 -44.969 Q48.428 -48.939 42.756 -48.939 Q37.083 -48.939 33.113 -44.971 Q29.144 -41.003 29.144 -35.33 Q29.144 -29.658 33.112 -25.688 Q37.08 -21.718 42.752 -21.718 Z M42.726 -29.806 Q40.436 -29.806 38.834 -31.436 Q37.231 -33.067 37.231 -35.357 Q37.231 -37.646 38.862 -39.249 Q40.492 -40.852 42.782 -40.852 Q45.072 -40.852 46.674 -39.221 Q48.277 -37.59 48.277 -35.301 Q48.277 -33.011 46.646 -31.408 Q45.016 -29.806 42.726 -29.806 Z M68.465 -34.194 Q66.724 -34.194 65.44 -35.358 Q64.156 -36.522 64.156 -38.239 Q64.156 -39.956 65.405 -41.168 Q66.655 -42.38 68.347 -42.38 Q69.336 -42.38 70.197 -42.701 Q71.059 -43.021 71.651 -43.958 Q73.574 -46.67 76.132 -48.027 Q78.69 -49.383 81.662 -49.383 Q83.358 -49.383 84.556 -48.19 Q85.754 -46.998 85.754 -45.311 Q85.754 -43.623 84.556 -42.41 Q83.358 -41.197 81.662 -41.197 Q80.707 -41.197 79.781 -40.827 Q78.855 -40.457 78.308 -39.619 Q76.434 -36.956 73.994 -35.575 Q71.553 -34.194 68.465 -34.194 Z M68.465 -18.365 Q66.724 -18.365 65.44 -19.529 Q64.156 -20.693 64.156 -22.41 Q64.156 -24.127 65.471 -25.339 Q66.787 -26.551 68.446 -26.551 Q69.468 -26.551 70.264 -26.847 Q71.059 -27.143 71.651 -28.08 Q73.574 -30.792 76.068 -32.148 Q78.561 -33.504 81.514 -33.504 Q83.221 -33.504 84.488 -32.34 Q85.754 -31.177 85.754 -29.46 Q85.754 -27.743 84.505 -26.53 Q83.255 -25.318 81.563 -25.318 Q80.594 -25.318 79.747 -24.973 Q78.9 -24.628 78.308 -23.789 Q76.434 -21.028 73.994 -19.697 Q71.553 -18.365 68.465 -18.365 Z M22.93 0.226 Q18.232 0.226 15.009 -2.997 Q11.786 -6.221 11.786 -10.919 V-53.969 Q11.786 -61.072 16.739 -66.002 Q21.693 -70.932 28.749 -70.932 H56.808 Q63.844 -70.932 68.783 -66.002 Q73.722 -61.072 73.722 -53.969 V-52.243 H67.211 Q64.945 -52.243 63.268 -50.581 Q61.591 -48.919 61.591 -46.67 V-19.746 Q61.591 -17.494 63.266 -15.83 Q64.94 -14.166 67.207 -14.166 H73.722 V-10.896 Q73.722 -6.191 70.499 -2.983 Q67.276 0.226 62.578 0.226 H22.93 Z"/></g><g id="Semibold-S" transform="matrix(1 0 0 1 1998.1 696)"><path d="M42.752 -21.718 Q48.425 -21.718 52.395 -25.686 Q56.364 -29.654 56.364 -35.327 Q56.364 -41 52.396 -44.969 Q48.428 -48.939 42.756 -48.939 Q37.083 -48.939 33.113 -44.971 Q29.144 -41.003 29.144 -35.33 Q29.144 -29.658 33.112 -25.688 Q37.08 -21.718 42.752 -21.718 Z M42.732 -29.162 Q40.179 -29.162 38.383 -30.98 Q36.588 -32.798 36.588 -35.351 Q36.588 -37.904 38.406 -39.699 Q40.223 -41.495 42.776 -41.495 Q45.329 -41.495 47.125 -39.677 Q48.92 -37.859 48.92 -35.306 Q48.92 -32.754 47.102 -30.958 Q45.284 -29.162 42.732 -29.162 Z M68.465 -34.28 Q66.866 -34.28 65.682 -35.345 Q64.499 -36.411 64.499 -37.982 Q64.499 -39.553 65.648 -40.666 Q66.797 -41.78 68.347 -41.78 Q69.403 -41.78 70.317 -42.165 Q71.231 -42.55 71.908 -43.572 Q73.832 -46.199 76.309 -47.491 Q78.786 -48.782 81.662 -48.782 Q83.212 -48.782 84.312 -47.689 Q85.411 -46.595 85.411 -45.053 Q85.411 -43.512 84.312 -42.397 Q83.212 -41.283 81.662 -41.283 Q80.636 -41.283 79.659 -40.848 Q78.683 -40.414 78.051 -39.49 Q76.177 -36.913 73.817 -35.597 Q71.456 -34.28 68.465 -34.28 Z M68.465 -19.437 Q66.866 -19.437 65.682 -20.502 Q64.499 -21.567 64.499 -23.139 Q64.499 -24.71 65.714 -25.823 Q66.929 -26.937 68.446 -26.937 Q69.536 -26.937 70.383 -27.297 Q71.231 -27.657 71.908 -28.68 Q73.832 -31.306 76.245 -32.598 Q78.658 -33.89 81.514 -33.89 Q83.079 -33.89 84.245 -32.825 Q85.411 -31.76 85.411 -30.188 Q85.411 -28.617 84.262 -27.504 Q83.113 -26.39 81.563 -26.39 Q80.527 -26.39 79.628 -25.981 Q78.728 -25.571 78.051 -24.647 Q76.177 -21.971 73.817 -20.704 Q71.456 -19.437 68.465 -19.437 Z M22.416 -1.232 Q18.575 -1.232 15.909 -3.898 Q13.244 -6.564 13.244 -10.404 V-53.969 Q13.244 -60.471 17.769 -64.973 Q22.294 -69.474 28.749 -69.474 H56.808 Q63.243 -69.474 67.754 -64.973 Q72.264 -60.471 72.264 -53.969 V-50.914 H66.739 Q64.859 -50.914 63.482 -49.552 Q62.106 -48.19 62.106 -46.327 V-20.089 Q62.106 -18.223 63.48 -16.859 Q64.854 -15.495 66.736 -15.495 H72.264 V-10.381 Q72.264 -6.534 69.599 -3.883 Q66.933 -1.232 63.092 -1.232 H22.416 Z"/></g><g id="Medium-S" transform="matrix(1 0 0 1 1701.85 696)"><path d="M42.752 -21.718 Q48.425 -21.718 52.395 -25.686 Q56.364 -29.654 56.364 -35.327 Q56.364 -41 52.396 -44.969 Q48.428 -48.939 42.756 -48.939 Q37.083 -48.939 33.113 -44.971 Q29.144 -41.003 29.144 -35.33 Q29.144 -29.658 33.112 -25.688 Q37.08 -21.718 42.752 -21.718 Z M42.736 -28.68 Q39.986 -28.68 38.046 -30.638 Q36.105 -32.597 36.105 -35.347 Q36.105 -38.097 38.064 -40.037 Q40.022 -41.977 42.772 -41.977 Q45.522 -41.977 47.462 -40.019 Q49.403 -38.061 49.403 -35.311 Q49.403 -32.561 47.444 -30.62 Q45.486 -28.68 42.736 -28.68 Z M68.465 -34.345 Q66.973 -34.345 65.864 -35.336 Q64.756 -36.327 64.756 -37.789 Q64.756 -39.25 65.83 -40.29 Q66.904 -41.33 68.347 -41.33 Q69.453 -41.33 70.406 -41.763 Q71.359 -42.196 72.101 -43.283 Q74.024 -45.845 76.441 -47.089 Q78.858 -48.332 81.662 -48.332 Q83.103 -48.332 84.128 -47.312 Q85.154 -46.293 85.154 -44.86 Q85.154 -43.428 84.128 -42.387 Q83.103 -41.347 81.662 -41.347 Q80.582 -41.347 79.568 -40.864 Q78.555 -40.382 77.858 -39.394 Q75.984 -36.881 73.684 -35.613 Q71.383 -34.345 68.465 -34.345 Z M68.465 -20.241 Q66.973 -20.241 65.864 -21.232 Q64.756 -22.224 64.756 -23.685 Q64.756 -25.147 65.896 -26.187 Q67.036 -27.226 68.446 -27.226 Q69.586 -27.226 70.473 -27.635 Q71.359 -28.043 72.101 -29.13 Q74.024 -31.692 76.378 -32.936 Q78.731 -34.179 81.514 -34.179 Q82.973 -34.179 84.063 -33.188 Q85.154 -32.197 85.154 -30.735 Q85.154 -29.273 84.08 -28.234 Q83.006 -27.194 81.563 -27.194 Q80.476 -27.194 79.538 -26.736 Q78.6 -26.279 77.858 -25.29 Q75.984 -22.679 73.684 -21.46 Q71.383 -20.241 68.465 -20.241 Z M22.03 -2.326 Q18.832 -2.326 16.585 -4.573 Q14.337 -6.821 14.337 -10.018 V-53.969 Q14.337 -60.02 18.541 -64.2 Q22.745 -68.381 28.749 -68.381 H56.808 Q62.792 -68.381 66.981 -64.2 Q71.171 -60.02 71.171 -53.969 V-49.917 H66.385 Q64.794 -49.917 63.643 -48.78 Q62.492 -47.643 62.492 -46.07 V-20.346 Q62.492 -18.77 63.641 -17.631 Q64.79 -16.492 66.382 -16.492 H71.171 V-9.995 Q71.171 -6.791 68.923 -4.559 Q66.676 -2.326 63.478 -2.326 H22.03 Z"/></g><g id="Regular-S" transform="matrix(1 0 0 1 1405.73 696)"><path d="M42.752 -21.718 Q48.425 -21.718 52.395 -25.686 Q56.364 -29.654 56.364 -35.327 Q56.364 -41 52.396 -44.969 Q48.428 -48.939 42.756 -48.939 Q37.083 -48.939 33.113 -44.971 Q29.144 -41.003 29.144 -35.33 Q29.144 -29.658 33.112 -25.688 Q37.08 -21.718 42.752 -21.718 Z M42.739 -28.326 Q39.845 -28.326 37.798 -30.388 Q35.752 -32.449 35.752 -35.343 Q35.752 -38.238 37.813 -40.285 Q39.874 -42.331 42.769 -42.331 Q45.663 -42.331 47.71 -40.27 Q49.756 -38.208 49.756 -35.314 Q49.756 -32.419 47.695 -30.373 Q45.634 -28.326 42.739 -28.326 Z M68.465 -34.392 Q67.051 -34.392 65.998 -35.329 Q64.945 -36.266 64.945 -37.647 Q64.945 -39.029 65.963 -40.014 Q66.982 -41 68.347 -41 Q69.49 -41 70.472 -41.468 Q71.454 -41.936 72.243 -43.071 Q74.166 -45.586 76.538 -46.794 Q78.91 -48.002 81.662 -48.002 Q83.023 -48.002 83.994 -47.036 Q84.965 -46.071 84.965 -44.719 Q84.965 -43.367 83.994 -42.38 Q83.023 -41.394 81.662 -41.394 Q80.543 -41.394 79.501 -40.876 Q78.46 -40.358 77.716 -39.323 Q75.843 -36.857 73.586 -35.624 Q71.33 -34.392 68.465 -34.392 Z M68.465 -20.831 Q67.051 -20.831 65.998 -21.768 Q64.945 -22.705 64.945 -24.086 Q64.945 -25.468 66.029 -26.453 Q67.114 -27.439 68.446 -27.439 Q69.623 -27.439 70.538 -27.882 Q71.454 -28.326 72.243 -29.46 Q74.166 -31.975 76.475 -33.184 Q78.784 -34.392 81.514 -34.392 Q82.894 -34.392 83.93 -33.455 Q84.965 -32.518 84.965 -31.136 Q84.965 -29.755 83.947 -28.769 Q82.928 -27.784 81.563 -27.784 Q80.439 -27.784 79.472 -27.291 Q78.505 -26.798 77.716 -25.762 Q75.843 -23.198 73.586 -22.014 Q71.33 -20.831 68.465 -20.831 Z M21.747 -3.128 Q19.021 -3.128 17.08 -5.069 Q15.139 -7.01 15.139 -9.735 V-53.969 Q15.139 -59.689 19.107 -63.634 Q23.076 -67.579 28.749 -67.579 H56.808 Q62.461 -67.579 66.415 -63.634 Q70.369 -59.689 70.369 -53.969 V-49.185 H66.126 Q64.747 -49.185 63.761 -48.214 Q62.775 -47.243 62.775 -45.881 V-20.535 Q62.775 -19.171 63.759 -18.197 Q64.743 -17.223 66.123 -17.223 H70.369 V-9.712 Q70.369 -6.98 68.428 -5.054 Q66.487 -3.128 63.761 -3.128 H21.747 Z"/></g><g id="Light-S" transform="matrix(1 0 0 1 1109.75 696)"><path d="M42.727 -23.558 Q47.63 -23.558 51.058 -26.975 Q54.486 -30.392 54.486 -35.308 Q54.486 -40.224 51.062 -43.642 Q47.638 -47.061 42.73 -47.061 Q37.821 -47.061 34.402 -43.644 Q30.984 -40.227 30.984 -35.311 Q30.984 -30.396 34.404 -26.977 Q37.824 -23.558 42.727 -23.558 Z M42.712 -28.288 Q39.807 -28.288 37.76 -30.355 Q35.714 -32.422 35.714 -35.324 Q35.714 -38.227 37.775 -40.279 Q39.836 -42.331 42.74 -42.331 Q45.644 -42.331 47.7 -40.264 Q49.756 -38.197 49.756 -35.295 Q49.756 -32.392 47.687 -30.34 Q45.618 -28.288 42.712 -28.288 Z M66.625 -35.321 Q65.582 -35.321 64.818 -35.955 Q64.053 -36.588 64.053 -37.628 Q64.053 -38.668 64.783 -39.36 Q65.513 -40.051 66.507 -40.051 Q67.947 -40.051 69.16 -40.633 Q70.373 -41.216 71.294 -42.634 Q73.07 -44.94 75.222 -46.006 Q77.374 -47.072 79.86 -47.072 Q80.839 -47.072 81.537 -46.381 Q82.234 -45.689 82.234 -44.717 Q82.234 -43.746 81.537 -43.044 Q80.839 -42.342 79.86 -42.342 Q78.494 -42.342 77.187 -41.701 Q75.881 -41.06 75.023 -39.759 Q73.282 -37.502 71.251 -36.412 Q69.219 -35.321 66.625 -35.321 Z M66.625 -21.627 Q65.582 -21.627 64.818 -22.275 Q64.053 -22.922 64.053 -23.944 Q64.053 -24.966 64.849 -25.662 Q65.645 -26.357 66.606 -26.357 Q68.08 -26.357 69.226 -26.925 Q70.373 -27.492 71.294 -28.91 Q73.07 -31.14 75.15 -32.244 Q77.23 -33.348 79.712 -33.348 Q80.721 -33.348 81.478 -32.705 Q82.234 -32.063 82.234 -31.022 Q82.234 -29.982 81.495 -29.3 Q80.755 -28.618 79.761 -28.618 Q78.345 -28.618 77.135 -28.002 Q75.926 -27.386 75.023 -26.065 Q73.282 -23.71 71.251 -22.669 Q69.219 -21.627 66.625 -21.627 Z M22.885 -4.911 Q20.415 -4.911 18.678 -6.648 Q16.941 -8.385 16.941 -10.855 V-54.007 Q16.941 -58.96 20.358 -62.359 Q23.776 -65.758 28.692 -65.758 H56.808 Q61.702 -65.758 65.116 -62.359 Q68.529 -58.96 68.529 -54.007 V-49.242 H65.822 Q64.567 -49.242 63.69 -48.37 Q62.813 -47.499 62.813 -46.261 V-20.023 Q62.813 -18.782 63.688 -17.917 Q64.563 -17.053 65.819 -17.053 H68.529 V-10.831 Q68.529 -8.355 66.783 -6.633 Q65.037 -4.911 62.585 -4.911 H22.885 Z"/></g><g id="Thin-S" transform="matrix(1 0 0 1 814.015 696)"><path d="M42.701 -25.398 Q46.836 -25.398 49.722 -28.264 Q52.609 -31.13 52.609 -35.289 Q52.609 -39.448 49.729 -42.316 Q46.849 -45.184 42.704 -45.184 Q38.559 -45.184 35.691 -42.318 Q32.823 -39.452 32.823 -35.292 Q32.823 -31.133 35.695 -28.265 Q38.568 -25.398 42.701 -25.398 Z M42.685 -28.25 Q39.769 -28.25 37.722 -30.323 Q35.676 -32.395 35.676 -35.306 Q35.676 -38.216 37.737 -40.273 Q39.798 -42.331 42.712 -42.331 Q45.625 -42.331 47.691 -40.259 Q49.756 -38.186 49.756 -35.276 Q49.756 -32.366 47.679 -30.308 Q45.602 -28.25 42.685 -28.25 Z M64.785 -36.25 Q64.113 -36.25 63.638 -36.58 Q63.162 -36.91 63.162 -37.609 Q63.162 -38.308 63.603 -38.706 Q64.045 -39.103 64.668 -39.103 Q66.404 -39.103 67.848 -39.799 Q69.292 -40.495 70.346 -42.198 Q71.974 -44.293 73.906 -45.218 Q75.838 -46.143 78.058 -46.143 Q78.656 -46.143 79.08 -45.725 Q79.503 -45.307 79.503 -44.716 Q79.503 -44.125 79.08 -43.708 Q78.656 -43.291 78.058 -43.291 Q76.446 -43.291 74.874 -42.526 Q73.301 -41.762 72.33 -40.195 Q70.722 -38.147 68.915 -37.199 Q67.108 -36.25 64.785 -36.25 Z M64.785 -22.424 Q64.113 -22.424 63.638 -22.781 Q63.162 -23.138 63.162 -23.802 Q63.162 -24.465 63.669 -24.871 Q64.177 -25.276 64.766 -25.276 Q66.537 -25.276 67.914 -25.967 Q69.292 -26.657 70.346 -28.36 Q71.974 -30.304 73.825 -31.305 Q75.676 -32.305 77.91 -32.305 Q78.549 -32.305 79.026 -31.956 Q79.503 -31.607 79.503 -30.909 Q79.503 -30.21 79.043 -29.831 Q78.582 -29.453 77.959 -29.453 Q76.25 -29.453 74.798 -28.713 Q73.347 -27.973 72.33 -26.369 Q70.722 -24.222 68.915 -23.323 Q67.108 -22.424 64.785 -22.424 Z M24.023 -6.693 Q21.809 -6.693 20.276 -8.226 Q18.742 -9.76 18.742 -11.973 V-54.045 Q18.742 -58.231 21.609 -61.084 Q24.475 -63.937 28.635 -63.937 H56.808 Q60.943 -63.937 63.816 -61.084 Q66.69 -58.231 66.69 -54.045 V-49.299 H65.519 Q64.387 -49.299 63.619 -48.527 Q62.851 -47.755 62.851 -46.64 V-19.511 Q62.851 -18.393 63.617 -17.637 Q64.383 -16.882 65.516 -16.882 H66.69 V-11.95 Q66.69 -9.73 65.138 -8.212 Q63.587 -6.693 61.409 -6.693 H24.023 Z"/></g><g id="Ultralight-S" transform="matrix(1 0 0 1 517.792 696)"><path d="M42.686 -26.502 Q46.359 -26.502 48.92 -29.037 Q51.482 -31.572 51.482 -35.278 Q51.482 -38.983 48.929 -41.52 Q46.375 -44.057 42.688 -44.057 Q39.001 -44.057 36.464 -41.522 Q33.927 -38.986 33.927 -35.281 Q33.927 -31.576 36.47 -29.039 Q39.014 -26.502 42.686 -26.502 Z M42.669 -28.228 Q39.746 -28.228 37.699 -30.303 Q35.653 -32.379 35.653 -35.294 Q35.653 -38.209 37.714 -40.27 Q39.776 -42.331 42.695 -42.331 Q45.614 -42.331 47.685 -40.255 Q49.756 -38.179 49.756 -35.265 Q49.756 -32.35 47.675 -30.289 Q45.593 -28.228 42.669 -28.228 Z M63.681 -36.808 Q63.232 -36.808 62.929 -36.956 Q62.627 -37.104 62.627 -37.598 Q62.627 -38.092 62.895 -38.313 Q63.163 -38.534 63.564 -38.534 Q65.478 -38.534 67.061 -39.298 Q68.643 -40.063 69.777 -41.936 Q71.317 -43.906 73.116 -44.746 Q74.916 -45.586 76.977 -45.586 Q77.347 -45.586 77.606 -45.332 Q77.864 -45.078 77.864 -44.715 Q77.864 -44.353 77.606 -44.106 Q77.347 -43.86 76.977 -43.86 Q75.217 -43.86 73.485 -43.021 Q71.754 -42.183 70.714 -40.457 Q69.185 -38.534 67.513 -37.671 Q65.841 -36.808 63.681 -36.808 Z M63.681 -22.902 Q63.232 -22.902 62.929 -23.085 Q62.627 -23.269 62.627 -23.716 Q62.627 -24.164 62.961 -24.396 Q63.296 -24.628 63.662 -24.628 Q65.611 -24.628 67.127 -25.392 Q68.643 -26.156 69.777 -28.03 Q71.317 -29.802 73.03 -30.741 Q74.743 -31.679 76.829 -31.679 Q77.245 -31.679 77.555 -31.507 Q77.864 -31.334 77.864 -30.84 Q77.864 -30.346 77.572 -30.15 Q77.279 -29.954 76.878 -29.954 Q74.994 -29.954 73.396 -29.14 Q71.799 -28.326 70.714 -26.551 Q69.185 -24.529 67.513 -23.716 Q65.841 -22.902 63.681 -22.902 Z M24.706 -7.763 Q22.646 -7.763 21.235 -9.174 Q19.824 -10.585 19.824 -12.645 V-54.067 Q19.824 -57.794 22.359 -60.32 Q24.895 -62.845 28.601 -62.845 H56.808 Q60.488 -62.845 63.037 -60.32 Q65.586 -57.794 65.586 -54.067 V-49.333 H65.337 Q64.279 -49.333 63.576 -48.621 Q62.873 -47.908 62.873 -46.868 V-19.203 Q62.873 -18.16 63.574 -17.47 Q64.275 -16.779 65.334 -16.779 H65.586 V-12.622 Q65.586 -10.555 64.152 -9.159 Q62.718 -7.763 60.704 -7.763 H24.706 Z"/></g></g></svg>