<svg xmlns="http://www.w3.org/2000/svg" version="1.1" width="3300" height="2000"><g id="Notes"><style>
    text {
      font-family: monospace;
      text-anchor: middle;
    }
    text.emphasis {
      font-weight:bold;
    }
    text.lanchor {
      text-anchor: start;
    }
  </style><rect height="2200" id="artboard" fill="white" width="3300" x="0" y="0"/><line id="" style="fill:none;stroke:black;stroke-width:0.5;" x1="263" x2="3036" y1="292" y2="292"/><text class="lanchor emphasis" transform="matrix(1 0 0 1 263 322)">Weight/Scale Variations</text><text transform="matrix(1 0 0 1 559.711 322)">Ultralight</text><text transform="matrix(1 0 0 1 856.422 322)">Thin</text><text transform="matrix(1 0 0 1 1153.13 322)">Light</text><text transform="matrix(1 0 0 1 1449.84 322)">Regular</text><text transform="matrix(1 0 0 1 1746.56 322)">Medium</text><text transform="matrix(1 0 0 1 2043.27 322)">Semibold</text><text transform="matrix(1 0 0 1 2339.98 322)">Bold</text><text transform="matrix(1 0 0 1 2636.69 322)">Heavy</text><text transform="matrix(1 0 0 1 2933.4 322)">Black</text><text id="template-version" style="text-anchor: end;" transform="matrix(1 0 0 1 3036 1933)">Template v.1.0</text><text class="lanchor" transform="matrix(1 0 0 1 263 726)">Small</text><text class="lanchor" transform="matrix(1 0 0 1 263 1156)">Medium</text><text class="lanchor" transform="matrix(1 0 0 1 263 1586)">Large</text></g><g id="Guides"><g id="H-reference" style="fill:#27AAE1;stroke:none;" transform="matrix(1 0 0 1 339 696)"><path d="M 54.9316 0 L 57.666 0 L 30.5664 -70.459 L 28.0762 -70.459 L 0.976562 0 L 3.66211 0 L 12.9395 -24.4629 L 45.7031 -24.4629 Z M 29.1992 -67.0898 L 29.4434 -67.0898 L 44.8242 -26.709 L 13.8184 -26.709 Z"/></g><line id="Baseline-S" style="fill:none;stroke:#27AAE1;opacity:1;stroke-width:0.577;" x1="263" x2="3036" y1="696" y2="696"/><line id="Capline-S" style="fill:none;stroke:#27AAE1;opacity:1;stroke-width:0.577;" x1="263" x2="3036" y1="625.541" y2="625.541"/><g id="H-reference" style="fill:#27AAE1;stroke:none;" transform="matrix(1 0 0 1 339 1126)"><path d="M 54.9316 0 L 57.666 0 L 30.5664 -70.459 L 28.0762 -70.459 L 0.976562 0 L 3.66211 0 L 12.9395 -24.4629 L 45.7031 -24.4629 Z M 29.1992 -67.0898 L 29.4434 -67.0898 L 44.8242 -26.709 L 13.8184 -26.709 Z"/></g><line id="Baseline-M" style="fill:none;stroke:#27AAE1;opacity:1;stroke-width:0.577;" x1="263" x2="3036" y1="1126" y2="1126"/><line id="Capline-M" style="fill:none;stroke:#27AAE1;opacity:1;stroke-width:0.577;" x1="263" x2="3036" y1="1055.54" y2="1055.54"/><g id="H-reference" style="fill:#27AAE1;stroke:none;" transform="matrix(1 0 0 1 339 1556)"><path d="M 54.9316 0 L 57.666 0 L 30.5664 -70.459 L 28.0762 -70.459 L 0.976562 0 L 3.66211 0 L 12.9395 -24.4629 L 45.7031 -24.4629 Z M 29.1992 -67.0898 L 29.4434 -67.0898 L 44.8242 -26.709 L 13.8184 -26.709 Z"/></g><line id="Baseline-L" style="fill:none;stroke:#27AAE1;opacity:1;stroke-width:0.577;" x1="263" x2="3036" y1="1556" y2="1556"/><line id="Capline-L" style="fill:none;stroke:#27AAE1;opacity:1;stroke-width:0.577;" x1="263" x2="3036" y1="1485.54" y2="1485.54"/><rect height="119.336" id="left-margin" style="fill:darkred;stroke:none;opacity:0.4;" width="12.4512" x="1394.06" y="1030.79"/><rect height="119.336" id="right-margin" style="fill:darkgreen;stroke:none;opacity:0.4;" width="12.4512" x="1502.5112" y="1030.79"/><rect x="1406.5112" y="1045" width="96" height="96" fill="none" stroke="blue" stroke-dasharray="5"/><rect x="1394.06" y="1030.79" width="120.9024" height="119.336" fill="none" stroke="blue"/></g><g id="Symbols"><g id="Bold-L" transform="matrix(1 0 0 1 2266 1556)"><path d="M53.8575 4.760000000000005 H59.98500000000001 Q63.048750000000005 4.760000000000005 64.66125000000001 3.2281249999999915 Q66.27375 1.6962500000000205 66.27375 -1.528749999999988 V-22.652500000000003 H68.20875 Q70.305 -23.13624999999999 71.514375 -25.071249999999992 Q72.72375000000001 -27.006249999999994 72.72375000000001 -29.908749999999998 V-40.39 Q72.72375000000001 -45.55 69.015 -49.25875 Q65.30625 -52.967499999999994 60.146249999999995 -52.967499999999994 H53.69625 Q48.375 -52.967499999999994 44.66625 -49.25875 Q40.957499999999996 -45.55 40.957499999999996 -40.39 V-29.908749999999998 Q40.957499999999996 -27.006249999999994 42.2475 -25.071249999999992 Q43.5375 -23.13624999999999 45.4725 -22.652500000000003 H47.4075 V-1.528749999999988 Q47.4075 1.6962500000000205 49.019999999999996 3.2281249999999915 Q50.6325 4.760000000000005 53.8575 4.760000000000005 Z M56.92124999999999 -58.44999999999999 Q60.791250000000005 -58.44999999999999 63.371249999999996 -61.11062499999999 Q65.95125 -63.771249999999995 65.95125 -67.47999999999999 Q65.95125 -71.18875 63.371249999999996 -73.849375 Q60.791250000000005 -76.50999999999999 56.92124999999999 -76.50999999999999 Q53.051249999999996 -76.50999999999999 50.471250000000005 -73.849375 Q47.89125 -71.18875 47.89125 -67.47999999999999 Q47.89125 -63.771249999999995 50.471250000000005 -61.11062499999999 Q53.051249999999996 -58.44999999999999 56.92124999999999 -58.44999999999999 Z M89.01 -43.614999999999995 H106.7475 Q109.16625 -43.614999999999995 110.29500000000002 -45.469375 Q111.42375 -47.32374999999999 110.13374999999999 -49.41999999999999 L101.10375 -63.44875 Q100.78125 -64.09375 97.87875000000001 -65.54499999999999 Q97.0725 -65.54499999999999 96.105 -65.06125 Q95.1375 -64.57749999999999 94.65375 -63.61 L85.78500000000001 -49.41999999999999 Q84.495 -47.32374999999999 85.62375 -45.469375 Q86.7525 -43.614999999999995 89.01 -43.614999999999995 Z M97.7175 -5.0762499999999875 Q98.685 -5.0762499999999875 99.6525 -5.47937499999999 Q100.62 -5.882499999999993 101.10375 -7.01124999999999 L110.13374999999999 -21.362499999999997 Q111.42375 -23.13624999999999 110.21437499999999 -25.071249999999992 Q109.005 -27.006249999999994 106.7475 -27.006249999999994 H89.01 Q86.7525 -27.006249999999994 85.62375 -25.071249999999992 Q84.495 -23.13624999999999 85.78500000000001 -21.362499999999997 L94.65375 -7.01124999999999 Q94.97625000000001 -6.3662499999999795 97.7175 -5.0762499999999875 Z M30.798750000000002 26.045000000000016 Q24.67125 26.045000000000016 20.398125 21.771874999999994 Q16.125 17.49875 16.125 11.371250000000018 V-81.83125 Q16.125 -87.7975 20.398125 -92.3125 Q24.67125 -96.82749999999999 30.798750000000002 -96.82749999999999 H124.00125000000001 Q129.9675 -96.82749999999999 134.48250000000002 -92.3125 Q138.9975 -87.7975 138.9975 -81.83125 V11.371250000000018 Q138.9975 17.49875 134.48250000000002 21.771874999999994 Q129.9675 26.045000000000016 124.00125000000001 26.045000000000016 H30.798750000000002 Z M30.798750000000002 11.371250000000018 H124.00125000000001 Q124.00125000000001 11.371250000000018 124.00125000000001 11.371250000000018 Q124.00125000000001 11.371250000000018 124.00125000000001 11.371250000000018 V-81.83125 Q124.00125000000001 -81.83125 124.00125000000001 -81.83125 Q124.00125000000001 -81.83125 124.00125000000001 -81.83125 H30.798750000000002 Q30.798750000000002 -81.83125 30.798750000000002 -81.83125 Q30.798750000000002 -81.83125 30.798750000000002 -81.83125 V11.371250000000018 Q30.798750000000002 11.371250000000018 30.798750000000002 11.371250000000018 Q30.798750000000002 11.371250000000018 30.798750000000002 11.371250000000018 Z"/></g><g id="Semibold-L" transform="matrix(1 0 0 1 1970.27 1556)"><path d="M52.245 4.760000000000005 H59.98500000000001 Q62.565 4.760000000000005 64.01625 3.3087500000000176 Q65.4675 1.8575000000000017 65.4675 -0.7224999999999824 V-22.652500000000003 H67.4025 Q69.49875 -22.813749999999985 70.70812500000001 -24.506874999999994 Q71.9175 -26.19999999999999 71.9175 -28.779999999999987 V-40.39 Q71.9175 -45.55 68.20875 -49.25875 Q64.5 -52.967499999999994 59.339999999999996 -52.967499999999994 H52.88999999999999 Q47.56875 -52.967499999999994 43.86 -49.25875 Q40.15125 -45.55 40.15125 -40.39 V-28.779999999999987 Q40.15125 -26.19999999999999 41.44125 -24.506874999999994 Q42.73125 -22.813749999999985 44.66625 -22.652500000000003 H46.60125 V-0.7224999999999824 Q46.60125 1.8575000000000017 48.0525 3.3087500000000176 Q49.503750000000004 4.760000000000005 52.245 4.760000000000005 Z M56.114999999999995 -58.44999999999999 Q59.823750000000004 -58.44999999999999 62.484375 -61.11062499999999 Q65.145 -63.771249999999995 65.145 -67.47999999999999 Q65.145 -71.18875 62.484375 -73.849375 Q59.823750000000004 -76.50999999999999 56.114999999999995 -76.50999999999999 Q52.245 -76.50999999999999 49.665 -73.849375 Q47.085 -71.18875 47.085 -67.47999999999999 Q47.085 -63.771249999999995 49.665 -61.11062499999999 Q52.245 -58.44999999999999 56.114999999999995 -58.44999999999999 Z M88.20375000000001 -43.614999999999995 H108.36000000000001 Q110.29500000000002 -43.614999999999995 111.181875 -45.146874999999994 Q112.06875000000001 -46.678749999999994 111.10125000000001 -48.29124999999999 L100.94250000000001 -64.41624999999999 Q100.78125 -64.89999999999999 98.3625 -66.02875 Q97.55625 -66.02875 96.75 -65.625625 Q95.94375000000001 -65.2225 95.62125 -64.41624999999999 L85.4625 -48.29124999999999 Q84.495 -46.678749999999994 85.38187500000001 -45.146874999999994 Q86.26875 -43.614999999999995 88.20375000000001 -43.614999999999995 Z M98.20125 -4.592499999999987 Q98.84625 -4.592499999999987 99.6525 -4.914999999999992 Q100.45875 -5.237499999999997 100.94250000000001 -6.043750000000003 L111.10125000000001 -22.16874999999999 Q112.06875000000001 -23.781249999999986 111.10125000000001 -25.393749999999997 Q110.13374999999999 -27.006249999999994 108.36000000000001 -27.006249999999994 H88.20375000000001 Q86.26875 -27.006249999999994 85.38187500000001 -25.393749999999997 Q84.495 -23.781249999999986 85.4625 -22.16874999999999 L95.62125 -6.043750000000003 Q95.7825 -5.721249999999998 98.20125 -4.592499999999987 Z M30.15375 24.432500000000005 Q25.155 24.432500000000005 21.446250000000003 20.723750000000024 Q17.7375 17.015000000000015 17.7375 12.01625 V-82.47625 Q17.7375 -87.475 21.446250000000003 -91.18374999999999 Q25.155 -94.8925 30.15375 -94.8925 H124.64625 Q129.645 -94.8925 133.35375000000002 -91.18374999999999 Q137.0625 -87.475 137.0625 -82.47625 V12.01625 Q137.0625 17.015000000000015 133.35375000000002 20.723750000000024 Q129.645 24.432500000000005 124.64625 24.432500000000005 H30.15375 Z M30.15375 12.01625 H124.64625 Q124.64625 12.01625 124.64625 12.01625 Q124.64625 12.01625 124.64625 12.01625 V-82.47625 Q124.64625 -82.47625 124.64625 -82.47625 Q124.64625 -82.47625 124.64625 -82.47625 H30.15375 Q30.15375 -82.47625 30.15375 -82.47625 Q30.15375 -82.47625 30.15375 -82.47625 V12.01625 Q30.15375 12.01625 30.15375 12.01625 Q30.15375 12.01625 30.15375 12.01625 Z"/></g><g id="Medium-L" transform="matrix(1 0 0 1 1674.31 1556)"><path d="M51.11625 4.760000000000005 H59.98500000000001 Q62.24250000000001 4.760000000000005 63.613125000000004 3.470000000000013 Q64.98375 2.180000000000007 64.98375 -0.2387499999999818 V-22.652500000000003 H66.7575 Q68.85375 -22.652500000000003 70.14375 -24.10374999999999 Q71.43375 -25.554999999999993 71.43375 -27.812499999999986 V-40.39 Q71.43375 -45.55 67.72500000000001 -49.25875 Q64.01625 -52.967499999999994 58.695 -52.967499999999994 H52.245 Q46.923750000000005 -52.967499999999994 43.215 -49.25875 Q39.50625 -45.55 39.50625 -40.39 V-27.812499999999986 Q39.50625 -25.554999999999993 40.79625 -24.10374999999999 Q42.08625000000001 -22.652500000000003 44.1825 -22.652500000000003 H45.956250000000004 V-0.2387499999999818 Q45.956250000000004 2.180000000000007 47.326875 3.470000000000013 Q48.6975 4.760000000000005 51.11625 4.760000000000005 Z M55.47 -58.44999999999999 Q59.17875000000001 -58.44999999999999 61.839375000000004 -61.11062499999999 Q64.5 -63.771249999999995 64.5 -67.47999999999999 Q64.5 -71.18875 61.839375000000004 -73.849375 Q59.17875000000001 -76.50999999999999 55.47 -76.50999999999999 Q51.761250000000004 -76.50999999999999 49.100625 -73.849375 Q46.440000000000005 -71.18875 46.440000000000005 -67.47999999999999 Q46.440000000000005 -63.771249999999995 49.100625 -61.11062499999999 Q51.761250000000004 -58.44999999999999 55.47 -58.44999999999999 Z M87.55875 -43.614999999999995 H109.48875000000001 Q111.10125000000001 -43.614999999999995 111.90750000000001 -44.90499999999999 Q112.71375000000002 -46.19499999999999 111.74625 -47.646249999999995 L100.78125 -65.06125 Q100.78125 -65.38374999999999 98.52375 -66.51249999999999 Q98.03999999999999 -66.51249999999999 97.314375 -66.109375 Q96.58875 -65.70624999999998 96.26625000000001 -65.06125 L85.30125 -47.646249999999995 Q84.495 -46.19499999999999 85.30125 -44.90499999999999 Q86.1075 -43.614999999999995 87.55875 -43.614999999999995 Z M98.52375 -4.108750000000001 Q99.16875 -4.108750000000001 99.81375 -4.431250000000006 Q100.45875 -4.753749999999982 100.78125 -5.398749999999993 L111.90750000000001 -22.813749999999985 Q112.71375000000002 -24.265 111.90750000000001 -25.63562499999999 Q111.10125000000001 -27.006249999999994 109.48875000000001 -27.006249999999994 H87.72 Q85.94624999999999 -27.006249999999994 85.220625 -25.63562499999999 Q84.495 -24.265 85.30125 -22.813749999999985 L96.26625000000001 -5.398749999999993 Q96.4275 -5.0762499999999875 98.52375 -4.108750000000001 Z M29.669999999999998 22.98124999999999 Q25.477500000000003 22.98124999999999 22.333125 19.83687500000002 Q19.188750000000002 16.692500000000024 19.188750000000002 12.5 V-82.96 Q19.188750000000002 -87.15249999999999 22.333125 -90.3775 Q25.477500000000003 -93.60249999999999 29.669999999999998 -93.60249999999999 H125.13 Q129.32250000000002 -93.60249999999999 132.5475 -90.3775 Q135.7725 -87.15249999999999 135.7725 -82.96 V12.5 Q135.7725 16.692500000000024 132.5475 19.83687500000002 Q129.32250000000002 22.98124999999999 125.13 22.98124999999999 H29.669999999999998 Z M29.669999999999998 12.5 H125.13 Q125.13 12.5 125.13 12.5 Q125.13 12.5 125.13 12.5 V-82.96 Q125.13 -82.96 125.13 -82.96 Q125.13 -82.96 125.13 -82.96 H29.669999999999998 Q29.669999999999998 -82.96 29.669999999999998 -82.96 Q29.669999999999998 -82.96 29.669999999999998 -82.96 V12.5 Q29.669999999999998 12.5 29.669999999999998 12.5 Q29.669999999999998 12.5 29.669999999999998 12.5 Z"/></g><g id="Regular-L" transform="matrix(1 0 0 1 1378.56 1556)"><path d="M50.14875000000001 4.760000000000005 H59.98500000000001 Q61.92 4.760000000000005 63.21000000000001 3.470000000000013 Q64.5 2.180000000000007 64.5 0.24500000000000455 V-22.652500000000003 H66.435 Q68.37 -22.652500000000003 69.66000000000001 -23.942499999999995 Q70.95 -25.232499999999987 70.95 -27.16749999999999 V-40.39 Q70.95 -45.55 67.24125000000001 -49.25875 Q63.5325 -52.967499999999994 58.37250000000001 -52.967499999999994 H51.92250000000001 Q46.60125 -52.967499999999994 42.892500000000005 -49.25875 Q39.18375 -45.55 39.18375 -40.39 V-27.16749999999999 Q39.18375 -25.232499999999987 40.47375 -23.942499999999995 Q41.76375 -22.652500000000003 43.698750000000004 -22.652500000000003 H45.63375 V0.24500000000000455 Q45.63375 2.180000000000007 46.923750000000005 3.470000000000013 Q48.21375 4.760000000000005 50.14875000000001 4.760000000000005 Z M55.14750000000001 -58.44999999999999 Q58.85625 -58.44999999999999 61.516875 -61.11062499999999 Q64.1775 -63.771249999999995 64.1775 -67.47999999999999 Q64.1775 -71.18875 61.516875 -73.849375 Q58.85625 -76.50999999999999 55.14750000000001 -76.50999999999999 Q51.2775 -76.50999999999999 48.6975 -73.849375 Q46.11750000000001 -71.18875 46.11750000000001 -67.47999999999999 Q46.11750000000001 -63.771249999999995 48.6975 -61.11062499999999 Q51.2775 -58.44999999999999 55.14750000000001 -58.44999999999999 Z M87.23625 -43.614999999999995 H110.29500000000002 Q111.74625 -43.614999999999995 112.471875 -44.74374999999999 Q113.1975 -45.8725 112.39125000000001 -47.162499999999994 L100.78125 -65.54499999999999 Q100.62 -65.70624999999998 98.84625 -66.835 Q98.3625 -66.835 97.7175 -66.51249999999999 Q97.0725 -66.19 96.75 -65.70624999999998 L85.30125 -47.162499999999994 Q84.495 -45.8725 85.14 -44.74374999999999 Q85.78500000000001 -43.614999999999995 87.23625 -43.614999999999995 Z M98.685 -3.7862499999999955 Q99.33 -3.7862499999999955 99.89437500000001 -4.108750000000001 Q100.45875 -4.431250000000006 100.78125 -4.914999999999992 L112.39125000000001 -23.458749999999995 Q113.1975 -24.58749999999999 112.471875 -25.796874999999986 Q111.74625 -27.006249999999994 110.29500000000002 -27.006249999999994 H87.23625 Q85.78500000000001 -27.006249999999994 85.14 -25.796874999999986 Q84.495 -24.58749999999999 85.30125 -23.458749999999995 L96.75 -4.914999999999992 Q96.91125000000001 -4.753749999999982 98.685 -3.7862499999999955 Z M29.3475 22.013750000000016 Q25.63875 22.013750000000016 22.8975 19.272500000000008 Q20.15625 16.53125 20.15625 12.822500000000005 V-83.2825 Q20.15625 -86.83 22.8975 -89.73249999999999 Q25.63875 -92.63499999999999 29.3475 -92.63499999999999 H125.4525 Q129.0 -92.63499999999999 131.9025 -89.73249999999999 Q134.805 -86.83 134.805 -83.2825 V12.822500000000005 Q134.805 16.53125 131.9025 19.272500000000008 Q129.0 22.013750000000016 125.4525 22.013750000000016 H29.3475 Z M29.3475 12.822500000000005 H125.4525 Q125.4525 12.822500000000005 125.4525 12.822500000000005 Q125.4525 12.822500000000005 125.4525 12.822500000000005 V-83.2825 Q125.4525 -83.2825 125.4525 -83.2825 Q125.4525 -83.2825 125.4525 -83.2825 H29.3475 Q29.3475 -83.2825 29.3475 -83.2825 Q29.3475 -83.2825 29.3475 -83.2825 V12.822500000000005 Q29.3475 12.822500000000005 29.3475 12.822500000000005 Q29.3475 12.822500000000005 29.3475 12.822500000000005 Z"/></g><g id="Light-L" transform="matrix(1 0 0 1 1082.77 1556)"><path d="M52.728750000000005 2.825000000000003 H59.6625 Q61.597500000000004 2.825000000000003 62.8875 1.6156249999999943 Q64.1775 0.40625 64.1775 -1.6899999999999977 V-23.458749999999995 H66.1125 Q68.0475 -23.458749999999995 69.3375 -24.748749999999987 Q70.6275 -26.038749999999993 70.6275 -27.973749999999995 V-41.035 Q70.6275 -45.71124999999999 67.321875 -48.936249999999994 Q64.01625 -52.161249999999995 59.50125 -52.161249999999995 H53.051249999999996 Q48.21375 -52.161249999999995 44.988749999999996 -48.936249999999994 Q41.76375 -45.71124999999999 41.76375 -41.035 V-27.973749999999995 Q41.76375 -26.038749999999993 43.05375 -24.748749999999987 Q44.34375 -23.458749999999995 46.27875 -23.458749999999995 H48.21375 V-1.6899999999999977 Q48.21375 0.40625 49.503750000000004 1.6156249999999943 Q50.79375 2.825000000000003 52.728750000000005 2.825000000000003 Z M56.27625 -57.64374999999999 Q59.50125 -57.64374999999999 61.92 -60.06249999999999 Q64.33875 -62.48124999999999 64.33875 -65.86749999999999 Q64.33875 -69.0925 61.92 -71.51124999999999 Q59.50125 -73.92999999999999 56.27625 -73.92999999999999 Q52.88999999999999 -73.92999999999999 50.471250000000005 -71.51124999999999 Q48.0525 -69.0925 48.0525 -65.86749999999999 Q48.0525 -62.48124999999999 50.390625 -60.06249999999999 Q52.728750000000005 -57.64374999999999 56.27625 -57.64374999999999 Z M89.81625000000001 -44.582499999999996 H107.3925 Q108.84375 -44.582499999999996 109.48875000000001 -45.79187499999999 Q110.13374999999999 -47.001249999999985 109.3275 -48.129999999999995 L100.45875 -62.31999999999999 Q100.45875 -62.48124999999999 98.52375 -63.44875 Q98.03999999999999 -63.44875 97.47562500000001 -63.12624999999999 Q96.91125000000001 -62.803749999999994 96.4275 -62.31999999999999 L87.72 -48.129999999999995 Q86.91375 -47.001249999999985 87.639375 -45.79187499999999 Q88.365 -44.582499999999996 89.81625000000001 -44.582499999999996 Z M98.52375 -7.172499999999985 Q99.00750000000001 -7.172499999999985 99.571875 -7.414374999999993 Q100.13625 -7.65625 100.45875 -8.301249999999982 L109.3275 -22.33 Q110.13374999999999 -23.458749999999995 109.408125 -24.668125000000003 Q108.68250000000002 -25.877499999999998 107.23125 -25.877499999999998 H89.81625000000001 Q88.20375000000001 -25.877499999999998 87.55875 -24.668125000000003 Q86.91375 -23.458749999999995 87.72 -22.33 L96.58875 -8.301249999999982 Q96.75 -8.14 98.52375 -7.172499999999985 Z M32.08875 19.111250000000013 Q28.380000000000003 19.111250000000013 25.719375 16.450625000000002 Q23.058750000000003 13.79000000000002 23.058750000000003 10.081249999999997 V-80.54124999999999 Q23.058750000000003 -84.08875 25.719375 -86.83 Q28.380000000000003 -89.57124999999999 32.08875 -89.57124999999999 H122.71124999999999 Q126.25874999999999 -89.57124999999999 129.0 -86.83 Q131.74125 -84.08875 131.74125 -80.54124999999999 V10.081249999999997 Q131.74125 13.79000000000002 129.0 16.450625000000002 Q126.25874999999999 19.111250000000013 122.71124999999999 19.111250000000013 H32.08875 Z M32.08875 12.01625 H122.71124999999999 Q123.5175 12.01625 124.08187500000001 11.451875000000015 Q124.64625 10.887500000000003 124.64625 10.081249999999997 V-80.54124999999999 Q124.64625 -81.3475 124.08187500000001 -81.911875 Q123.5175 -82.47625 122.71124999999999 -82.47625 H32.08875 Q31.2825 -82.47625 30.718125 -81.911875 Q30.15375 -81.3475 30.15375 -80.54124999999999 V10.081249999999997 Q30.15375 10.887500000000003 30.718125 11.451875000000015 Q31.2825 12.01625 32.08875 12.01625 Z"/></g><g id="Thin-L" transform="matrix(1 0 0 1 787.282 1556)"><path d="M55.308749999999996 0.8900000000000148 H59.339999999999996 Q61.275 0.8900000000000148 62.484375 -0.31937499999997954 Q63.69375 -1.528749999999988 63.69375 -3.4637499999999903 V-24.426249999999982 H65.78999999999999 Q67.72500000000001 -24.426249999999982 68.934375 -25.63562499999999 Q70.14375 -26.844999999999985 70.14375 -28.779999999999987 V-41.84125 Q70.14375 -45.71124999999999 67.4025 -48.533125 Q64.66125000000001 -51.355 60.63 -51.355 H54.18000000000001 Q49.987500000000004 -51.355 47.24625 -48.533125 Q44.505 -45.71124999999999 44.505 -41.84125 V-28.779999999999987 Q44.505 -26.844999999999985 45.714375000000004 -25.63562499999999 Q46.923750000000005 -24.426249999999982 48.85875 -24.426249999999982 H50.955000000000005 V-3.4637499999999903 Q50.955000000000005 -1.528749999999988 52.16437500000001 -0.31937499999997954 Q53.37375 0.8900000000000148 55.308749999999996 0.8900000000000148 Z M57.405 -56.83749999999999 Q60.3075 -56.83749999999999 62.484375 -58.933749999999996 Q64.66125000000001 -61.029999999999994 64.66125000000001 -64.09375 Q64.66125000000001 -67.1575 62.484375 -69.25375 Q60.3075 -71.35 57.405 -71.35 Q54.34125000000001 -71.35 52.245 -69.25375 Q50.14875000000001 -67.1575 50.14875000000001 -64.09375 Q50.14875000000001 -61.19125 52.245 -59.014374999999994 Q54.34125000000001 -56.83749999999999 57.405 -56.83749999999999 Z M92.23500000000001 -45.71124999999999 H104.32875000000001 Q105.77999999999999 -45.71124999999999 106.425 -46.84 Q107.07000000000001 -47.968749999999986 106.26375000000002 -49.25875 L100.29750000000001 -58.933749999999996 Q100.13625 -59.256249999999994 98.3625 -60.223749999999995 Q97.87875000000001 -60.223749999999995 97.23375 -59.82062499999999 Q96.58875 -59.4175 96.26625000000001 -58.933749999999996 L90.3 -49.25875 Q89.49375 -47.968749999999986 90.13875 -46.84 Q90.78375 -45.71124999999999 92.23500000000001 -45.71124999999999 Z M98.20125 -10.558750000000003 Q98.685 -10.558750000000003 99.249375 -10.800624999999997 Q99.81375 -11.04249999999999 100.29750000000001 -11.687499999999986 L106.425 -21.201249999999987 Q107.23125 -22.491249999999994 106.505625 -23.700625000000002 Q105.77999999999999 -24.909999999999997 104.16749999999999 -24.909999999999997 H92.39625 Q90.78375 -24.909999999999997 90.058125 -23.700625000000002 Q89.3325 -22.491249999999994 90.3 -21.201249999999987 L96.26625000000001 -11.687499999999986 Q96.4275 -11.52624999999999 98.20125 -10.558750000000003 Z M34.830000000000005 16.20875000000001 Q31.121250000000003 16.20875000000001 28.541249999999998 13.628749999999997 Q25.961250000000003 11.048750000000013 25.961250000000003 7.340000000000018 V-77.79999999999998 Q25.961250000000003 -81.50874999999999 28.541249999999998 -84.08875 Q31.121250000000003 -86.66874999999999 34.830000000000005 -86.66874999999999 H119.97000000000001 Q123.67875000000001 -86.66874999999999 126.25874999999999 -84.08875 Q128.83875 -81.50874999999999 128.83875 -77.79999999999998 V7.340000000000018 Q128.83875 11.048750000000013 126.25874999999999 13.628749999999997 Q123.67875000000001 16.20875000000001 119.97000000000001 16.20875000000001 H34.830000000000005 Z M34.830000000000005 11.371250000000018 H119.97000000000001 Q121.74375 11.371250000000018 122.8725 10.242500000000007 Q124.00125000000001 9.11375000000001 124.00125000000001 7.340000000000018 V-77.79999999999998 Q124.00125000000001 -79.57374999999999 122.8725 -80.70249999999999 Q121.74375 -81.83125 119.97000000000001 -81.83125 H34.830000000000005 Q33.05625 -81.83125 31.927500000000002 -80.70249999999999 Q30.798750000000002 -79.57374999999999 30.798750000000002 -77.79999999999998 V7.340000000000018 Q30.798750000000002 9.11375000000001 31.927500000000002 10.242500000000007 Q33.05625 11.371250000000018 34.830000000000005 11.371250000000018 Z"/></g><g id="Ultralight-L" transform="matrix(1 0 0 1 491.205 1556)"><path d="M56.92124999999999 -0.4000000000000057 H59.17875000000001 Q61.113749999999996 -0.4000000000000057 62.323125 -1.528749999999988 Q63.5325 -2.6574999999999847 63.5325 -4.753749999999982 V-25.071249999999992 H65.62875000000001 Q67.56375 -25.071249999999992 68.773125 -26.19999999999999 Q69.9825 -27.32875 69.9825 -29.424999999999997 V-42.32499999999999 Q69.9825 -45.8725 67.483125 -48.37187499999999 Q64.98375 -50.871249999999996 61.43625 -50.871249999999996 H54.986250000000005 Q51.11625 -50.871249999999996 48.616875 -48.37187499999999 Q46.11750000000001 -45.8725 46.11750000000001 -42.32499999999999 V-29.424999999999997 Q46.11750000000001 -27.32875 47.326875 -26.19999999999999 Q48.53625 -25.071249999999992 50.471250000000005 -25.071249999999992 H52.5675 V-4.753749999999982 Q52.5675 -2.6574999999999847 53.776875000000004 -1.528749999999988 Q54.986250000000005 -0.4000000000000057 56.92124999999999 -0.4000000000000057 Z M58.050000000000004 -56.35375 Q60.791250000000005 -56.35375 62.8875 -58.369375 Q64.98375 -60.385 64.98375 -63.12624999999999 Q64.98375 -65.86749999999999 62.8875 -67.88312499999999 Q60.791250000000005 -69.89874999999999 58.21125000000001 -69.89874999999999 Q55.308749999999996 -69.89874999999999 53.37375 -67.88312499999999 Q51.43875 -65.86749999999999 51.43875 -63.12624999999999 Q51.43875 -60.385 53.37375 -58.369375 Q55.308749999999996 -56.35375 58.050000000000004 -56.35375 Z M93.84750000000001 -46.5175 H102.39375 Q104.00625000000001 -46.5175 104.65125000000002 -47.565625 Q105.29625 -48.613749999999996 104.49 -49.903749999999995 L100.13625 -56.83749999999999 Q99.97500000000001 -57.16 98.20125 -58.288749999999986 Q97.87875000000001 -58.288749999999986 97.153125 -57.80499999999999 Q96.4275 -57.32125 96.105 -56.998749999999994 L91.91250000000001 -49.903749999999995 Q90.945 -48.613749999999996 91.670625 -47.565625 Q92.39625 -46.5175 93.84750000000001 -46.5175 Z M98.03999999999999 -12.654999999999987 Q98.52375 -12.654999999999987 99.088125 -12.896874999999994 Q99.6525 -13.138749999999987 100.13625 -13.783749999999998 L104.65125000000002 -20.55624999999999 Q105.45750000000001 -21.846249999999998 104.731875 -23.055624999999992 Q104.00625000000001 -24.265 102.39375 -24.265 H94.00874999999999 Q92.23500000000001 -24.265 91.59 -23.055624999999992 Q90.945 -21.846249999999998 91.91250000000001 -20.55624999999999 L96.105 -13.783749999999998 Q96.26625000000001 -13.622499999999988 98.03999999999999 -12.654999999999987 Z M36.4425 14.435000000000002 Q32.894999999999996 14.435000000000002 30.315 11.855000000000018 Q27.735 9.275000000000006 27.735 5.7275000000000205 V-76.1875 Q27.735 -79.735 30.315 -82.315 Q32.894999999999996 -84.895 36.4425 -84.895 H118.35750000000002 Q121.905 -84.895 124.48500000000001 -82.315 Q127.065 -79.735 127.065 -76.1875 V5.7275000000000205 Q127.065 9.275000000000006 124.48500000000001 11.855000000000018 Q121.905 14.435000000000002 118.35750000000002 14.435000000000002 H36.4425 Z M36.4425 10.887500000000003 H118.35750000000002 Q120.615 10.887500000000003 122.06625000000001 9.436250000000015 Q123.5175 7.984999999999999 123.5175 5.7275000000000205 V-76.1875 Q123.5175 -78.445 122.06625000000001 -79.89625 Q120.615 -81.3475 118.35750000000002 -81.3475 H36.4425 Q34.185 -81.3475 32.73375 -79.89625 Q31.2825 -78.445 31.2825 -76.1875 V5.7275000000000205 Q31.2825 7.984999999999999 32.73375 9.436250000000015 Q34.185 10.887500000000003 36.4425 10.887500000000003 Z"/></g><g id="Bold-M" transform="matrix(1 0 0 1 2281.8 1126)"><path d="M44.125 -5.60499999999999 H45.375 Q48.5 -5.60499999999999 50.19 -7.2949999999999875 Q51.875 -8.97999999999999 51.875 -12.10499999999999 V-25.60499999999999 H52.25 Q54.25 -26.22999999999999 55.565 -28.22999999999999 Q56.875 -30.22999999999999 56.875 -33.10499999999999 V-38.10499999999999 Q56.875 -41.97999999999999 54.0 -44.85499999999999 Q51.125 -47.72999999999999 47.25 -47.72999999999999 H42.25 Q38.25 -47.72999999999999 35.375 -44.85499999999999 Q32.5 -41.97999999999999 32.5 -38.10499999999999 V-33.10499999999999 Q32.5 -30.22999999999999 33.815 -28.22999999999999 Q35.125 -26.22999999999999 37.125 -25.60499999999999 H37.5 V-12.10499999999999 Q37.5 -8.97999999999999 39.25 -7.2949999999999875 Q41.0 -5.60499999999999 44.125 -5.60499999999999 Z M44.75 -52.72999999999999 Q47.375 -52.72999999999999 49.19 -54.54499999999999 Q51.0 -56.35499999999999 51.0 -58.97999999999999 Q51.0 -61.60499999999999 49.19 -63.41999999999999 Q47.375 -65.22999999999999 44.75 -65.22999999999999 Q42.125 -65.22999999999999 40.309999999999995 -63.41999999999999 Q38.5 -61.60499999999999 38.5 -58.97999999999999 Q38.5 -56.35499999999999 40.309999999999995 -54.54499999999999 Q42.125 -52.72999999999999 44.75 -52.72999999999999 Z M71.125 -40.60499999999999 H80.75 Q83.25 -40.60499999999999 84.375 -42.60499999999999 Q85.5 -44.60499999999999 84.125 -46.47999999999999 L79.25 -54.35499999999999 Q78.875 -55.22999999999999 75.875 -56.22999999999999 Q74.875 -56.22999999999999 74.0 -55.794999999999995 Q73.125 -55.35499999999999 72.625 -54.35499999999999 L67.75 -46.47999999999999 Q66.375 -44.60499999999999 67.56 -42.60499999999999 Q68.75 -40.60499999999999 71.125 -40.60499999999999 Z M75.875 -14.35499999999999 Q76.875 -14.35499999999999 77.81 -14.72999999999999 Q78.75 -15.10499999999999 79.25 -16.22999999999999 L84.25 -23.97999999999999 Q85.5 -25.97999999999999 84.375 -27.97999999999999 Q83.25 -29.97999999999999 80.75 -29.97999999999999 H71.125 Q68.75 -29.97999999999999 67.625 -27.97999999999999 Q66.5 -25.97999999999999 67.75 -23.97999999999999 L72.625 -16.10499999999999 Q73.125 -15.35499999999999 75.875 -14.35499999999999 Z M27.0 12.89500000000001 Q20.625 12.89500000000001 16.25 8.52000000000001 Q11.875 4.14500000000001 11.875 -2.2299999999999898 V-68.22999999999999 Q11.875 -74.60499999999999 16.25 -78.97999999999999 Q20.625 -83.35499999999999 27.0 -83.35499999999999 H93.0 Q99.375 -83.35499999999999 103.75 -78.97999999999999 Q108.125 -74.60499999999999 108.125 -68.22999999999999 V-2.2299999999999898 Q108.125 4.14500000000001 103.75 8.52000000000001 Q99.375 12.89500000000001 93.0 12.89500000000001 H27.0 Z M27.0 -2.2299999999999898 H93.0 Q93.0 -2.2299999999999898 93.0 -2.2299999999999898 Q93.0 -2.2299999999999898 93.0 -2.2299999999999898 V-68.22999999999999 Q93.0 -68.22999999999999 93.0 -68.22999999999999 Q93.0 -68.22999999999999 93.0 -68.22999999999999 H27.0 Q27.0 -68.22999999999999 27.0 -68.22999999999999 Q27.0 -68.22999999999999 27.0 -68.22999999999999 V-2.2299999999999898 Q27.0 -2.2299999999999898 27.0 -2.2299999999999898 Q27.0 -2.2299999999999898 27.0 -2.2299999999999898 Z"/></g><g id="Semibold-M" transform="matrix(1 0 0 1 1985.97 1126)"><path d="M42.5 -5.60499999999999 H45.375 Q48.0 -5.60499999999999 49.5 -7.10499999999999 Q51.0 -8.60499999999999 51.0 -11.22999999999999 V-25.60499999999999 H51.375 Q53.375 -25.85499999999999 54.690000000000005 -27.60499999999999 Q56.0 -29.35499999999999 56.0 -31.85499999999999 V-38.10499999999999 Q56.0 -41.97999999999999 53.19 -44.85499999999999 Q50.375 -47.72999999999999 46.375 -47.72999999999999 H41.375 Q37.375 -47.72999999999999 34.5 -44.85499999999999 Q31.625 -41.97999999999999 31.625 -38.10499999999999 V-31.85499999999999 Q31.625 -29.35499999999999 33.0 -27.60499999999999 Q34.375 -25.85499999999999 36.25 -25.60499999999999 H36.625 V-11.22999999999999 Q36.625 -8.60499999999999 38.25 -7.10499999999999 Q39.875 -5.60499999999999 42.5 -5.60499999999999 Z M43.875 -52.72999999999999 Q46.5 -52.72999999999999 48.315 -54.54499999999999 Q50.125 -56.35499999999999 50.125 -58.97999999999999 Q50.125 -61.60499999999999 48.315 -63.41999999999999 Q46.5 -65.22999999999999 43.875 -65.22999999999999 Q41.25 -65.22999999999999 39.44 -63.41999999999999 Q37.625 -61.60499999999999 37.625 -58.97999999999999 Q37.625 -56.35499999999999 39.44 -54.54499999999999 Q41.25 -52.72999999999999 43.875 -52.72999999999999 Z M70.25 -40.60499999999999 H82.5 Q84.375 -40.60499999999999 85.375 -42.22999999999999 Q86.375 -43.85499999999999 85.25 -45.47999999999999 L79.125 -55.22999999999999 Q78.75 -55.85499999999999 76.25 -56.72999999999999 Q75.5 -56.72999999999999 74.75 -56.419999999999995 Q74.0 -56.10499999999999 73.625 -55.22999999999999 L67.5 -45.47999999999999 Q66.375 -43.85499999999999 67.315 -42.22999999999999 Q68.25 -40.60499999999999 70.25 -40.60499999999999 Z M76.375 -13.72999999999999 Q77.125 -13.72999999999999 77.875 -14.039999999999992 Q78.625 -14.35499999999999 79.125 -15.22999999999999 L85.25 -24.97999999999999 Q86.25 -26.60499999999999 85.31 -28.294999999999987 Q84.375 -29.97999999999999 82.5 -29.97999999999999 H70.25 Q68.25 -29.97999999999999 67.375 -28.294999999999987 Q66.5 -26.60499999999999 67.5 -24.97999999999999 L73.625 -15.22999999999999 Q74.0 -14.60499999999999 76.375 -13.72999999999999 Z M26.375 11.02000000000001 Q21.125 11.02000000000001 17.44 7.3300000000000125 Q13.75 3.6450000000000102 13.75 -1.6049999999999898 V-68.85499999999999 Q13.75 -74.10499999999999 17.44 -77.79499999999999 Q21.125 -81.47999999999999 26.375 -81.47999999999999 H93.625 Q98.875 -81.47999999999999 102.56500000000001 -77.79499999999999 Q106.25 -74.10499999999999 106.25 -68.85499999999999 V-1.6049999999999898 Q106.25 3.6450000000000102 102.56500000000001 7.3300000000000125 Q98.875 11.02000000000001 93.625 11.02000000000001 H26.375 Z M26.375 -1.6049999999999898 H93.625 Q93.625 -1.6049999999999898 93.625 -1.6049999999999898 Q93.625 -1.6049999999999898 93.625 -1.6049999999999898 V-68.85499999999999 Q93.625 -68.85499999999999 93.625 -68.85499999999999 Q93.625 -68.85499999999999 93.625 -68.85499999999999 H26.375 Q26.375 -68.85499999999999 26.375 -68.85499999999999 Q26.375 -68.85499999999999 26.375 -68.85499999999999 V-1.6049999999999898 Q26.375 -1.6049999999999898 26.375 -1.6049999999999898 Q26.375 -1.6049999999999898 26.375 -1.6049999999999898 Z"/></g><g id="Medium-M" transform="matrix(1 0 0 1 1689.91 1126)"><path d="M41.125 -5.60499999999999 H45.375 Q47.625 -5.60499999999999 49.059999999999995 -6.97999999999999 Q50.5 -8.35499999999999 50.5 -10.60499999999999 V-25.60499999999999 H50.875 Q52.75 -25.72999999999999 54.125 -27.22999999999999 Q55.5 -28.72999999999999 55.5 -30.85499999999999 V-38.10499999999999 Q55.5 -41.97999999999999 52.625 -44.85499999999999 Q49.75 -47.72999999999999 45.75 -47.72999999999999 H40.75 Q36.75 -47.72999999999999 33.94 -44.85499999999999 Q31.125 -41.97999999999999 31.125 -38.10499999999999 V-30.85499999999999 Q31.125 -28.72999999999999 32.440000000000005 -27.22999999999999 Q33.75 -25.72999999999999 35.75 -25.60499999999999 H36.125 V-10.60499999999999 Q36.125 -8.35499999999999 37.565 -6.97999999999999 Q39.0 -5.60499999999999 41.125 -5.60499999999999 Z M43.25 -52.72999999999999 Q45.875 -52.72999999999999 47.69 -54.54499999999999 Q49.5 -56.35499999999999 49.5 -58.97999999999999 Q49.5 -61.60499999999999 47.69 -63.41999999999999 Q45.875 -65.22999999999999 43.25 -65.22999999999999 Q40.625 -65.22999999999999 38.815 -63.41999999999999 Q37.0 -61.60499999999999 37.0 -58.97999999999999 Q37.0 -56.35499999999999 38.815 -54.54499999999999 Q40.625 -52.72999999999999 43.25 -52.72999999999999 Z M69.625 -40.60499999999999 H83.625 Q85.375 -40.60499999999999 86.125 -41.97999999999999 Q86.875 -43.35499999999999 86.0 -44.72999999999999 L79.0 -55.85499999999999 Q78.75 -56.35499999999999 76.625 -57.22999999999999 Q76.0 -57.22999999999999 75.375 -56.91999999999999 Q74.75 -56.60499999999999 74.375 -55.85499999999999 L67.375 -44.72999999999999 Q66.375 -43.35499999999999 67.19 -41.97999999999999 Q68.0 -40.60499999999999 69.625 -40.60499999999999 Z M76.625 -13.22999999999999 Q77.375 -13.22999999999999 78.0 -13.544999999999987 Q78.625 -13.85499999999999 79.0 -14.60499999999999 L86.0 -25.72999999999999 Q86.875 -27.10499999999999 86.125 -28.544999999999987 Q85.375 -29.97999999999999 83.625 -29.97999999999999 H69.625 Q68.0 -29.97999999999999 67.25 -28.544999999999987 Q66.5 -27.10499999999999 67.25 -25.72999999999999 L74.375 -14.47999999999999 Q74.625 -14.10499999999999 76.625 -13.22999999999999 Z M25.875 9.64500000000001 Q21.375 9.64500000000001 18.25 6.52000000000001 Q15.125 3.3950000000000102 15.125 -1.1049999999999898 V-69.35499999999999 Q15.125 -73.85499999999999 18.25 -76.97999999999999 Q21.375 -80.10499999999999 25.875 -80.10499999999999 H94.125 Q98.625 -80.10499999999999 101.75 -76.97999999999999 Q104.875 -73.85499999999999 104.875 -69.35499999999999 V-1.1049999999999898 Q104.875 3.3950000000000102 101.75 6.52000000000001 Q98.625 9.64500000000001 94.125 9.64500000000001 H25.875 Z M25.875 -1.1049999999999898 H94.125 Q94.125 -1.1049999999999898 94.125 -1.1049999999999898 Q94.125 -1.1049999999999898 94.125 -1.1049999999999898 V-69.35499999999999 Q94.125 -69.35499999999999 94.125 -69.35499999999999 Q94.125 -69.35499999999999 94.125 -69.35499999999999 H25.875 Q25.875 -69.35499999999999 25.875 -69.35499999999999 Q25.875 -69.35499999999999 25.875 -69.35499999999999 V-1.1049999999999898 Q25.875 -1.1049999999999898 25.875 -1.1049999999999898 Q25.875 -1.1049999999999898 25.875 -1.1049999999999898 Z"/></g><g id="Regular-M" transform="matrix(1 0 0 1 1394.06 1126)"><path d="M40.25 -5.60499999999999 H45.375 Q47.375 -5.60499999999999 48.69 -6.914999999999992 Q50.0 -8.22999999999999 50.0 -10.22999999999999 V-25.60499999999999 H50.375 Q52.375 -25.60499999999999 53.69 -26.919999999999987 Q55.0 -28.22999999999999 55.0 -30.22999999999999 V-38.10499999999999 Q55.0 -41.97999999999999 52.125 -44.85499999999999 Q49.25 -47.72999999999999 45.375 -47.72999999999999 H40.375 Q36.375 -47.72999999999999 33.5 -44.85499999999999 Q30.625 -41.97999999999999 30.625 -38.10499999999999 V-30.22999999999999 Q30.625 -28.22999999999999 31.939999999999998 -26.919999999999987 Q33.25 -25.60499999999999 35.25 -25.60499999999999 H35.625 V-10.22999999999999 Q35.625 -8.22999999999999 36.94 -6.914999999999992 Q38.25 -5.60499999999999 40.25 -5.60499999999999 Z M42.875 -52.72999999999999 Q45.5 -52.72999999999999 47.315 -54.54499999999999 Q49.125 -56.35499999999999 49.125 -58.97999999999999 Q49.125 -61.60499999999999 47.315 -63.41999999999999 Q45.5 -65.22999999999999 42.875 -65.22999999999999 Q40.25 -65.22999999999999 38.44 -63.41999999999999 Q36.625 -61.60499999999999 36.625 -58.97999999999999 Q36.625 -56.35499999999999 38.44 -54.54499999999999 Q40.25 -52.72999999999999 42.875 -52.72999999999999 Z M69.25 -40.60499999999999 H84.5 Q86.0 -40.60499999999999 86.685 -41.85499999999999 Q87.375 -43.10499999999999 86.5 -44.22999999999999 L78.875 -56.47999999999999 Q78.75 -56.85499999999999 76.875 -57.60499999999999 Q76.25 -57.60499999999999 75.75 -57.35499999999999 Q75.25 -57.10499999999999 74.875 -56.47999999999999 L67.25 -44.22999999999999 Q66.375 -43.10499999999999 67.065 -41.85499999999999 Q67.75 -40.60499999999999 69.25 -40.60499999999999 Z M76.875 -12.97999999999999 Q77.5 -12.97999999999999 78.065 -13.22999999999999 Q78.625 -13.47999999999999 78.875 -14.10499999999999 L86.625 -26.22999999999999 Q87.375 -27.47999999999999 86.685 -28.72999999999999 Q86.0 -29.97999999999999 84.5 -29.97999999999999 H69.25 Q67.75 -29.97999999999999 67.125 -28.72999999999999 Q66.5 -27.47999999999999 67.25 -26.22999999999999 L74.875 -13.97999999999999 Q75.125 -13.72999999999999 76.875 -12.97999999999999 Z M25.5 8.64500000000001 Q21.625 8.64500000000001 18.875 5.89500000000001 Q16.125 3.1450000000000102 16.125 -0.7299999999999898 V-69.72999999999999 Q16.125 -73.60499999999999 18.875 -76.35499999999999 Q21.625 -79.10499999999999 25.5 -79.10499999999999 H94.5 Q98.375 -79.10499999999999 101.125 -76.35499999999999 Q103.875 -73.60499999999999 103.875 -69.72999999999999 V-0.7299999999999898 Q103.875 3.1450000000000102 101.125 5.89500000000001 Q98.375 8.64500000000001 94.5 8.64500000000001 H25.5 Z M25.5 -0.7299999999999898 H94.5 Q94.5 -0.7299999999999898 94.5 -0.7299999999999898 Q94.5 -0.7299999999999898 94.5 -0.7299999999999898 V-69.72999999999999 Q94.5 -69.72999999999999 94.5 -69.72999999999999 Q94.5 -69.72999999999999 94.5 -69.72999999999999 H25.5 Q25.5 -69.72999999999999 25.5 -69.72999999999999 Q25.5 -69.72999999999999 25.5 -69.72999999999999 V-0.7299999999999898 Q25.5 -0.7299999999999898 25.5 -0.7299999999999898 Q25.5 -0.7299999999999898 25.5 -0.7299999999999898 Z"/></g><g id="Light-M" transform="matrix(1 0 0 1 1098.18 1126)"><path d="M41.875 -6.72999999999999 H45.5 Q47.375 -6.72999999999999 48.565 -7.9199999999999875 Q49.75 -9.10499999999999 49.75 -10.97999999999999 V-26.22999999999999 H50.5 Q52.375 -26.22999999999999 53.565 -27.419999999999987 Q54.75 -28.60499999999999 54.75 -30.47999999999999 V-38.97999999999999 Q54.75 -42.47999999999999 52.25 -44.97999999999999 Q49.75 -47.47999999999999 46.25 -47.47999999999999 H41.25 Q37.625 -47.47999999999999 35.19 -44.97999999999999 Q32.75 -42.47999999999999 32.75 -38.97999999999999 V-30.47999999999999 Q32.75 -28.60499999999999 33.94 -27.419999999999987 Q35.125 -26.22999999999999 36.875 -26.22999999999999 H37.75 V-10.97999999999999 Q37.75 -9.10499999999999 38.94 -7.9199999999999875 Q40.125 -6.72999999999999 41.875 -6.72999999999999 Z M43.75 -52.22999999999999 Q46.125 -52.22999999999999 47.809999999999995 -53.91999999999999 Q49.5 -55.60499999999999 49.5 -57.97999999999999 Q49.5 -60.47999999999999 47.809999999999995 -62.10499999999999 Q46.125 -63.72999999999999 43.75 -63.72999999999999 Q41.25 -63.72999999999999 39.625 -62.10499999999999 Q38.0 -60.47999999999999 38.0 -57.97999999999999 Q38.0 -55.60499999999999 39.625 -53.91999999999999 Q41.25 -52.22999999999999 43.75 -52.22999999999999 Z M70.75 -41.72999999999999 H82.375 Q83.75 -41.72999999999999 84.375 -42.85499999999999 Q85.0 -43.97999999999999 84.25 -45.10499999999999 L78.375 -54.35499999999999 Q78.25 -54.72999999999999 76.5 -55.47999999999999 Q76.0 -55.47999999999999 75.44 -55.22999999999999 Q74.875 -54.97999999999999 74.625 -54.35499999999999 L68.875 -45.10499999999999 Q68.125 -43.97999999999999 68.75 -42.85499999999999 Q69.375 -41.72999999999999 70.75 -41.72999999999999 Z M76.5 -14.97999999999999 Q77.125 -14.97999999999999 77.625 -15.22999999999999 Q78.125 -15.47999999999999 78.375 -16.10499999999999 L84.25 -25.35499999999999 Q84.875 -26.47999999999999 84.315 -27.60499999999999 Q83.75 -28.72999999999999 82.375 -28.72999999999999 H70.75 Q69.375 -28.72999999999999 68.75 -27.60499999999999 Q68.125 -26.47999999999999 68.875 -25.35499999999999 L74.625 -16.10499999999999 Q74.875 -15.72999999999999 76.5 -14.97999999999999 Z M26.875 6.39500000000001 Q23.375 6.39500000000001 20.875 3.8950000000000102 Q18.375 1.3950000000000102 18.375 -2.1049999999999898 V-68.35499999999999 Q18.375 -71.85499999999999 20.875 -74.35499999999999 Q23.375 -76.85499999999999 26.875 -76.85499999999999 H93.125 Q96.625 -76.85499999999999 99.125 -74.35499999999999 Q101.625 -71.85499999999999 101.625 -68.35499999999999 V-2.1049999999999898 Q101.625 1.3950000000000102 99.125 3.8950000000000102 Q96.625 6.39500000000001 93.125 6.39500000000001 H26.875 Z M27.0 -0.6049999999999898 H93.0 Q93.75 -0.6049999999999898 94.185 -1.0449999999999875 Q94.625 -1.4799999999999898 94.625 -2.2299999999999898 V-68.22999999999999 Q94.625 -68.97999999999999 94.185 -69.41999999999999 Q93.75 -69.85499999999999 93.0 -69.85499999999999 H27.0 Q26.25 -69.85499999999999 25.81 -69.41999999999999 Q25.375 -68.97999999999999 25.375 -68.22999999999999 V-2.2299999999999898 Q25.375 -1.4799999999999898 25.81 -1.0449999999999875 Q26.25 -0.6049999999999898 27.0 -0.6049999999999898 Z"/></g><g id="Thin-M" transform="matrix(1 0 0 1 802.565 1126)"><path d="M43.625 -7.97999999999999 H45.625 Q47.25 -7.97999999999999 48.315 -9.045000000000002 Q49.375 -10.10499999999999 49.375 -11.72999999999999 V-26.97999999999999 H50.625 Q52.25 -26.97999999999999 53.315 -28.039999999999992 Q54.375 -29.10499999999999 54.375 -30.72999999999999 V-39.85499999999999 Q54.375 -42.85499999999999 52.25 -44.97999999999999 Q50.125 -47.10499999999999 47.125 -47.10499999999999 H42.125 Q39.0 -47.10499999999999 36.875 -44.97999999999999 Q34.75 -42.85499999999999 34.75 -39.85499999999999 V-30.72999999999999 Q34.75 -29.10499999999999 35.875 -28.039999999999992 Q37.0 -26.97999999999999 38.625 -26.97999999999999 H39.75 V-11.72999999999999 Q39.75 -10.10499999999999 40.875 -9.045000000000002 Q42.0 -7.97999999999999 43.625 -7.97999999999999 Z M44.625 -51.72999999999999 Q46.875 -51.72999999999999 48.375 -53.29499999999999 Q49.875 -54.85499999999999 49.875 -57.10499999999999 Q49.875 -59.35499999999999 48.375 -60.85499999999999 Q46.875 -62.35499999999999 44.625 -62.35499999999999 Q42.375 -62.35499999999999 40.875 -60.85499999999999 Q39.375 -59.35499999999999 39.375 -57.10499999999999 Q39.375 -54.85499999999999 40.875 -53.29499999999999 Q42.375 -51.72999999999999 44.625 -51.72999999999999 Z M72.25 -42.97999999999999 H80.125 Q81.375 -42.97999999999999 81.94000000000001 -43.97999999999999 Q82.5 -44.97999999999999 81.875 -45.97999999999999 L77.875 -52.35499999999999 Q77.75 -52.60499999999999 76.125 -53.35499999999999 Q75.75 -53.35499999999999 75.19 -53.10499999999999 Q74.625 -52.85499999999999 74.375 -52.35499999999999 L70.5 -45.97999999999999 Q69.75 -44.97999999999999 70.375 -43.97999999999999 Q71.0 -42.97999999999999 72.25 -42.97999999999999 Z M76.125 -17.10499999999999 Q76.625 -17.10499999999999 77.125 -17.35499999999999 Q77.625 -17.60499999999999 77.875 -18.10499999999999 L81.875 -24.47999999999999 Q82.5 -25.47999999999999 81.94000000000001 -26.544999999999987 Q81.375 -27.60499999999999 80.125 -27.60499999999999 H72.25 Q70.875 -27.60499999999999 70.31 -26.544999999999987 Q69.75 -25.47999999999999 70.5 -24.47999999999999 L74.375 -18.10499999999999 Q74.625 -17.85499999999999 76.125 -17.10499999999999 Z M28.375 4.02000000000001 Q25.125 4.02000000000001 22.94 1.835000000000008 Q20.75 -0.35499999999998977 20.75 -3.6049999999999898 V-66.85499999999999 Q20.75 -70.10499999999999 22.94 -72.29499999999999 Q25.125 -74.47999999999999 28.375 -74.47999999999999 H91.625 Q94.875 -74.47999999999999 97.065 -72.29499999999999 Q99.25 -70.10499999999999 99.25 -66.85499999999999 V-3.6049999999999898 Q99.25 -0.35499999999998977 97.065 1.835000000000008 Q94.875 4.02000000000001 91.625 4.02000000000001 H28.375 Z M28.375 -0.47999999999998977 H91.625 Q93.0 -0.47999999999998977 93.875 -1.3549999999999898 Q94.75 -2.2299999999999898 94.75 -3.6049999999999898 V-66.85499999999999 Q94.75 -68.22999999999999 93.875 -69.10499999999999 Q93.0 -69.97999999999999 91.625 -69.97999999999999 H28.375 Q27.0 -69.97999999999999 26.125 -69.10499999999999 Q25.25 -68.22999999999999 25.25 -66.85499999999999 V-3.6049999999999898 Q25.25 -2.2299999999999898 26.125 -1.3549999999999898 Q27.0 -0.47999999999998977 28.375 -0.47999999999998977 Z"/></g><g id="Ultralight-M" transform="matrix(1 0 0 1 506.415 1126)"><path d="M44.625 -8.72999999999999 H45.75 Q47.25 -8.72999999999999 48.25 -9.664999999999992 Q49.25 -10.60499999999999 49.25 -12.22999999999999 V-27.47999999999999 H50.75 Q52.25 -27.47999999999999 53.25 -28.419999999999987 Q54.25 -29.35499999999999 54.25 -30.97999999999999 V-40.47999999999999 Q54.25 -43.10499999999999 52.315 -45.04499999999999 Q50.375 -46.97999999999999 47.75 -46.97999999999999 H42.75 Q39.875 -46.97999999999999 38.0 -45.04499999999999 Q36.125 -43.10499999999999 36.125 -40.47999999999999 V-30.97999999999999 Q36.125 -29.35499999999999 37.065 -28.419999999999987 Q38.0 -27.47999999999999 39.625 -27.47999999999999 H41.125 V-12.22999999999999 Q41.125 -10.60499999999999 42.06 -9.664999999999992 Q43.0 -8.72999999999999 44.625 -8.72999999999999 Z M45.25 -51.47999999999999 Q47.25 -51.47999999999999 48.75 -52.91999999999999 Q50.25 -54.35499999999999 50.25 -56.47999999999999 Q50.25 -58.60499999999999 48.75 -60.04499999999999 Q47.25 -61.47999999999999 45.25 -61.47999999999999 Q43.125 -61.47999999999999 41.69 -60.04499999999999 Q40.25 -58.60499999999999 40.25 -56.47999999999999 Q40.25 -54.35499999999999 41.69 -52.91999999999999 Q43.125 -51.47999999999999 45.25 -51.47999999999999 Z M73.125 -43.72999999999999 H78.75 Q80.0 -43.72999999999999 80.565 -44.66999999999999 Q81.125 -45.60499999999999 80.5 -46.60499999999999 L77.625 -51.22999999999999 Q77.5 -51.47999999999999 76.0 -52.22999999999999 Q75.5 -52.22999999999999 75.0 -51.91999999999999 Q74.5 -51.60499999999999 74.25 -51.22999999999999 L71.5 -46.60499999999999 Q70.875 -45.60499999999999 71.375 -44.66999999999999 Q71.875 -43.72999999999999 73.125 -43.72999999999999 Z M76.0 -18.35499999999999 Q76.375 -18.35499999999999 76.875 -18.60499999999999 Q77.375 -18.85499999999999 77.625 -19.35499999999999 L80.5 -23.97999999999999 Q81.125 -24.97999999999999 80.565 -25.919999999999987 Q80.0 -26.85499999999999 78.75 -26.85499999999999 H73.125 Q71.875 -26.85499999999999 71.375 -25.919999999999987 Q70.875 -24.97999999999999 71.5 -23.97999999999999 L74.25 -19.35499999999999 Q74.375 -19.10499999999999 76.0 -18.35499999999999 Z M29.25 2.6450000000000102 Q26.25 2.6450000000000102 24.19 0.585000000000008 Q22.125 -1.4799999999999898 22.125 -4.47999999999999 V-65.97999999999999 Q22.125 -68.97999999999999 24.19 -71.10499999999999 Q26.25 -73.22999999999999 29.25 -73.22999999999999 H90.75 Q93.75 -73.22999999999999 95.875 -71.10499999999999 Q98.0 -68.97999999999999 98.0 -65.97999999999999 V-4.47999999999999 Q98.0 -1.4799999999999898 95.875 0.585000000000008 Q93.75 2.6450000000000102 90.75 2.6450000000000102 H29.25 Z M29.25 -0.47999999999998977 H90.75 Q92.5 -0.47999999999998977 93.625 -1.6049999999999898 Q94.75 -2.7299999999999898 94.75 -4.47999999999999 V-65.97999999999999 Q94.75 -67.72999999999999 93.625 -68.85499999999999 Q92.5 -69.97999999999999 90.75 -69.97999999999999 H29.25 Q27.5 -69.97999999999999 26.375 -68.85499999999999 Q25.25 -67.72999999999999 25.25 -65.97999999999999 V-4.47999999999999 Q25.25 -2.7299999999999898 26.375 -1.6049999999999898 Q27.5 -0.47999999999998977 29.25 -0.47999999999998977 Z"/></g><g id="Bold-S" transform="matrix(1 0 0 1 2294.23 696)"><path d="M35.405586 -11.85350799999999 H35.997336 Q38.46375 -11.85350799999999 39.893418 -13.287909999999997 Q41.323085999999996 -14.717577999999989 41.323085999999996 -17.084577999999993 V-27.636663999999996 H41.621328 Q43.19775 -28.12899999999999 44.234496 -29.804835999999987 Q45.266507999999995 -31.48067199999999 45.266507999999995 -33.653577999999996 V-37.49758599999999 Q45.266507999999995 -40.555749999999996 42.998922 -42.82333599999999 Q40.731336 -45.09092199999999 37.673172 -45.09092199999999 H33.72975 Q30.572172000000002 -45.09092199999999 28.304586 -42.82333599999999 Q26.037 -40.555749999999996 26.037 -37.49758599999999 V-33.653577999999996 Q26.037 -31.48067199999999 27.073746 -29.804835999999987 Q28.110491999999997 -28.12899999999999 29.686913999999998 -27.636663999999996 H29.980422 V-17.084577999999993 Q29.980422 -14.717577999999989 31.462163999999998 -13.287909999999997 Q32.939172 -11.85350799999999 35.405586 -11.85350799999999 Z M35.703828 -49.03907799999999 Q37.772586 -49.03907799999999 39.202254 -50.468745999999996 Q40.631922 -51.89841399999999 40.631922 -53.96717199999999 Q40.631922 -56.04066399999999 39.202254 -57.470332 Q37.772586 -58.89999999999999 35.703828 -58.89999999999999 Q33.630336 -58.89999999999999 32.200668 -57.470332 Q30.771 -56.04066399999999 30.771 -53.96717199999999 Q30.771 -51.89841399999999 32.200668 -50.468745999999996 Q33.630336 -49.03907799999999 35.703828 -49.03907799999999 Z M56.315664000000005 -39.471664 H63.118422 Q65.191914 -39.471664 66.129246 -41.147499999999994 Q67.06657799999999 -42.82333599999999 65.98249200000001 -44.404492 L62.526672 -50.02374999999999 Q62.233164 -50.71491399999999 59.76675 -51.699586 Q58.881492 -51.699586 58.138254 -51.25458999999999 Q57.39975 -50.81432799999999 56.907414 -50.02374999999999 L53.456328 -44.404492 Q52.367507999999994 -42.82333599999999 53.30484 -41.147499999999994 Q54.242172000000004 -39.471664 56.315664000000005 -39.471664 Z M59.667336 -18.859827999999993 Q60.457914 -18.859827999999993 61.248492000000006 -19.252749999999992 Q62.034335999999996 -19.645671999999998 62.526672 -20.535663999999997 L66.077172 -26.05550799999999 Q67.06657799999999 -27.636663999999996 66.129246 -29.35983999999999 Q65.191914 -31.087749999999993 63.118422 -31.087749999999993 H56.315664000000005 Q54.242172000000004 -31.087749999999993 53.356914 -29.35983999999999 Q52.466922000000004 -27.636663999999996 53.456328 -26.05550799999999 L56.907414 -20.436249999999994 Q57.300335999999994 -19.844499999999996 59.667336 -18.859827999999993 Z M21.695922 2.741414000000006 Q16.469586 2.741414000000006 12.919086 -0.8090859999999935 Q9.368586 -4.359585999999993 9.368586 -9.585921999999997 V-60.874078 Q9.368586 -66.100414 12.919086 -69.650914 Q16.469586 -73.201414 21.695922 -73.201414 H72.984078 Q78.210414 -73.201414 81.760914 -69.650914 Q85.311414 -66.100414 85.311414 -60.874078 V-9.585921999999997 Q85.311414 -4.359585999999993 81.760914 -0.8090859999999935 Q78.210414 2.741414000000006 72.984078 2.741414000000006 H21.695922 Z M21.695922 -9.585921999999997 H72.984078 Q72.984078 -9.585921999999997 72.984078 -9.585921999999997 Q72.984078 -9.585921999999997 72.984078 -9.585921999999997 V-60.874078 Q72.984078 -60.874078 72.984078 -60.874078 Q72.984078 -60.874078 72.984078 -60.874078 H21.695922 Q21.695922 -60.874078 21.695922 -60.874078 Q21.695922 -60.874078 21.695922 -60.874078 V-9.585921999999997 Q21.695922 -9.585921999999997 21.695922 -9.585921999999997 Q21.695922 -9.585921999999997 21.695922 -9.585921999999997 Z"/></g><g id="Semibold-S" transform="matrix(1 0 0 1 1998.1 696)"><path d="M34.122672 -11.85350799999999 H35.997336 Q38.070828 -11.85350799999999 39.349008 -13.136421999999996 Q40.631922 -14.419335999999987 40.631922 -16.49282799999999 V-27.636663999999996 H40.930164000000005 Q42.506586 -27.835491999999995 43.543332 -29.312499999999993 Q44.580078 -30.78950799999999 44.580078 -32.66417199999999 V-37.49758599999999 Q44.580078 -40.555749999999996 42.359832000000004 -42.82333599999999 Q40.139585999999994 -45.09092199999999 36.982008 -45.09092199999999 H33.038586 Q29.881008 -45.09092199999999 27.613422 -42.82333599999999 Q25.345836000000002 -40.555749999999996 25.345836000000002 -37.49758599999999 V-32.66417199999999 Q25.345836000000002 -30.78950799999999 26.429922 -29.312499999999993 Q27.514008 -27.835491999999995 28.99575 -27.636663999999996 H29.293992 V-16.49282799999999 Q29.293992 -14.419335999999987 30.671586 -13.136421999999996 Q32.053914 -11.85350799999999 34.122672 -11.85350799999999 Z M35.012664 -49.03907799999999 Q37.081422 -49.03907799999999 38.511089999999996 -50.468745999999996 Q39.945492 -51.89841399999999 39.945492 -53.96717199999999 Q39.945492 -56.04066399999999 38.511089999999996 -57.470332 Q37.081422 -58.89999999999999 35.012664 -58.89999999999999 Q32.939172 -58.89999999999999 31.509504 -57.470332 Q30.079836 -56.04066399999999 30.079836 -53.96717199999999 Q30.079836 -51.89841399999999 31.509504 -50.468745999999996 Q32.939172 -49.03907799999999 35.012664 -49.03907799999999 Z M55.6245 -39.471664 H64.50075 Q66.176586 -39.471664 66.967164 -40.853992 Q67.753008 -42.23158599999999 66.86775 -43.613913999999994 L62.431992 -50.71491399999999 Q62.13375 -51.207249999999995 60.064992000000004 -52.092507999999995 Q59.373827999999996 -52.092507999999995 58.730004 -51.751659999999994 Q58.090914000000005 -51.406077999999994 57.697992 -50.71491399999999 L53.2575 -43.613913999999994 Q52.367507999999994 -42.23158599999999 53.158086 -40.853992 Q53.948664 -39.471664 55.6245 -39.471664 Z M59.965578 -18.367492 Q60.652007999999995 -18.367492 61.295832000000004 -18.708339999999993 Q61.934922 -19.053921999999993 62.431992 -19.745085999999986 L66.86775 -26.846085999999993 Q67.658328 -28.228413999999994 66.91508999999999 -29.658081999999993 Q66.176586 -31.087749999999993 64.50075 -31.087749999999993 H55.6245 Q53.948664 -31.087749999999993 53.21016 -29.658081999999993 Q52.466922000000004 -28.228413999999994 53.2575 -26.846085999999993 L57.697992 -19.745085999999986 Q57.9915 -19.252749999999992 59.965578 -18.367492 Z M21.203586 1.2596719999999948 Q16.862508 1.2596719999999948 13.856418 -1.7464179999999914 Q10.850328 -4.752508000000006 10.850328 -9.093585999999988 V-61.36641399999999 Q10.850328 -65.707492 13.856418 -68.71358199999999 Q16.862508 -71.71967199999999 21.203586 -71.71967199999999 H73.476414 Q77.81749199999999 -71.71967199999999 80.823582 -68.71358199999999 Q83.82967199999999 -65.707492 83.82967199999999 -61.36641399999999 V-9.093585999999988 Q83.82967199999999 -4.752508000000006 80.823582 -1.7464179999999914 Q77.81749199999999 1.2596719999999948 73.476414 1.2596719999999948 H21.203586 Z M21.203586 -9.093585999999988 H73.476414 Q73.476414 -9.093585999999988 73.476414 -9.093585999999988 Q73.476414 -9.093585999999988 73.476414 -9.093585999999988 V-61.36641399999999 Q73.476414 -61.36641399999999 73.476414 -61.36641399999999 Q73.476414 -61.36641399999999 73.476414 -61.36641399999999 H21.203586 Q21.203586 -61.36641399999999 21.203586 -61.36641399999999 Q21.203586 -61.36641399999999 21.203586 -61.36641399999999 V-9.093585999999988 Q21.203586 -9.093585999999988 21.203586 -9.093585999999988 Q21.203586 -9.093585999999988 21.203586 -9.093585999999988 Z"/></g><g id="Medium-S" transform="matrix(1 0 0 1 1701.85 696)"><path d="M33.038586 -11.85350799999999 H35.997336 Q37.772586 -11.85350799999999 39.008160000000004 -13.037007999999986 Q40.239 -14.220507999999995 40.239 -16.000491999999994 V-27.636663999999996 H40.532508 Q42.01425 -27.736077999999992 43.098335999999996 -29.018991999999997 Q44.182422 -30.297171999999996 44.182422 -31.973007999999993 V-37.49758599999999 Q44.182422 -40.555749999999996 41.914835999999994 -42.82333599999999 Q39.64725 -45.09092199999999 36.489672 -45.09092199999999 H32.54625 Q29.388672 -45.09092199999999 27.17316 -42.82333599999999 Q24.952914 -40.555749999999996 24.952914 -37.49758599999999 V-31.973007999999993 Q24.952914 -30.297171999999996 25.98966 -29.018991999999997 Q27.021672000000002 -27.736077999999992 28.602828 -27.636663999999996 H28.896336 V-16.000491999999994 Q28.896336 -14.220507999999995 30.13191 -13.037007999999986 Q31.36275 -11.85350799999999 33.038586 -11.85350799999999 Z M34.520328 -49.03907799999999 Q36.589086 -49.03907799999999 38.018754 -50.468745999999996 Q39.448422 -51.89841399999999 39.448422 -53.96717199999999 Q39.448422 -56.04066399999999 38.018754 -57.470332 Q36.589086 -58.89999999999999 34.520328 -58.89999999999999 Q32.446836 -58.89999999999999 31.017167999999998 -57.470332 Q29.5875 -56.04066399999999 29.5875 -53.96717199999999 Q29.5875 -51.89841399999999 31.017167999999998 -50.468745999999996 Q32.446836 -49.03907799999999 34.520328 -49.03907799999999 Z M55.132164 -39.471664 H65.386008 Q66.86775 -39.471664 67.50684 -40.655164 Q68.150664 -41.838663999999994 67.4595 -43.022164 L62.332578 -51.306664 Q62.13375 -51.60017199999999 60.3585 -52.49016399999999 Q59.76675 -52.49016399999999 59.222339999999996 -52.144582 Q58.682664 -51.79899999999999 58.285008 -51.207249999999995 L53.158086 -43.022164 Q52.367507999999994 -41.838663999999994 53.058672 -40.655164 Q53.749835999999995 -39.471664 55.132164 -39.471664 Z M60.259085999999996 -17.969835999999987 Q60.850835999999994 -17.969835999999987 61.395246 -18.315417999999994 Q61.934922 -18.660999999999994 62.332578 -19.252749999999992 L67.4595 -27.43783599999999 Q68.150664 -28.621335999999992 67.50684 -29.856909999999992 Q66.86775 -31.087749999999993 65.386008 -31.087749999999993 H55.132164 Q53.650422 -31.087749999999993 53.058672 -29.856909999999992 Q52.466922000000004 -28.621335999999992 53.058672 -27.43783599999999 L58.285008 -19.15333599999999 Q58.483836 -18.859827999999993 60.259085999999996 -17.969835999999987 Z M20.810664 0.1755860000000098 Q17.061336 0.1755860000000098 14.495508 -2.3855080000000015 Q11.934414 -4.9513359999999835 11.934414 -8.700664000000003 V-61.75933599999999 Q11.934414 -65.508664 14.495508 -68.069758 Q17.061336 -70.63558599999999 20.810664 -70.63558599999999 H73.86933599999999 Q77.61866400000001 -70.63558599999999 80.18449199999999 -68.069758 Q82.745586 -65.508664 82.745586 -61.75933599999999 V-8.700664000000003 Q82.745586 -4.9513359999999835 80.18449199999999 -2.3855080000000015 Q77.61866400000001 0.1755860000000098 73.86933599999999 0.1755860000000098 H20.810664 Z M20.810664 -8.700664000000003 H73.86933599999999 Q73.86933599999999 -8.700664000000003 73.86933599999999 -8.700664000000003 Q73.86933599999999 -8.700664000000003 73.86933599999999 -8.700664000000003 V-61.75933599999999 Q73.86933599999999 -61.75933599999999 73.86933599999999 -61.75933599999999 Q73.86933599999999 -61.75933599999999 73.86933599999999 -61.75933599999999 H20.810664 Q20.810664 -61.75933599999999 20.810664 -61.75933599999999 Q20.810664 -61.75933599999999 20.810664 -61.75933599999999 V-8.700664000000003 Q20.810664 -8.700664000000003 20.810664 -8.700664000000003 Q20.810664 -8.700664000000003 20.810664 -8.700664000000003 Z"/></g><g id="Regular-S" transform="matrix(1 0 0 1 1405.73 696)"><path d="M32.347422 -11.85350799999999 H35.997336 Q37.578492 -11.85350799999999 38.709917999999995 -12.989667999999995 Q39.846078 -14.125827999999998 39.846078 -15.602835999999996 V-27.636663999999996 H40.139585999999994 Q41.716007999999995 -27.636663999999996 42.752754 -28.768089999999994 Q43.7895 -29.90424999999999 43.7895 -31.385991999999995 V-37.49758599999999 Q43.7895 -40.555749999999996 41.521914 -42.82333599999999 Q39.254328 -45.09092199999999 36.196163999999996 -45.09092199999999 H32.248008 Q29.095164 -45.09092199999999 26.827578 -42.82333599999999 Q24.559991999999998 -40.555749999999996 24.559991999999998 -37.49758599999999 V-31.385991999999995 Q24.559991999999998 -29.90424999999999 25.592004 -28.768089999999994 Q26.62875 -27.636663999999996 28.205172 -27.636663999999996 H28.503414 V-15.602835999999996 Q28.503414 -14.125827999999998 29.63484 -12.989667999999995 Q30.771 -11.85350799999999 32.347422 -11.85350799999999 Z M34.222086 -49.03907799999999 Q36.295578 -49.03907799999999 37.725246 -50.468745999999996 Q39.154914000000005 -51.89841399999999 39.154914000000005 -53.96717199999999 Q39.154914000000005 -56.04066399999999 37.725246 -57.470332 Q36.295578 -58.89999999999999 34.222086 -58.89999999999999 Q32.153328 -58.89999999999999 30.723660000000002 -57.470332 Q29.293992 -56.04066399999999 29.293992 -53.96717199999999 Q29.293992 -51.89841399999999 30.723660000000002 -50.468745999999996 Q32.153328 -49.03907799999999 34.222086 -49.03907799999999 Z M54.833922 -39.471664 H66.077172 Q67.360086 -39.471664 67.951836 -40.555749999999996 Q68.54358599999999 -41.63983599999999 67.852422 -42.62450799999999 L62.233164 -51.699586 Q62.13375 -51.99782799999999 60.557328 -52.783671999999996 Q59.965578 -52.783671999999996 59.520582000000005 -52.49016399999999 Q59.075585999999994 -52.19192199999999 58.682664 -51.699586 L53.058672 -42.62450799999999 Q52.367507999999994 -41.63983599999999 52.963992000000005 -40.555749999999996 Q53.551007999999996 -39.471664 54.833922 -39.471664 Z M60.457914 -17.771007999999995 Q60.95025 -17.771007999999995 61.442586 -18.069249999999997 Q61.934922 -18.367492 62.233164 -18.859827999999993 L67.951836 -27.835491999999995 Q68.54358599999999 -28.820164 67.951836 -29.95158999999999 Q67.360086 -31.087749999999993 66.077172 -31.087749999999993 H54.833922 Q53.551007999999996 -31.087749999999993 53.011332 -29.95158999999999 Q52.466922000000004 -28.820164 53.058672 -27.835491999999995 L58.682664 -18.760413999999997 Q58.881492 -18.56158599999999 60.457914 -17.771007999999995 Z M20.512422 -0.6149919999999867 Q17.260164 -0.6149919999999867 14.992578 -2.882577999999995 Q12.724992 -5.150164000000004 12.724992 -8.402421999999987 V-62.05757799999999 Q12.724992 -65.30983599999999 14.992578 -67.577422 Q17.260164 -69.84500799999999 20.512422 -69.84500799999999 H74.167578 Q77.41983599999999 -69.84500799999999 79.687422 -67.577422 Q81.955008 -65.30983599999999 81.955008 -62.05757799999999 V-8.402421999999987 Q81.955008 -5.150164000000004 79.687422 -2.882577999999995 Q77.41983599999999 -0.6149919999999867 74.167578 -0.6149919999999867 H20.512422 Z M20.512422 -8.402421999999987 H74.167578 Q74.167578 -8.402421999999987 74.167578 -8.402421999999987 Q74.167578 -8.402421999999987 74.167578 -8.402421999999987 V-62.05757799999999 Q74.167578 -62.05757799999999 74.167578 -62.05757799999999 Q74.167578 -62.05757799999999 74.167578 -62.05757799999999 H20.512422 Q20.512422 -62.05757799999999 20.512422 -62.05757799999999 Q20.512422 -62.05757799999999 20.512422 -62.05757799999999 V-8.402421999999987 Q20.512422 -8.402421999999987 20.512422 -8.402421999999987 Q20.512422 -8.402421999999987 20.512422 -8.402421999999987 Z"/></g><g id="Light-S" transform="matrix(1 0 0 1 1109.75 696)"><path d="M33.630336 -12.743499999999997 H36.09675 Q37.578492 -12.743499999999997 38.610504000000006 -13.780245999999991 Q39.64725 -14.816991999999999 39.64725 -16.293999999999997 V-28.12899999999999 H40.239 Q41.716007999999995 -28.12899999999999 42.65334 -29.16574599999999 Q43.590672 -30.202492 43.590672 -31.67949999999999 V-38.18874999999999 Q43.590672 -40.948671999999995 41.621328 -42.92274999999999 Q39.64725 -44.89682799999999 36.887328 -44.89682799999999 H32.939172 Q30.079836 -44.89682799999999 28.157832000000003 -42.92274999999999 Q26.235827999999998 -40.948671999999995 26.235827999999998 -38.18874999999999 V-31.67949999999999 Q26.235827999999998 -30.202492 27.17316 -29.16574599999999 Q28.110491999999997 -28.12899999999999 29.488086 -28.12899999999999 H30.17925 V-16.293999999999997 Q30.17925 -14.816991999999999 31.215996 -13.780245999999991 Q32.248008 -12.743499999999997 33.630336 -12.743499999999997 Z M34.91325 -48.64142199999999 Q36.787914 -48.64142199999999 38.118168 -49.976409999999994 Q39.448422 -51.306664 39.448422 -53.18132799999999 Q39.448422 -55.15067199999999 38.118168 -56.43358599999999 Q36.787914 -57.716499999999996 34.91325 -57.716499999999996 Q32.939172 -57.716499999999996 31.660992 -56.43358599999999 Q30.378078 -55.15067199999999 30.378078 -53.18132799999999 Q30.378078 -51.306664 31.660992 -49.976409999999994 Q32.939172 -48.64142199999999 34.91325 -48.64142199999999 Z M56.017422 -40.356922 H64.401336 Q65.584836 -40.356922 66.129246 -41.34632799999999 Q66.668922 -42.330999999999996 66.077172 -43.31567199999999 L61.835508 -50.123163999999996 Q61.740828 -50.321991999999995 60.259085999999996 -51.10783599999999 Q59.76675 -51.10783599999999 59.274414 -50.81432799999999 Q58.782078 -50.516085999999994 58.483836 -50.02374999999999 L54.341586 -43.31567199999999 Q53.749835999999995 -42.330999999999996 54.294245999999994 -41.34632799999999 Q54.833922 -40.356922 56.017422 -40.356922 Z M60.159672 -19.352163999999995 Q60.652007999999995 -19.352163999999995 61.097004000000005 -19.645671999999998 Q61.542 -19.943914 61.835508 -20.436249999999994 L66.077172 -27.144327999999994 Q66.569508 -28.12899999999999 66.077172 -29.113671999999994 Q65.584836 -30.10307799999999 64.401336 -30.10307799999999 H56.017422 Q54.734508 -30.10307799999999 54.242172000000004 -29.113671999999994 Q53.749835999999995 -28.12899999999999 54.341586 -27.144327999999994 L58.483836 -20.436249999999994 Q58.682664 -20.138007999999992 60.159672 -19.352163999999995 Z M21.596508 -2.3855080000000015 Q18.642492 -2.3855080000000015 16.569 -4.458999999999989 Q14.495508 -6.532491999999991 14.495508 -9.486507999999986 V-60.97349199999999 Q14.495508 -63.92750799999999 16.569 -66.00099999999999 Q18.642492 -68.07449199999999 21.596508 -68.07449199999999 H73.083492 Q76.037508 -68.07449199999999 78.111 -66.00099999999999 Q80.18449199999999 -63.92750799999999 80.18449199999999 -60.97349199999999 V-9.486507999999986 Q80.18449199999999 -6.532491999999991 78.111 -4.458999999999989 Q76.037508 -2.3855080000000015 73.083492 -2.3855080000000015 H21.596508 Z M21.695922 -8.303007999999991 H72.984078 Q73.575828 -8.303007999999991 73.92141 -8.648589999999999 Q74.266992 -8.994171999999992 74.266992 -9.585921999999997 V-60.874078 Q74.266992 -61.46582799999999 73.92141 -61.811409999999995 Q73.575828 -62.15699199999999 72.984078 -62.15699199999999 H21.695922 Q21.104172000000002 -62.15699199999999 20.758589999999998 -61.811409999999995 Q20.413008 -61.46582799999999 20.413008 -60.874078 V-9.585921999999997 Q20.413008 -8.994171999999992 20.758589999999998 -8.648589999999999 Q21.104172000000002 -8.303007999999991 21.695922 -8.303007999999991 Z"/></g><g id="Thin-S" transform="matrix(1 0 0 1 814.015 696)"><path d="M35.012664 -13.728172 H36.196163999999996 Q37.479078 -13.728172 38.41641 -14.665503999999999 Q39.349008 -15.602835999999996 39.349008 -16.885749999999987 V-28.720749999999995 H40.338414 Q41.621328 -28.720749999999995 42.459246 -29.658081999999993 Q43.297164 -30.595413999999998 43.297164 -31.87832799999999 V-38.879914 Q43.297164 -41.246914 41.621328 -42.92274999999999 Q39.945492 -44.59858599999999 37.578492 -44.59858599999999 H33.630336 Q31.163922 -44.59858599999999 29.488086 -42.92274999999999 Q27.81225 -41.246914 27.81225 -38.879914 V-31.87832799999999 Q27.81225 -30.595413999999998 28.697508000000003 -29.658081999999993 Q29.5875 -28.720749999999995 30.870414 -28.720749999999995 H31.755672 V-16.885749999999987 Q31.755672 -15.602835999999996 32.745078 -14.665503999999999 Q33.72975 -13.728172 35.012664 -13.728172 Z M35.604414 -48.24849999999999 Q37.379664 -48.24849999999999 38.563164 -49.47933999999999 Q39.746664 -50.71491399999999 39.746664 -52.49016399999999 Q39.746664 -54.26541399999999 38.563164 -55.44891399999999 Q37.379664 -56.632414 35.604414 -56.632414 Q33.829164 -56.632414 32.645664 -55.44891399999999 Q31.462163999999998 -54.26541399999999 31.462163999999998 -52.49016399999999 Q31.462163999999998 -50.71491399999999 32.645664 -49.47933999999999 Q33.829164 -48.24849999999999 35.604414 -48.24849999999999 Z M57.200922 -41.34632799999999 H62.626085999999994 Q63.809585999999996 -41.34632799999999 64.254582 -42.23158599999999 Q64.699578 -43.12157799999999 64.202508 -44.00683599999999 L61.442586 -48.44732799999999 Q61.343172 -48.64142199999999 59.965578 -49.431999999999995 Q59.567922 -49.431999999999995 59.075585999999994 -49.13849199999999 Q58.58325 -48.84024999999999 58.285008 -48.44732799999999 L55.6245 -44.00683599999999 Q55.03275 -43.12157799999999 55.525085999999995 -42.23158599999999 Q56.017422 -41.34632799999999 57.200922 -41.34632799999999 Z M59.866164000000005 -21.02799999999999 Q60.259085999999996 -21.02799999999999 60.704082 -21.321507999999987 Q61.149077999999996 -21.619749999999996 61.442586 -22.012671999999995 L64.202508 -26.453163999999994 Q64.699578 -27.338421999999994 64.202508 -28.275754 Q63.710172 -29.21308599999999 62.626085999999994 -29.21308599999999 H57.200922 Q56.017422 -29.21308599999999 55.525085999999995 -28.275754 Q55.03275 -27.338421999999994 55.6245 -26.453163999999994 L58.285008 -22.012671999999995 Q58.483836 -21.818577999999995 59.866164000000005 -21.02799999999999 Z M22.780008000000002 -4.260171999999983 Q20.020086 -4.260171999999983 18.197496 -6.087496000000002 Q16.370172 -7.910085999999993 16.370172 -10.670007999999996 V-59.78999199999999 Q16.370172 -62.549913999999994 18.197496 -64.37250399999999 Q20.020086 -66.199828 22.780008000000002 -66.199828 H71.899992 Q74.659914 -66.199828 76.48250399999999 -64.37250399999999 Q78.30982800000001 -62.549913999999994 78.30982800000001 -59.78999199999999 V-10.670007999999996 Q78.30982800000001 -7.910085999999993 76.48250399999999 -6.087496000000002 Q74.659914 -4.260171999999983 71.899992 -4.260171999999983 H22.780008000000002 Z M22.780008000000002 -8.208327999999995 H71.899992 Q72.984078 -8.208327999999995 73.670508 -8.899491999999995 Q74.361672 -9.585921999999997 74.361672 -10.670007999999996 V-59.78999199999999 Q74.361672 -60.874078 73.670508 -61.560508 Q72.984078 -62.251672 71.899992 -62.251672 H22.780008000000002 Q21.695922 -62.251672 21.009491999999998 -61.560508 Q20.318327999999998 -60.874078 20.318327999999998 -59.78999199999999 V-10.670007999999996 Q20.318327999999998 -9.585921999999997 21.009491999999998 -8.899491999999995 Q21.695922 -8.208327999999995 22.780008000000002 -8.208327999999995 Z"/></g><g id="Ultralight-S" transform="matrix(1 0 0 1 517.792 696)"><path d="M35.798508 -14.319921999999991 H36.295578 Q37.479078 -14.319921999999991 38.364335999999994 -15.157839999999993 Q39.254328 -16.000491999999994 39.254328 -17.278672 V-29.113671999999994 H40.437827999999996 Q41.621328 -29.113671999999994 42.407172 -29.95158999999999 Q43.19775 -30.78950799999999 43.19775 -32.072421999999996 V-39.372249999999994 Q43.19775 -41.44100799999999 41.668668 -42.97008999999999 Q40.139585999999994 -44.499171999999994 38.070828 -44.499171999999994 H34.122672 Q31.855086 -44.499171999999994 30.378078 -42.97008999999999 Q28.896336 -41.44100799999999 28.896336 -39.372249999999994 V-32.072421999999996 Q28.896336 -30.78950799999999 29.63484 -29.95158999999999 Q30.378078 -29.113671999999994 31.660992 -29.113671999999994 H32.844491999999995 V-17.278672 Q32.844491999999995 -16.000491999999994 33.682410000000004 -15.157839999999993 Q34.520328 -14.319921999999991 35.798508 -14.319921999999991 Z M36.09675 -48.049671999999994 Q37.673172 -48.049671999999994 38.856672 -49.185832 Q40.040172 -50.321991999999995 40.040172 -51.99782799999999 Q40.040172 -53.67366399999999 38.856672 -54.80508999999999 Q37.673172 -55.94125 36.09675 -55.94125 Q34.420913999999996 -55.94125 33.284754 -54.80508999999999 Q32.153328 -53.67366399999999 32.153328 -51.99782799999999 Q32.153328 -50.321991999999995 33.284754 -49.185832 Q34.420913999999996 -48.049671999999994 36.09675 -48.049671999999994 Z M57.892086 -41.93807799999999 H61.542 Q62.7255 -41.93807799999999 63.170496 -42.77599599999999 Q63.615492 -43.613913999999994 63.118422 -44.499171999999994 L61.248492000000006 -47.55733599999999 Q61.149077999999996 -47.75616399999999 59.76675 -48.542007999999996 Q59.373827999999996 -48.542007999999996 58.928832 -48.201159999999994 Q58.483836 -47.855577999999994 58.190328 -47.55733599999999 L56.415078 -44.499171999999994 Q55.918008 -43.613913999999994 56.363004000000004 -42.77599599999999 Q56.808 -41.93807799999999 57.892086 -41.93807799999999 Z M59.667336 -22.012671999999995 Q60.064992000000004 -22.012671999999995 60.505254 -22.310913999999997 Q60.95025 -22.604421999999992 61.248492000000006 -23.00207799999999 L63.118422 -26.05550799999999 Q63.615492 -26.846085999999993 63.118422 -27.736077999999992 Q62.626085999999994 -28.621335999999992 61.542 -28.621335999999992 H57.892086 Q56.708586 -28.621335999999992 56.315664000000005 -27.736077999999992 Q55.918008 -26.846085999999993 56.415078 -26.05550799999999 L58.190328 -23.00207799999999 Q58.285008 -22.80324999999999 59.667336 -22.012671999999995 Z M23.471172 -5.348991999999981 Q20.910078 -5.348991999999981 19.182167999999997 -7.072167999999991 Q17.458992000000002 -8.800078 17.458992000000002 -11.361171999999996 V-59.098828 Q17.458992000000002 -61.659921999999995 19.182167999999997 -63.435171999999994 Q20.910078 -65.210422 23.471172 -65.210422 H71.208828 Q73.769922 -65.210422 75.545172 -63.435171999999994 Q77.320422 -61.659921999999995 77.320422 -59.098828 V-11.361171999999996 Q77.320422 -8.800078 75.545172 -7.072167999999991 Q73.769922 -5.348991999999981 71.208828 -5.348991999999981 H23.471172 Z M23.471172 -8.208327999999995 H71.208828 Q72.586422 -8.208327999999995 73.476414 -9.093585999999988 Q74.361672 -9.983577999999994 74.361672 -11.361171999999996 V-59.098828 Q74.361672 -60.47642199999999 73.476414 -61.36641399999999 Q72.586422 -62.251672 71.208828 -62.251672 H23.471172 Q22.093578 -62.251672 21.203586 -61.36641399999999 Q20.318327999999998 -60.47642199999999 20.318327999999998 -59.098828 V-11.361171999999996 Q20.318327999999998 -9.983577999999994 21.203586 -9.093585999999988 Q22.093578 -8.208327999999995 23.471172 -8.208327999999995 Z"/></g></g></svg>