<svg xmlns="http://www.w3.org/2000/svg" version="1.1" width="3300" height="2000"><g id="Notes"><style>
    text {
      font-family: monospace;
      text-anchor: middle;
    }
    text.emphasis {
      font-weight:bold;
    }
    text.lanchor {
      text-anchor: start;
    }
  </style><rect height="2200" id="artboard" fill="white" width="3300" x="0" y="0"/><line id="" style="fill:none;stroke:black;stroke-width:0.5;" x1="263" x2="3036" y1="292" y2="292"/><text class="lanchor emphasis" transform="matrix(1 0 0 1 263 322)">Weight/Scale Variations</text><text transform="matrix(1 0 0 1 559.711 322)">Ultralight</text><text transform="matrix(1 0 0 1 856.422 322)">Thin</text><text transform="matrix(1 0 0 1 1153.13 322)">Light</text><text transform="matrix(1 0 0 1 1449.84 322)">Regular</text><text transform="matrix(1 0 0 1 1746.56 322)">Medium</text><text transform="matrix(1 0 0 1 2043.27 322)">Semibold</text><text transform="matrix(1 0 0 1 2339.98 322)">Bold</text><text transform="matrix(1 0 0 1 2636.69 322)">Heavy</text><text transform="matrix(1 0 0 1 2933.4 322)">Black</text><text id="template-version" style="text-anchor: end;" transform="matrix(1 0 0 1 3036 1933)">Template v.1.0</text><text class="lanchor" transform="matrix(1 0 0 1 263 726)">Small</text><text class="lanchor" transform="matrix(1 0 0 1 263 1156)">Medium</text><text class="lanchor" transform="matrix(1 0 0 1 263 1586)">Large</text></g><g id="Guides"><g id="H-reference" style="fill:#27AAE1;stroke:none;" transform="matrix(1 0 0 1 339 696)"><path d="M 54.9316 0 L 57.666 0 L 30.5664 -70.459 L 28.0762 -70.459 L 0.976562 0 L 3.66211 0 L 12.9395 -24.4629 L 45.7031 -24.4629 Z M 29.1992 -67.0898 L 29.4434 -67.0898 L 44.8242 -26.709 L 13.8184 -26.709 Z"/></g><line id="Baseline-S" style="fill:none;stroke:#27AAE1;opacity:1;stroke-width:0.577;" x1="263" x2="3036" y1="696" y2="696"/><line id="Capline-S" style="fill:none;stroke:#27AAE1;opacity:1;stroke-width:0.577;" x1="263" x2="3036" y1="625.541" y2="625.541"/><g id="H-reference" style="fill:#27AAE1;stroke:none;" transform="matrix(1 0 0 1 339 1126)"><path d="M 54.9316 0 L 57.666 0 L 30.5664 -70.459 L 28.0762 -70.459 L 0.976562 0 L 3.66211 0 L 12.9395 -24.4629 L 45.7031 -24.4629 Z M 29.1992 -67.0898 L 29.4434 -67.0898 L 44.8242 -26.709 L 13.8184 -26.709 Z"/></g><line id="Baseline-M" style="fill:none;stroke:#27AAE1;opacity:1;stroke-width:0.577;" x1="263" x2="3036" y1="1126" y2="1126"/><line id="Capline-M" style="fill:none;stroke:#27AAE1;opacity:1;stroke-width:0.577;" x1="263" x2="3036" y1="1055.54" y2="1055.54"/><g id="H-reference" style="fill:#27AAE1;stroke:none;" transform="matrix(1 0 0 1 339 1556)"><path d="M 54.9316 0 L 57.666 0 L 30.5664 -70.459 L 28.0762 -70.459 L 0.976562 0 L 3.66211 0 L 12.9395 -24.4629 L 45.7031 -24.4629 Z M 29.1992 -67.0898 L 29.4434 -67.0898 L 44.8242 -26.709 L 13.8184 -26.709 Z"/></g><line id="Baseline-L" style="fill:none;stroke:#27AAE1;opacity:1;stroke-width:0.577;" x1="263" x2="3036" y1="1556" y2="1556"/><line id="Capline-L" style="fill:none;stroke:#27AAE1;opacity:1;stroke-width:0.577;" x1="263" x2="3036" y1="1485.54" y2="1485.54"/><rect height="119.336" id="left-margin" style="fill:darkred;stroke:none;opacity:0.4;" width="12.4512" x="1394.06" y="1030.79"/><rect height="119.336" id="right-margin" style="fill:darkgreen;stroke:none;opacity:0.4;" width="12.4512" x="1502.5112" y="1030.79"/><rect x="1406.5112" y="1045" width="96" height="96" fill="none" stroke="blue" stroke-dasharray="5"/><rect x="1394.06" y="1030.79" width="120.9024" height="119.336" fill="none" stroke="blue"/></g><g id="Symbols"><g id="Bold-L" transform="matrix(1 0 0 1 2266 1556)"><path d="M57.082499999999996 -2.4962500000000034 H86.26875 Q91.42875000000001 -2.4962500000000034 94.573125 -5.640625 Q97.7175 -8.784999999999982 97.7175 -13.944999999999993 V-26.19999999999999 Q97.7175 -30.553749999999994 95.46000000000001 -33.053124999999994 Q93.2025 -35.552499999999995 89.81625000000001 -35.552499999999995 Q93.2025 -35.552499999999995 95.46000000000001 -37.72937499999999 Q97.7175 -39.906249999999986 97.7175 -44.42125 V-56.515 Q97.7175 -61.67499999999999 94.573125 -64.819375 Q91.42875000000001 -67.96375 86.26875 -67.96375 H57.082499999999996 V-56.515 H86.26875 Q86.26875 -56.515 86.26875 -56.515 Q86.26875 -56.515 86.26875 -56.515 V-40.39 Q86.26875 -40.39 86.26875 -40.39 Q86.26875 -40.39 86.26875 -40.39 H70.46625 V-30.715000000000003 H86.26875 Q86.26875 -30.715000000000003 86.26875 -30.715000000000003 Q86.26875 -30.715000000000003 86.26875 -30.715000000000003 V-13.944999999999993 Q86.26875 -13.944999999999993 86.26875 -13.944999999999993 Q86.26875 -13.944999999999993 86.26875 -13.944999999999993 H57.082499999999996 V-2.4962500000000034 Z M30.47625 26.85125000000002 Q24.1875 26.85125000000002 19.753125 22.416875000000005 Q15.31875 17.982500000000016 15.31875 11.693749999999994 V-82.15375 Q15.31875 -88.4425 19.753125 -92.9575 Q24.1875 -97.4725 30.47625 -97.4725 H124.32374999999999 Q130.6125 -97.4725 135.1275 -92.9575 Q139.64249999999998 -88.4425 139.64249999999998 -82.15375 V11.693749999999994 Q139.64249999999998 17.982500000000016 135.1275 22.416875000000005 Q130.6125 26.85125000000002 124.32374999999999 26.85125000000002 H30.47625 Z"/></g><g id="Semibold-L" transform="matrix(1 0 0 1 1970.27 1556)"><path d="M57.88875 -2.4962500000000034 H86.26875 Q90.945 -2.4962500000000034 93.92812500000001 -5.559999999999988 Q96.91125000000001 -8.623749999999987 96.91125000000001 -13.138749999999987 V-26.19999999999999 Q96.91125000000001 -30.553749999999994 94.65375 -33.053124999999994 Q92.39625 -35.552499999999995 89.01 -35.552499999999995 Q92.39625 -35.552499999999995 94.65375 -37.72937499999999 Q96.91125000000001 -39.906249999999986 96.91125000000001 -44.42125 V-57.32125 Q96.91125000000001 -61.83624999999999 93.92812500000001 -64.89999999999999 Q90.945 -67.96375 86.26875 -67.96375 H57.88875 V-57.32125 H86.26875 Q86.26875 -57.32125 86.26875 -57.32125 Q86.26875 -57.32125 86.26875 -57.32125 V-40.39 Q86.26875 -40.39 86.26875 -40.39 Q86.26875 -40.39 86.26875 -40.39 H71.27250000000001 V-30.715000000000003 H86.26875 Q86.26875 -30.715000000000003 86.26875 -30.715000000000003 Q86.26875 -30.715000000000003 86.26875 -30.715000000000003 V-13.138749999999987 Q86.26875 -13.138749999999987 86.26875 -13.138749999999987 Q86.26875 -13.138749999999987 86.26875 -13.138749999999987 H57.88875 V-2.4962500000000034 Z M29.83125 25.077500000000015 Q24.67125 25.077500000000015 20.881875 21.288125000000008 Q17.0925 17.49875 17.0925 12.338750000000005 V-82.79875 Q17.0925 -88.12 20.881875 -91.909375 Q24.67125 -95.69874999999999 29.83125 -95.69874999999999 H124.96875 Q130.29 -95.69874999999999 134.079375 -91.909375 Q137.86875 -88.12 137.86875 -82.79875 V12.338750000000005 Q137.86875 17.49875 134.079375 21.288125000000008 Q130.29 25.077500000000015 124.96875 25.077500000000015 H29.83125 Z"/></g><g id="Medium-L" transform="matrix(1 0 0 1 1674.31 1556)"><path d="M58.37250000000001 -2.4962500000000034 H86.26875 Q90.46125 -2.4962500000000034 93.44437500000001 -5.47937499999999 Q96.4275 -8.462500000000006 96.4275 -12.654999999999987 V-26.19999999999999 Q96.4275 -30.553749999999994 94.089375 -33.053124999999994 Q91.75125 -35.552499999999995 88.52625 -35.552499999999995 Q91.75125 -35.552499999999995 94.089375 -37.72937499999999 Q96.4275 -39.906249999999986 96.4275 -44.42125 V-57.80499999999999 Q96.4275 -61.997499999999995 93.44437500000001 -64.980625 Q90.46125 -67.96375 86.26875 -67.96375 H58.37250000000001 V-57.80499999999999 H86.26875 Q86.26875 -57.80499999999999 86.26875 -57.80499999999999 Q86.26875 -57.80499999999999 86.26875 -57.80499999999999 V-40.39 Q86.26875 -40.39 86.26875 -40.39 Q86.26875 -40.39 86.26875 -40.39 H71.75625000000001 V-30.715000000000003 H86.26875 Q86.26875 -30.715000000000003 86.26875 -30.715000000000003 Q86.26875 -30.715000000000003 86.26875 -30.715000000000003 V-12.654999999999987 Q86.26875 -12.654999999999987 86.26875 -12.654999999999987 Q86.26875 -12.654999999999987 86.26875 -12.654999999999987 H58.37250000000001 V-2.4962500000000034 Z M29.3475 23.787499999999994 Q24.993750000000002 23.787499999999994 21.688125 20.481875000000002 Q18.3825 17.17625000000001 18.3825 12.822500000000005 V-83.2825 Q18.3825 -87.7975 21.688125 -91.0225 Q24.993750000000002 -94.2475 29.3475 -94.2475 H125.4525 Q129.9675 -94.2475 133.1925 -91.0225 Q136.4175 -87.7975 136.4175 -83.2825 V12.822500000000005 Q136.4175 17.17625000000001 133.1925 20.481875000000002 Q129.9675 23.787499999999994 125.4525 23.787499999999994 H29.3475 Z"/></g><g id="Regular-L" transform="matrix(1 0 0 1 1378.56 1556)"><path d="M58.85625 -2.4962500000000034 H86.26875 Q90.13875 -2.4962500000000034 93.04125 -5.398749999999993 Q95.94375000000001 -8.301249999999982 95.94375000000001 -12.17125 V-26.19999999999999 Q95.94375000000001 -30.553749999999994 93.605625 -33.053124999999994 Q91.2675 -35.552499999999995 88.0425 -35.552499999999995 Q91.2675 -35.552499999999995 93.605625 -37.72937499999999 Q95.94375000000001 -39.906249999999986 95.94375000000001 -44.42125 V-58.288749999999986 Q95.94375000000001 -62.15874999999999 93.04125 -65.06125 Q90.13875 -67.96375 86.26875 -67.96375 H58.85625 V-58.288749999999986 H86.26875 Q86.26875 -58.288749999999986 86.26875 -58.288749999999986 Q86.26875 -58.288749999999986 86.26875 -58.288749999999986 V-40.39 Q86.26875 -40.39 86.26875 -40.39 Q86.26875 -40.39 86.26875 -40.39 H72.24 V-30.715000000000003 H86.26875 Q86.26875 -30.715000000000003 86.26875 -30.715000000000003 Q86.26875 -30.715000000000003 86.26875 -30.715000000000003 V-12.17125 Q86.26875 -12.17125 86.26875 -12.17125 Q86.26875 -12.17125 86.26875 -12.17125 H58.85625 V-2.4962500000000034 Z M29.025000000000002 22.82000000000002 Q25.155 22.82000000000002 22.2525 19.917500000000018 Q19.35 17.015000000000015 19.35 13.14500000000001 V-83.60499999999999 Q19.35 -87.475 22.2525 -90.3775 Q25.155 -93.28 29.025000000000002 -93.28 H125.775 Q129.645 -93.28 132.5475 -90.3775 Q135.45000000000002 -87.475 135.45000000000002 -83.60499999999999 V13.14500000000001 Q135.45000000000002 17.015000000000015 132.5475 19.917500000000018 Q129.645 22.82000000000002 125.775 22.82000000000002 H29.025000000000002 Z"/></g><g id="Light-L" transform="matrix(1 0 0 1 1082.77 1556)"><path d="M60.3075 -4.269999999999982 H85.30125 Q89.01 -4.269999999999982 91.83187500000001 -7.01124999999999 Q94.65375 -9.752499999999998 94.65375 -13.461249999999993 V-26.844999999999985 Q94.65375 -31.037499999999994 92.5575 -33.13374999999999 Q90.46125 -35.22999999999999 87.72 -35.552499999999995 Q90.46125 -35.71374999999999 92.5575 -37.568124999999995 Q94.65375 -39.4225 94.65375 -43.614999999999995 V-56.998749999999994 Q94.65375 -60.70749999999999 91.83187500000001 -63.44875 Q89.01 -66.19 85.30125 -66.19 H60.3075 V-58.933749999999996 H85.30125 Q86.1075 -58.933749999999996 86.671875 -58.369375 Q87.23625 -57.80499999999999 87.23625 -56.998749999999994 V-41.19624999999999 Q87.23625 -40.22874999999999 86.671875 -39.66437499999999 Q86.1075 -39.099999999999994 85.30125 -39.099999999999994 H72.24 V-31.843749999999986 H85.30125 Q86.1075 -31.843749999999986 86.671875 -31.279374999999987 Q87.23625 -30.715000000000003 87.23625 -29.908749999999998 V-13.461249999999993 Q87.23625 -12.654999999999987 86.671875 -12.090624999999989 Q86.1075 -11.52624999999999 85.30125 -11.52624999999999 H60.3075 V-4.269999999999982 Z M31.927500000000002 19.595 Q28.057499999999997 19.595 25.31625 16.85374999999999 Q22.575 14.112499999999997 22.575 10.242500000000007 V-80.70249999999999 Q22.575 -84.57249999999999 25.31625 -87.31375 Q28.057499999999997 -90.05499999999999 31.927500000000002 -90.05499999999999 H122.8725 Q126.74249999999999 -90.05499999999999 129.48375 -87.31375 Q132.225 -84.57249999999999 132.225 -80.70249999999999 V10.242500000000007 Q132.225 14.112499999999997 129.48375 16.85374999999999 Q126.74249999999999 19.595 122.8725 19.595 H31.927500000000002 Z"/></g><g id="Thin-L" transform="matrix(1 0 0 1 787.282 1556)"><path d="M61.75875 -6.043750000000003 H84.33375 Q87.88125000000001 -6.043750000000003 90.541875 -8.623749999999987 Q93.2025 -11.20375 93.2025 -14.912499999999994 V-27.489999999999995 Q93.2025 -31.36 91.348125 -33.21437499999999 Q89.49375 -35.068749999999994 87.55875 -35.39125 Q89.49375 -35.874999999999986 91.348125 -37.4875 Q93.2025 -39.099999999999994 93.2025 -42.969999999999985 V-55.5475 Q93.2025 -59.256249999999994 90.541875 -61.83624999999999 Q87.88125000000001 -64.41624999999999 84.33375 -64.41624999999999 H61.75875 V-59.57875 H84.33375 Q85.94624999999999 -59.57875 87.075 -58.369375 Q88.20375000000001 -57.16 88.20375000000001 -55.5475 V-41.84125 Q88.20375000000001 -40.067499999999995 87.075 -39.019375 Q85.94624999999999 -37.97125 84.33375 -37.97125 H72.24 V-32.9725 H84.33375 Q85.94624999999999 -32.9725 87.075 -31.763125000000002 Q88.20375000000001 -30.553749999999994 88.20375000000001 -28.941249999999997 V-14.912499999999994 Q88.20375000000001 -13.299999999999997 87.075 -12.090624999999989 Q85.94624999999999 -10.881249999999994 84.33375 -10.881249999999994 H61.75875 V-6.043750000000003 Z M34.66875 16.370000000000005 Q30.96 16.370000000000005 28.380000000000003 13.79000000000002 Q25.8 11.210000000000008 25.8 7.501250000000013 V-77.96124999999999 Q25.8 -81.66999999999999 28.380000000000003 -84.25 Q30.96 -86.83 34.66875 -86.83 H120.13125000000001 Q123.84 -86.83 126.42000000000002 -84.25 Q129.0 -81.66999999999999 129.0 -77.96124999999999 V7.501250000000013 Q129.0 11.210000000000008 126.42000000000002 13.79000000000002 Q123.84 16.370000000000005 120.13125000000001 16.370000000000005 H34.66875 Z"/></g><g id="Ultralight-L" transform="matrix(1 0 0 1 491.205 1556)"><path d="M62.565 -7.01124999999999 H83.68875 Q87.23625 -7.01124999999999 89.81625000000001 -9.51062499999999 Q92.39625 -12.009999999999991 92.39625 -15.718749999999986 V-27.973749999999995 Q92.39625 -31.68249999999999 90.703125 -33.29499999999999 Q89.01 -34.907499999999985 87.39750000000001 -35.39125 Q89.01 -35.874999999999986 90.703125 -37.32624999999999 Q92.39625 -38.7775 92.39625 -42.48625 V-54.741249999999994 Q92.39625 -58.44999999999999 89.81625000000001 -60.949374999999996 Q87.23625 -63.44875 83.68875 -63.44875 H62.565 V-59.90124999999999 H83.68875 Q85.78500000000001 -59.90124999999999 87.316875 -58.369375 Q88.84875000000001 -56.83749999999999 88.84875000000001 -54.741249999999994 V-42.32499999999999 Q88.84875000000001 -40.067499999999995 87.316875 -38.616249999999994 Q85.78500000000001 -37.16499999999999 83.68875 -37.16499999999999 H72.24 V-33.61749999999999 H83.68875 Q85.78500000000001 -33.61749999999999 87.316875 -32.08562499999999 Q88.84875000000001 -30.553749999999994 88.84875000000001 -28.457499999999982 V-15.718749999999986 Q88.84875000000001 -13.622499999999988 87.316875 -12.090624999999989 Q85.78500000000001 -10.558750000000003 83.68875 -10.558750000000003 H62.565 V-7.01124999999999 Z M36.4425 14.435000000000002 Q32.73375 14.435000000000002 30.234375 11.935625000000002 Q27.735 9.436250000000015 27.735 5.7275000000000205 V-76.1875 Q27.735 -79.89625 30.234375 -82.395625 Q32.73375 -84.895 36.4425 -84.895 H118.35750000000002 Q122.06625000000001 -84.895 124.565625 -82.395625 Q127.065 -79.89625 127.065 -76.1875 V5.7275000000000205 Q127.065 9.436250000000015 124.565625 11.935625000000002 Q122.06625000000001 14.435000000000002 118.35750000000002 14.435000000000002 H36.4425 Z"/></g><g id="Bold-M" transform="matrix(1 0 0 1 2281.8 1126)"><path d="M43.125 -10.22999999999999 H65.0 Q70.5 -10.22999999999999 73.69 -13.414999999999992 Q76.875 -16.60499999999999 76.875 -22.10499999999999 V-27.72999999999999 Q76.875 -30.97999999999999 74.75 -33.10499999999999 Q72.625 -35.22999999999999 69.375 -35.22999999999999 Q72.625 -35.22999999999999 74.75 -37.35499999999999 Q76.875 -39.47999999999999 76.875 -42.72999999999999 V-48.35499999999999 Q76.875 -53.85499999999999 73.69 -57.044999999999995 Q70.5 -60.22999999999999 65.0 -60.22999999999999 H43.125 V-48.35499999999999 H65.0 Q65.0 -48.35499999999999 65.0 -48.35499999999999 Q65.0 -48.35499999999999 65.0 -48.35499999999999 V-40.22999999999999 Q65.0 -40.22999999999999 65.0 -40.22999999999999 Q65.0 -40.22999999999999 65.0 -40.22999999999999 H53.125 V-30.22999999999999 H65.0 Q65.0 -30.22999999999999 65.0 -30.22999999999999 Q65.0 -30.22999999999999 65.0 -30.22999999999999 V-22.10499999999999 Q65.0 -22.10499999999999 65.0 -22.10499999999999 Q65.0 -22.10499999999999 65.0 -22.10499999999999 H43.125 V-10.22999999999999 Z M26.5 14.02000000000001 Q19.875 14.02000000000001 15.309999999999999 9.460000000000008 Q10.75 4.89500000000001 10.75 -1.7299999999999898 V-68.72999999999999 Q10.75 -75.35499999999999 15.309999999999999 -79.91999999999999 Q19.875 -84.47999999999999 26.5 -84.47999999999999 H93.5 Q100.125 -84.47999999999999 104.69 -79.91999999999999 Q109.25 -75.35499999999999 109.25 -68.72999999999999 V-1.7299999999999898 Q109.25 4.89500000000001 104.69 9.460000000000008 Q100.125 14.02000000000001 93.5 14.02000000000001 H26.5 Z"/></g><g id="Semibold-M" transform="matrix(1 0 0 1 1985.97 1126)"><path d="M44.0 -10.22999999999999 H65.0 Q69.875 -10.22999999999999 72.94 -13.294999999999987 Q76.0 -16.35499999999999 76.0 -21.22999999999999 V-27.72999999999999 Q76.0 -30.97999999999999 73.875 -33.10499999999999 Q71.75 -35.22999999999999 68.5 -35.22999999999999 Q71.75 -35.22999999999999 73.875 -37.35499999999999 Q76.0 -39.47999999999999 76.0 -42.72999999999999 V-49.22999999999999 Q76.0 -54.10499999999999 72.94 -57.16999999999999 Q69.875 -60.22999999999999 65.0 -60.22999999999999 H44.0 V-49.22999999999999 H65.0 Q65.0 -49.22999999999999 65.0 -49.22999999999999 Q65.0 -49.22999999999999 65.0 -49.22999999999999 V-40.22999999999999 Q65.0 -40.22999999999999 65.0 -40.22999999999999 Q65.0 -40.22999999999999 65.0 -40.22999999999999 H54.0 V-30.22999999999999 H65.0 Q65.0 -30.22999999999999 65.0 -30.22999999999999 Q65.0 -30.22999999999999 65.0 -30.22999999999999 V-21.22999999999999 Q65.0 -21.22999999999999 65.0 -21.22999999999999 Q65.0 -21.22999999999999 65.0 -21.22999999999999 H44.0 V-10.22999999999999 Z M25.875 12.14500000000001 Q20.25 12.14500000000001 16.439999999999998 8.330000000000013 Q12.625 4.52000000000001 12.625 -1.1049999999999898 V-69.35499999999999 Q12.625 -74.97999999999999 16.439999999999998 -78.79499999999999 Q20.25 -82.60499999999999 25.875 -82.60499999999999 H94.125 Q99.75 -82.60499999999999 103.565 -78.79499999999999 Q107.375 -74.97999999999999 107.375 -69.35499999999999 V-1.1049999999999898 Q107.375 4.52000000000001 103.565 8.330000000000013 Q99.75 12.14500000000001 94.125 12.14500000000001 H25.875 Z"/></g><g id="Medium-M" transform="matrix(1 0 0 1 1689.91 1126)"><path d="M44.5 -10.22999999999999 H65.0 Q69.5 -10.22999999999999 72.5 -13.22999999999999 Q75.5 -16.22999999999999 75.5 -20.72999999999999 V-27.72999999999999 Q75.5 -30.97999999999999 73.375 -33.10499999999999 Q71.25 -35.22999999999999 68.0 -35.22999999999999 Q71.25 -35.22999999999999 73.375 -37.35499999999999 Q75.5 -39.47999999999999 75.5 -42.72999999999999 V-49.72999999999999 Q75.5 -54.22999999999999 72.5 -57.22999999999999 Q69.5 -60.22999999999999 65.0 -60.22999999999999 H44.5 V-49.72999999999999 H65.0 Q65.0 -49.72999999999999 65.0 -49.72999999999999 Q65.0 -49.72999999999999 65.0 -49.72999999999999 V-40.22999999999999 Q65.0 -40.22999999999999 65.0 -40.22999999999999 Q65.0 -40.22999999999999 65.0 -40.22999999999999 H54.5 V-30.22999999999999 H65.0 Q65.0 -30.22999999999999 65.0 -30.22999999999999 Q65.0 -30.22999999999999 65.0 -30.22999999999999 V-20.72999999999999 Q65.0 -20.72999999999999 65.0 -20.72999999999999 Q65.0 -20.72999999999999 65.0 -20.72999999999999 H44.5 V-10.22999999999999 Z M25.375 10.77000000000001 Q20.625 10.77000000000001 17.315 7.460000000000008 Q14.0 4.14500000000001 14.0 -0.6049999999999898 V-69.85499999999999 Q14.0 -74.60499999999999 17.315 -77.91999999999999 Q20.625 -81.22999999999999 25.375 -81.22999999999999 H94.625 Q99.375 -81.22999999999999 102.69 -77.91999999999999 Q106.0 -74.60499999999999 106.0 -69.85499999999999 V-0.6049999999999898 Q106.0 4.14500000000001 102.69 7.460000000000008 Q99.375 10.77000000000001 94.625 10.77000000000001 H25.375 Z"/></g><g id="Regular-M" transform="matrix(1 0 0 1 1394.06 1126)"><path d="M45.0 -10.22999999999999 H65.0 Q69.125 -10.22999999999999 72.065 -13.164999999999992 Q75.0 -16.10499999999999 75.0 -20.22999999999999 V-27.72999999999999 Q75.0 -30.97999999999999 72.875 -33.10499999999999 Q70.75 -35.22999999999999 67.5 -35.22999999999999 Q70.75 -35.22999999999999 72.875 -37.35499999999999 Q75.0 -39.47999999999999 75.0 -42.72999999999999 V-50.22999999999999 Q75.0 -54.35499999999999 72.065 -57.29499999999999 Q69.125 -60.22999999999999 65.0 -60.22999999999999 H45.0 V-50.22999999999999 H65.0 Q65.0 -50.22999999999999 65.0 -50.22999999999999 Q65.0 -50.22999999999999 65.0 -50.22999999999999 V-40.22999999999999 Q65.0 -40.22999999999999 65.0 -40.22999999999999 Q65.0 -40.22999999999999 65.0 -40.22999999999999 H55.0 V-30.22999999999999 H65.0 Q65.0 -30.22999999999999 65.0 -30.22999999999999 Q65.0 -30.22999999999999 65.0 -30.22999999999999 V-20.22999999999999 Q65.0 -20.22999999999999 65.0 -20.22999999999999 Q65.0 -20.22999999999999 65.0 -20.22999999999999 H45.0 V-10.22999999999999 Z M25.0 9.77000000000001 Q20.875 9.77000000000001 17.935000000000002 6.835000000000008 Q15.0 3.8950000000000102 15.0 -0.22999999999998977 V-70.22999999999999 Q15.0 -74.35499999999999 17.935000000000002 -77.29499999999999 Q20.875 -80.22999999999999 25.0 -80.22999999999999 H95.0 Q99.125 -80.22999999999999 102.065 -77.29499999999999 Q105.0 -74.35499999999999 105.0 -70.22999999999999 V-0.22999999999998977 Q105.0 3.8950000000000102 102.065 6.835000000000008 Q99.125 9.77000000000001 95.0 9.77000000000001 H25.0 Z"/></g><g id="Light-M" transform="matrix(1 0 0 1 1098.18 1126)"><path d="M46.25 -11.47999999999999 H64.75 Q68.5 -11.47999999999999 71.125 -14.10499999999999 Q73.75 -16.72999999999999 73.75 -20.47999999999999 V-28.35499999999999 Q73.75 -31.47999999999999 71.935 -33.29499999999999 Q70.125 -35.10499999999999 67.5 -35.22999999999999 Q70.125 -35.35499999999999 71.935 -37.16499999999999 Q73.75 -38.97999999999999 73.75 -42.10499999999999 V-49.97999999999999 Q73.75 -53.72999999999999 71.125 -56.35499999999999 Q68.5 -58.97999999999999 64.75 -58.97999999999999 H46.25 V-51.47999999999999 H64.75 Q65.375 -51.47999999999999 65.815 -51.04499999999999 Q66.25 -50.60499999999999 66.25 -49.97999999999999 V-40.47999999999999 Q66.25 -39.85499999999999 65.815 -39.41999999999999 Q65.375 -38.97999999999999 64.75 -38.97999999999999 H55.25 V-31.47999999999999 H64.75 Q65.375 -31.47999999999999 65.815 -31.044999999999987 Q66.25 -30.60499999999999 66.25 -29.97999999999999 V-20.47999999999999 Q66.25 -19.85499999999999 65.815 -19.419999999999987 Q65.375 -18.97999999999999 64.75 -18.97999999999999 H46.25 V-11.47999999999999 Z M26.5 7.27000000000001 Q22.75 7.27000000000001 20.125 4.64500000000001 Q17.5 2.0200000000000102 17.5 -1.7299999999999898 V-68.72999999999999 Q17.5 -72.47999999999999 20.125 -75.10499999999999 Q22.75 -77.72999999999999 26.5 -77.72999999999999 H93.5 Q97.25 -77.72999999999999 99.875 -75.10499999999999 Q102.5 -72.47999999999999 102.5 -68.72999999999999 V-1.7299999999999898 Q102.5 2.0200000000000102 99.875 4.64500000000001 Q97.25 7.27000000000001 93.5 7.27000000000001 H26.5 Z"/></g><g id="Thin-M" transform="matrix(1 0 0 1 802.565 1126)"><path d="M47.5 -12.72999999999999 H64.375 Q67.875 -12.72999999999999 70.19 -15.039999999999992 Q72.5 -17.35499999999999 72.5 -20.85499999999999 V-29.10499999999999 Q72.5 -31.97999999999999 70.94 -33.47999999999999 Q69.375 -34.97999999999999 67.5 -35.22999999999999 Q69.375 -35.47999999999999 70.94 -36.97999999999999 Q72.5 -38.47999999999999 72.5 -41.35499999999999 V-49.60499999999999 Q72.5 -53.10499999999999 70.19 -55.41999999999999 Q67.875 -57.72999999999999 64.375 -57.72999999999999 H47.5 V-52.72999999999999 H64.375 Q65.75 -52.72999999999999 66.625 -51.85499999999999 Q67.5 -50.97999999999999 67.5 -49.60499999999999 V-40.85499999999999 Q67.5 -39.47999999999999 66.625 -38.60499999999999 Q65.75 -37.72999999999999 64.375 -37.72999999999999 H55.625 V-32.72999999999999 H64.375 Q65.75 -32.72999999999999 66.625 -31.85499999999999 Q67.5 -30.97999999999999 67.5 -29.60499999999999 V-20.85499999999999 Q67.5 -19.47999999999999 66.625 -18.60499999999999 Q65.75 -17.72999999999999 64.375 -17.72999999999999 H47.5 V-12.72999999999999 Z M28.125 4.77000000000001 Q24.625 4.77000000000001 22.315 2.460000000000008 Q20.0 0.14500000000001023 20.0 -3.3549999999999898 V-67.10499999999999 Q20.0 -70.60499999999999 22.315 -72.91499999999999 Q24.625 -75.22999999999999 28.125 -75.22999999999999 H91.875 Q95.375 -75.22999999999999 97.69 -72.91499999999999 Q100.0 -70.60499999999999 100.0 -67.10499999999999 V-3.3549999999999898 Q100.0 0.14500000000001023 97.69 2.460000000000008 Q95.375 4.77000000000001 91.875 4.77000000000001 H28.125 Z"/></g><g id="Ultralight-M" transform="matrix(1 0 0 1 506.415 1126)"><path d="M48.25 -13.47999999999999 H64.25 Q67.5 -13.47999999999999 69.625 -15.60499999999999 Q71.75 -17.72999999999999 71.75 -20.97999999999999 V-29.47999999999999 Q71.75 -32.35499999999999 70.375 -33.60499999999999 Q69.0 -34.85499999999999 67.5 -35.22999999999999 Q69.0 -35.60499999999999 70.375 -36.85499999999999 Q71.75 -38.10499999999999 71.75 -40.97999999999999 V-49.47999999999999 Q71.75 -52.72999999999999 69.625 -54.85499999999999 Q67.5 -56.97999999999999 64.25 -56.97999999999999 H48.25 V-53.47999999999999 H64.25 Q66.0 -53.47999999999999 67.125 -52.35499999999999 Q68.25 -51.22999999999999 68.25 -49.47999999999999 V-40.97999999999999 Q68.25 -39.22999999999999 67.125 -38.10499999999999 Q66.0 -36.97999999999999 64.25 -36.97999999999999 H55.75 V-33.47999999999999 H64.25 Q66.0 -33.47999999999999 67.125 -32.35499999999999 Q68.25 -31.22999999999999 68.25 -29.47999999999999 V-20.97999999999999 Q68.25 -19.22999999999999 67.125 -18.10499999999999 Q66.0 -16.97999999999999 64.25 -16.97999999999999 H48.25 V-13.47999999999999 Z M29.0 3.2700000000000102 Q25.75 3.2700000000000102 23.625 1.1450000000000102 Q21.5 -0.9799999999999898 21.5 -4.22999999999999 V-66.22999999999999 Q21.5 -69.47999999999999 23.625 -71.60499999999999 Q25.75 -73.72999999999999 29.0 -73.72999999999999 H91.0 Q94.25 -73.72999999999999 96.375 -71.60499999999999 Q98.5 -69.47999999999999 98.5 -66.22999999999999 V-4.22999999999999 Q98.5 -0.9799999999999898 96.375 1.1450000000000102 Q94.25 3.2700000000000102 91.0 3.2700000000000102 H29.0 Z"/></g><g id="Bold-S" transform="matrix(1 0 0 1 2294.23 696)"><path d="M34.027992 -16.293999999999997 H52.074 Q56.116836 -16.293999999999997 58.384422 -18.56158599999999 Q60.652007999999995 -20.829171999999993 60.652007999999995 -24.872007999999994 V-30.495999999999995 Q60.652007999999995 -32.470077999999994 59.274414 -33.847671999999996 Q57.892086 -35.22999999999999 55.918008 -35.22999999999999 Q57.892086 -35.22999999999999 59.274414 -36.61232799999999 Q60.652007999999995 -37.98992199999999 60.652007999999995 -39.96399999999999 V-45.58799199999999 Q60.652007999999995 -49.630827999999994 58.384422 -51.89841399999999 Q56.116836 -54.166 52.074 -54.166 H34.027992 V-45.58799199999999 H52.074 Q52.074 -45.58799199999999 52.074 -45.58799199999999 Q52.074 -45.58799199999999 52.074 -45.58799199999999 V-38.780499999999996 Q52.074 -38.780499999999996 52.074 -38.780499999999996 Q52.074 -38.780499999999996 52.074 -38.780499999999996 H41.128992000000004 V-31.67949999999999 H52.074 Q52.074 -31.67949999999999 52.074 -31.67949999999999 Q52.074 -31.67949999999999 52.074 -31.67949999999999 V-24.872007999999994 Q52.074 -24.872007999999994 52.074 -24.872007999999994 Q52.074 -24.872007999999994 52.074 -24.872007999999994 H34.027992 V-16.293999999999997 Z M22.4865 1.2596719999999948 Q17.553672000000002 1.2596719999999948 14.202 -2.0919999999999987 Q10.850328 -5.443671999999992 10.850328 -10.376499999999993 V-60.083499999999994 Q10.850328 -65.01632799999999 14.202 -68.368 Q17.553672000000002 -71.71967199999999 22.4865 -71.71967199999999 H72.1935 Q77.126328 -71.71967199999999 80.478 -68.368 Q83.82967199999999 -65.01632799999999 83.82967199999999 -60.083499999999994 V-10.376499999999993 Q83.82967199999999 -5.443671999999992 80.478 -2.0919999999999987 Q77.126328 1.2596719999999948 72.1935 1.2596719999999948 H22.4865 Z"/></g><g id="Semibold-S" transform="matrix(1 0 0 1 1998.1 696)"><path d="M34.714422 -16.293999999999997 H52.074 Q55.6245 -16.293999999999997 57.792672 -18.514245999999986 Q59.965578 -20.734491999999996 59.965578 -24.185577999999992 V-30.495999999999995 Q59.965578 -32.470077999999994 58.58325 -33.847671999999996 Q57.200922 -35.22999999999999 55.231578 -35.22999999999999 Q57.200922 -35.22999999999999 58.58325 -36.61232799999999 Q59.965578 -37.98992199999999 59.965578 -39.96399999999999 V-46.274421999999994 Q59.965578 -49.725508 57.792672 -51.945753999999994 Q55.6245 -54.166 52.074 -54.166 H34.714422 V-46.274421999999994 H52.074 Q52.074 -46.274421999999994 52.074 -46.274421999999994 Q52.074 -46.274421999999994 52.074 -46.274421999999994 V-38.780499999999996 Q52.074 -38.780499999999996 52.074 -38.780499999999996 Q52.074 -38.780499999999996 52.074 -38.780499999999996 H41.815422 V-31.67949999999999 H52.074 Q52.074 -31.67949999999999 52.074 -31.67949999999999 Q52.074 -31.67949999999999 52.074 -31.67949999999999 V-24.185577999999992 Q52.074 -24.185577999999992 52.074 -24.185577999999992 Q52.074 -24.185577999999992 52.074 -24.185577999999992 H34.714422 V-16.293999999999997 Z M21.994163999999998 -0.21733599999998887 Q17.951328 -0.21733599999998887 15.139332 -3.0293319999999966 Q12.327336 -5.841328000000004 12.327336 -9.884163999999998 V-60.575835999999995 Q12.327336 -64.61867199999999 15.139332 -67.430668 Q17.951328 -70.24266399999999 21.994163999999998 -70.24266399999999 H72.685836 Q76.72867199999999 -70.24266399999999 79.540668 -67.430668 Q82.352664 -64.61867199999999 82.352664 -60.575835999999995 V-9.884163999999998 Q82.352664 -5.841328000000004 79.540668 -3.0293319999999966 Q76.72867199999999 -0.21733599999998887 72.685836 -0.21733599999998887 H21.994163999999998 Z"/></g><g id="Medium-S" transform="matrix(1 0 0 1 1701.85 696)"><path d="M35.112078 -16.293999999999997 H52.074 Q55.231578 -16.293999999999997 57.39975 -18.41483199999999 Q59.567922 -20.535663999999997 59.567922 -23.787921999999995 V-30.495999999999995 Q59.567922 -32.470077999999994 58.190328 -33.847671999999996 Q56.808 -35.22999999999999 54.833922 -35.22999999999999 Q56.808 -35.22999999999999 58.190328 -36.61232799999999 Q59.567922 -37.98992199999999 59.567922 -39.96399999999999 V-46.67207799999999 Q59.567922 -49.924336 57.39975 -52.04516799999999 Q55.231578 -54.166 52.074 -54.166 H35.112078 V-46.67207799999999 H52.074 Q52.074 -46.67207799999999 52.074 -46.67207799999999 Q52.074 -46.67207799999999 52.074 -46.67207799999999 V-38.780499999999996 Q52.074 -38.780499999999996 52.074 -38.780499999999996 Q52.074 -38.780499999999996 52.074 -38.780499999999996 H42.213077999999996 V-31.67949999999999 H52.074 Q52.074 -31.67949999999999 52.074 -31.67949999999999 Q52.074 -31.67949999999999 52.074 -31.67949999999999 V-23.787921999999995 Q52.074 -23.787921999999995 52.074 -23.787921999999995 Q52.074 -23.787921999999995 52.074 -23.787921999999995 H35.112078 V-16.293999999999997 Z M21.596508 -1.301421999999988 Q18.145422 -1.301421999999988 15.778422 -3.6684219999999925 Q13.411422 -6.035421999999983 13.411422 -9.486507999999986 V-60.97349199999999 Q13.411422 -64.424578 15.778422 -66.79157799999999 Q18.145422 -69.15857799999999 21.596508 -69.15857799999999 H73.083492 Q76.53457800000001 -69.15857799999999 78.901578 -66.79157799999999 Q81.268578 -64.424578 81.268578 -60.97349199999999 V-9.486507999999986 Q81.268578 -6.035421999999983 78.901578 -3.6684219999999925 Q76.53457800000001 -1.301421999999988 73.083492 -1.301421999999988 H21.596508 Z"/></g><g id="Regular-S" transform="matrix(1 0 0 1 1405.73 696)"><path d="M35.505 -16.293999999999997 H52.074 Q55.03275 -16.293999999999997 57.101507999999995 -18.367492 Q59.175 -20.436249999999994 59.175 -23.394999999999996 V-30.495999999999995 Q59.175 -32.470077999999994 57.792672 -33.847671999999996 Q56.415078 -35.22999999999999 54.441 -35.22999999999999 Q56.415078 -35.22999999999999 57.792672 -36.61232799999999 Q59.175 -37.98992199999999 59.175 -39.96399999999999 V-47.06499999999999 Q59.175 -50.02374999999999 57.101507999999995 -52.092507999999995 Q55.03275 -54.166 52.074 -54.166 H35.505 V-47.06499999999999 H52.074 Q52.074 -47.06499999999999 52.074 -47.06499999999999 Q52.074 -47.06499999999999 52.074 -47.06499999999999 V-38.780499999999996 Q52.074 -38.780499999999996 52.074 -38.780499999999996 Q52.074 -38.780499999999996 52.074 -38.780499999999996 H42.606 V-31.67949999999999 H52.074 Q52.074 -31.67949999999999 52.074 -31.67949999999999 Q52.074 -31.67949999999999 52.074 -31.67949999999999 V-23.394999999999996 Q52.074 -23.394999999999996 52.074 -23.394999999999996 Q52.074 -23.394999999999996 52.074 -23.394999999999996 H35.505 V-16.293999999999997 Z M21.303 -2.0919999999999987 Q18.34425 -2.0919999999999987 16.275492 -4.165491999999986 Q14.202 -6.234249999999989 14.202 -9.192999999999998 V-61.266999999999996 Q14.202 -64.22574999999999 16.275492 -66.294508 Q18.34425 -68.368 21.303 -68.368 H73.377 Q76.33575 -68.368 78.404508 -66.294508 Q80.478 -64.22574999999999 80.478 -61.266999999999996 V-9.192999999999998 Q80.478 -6.234249999999989 78.404508 -4.165491999999986 Q76.33575 -2.0919999999999987 73.377 -2.0919999999999987 H21.303 Z"/></g><g id="Light-S" transform="matrix(1 0 0 1 1109.75 696)"><path d="M36.489672 -17.278672 H51.875172 Q54.540414000000006 -17.278672 56.363004000000004 -19.10599599999999 Q58.190328 -20.92858599999999 58.190328 -23.593827999999995 V-30.98833599999999 Q58.190328 -32.86299999999999 57.054168 -33.999159999999996 Q55.918008 -35.13058599999999 54.441 -35.22999999999999 Q55.918008 -35.329414 57.054168 -36.46083999999999 Q58.190328 -37.596999999999994 58.190328 -39.471664 V-46.86617199999999 Q58.190328 -49.53141399999999 56.363004000000004 -51.35400399999999 Q54.540414000000006 -53.18132799999999 51.875172 -53.18132799999999 H36.489672 V-48.049671999999994 H51.875172 Q52.367507999999994 -48.049671999999994 52.71309 -47.704089999999994 Q53.058672 -47.35850799999999 53.058672 -46.86617199999999 V-38.979327999999995 Q53.058672 -38.486991999999994 52.71309 -38.14140999999999 Q52.367507999999994 -37.79582799999999 51.875172 -37.79582799999999 H42.804828 V-32.66417199999999 H51.875172 Q52.367507999999994 -32.66417199999999 52.71309 -32.31858999999999 Q53.058672 -31.973007999999993 53.058672 -31.48067199999999 V-23.593827999999995 Q53.058672 -23.101491999999993 52.71309 -22.755909999999993 Q52.367507999999994 -22.410327999999993 51.875172 -22.410327999999993 H36.489672 V-17.278672 Z M22.4865 -4.0660780000000045 Q19.825992 -4.0660780000000045 17.998668 -5.888667999999996 Q16.176078 -7.715992 16.176078 -10.376499999999993 V-60.083499999999994 Q16.176078 -62.744007999999994 17.998668 -64.571332 Q19.825992 -66.39392199999999 22.4865 -66.39392199999999 H72.1935 Q74.854008 -66.39392199999999 76.681332 -64.571332 Q78.50392199999999 -62.744007999999994 78.50392199999999 -60.083499999999994 V-10.376499999999993 Q78.50392199999999 -7.715992 76.681332 -5.888667999999996 Q74.854008 -4.0660780000000045 72.1935 -4.0660780000000045 H22.4865 Z"/></g><g id="Thin-S" transform="matrix(1 0 0 1 814.015 696)"><path d="M37.479078 -18.26807799999999 H51.581664 Q54.048078 -18.26807799999999 55.6245 -19.844499999999996 Q57.200922 -21.420921999999997 57.200922 -23.88733599999999 V-31.580085999999987 Q57.200922 -33.25592199999999 56.26359 -34.145914 Q55.330992 -35.03117199999999 54.441 -35.22999999999999 Q55.330992 -35.428827999999996 56.26359 -36.31408599999999 Q57.200922 -37.204077999999996 57.200922 -38.879914 V-46.572663999999996 Q57.200922 -49.03907799999999 55.6245 -50.6155 Q54.048078 -52.19192199999999 51.581664 -52.19192199999999 H37.479078 V-49.03907799999999 H51.581664 Q52.66575 -49.03907799999999 53.356914 -48.347913999999996 Q54.048078 -47.656749999999995 54.048078 -46.572663999999996 V-39.27283599999999 Q54.048078 -38.18874999999999 53.356914 -37.49758599999999 Q52.66575 -36.80642199999999 51.581664 -36.80642199999999 H43.098335999999996 V-33.653577999999996 H51.581664 Q52.66575 -33.653577999999996 53.356914 -32.962413999999995 Q54.048078 -32.271249999999995 54.048078 -31.187163999999996 V-23.88733599999999 Q54.048078 -22.80324999999999 53.356914 -22.11208599999999 Q52.66575 -21.420921999999997 51.581664 -21.420921999999997 H37.479078 V-18.26807799999999 Z M23.769414 -6.035421999999983 Q21.303 -6.035421999999983 19.726578 -7.61657799999999 Q18.145422 -9.192999999999998 18.145422 -11.659413999999998 V-58.800585999999996 Q18.145422 -61.266999999999996 19.726578 -62.84342199999999 Q21.303 -64.424578 23.769414 -64.424578 H70.910586 Q73.377 -64.424578 74.953422 -62.84342199999999 Q76.53457800000001 -61.266999999999996 76.53457800000001 -58.800585999999996 V-11.659413999999998 Q76.53457800000001 -9.192999999999998 74.953422 -7.61657799999999 Q73.377 -6.035421999999983 70.910586 -6.035421999999983 H23.769414 Z"/></g><g id="Ultralight-S" transform="matrix(1 0 0 1 517.792 696)"><path d="M38.070828 -18.859827999999993 H51.48225 Q53.749835999999995 -18.859827999999993 55.179504 -20.289495999999993 Q56.609172 -21.719164 56.609172 -23.986749999999994 V-31.87832799999999 Q56.609172 -33.554164 55.823328 -34.24532799999999 Q55.03275 -34.936491999999994 54.441 -35.22999999999999 Q55.03275 -35.52350799999999 55.823328 -36.21467199999999 Q56.609172 -36.90583599999999 56.609172 -38.581672 V-46.47324999999999 Q56.609172 -48.740835999999994 55.179504 -50.170503999999994 Q53.749835999999995 -51.60017199999999 51.48225 -51.60017199999999 H38.070828 V-49.630827999999994 H51.48225 Q52.864578 -49.630827999999994 53.749835999999995 -48.740835999999994 Q54.639828 -47.855577999999994 54.639828 -46.47324999999999 V-39.372249999999994 Q54.639828 -37.98992199999999 53.749835999999995 -37.104664 Q52.864578 -36.21467199999999 51.48225 -36.21467199999999 H43.19775 V-34.24532799999999 H51.48225 Q52.864578 -34.24532799999999 53.749835999999995 -33.35533599999999 Q54.639828 -32.470077999999994 54.639828 -31.087749999999993 V-23.986749999999994 Q54.639828 -22.604421999999992 53.749835999999995 -21.719164 Q52.864578 -20.829171999999993 51.48225 -20.829171999999993 H38.070828 V-18.859827999999993 Z M24.460577999999998 -7.218921999999992 Q22.192992 -7.218921999999992 20.758589999999998 -8.648589999999999 Q19.328922000000002 -10.08299199999999 19.328922000000002 -12.350577999999999 V-58.109421999999995 Q19.328922000000002 -60.37700799999999 20.758589999999998 -61.811409999999995 Q22.192992 -63.24107799999999 24.460577999999998 -63.24107799999999 H70.219422 Q72.487008 -63.24107799999999 73.92141 -61.811409999999995 Q75.351078 -60.37700799999999 75.351078 -58.109421999999995 V-12.350577999999999 Q75.351078 -10.08299199999999 73.92141 -8.648589999999999 Q72.487008 -7.218921999999992 70.219422 -7.218921999999992 H24.460577999999998 Z"/></g></g></svg>