<svg xmlns="http://www.w3.org/2000/svg" version="1.1" width="3300" height="2000"><g id="Notes"><style>
    text {
      font-family: monospace;
      text-anchor: middle;
    }
    text.emphasis {
      font-weight:bold;
    }
    text.lanchor {
      text-anchor: start;
    }
  </style><rect height="2200" id="artboard" fill="white" width="3300" x="0" y="0"/><line id="" style="fill:none;stroke:black;stroke-width:0.5;" x1="263" x2="3036" y1="292" y2="292"/><text class="lanchor emphasis" transform="matrix(1 0 0 1 263 322)">Weight/Scale Variations</text><text transform="matrix(1 0 0 1 559.711 322)">Ultralight</text><text transform="matrix(1 0 0 1 856.422 322)">Thin</text><text transform="matrix(1 0 0 1 1153.13 322)">Light</text><text transform="matrix(1 0 0 1 1449.84 322)">Regular</text><text transform="matrix(1 0 0 1 1746.56 322)">Medium</text><text transform="matrix(1 0 0 1 2043.27 322)">Semibold</text><text transform="matrix(1 0 0 1 2339.98 322)">Bold</text><text transform="matrix(1 0 0 1 2636.69 322)">Heavy</text><text transform="matrix(1 0 0 1 2933.4 322)">Black</text><text id="template-version" style="text-anchor: end;" transform="matrix(1 0 0 1 3036 1933)">Template v.1.0</text><text class="lanchor" transform="matrix(1 0 0 1 263 726)">Small</text><text class="lanchor" transform="matrix(1 0 0 1 263 1156)">Medium</text><text class="lanchor" transform="matrix(1 0 0 1 263 1586)">Large</text></g><g id="Guides"><g id="H-reference" style="fill:#27AAE1;stroke:none;" transform="matrix(1 0 0 1 339 696)"><path d="M 54.9316 0 L 57.666 0 L 30.5664 -70.459 L 28.0762 -70.459 L 0.976562 0 L 3.66211 0 L 12.9395 -24.4629 L 45.7031 -24.4629 Z M 29.1992 -67.0898 L 29.4434 -67.0898 L 44.8242 -26.709 L 13.8184 -26.709 Z"/></g><line id="Baseline-S" style="fill:none;stroke:#27AAE1;opacity:1;stroke-width:0.577;" x1="263" x2="3036" y1="696" y2="696"/><line id="Capline-S" style="fill:none;stroke:#27AAE1;opacity:1;stroke-width:0.577;" x1="263" x2="3036" y1="625.541" y2="625.541"/><g id="H-reference" style="fill:#27AAE1;stroke:none;" transform="matrix(1 0 0 1 339 1126)"><path d="M 54.9316 0 L 57.666 0 L 30.5664 -70.459 L 28.0762 -70.459 L 0.976562 0 L 3.66211 0 L 12.9395 -24.4629 L 45.7031 -24.4629 Z M 29.1992 -67.0898 L 29.4434 -67.0898 L 44.8242 -26.709 L 13.8184 -26.709 Z"/></g><line id="Baseline-M" style="fill:none;stroke:#27AAE1;opacity:1;stroke-width:0.577;" x1="263" x2="3036" y1="1126" y2="1126"/><line id="Capline-M" style="fill:none;stroke:#27AAE1;opacity:1;stroke-width:0.577;" x1="263" x2="3036" y1="1055.54" y2="1055.54"/><g id="H-reference" style="fill:#27AAE1;stroke:none;" transform="matrix(1 0 0 1 339 1556)"><path d="M 54.9316 0 L 57.666 0 L 30.5664 -70.459 L 28.0762 -70.459 L 0.976562 0 L 3.66211 0 L 12.9395 -24.4629 L 45.7031 -24.4629 Z M 29.1992 -67.0898 L 29.4434 -67.0898 L 44.8242 -26.709 L 13.8184 -26.709 Z"/></g><line id="Baseline-L" style="fill:none;stroke:#27AAE1;opacity:1;stroke-width:0.577;" x1="263" x2="3036" y1="1556" y2="1556"/><line id="Capline-L" style="fill:none;stroke:#27AAE1;opacity:1;stroke-width:0.577;" x1="263" x2="3036" y1="1485.54" y2="1485.54"/><rect height="119.336" id="left-margin" style="fill:darkred;stroke:none;opacity:0.4;" width="12.4512" x="1394.06" y="1030.79"/><rect height="119.336" id="right-margin" style="fill:darkgreen;stroke:none;opacity:0.4;" width="12.4512" x="1502.5112" y="1030.79"/><rect x="1406.5112" y="1045" width="96" height="96" fill="none" stroke="blue" stroke-dasharray="5"/><rect x="1394.06" y="1030.79" width="120.9024" height="119.336" fill="none" stroke="blue"/></g><g id="Symbols"><g id="Bold-L" transform="matrix(1 0 0 1 2266 1556)"><path d="M31.44375 16.370000000000005 H20.478749999999998 L17.25375 1.0512500000000102 H8.86875 V-37.32624999999999 Q8.86875 -42.0025 11.44875 -45.79187499999999 Q14.028749999999999 -49.58124999999999 18.54375 -50.871249999999996 H22.73625 V-69.25375 Q22.73625 -75.54249999999999 27.170625000000005 -80.0575 Q31.605000000000004 -84.57249999999999 37.893750000000004 -84.57249999999999 H116.74500000000002 Q123.03375 -84.57249999999999 127.54875 -80.0575 Q132.06375 -75.54249999999999 132.06375 -69.25375 V-50.871249999999996 H136.4175 Q140.61 -49.58124999999999 143.35125000000002 -45.953124999999986 Q146.0925 -42.32499999999999 146.0925 -37.81 V1.0512500000000102 H137.54625 L134.32125 16.370000000000005 H123.35625 L120.13125000000001 1.0512500000000102 H34.830000000000005 L31.44375 16.370000000000005 Z M82.2375 -47.485 H116.74500000000002 V-69.25375 Q116.74500000000002 -69.25375 116.74500000000002 -69.25375 Q116.74500000000002 -69.25375 116.74500000000002 -69.25375 H82.2375 V-47.485 Z M37.893750000000004 -47.485 H72.5625 V-69.25375 H37.893750000000004 Q37.893750000000004 -69.25375 37.893750000000004 -69.25375 Q37.893750000000004 -69.25375 37.893750000000004 -69.25375 V-47.485 Z M24.02625 -14.106249999999989 H130.77375 V-37.81 Q130.77375 -37.81 130.77375 -37.81 Q130.77375 -37.81 130.77375 -37.81 H24.02625 Q24.02625 -37.81 24.02625 -37.81 Q24.02625 -37.81 24.02625 -37.81 V-14.106249999999989 Z"/></g><g id="Semibold-L" transform="matrix(1 0 0 1 1970.27 1556)"><path d="M30.15375 13.628749999999997 H21.76875 L18.54375 -0.7224999999999824 H10.6425 V-37.4875 Q10.6425 -41.84125 13.303125 -45.22749999999999 Q15.963750000000001 -48.613749999999996 20.3175 -49.41999999999999 H24.509999999999998 V-69.89874999999999 Q24.509999999999998 -75.22 28.21875 -79.00937499999999 Q31.927500000000002 -82.79875 37.24875 -82.79875 H117.39 Q122.71124999999999 -82.79875 126.50062500000001 -79.00937499999999 Q130.29 -75.22 130.29 -69.89874999999999 V-49.41999999999999 H134.64375 Q138.675 -48.613749999999996 141.49687500000002 -45.30812499999999 Q144.31875 -42.0025 144.31875 -37.81 V-0.7224999999999824 H136.25625 L133.03125 13.628749999999997 H124.64625 L121.42125 -0.7224999999999824 H33.54 L30.15375 13.628749999999997 Z M82.2375 -47.485 H117.39 V-69.89874999999999 Q117.39 -69.89874999999999 117.39 -69.89874999999999 Q117.39 -69.89874999999999 117.39 -69.89874999999999 H82.2375 V-47.485 Z M37.24875 -47.485 H72.5625 V-69.89874999999999 H37.24875 Q37.24875 -69.89874999999999 37.24875 -69.89874999999999 Q37.24875 -69.89874999999999 37.24875 -69.89874999999999 V-47.485 Z M23.38125 -13.461249999999993 H131.41875000000002 V-37.81 Q131.41875000000002 -37.81 131.41875000000002 -37.81 Q131.41875000000002 -37.81 131.41875000000002 -37.81 H23.38125 Q23.38125 -37.81 23.38125 -37.81 Q23.38125 -37.81 23.38125 -37.81 V-13.461249999999993 Z"/></g><g id="Medium-L" transform="matrix(1 0 0 1 1674.31 1556)"><path d="M29.186250000000005 11.532500000000013 H22.73625 L19.51125 -2.012500000000003 H11.932500000000001 V-37.4875 Q11.932500000000001 -41.67999999999999 14.67375 -44.824375 Q17.415000000000003 -47.968749999999986 21.6075 -48.29124999999999 H25.8 V-70.3825 Q25.8 -74.8975 29.025000000000002 -78.1225 Q32.25 -81.3475 36.765 -81.3475 H117.87375 Q122.38875000000002 -81.3475 125.61375000000001 -78.1225 Q128.83875 -74.8975 128.83875 -70.3825 V-48.29124999999999 H133.1925 Q137.22375 -47.968749999999986 140.045625 -44.90499999999999 Q142.8675 -41.84125 142.8675 -37.81 V-2.012500000000003 H135.28875000000002 L132.06375 11.532500000000013 H125.61375000000001 L122.38875000000002 -2.012500000000003 H32.5725 L29.186250000000005 11.532500000000013 Z M82.2375 -47.485 H117.87375 V-70.3825 Q117.87375 -70.3825 117.87375 -70.3825 Q117.87375 -70.3825 117.87375 -70.3825 H82.2375 V-47.485 Z M36.765 -47.485 H72.5625 V-70.3825 H36.765 Q36.765 -70.3825 36.765 -70.3825 Q36.765 -70.3825 36.765 -70.3825 V-47.485 Z M22.8975 -12.977499999999992 H131.9025 V-37.81 Q131.9025 -37.81 131.9025 -37.81 Q131.9025 -37.81 131.9025 -37.81 H22.8975 Q22.8975 -37.81 22.8975 -37.81 Q22.8975 -37.81 22.8975 -37.81 V-12.977499999999992 Z"/></g><g id="Regular-L" transform="matrix(1 0 0 1 1378.56 1556)"><path d="M28.380000000000003 9.920000000000002 H23.5425 L20.3175 -2.9799999999999898 H12.9 V-37.4875 Q12.9 -41.67999999999999 15.64125 -44.582499999999996 Q18.3825 -47.485 22.575 -47.485 H26.767500000000002 V-70.70499999999998 Q26.767500000000002 -74.73624999999998 29.589375000000004 -77.55812499999999 Q32.41125 -80.38 36.4425 -80.38 H118.19624999999999 Q122.22749999999999 -80.38 125.049375 -77.55812499999999 Q127.87125 -74.73624999999998 127.87125 -70.70499999999998 V-47.485 H132.225 Q136.25625 -47.485 139.078125 -44.663124999999994 Q141.9 -41.84125 141.9 -37.81 V-2.9799999999999898 H134.48250000000002 L131.25750000000002 9.920000000000002 H126.42000000000002 L123.19500000000001 -2.9799999999999898 H31.76625 L28.380000000000003 9.920000000000002 Z M82.2375 -47.485 H118.19624999999999 V-70.70499999999998 Q118.19624999999999 -70.70499999999998 118.19624999999999 -70.70499999999998 Q118.19624999999999 -70.70499999999998 118.19624999999999 -70.70499999999998 H82.2375 V-47.485 Z M36.4425 -47.485 H72.5625 V-70.70499999999998 H36.4425 Q36.4425 -70.70499999999998 36.4425 -70.70499999999998 Q36.4425 -70.70499999999998 36.4425 -70.70499999999998 V-47.485 Z M22.575 -12.654999999999987 H132.225 V-37.81 Q132.225 -37.81 132.225 -37.81 Q132.225 -37.81 132.225 -37.81 H22.575 Q22.575 -37.81 22.575 -37.81 Q22.575 -37.81 22.575 -37.81 V-12.654999999999987 Z"/></g><g id="Light-L" transform="matrix(1 0 0 1 1082.77 1556)"><path d="M28.7025 6.695000000000007 H24.8325 L22.2525 -6.204999999999998 H16.125 V-34.907499999999985 Q16.125 -38.938749999999985 18.785625 -41.67999999999999 Q21.446250000000003 -44.42125 25.477500000000003 -44.42125 H29.669999999999998 V-64.57749999999999 Q29.669999999999998 -68.44749999999999 32.41125 -71.18875 Q35.1525 -73.92999999999999 39.0225 -73.92999999999999 H115.61625000000001 Q119.48625 -73.92999999999999 122.22749999999999 -71.18875 Q124.96875 -68.44749999999999 124.96875 -64.57749999999999 V-44.42125 H129.32250000000002 Q133.1925 -44.42125 135.93375 -41.67999999999999 Q138.675 -38.938749999999985 138.675 -35.068749999999994 V-6.204999999999998 H132.5475 L129.9675 6.695000000000007 H126.09750000000001 L123.5175 -6.204999999999998 H31.44375 L28.7025 6.695000000000007 Z M81.10875 -44.42125 H117.7125 V-64.57749999999999 Q117.7125 -65.54499999999999 117.0675 -66.109375 Q116.42250000000001 -66.67374999999998 115.61625000000001 -66.67374999999998 H81.10875 V-44.42125 Z M37.0875 -44.42125 H73.69125000000001 V-66.67374999999998 H39.0225 Q38.21625 -66.67374999999998 37.651875000000004 -66.109375 Q37.0875 -65.54499999999999 37.0875 -64.57749999999999 V-44.42125 Z M23.38125 -13.461249999999993 H131.41875000000002 V-35.068749999999994 Q131.41875000000002 -35.874999999999986 130.854375 -36.51999999999998 Q130.29 -37.16499999999999 129.32250000000002 -37.16499999999999 H25.477500000000003 Q24.509999999999998 -37.16499999999999 23.945625 -36.51999999999998 Q23.38125 -35.874999999999986 23.38125 -35.068749999999994 V-13.461249999999993 Z M131.41875000000002 -13.461249999999993 H23.38125 Q23.38125 -13.461249999999993 23.945625 -13.461249999999993 Q24.509999999999998 -13.461249999999993 25.477500000000003 -13.461249999999993 H129.32250000000002 Q130.29 -13.461249999999993 130.854375 -13.461249999999993 Q131.41875000000002 -13.461249999999993 131.41875000000002 -13.461249999999993 Z"/></g><g id="Thin-L" transform="matrix(1 0 0 1 787.282 1556)"><path d="M29.025000000000002 3.470000000000013 H26.28375 L24.34875 -9.429999999999993 H19.35 V-32.3275 Q19.35 -36.036249999999995 21.93 -38.69687499999999 Q24.509999999999998 -41.35749999999999 28.21875 -41.35749999999999 H32.73375 V-58.61124999999999 Q32.73375 -62.15874999999999 35.31375 -64.819375 Q37.893750000000004 -67.47999999999999 41.6025 -67.47999999999999 H113.03625 Q116.74500000000002 -67.47999999999999 119.405625 -64.819375 Q122.06625000000001 -62.15874999999999 122.06625000000001 -58.61124999999999 V-41.35749999999999 H126.58125 Q130.12875 -41.35749999999999 132.789375 -38.69687499999999 Q135.45000000000002 -36.036249999999995 135.45000000000002 -32.48874999999998 V-9.429999999999993 H130.45125000000002 L128.51625 3.470000000000013 H125.775 L123.84 -9.429999999999993 H30.96 L29.025000000000002 3.470000000000013 Z M79.81875000000001 -41.35749999999999 H117.0675 V-58.61124999999999 Q117.0675 -60.223749999999995 115.85812499999999 -61.35249999999999 Q114.64874999999999 -62.48124999999999 113.03625 -62.48124999999999 H79.81875000000001 V-41.35749999999999 Z M37.7325 -41.35749999999999 H74.98125 V-62.48124999999999 H41.6025 Q39.99 -62.48124999999999 38.861250000000005 -61.35249999999999 Q37.7325 -60.223749999999995 37.7325 -58.61124999999999 V-41.35749999999999 Z M24.34875 -14.428749999999994 H130.45125000000002 V-32.48874999999998 Q130.45125000000002 -34.10124999999999 129.32250000000002 -35.31062499999999 Q128.19375 -36.51999999999998 126.58125 -36.51999999999998 H28.21875 Q26.60625 -36.51999999999998 25.477500000000003 -35.31062499999999 Q24.34875 -34.10124999999999 24.34875 -32.48874999999998 V-14.428749999999994 Z M130.45125000000002 -14.428749999999994 H24.34875 Q24.34875 -14.428749999999994 25.477500000000003 -14.428749999999994 Q26.60625 -14.428749999999994 28.21875 -14.428749999999994 H126.58125 Q128.19375 -14.428749999999994 129.32250000000002 -14.428749999999994 Q130.45125000000002 -14.428749999999994 130.45125000000002 -14.428749999999994 Z"/></g><g id="Ultralight-L" transform="matrix(1 0 0 1 491.205 1556)"><path d="M29.186250000000005 1.5349999999999966 H27.090000000000003 L25.477500000000003 -11.364999999999995 H21.285 V-30.715000000000003 Q21.285 -34.42375 23.784375 -37.00375 Q26.28375 -39.583749999999995 29.992500000000003 -39.583749999999995 H34.5075 V-54.902499999999996 Q34.5075 -58.44999999999999 37.006875 -61.029999999999994 Q39.50625 -63.61 43.215 -63.61 H111.58500000000001 Q115.13250000000001 -63.61 117.7125 -61.029999999999994 Q120.29249999999999 -58.44999999999999 120.29249999999999 -54.902499999999996 V-39.583749999999995 H124.80750000000002 Q128.355 -39.583749999999995 130.935 -37.00375 Q133.515 -34.42375 133.515 -30.876249999999985 V-11.364999999999995 H129.32250000000002 L127.71000000000001 1.5349999999999966 H125.61375000000001 L124.00125000000001 -11.364999999999995 H30.798750000000002 L29.186250000000005 1.5349999999999966 Z M79.17375 -39.583749999999995 H116.74500000000002 V-54.902499999999996 Q116.74500000000002 -57.16 115.213125 -58.61124999999999 Q113.68125 -60.06249999999999 111.58500000000001 -60.06249999999999 H79.17375 V-39.583749999999995 Z M38.05500000000001 -39.583749999999995 H75.62625 V-60.06249999999999 H43.215 Q40.957499999999996 -60.06249999999999 39.50625 -58.61124999999999 Q38.05500000000001 -57.16 38.05500000000001 -54.902499999999996 V-39.583749999999995 Z M24.8325 -14.912499999999994 H129.9675 V-30.876249999999985 Q129.9675 -32.9725 128.51625 -34.50437499999998 Q127.065 -36.036249999999995 124.80750000000002 -36.036249999999995 H29.992500000000003 Q27.735 -36.036249999999995 26.28375 -34.50437499999998 Q24.8325 -32.9725 24.8325 -30.876249999999985 V-14.912499999999994 Z M129.9675 -14.912499999999994 H24.8325 Q24.8325 -14.912499999999994 26.28375 -14.912499999999994 Q27.735 -14.912499999999994 29.992500000000003 -14.912499999999994 H124.80750000000002 Q127.065 -14.912499999999994 128.51625 -14.912499999999994 Q129.9675 -14.912499999999994 129.9675 -14.912499999999994 Z"/></g><g id="Bold-M" transform="matrix(1 0 0 1 2281.8 1126)"><path d="M28.125 6.52000000000001 H16.875 L13.625 -5.97999999999999 H5.75 V-35.22999999999999 Q5.75 -39.85499999999999 8.56 -43.60499999999999 Q11.375 -47.35499999999999 15.75 -48.72999999999999 V-58.72999999999999 Q15.75 -65.22999999999999 20.375 -69.85499999999999 Q25.0 -74.47999999999999 31.5 -74.47999999999999 H88.5 Q95.0 -74.47999999999999 99.625 -69.85499999999999 Q104.25 -65.22999999999999 104.25 -58.72999999999999 V-48.72999999999999 Q108.625 -47.35499999999999 111.44 -43.60499999999999 Q114.25 -39.85499999999999 114.25 -35.22999999999999 V-5.97999999999999 H106.375 L103.125 6.52000000000001 H91.875 L88.625 -5.97999999999999 H31.375 L28.125 6.52000000000001 Z M65.0 -45.22999999999999 H88.5 V-58.72999999999999 Q88.5 -58.72999999999999 88.5 -58.72999999999999 Q88.5 -58.72999999999999 88.5 -58.72999999999999 H65.0 V-45.22999999999999 Z M31.5 -45.22999999999999 H55.0 V-58.72999999999999 H31.5 Q31.5 -58.72999999999999 31.5 -58.72999999999999 Q31.5 -58.72999999999999 31.5 -58.72999999999999 V-45.22999999999999 Z M21.5 -21.72999999999999 H98.5 V-35.22999999999999 Q98.5 -35.22999999999999 98.5 -35.22999999999999 Q98.5 -35.22999999999999 98.5 -35.22999999999999 H21.5 Q21.5 -35.22999999999999 21.5 -35.22999999999999 Q21.5 -35.22999999999999 21.5 -35.22999999999999 V-21.72999999999999 Z"/></g><g id="Semibold-M" transform="matrix(1 0 0 1 1985.97 1126)"><path d="M26.75 3.6450000000000102 H18.25 L15.0 -7.85499999999999 H7.625 V-35.22999999999999 Q7.625 -39.72999999999999 10.5 -43.10499999999999 Q13.375 -46.47999999999999 17.625 -47.22999999999999 V-59.35499999999999 Q17.625 -64.85499999999999 21.5 -68.72999999999999 Q25.375 -72.60499999999999 30.875 -72.60499999999999 H89.125 Q94.625 -72.60499999999999 98.5 -68.72999999999999 Q102.375 -64.85499999999999 102.375 -59.35499999999999 V-47.22999999999999 Q106.625 -46.47999999999999 109.5 -43.039999999999985 Q112.375 -39.60499999999999 112.375 -35.22999999999999 V-7.85499999999999 H105.0 L101.75 3.6450000000000102 H93.25 L90.0 -7.85499999999999 H30.0 L26.75 3.6450000000000102 Z M65.0 -45.22999999999999 H89.125 V-59.35499999999999 Q89.125 -59.35499999999999 89.125 -59.35499999999999 Q89.125 -59.35499999999999 89.125 -59.35499999999999 H65.0 V-45.22999999999999 Z M30.875 -45.22999999999999 H55.0 V-59.35499999999999 H30.875 Q30.875 -59.35499999999999 30.875 -59.35499999999999 Q30.875 -59.35499999999999 30.875 -59.35499999999999 V-45.22999999999999 Z M20.875 -21.10499999999999 H99.125 V-35.22999999999999 Q99.125 -35.22999999999999 99.125 -35.22999999999999 Q99.125 -35.22999999999999 99.125 -35.22999999999999 H20.875 Q20.875 -35.22999999999999 20.875 -35.22999999999999 Q20.875 -35.22999999999999 20.875 -35.22999999999999 V-21.10499999999999 Z"/></g><g id="Medium-M" transform="matrix(1 0 0 1 1689.91 1126)"><path d="M25.75 1.3950000000000102 H19.25 L16.0 -9.22999999999999 H9.0 V-35.35499999999999 Q9.0 -39.60499999999999 11.875 -42.66999999999999 Q14.75 -45.72999999999999 19.0 -46.10499999999999 V-59.85499999999999 Q19.0 -64.60499999999999 22.315 -67.91999999999999 Q25.625 -71.22999999999999 30.375 -71.22999999999999 H89.625 Q94.375 -71.22999999999999 97.69 -67.91999999999999 Q101.0 -64.60499999999999 101.0 -59.85499999999999 V-46.10499999999999 Q105.25 -45.72999999999999 108.125 -42.60499999999999 Q111.0 -39.47999999999999 111.0 -35.22999999999999 V-9.22999999999999 H104.0 L100.75 1.3950000000000102 H94.25 L91.0 -9.22999999999999 H29.0 L25.75 1.3950000000000102 Z M65.0 -45.22999999999999 H89.625 V-59.85499999999999 Q89.625 -59.85499999999999 89.625 -59.85499999999999 Q89.625 -59.85499999999999 89.625 -59.85499999999999 H65.0 V-45.22999999999999 Z M30.375 -45.22999999999999 H55.0 V-59.85499999999999 H30.375 Q30.375 -59.85499999999999 30.375 -59.85499999999999 Q30.375 -59.85499999999999 30.375 -59.85499999999999 V-45.22999999999999 Z M20.375 -20.60499999999999 H99.625 V-35.22999999999999 Q99.625 -35.22999999999999 99.625 -35.22999999999999 Q99.625 -35.22999999999999 99.625 -35.22999999999999 H20.375 Q20.375 -35.22999999999999 20.375 -35.22999999999999 Q20.375 -35.22999999999999 20.375 -35.22999999999999 V-20.60499999999999 Z"/></g><g id="Regular-M" transform="matrix(1 0 0 1 1394.06 1126)"><path d="M25.0 -0.22999999999998977 H20.0 L16.75 -10.22999999999999 H10.0 V-35.35499999999999 Q10.0 -39.47999999999999 12.940000000000001 -42.35499999999999 Q15.875 -45.22999999999999 20.0 -45.22999999999999 V-60.22999999999999 Q20.0 -64.35499999999999 22.94 -67.28999999999999 Q25.875 -70.22999999999999 30.0 -70.22999999999999 H90.0 Q94.125 -70.22999999999999 97.065 -67.28999999999999 Q100.0 -64.35499999999999 100.0 -60.22999999999999 V-45.22999999999999 Q104.125 -45.22999999999999 107.065 -42.29499999999999 Q110.0 -39.35499999999999 110.0 -35.22999999999999 V-10.22999999999999 H103.25 L100.0 -0.22999999999998977 H95.0 L91.75 -10.22999999999999 H28.25 L25.0 -0.22999999999998977 Z M65.0 -45.22999999999999 H90.0 V-60.22999999999999 Q90.0 -60.22999999999999 90.0 -60.22999999999999 Q90.0 -60.22999999999999 90.0 -60.22999999999999 H65.0 V-45.22999999999999 Z M30.0 -45.22999999999999 H55.0 V-60.22999999999999 H30.0 Q30.0 -60.22999999999999 30.0 -60.22999999999999 Q30.0 -60.22999999999999 30.0 -60.22999999999999 V-45.22999999999999 Z M20.0 -20.22999999999999 H100.0 V-35.22999999999999 Q100.0 -35.22999999999999 100.0 -35.22999999999999 Q100.0 -35.22999999999999 100.0 -35.22999999999999 H20.0 Q20.0 -35.22999999999999 20.0 -35.22999999999999 Q20.0 -35.22999999999999 20.0 -35.22999999999999 V-20.22999999999999 Z"/></g><g id="Light-M" transform="matrix(1 0 0 1 1098.18 1126)"><path d="M24.375 -2.7299999999999898 H20.625 L18.0 -12.72999999999999 H12.5 V-33.72999999999999 Q12.5 -37.47999999999999 15.125 -40.10499999999999 Q17.75 -42.72999999999999 21.5 -42.72999999999999 H22.5 V-56.22999999999999 Q22.5 -59.97999999999999 25.125 -62.60499999999999 Q27.75 -65.22999999999999 31.5 -65.22999999999999 H88.5 Q92.25 -65.22999999999999 94.875 -62.60499999999999 Q97.5 -59.97999999999999 97.5 -56.22999999999999 V-42.72999999999999 H98.5 Q102.25 -42.72999999999999 104.875 -40.10499999999999 Q107.5 -37.47999999999999 107.5 -33.72999999999999 V-12.72999999999999 H102.0 L99.375 -2.7299999999999898 H95.625 L93.0 -12.72999999999999 H27.0 L24.375 -2.7299999999999898 Z M63.75 -42.72999999999999 H90.0 V-56.22999999999999 Q90.0 -56.85499999999999 89.565 -57.28999999999999 Q89.125 -57.72999999999999 88.5 -57.72999999999999 H63.75 V-42.72999999999999 Z M30.0 -42.72999999999999 H56.25 V-57.72999999999999 H31.5 Q30.875 -57.72999999999999 30.44 -57.28999999999999 Q30.0 -56.85499999999999 30.0 -56.22999999999999 V-42.72999999999999 Z M20.0 -20.22999999999999 H100.0 V-33.72999999999999 Q100.0 -34.35499999999999 99.565 -34.79499999999999 Q99.125 -35.22999999999999 98.5 -35.22999999999999 H21.5 Q20.875 -35.22999999999999 20.44 -34.79499999999999 Q20.0 -34.35499999999999 20.0 -33.72999999999999 V-20.22999999999999 Z M100.0 -20.22999999999999 H20.0 Q20.0 -20.22999999999999 20.44 -20.22999999999999 Q20.875 -20.22999999999999 21.5 -20.22999999999999 H98.5 Q99.125 -20.22999999999999 99.565 -20.22999999999999 Q100.0 -20.22999999999999 100.0 -20.22999999999999 Z"/></g><g id="Thin-M" transform="matrix(1 0 0 1 802.565 1126)"><path d="M23.875 -5.22999999999999 H21.125 L19.25 -15.22999999999999 H15.0 V-32.22999999999999 Q15.0 -35.47999999999999 17.375 -37.85499999999999 Q19.75 -40.22999999999999 23.125 -40.22999999999999 H25.0 V-52.10499999999999 Q25.0 -55.47999999999999 27.375 -57.85499999999999 Q29.75 -60.22999999999999 33.125 -60.22999999999999 H86.875 Q90.25 -60.22999999999999 92.625 -57.85499999999999 Q95.0 -55.47999999999999 95.0 -52.10499999999999 V-40.22999999999999 H96.875 Q100.25 -40.22999999999999 102.625 -37.85499999999999 Q105.0 -35.47999999999999 105.0 -32.10499999999999 V-15.22999999999999 H100.75 L98.875 -5.22999999999999 H96.125 L94.25 -15.22999999999999 H25.75 L23.875 -5.22999999999999 Z M62.5 -40.22999999999999 H90.0 V-52.10499999999999 Q90.0 -53.47999999999999 89.125 -54.35499999999999 Q88.25 -55.22999999999999 86.875 -55.22999999999999 H62.5 V-40.22999999999999 Z M30.0 -40.22999999999999 H57.5 V-55.22999999999999 H33.125 Q31.75 -55.22999999999999 30.875 -54.35499999999999 Q30.0 -53.47999999999999 30.0 -52.10499999999999 V-40.22999999999999 Z M20.0 -20.22999999999999 H100.0 V-32.10499999999999 Q100.0 -33.47999999999999 99.125 -34.35499999999999 Q98.25 -35.22999999999999 96.875 -35.22999999999999 H23.125 Q21.75 -35.22999999999999 20.875 -34.35499999999999 Q20.0 -33.47999999999999 20.0 -32.10499999999999 V-20.22999999999999 Z"/></g><g id="Ultralight-M" transform="matrix(1 0 0 1 506.415 1126)"><path d="M23.5 -6.72999999999999 H21.5 L20.0 -16.72999999999999 H16.5 V-31.22999999999999 Q16.5 -34.35499999999999 18.685000000000002 -36.54499999999999 Q20.875 -38.72999999999999 24.0 -38.72999999999999 H26.5 V-49.72999999999999 Q26.5 -52.85499999999999 28.69 -55.04499999999999 Q30.875 -57.22999999999999 34.0 -57.22999999999999 H86.0 Q89.125 -57.22999999999999 91.31 -55.04499999999999 Q93.5 -52.85499999999999 93.5 -49.72999999999999 V-38.72999999999999 H96.0 Q99.125 -38.72999999999999 101.31500000000001 -36.54499999999999 Q103.5 -34.35499999999999 103.5 -31.22999999999999 V-16.72999999999999 H100.0 L98.5 -6.72999999999999 H96.5 L95.0 -16.72999999999999 H25.0 L23.5 -6.72999999999999 Z M61.75 -38.72999999999999 H90.0 V-49.72999999999999 Q90.0 -51.47999999999999 88.875 -52.60499999999999 Q87.75 -53.72999999999999 86.0 -53.72999999999999 H61.75 V-38.72999999999999 Z M30.0 -38.72999999999999 H58.25 V-53.72999999999999 H34.0 Q32.25 -53.72999999999999 31.125 -52.60499999999999 Q30.0 -51.47999999999999 30.0 -49.72999999999999 V-38.72999999999999 Z M20.0 -20.22999999999999 H100.0 V-31.22999999999999 Q100.0 -32.97999999999999 98.875 -34.10499999999999 Q97.75 -35.22999999999999 96.0 -35.22999999999999 H24.0 Q22.25 -35.22999999999999 21.125 -34.10499999999999 Q20.0 -32.97999999999999 20.0 -31.22999999999999 V-20.22999999999999 Z M100.0 -20.22999999999999 H20.0 Q20.0 -20.22999999999999 21.125 -20.22999999999999 Q22.25 -20.22999999999999 24.0 -20.22999999999999 H96.0 Q97.75 -20.22999999999999 98.875 -20.22999999999999 Q100.0 -20.22999999999999 100.0 -20.22999999999999 Z"/></g><g id="Bold-S" transform="matrix(1 0 0 1 2294.23 696)"><path d="M22.585914 -6.234249999999989 H15.286086000000001 L11.735586 -17.676327999999998 H6.116328 V-39.86458599999999 Q6.116328 -43.220991999999995 8.085672 -45.98091399999999 Q10.05975 -48.740835999999994 13.217327999999998 -49.824921999999994 V-55.05599199999999 Q13.217327999999998 -59.98408599999999 16.715754 -63.487246 Q20.218913999999998 -66.985672 25.147008 -66.985672 H69.53299200000001 Q74.461086 -66.985672 77.964246 -63.487246 Q81.462672 -59.98408599999999 81.462672 -55.05599199999999 V-49.824921999999994 Q84.62025 -48.740835999999994 86.594328 -46.02825399999999 Q88.563672 -43.31567199999999 88.563672 -39.96399999999999 V-17.676327999999998 H82.94441400000001 L79.39391400000001 -6.234249999999989 H72.09408599999999 L68.54358599999999 -17.676327999999998 H26.136414 L22.585914 -6.234249999999989 Z M50.8905 -47.06499999999999 H69.8265 V-55.34949999999999 Q69.8265 -55.34949999999999 69.8265 -55.34949999999999 Q69.8265 -55.34949999999999 69.8265 -55.34949999999999 H50.8905 V-47.06499999999999 Z M24.8535 -47.06499999999999 H43.7895 V-55.34949999999999 H24.8535 Q24.8535 -55.34949999999999 24.8535 -55.34949999999999 Q24.8535 -55.34949999999999 24.8535 -55.34949999999999 V-47.06499999999999 Z M17.7525 -29.312499999999993 H76.9275 V-39.96399999999999 Q76.9275 -39.96399999999999 76.9275 -39.96399999999999 Q76.9275 -39.96399999999999 76.9275 -39.96399999999999 H17.7525 Q17.7525 -39.96399999999999 17.7525 -39.96399999999999 Q17.7525 -39.96399999999999 17.7525 -39.96399999999999 V-29.312499999999993 Z"/></g><g id="Semibold-S" transform="matrix(1 0 0 1 1998.1 696)"><path d="M21.501828 -8.501835999999983 H16.370172 L12.819672 -19.15333599999999 H7.593336000000001 V-39.86458599999999 Q7.593336000000001 -43.12157799999999 9.614754000000001 -45.583257999999994 Q11.636172 -48.049671999999994 14.694336 -48.64142199999999 V-55.54832799999999 Q14.694336 -59.69057799999999 17.605746 -62.59725399999999 Q20.512422 -65.508664 24.654672 -65.508664 H70.025328 Q74.167578 -65.508664 77.074254 -62.59725399999999 Q79.985664 -59.69057799999999 79.985664 -55.54832799999999 V-48.64142199999999 Q83.043828 -48.049671999999994 85.065246 -45.583257999999994 Q87.086664 -43.12157799999999 87.086664 -39.96399999999999 V-19.15333599999999 H81.86032800000001 L78.30982800000001 -8.501835999999983 H73.178172 L69.627672 -19.15333599999999 H25.052328 L21.501828 -8.501835999999983 Z M50.8905 -47.06499999999999 H70.31883599999999 V-55.841835999999994 Q70.31883599999999 -55.841835999999994 70.31883599999999 -55.841835999999994 Q70.31883599999999 -55.841835999999994 70.31883599999999 -55.841835999999994 H50.8905 V-47.06499999999999 Z M24.361164 -47.06499999999999 H43.7895 V-55.841835999999994 H24.361164 Q24.361164 -55.841835999999994 24.361164 -55.841835999999994 Q24.361164 -55.841835999999994 24.361164 -55.841835999999994 V-47.06499999999999 Z M17.260164 -28.820164 H77.41983599999999 V-39.96399999999999 Q77.41983599999999 -39.96399999999999 77.41983599999999 -39.96399999999999 Q77.41983599999999 -39.96399999999999 77.41983599999999 -39.96399999999999 H17.260164 Q17.260164 -39.96399999999999 17.260164 -39.96399999999999 Q17.260164 -39.96399999999999 17.260164 -39.96399999999999 V-28.820164 Z"/></g><g id="Medium-S" transform="matrix(1 0 0 1 1701.85 696)"><path d="M20.71125 -10.277085999999983 H17.16075 L13.61025 -20.237421999999995 H8.677422 V-39.96399999999999 Q8.677422 -43.022164 10.750914 -45.24240999999999 Q12.819672 -47.457921999999996 15.778422 -47.75616399999999 V-55.94125 Q15.778422 -59.491749999999996 18.244836 -61.958164 Q20.71125 -64.424578 24.26175 -64.424578 H70.41825 Q73.96875 -64.424578 76.435164 -61.958164 Q78.901578 -59.491749999999996 78.901578 -55.94125 V-47.75616399999999 Q81.955008 -47.457921999999996 83.98115999999999 -45.24240999999999 Q86.00257800000001 -43.022164 86.00257800000001 -39.96399999999999 V-20.237421999999995 H81.06975 L77.51925 -10.277085999999983 H73.96875 L70.41825 -20.237421999999995 H24.26175 L20.71125 -10.277085999999983 Z M50.8905 -47.06499999999999 H70.716492 V-56.23949199999999 Q70.716492 -56.23949199999999 70.716492 -56.23949199999999 Q70.716492 -56.23949199999999 70.716492 -56.23949199999999 H50.8905 V-47.06499999999999 Z M23.963508 -47.06499999999999 H43.7895 V-56.23949199999999 H23.963508 Q23.963508 -56.23949199999999 23.963508 -56.23949199999999 Q23.963508 -56.23949199999999 23.963508 -56.23949199999999 V-47.06499999999999 Z M16.862508 -28.422507999999993 H77.81749199999999 V-39.96399999999999 Q77.81749199999999 -39.96399999999999 77.81749199999999 -39.96399999999999 Q77.81749199999999 -39.96399999999999 77.81749199999999 -39.96399999999999 H16.862508 Q16.862508 -39.96399999999999 16.862508 -39.96399999999999 Q16.862508 -39.96399999999999 16.862508 -39.96399999999999 V-28.422507999999993 Z"/></g><g id="Regular-S" transform="matrix(1 0 0 1 1405.73 696)"><path d="M20.1195 -11.559999999999988 H17.7525 L14.202 -21.02799999999999 H9.468 V-39.96399999999999 Q9.468 -42.92274999999999 11.541492000000002 -44.991507999999996 Q13.61025 -47.06499999999999 16.569 -47.06499999999999 V-56.23949199999999 Q16.569 -59.29292199999999 18.737172 -61.46582799999999 Q20.910078 -63.63399999999999 23.963508 -63.63399999999999 H70.716492 Q73.769922 -63.63399999999999 75.942828 -61.46582799999999 Q78.111 -59.29292199999999 78.111 -56.23949199999999 V-47.06499999999999 Q81.06975 -47.06499999999999 83.138508 -44.991507999999996 Q85.212 -42.92274999999999 85.212 -39.96399999999999 V-21.02799999999999 H80.478 L76.9275 -11.559999999999988 H74.5605 L71.01 -21.02799999999999 H23.67 L20.1195 -11.559999999999988 Z M50.8905 -47.06499999999999 H71.01 V-56.532999999999994 Q71.01 -56.532999999999994 71.01 -56.532999999999994 Q71.01 -56.532999999999994 71.01 -56.532999999999994 H50.8905 V-47.06499999999999 Z M23.67 -47.06499999999999 H43.7895 V-56.532999999999994 H23.67 Q23.67 -56.532999999999994 23.67 -56.532999999999994 Q23.67 -56.532999999999994 23.67 -56.532999999999994 V-47.06499999999999 Z M16.569 -28.12899999999999 H78.111 V-39.96399999999999 Q78.111 -39.96399999999999 78.111 -39.96399999999999 Q78.111 -39.96399999999999 78.111 -39.96399999999999 H16.569 Q16.569 -39.96399999999999 16.569 -39.96399999999999 Q16.569 -39.96399999999999 16.569 -39.96399999999999 V-28.12899999999999 Z"/></g><g id="Light-S" transform="matrix(1 0 0 1 1109.75 696)"><path d="M19.627164 -13.534077999999994 H18.244836 L15.186672000000002 -23.00207799999999 H11.442077999999999 V-38.681085999999986 Q11.442077999999999 -41.34632799999999 13.312007999999999 -43.220991999999995 Q15.186672000000002 -45.09092199999999 17.7525 -45.09092199999999 H18.543077999999998 V-53.081914 Q18.543077999999998 -55.841835999999994 20.465082000000002 -57.76383999999999 Q22.387086 -59.69057799999999 25.147008 -59.69057799999999 H69.53299200000001 Q72.29291400000001 -59.69057799999999 74.214918 -57.76383999999999 Q76.136922 -55.841835999999994 76.136922 -53.081914 V-45.09092199999999 H76.9275 Q79.588008 -45.09092199999999 81.415332 -43.220991999999995 Q83.237922 -41.34632799999999 83.237922 -38.780499999999996 V-23.00207799999999 H79.493328 L76.435164 -13.534077999999994 H75.052836 L71.994672 -23.00207799999999 H22.685328 L19.627164 -13.534077999999994 Z M49.905828 -45.09092199999999 H71.01 V-53.37542199999999 Q71.01 -53.872491999999994 70.664418 -54.21333999999999 Q70.31883599999999 -54.558921999999995 69.8265 -54.558921999999995 H49.905828 V-45.09092199999999 Z M23.67 -45.09092199999999 H44.774172 V-54.558921999999995 H24.8535 Q24.361164 -54.558921999999995 24.015582000000002 -54.21333999999999 Q23.67 -53.872491999999994 23.67 -53.37542199999999 V-45.09092199999999 Z M16.569 -28.12899999999999 H78.111 V-38.780499999999996 Q78.111 -39.27283599999999 77.765418 -39.61841799999999 Q77.41983599999999 -39.96399999999999 76.9275 -39.96399999999999 H17.7525 Q17.260164 -39.96399999999999 16.914582 -39.61841799999999 Q16.569 -39.27283599999999 16.569 -38.780499999999996 V-28.12899999999999 Z"/></g><g id="Thin-S" transform="matrix(1 0 0 1 814.015 696)"><path d="M19.229508000000003 -15.503422 H18.642492 L16.176078 -24.971421999999997 H13.411422 V-37.49758599999999 Q13.411422 -39.86458599999999 15.039918 -41.493081999999994 Q16.668414 -43.12157799999999 19.035414 -43.12157799999999 H20.512422 V-49.824921999999994 Q20.512422 -52.291335999999994 22.240332000000002 -54.019245999999995 Q23.963508 -55.74242199999999 26.429922 -55.74242199999999 H68.250078 Q70.716492 -55.74242199999999 72.439668 -54.019245999999995 Q74.167578 -52.291335999999994 74.167578 -49.824921999999994 V-43.12157799999999 H75.64458599999999 Q78.011586 -43.12157799999999 79.640082 -41.493081999999994 Q81.268578 -39.86458599999999 81.268578 -37.49758599999999 V-24.971421999999997 H78.50392199999999 L76.037508 -15.503422 H75.450492 L72.984078 -24.971421999999997 H21.695922 L19.229508000000003 -15.503422 Z M48.916422 -43.12157799999999 H71.01 V-50.123163999999996 Q71.01 -51.207249999999995 70.31883599999999 -51.89841399999999 Q69.627672 -52.58957799999999 68.54358599999999 -52.58957799999999 H48.916422 V-43.12157799999999 Z M23.67 -43.12157799999999 H45.763578 V-52.58957799999999 H26.136414 Q25.052328 -52.58957799999999 24.361164 -51.89841399999999 Q23.67 -51.207249999999995 23.67 -50.123163999999996 V-43.12157799999999 Z M16.569 -28.12899999999999 H78.111 V-37.49758599999999 Q78.111 -38.581672 77.41983599999999 -39.27283599999999 Q76.72867199999999 -39.96399999999999 75.64458599999999 -39.96399999999999 H19.035414 Q17.951328 -39.96399999999999 17.260164 -39.27283599999999 Q16.569 -38.581672 16.569 -37.49758599999999 V-28.12899999999999 Z M78.111 -28.12899999999999 H16.569 Q16.569 -28.12899999999999 17.260164 -28.12899999999999 Q17.951328 -28.12899999999999 19.035414 -28.12899999999999 H75.64458599999999 Q76.72867199999999 -28.12899999999999 77.41983599999999 -28.12899999999999 Q78.111 -28.12899999999999 78.111 -28.12899999999999 Z"/></g><g id="Ultralight-S" transform="matrix(1 0 0 1 517.792 696)"><path d="M18.936 -16.686921999999996  16.767827999999998 -26.154921999999992 H14.594922 V-36.70700799999999 Q14.594922 -38.879914 16.076664 -40.40899599999999 Q17.553672000000002 -41.93807799999999 19.726578 -41.93807799999999 H21.695922 V-47.95499199999999 Q21.695922 -50.22257799999999 23.277078 -51.79899999999999 Q24.8535 -53.37542199999999 27.121086000000002 -53.37542199999999 H67.558914 Q69.8265 -53.37542199999999 71.402922 -51.79899999999999 Q72.984078 -50.22257799999999 72.984078 -47.95499199999999 V-41.93807799999999 H74.953422 Q77.126328 -41.93807799999999 78.603336 -40.456335999999986 Q80.08507800000001 -38.979327999999995 80.08507800000001 -36.80642199999999 V-26.154921999999992 H77.912172 L75.744 -16.686921999999996 L73.575828 -26.154921999999992 H21.104172000000002 L18.936 -16.686921999999996 Z M48.324672 -41.93807799999999 H71.01 V-48.24849999999999 Q71.01 -49.630827999999994 70.120008 -50.516085999999994 Q69.23475 -51.406077999999994 67.852422 -51.406077999999994 H48.324672 V-41.93807799999999 Z M23.67 -41.93807799999999 H46.355328 V-51.406077999999994 H26.827578 Q25.44525 -51.406077999999994 24.559991999999998 -50.516085999999994 Q23.67 -49.630827999999994 23.67 -48.24849999999999 V-41.93807799999999 Z M16.569 -28.12899999999999 H78.111 V-36.80642199999999 Q78.111 -38.18874999999999 77.22100800000001 -39.07400799999999 Q76.33575 -39.96399999999999 74.953422 -39.96399999999999 H19.726578 Q18.34425 -39.96399999999999 17.458992000000002 -39.07400799999999 Q16.569 -38.18874999999999 16.569 -36.80642199999999 V-28.12899999999999 Z M78.111 -28.12899999999999 H16.569 Q16.569 -28.12899999999999 17.458992000000002 -28.12899999999999 Q18.34425 -28.12899999999999 19.726578 -28.12899999999999 H74.953422 Q76.33575 -28.12899999999999 77.22100800000001 -28.12899999999999 Q78.111 -28.12899999999999 78.111 -28.12899999999999 Z"/></g></g></svg>