<svg xmlns="http://www.w3.org/2000/svg" version="1.1" width="3300" height="2000"><g id="Notes"><style>
    text {
      font-family: monospace;
      text-anchor: middle;
    }
    text.emphasis {
      font-weight:bold;
    }
    text.lanchor {
      text-anchor: start;
    }
  </style><rect height="2200" id="artboard" fill="white" width="3300" x="0" y="0"/><line id="" style="fill:none;stroke:black;stroke-width:0.5;" x1="263" x2="3036" y1="292" y2="292"/><text class="lanchor emphasis" transform="matrix(1 0 0 1 263 322)">Weight/Scale Variations</text><text transform="matrix(1 0 0 1 559.711 322)">Ultralight</text><text transform="matrix(1 0 0 1 856.422 322)">Thin</text><text transform="matrix(1 0 0 1 1153.13 322)">Light</text><text transform="matrix(1 0 0 1 1449.84 322)">Regular</text><text transform="matrix(1 0 0 1 1746.56 322)">Medium</text><text transform="matrix(1 0 0 1 2043.27 322)">Semibold</text><text transform="matrix(1 0 0 1 2339.98 322)">Bold</text><text transform="matrix(1 0 0 1 2636.69 322)">Heavy</text><text transform="matrix(1 0 0 1 2933.4 322)">Black</text><text id="template-version" style="text-anchor: end;" transform="matrix(1 0 0 1 3036 1933)">Template v.1.0</text><text class="lanchor" transform="matrix(1 0 0 1 263 726)">Small</text><text class="lanchor" transform="matrix(1 0 0 1 263 1156)">Medium</text><text class="lanchor" transform="matrix(1 0 0 1 263 1586)">Large</text></g><g id="Guides"><g id="H-reference" style="fill:#27AAE1;stroke:none;" transform="matrix(1 0 0 1 339 696)"><path d="M 54.9316 0 L 57.666 0 L 30.5664 -70.459 L 28.0762 -70.459 L 0.976562 0 L 3.66211 0 L 12.9395 -24.4629 L 45.7031 -24.4629 Z M 29.1992 -67.0898 L 29.4434 -67.0898 L 44.8242 -26.709 L 13.8184 -26.709 Z"/></g><line id="Baseline-S" style="fill:none;stroke:#27AAE1;opacity:1;stroke-width:0.577;" x1="263" x2="3036" y1="696" y2="696"/><line id="Capline-S" style="fill:none;stroke:#27AAE1;opacity:1;stroke-width:0.577;" x1="263" x2="3036" y1="625.541" y2="625.541"/><g id="H-reference" style="fill:#27AAE1;stroke:none;" transform="matrix(1 0 0 1 339 1126)"><path d="M 54.9316 0 L 57.666 0 L 30.5664 -70.459 L 28.0762 -70.459 L 0.976562 0 L 3.66211 0 L 12.9395 -24.4629 L 45.7031 -24.4629 Z M 29.1992 -67.0898 L 29.4434 -67.0898 L 44.8242 -26.709 L 13.8184 -26.709 Z"/></g><line id="Baseline-M" style="fill:none;stroke:#27AAE1;opacity:1;stroke-width:0.577;" x1="263" x2="3036" y1="1126" y2="1126"/><line id="Capline-M" style="fill:none;stroke:#27AAE1;opacity:1;stroke-width:0.577;" x1="263" x2="3036" y1="1055.54" y2="1055.54"/><g id="H-reference" style="fill:#27AAE1;stroke:none;" transform="matrix(1 0 0 1 339 1556)"><path d="M 54.9316 0 L 57.666 0 L 30.5664 -70.459 L 28.0762 -70.459 L 0.976562 0 L 3.66211 0 L 12.9395 -24.4629 L 45.7031 -24.4629 Z M 29.1992 -67.0898 L 29.4434 -67.0898 L 44.8242 -26.709 L 13.8184 -26.709 Z"/></g><line id="Baseline-L" style="fill:none;stroke:#27AAE1;opacity:1;stroke-width:0.577;" x1="263" x2="3036" y1="1556" y2="1556"/><line id="Capline-L" style="fill:none;stroke:#27AAE1;opacity:1;stroke-width:0.577;" x1="263" x2="3036" y1="1485.54" y2="1485.54"/><rect height="119.336" id="left-margin" style="fill:darkred;stroke:none;opacity:0.4;" width="12.4512" x="1394.06" y="1030.79"/><rect height="119.336" id="right-margin" style="fill:darkgreen;stroke:none;opacity:0.4;" width="12.4512" x="1502.5112" y="1030.79"/><rect x="1406.5112" y="1045" width="96" height="96" fill="none" stroke="blue" stroke-dasharray="5"/><rect x="1394.06" y="1030.79" width="120.9024" height="119.336" fill="none" stroke="blue"/></g><g id="Symbols"><g id="Bold-L" transform="matrix(1 0 0 1 2266 1556)"><path d="M107.87625000000001 34.752500000000026 Q104.00625000000001 34.752500000000026 101.265 31.93062500000002 Q98.52375 29.108750000000015 98.52375 25.23875000000001 Q98.52375 21.53 101.345625 18.708125000000024 Q104.16749999999999 15.886250000000018 108.03750000000001 15.886250000000018 Q111.74625 15.886250000000018 114.568125 18.708125000000024 Q117.39 21.53 117.39 25.400000000000006 Q117.39 29.27000000000001 114.568125 32.01125000000002 Q111.74625 34.752500000000026 107.87625000000001 34.752500000000026 Z M38.7 34.752500000000026 Q34.66875 34.752500000000026 32.008125 31.93062500000002 Q29.3475 29.108750000000015 29.3475 25.23875000000001 Q29.3475 21.53 32.008125 18.708125000000024 Q34.66875 15.886250000000018 38.7 15.886250000000018 Q42.73125 15.886250000000018 45.4725 18.708125000000024 Q48.21375 21.53 48.21375 25.23875000000001 Q48.21375 29.27000000000001 45.391875 32.01125000000002 Q42.57 34.752500000000026 38.7 34.752500000000026 Z M42.2475 6.372500000000002 Q36.60375 6.372500000000002 34.185 1.2124999999999915 Q31.76625 -3.9474999999999767 35.475 -8.301249999999982 L107.3925 -93.11874999999999 Q110.29500000000002 -96.66624999999999 115.13250000000001 -99.16562499999999 Q119.97000000000001 -101.66499999999999 124.96875 -101.66499999999999 Q134.96625 -101.66499999999999 142.06125 -94.489375 Q149.15625 -87.31375 149.15625 -77.31625 V-70.70499999999998 H134.32125 V-77.31625 Q134.32125 -81.3475 131.499375 -84.08875 Q128.6775 -86.83 124.96875 -86.83 Q122.8725 -86.83 121.09875 -85.781875 Q119.325 -84.73374999999999 117.7125 -82.47625 L112.875 -76.8325 V-8.301249999999982 Q112.875 -2.3349999999999795 108.36000000000001 2.018749999999997 Q103.84500000000001 6.372500000000002 98.03999999999999 6.372500000000002 H42.2475 Z M67.56375 -52.80624999999999  29.508750000000003 -90.69999999999999 Q37.0875 -96.505 46.7625 -99.64937499999999 Q56.4375 -102.79374999999999 66.59625 -102.79374999999999 Q75.30375000000001 -102.79374999999999 84.17250000000001 -100.375 Q93.04125 -97.95625 101.5875 -92.9575 L67.56375 -52.80624999999999 Z"/></g><g id="Semibold-L" transform="matrix(1 0 0 1 1970.27 1556)"><path d="M105.61875 34.26875000000001 Q101.42625 34.26875000000001 98.52375 31.28562500000001 Q95.62125 28.30250000000001 95.62125 24.110000000000014 Q95.62125 20.078750000000014 98.604375 17.17625000000001 Q101.5875 14.273750000000007 105.77999999999999 14.273750000000007 Q109.81124999999999 14.273750000000007 112.71375000000002 17.17625000000001 Q115.61625000000001 20.078750000000014 115.61625000000001 24.27125000000001 Q115.61625000000001 28.30250000000001 112.63312499999999 31.28562500000001 Q109.65 34.26875000000001 105.61875 34.26875000000001 Z M38.7 34.26875000000001 Q34.346250000000005 34.26875000000001 31.605000000000004 31.28562500000001 Q28.86375 28.30250000000001 28.86375 24.110000000000014 Q28.86375 20.078750000000014 31.685624999999998 17.17625000000001 Q34.5075 14.273750000000007 38.7 14.273750000000007 Q43.05375 14.273750000000007 45.875625 17.17625000000001 Q48.6975 20.078750000000014 48.6975 24.110000000000014 Q48.6975 28.30250000000001 45.795 31.28562500000001 Q42.892500000000005 34.26875000000001 38.7 34.26875000000001 Z M43.5375 4.115000000000023 Q38.21625 4.115000000000023 36.03937500000001 -0.6418749999999847 Q33.862500000000004 -5.398749999999993 37.24875 -9.429999999999993 L105.77999999999999 -90.21625 Q108.68250000000002 -93.60249999999999 113.35875 -96.02125 Q118.03500000000001 -98.44 122.8725 -98.44 Q132.70875 -98.44 139.561875 -91.58687499999999 Q146.415 -84.73374999999999 146.415 -74.8975 V-68.93124999999999 H133.03125 V-74.8975 Q133.03125 -79.09 130.048125 -82.073125 Q127.065 -85.05624999999999 123.03375 -85.05624999999999 Q120.615 -85.05624999999999 118.76062500000002 -83.9275 Q116.90625 -82.79875 115.13250000000001 -80.38 L110.61749999999999 -75.05875 V-9.268749999999997 Q110.61749999999999 -3.7862499999999955 106.505625 0.16437500000000682 Q102.39375 4.115000000000023 97.0725 4.115000000000023 H43.5375 Z M67.24125000000001 -51.677499999999995  30.96 -87.95875 Q37.7325 -93.28 47.085 -96.263125 Q56.4375 -99.24624999999999 66.1125 -99.24624999999999 Q74.4975 -99.24624999999999 83.04375 -96.908125 Q91.59 -94.57 99.6525 -89.89375 L67.24125000000001 -51.677499999999995 Z"/></g><g id="Medium-L" transform="matrix(1 0 0 1 1674.31 1556)"><path d="M104.00625000000001 33.785 Q99.6525 33.785 96.58875 30.721250000000026 Q93.525 27.6575 93.525 23.303750000000008 Q93.525 18.94999999999999 96.58875 15.966875000000016 Q99.6525 12.983750000000015 104.00625000000001 12.983750000000015 Q108.19874999999999 12.983750000000015 111.2625 16.047500000000014 Q114.32625000000002 19.111250000000013 114.32625000000002 23.303750000000008 Q114.32625000000002 27.6575 111.2625 30.721250000000026 Q108.19874999999999 33.785 104.00625000000001 33.785 Z M38.7 33.785 Q34.185 33.785 31.2825 30.721250000000026 Q28.380000000000003 27.6575 28.380000000000003 23.303750000000008 Q28.380000000000003 18.94999999999999 31.363125 15.966875000000016 Q34.346250000000005 12.983750000000015 38.7 12.983750000000015 Q43.215 12.983750000000015 46.198125 16.047500000000014 Q49.18125 19.111250000000013 49.18125 23.303750000000008 Q49.18125 27.6575 46.11750000000001 30.721250000000026 Q43.05375 33.785 38.7 33.785 Z M44.505 2.502500000000012 Q39.50625 2.502500000000012 37.490625 -2.012500000000003 Q35.475 -6.527500000000003 38.7 -10.397499999999994 L104.65125000000002 -87.95875 Q107.55375000000001 -91.345 112.06875000000001 -93.76374999999999 Q116.58375 -96.1825 121.42125 -96.1825 Q130.935 -96.1825 137.7075 -89.41 Q144.48 -82.63749999999999 144.48 -72.96249999999999 V-67.47999999999999 H132.06375 V-72.96249999999999 Q132.06375 -77.47749999999999 128.919375 -80.54124999999999 Q125.775 -83.60499999999999 121.58250000000001 -83.60499999999999 Q119.0025 -83.60499999999999 117.0675 -82.47625 Q115.13250000000001 -81.3475 113.35875 -78.92875 L108.84375 -73.76874999999998 V-10.074999999999989 Q108.84375 -4.753749999999982 105.135 -1.1256249999999852 Q101.42625 2.502500000000012 96.26625000000001 2.502500000000012 H44.505 Z M67.08 -51.03249999999999  32.08875 -86.02374999999999 Q38.21625 -90.69999999999999 47.4075 -93.60249999999999 Q56.59875 -96.505 65.78999999999999 -96.505 Q73.85249999999999 -96.505 82.2375 -94.2475 Q90.6225 -91.99 98.20125 -87.63624999999999 L67.08 -51.03249999999999 Z"/></g><g id="Regular-L" transform="matrix(1 0 0 1 1378.56 1556)"><path d="M102.71625 33.462500000000006 Q98.20125 33.462500000000006 95.056875 30.31812500000001 Q91.91250000000001 27.173750000000013 91.91250000000001 22.658750000000026 Q91.91250000000001 18.305000000000007 95.056875 15.16062500000001 Q98.20125 12.01625 102.71625 12.01625 Q107.07000000000001 12.01625 110.21437499999999 15.16062500000001 Q113.35875 18.305000000000007 113.35875 22.658750000000026 Q113.35875 27.173750000000013 110.21437499999999 30.31812500000001 Q107.07000000000001 33.462500000000006 102.71625 33.462500000000006 Z M38.7 33.462500000000006 Q34.185 33.462500000000006 31.121250000000003 30.31812500000001 Q28.057499999999997 27.173750000000013 28.057499999999997 22.658750000000026 Q28.057499999999997 18.305000000000007 31.121250000000003 15.16062500000001 Q34.185 12.01625 38.7 12.01625 Q43.215 12.01625 46.359375 15.16062500000001 Q49.503750000000004 18.305000000000007 49.503750000000004 22.658750000000026 Q49.503750000000004 27.173750000000013 46.359375 30.31812500000001 Q43.215 33.462500000000006 38.7 33.462500000000006 Z M45.31125 1.2124999999999915 Q40.47375 1.2124999999999915 38.53875 -3.0606249999999875 Q36.60375 -7.333749999999995 39.667500000000004 -11.04249999999999 L103.84500000000001 -86.34625 Q106.58624999999999 -89.73249999999999 111.10125000000001 -92.07062499999999 Q115.61625000000001 -94.40875 120.29249999999999 -94.40875 Q129.645 -94.40875 136.336875 -87.7975 Q143.02875 -81.18625 143.02875 -71.6725 V-66.51249999999999 H131.25750000000002 V-71.6725 Q131.25750000000002 -76.1875 128.0325 -79.4125 Q124.80750000000002 -82.63749999999999 120.45375000000001 -82.63749999999999 Q117.87375 -82.63749999999999 115.85812499999999 -81.428125 Q113.84249999999999 -80.21875 111.90750000000001 -77.79999999999998 L107.55375000000001 -72.80125 V-10.558750000000003 Q107.55375000000001 -5.559999999999988 104.08687499999999 -2.1737499999999983 Q100.62 1.2124999999999915 95.7825 1.2124999999999915 H45.31125 Z M66.91875 -50.38749999999999  32.894999999999996 -84.57249999999999 Q38.53875 -88.92625 47.56875 -91.74812499999999 Q56.59875 -94.57 65.4675 -94.57 Q73.36875 -94.57 81.5925 -92.3125 Q89.81625000000001 -90.05499999999999 97.0725 -85.8625 L66.91875 -50.38749999999999 Z"/></g><g id="Light-L" transform="matrix(1 0 0 1 1082.77 1556)"><path d="M99.00750000000001 28.141250000000014 Q94.97625000000001 28.141250000000014 92.07375 25.23875000000001 Q89.17125 22.336250000000007 89.17125 18.305000000000007 Q89.17125 14.273750000000007 92.07375 11.451875000000015 Q94.97625000000001 8.63000000000001 99.00750000000001 8.63000000000001 Q103.03875000000001 8.63000000000001 105.86062500000001 11.532500000000013 Q108.68250000000002 14.435000000000002 108.68250000000002 18.305000000000007 Q108.68250000000002 22.497500000000002 105.86062500000001 25.319375000000008 Q103.03875000000001 28.141250000000014 99.00750000000001 28.141250000000014 Z M41.76375 28.141250000000014 Q37.7325 28.141250000000014 34.910624999999996 25.23875000000001 Q32.08875 22.336250000000007 32.08875 18.305000000000007 Q32.08875 14.273750000000007 34.910624999999996 11.451875000000015 Q37.7325 8.63000000000001 41.76375 8.63000000000001 Q45.956250000000004 8.63000000000001 48.778125 11.532500000000013 Q51.6 14.435000000000002 51.6 18.305000000000007 Q51.6 22.497500000000002 48.6975 25.319375000000008 Q45.795 28.141250000000014 41.76375 28.141250000000014 Z M45.956250000000004 -1.2062499999999972 Q42.2475 -1.2062499999999972 40.715625 -4.592499999999987 Q39.18375 -7.978749999999977 41.6025 -10.881249999999994 L102.39375 -81.99249999999999 Q105.135 -85.37875 109.16625 -87.475 Q113.1975 -89.57124999999999 117.55125000000001 -89.57124999999999 Q125.13 -89.57124999999999 130.6125 -84.169375 Q136.095 -78.76749999999998 136.095 -70.86625 V-66.51249999999999 H126.74249999999999 V-70.86625 Q126.74249999999999 -74.73624999999998 124.00125000000001 -77.47749999999999 Q121.26 -80.21875 117.7125 -80.21875 Q115.13250000000001 -80.21875 112.955625 -79.00937499999999 Q110.77875 -77.79999999999998 109.005 -75.38125 L102.39375 -67.96375 V-12.654999999999987 Q102.39375 -7.8174999999999955 99.00750000000001 -4.511875000000003 Q95.62125 -1.2062499999999972 91.10625 -1.2062499999999972 H45.956250000000004 Z M67.72500000000001 -50.065  37.0875 -81.02499999999999 Q42.408750000000005 -84.895 50.551875 -87.475 Q58.695 -90.05499999999999 66.7575 -90.05499999999999 Q73.85249999999999 -90.05499999999999 81.189375 -88.12 Q88.52625 -86.185 95.29875 -82.63749999999999 L67.72500000000001 -50.065 Z"/></g><g id="Thin-L" transform="matrix(1 0 0 1 787.282 1556)"><path d="M95.29875 22.82000000000002 Q91.75125 22.82000000000002 89.17125 20.24000000000001 Q86.59125 17.659999999999997 86.59125 13.951250000000002 Q86.59125 10.403750000000002 89.17125 7.823750000000018 Q91.75125 5.243750000000006 95.46000000000001 5.243750000000006 Q99.00750000000001 5.243750000000006 101.50687500000001 7.823750000000018 Q104.00625000000001 10.403750000000002 104.00625000000001 13.951250000000002 Q104.00625000000001 17.659999999999997 101.50687500000001 20.24000000000001 Q99.00750000000001 22.82000000000002 95.29875 22.82000000000002 Z M44.8275 22.82000000000002 Q41.11875 22.82000000000002 38.7 20.24000000000001 Q36.28125 17.659999999999997 36.28125 13.951250000000002 Q36.28125 10.403750000000002 38.780625 7.823750000000018 Q41.28 5.243750000000006 44.988749999999996 5.243750000000006 Q48.6975 5.243750000000006 51.196875 7.823750000000018 Q53.69625 10.403750000000002 53.69625 13.951250000000002 Q53.69625 17.659999999999997 51.11625 20.24000000000001 Q48.53625 22.82000000000002 44.8275 22.82000000000002 Z M46.60125 -3.7862499999999955 Q44.02125 -3.7862499999999955 42.892500000000005 -6.204999999999998 Q41.76375 -8.623749999999987 43.5375 -10.719999999999985 L100.94250000000001 -77.79999999999998 Q103.52250000000001 -81.02499999999999 107.150625 -82.879375 Q110.77875 -84.73374999999999 114.64874999999999 -84.73374999999999 Q120.77625000000002 -84.73374999999999 125.049375 -80.54124999999999 Q129.32250000000002 -76.34875 129.32250000000002 -70.06 V-66.51249999999999 H122.22749999999999 V-70.22125 Q122.22749999999999 -73.285 119.97000000000001 -75.46187499999999 Q117.7125 -77.63874999999999 114.97125 -77.63874999999999 Q112.22999999999999 -77.63874999999999 109.97250000000001 -76.50999999999999 Q107.715 -75.38125 105.94125000000001 -73.12375 L97.395 -62.964999999999996 V-14.751249999999985 Q97.395 -10.236249999999998 94.089375 -7.01124999999999 Q90.78375 -3.7862499999999955 86.43 -3.7862499999999955 H46.60125 Z M68.53125 -49.903749999999995  41.28 -77.47749999999999 Q46.27875 -81.02499999999999 53.535000000000004 -83.201875 Q60.791250000000005 -85.37875 68.20875 -85.37875 Q74.33625 -85.37875 80.866875 -83.846875 Q87.39750000000001 -82.315 93.525 -79.4125 L68.53125 -49.903749999999995 Z"/></g><g id="Ultralight-L" transform="matrix(1 0 0 1 491.205 1556)"><path d="M93.2025 19.595 Q89.655 19.595 87.316875 17.17625000000001 Q84.97875 14.757500000000007 84.97875 11.371250000000018 Q84.97875 7.984999999999999 87.39750000000001 5.646874999999994 Q89.81625000000001 3.3087500000000176 93.2025 3.3087500000000176 Q96.58875 3.3087500000000176 98.92687500000001 5.7275000000000205 Q101.265 8.146250000000023 101.265 11.371250000000018 Q101.265 14.918750000000003 98.84625 17.256875000000008 Q96.4275 19.595 93.2025 19.595 Z M46.60125 19.595 Q43.37625 19.595 41.038125 17.17625000000001 Q38.7 14.757500000000007 38.7 11.371250000000018 Q38.7 7.984999999999999 41.038125 5.646874999999994 Q43.37625 3.3087500000000176 46.7625 3.3087500000000176 Q50.31 3.3087500000000176 52.648125 5.7275000000000205 Q54.986250000000005 8.146250000000023 54.986250000000005 11.371250000000018 Q54.986250000000005 14.918750000000003 52.648125 17.256875000000008 Q50.31 19.595 46.60125 19.595 Z M47.085 -5.237499999999997 Q44.988749999999996 -5.237499999999997 44.1825 -7.0918749999999875 Q43.37625 -8.946249999999992 44.66625 -10.558750000000003 L99.97500000000001 -75.22 Q102.555 -78.445 105.94125000000001 -80.138125 Q109.3275 -81.83125 113.03625 -81.83125 Q118.03500000000001 -81.83125 121.58250000000001 -78.364375 Q125.13 -74.8975 125.13 -69.73749999999998 V-66.51249999999999 H119.48625 V-69.73749999999998 Q119.48625 -72.3175 117.55125000000001 -74.2525 Q115.61625000000001 -76.1875 113.1975 -76.1875 Q110.61749999999999 -76.1875 108.27937500000002 -75.05875 Q105.94125000000001 -73.92999999999999 104.16749999999999 -71.6725 L94.33125 -60.06249999999999 V-16.04124999999999 Q94.33125 -11.52624999999999 91.10625 -8.38187499999998 Q87.88125000000001 -5.237499999999997 83.5275 -5.237499999999997 H47.085 Z M69.015 -49.74249999999999  43.698750000000004 -75.38125 Q48.6975 -78.60624999999999 55.389375 -80.62187499999999 Q62.081250000000004 -82.63749999999999 69.015 -82.63749999999999 Q74.65875 -82.63749999999999 80.625 -81.3475 Q86.59125 -80.0575 92.5575 -77.47749999999999 L69.015 -49.74249999999999 Z"/></g><g id="Bold-M" transform="matrix(1 0 0 1 2281.8 1126)"><path d="M87.375 24.02000000000001 Q83.0 24.02000000000001 79.875 20.89500000000001 Q76.75 17.77000000000001 76.75 13.39500000000001 Q76.75 9.02000000000001 79.875 5.89500000000001 Q83.0 2.7700000000000102 87.375 2.7700000000000102 Q91.75 2.7700000000000102 94.875 5.89500000000001 Q98.0 9.02000000000001 98.0 13.39500000000001 Q98.0 17.77000000000001 94.875 20.89500000000001 Q91.75 24.02000000000001 87.375 24.02000000000001 Z M30.0 24.02000000000001 Q25.625 24.02000000000001 22.5 20.89500000000001 Q19.375 17.77000000000001 19.375 13.39500000000001 Q19.375 9.02000000000001 22.5 5.89500000000001 Q25.625 2.7700000000000102 30.0 2.7700000000000102 Q34.375 2.7700000000000102 37.5 5.89500000000001 Q40.625 9.02000000000001 40.625 13.39500000000001 Q40.625 17.77000000000001 37.5 20.89500000000001 Q34.375 24.02000000000001 30.0 24.02000000000001 Z M34.0 -2.8549999999999898 Q28.375 -2.8549999999999898 26.19 -7.85499999999999 Q24.0 -12.85499999999999 27.5 -16.85499999999999 L83.25 -82.47999999999999 Q86.125 -85.85499999999999 89.81 -87.72999999999999 Q93.5 -89.60499999999999 98.0 -89.60499999999999 Q106.5 -89.60499999999999 112.375 -83.72999999999999 Q118.25 -77.85499999999999 118.25 -69.35499999999999 V-62.60499999999999 H101.25 V-69.35499999999999 Q101.25 -70.85499999999999 100.375 -71.72999999999999 Q99.5 -72.60499999999999 98.125 -72.60499999999999 Q97.5 -72.60499999999999 97.125 -72.41999999999999 Q96.75 -72.22999999999999 96.375 -71.85499999999999 L92.375 -67.22999999999999 V-19.85499999999999 Q92.375 -12.85499999999999 87.375 -7.85499999999999 Q82.375 -2.8549999999999898 75.375 -2.8549999999999898 H34.0 Z M49.375 -48.85499999999999  17.25 -80.85499999999999 Q24.625 -86.72999999999999 33.315 -89.72999999999999 Q42.0 -92.72999999999999 50.875 -92.72999999999999 Q58.25 -92.72999999999999 65.5 -90.66999999999999 Q72.75 -88.60499999999999 79.625 -84.47999999999999 L49.375 -48.85499999999999 Z"/></g><g id="Semibold-M" transform="matrix(1 0 0 1 1985.97 1126)"><path d="M84.875 22.77000000000001 Q80.25 22.77000000000001 77.065 19.52000000000001 Q73.875 16.27000000000001 73.875 11.77000000000001 Q73.875 7.14500000000001 77.125 3.8950000000000102 Q80.375 0.6450000000000102 84.875 0.6450000000000102 Q89.5 0.6450000000000102 92.69 3.9550000000000125 Q95.875 7.27000000000001 95.875 11.77000000000001 Q95.875 16.39500000000001 92.625 19.580000000000013 Q89.375 22.77000000000001 84.875 22.77000000000001 Z M30.0 22.77000000000001 Q25.375 22.77000000000001 22.189999999999998 19.52000000000001 Q19.0 16.27000000000001 19.0 11.77000000000001 Q19.0 7.14500000000001 22.25 3.8950000000000102 Q25.5 0.6450000000000102 30.0 0.6450000000000102 Q34.625 0.6450000000000102 37.815 3.9550000000000125 Q41.0 7.27000000000001 41.0 11.77000000000001 Q41.0 16.39500000000001 37.75 19.580000000000013 Q34.5 22.77000000000001 30.0 22.77000000000001 Z M35.375 -5.35499999999999 Q30.25 -5.35499999999999 28.315 -9.85499999999999 Q26.375 -14.35499999999999 29.5 -17.97999999999999 L81.75 -79.35499999999999 Q84.5 -82.60499999999999 88.065 -84.41999999999999 Q91.625 -86.22999999999999 95.875 -86.22999999999999 Q104.0 -86.22999999999999 109.69 -80.60499999999999 Q115.375 -74.97999999999999 115.375 -66.85499999999999 V-60.85499999999999 H100.0 V-66.85499999999999 Q100.0 -68.60499999999999 98.875 -69.72999999999999 Q97.75 -70.85499999999999 96.125 -70.85499999999999 Q95.25 -70.85499999999999 94.69 -70.60499999999999 Q94.125 -70.35499999999999 93.625 -69.85499999999999 L89.875 -65.47999999999999 V-20.72999999999999 Q89.875 -14.35499999999999 85.375 -9.85499999999999 Q80.875 -5.35499999999999 74.5 -5.35499999999999 H35.375 Z M49.0 -47.85499999999999  19.0 -77.85499999999999 Q25.625 -83.10499999999999 33.875 -85.91999999999999 Q42.125 -88.72999999999999 50.375 -88.72999999999999 Q57.25 -88.72999999999999 64.19 -86.79499999999999 Q71.125 -84.85499999999999 77.375 -81.10499999999999 L49.0 -47.85499999999999 Z"/></g><g id="Medium-M" transform="matrix(1 0 0 1 1689.91 1126)"><path d="M83.0 21.89500000000001 Q78.25 21.89500000000001 74.94 18.585000000000022 Q71.625 15.27000000000001 71.625 10.52000000000001 Q71.625 5.89500000000001 74.94 2.5200000000000102 Q78.25 -0.8549999999999898 83.0 -0.8549999999999898 Q87.75 -0.8549999999999898 91.06 2.5200000000000102 Q94.375 5.89500000000001 94.375 10.52000000000001 Q94.375 15.27000000000001 91.06 18.585000000000022 Q87.75 21.89500000000001 83.0 21.89500000000001 Z M30.0 21.89500000000001 Q25.25 21.89500000000001 21.939999999999998 18.585000000000022 Q18.625 15.27000000000001 18.625 10.52000000000001 Q18.625 5.89500000000001 21.939999999999998 2.5200000000000102 Q25.25 -0.8549999999999898 30.0 -0.8549999999999898 Q34.75 -0.8549999999999898 38.065000000000005 2.5200000000000102 Q41.375 5.89500000000001 41.375 10.52000000000001 Q41.375 15.27000000000001 38.065000000000005 18.585000000000022 Q34.75 21.89500000000001 30.0 21.89500000000001 Z M36.375 -7.22999999999999 Q31.75 -7.22999999999999 29.94 -11.35499999999999 Q28.125 -15.47999999999999 31.0 -18.85499999999999 L80.625 -77.10499999999999 Q83.375 -80.22999999999999 86.815 -81.97999999999999 Q90.25 -83.72999999999999 94.375 -83.72999999999999 Q102.25 -83.72999999999999 107.75 -78.22999999999999 Q113.25 -72.72999999999999 113.25 -64.85499999999999 V-59.60499999999999 H99.125 V-64.85499999999999 Q99.125 -66.85499999999999 97.81 -68.22999999999999 Q96.5 -69.60499999999999 94.5 -69.60499999999999 Q93.625 -69.60499999999999 92.875 -69.22999999999999 Q92.125 -68.85499999999999 91.625 -68.35499999999999 L88.0 -64.22999999999999 V-21.35499999999999 Q88.0 -15.47999999999999 83.875 -11.35499999999999 Q79.75 -7.22999999999999 73.875 -7.22999999999999 H36.375 Z M48.75 -47.10499999999999  20.25 -75.60499999999999 Q26.375 -80.35499999999999 34.315000000000005 -83.04499999999999 Q42.25 -85.72999999999999 50.0 -85.72999999999999 Q56.5 -85.72999999999999 63.19 -83.91999999999999 Q69.875 -82.10499999999999 75.625 -78.60499999999999 L48.75 -47.10499999999999 Z"/></g><g id="Regular-M" transform="matrix(1 0 0 1 1394.06 1126)"><path d="M81.625 21.27000000000001 Q76.875 21.27000000000001 73.44 17.835000000000008 Q70.0 14.39500000000001 70.0 9.64500000000001 Q70.0 4.89500000000001 73.44 1.4550000000000125 Q76.875 -1.9799999999999898 81.625 -1.9799999999999898 Q86.375 -1.9799999999999898 89.815 1.4550000000000125 Q93.25 4.89500000000001 93.25 9.64500000000001 Q93.25 14.39500000000001 89.815 17.835000000000008 Q86.375 21.27000000000001 81.625 21.27000000000001 Z M30.0 21.27000000000001 Q25.25 21.27000000000001 21.815 17.835000000000008 Q18.375 14.39500000000001 18.375 9.64500000000001 Q18.375 4.89500000000001 21.815 1.4550000000000125 Q25.25 -1.9799999999999898 30.0 -1.9799999999999898 Q34.75 -1.9799999999999898 38.19 1.4550000000000125 Q41.625 4.89500000000001 41.625 9.64500000000001 Q41.625 14.39500000000001 38.19 17.835000000000008 Q34.75 21.27000000000001 30.0 21.27000000000001 Z M37.125 -8.60499999999999 Q32.75 -8.60499999999999 31.065 -12.419999999999987 Q29.375 -16.22999999999999 32.125 -19.47999999999999 L79.875 -75.35499999999999 Q82.5 -78.47999999999999 85.875 -80.16999999999999 Q89.25 -81.85499999999999 93.25 -81.85499999999999 Q100.875 -81.85499999999999 106.25 -76.47999999999999 Q111.625 -71.10499999999999 111.625 -63.47999999999999 V-58.60499999999999 H98.375 V-63.47999999999999 Q98.375 -65.60499999999999 96.94000000000001 -67.10499999999999 Q95.5 -68.60499999999999 93.375 -68.60499999999999 Q92.375 -68.60499999999999 91.56 -68.22999999999999 Q90.75 -67.85499999999999 90.125 -67.22999999999999 L86.625 -63.22999999999999 V-21.85499999999999 Q86.625 -16.22999999999999 82.81 -12.419999999999987 Q79.0 -8.60499999999999 73.375 -8.60499999999999 H37.125 Z M48.625 -46.47999999999999  21.25 -73.97999999999999 Q26.875 -78.35499999999999 34.565 -80.97999999999999 Q42.25 -83.60499999999999 49.75 -83.60499999999999 Q56.0 -83.60499999999999 62.5 -81.79499999999999 Q69.0 -79.97999999999999 74.375 -76.72999999999999 L48.625 -46.47999999999999 Z"/></g><g id="Light-M" transform="matrix(1 0 0 1 1098.18 1126)"><path d="M78.5 17.14500000000001 Q74.25 17.14500000000001 71.25 14.14500000000001 Q68.25 11.14500000000001 68.25 6.89500000000001 Q68.25 2.7700000000000102 71.25 -0.22999999999998977 Q74.25 -3.2299999999999898 78.5 -3.2299999999999898 Q82.625 -3.2299999999999898 85.625 -0.22999999999998977 Q88.625 2.7700000000000102 88.625 6.89500000000001 Q88.625 11.14500000000001 85.625 14.14500000000001 Q82.625 17.14500000000001 78.5 17.14500000000001 Z M32.375 17.14500000000001 Q28.25 17.14500000000001 25.25 14.14500000000001 Q22.25 11.14500000000001 22.25 6.89500000000001 Q22.25 2.7700000000000102 25.25 -0.22999999999998977 Q28.25 -3.2299999999999898 32.375 -3.2299999999999898 Q36.625 -3.2299999999999898 39.625 -0.22999999999998977 Q42.625 2.7700000000000102 42.625 6.89500000000001 Q42.625 11.14500000000001 39.625 14.14500000000001 Q36.625 17.14500000000001 32.375 17.14500000000001 Z M37.125 -9.85499999999999 Q33.625 -9.85499999999999 32.25 -12.919999999999987 Q30.875 -15.97999999999999 33.125 -18.60499999999999 L78.75 -71.97999999999999 Q81.25 -74.97999999999999 84.315 -76.54499999999999 Q87.375 -78.10499999999999 91.0 -78.10499999999999 Q97.375 -78.10499999999999 101.815 -73.66999999999999 Q106.25 -69.22999999999999 106.25 -62.85499999999999 V-58.60499999999999 H95.5 V-62.85499999999999 Q95.5 -64.85499999999999 94.315 -66.10499999999999 Q93.125 -67.35499999999999 91.25 -67.35499999999999 Q90.0 -67.35499999999999 88.94 -66.85499999999999 Q87.875 -66.35499999999999 87.125 -65.60499999999999 L82.0 -59.60499999999999 V-22.10499999999999 Q82.0 -16.85499999999999 78.5 -13.35499999999999 Q75.0 -9.85499999999999 69.75 -9.85499999999999 H37.125 Z M50.25 -46.35499999999999  25.25 -71.35499999999999 Q30.25 -75.22999999999999 37.25 -77.54499999999999 Q44.25 -79.85499999999999 51.0 -79.85499999999999 Q56.625 -79.85499999999999 62.565 -78.29499999999999 Q68.5 -76.72999999999999 73.625 -73.85499999999999 L50.25 -46.35499999999999 Z"/></g><g id="Thin-M" transform="matrix(1 0 0 1 802.565 1126)"><path d="M75.25 13.02000000000001 Q71.625 13.02000000000001 69.06 10.455000000000013 Q66.5 7.89500000000001 66.5 4.27000000000001 Q66.5 0.6450000000000102 69.06 -1.914999999999992 Q71.625 -4.47999999999999 75.25 -4.47999999999999 Q78.875 -4.47999999999999 81.44 -1.914999999999992 Q84.0 0.6450000000000102 84.0 4.27000000000001 Q84.0 7.89500000000001 81.44 10.455000000000013 Q78.875 13.02000000000001 75.25 13.02000000000001 Z M34.75 13.02000000000001 Q31.25 13.02000000000001 28.69 10.455000000000013 Q26.125 7.89500000000001 26.125 4.27000000000001 Q26.125 0.6450000000000102 28.69 -1.914999999999992 Q31.25 -4.47999999999999 34.75 -4.47999999999999 Q38.5 -4.47999999999999 41.0 -1.914999999999992 Q43.5 0.6450000000000102 43.5 4.27000000000001 Q43.5 7.89500000000001 41.0 10.455000000000013 Q38.5 13.02000000000001 34.75 13.02000000000001 Z M37.125 -11.10499999999999 Q34.375 -11.10499999999999 33.375 -13.47999999999999 Q32.375 -15.85499999999999 34.0 -17.85499999999999 L77.625 -68.72999999999999 Q79.875 -71.60499999999999 82.69 -72.97999999999999 Q85.5 -74.35499999999999 88.875 -74.35499999999999 Q94.0 -74.35499999999999 97.5 -70.85499999999999 Q101.0 -67.35499999999999 101.0 -62.22999999999999 V-58.60499999999999 H92.75 V-62.35499999999999 Q92.75 -63.97999999999999 91.685 -65.04499999999999 Q90.625 -66.10499999999999 89.125 -66.10499999999999 Q87.5 -66.10499999999999 86.31500000000001 -65.47999999999999 Q85.125 -64.85499999999999 84.125 -63.85499999999999 L77.375 -55.97999999999999 V-22.47999999999999 Q77.375 -17.60499999999999 74.125 -14.35499999999999 Q70.875 -11.10499999999999 66.125 -11.10499999999999 H37.125 Z M51.75 -46.22999999999999  29.375 -68.72999999999999 Q33.75 -72.10499999999999 40.0 -74.10499999999999 Q46.25 -76.10499999999999 52.375 -76.10499999999999 Q57.375 -76.10499999999999 62.69 -74.79499999999999 Q68.0 -73.47999999999999 72.875 -71.10499999999999 L51.75 -46.22999999999999 Z"/></g><g id="Ultralight-M" transform="matrix(1 0 0 1 506.415 1126)"><path d="M73.375 10.52000000000001 Q70.125 10.52000000000001 67.81 8.210000000000008 Q65.5 5.89500000000001 65.5 2.6450000000000102 Q65.5 -0.6049999999999898 67.81 -2.9199999999999875 Q70.125 -5.22999999999999 73.375 -5.22999999999999 Q76.625 -5.22999999999999 78.94 -2.9199999999999875 Q81.25 -0.6049999999999898 81.25 2.6450000000000102 Q81.25 5.89500000000001 78.94 8.210000000000008 Q76.625 10.52000000000001 73.375 10.52000000000001 Z M36.25 10.52000000000001 Q33.125 10.52000000000001 30.75 8.210000000000008 Q28.375 5.89500000000001 28.375 2.6450000000000102 Q28.375 -0.6049999999999898 30.75 -2.9199999999999875 Q33.125 -5.22999999999999 36.25 -5.22999999999999 Q39.625 -5.22999999999999 41.875 -2.9199999999999875 Q44.125 -0.6049999999999898 44.125 2.6450000000000102 Q44.125 5.89500000000001 41.875 8.210000000000008 Q39.625 10.52000000000001 36.25 10.52000000000001 Z M37.125 -11.85499999999999 Q34.875 -11.85499999999999 34.06 -13.789999999999992 Q33.25 -15.72999999999999 34.625 -17.35499999999999 L76.875 -66.72999999999999 Q79.125 -69.47999999999999 81.75 -70.79499999999999 Q84.375 -72.10499999999999 87.625 -72.10499999999999 Q91.875 -72.10499999999999 94.81 -69.16499999999999 Q97.75 -66.22999999999999 97.75 -61.97999999999999 V-58.60499999999999 H91.0 V-61.97999999999999 Q91.0 -63.47999999999999 90.06 -64.41999999999999 Q89.125 -65.35499999999999 87.75 -65.35499999999999 Q86.125 -65.35499999999999 84.75 -64.66999999999999 Q83.375 -63.97999999999999 82.25 -62.85499999999999 L74.625 -53.85499999999999 V-22.60499999999999 Q74.625 -17.97999999999999 71.56 -14.919999999999987 Q68.5 -11.85499999999999 63.875 -11.85499999999999 H37.125 Z M52.75 -46.10499999999999  31.75 -67.22999999999999 Q35.75 -70.22999999999999 41.559999999999995 -72.04499999999999 Q47.375 -73.85499999999999 53.125 -73.85499999999999 Q57.75 -73.85499999999999 62.75 -72.66999999999999 Q67.75 -71.47999999999999 72.5 -69.35499999999999 L52.75 -46.10499999999999 Z"/></g><g id="Bold-S" transform="matrix(1 0 0 1 2294.23 696)"><path d="M69.135336 11.518250000000009 Q65.68425 11.518250000000009 63.217836 9.051836000000009 Q60.751422 6.585421999999994 60.751422 3.1343360000000047 Q60.751422 -0.316749999999999 63.217836 -2.7831639999999993 Q65.68425 -5.249578 69.135336 -5.249578 Q72.586422 -5.249578 75.052836 -2.7831639999999993 Q77.51925 -0.316749999999999 77.51925 3.1343360000000047 Q77.51925 6.585421999999994 75.052836 9.051836000000009 Q72.586422 11.518250000000009 69.135336 11.518250000000009 Z M23.67 11.518250000000009 Q20.218913999999998 11.518250000000009 17.7525 9.051836000000009 Q15.286086000000001 6.585421999999994 15.286086000000001 3.1343360000000047 Q15.286086000000001 -0.316749999999999 17.7525 -2.7831639999999993 Q20.218913999999998 -5.249578 23.67 -5.249578 Q27.121086000000002 -5.249578 29.5875 -2.7831639999999993 Q32.053914 -0.316749999999999 32.053914 3.1343360000000047 Q32.053914 6.585421999999994 29.5875 9.051836000000009 Q27.121086000000002 11.518250000000009 23.67 11.518250000000009 Z M27.021672000000002 -9.884163999999998 Q22.585914 -9.884163999999998 20.858003999999998 -13.827585999999997 Q19.134828 -17.771007999999995 21.89475 -20.92858599999999 L65.68425 -72.51025 Q67.951836 -75.17549199999999 70.910586 -76.65249999999999 Q73.86933599999999 -78.12950799999999 77.320422 -78.12950799999999 Q84.0285 -78.12950799999999 88.66308599999999 -73.49492199999999 Q93.29767199999999 -68.86033599999999 93.29767199999999 -62.15699199999999 V-56.82650799999999 H79.493328 V-62.15699199999999 Q79.493328 -63.14166399999999 78.901578 -63.733413999999996 Q78.30982800000001 -64.325164 77.41983599999999 -64.325164 Q76.9275 -64.325164 76.63399199999999 -64.026922 Q76.33575 -63.733413999999996 76.037508 -63.435171999999994 L72.884664 -59.78999199999999 V-23.68850799999999 Q72.884664 -17.969835999999987 68.84182799999999 -13.926999999999992 Q64.798992 -9.884163999999998 59.075585999999994 -9.884163999999998 H27.021672000000002 Z M40.437827999999996 -47.656749999999995  16.668414 -71.227336 Q22.4865 -75.86192199999999 29.293992 -78.228922 Q36.09675 -80.59592199999999 43.098335999999996 -80.59592199999999 Q48.722328 -80.59592199999999 54.294245999999994 -79.11891399999999 Q59.866164000000005 -77.63717199999999 63.615492 -75.076078 L40.437827999999996 -47.656749999999995 Z"/></g><g id="Semibold-S" transform="matrix(1 0 0 1 1998.1 696)"><path d="M67.165992 10.53357800000002 Q63.516078 10.53357800000002 60.997589999999995 7.967750000000009 Q58.483836 5.401921999999999 58.483836 1.8514219999999995 Q58.483836 -1.7984919999999818 61.04966400000001 -4.359585999999993 Q63.615492 -6.9254140000000035 67.165992 -6.9254140000000035 Q70.811172 -6.9254140000000035 73.32966 -4.312246000000002 Q75.84341400000001 -1.699078 75.84341400000001 1.8514219999999995 Q75.84341400000001 5.501336000000009 73.277586 8.015090000000015 Q70.716492 10.53357800000002 67.165992 10.53357800000002 Z M23.67 10.53357800000002 Q20.020086 10.53357800000002 17.506332 7.967750000000009 Q14.992578 5.401921999999999 14.992578 1.8514219999999995 Q14.992578 -1.7984919999999818 17.553672000000002 -4.359585999999993 Q20.1195 -6.9254140000000035 23.67 -6.9254140000000035 Q27.319914 -6.9254140000000035 29.833668 -4.312246000000002 Q32.347422 -1.699078 32.347422 1.8514219999999995 Q32.347422 5.501336000000009 29.786327999999997 8.015090000000015 Q27.2205 10.53357800000002 23.67 10.53357800000002 Z M28.011077999999998 -11.85350799999999 Q24.062922 -11.85350799999999 22.533839999999998 -15.40400799999999 Q21.009491999999998 -18.95450799999999 23.471172 -21.818577999999995 L64.600164 -70.043836 Q66.76833599999999 -72.609664 69.580332 -74.03933199999999 Q72.39232799999999 -75.469 75.64458599999999 -75.469 Q82.05442199999999 -75.469 86.542254 -71.02850799999999 Q91.030086 -66.59275 91.030086 -60.182914 V-55.44891399999999 H78.50392199999999 V-60.182914 Q78.50392199999999 -61.36641399999999 77.718078 -62.152257999999996 Q76.9275 -62.94283599999999 75.84341400000001 -62.94283599999999 Q75.15225 -62.94283599999999 74.707254 -62.59725399999999 Q74.266992 -62.251672 73.86933599999999 -61.85874999999999 L70.910586 -58.407664 V-24.379671999999992 Q70.910586 -19.15333599999999 67.260672 -15.503422 Q63.615492 -11.85350799999999 58.384422 -11.85350799999999 H28.011077999999998 Z M40.139585999999994 -46.86617199999999  18.046008 -68.86033599999999 Q23.277078 -73.002586 29.734254 -75.222832 Q36.196163999999996 -77.443078 42.705414000000005 -77.443078 Q47.93175 -77.443078 53.2575 -76.06075 Q58.58325 -74.678422 61.835508 -72.41083599999999 L40.139585999999994 -46.86617199999999 Z"/></g><g id="Medium-S" transform="matrix(1 0 0 1 1701.85 696)"><path d="M65.68425 9.842414000000005 Q61.934922 9.842414000000005 59.321754000000006 7.229246000000018 Q56.708586 4.616078000000016 56.708586 0.8667500000000103 Q56.708586 -2.7831639999999993 59.321754000000006 -5.443671999999992 Q61.934922 -8.108913999999999 65.68425 -8.108913999999999 Q69.433578 -8.108913999999999 72.046746 -5.443671999999992 Q74.659914 -2.7831639999999993 74.659914 0.8667500000000103 Q74.659914 4.616078000000016 72.046746 7.229246000000018 Q69.433578 9.842414000000005 65.68425 9.842414000000005 Z M23.67 9.842414000000005 Q19.920672 9.842414000000005 17.307504 7.229246000000018 Q14.694336 4.616078000000016 14.694336 0.8667500000000103 Q14.694336 -2.7831639999999993 17.307504 -5.443671999999992 Q19.920672 -8.108913999999999 23.67 -8.108913999999999 Q27.419328 -8.108913999999999 30.032496000000002 -5.443671999999992 Q32.645664 -2.7831639999999993 32.645664 0.8667500000000103 Q32.645664 4.616078000000016 30.032496000000002 7.229246000000018 Q27.419328 9.842414000000005 23.67 9.842414000000005 Z M28.896336 -13.335249999999988 Q25.246422 -13.335249999999988 23.816754 -16.540167999999994 Q22.387086 -19.745085999999986 24.654672 -22.50500799999999 L63.710172 -68.268586 Q65.783664 -70.73499999999999 68.496246 -72.11732799999999 Q71.208828 -73.49492199999999 74.461086 -73.49492199999999 Q80.676828 -73.49492199999999 85.013172 -69.15857799999999 Q89.35425 -64.8175 89.35425 -58.60649199999999 V-54.459508 H77.81749199999999 V-58.60649199999999 Q77.81749199999999 -59.98408599999999 76.88015999999999 -60.968757999999994 Q75.942828 -61.958164 74.5605 -61.958164 Q73.86933599999999 -61.958164 73.277586 -61.51316799999999 Q72.685836 -61.06817199999999 72.29291400000001 -60.67524999999999 L69.433578 -57.422991999999994 V-24.872007999999994 Q69.433578 -20.043327999999995 66.077172 -16.686921999999996 Q62.7255 -13.335249999999988 57.892086 -13.335249999999988 H28.896336 Z M39.945492 -46.274421999999994  19.035414 -67.08508599999999 Q23.769414 -70.834414 30.032496000000002 -72.95524599999999 Q36.295578 -75.076078 42.407172 -75.076078 Q47.439414000000006 -75.076078 52.518995999999994 -73.79316399999999 Q57.598577999999996 -72.51025 60.457914 -70.441492 L39.945492 -46.274421999999994 Z"/></g><g id="Regular-S" transform="matrix(1 0 0 1 1405.73 696)"><path d="M64.600164 9.35007800000001 Q60.850835999999994 9.35007800000001 58.138254 6.637496000000013 Q55.425672 3.9249140000000153 55.425672 0.1755860000000098 Q55.425672 -3.5690079999999966 58.138254 -6.281589999999994 Q60.850835999999994 -8.994171999999992 64.600164 -8.994171999999992 Q68.349492 -8.994171999999992 71.05734 -6.281589999999994 Q73.769922 -3.5690079999999966 73.769922 0.1755860000000098 Q73.769922 3.9249140000000153 71.05734 6.637496000000013 Q68.349492 9.35007800000001 64.600164 9.35007800000001 Z M23.67 9.35007800000001 Q19.920672 9.35007800000001 17.20809 6.637496000000013 Q14.495508 3.9249140000000153 14.495508 0.1755860000000098 Q14.495508 -3.5690079999999966 17.20809 -6.281589999999994 Q19.920672 -8.994171999999992 23.67 -8.994171999999992 Q27.419328 -8.994171999999992 30.13191 -6.281589999999994 Q32.844491999999995 -3.5690079999999966 32.844491999999995 0.1755860000000098 Q32.844491999999995 3.9249140000000153 30.13191 6.637496000000013 Q27.419328 9.35007800000001 23.67 9.35007800000001 Z M29.488086 -14.419335999999987 Q26.037 -14.419335999999987 24.706746000000003 -17.43016 Q23.376492 -20.436249999999994 25.544664 -23.00207799999999 L63.019008 -66.890992 Q65.0925 -69.352672 67.753008 -70.68766 Q70.41825 -72.01791399999999 73.575828 -72.01791399999999 Q79.588008 -72.01791399999999 83.82967199999999 -67.77624999999999 Q88.071336 -63.53458599999999 88.071336 -57.51767199999999 V-53.67366399999999 H77.22100800000001 V-57.51767199999999 Q77.22100800000001 -58.999413999999994 76.188996 -60.083499999999994 Q75.15225 -61.16758599999999 73.670508 -61.16758599999999 Q72.884664 -61.16758599999999 72.24084 -60.72259 Q71.60175 -60.28232799999999 71.109414 -59.78999199999999 L68.349492 -56.632414 V-25.269664 Q68.349492 -20.635077999999993 65.239254 -17.524839999999998 Q62.13375 -14.419335999999987 57.499164 -14.419335999999987 H29.488086 Z M39.846078 -45.78208599999999  19.825992 -65.802172 Q24.26175 -69.257992 30.278664 -71.32674999999999 Q36.295578 -73.39550799999999 42.213077999999996 -73.39550799999999 Q46.947078 -73.39550799999999 51.927246 -72.11732799999999 Q56.907414 -70.834414 59.468508 -68.95974999999999 L39.846078 -45.78208599999999 Z"/></g><g id="Light-S" transform="matrix(1 0 0 1 1109.75 696)"><path d="M62.13375 6.093086 Q58.782078 6.093086 56.415078 3.7260860000000093 Q54.048078 1.359086000000005 54.048078 -1.9925859999999886 Q54.048078 -5.249578 56.415078 -7.61657799999999 Q58.782078 -9.983577999999994 62.13375 -9.983577999999994 Q65.386008 -9.983577999999994 67.753008 -7.61657799999999 Q70.120008 -5.249578 70.120008 -1.9925859999999886 Q70.120008 1.359086000000005 67.753008 3.7260860000000093 Q65.386008 6.093086 62.13375 6.093086 Z M25.544664 6.093086 Q22.287672 6.093086 19.920672 3.7260860000000093 Q17.553672000000002 1.359086000000005 17.553672000000002 -1.9925859999999886 Q17.553672000000002 -5.249578 19.920672 -7.61657799999999 Q22.287672 -9.983577999999994 25.544664 -9.983577999999994 Q28.896336 -9.983577999999994 31.263336 -7.61657799999999 Q33.630336 -5.249578 33.630336 -1.9925859999999886 Q33.630336 1.359086000000005 31.263336 3.7260860000000093 Q28.896336 6.093086 25.544664 6.093086 Z M29.488086 -15.40400799999999 Q26.728164 -15.40400799999999 25.644078 -17.823082 Q24.559991999999998 -20.237421999999995 26.330508000000002 -22.310913999999997 L62.13375 -64.325164 Q64.107828 -66.59275 66.522168 -67.82359 Q68.936508 -69.059164 71.800578 -69.059164 Q76.828086 -69.059164 80.33124600000001 -65.556004 Q83.82967199999999 -62.05757799999999 83.82967199999999 -57.025335999999996 V-53.67366399999999 H74.953422 V-57.025335999999996 Q74.953422 -58.407664 74.115504 -59.29292199999999 Q73.277586 -60.182914 71.994672 -60.182914 Q71.01 -60.182914 70.172082 -59.63850399999999 Q69.334164 -59.098828 68.742414 -58.50707799999999 L64.699578 -53.77307799999999 V-25.468491999999998 Q64.699578 -21.22682799999999 61.788168 -18.315417999999994 Q58.881492 -15.40400799999999 54.639828 -15.40400799999999 H29.488086 Z M41.128992000000004 -45.682672  22.978836 -63.733413999999996 Q26.926992 -66.79157799999999 32.399496 -68.61416799999999 Q37.872 -70.441492 43.19775 -70.441492 Q47.538828 -70.441492 52.02666 -69.352672 Q56.514492000000004 -68.268586 58.881492 -66.69216399999999 L41.128992000000004 -45.682672 Z"/></g><g id="Thin-S" transform="matrix(1 0 0 1 814.015 696)"><path d="M59.567922 2.840828000000016 Q56.708586 2.840828000000016 54.687168 0.8194100000000049 Q52.66575 -1.2020079999999922 52.66575 -4.0660780000000045 Q52.66575 -6.9254140000000035 54.687168 -8.946832 Q56.708586 -10.968249999999998 59.567922 -10.968249999999998 Q62.431992 -10.968249999999998 64.45341 -8.946832 Q66.474828 -6.9254140000000035 66.474828 -4.0660780000000045 Q66.474828 -1.2020079999999922 64.45341 0.8194100000000049 Q62.431992 2.840828000000016 59.567922 2.840828000000016 Z M27.419328 2.840828000000016 Q24.654672 2.840828000000016 22.633253999999997 0.8194100000000049 Q20.611836 -1.2020079999999922 20.611836 -4.0660780000000045 Q20.611836 -6.9254140000000035 22.633253999999997 -8.946832 Q24.654672 -10.968249999999998 27.419328 -10.968249999999998 Q30.378078 -10.968249999999998 32.347422 -8.946832 Q34.3215 -6.9254140000000035 34.3215 -4.0660780000000045 Q34.3215 -1.2020079999999922 32.347422 0.8194100000000049 Q30.378078 2.840828000000016 27.419328 2.840828000000016 Z M29.488086 -16.393413999999993 Q27.319914 -16.393413999999993 26.529336 -18.26807799999999 Q25.743492 -20.138007999999992 27.021672000000002 -21.719164 L61.248492000000006 -61.659921999999995 Q63.118422 -63.92750799999999 65.291328 -65.01632799999999 Q67.4595 -66.100414 70.120008 -66.100414 Q74.167578 -66.100414 76.9275 -63.335758 Q79.687422 -60.575835999999995 79.687422 -56.532999999999994 V-53.67366399999999 H72.78525 V-56.632414 Q72.78525 -57.716499999999996 72.046746 -58.45500399999999 Q71.303508 -59.193507999999994 70.31883599999999 -59.193507999999994 Q69.035922 -59.193507999999994 68.09859 -58.55441799999999 Q67.165992 -57.91532799999999 66.375414 -57.12474999999999 L61.04966400000001 -50.90900799999999 V-25.761999999999993 Q61.04966400000001 -21.719164 58.384422 -19.053921999999993 Q55.723914 -16.393413999999993 51.780492 -16.393413999999993 H29.488086 Z M42.312492000000006 -45.58799199999999  26.235827999999998 -61.659921999999995 Q29.5875 -64.325164 34.520328 -65.901586 Q39.448422 -67.47800799999999 44.281836 -67.47800799999999 Q48.031164000000004 -67.47800799999999 52.074 -66.59275 Q56.116836 -65.707492 58.285008 -64.52399199999999 L42.312492000000006 -45.58799199999999 Z"/></g><g id="Ultralight-S" transform="matrix(1 0 0 1 517.792 696)"><path d="M58.090914000000005 0.8667500000000103 Q55.525085999999995 0.8667500000000103 53.702496 -0.9558399999999949 Q51.875172 -2.7831639999999993 51.875172 -5.348991999999981 Q51.875172 -7.910085999999993 53.702496 -9.737409999999997 Q55.525085999999995 -11.559999999999988 58.090914000000005 -11.559999999999988 Q60.652007999999995 -11.559999999999988 62.479332 -9.737409999999997 Q64.301922 -7.910085999999993 64.301922 -5.348991999999981 Q64.301922 -2.7831639999999993 62.479332 -0.9558399999999949 Q60.652007999999995 0.8667500000000103 58.090914000000005 0.8667500000000103 Z M28.602828 0.8667500000000103 Q26.136414 0.8667500000000103 24.26175 -0.9558399999999949 Q22.387086 -2.7831639999999993 22.387086 -5.348991999999981 Q22.387086 -7.910085999999993 24.26175 -9.737409999999997 Q26.136414 -11.559999999999988 28.602828 -11.559999999999988 Q31.263336 -11.559999999999988 33.038586 -9.737409999999997 Q34.813836 -7.910085999999993 34.813836 -5.348991999999981 Q34.813836 -2.7831639999999993 33.038586 -0.9558399999999949 Q31.263336 0.8667500000000103 28.602828 0.8667500000000103 Z M29.488086 -16.985163999999997 Q27.712836 -16.985163999999997 27.073746 -18.514245999999986 Q26.429922 -20.043327999999995 27.514008 -21.321507999999987 L60.652007999999995 -60.083499999999994 Q62.431992 -62.251672 64.50075 -63.28841799999999 Q66.569508 -64.325164 69.135336 -64.325164 Q72.487008 -64.325164 74.806668 -62.00550399999999 Q77.126328 -59.69057799999999 77.126328 -56.334171999999995 V-53.67366399999999 H71.402922 V-56.334171999999995 Q71.402922 -57.323578 70.76383200000001 -57.962667999999994 Q70.120008 -58.60649199999999 69.23475 -58.60649199999999 Q67.951836 -58.60649199999999 66.86775 -57.91532799999999 Q65.783664 -57.22416399999999 64.893672 -56.334171999999995 L58.881492 -49.233171999999996 V-25.861413999999996 Q58.881492 -22.012671999999995 56.315664000000005 -19.49891799999999 Q53.749835999999995 -16.985163999999997 50.000507999999996 -16.985163999999997 H29.488086 Z M43.098335999999996 -45.48857799999999  28.110491999999997 -60.47642199999999 Q31.263336 -62.84342199999999 35.798508 -64.27309 Q40.338414 -65.707492 44.873585999999996 -65.707492 Q48.324672 -65.707492 52.12134 -64.91691399999999 Q55.918008 -64.126336 57.9915 -63.14166399999999 L43.098335999999996 -45.48857799999999 Z"/></g></g></svg>