<svg xmlns="http://www.w3.org/2000/svg" version="1.1" width="3300" height="2000"><g id="Notes"><style>
    text {
      font-family: monospace;
      text-anchor: middle;
    }
    text.emphasis {
      font-weight:bold;
    }
    text.lanchor {
      text-anchor: start;
    }
  </style><rect height="2200" id="artboard" fill="white" width="3300" x="0" y="0"/><line id="" style="fill:none;stroke:black;stroke-width:0.5;" x1="263" x2="3036" y1="292" y2="292"/><text class="lanchor emphasis" transform="matrix(1 0 0 1 263 322)">Weight/Scale Variations</text><text transform="matrix(1 0 0 1 559.711 322)">Ultralight</text><text transform="matrix(1 0 0 1 856.422 322)">Thin</text><text transform="matrix(1 0 0 1 1153.13 322)">Light</text><text transform="matrix(1 0 0 1 1449.84 322)">Regular</text><text transform="matrix(1 0 0 1 1746.56 322)">Medium</text><text transform="matrix(1 0 0 1 2043.27 322)">Semibold</text><text transform="matrix(1 0 0 1 2339.98 322)">Bold</text><text transform="matrix(1 0 0 1 2636.69 322)">Heavy</text><text transform="matrix(1 0 0 1 2933.4 322)">Black</text><text id="template-version" style="text-anchor: end;" transform="matrix(1 0 0 1 3036 1933)">Template v.1.0</text><text class="lanchor" transform="matrix(1 0 0 1 263 726)">Small</text><text class="lanchor" transform="matrix(1 0 0 1 263 1156)">Medium</text><text class="lanchor" transform="matrix(1 0 0 1 263 1586)">Large</text></g><g id="Guides"><g id="H-reference" style="fill:#27AAE1;stroke:none;" transform="matrix(1 0 0 1 339 696)"><path d="M 54.9316 0 L 57.666 0 L 30.5664 -70.459 L 28.0762 -70.459 L 0.976562 0 L 3.66211 0 L 12.9395 -24.4629 L 45.7031 -24.4629 Z M 29.1992 -67.0898 L 29.4434 -67.0898 L 44.8242 -26.709 L 13.8184 -26.709 Z"/></g><line id="Baseline-S" style="fill:none;stroke:#27AAE1;opacity:1;stroke-width:0.577;" x1="263" x2="3036" y1="696" y2="696"/><line id="Capline-S" style="fill:none;stroke:#27AAE1;opacity:1;stroke-width:0.577;" x1="263" x2="3036" y1="625.541" y2="625.541"/><g id="H-reference" style="fill:#27AAE1;stroke:none;" transform="matrix(1 0 0 1 339 1126)"><path d="M 54.9316 0 L 57.666 0 L 30.5664 -70.459 L 28.0762 -70.459 L 0.976562 0 L 3.66211 0 L 12.9395 -24.4629 L 45.7031 -24.4629 Z M 29.1992 -67.0898 L 29.4434 -67.0898 L 44.8242 -26.709 L 13.8184 -26.709 Z"/></g><line id="Baseline-M" style="fill:none;stroke:#27AAE1;opacity:1;stroke-width:0.577;" x1="263" x2="3036" y1="1126" y2="1126"/><line id="Capline-M" style="fill:none;stroke:#27AAE1;opacity:1;stroke-width:0.577;" x1="263" x2="3036" y1="1055.54" y2="1055.54"/><g id="H-reference" style="fill:#27AAE1;stroke:none;" transform="matrix(1 0 0 1 339 1556)"><path d="M 54.9316 0 L 57.666 0 L 30.5664 -70.459 L 28.0762 -70.459 L 0.976562 0 L 3.66211 0 L 12.9395 -24.4629 L 45.7031 -24.4629 Z M 29.1992 -67.0898 L 29.4434 -67.0898 L 44.8242 -26.709 L 13.8184 -26.709 Z"/></g><line id="Baseline-L" style="fill:none;stroke:#27AAE1;opacity:1;stroke-width:0.577;" x1="263" x2="3036" y1="1556" y2="1556"/><line id="Capline-L" style="fill:none;stroke:#27AAE1;opacity:1;stroke-width:0.577;" x1="263" x2="3036" y1="1485.54" y2="1485.54"/><rect height="119.336" id="left-margin" style="fill:darkred;stroke:none;opacity:0.4;" width="12.4512" x="1394.06" y="1030.79"/><rect height="119.336" id="right-margin" style="fill:darkgreen;stroke:none;opacity:0.4;" width="12.4512" x="1502.5112" y="1030.79"/><rect x="1406.5112" y="1045" width="96" height="96" fill="none" stroke="blue" stroke-dasharray="5"/><rect x="1394.06" y="1030.79" width="120.9024" height="119.336" fill="none" stroke="blue"/></g><g id="Symbols"><g id="Bold-L" transform="matrix(1 0 0 1 2266 1556)"><path d="M64.984 -79.896 H89.978 Q89.978 -84.895 86.39 -88.442 Q82.802 -91.99 77.4 -91.99 Q72.388 -91.99 68.686 -88.442 Q64.984 -84.895 64.984 -79.896 Z M112.391 -36.036 V-79.896 H133.354 V-34.424 Q128.158 -36.359 122.935 -36.439 Q117.713 -36.52 112.391 -36.036 Z M21.769 5.566 V-79.896 H42.57 V5.566 H21.769 Z M49.826 5.566 V-79.896 H54.18 Q54.18 -89.571 61.012 -96.263 Q67.844 -102.955 77.419 -102.955 Q87.062 -102.955 94.083 -96.256 Q101.104 -89.558 101.104 -79.896 H105.135 V-33.94 Q92.88 -29.264 85.463 -18.46 Q78.045 -7.656 78.851 5.566 H49.826 Z M116.1 13.468 H124.324 V11.379 Q124.324 9.5 125.372 7.936 Q126.42 6.373 127.904 5.244 Q130.451 3.109 132.225 0.424 Q133.999 -2.26 133.999 -5.498 Q133.999 -10.977 129.91 -14.638 Q125.821 -18.299 120.096 -18.299 Q115.455 -18.299 111.651 -15.366 Q107.848 -12.432 106.425 -7.9 L114.059 -4.431 Q114.326 -6.85 116.019 -8.624 Q117.713 -10.397 120.088 -10.397 Q122.429 -10.397 124.021 -9.051 Q125.614 -7.705 125.614 -5.486 Q125.614 -3.786 124.485 -2.335 Q123.356 -0.884 122.066 0.084 Q120.615 1.213 119.244 2.503 Q117.874 3.793 117.068 5.349 Q116.422 6.516 116.261 7.886 Q116.1 9.255 116.1 10.599 V13.468 Z M120.153 29.431 Q122.55 29.431 124.243 27.764 Q125.936 26.097 125.936 23.733 Q125.936 21.369 124.262 19.756 Q122.587 18.144 120.131 18.144 Q117.874 18.144 116.261 19.756 Q114.649 21.369 114.649 23.707 Q114.649 26.045 116.305 27.738 Q117.961 29.431 120.153 29.431 Z M120.284 35.72 Q107.231 35.72 98.04 26.52 Q88.849 17.32 88.849 4.268 Q88.849 -8.785 98.049 -17.976 Q107.248 -27.167 120.301 -27.167 Q133.515 -27.167 142.626 -17.968 Q151.736 -8.768 151.736 4.285 Q151.736 17.338 142.617 26.529 Q133.498 35.72 120.284 35.72 Z M9.514 30.56 V15.241 H80.625 Q81.431 19.756 83.689 23.546 Q85.946 27.335 89.01 30.56 H9.514 Z"/></g><g id="Semibold-L" transform="matrix(1 0 0 1 1970.27 1556)"><path d="M64.213 -77.302 H89.206 Q89.206 -82.371 85.583 -85.884 Q81.961 -89.396 76.629 -89.396 Q71.547 -89.396 67.88 -85.884 Q64.213 -82.371 64.213 -77.302 Z M110.779 -35.896 V-77.302 H130.76 V-35.055 Q125.79 -36.709 120.805 -36.685 Q115.82 -36.66 110.779 -35.896 Z M22.68 4.655 V-77.302 H42.57 V4.655 H22.68 Z M49.826 4.655 V-77.302 H54.951 Q54.951 -86.346 61.31 -92.548 Q67.668 -98.749 76.648 -98.749 Q85.665 -98.749 92.158 -92.544 Q98.65 -86.339 98.65 -77.302 H103.523 V-33.66 Q91.828 -28.913 84.797 -18.495 Q77.765 -8.077 78.22 4.655 H49.826 Z M115.679 13.187 H123.132 V11.239 Q123.132 9.332 124.18 7.747 Q125.228 6.162 126.712 4.963 Q129.119 2.985 130.823 0.416 Q132.527 -2.153 132.527 -5.174 Q132.527 -10.342 128.644 -13.83 Q124.761 -17.317 119.325 -17.317 Q114.894 -17.317 111.272 -14.643 Q107.65 -11.968 106.285 -7.62 L113.124 -4.572 Q113.415 -6.92 115.178 -8.589 Q116.941 -10.257 119.317 -10.257 Q121.673 -10.257 123.328 -8.841 Q124.983 -7.424 124.983 -5.168 Q124.983 -3.436 123.854 -2.02 Q122.725 -0.603 121.435 0.504 Q120.054 1.633 118.754 2.853 Q117.453 4.073 116.647 5.514 Q116.002 6.594 115.841 7.869 Q115.679 9.145 115.679 10.444 V13.187 Z M119.372 27.959 Q121.498 27.959 123.051 26.421 Q124.604 24.883 124.604 22.775 Q124.604 20.668 123.062 19.16 Q121.519 17.653 119.36 17.653 Q117.313 17.653 115.806 19.16 Q114.298 20.668 114.298 22.76 Q114.298 24.853 115.83 26.406 Q117.362 27.959 119.372 27.959 Z M119.513 35.72 Q106.46 35.72 97.269 26.52 Q88.078 17.32 88.078 4.268 Q88.078 -8.785 97.277 -17.976 Q106.477 -27.167 119.53 -27.167 Q132.674 -27.167 141.819 -17.968 Q150.965 -8.768 150.965 4.285 Q150.965 17.338 141.811 26.529 Q132.657 35.72 119.513 35.72 Z M10.285 27.195 V14.33 H79.643 Q80.239 18.004 81.901 21.197 Q83.563 24.391 85.785 27.195 H10.285 Z"/></g><g id="Medium-L" transform="matrix(1 0 0 1 1674.31 1556)"><path d="M63.634 -75.357 H88.628 Q88.628 -80.478 84.979 -83.964 Q81.33 -87.45 76.05 -87.45 Q70.915 -87.45 67.275 -83.964 Q63.634 -80.478 63.634 -75.357 Z M109.569 -35.791 V-75.357 H128.814 V-35.528 Q124.014 -36.972 119.207 -36.869 Q114.4 -36.765 109.569 -35.791 Z M23.364 3.971 V-75.357 H42.57 V3.971 H23.364 Z M49.826 3.971 V-75.357 H55.53 Q55.53 -83.927 61.533 -89.761 Q67.537 -95.594 76.069 -95.594 Q84.618 -95.594 90.714 -89.759 Q96.81 -83.924 96.81 -75.357 H102.313 V-33.449 Q91.04 -28.65 84.297 -18.521 Q77.554 -8.392 77.747 3.971 H49.826 Z M115.364 12.977 H122.238 V11.134 Q122.238 9.206 123.286 7.605 Q124.334 6.004 125.818 4.753 Q128.12 2.893 129.771 0.411 Q131.422 -2.072 131.422 -4.932 Q131.422 -9.865 127.694 -13.223 Q123.966 -16.581 118.746 -16.581 Q114.473 -16.581 110.987 -14.101 Q107.501 -11.62 106.18 -7.41 L112.422 -4.677 Q112.731 -6.973 114.547 -8.562 Q116.363 -10.152 118.739 -10.152 Q121.106 -10.152 122.808 -8.683 Q124.51 -7.214 124.51 -4.929 Q124.51 -3.173 123.381 -1.783 Q122.252 -0.393 120.962 0.82 Q119.633 1.949 118.386 3.116 Q117.138 4.283 116.331 5.637 Q115.686 6.652 115.525 7.857 Q115.364 9.062 115.364 10.328 V12.977 Z M118.787 26.855 Q120.71 26.855 122.157 25.413 Q123.605 23.972 123.605 22.057 Q123.605 20.142 122.162 18.713 Q120.719 17.285 118.782 17.285 Q116.892 17.285 115.464 18.713 Q114.035 20.142 114.035 22.051 Q114.035 23.959 115.474 25.407 Q116.913 26.855 118.787 26.855 Z M118.934 35.72 Q105.882 35.72 96.69 26.52 Q87.499 17.32 87.499 4.268 Q87.499 -8.785 96.699 -17.976 Q105.899 -27.167 118.951 -27.167 Q132.043 -27.167 141.215 -17.968 Q150.387 -8.768 150.387 4.285 Q150.387 17.338 141.206 26.529 Q132.026 35.72 118.934 35.72 Z M10.863 24.671 V13.646 H78.907 Q79.345 16.689 80.56 19.436 Q81.775 22.182 83.366 24.671 H10.863 Z"/></g><g id="Regular-L" transform="matrix(1 0 0 1 1378.56 1556)"><path d="M63.21 -73.93 H88.204 Q88.204 -79.09 84.535 -82.557 Q80.867 -86.024 75.626 -86.024 Q70.453 -86.024 66.831 -82.557 Q63.21 -79.09 63.21 -73.93 Z M108.683 -35.714 V-73.93 H127.388 V-35.875 Q122.711 -37.165 118.035 -37.004 Q113.359 -36.842 108.683 -35.714 Z M23.865 3.47 V-73.93 H42.57 V3.47 H23.865 Z M49.826 3.47 V-73.93 H55.954 Q55.954 -82.154 61.697 -87.717 Q67.44 -93.28 75.645 -93.28 Q83.85 -93.28 89.655 -87.717 Q95.46 -82.154 95.46 -73.93 H101.426 V-33.295 Q90.461 -28.457 83.931 -18.541 Q77.4 -8.624 77.4 3.47 H49.826 Z M115.133 12.823 H121.583 V11.056 Q121.583 9.114 122.631 7.501 Q123.679 5.889 125.162 4.599 Q127.388 2.825 129 0.406 Q130.613 -2.012 130.613 -4.754 Q130.613 -9.516 126.998 -12.779 Q123.383 -16.041 118.322 -16.041 Q114.165 -16.041 110.779 -13.703 Q107.392 -11.365 106.103 -7.255 L111.907 -4.754 Q112.23 -7.011 114.084 -8.543 Q115.939 -10.075 118.314 -10.075 Q120.69 -10.075 122.426 -8.567 Q124.163 -7.06 124.163 -4.754 Q124.163 -2.98 123.034 -1.609 Q121.905 -0.239 120.615 1.051 Q119.325 2.18 118.116 3.309 Q116.906 4.438 116.1 5.728 Q115.455 6.695 115.294 7.848 Q115.133 9.001 115.133 10.243 V12.823 Z M118.358 26.045 Q120.131 26.045 121.502 24.674 Q122.873 23.304 122.873 21.53 Q122.873 19.756 121.502 18.386 Q120.131 17.015 118.358 17.015 Q116.584 17.015 115.213 18.386 Q113.843 19.756 113.843 21.53 Q113.843 23.304 115.213 24.674 Q116.584 26.045 118.358 26.045 Z M118.51 35.72 Q105.457 35.72 96.266 26.52 Q87.075 17.32 87.075 4.268 Q87.075 -8.785 96.275 -17.976 Q105.475 -27.167 118.527 -27.167 Q131.58 -27.167 140.771 -17.968 Q149.963 -8.768 149.963 4.285 Q149.963 17.338 140.763 26.529 Q131.563 35.72 118.51 35.72 Z M11.287 22.82 V13.145 H78.368 Q78.69 15.725 79.577 18.144 Q80.464 20.563 81.593 22.82 H11.287 Z"/></g><g id="Light-L" transform="matrix(1 0 0 1 1082.77 1556)"><path d="M64.637 -70.705 H88.08 Q88.08 -75.555 84.646 -78.867 Q81.213 -82.178 76.308 -82.178 Q71.445 -82.178 68.041 -78.867 Q64.637 -75.555 64.637 -70.705 Z M108.124 -35.652 V-70.705 H124.783 V-35.689 Q120.665 -36.793 116.484 -36.663 Q112.304 -36.532 108.124 -35.652 Z M27.773 -0.251 V-70.705 H44.431 V-0.251 H27.773 Z M50.384 -0.251 V-70.705 H58.683 Q58.683 -78.06 63.826 -83.065 Q68.969 -88.07 76.317 -88.07 Q83.664 -88.07 88.849 -83.055 Q94.033 -78.039 94.033 -70.705 H102.233 V-33.8 Q91.578 -29.76 84.892 -20.712 Q78.206 -11.663 77.71 -0.251 H50.384 Z M113.458 10.466 H119.226 V9.002 Q119.226 7.118 120.237 5.613 Q121.247 4.109 122.706 2.862 Q124.907 1.026 126.457 -1.361 Q128.008 -3.749 128.008 -6.464 Q128.008 -11.054 124.59 -14.199 Q121.172 -17.344 116.275 -17.344 Q112.304 -17.344 109.073 -15.068 Q105.842 -12.792 104.552 -8.868 L109.799 -6.739 Q110.237 -8.915 112.102 -10.395 Q113.967 -11.874 116.268 -11.874 Q118.744 -11.874 120.461 -10.326 Q122.178 -8.778 122.178 -6.519 Q122.178 -4.655 121.024 -3.263 Q119.871 -1.87 118.63 -0.623 Q117.399 0.464 116.315 1.582 Q115.232 2.701 114.425 3.929 Q113.78 4.834 113.619 5.967 Q113.458 7.1 113.458 8.258 V10.466 Z M116.342 23.068 Q117.989 23.068 119.19 21.867 Q120.392 20.665 120.392 19.018 Q120.392 17.371 119.19 16.169 Q117.989 14.968 116.342 14.968 Q114.694 14.968 113.493 16.169 Q112.292 17.371 112.292 19.018 Q112.292 20.665 113.493 21.867 Q114.694 23.068 116.342 23.068 Z M116.463 30.882 Q104.61 30.882 96.308 22.58 Q88.005 14.277 88.005 2.436 Q88.005 -9.405 96.308 -17.697 Q104.61 -25.989 116.452 -25.989 Q128.293 -25.989 136.585 -17.696 Q144.877 -9.403 144.877 2.424 Q144.877 14.277 136.584 22.58 Q128.291 30.882 116.463 30.882 Z M16.373 17.61 V10.292 H78.305 Q78.504 12.252 79.13 14.092 Q79.757 15.931 80.538 17.61 H16.373 Z"/></g><g id="Thin-L" transform="matrix(1 0 0 1 787.282 1556)"><path d="M66.063 -67.48 H87.956 Q87.956 -72.02 84.758 -75.177 Q81.559 -78.333 76.991 -78.333 Q72.437 -78.333 69.25 -75.177 Q66.063 -72.02 66.063 -67.48 Z M107.566 -35.59 V-67.48 H122.178 V-35.503 Q118.618 -36.421 114.934 -36.322 Q111.25 -36.222 107.566 -35.59 Z M31.679 -3.972 V-67.48 H46.291 V-3.972 H31.679 Z M50.943 -3.972 V-67.48 H61.411 Q61.411 -73.967 65.954 -78.414 Q70.498 -82.861 76.988 -82.861 Q83.478 -82.861 88.043 -78.393 Q92.607 -73.926 92.607 -67.48 H103.039 V-34.305 Q92.694 -31.062 85.853 -22.882 Q79.013 -14.702 78.02 -3.972 H50.943 Z M111.783 8.109 H116.869 V6.947 Q116.869 5.123 117.843 3.726 Q118.816 2.329 120.25 1.126 Q122.426 -0.772 123.914 -3.129 Q125.403 -5.486 125.403 -8.175 Q125.403 -12.592 122.182 -15.619 Q118.961 -18.646 114.229 -18.646 Q110.444 -18.646 107.368 -16.432 Q104.292 -14.218 103.002 -10.48 L107.69 -8.723 Q108.245 -10.819 110.12 -12.246 Q111.996 -13.672 114.221 -13.672 Q116.799 -13.672 118.496 -12.084 Q120.193 -10.496 120.193 -8.284 Q120.193 -6.329 119.015 -4.915 Q117.837 -3.501 116.646 -2.298 Q115.473 -1.252 114.515 -0.144 Q113.557 0.964 112.751 2.13 Q112.106 2.974 111.945 4.086 Q111.783 5.199 111.783 6.273 V8.109 Z M114.326 20.091 Q115.847 20.091 116.879 19.059 Q117.911 18.027 117.911 16.506 Q117.911 14.986 116.879 13.954 Q115.847 12.922 114.326 12.922 Q112.805 12.922 111.774 13.954 Q110.742 14.986 110.742 16.506 Q110.742 18.027 111.774 19.059 Q112.805 20.091 114.326 20.091 Z M114.417 26.045 Q103.763 26.045 96.349 18.64 Q88.936 11.234 88.936 0.604 Q88.936 -10.025 96.341 -17.418 Q103.746 -24.811 114.376 -24.811 Q125.006 -24.811 132.399 -17.425 Q139.791 -10.039 139.791 0.564 Q139.791 11.217 132.405 18.631 Q125.019 26.045 114.417 26.045 Z M21.459 12.401 V7.439 H78.243 Q78.318 8.779 78.684 10.04 Q79.05 11.301 79.484 12.401 H21.459 Z"/></g><g id="Ultralight-L" transform="matrix(1 0 0 1 491.205 1556)"><path d="M66.919 -65.545 H87.881 Q87.881 -69.899 84.824 -72.962 Q81.767 -76.026 77.4 -76.026 Q73.033 -76.026 69.976 -72.962 Q66.919 -69.899 66.919 -65.545 Z M107.231 -35.552 V-65.545 H120.615 V-35.391 Q117.39 -36.197 114.004 -36.117 Q110.618 -36.036 107.231 -35.552 Z M34.024 -6.205 V-65.545 H47.407 V-6.205 H34.024 Z M51.278 -6.205 V-65.545 H63.049 Q63.049 -71.511 67.232 -75.623 Q71.415 -79.735 77.39 -79.735 Q83.366 -79.735 87.559 -75.596 Q91.751 -71.458 91.751 -65.545 H103.523 V-34.609 Q93.364 -31.844 86.43 -24.184 Q79.496 -16.525 78.206 -6.205 H51.278 Z M110.779 6.695 H115.455 V5.714 Q115.455 3.926 116.406 2.594 Q117.358 1.262 118.777 0.084 Q120.938 -1.851 122.389 -4.189 Q123.84 -6.527 123.84 -9.201 Q123.84 -13.515 120.737 -16.471 Q117.635 -19.427 113.001 -19.427 Q109.328 -19.427 106.344 -17.251 Q103.361 -15.074 102.071 -11.448 L106.425 -9.914 Q107.049 -11.962 108.931 -13.356 Q110.813 -14.751 112.993 -14.751 Q115.631 -14.751 117.317 -13.139 Q119.002 -11.526 119.002 -9.343 Q119.002 -7.334 117.809 -5.907 Q116.616 -4.48 115.455 -3.302 Q114.318 -2.281 113.435 -1.179 Q112.553 -0.077 111.746 1.051 Q111.101 1.858 110.94 2.958 Q110.779 4.059 110.779 5.083 V6.695 Z M113.117 18.305 Q114.562 18.305 115.492 17.375 Q116.422 16.444 116.422 14.999 Q116.422 13.554 115.492 12.624 Q114.562 11.694 113.117 11.694 Q111.672 11.694 110.742 12.624 Q109.811 13.554 109.811 14.999 Q109.811 16.444 110.742 17.375 Q111.672 18.305 113.117 18.305 Z M113.189 23.143 Q103.255 23.143 96.374 16.275 Q89.494 9.408 89.494 -0.495 Q89.494 -10.397 96.361 -17.251 Q103.228 -24.104 113.131 -24.104 Q123.034 -24.104 129.887 -17.262 Q136.74 -10.42 136.74 -0.553 Q136.74 9.381 129.898 16.262 Q123.056 23.143 113.189 23.143 Z M24.51 9.275 V5.728 H78.206 Q78.206 6.695 78.416 7.609 Q78.626 8.522 78.851 9.275 H24.51 Z"/></g><g id="Bold-M" transform="matrix(1 0 0 1 2281.8 1126)"><path d="M54.375 -71.355 H69.375 Q69.375 -74.48 67.188 -76.667 Q65 -78.855 61.875 -78.855 Q58.75 -78.855 56.562 -76.667 Q54.375 -74.48 54.375 -71.355 Z M88.875 -40.105 V-71.355 H106.125 V-37.23 Q101.976 -39.016 97.613 -39.685 Q93.25 -40.355 88.875 -40.105 Z M17.75 -7.98 V-71.355 H35 V-7.98 H17.75 Z M42.5 -7.98 V-71.355 H43.125 Q43.125 -79.23 48.594 -84.73 Q54.062 -90.23 61.875 -90.23 Q69.74 -90.23 75.245 -84.725 Q80.75 -79.22 80.75 -71.355 H81.375 V-38.48 Q71.25 -35.23 64.625 -26.917 Q58 -18.605 57 -7.98 H42.5 Z M88.75 0.895 H95.125 V-0.605 Q95.125 -1.931 95.875 -2.955 Q96.625 -3.98 97.625 -4.855 Q99.375 -6.51 100.688 -8.466 Q102 -10.422 102 -12.98 Q102 -16.988 99.022 -19.734 Q96.044 -22.48 91.875 -22.48 Q88.25 -22.48 85.562 -20.23 Q82.875 -17.98 81.75 -14.605 L87.625 -11.855 Q88 -13.605 89.062 -14.98 Q90.125 -16.355 91.875 -16.355 Q93.348 -16.355 94.424 -15.355 Q95.5 -14.355 95.5 -12.933 Q95.5 -11.73 94.75 -10.73 Q94 -9.73 93 -8.98 Q92 -8.105 91.062 -7.23 Q90.125 -6.355 89.5 -5.096 Q89.125 -4.151 88.938 -3.128 Q88.75 -2.105 88.75 -1.105 V0.895 Z M91.892 13.27 Q93.75 13.27 95.062 11.978 Q96.375 10.686 96.375 8.79 Q96.375 6.895 95.077 5.645 Q93.779 4.395 91.875 4.395 Q90.125 4.395 88.812 5.708 Q87.5 7.02 87.5 8.833 Q87.5 10.645 88.767 11.958 Q90.034 13.27 91.892 13.27 Z M91.875 19.77 Q81.5 19.77 74.188 12.458 Q66.875 5.145 66.875 -5.23 Q66.875 -15.605 74.188 -22.917 Q81.5 -30.23 91.875 -30.23 Q102.25 -30.23 109.562 -22.917 Q116.875 -15.605 116.875 -5.23 Q116.875 5.145 109.562 12.458 Q102.25 19.77 91.875 19.77 Z M8.125 17.77 V2.02 H57.75 Q58.75 6.395 60.938 10.395 Q63.125 14.395 66.125 17.77 H8.125 Z"/></g><g id="Semibold-M" transform="matrix(1 0 0 1 1985.97 1126)"><path d="M53.56 -68.692 H68.56 Q68.56 -71.817 66.372 -74.005 Q64.185 -76.192 61.06 -76.192 Q57.935 -76.192 55.747 -74.005 Q53.56 -71.817 53.56 -68.692 Z M87.19 -39.996 V-68.692 H103.462 V-37.882 Q99.541 -39.326 95.417 -39.868 Q91.294 -40.409 87.19 -39.996 Z M18.728 -8.958 V-68.692 H35 V-8.958 H18.728 Z M42.5 -8.958 V-68.692 H43.94 Q43.94 -75.861 48.933 -80.872 Q53.927 -85.882 61.06 -85.882 Q68.222 -85.882 73.236 -80.869 Q78.25 -75.855 78.25 -68.692 H79.69 V-38.208 Q70.109 -34.904 63.891 -26.972 Q57.674 -19.04 56.348 -8.958 H42.5 Z M88.315 0.623 H93.875 V-0.768 Q93.875 -2.115 94.625 -3.156 Q95.375 -4.197 96.375 -5.127 Q98.016 -6.66 99.247 -8.472 Q100.478 -10.284 100.478 -12.654 Q100.478 -16.387 97.708 -18.944 Q94.938 -21.502 91.06 -21.502 Q87.761 -21.502 85.236 -19.496 Q82.712 -17.491 81.641 -14.333 L86.701 -12.018 Q87.076 -13.714 88.22 -14.953 Q89.364 -16.192 91.06 -16.192 Q92.599 -16.192 93.723 -15.165 Q94.848 -14.138 94.848 -12.627 Q94.848 -11.35 94.098 -10.377 Q93.348 -9.404 92.348 -8.545 Q91.457 -7.725 90.573 -6.904 Q89.69 -6.083 89.065 -4.937 Q88.69 -4.077 88.503 -3.145 Q88.315 -2.214 88.315 -1.268 V0.623 Z M91.069 11.748 Q92.718 11.748 93.867 10.61 Q95.016 9.472 95.016 7.803 Q95.016 6.134 93.875 5.02 Q92.734 3.906 91.06 3.906 Q89.473 3.906 88.323 5.055 Q87.174 6.205 87.174 7.827 Q87.174 9.449 88.298 10.599 Q89.421 11.748 91.069 11.748 Z M91.06 19.77 Q80.685 19.77 73.372 12.458 Q66.06 5.145 66.06 -5.23 Q66.06 -15.605 73.372 -22.917 Q80.685 -30.23 91.06 -30.23 Q101.435 -30.23 108.747 -22.917 Q116.06 -15.605 116.06 -5.23 Q116.06 5.145 108.747 12.458 Q101.435 19.77 91.06 19.77 Z M8.94 14.292 V1.042 H56.772 Q57.554 4.602 59.117 7.95 Q60.679 11.297 62.81 14.292 H8.94 Z"/></g><g id="Medium-M" transform="matrix(1 0 0 1 1689.91 1126)"><path d="M52.948 -66.695 H67.948 Q67.948 -69.82 65.761 -72.007 Q63.573 -74.195 60.448 -74.195 Q57.323 -74.195 55.136 -72.007 Q52.948 -69.82 52.948 -66.695 Z M85.927 -39.915 V-66.695 H101.465 V-38.371 Q97.715 -39.559 93.77 -40.005 Q89.826 -40.45 85.927 -39.915 Z M19.462 -9.692 V-66.695 H35 V-9.692 H19.462 Z M42.5 -9.692 V-66.695 H44.552 Q44.552 -73.333 49.188 -77.977 Q53.825 -82.621 60.448 -82.621 Q67.085 -82.621 71.73 -77.976 Q76.375 -73.331 76.375 -66.695 H78.427 V-38.004 Q69.253 -34.659 63.341 -27.013 Q57.429 -19.366 55.859 -9.692 H42.5 Z M87.989 0.42 H92.938 V-0.89 Q92.938 -2.254 93.688 -3.307 Q94.438 -4.36 95.438 -5.33 Q96.997 -6.772 98.167 -8.477 Q99.337 -10.181 99.337 -12.409 Q99.337 -15.936 96.723 -18.352 Q94.108 -20.768 90.448 -20.768 Q87.394 -20.768 84.992 -18.946 Q82.59 -17.124 81.56 -14.129 L86.008 -12.14 Q86.383 -13.795 87.588 -14.932 Q88.793 -16.07 90.448 -16.07 Q92.037 -16.07 93.198 -15.022 Q94.359 -13.975 94.359 -12.398 Q94.359 -11.064 93.609 -10.112 Q92.859 -9.159 91.859 -8.219 Q91.049 -7.439 90.207 -6.659 Q89.364 -5.879 88.739 -4.817 Q88.364 -4.021 88.177 -3.158 Q87.989 -2.295 87.989 -1.39 V0.42 Z M90.452 10.607 Q91.943 10.607 92.97 9.585 Q93.997 8.562 93.997 7.063 Q93.997 5.564 92.974 4.551 Q91.95 3.539 90.448 3.539 Q88.984 3.539 87.957 4.566 Q86.929 5.593 86.929 7.073 Q86.929 8.553 87.946 9.58 Q88.962 10.607 90.452 10.607 Z M90.448 19.77 Q80.073 19.77 72.761 12.458 Q65.448 5.145 65.448 -5.23 Q65.448 -15.605 72.761 -22.917 Q80.073 -30.23 90.448 -30.23 Q100.823 -30.23 108.136 -22.917 Q115.448 -15.605 115.448 -5.23 Q115.448 5.145 108.136 12.458 Q100.823 19.77 90.448 19.77 Z M9.552 11.683 V0.308 H56.038 Q56.658 3.256 57.751 6.115 Q58.845 8.974 60.323 11.683 H9.552 Z"/></g><g id="Regular-M" transform="matrix(1 0 0 1 1394.06 1126)"><path d="M52.5 -65.23 H67.5 Q67.5 -68.355 65.312 -70.542 Q63.125 -72.73 60 -72.73 Q56.875 -72.73 54.688 -70.542 Q52.5 -68.355 52.5 -65.23 Z M85 -39.855 V-65.23 H100 V-38.73 Q96.375 -39.73 92.562 -40.105 Q88.75 -40.48 85 -39.855 Z M20 -10.23 V-65.23 H35 V-10.23 H20 Z M42.5 -10.23 V-65.23 H45 Q45 -71.48 49.375 -75.855 Q53.75 -80.23 60 -80.23 Q66.25 -80.23 70.625 -75.855 Q75 -71.48 75 -65.23 H77.5 V-37.855 Q68.625 -34.48 62.938 -27.042 Q57.25 -19.605 55.5 -10.23 H42.5 Z M87.75 0.27 H92.25 V-0.98 Q92.25 -2.355 93 -3.417 Q93.75 -4.48 94.75 -5.48 Q96.25 -6.855 97.375 -8.48 Q98.5 -10.105 98.5 -12.23 Q98.5 -15.605 96 -17.917 Q93.5 -20.23 90 -20.23 Q87.125 -20.23 84.812 -18.542 Q82.5 -16.855 81.5 -13.98 L85.5 -12.23 Q85.875 -13.855 87.125 -14.917 Q88.375 -15.98 90 -15.98 Q91.625 -15.98 92.812 -14.917 Q94 -13.855 94 -12.23 Q94 -10.855 93.25 -9.917 Q92.5 -8.98 91.5 -7.98 Q90.75 -7.23 89.938 -6.48 Q89.125 -5.73 88.5 -4.73 Q88.125 -3.98 87.938 -3.167 Q87.75 -2.355 87.75 -1.48 V0.27 Z M90 9.77 Q91.375 9.77 92.312 8.833 Q93.25 7.895 93.25 6.52 Q93.25 5.145 92.312 4.208 Q91.375 3.27 90 3.27 Q88.625 3.27 87.688 4.208 Q86.75 5.145 86.75 6.52 Q86.75 7.895 87.688 8.833 Q88.625 9.77 90 9.77 Z M90 19.77 Q79.625 19.77 72.312 12.458 Q65 5.145 65 -5.23 Q65 -15.605 72.312 -22.917 Q79.625 -30.23 90 -30.23 Q100.375 -30.23 107.688 -22.917 Q115 -15.605 115 -5.23 Q115 5.145 107.688 12.458 Q100.375 19.77 90 19.77 Z M10 9.77 V-0.23 H55.5 Q56 2.27 56.75 4.77 Q57.5 7.27 58.5 9.77 H10 Z"/></g><g id="Light-M" transform="matrix(1 0 0 1 1098.18 1126)"><path d="M52.644 -62.73 H67.644 Q67.644 -65.855 65.457 -68.042 Q63.269 -70.23 60.144 -70.23 Q57.019 -70.23 54.832 -68.042 Q52.644 -65.855 52.644 -62.73 Z M84.375 -38.653 V-62.73 H97.644 V-37.768 Q94.452 -38.624 91.072 -38.879 Q87.692 -39.134 84.375 -38.653 Z M22.644 -11.769 V-62.73 H35.913 V-11.769 H22.644 Z M41.875 -11.769 V-62.73 H46.683 Q46.683 -68.355 50.612 -72.273 Q54.542 -76.191 60.156 -76.191 Q65.769 -76.191 69.687 -72.265 Q73.606 -68.339 73.606 -62.73 H78.413 V-37.134 Q69.923 -34.24 64.284 -27.427 Q58.644 -20.615 56.942 -11.769 H41.875 Z M86.837 -1.076 H90.952 V-2.134 Q90.952 -3.509 91.702 -4.523 Q92.452 -5.538 93.471 -6.538 Q95 -7.913 96.101 -9.586 Q97.202 -11.259 97.202 -13.364 Q97.202 -16.707 94.758 -18.997 Q92.315 -21.288 88.894 -21.288 Q86.019 -21.288 83.755 -19.6 Q81.49 -17.913 80.49 -15.134 L84.202 -13.576 Q84.673 -15.201 85.952 -16.264 Q87.231 -17.326 88.894 -17.326 Q90.597 -17.326 91.842 -16.192 Q93.087 -15.057 93.087 -13.406 Q93.087 -12.009 92.288 -11.023 Q91.49 -10.038 90.49 -9.038 Q89.74 -8.288 88.976 -7.514 Q88.212 -6.74 87.587 -5.788 Q87.163 -5.086 87 -4.273 Q86.837 -3.461 86.837 -2.634 V-1.076 Z M88.894 8.135 Q90.147 8.135 91.001 7.281 Q91.856 6.427 91.856 5.174 Q91.856 3.921 91.001 3.067 Q90.147 2.212 88.894 2.212 Q87.641 2.212 86.787 3.067 Q85.933 3.921 85.933 5.174 Q85.933 6.427 86.787 7.281 Q87.641 8.135 88.894 8.135 Z M88.894 16.02 Q79.529 16.02 72.962 9.453 Q66.394 2.885 66.394 -6.48 Q66.394 -15.845 72.962 -22.413 Q79.529 -28.98 88.894 -28.98 Q98.26 -28.98 104.827 -22.413 Q111.394 -15.845 111.394 -6.48 Q111.394 2.885 104.827 9.453 Q98.26 16.02 88.894 16.02 Z M13.606 5.731 V-1.769 H56.846 Q57.202 0.155 57.736 2.013 Q58.269 3.872 58.981 5.731 H13.606 Z"/></g><g id="Thin-M" transform="matrix(1 0 0 1 802.565 1126)"><path d="M52.788 -60.23 H67.788 Q67.788 -63.355 65.601 -65.542 Q63.413 -67.73 60.288 -67.73 Q57.163 -67.73 54.976 -65.542 Q52.788 -63.355 52.788 -60.23 Z M83.75 -37.451 V-60.23 H95.288 V-36.807 Q92.529 -37.518 89.582 -37.653 Q86.635 -37.788 83.75 -37.451 Z M25.288 -13.307 V-60.23 H36.827 V-13.307 H25.288 Z M41.25 -13.307 V-60.23 H48.365 Q48.365 -65.23 51.849 -68.692 Q55.334 -72.153 60.311 -72.153 Q65.288 -72.153 68.75 -68.675 Q72.212 -65.198 72.212 -60.23 H79.327 V-36.413 Q71.221 -33.999 65.63 -27.812 Q60.038 -21.624 58.385 -13.307 H41.25 Z M85.923 -2.422 H89.654 V-3.288 Q89.654 -4.663 90.404 -5.629 Q91.154 -6.595 92.192 -7.595 Q93.75 -8.97 94.827 -10.691 Q95.904 -12.413 95.904 -14.497 Q95.904 -17.808 93.517 -20.077 Q91.13 -22.345 87.788 -22.345 Q84.913 -22.345 82.697 -20.658 Q80.481 -18.97 79.481 -16.288 L82.904 -14.922 Q83.471 -16.547 84.779 -17.61 Q86.088 -18.672 87.788 -18.672 Q89.57 -18.672 90.871 -17.465 Q92.173 -16.259 92.173 -14.582 Q92.173 -13.163 91.327 -12.129 Q90.481 -11.095 89.481 -10.095 Q88.731 -9.345 88.014 -8.547 Q87.298 -7.749 86.673 -6.845 Q86.202 -6.191 86.062 -5.379 Q85.923 -4.566 85.923 -3.788 V-2.422 Z M87.788 6.501 Q88.919 6.501 89.691 5.73 Q90.462 4.959 90.462 3.828 Q90.462 2.697 89.691 1.926 Q88.919 1.155 87.788 1.155 Q86.657 1.155 85.886 1.926 Q85.115 2.697 85.115 3.828 Q85.115 4.959 85.886 5.73 Q86.657 6.501 87.788 6.501 Z M87.788 12.27 Q79.433 12.27 73.611 6.448 Q67.788 0.626 67.788 -7.73 Q67.788 -16.086 73.611 -21.908 Q79.433 -27.73 87.788 -27.73 Q96.144 -27.73 101.966 -21.908 Q107.788 -16.086 107.788 -7.73 Q107.788 0.626 101.966 6.448 Q96.144 12.27 87.788 12.27 Z M17.212 1.693 V-3.307 H58.192 Q58.404 -1.961 58.721 -0.743 Q59.038 0.475 59.462 1.693 H17.212 Z"/></g><g id="Ultralight-M" transform="matrix(1 0 0 1 506.415 1126)"><path d="M52.875 -58.73 H67.875 Q67.875 -61.855 65.688 -64.042 Q63.5 -66.23 60.375 -66.23 Q57.25 -66.23 55.062 -64.042 Q52.875 -61.855 52.875 -58.73 Z M83.375 -36.73 V-58.73 H93.875 V-36.23 Q91.375 -36.855 88.688 -36.917 Q86 -36.98 83.375 -36.73 Z M26.875 -14.23 V-58.73 H37.375 V-14.23 H26.875 Z M40.875 -14.23 V-58.73 H49.375 Q49.375 -63.355 52.592 -66.542 Q55.809 -69.73 60.404 -69.73 Q65 -69.73 68.188 -66.522 Q71.375 -63.313 71.375 -58.73 H79.875 V-35.98 Q72 -33.855 66.438 -28.042 Q60.875 -22.23 59.25 -14.23 H40.875 Z M85.375 -3.23 H88.875 V-3.98 Q88.875 -5.355 89.625 -6.292 Q90.375 -7.23 91.425 -8.23 Q93 -9.605 94.062 -11.355 Q95.125 -13.105 95.125 -15.177 Q95.125 -18.469 92.772 -20.725 Q90.419 -22.98 87.125 -22.98 Q84.25 -22.98 82.062 -21.292 Q79.875 -19.605 78.875 -16.98 L82.125 -15.73 Q82.75 -17.355 84.076 -18.417 Q85.401 -19.48 87.125 -19.48 Q88.953 -19.48 90.289 -18.23 Q91.625 -16.98 91.625 -15.287 Q91.625 -13.855 90.75 -12.792 Q89.875 -11.73 88.875 -10.73 Q88.125 -9.98 87.438 -9.167 Q86.75 -8.355 86.125 -7.48 Q85.625 -6.855 85.5 -6.042 Q85.375 -5.23 85.375 -4.48 V-3.23 Z M87.125 5.52 Q88.183 5.52 88.904 4.799 Q89.625 4.078 89.625 3.02 Q89.625 1.962 88.904 1.241 Q88.183 0.52 87.125 0.52 Q86.067 0.52 85.346 1.241 Q84.625 1.962 84.625 3.02 Q84.625 4.078 85.346 4.799 Q86.067 5.52 87.125 5.52 Z M87.125 10.02 Q79.375 10.02 74 4.645 Q68.625 -0.73 68.625 -8.48 Q68.625 -16.23 74 -21.605 Q79.375 -26.98 87.125 -26.98 Q94.875 -26.98 100.25 -21.605 Q105.625 -16.23 105.625 -8.48 Q105.625 -0.73 100.25 4.645 Q94.875 10.02 87.125 10.02 Z M19.375 -0.73 V-4.23 H59 Q59.125 -3.23 59.312 -2.397 Q59.5 -1.563 59.75 -0.73 H19.375 Z"/></g><g id="Bold-S" transform="matrix(1 0 0 1 2294.23 696)"><path d="M41.718 -63.733 H55.92 Q55.92 -66.691 53.849 -68.762 Q51.778 -70.834 48.819 -70.834 Q45.861 -70.834 43.79 -68.762 Q41.718 -66.691 41.718 -63.733 Z M69.333 -42.528 V-63.733 H82.944 V-38.287 Q79.769 -40.288 76.376 -41.26 Q72.983 -42.232 69.333 -42.528 Z M14.794 -14.519 V-63.733 H28.404 V-14.519 H14.794 Z M33.138 -14.519 V-63.733 H34.026 Q34.026 -69.946 38.34 -74.285 Q42.655 -78.625 48.819 -78.625 Q55.025 -78.625 59.368 -74.281 Q63.712 -69.938 63.712 -63.733 H64.599 V-42.331 Q54.342 -40.654 47.587 -32.814 Q40.831 -24.973 41.422 -14.519 H33.138 Z M65.191 -11.461 H70.32 V-12.546 Q70.32 -13.623 70.882 -14.454 Q71.444 -15.286 72.194 -15.998 Q73.574 -17.304 74.659 -18.749 Q75.744 -20.193 75.744 -22.507 Q75.744 -25.628 73.365 -27.766 Q70.987 -29.904 67.657 -29.904 Q64.763 -29.904 62.616 -28.129 Q60.469 -26.354 59.57 -23.691 L64.295 -21.521 Q64.599 -22.902 65.388 -23.937 Q66.177 -24.973 67.755 -24.973 Q68.917 -24.973 69.766 -24.381 Q70.615 -23.789 70.615 -22.507 Q70.615 -21.422 69.974 -20.584 Q69.333 -19.746 68.544 -19.154 Q67.755 -18.464 67.051 -17.803 Q66.347 -17.142 65.882 -16.188 Q65.487 -15.443 65.339 -14.604 Q65.191 -13.764 65.191 -12.941 V-11.461 Z M67.758 -1.697 Q69.136 -1.697 70.122 -2.657 Q71.109 -3.617 71.109 -5.024 Q71.109 -6.431 70.144 -7.368 Q69.18 -8.305 67.766 -8.305 Q66.473 -8.305 65.487 -7.33 Q64.501 -6.354 64.501 -5.012 Q64.501 -3.67 65.44 -2.684 Q66.38 -1.697 67.758 -1.697 Z M67.733 2.642 Q59.865 2.642 54.342 -2.903 Q48.819 -8.449 48.819 -16.316 Q48.819 -24.184 54.365 -29.707 Q59.91 -35.23 67.778 -35.23 Q75.645 -35.23 81.168 -29.685 Q86.691 -24.139 86.691 -16.272 Q86.691 -8.404 81.146 -2.881 Q75.601 2.642 67.733 2.642 Z M10.356 4.22 V-7.418 H43.001 Q43.888 -3.966 45.851 -1.073 Q47.813 1.82 50.496 4.22 H10.356 Z"/></g><g id="Semibold-S" transform="matrix(1 0 0 1 1998.1 696)"><path d="M41.075 -61.632 H55.277 Q55.277 -64.59 53.206 -66.661 Q51.135 -68.733 48.176 -68.733 Q45.217 -68.733 43.146 -66.661 Q41.075 -64.59 41.075 -61.632 Z M68.004 -42.442 V-61.632 H80.843 V-38.802 Q77.848 -40.533 74.643 -41.404 Q71.439 -42.275 68.004 -42.442 Z M15.566 -15.291 V-61.632 H28.404 V-15.291 H15.566 Z M33.138 -15.291 V-61.632 H34.669 Q34.669 -67.288 38.608 -71.241 Q42.548 -75.195 48.176 -75.195 Q53.828 -75.195 57.783 -71.239 Q61.739 -67.283 61.739 -61.632 H63.27 V-42.117 Q53.442 -40.397 47.008 -32.857 Q40.573 -25.316 40.908 -15.291 H33.138 Z M64.848 -11.676 H69.333 V-12.675 Q69.333 -13.768 69.896 -14.613 Q70.458 -15.457 71.207 -16.213 Q72.502 -17.422 73.523 -18.753 Q74.543 -20.085 74.543 -22.25 Q74.543 -25.154 72.329 -27.143 Q70.114 -29.132 67.014 -29.132 Q64.377 -29.132 62.359 -27.55 Q60.34 -25.968 59.484 -23.476 L63.566 -21.65 Q63.87 -22.988 64.724 -23.916 Q65.577 -24.844 67.112 -24.844 Q68.326 -24.844 69.214 -24.231 Q70.101 -23.618 70.101 -22.266 Q70.101 -21.122 69.46 -20.305 Q68.819 -19.489 68.03 -18.811 Q67.327 -18.164 66.665 -17.546 Q66.004 -16.928 65.538 -16.063 Q65.144 -15.384 64.996 -14.617 Q64.848 -13.85 64.848 -13.069 V-11.676 Z M67.109 -2.898 Q68.321 -2.898 69.179 -3.736 Q70.037 -4.574 70.037 -5.803 Q70.037 -7.032 69.196 -7.862 Q68.356 -8.691 67.123 -8.691 Q65.959 -8.691 65.101 -7.844 Q64.243 -6.997 64.243 -5.805 Q64.243 -4.613 65.07 -3.756 Q65.897 -2.898 67.109 -2.898 Z M67.09 2.642 Q59.222 2.642 53.699 -2.903 Q48.176 -8.449 48.176 -16.316 Q48.176 -24.184 53.722 -29.707 Q59.267 -35.23 67.135 -35.23 Q75.002 -35.23 80.525 -29.685 Q86.048 -24.139 86.048 -16.272 Q86.048 -8.404 80.503 -2.881 Q74.958 2.642 67.09 2.642 Z M10.999 1.476 V-8.19 H42.229 Q42.945 -5.381 44.414 -3.002 Q45.884 -0.624 47.88 1.476 H10.999 Z"/></g><g id="Medium-S" transform="matrix(1 0 0 1 1701.85 696)"><path d="M40.593 -60.056 H54.795 Q54.795 -63.014 52.724 -65.086 Q50.653 -67.157 47.694 -67.157 Q44.735 -67.157 42.664 -65.086 Q40.593 -63.014 40.593 -60.056 Z M67.007 -42.378 V-60.056 H79.267 V-39.188 Q76.406 -40.717 73.344 -41.512 Q70.281 -42.307 67.007 -42.378 Z M16.145 -15.87 V-60.056 H28.404 V-15.87 H16.145 Z M33.138 -15.87 V-60.056 H35.151 Q35.151 -65.293 38.809 -68.958 Q42.468 -72.622 47.694 -72.622 Q52.93 -72.622 56.595 -68.957 Q60.26 -65.292 60.26 -60.056 H62.273 V-41.956 Q52.767 -40.204 46.573 -32.889 Q40.381 -25.573 40.522 -15.87 H33.138 Z M64.591 -11.837 H68.594 V-12.771 Q68.594 -13.877 69.156 -14.732 Q69.718 -15.586 70.468 -16.373 Q71.698 -17.511 72.671 -18.757 Q73.643 -20.003 73.643 -22.057 Q73.643 -24.798 71.551 -26.676 Q69.46 -28.553 66.531 -28.553 Q64.088 -28.553 62.166 -27.116 Q60.244 -25.678 59.419 -23.316 L63.019 -21.746 Q63.324 -23.052 64.225 -23.9 Q65.127 -24.748 66.63 -24.748 Q67.883 -24.748 68.799 -24.119 Q69.715 -23.489 69.715 -22.085 Q69.715 -20.897 69.074 -20.096 Q68.433 -19.296 67.644 -18.554 Q67.005 -17.938 66.376 -17.353 Q65.747 -16.767 65.281 -15.969 Q64.887 -15.34 64.739 -14.627 Q64.591 -13.914 64.591 -13.166 V-11.837 Z M66.622 -3.799 Q67.71 -3.799 68.471 -4.545 Q69.233 -5.292 69.233 -6.387 Q69.233 -7.482 68.485 -8.231 Q67.737 -8.981 66.64 -8.981 Q65.573 -8.981 64.812 -8.23 Q64.051 -7.48 64.051 -6.4 Q64.051 -5.321 64.792 -4.56 Q65.534 -3.799 66.622 -3.799 Z M66.607 2.642 Q58.74 2.642 53.217 -2.903 Q47.694 -8.449 47.694 -16.316 Q47.694 -24.184 53.239 -29.707 Q58.784 -35.23 66.652 -35.23 Q74.52 -35.23 80.043 -29.685 Q85.566 -24.139 85.566 -16.272 Q85.566 -8.404 80.02 -2.881 Q74.475 2.642 66.607 2.642 Z M11.481 -0.583 V-8.769 H41.65 Q42.237 -6.442 43.337 -4.45 Q44.437 -2.457 45.919 -0.583 H11.481 Z"/></g><g id="Regular-S" transform="matrix(1 0 0 1 1405.73 696)"><path d="M40.239 -58.9 H54.441 Q54.441 -61.859 52.37 -63.93 Q50.299 -66.001 47.34 -66.001 Q44.381 -66.001 42.31 -63.93 Q40.239 -61.859 40.239 -58.9 Z M66.276 -42.331 V-58.9 H78.111 V-39.471 Q75.35 -40.852 72.391 -41.591 Q69.432 -42.331 66.276 -42.331 Z M16.569 -16.294 V-58.9 H28.404 V-16.294 H16.569 Z M33.138 -16.294 V-58.9 H35.505 Q35.505 -63.831 38.957 -67.283 Q42.409 -70.735 47.34 -70.735 Q52.271 -70.735 55.723 -67.283 Q59.175 -63.831 59.175 -58.9 H61.542 V-41.838 Q52.271 -40.063 46.255 -32.912 Q40.239 -25.762 40.239 -16.294 H33.138 Z M64.402 -11.954 H68.051 V-12.842 Q68.051 -13.957 68.613 -14.819 Q69.176 -15.68 69.925 -16.491 Q71.109 -17.576 72.046 -18.76 Q72.983 -19.943 72.983 -21.916 Q72.983 -24.537 70.981 -26.333 Q68.98 -28.129 66.177 -28.129 Q63.876 -28.129 62.024 -26.798 Q60.173 -25.466 59.372 -23.198 L62.618 -21.817 Q62.923 -23.099 63.86 -23.888 Q64.797 -24.677 66.276 -24.677 Q67.558 -24.677 68.495 -24.036 Q69.432 -23.395 69.432 -21.953 Q69.432 -20.732 68.791 -19.943 Q68.15 -19.154 67.361 -18.365 Q66.769 -17.773 66.164 -17.211 Q65.558 -16.649 65.093 -15.899 Q64.698 -15.308 64.55 -14.635 Q64.402 -13.962 64.402 -13.237 V-11.954 Z M66.265 -4.459 Q67.262 -4.459 67.953 -5.139 Q68.643 -5.818 68.643 -6.815 Q68.643 -7.812 67.963 -8.503 Q67.284 -9.193 66.287 -9.193 Q65.29 -9.193 64.599 -8.513 Q63.909 -7.834 63.909 -6.837 Q63.909 -5.84 64.589 -5.149 Q65.268 -4.459 66.265 -4.459 Z M66.254 2.642 Q58.386 2.642 52.863 -2.903 Q47.34 -8.449 47.34 -16.316 Q47.34 -24.184 52.885 -29.707 Q58.431 -35.23 66.298 -35.23 Q74.166 -35.23 79.689 -29.685 Q85.212 -24.139 85.212 -16.272 Q85.212 -8.404 79.667 -2.881 Q74.121 2.642 66.254 2.642 Z M11.835 -2.092 V-9.193 H41.225 Q41.718 -7.22 42.547 -5.511 Q43.375 -3.801 44.48 -2.092 H11.835 Z"/></g><g id="Light-S" transform="matrix(1 0 0 1 1109.75 696)"><path d="M40.353 -56.927 H54.555 Q54.555 -59.886 52.484 -61.957 Q50.413 -64.028 47.454 -64.028 Q44.495 -64.028 42.424 -61.957 Q40.353 -59.886 40.353 -56.927 Z M65.783 -41.383 V-56.927 H76.252 V-38.712 Q73.832 -39.979 71.215 -40.624 Q68.597 -41.269 65.783 -41.383 Z M18.655 -17.508 V-56.927 H29.125 V-17.508 H18.655 Z M32.645 -17.508 V-56.927 H36.833 Q36.833 -61.365 39.933 -64.457 Q43.034 -67.548 47.463 -67.548 Q51.892 -67.548 54.983 -64.451 Q58.075 -61.353 58.075 -56.927 H62.263 V-41.269 Q53.295 -39.873 47.317 -33.216 Q41.339 -26.559 41.377 -17.508 H32.645 Z M63.681 -13.017 H67.027 V-13.753 Q67.027 -14.868 67.589 -15.691 Q68.151 -16.515 68.916 -17.326 Q70.122 -18.411 71.04 -19.632 Q71.958 -20.854 71.958 -22.81 Q71.958 -25.406 70.001 -27.185 Q68.044 -28.964 65.305 -28.964 Q63.003 -28.964 61.19 -27.632 Q59.376 -26.301 58.576 -24.108 L61.594 -22.879 Q61.974 -24.161 62.934 -24.95 Q63.894 -25.739 65.403 -25.739 Q66.747 -25.739 67.729 -25.041 Q68.711 -24.343 68.711 -22.88 Q68.711 -21.643 68.032 -20.816 Q67.353 -19.989 66.564 -19.2 Q65.972 -18.608 65.405 -18.027 Q64.837 -17.446 64.372 -16.734 Q63.939 -16.18 63.81 -15.507 Q63.681 -14.834 63.681 -14.147 V-13.017 Z M65.393 -5.749 Q66.293 -5.749 66.918 -6.363 Q67.543 -6.977 67.543 -7.878 Q67.543 -8.778 66.929 -9.403 Q66.315 -10.028 65.414 -10.028 Q64.514 -10.028 63.889 -9.414 Q63.264 -8.799 63.264 -7.899 Q63.264 -6.998 63.878 -6.374 Q64.492 -5.749 65.393 -5.749 Z M65.381 -0.317 Q58.31 -0.317 53.375 -5.274 Q48.44 -10.232 48.44 -17.303 Q48.44 -24.374 53.397 -29.309 Q58.355 -34.244 65.426 -34.244 Q72.497 -34.244 77.432 -29.286 Q82.367 -24.329 82.367 -17.258 Q82.367 -10.187 77.41 -5.252 Q72.452 -0.317 65.381 -0.317 Z M14.68 -5.279 V-10.407 H42.287 Q42.667 -8.89 43.324 -7.686 Q43.982 -6.482 44.859 -5.279 H14.68 Z"/></g><g id="Thin-S" transform="matrix(1 0 0 1 814.015 696)"><path d="M40.467 -54.955 H54.669 Q54.669 -57.914 52.598 -59.985 Q50.526 -62.056 47.568 -62.056 Q44.609 -62.056 42.538 -59.985 Q40.467 -57.914 40.467 -54.955 Z M65.29 -40.434 V-54.955 H74.394 V-37.954 Q72.315 -39.107 70.039 -39.657 Q67.763 -40.207 65.29 -40.434 Z M20.742 -18.722 V-54.955 H29.845 V-18.722 H20.742 Z M32.152 -18.722 V-54.955 H38.16 Q38.16 -58.9 40.909 -61.631 Q43.658 -64.362 47.585 -64.362 Q51.513 -64.362 54.244 -61.618 Q56.975 -58.875 56.975 -54.955 H62.983 V-40.7 Q54.32 -39.683 48.379 -33.519 Q42.439 -27.355 42.515 -18.722 H32.152 Z M62.961 -14.079 H66.003 V-14.663 Q66.003 -15.778 66.565 -16.564 Q67.127 -17.349 67.907 -18.16 Q69.136 -19.245 70.035 -20.504 Q70.934 -21.764 70.934 -23.705 Q70.934 -26.275 69.022 -28.037 Q67.11 -29.798 64.433 -29.798 Q62.131 -29.798 60.355 -28.467 Q58.58 -27.135 57.779 -25.018 L60.57 -23.941 Q61.026 -25.223 62.009 -26.012 Q62.992 -26.801 64.531 -26.801 Q65.937 -26.801 66.964 -26.046 Q67.991 -25.292 67.991 -23.808 Q67.991 -22.553 67.274 -21.688 Q66.557 -20.823 65.768 -20.034 Q65.176 -19.442 64.646 -18.842 Q64.117 -18.242 63.651 -17.569 Q63.181 -17.053 63.071 -16.38 Q62.961 -15.706 62.961 -15.057 V-14.079 Z M64.52 -7.038 Q65.325 -7.038 65.884 -7.587 Q66.443 -8.135 66.443 -8.94 Q66.443 -9.744 65.895 -10.303 Q65.346 -10.862 64.542 -10.862 Q63.737 -10.862 63.178 -10.314 Q62.619 -9.765 62.619 -8.961 Q62.619 -8.157 63.168 -7.597 Q63.716 -7.038 64.52 -7.038 Z M64.509 -3.275 Q58.234 -3.275 53.887 -7.645 Q49.54 -12.014 49.54 -18.289 Q49.54 -24.563 53.91 -28.91 Q58.279 -33.257 64.553 -33.257 Q70.828 -33.257 75.175 -28.888 Q79.522 -24.519 79.522 -18.244 Q79.522 -11.97 75.153 -7.623 Q70.783 -3.275 64.509 -3.275 Z M17.525 -8.465 V-11.621 H43.349 Q43.615 -10.559 44.102 -9.861 Q44.589 -9.163 45.238 -8.465 H17.525 Z"/></g><g id="Ultralight-S" transform="matrix(1 0 0 1 517.792 696)"><path d="M40.535 -53.771 H54.737 Q54.737 -56.73 52.666 -58.801 Q50.595 -60.872 47.636 -60.872 Q44.677 -60.872 42.606 -58.801 Q40.535 -56.73 40.535 -53.771 Z M64.994 -39.865 V-53.771 H73.278 V-37.498 Q71.404 -38.583 69.333 -39.076 Q67.262 -39.569 64.994 -39.865 Z M21.993 -19.45 V-53.771 H30.278 V-19.45 H21.993 Z M31.856 -19.45 V-53.771 H38.957 Q38.957 -57.421 41.495 -59.936 Q44.033 -62.45 47.659 -62.45 Q51.285 -62.45 53.8 -59.919 Q56.315 -57.388 56.315 -53.771 H63.416 V-40.358 Q54.934 -39.569 49.017 -33.701 Q43.099 -27.833 43.198 -19.45 H31.856 Z M62.528 -14.716 H65.388 V-15.209 Q65.388 -16.324 65.951 -17.087 Q66.513 -17.85 67.302 -18.661 Q68.544 -19.746 69.432 -21.028 Q70.32 -22.31 70.32 -24.241 Q70.32 -26.797 68.434 -28.548 Q66.549 -30.299 63.909 -30.299 Q61.607 -30.299 59.855 -28.967 Q58.102 -27.636 57.301 -25.565 L59.956 -24.578 Q60.457 -25.861 61.454 -26.65 Q62.451 -27.439 64.008 -27.439 Q65.45 -27.439 66.504 -26.65 Q67.558 -25.861 67.558 -24.365 Q67.558 -23.099 66.818 -22.211 Q66.079 -21.324 65.29 -20.535 Q64.698 -19.943 64.191 -19.332 Q63.684 -18.72 63.219 -18.069 Q62.726 -17.576 62.627 -16.903 Q62.528 -16.23 62.528 -15.604 V-14.716 Z M63.997 -7.812 Q64.744 -7.812 65.263 -8.321 Q65.783 -8.83 65.783 -9.577 Q65.783 -10.323 65.274 -10.843 Q64.765 -11.363 64.018 -11.363 Q63.272 -11.363 62.752 -10.854 Q62.232 -10.345 62.232 -9.598 Q62.232 -8.852 62.741 -8.332 Q63.25 -7.812 63.997 -7.812 Z M63.985 -5.051 Q58.189 -5.051 54.194 -9.067 Q50.2 -13.084 50.2 -18.881 Q50.2 -24.677 54.217 -28.671 Q58.233 -32.666 64.03 -32.666 Q69.827 -32.666 73.821 -28.649 Q77.815 -24.633 77.815 -18.836 Q77.815 -13.039 73.799 -9.045 Q69.782 -5.051 63.985 -5.051 Z M19.232 -10.376 V-12.349 H43.987 Q44.184 -11.56 44.569 -11.165 Q44.953 -10.771 45.466 -10.376 H19.232 Z"/></g></g></svg>